{
  "Title": "The Truth About The Crusades",
  "Id": "-ilFbbk9jw4",
  "Transcript": [
    {
      "text": "hi everybody's defend molyneux from",
      "start": 0,
      "duration": 2.34
    },
    {
      "text": "freedomain radio hope you're doing well",
      "start": 1.17,
      "duration": 3.21
    },
    {
      "text": "wouldn't be great if when society faced",
      "start": 2.34,
      "duration": 4.11
    },
    {
      "text": "a real crisis it could just shine out",
      "start": 4.38,
      "duration": 5.1
    },
    {
      "text": "the big h flashlight the search like we",
      "start": 6.45,
      "duration": 5.34
    },
    {
      "text": "need a historian we need a historian out",
      "start": 9.48,
      "duration": 4.26
    },
    {
      "text": "here to give us some perspective well of",
      "start": 11.79,
      "duration": 4.349
    },
    {
      "text": "course there are a lot of Middle Eastern",
      "start": 13.74,
      "duration": 4.379
    },
    {
      "text": "people on the move of course majority of",
      "start": 16.139,
      "duration": 4.111
    },
    {
      "text": "them Muslims this is not the first time",
      "start": 18.119,
      "duration": 3.541
    },
    {
      "text": "in history this has happened I'm not",
      "start": 20.25,
      "duration": 3.06
    },
    {
      "text": "saying this is exactly the same as the",
      "start": 21.66,
      "duration": 4.74
    },
    {
      "text": "past but those who do not understand the",
      "start": 23.31,
      "duration": 5.25
    },
    {
      "text": "past are condemned to repeat it",
      "start": 26.4,
      "duration": 5.909
    },
    {
      "text": "as the saying goes so we need to put",
      "start": 28.56,
      "duration": 6.3
    },
    {
      "text": "things in perspective because this is",
      "start": 32.309,
      "duration": 5.461
    },
    {
      "text": "kind of general historical principle",
      "start": 34.86,
      "duration": 6.15
    },
    {
      "text": "which goes like this Europeans bad bad",
      "start": 37.77,
      "duration": 6.809
    },
    {
      "text": "Europeans slavery colonialism smallpox",
      "start": 41.01,
      "duration": 7.4
    },
    {
      "text": "blankets genocide bad Europeans and",
      "start": 44.579,
      "duration": 6.39
    },
    {
      "text": "historically really doesn't hold up as",
      "start": 48.41,
      "duration": 6.399
    },
    {
      "text": "well as you'd think so let's dig back",
      "start": 50.969,
      "duration": 7.14
    },
    {
      "text": "into history figure out how Europe and",
      "start": 54.809,
      "duration": 5.011
    },
    {
      "text": "the Muslims have got along in the past",
      "start": 58.109,
      "duration": 3.351
    },
    {
      "text": "and see if we can untangle some",
      "start": 59.82,
      "duration": 4.559
    },
    {
      "text": "potentials for a different future from",
      "start": 61.46,
      "duration": 4.42
    },
    {
      "text": "the past that's really the point of",
      "start": 64.379,
      "duration": 3.751
    },
    {
      "text": "history to take us off the train tracks",
      "start": 65.88,
      "duration": 5.43
    },
    {
      "text": "of ignorant inevitability and give some",
      "start": 68.13,
      "duration": 5.73
    },
    {
      "text": "free will in the matter so this is an",
      "start": 71.31,
      "duration": 4.41
    },
    {
      "text": "important and essential presentation",
      "start": 73.86,
      "duration": 6.63
    },
    {
      "text": "this is the truth about the Crusades",
      "start": 75.72,
      "duration": 6.77
    },
    {
      "text": "really the truth about Christians and",
      "start": 80.49,
      "duration": 6.059
    },
    {
      "text": "Islam in history so Islam of course",
      "start": 82.49,
      "duration": 6.61
    },
    {
      "text": "developed in the Middle East in the",
      "start": 86.549,
      "duration": 5.851
    },
    {
      "text": "early 17th century 622 to be exact now",
      "start": 89.1,
      "duration": 5.909
    },
    {
      "text": "it's kind of weird because not a lot of",
      "start": 92.4,
      "duration": 4.679
    },
    {
      "text": "history in Europe in the Dark Ages and",
      "start": 95.009,
      "duration": 4.021
    },
    {
      "text": "so we kind of sat in the Quattrocento we",
      "start": 97.079,
      "duration": 4.951
    },
    {
      "text": "kind of start in the 11 1200 so it's",
      "start": 99.03,
      "duration": 5.46
    },
    {
      "text": "kind of weird I mean I when I say 622",
      "start": 102.03,
      "duration": 3.96
    },
    {
      "text": "rather than 1620 doulas feels like a",
      "start": 104.49,
      "duration": 3.51
    },
    {
      "text": "stardate but let's just swallow that and",
      "start": 105.99,
      "duration": 7.25
    },
    {
      "text": "keep going now early in the 7th century",
      "start": 108,
      "duration": 7.92
    },
    {
      "text": "Islam developed by at the end of the 7th",
      "start": 113.24,
      "duration": 5.409
    },
    {
      "text": "century it had conquered most of the",
      "start": 115.92,
      "duration": 5.19
    },
    {
      "text": "Middle East and North Africa this was",
      "start": 118.649,
      "duration": 4.801
    },
    {
      "text": "not the most peaceful conversion the",
      "start": 121.11,
      "duration": 7.08
    },
    {
      "text": "world has ever seen so let's get started",
      "start": 123.45,
      "duration": 6.119
    },
    {
      "text": "see before Islam the Middle East was",
      "start": 128.19,
      "duration": 3.9
    },
    {
      "text": "populated by millions of Christians and",
      "start": 129.569,
      "duration": 4.181
    },
    {
      "text": "zoo and Jews and xerath",
      "start": 132.09,
      "duration": 4.84
    },
    {
      "text": "and Arab polytheists was home some of",
      "start": 133.75,
      "duration": 5
    },
    {
      "text": "the largest centers of greco-roman",
      "start": 136.93,
      "duration": 4.5
    },
    {
      "text": "civilization and Christianity sir Astrid",
      "start": 138.75,
      "duration": 4.63
    },
    {
      "text": "ISM the greatest religion because it",
      "start": 141.43,
      "duration": 4.08
    },
    {
      "text": "gave us Farouk pulsar one Freddie",
      "start": 143.38,
      "duration": 4.98
    },
    {
      "text": "Mercury nonetheless the Christian Church",
      "start": 145.51,
      "duration": 5.46
    },
    {
      "text": "back in the day had five cannon five",
      "start": 148.36,
      "duration": 4.59
    },
    {
      "text": "major jurisdictions or Patriarchate's",
      "start": 150.97,
      "duration": 4.34
    },
    {
      "text": "whose capitals were the following cities",
      "start": 152.95,
      "duration": 5.55
    },
    {
      "text": "Alexandria in modern-day Egypt Antioch",
      "start": 155.31,
      "duration": 4.99
    },
    {
      "text": "located in modern-day Turkey and known",
      "start": 158.5,
      "duration": 4.37
    },
    {
      "text": "as the cradle of Christianity",
      "start": 160.3,
      "duration": 4.56
    },
    {
      "text": "Constantinople yes it's a tongue-twister",
      "start": 162.87,
      "duration": 4.69
    },
    {
      "text": "of a song and is located in modern-day",
      "start": 164.86,
      "duration": 5.4
    },
    {
      "text": "Istanbul Turkey Jerusalem of course the",
      "start": 167.56,
      "duration": 4.74
    },
    {
      "text": "holy ground of Christianity Judaism and",
      "start": 170.26,
      "duration": 4.08
    },
    {
      "text": "Islam and number five",
      "start": 172.3,
      "duration": 5.909
    },
    {
      "text": "Rome so this is where it started now in",
      "start": 174.34,
      "duration": 5.97
    },
    {
      "text": "613 sir a streon Persians",
      "start": 178.209,
      "duration": 5.301
    },
    {
      "text": "captured Antioch in modern-day Turkey",
      "start": 180.31,
      "duration": 5.52
    },
    {
      "text": "several decades later the Persian Empire",
      "start": 183.51,
      "duration": 4.42
    },
    {
      "text": "was conquered by the Muslims and Antioch",
      "start": 185.83,
      "duration": 6.99
    },
    {
      "text": "came under Muslim rule 637 Jerusalem was",
      "start": 187.93,
      "duration": 7.65
    },
    {
      "text": "captured by invading Muslims creating",
      "start": 192.82,
      "duration": 4.41
    },
    {
      "text": "great fodder for Chris de Burgh songs in",
      "start": 195.58,
      "duration": 5.04
    },
    {
      "text": "641 Alexandria fell in Muslim hands into",
      "start": 197.23,
      "duration": 5.009
    },
    {
      "text": "Muslim hands during the Muslim conquest",
      "start": 200.62,
      "duration": 8.25
    },
    {
      "text": "of Egypt now Christianity kind of a",
      "start": 202.239,
      "duration": 9.811
    },
    {
      "text": "Middle Eastern religion ah not really",
      "start": 208.87,
      "duration": 5.43
    },
    {
      "text": "Christian countries left in the Middle",
      "start": 212.05,
      "duration": 4.2
    },
    {
      "text": "East you could argue Lebanon with its",
      "start": 214.3,
      "duration": 4.53
    },
    {
      "text": "sort of split power but Christianity is",
      "start": 216.25,
      "duration": 4.68
    },
    {
      "text": "kind of fading there so one historian",
      "start": 218.83,
      "duration": 3.84
    },
    {
      "text": "has noted quote less than a generation",
      "start": 220.93,
      "duration": 4.17
    },
    {
      "text": "after the prophets death Christian North",
      "start": 222.67,
      "duration": 5.129
    },
    {
      "text": "Africa home of theologians such as st.",
      "start": 225.1,
      "duration": 4.77
    },
    {
      "text": "Augustine and martyrs like Saints",
      "start": 227.799,
      "duration": 5.341
    },
    {
      "text": "Felicity and perpetuate Perpetua who was",
      "start": 229.87,
      "duration": 4.95
    },
    {
      "text": "central to the development of Christian",
      "start": 233.14,
      "duration": 3.659
    },
    {
      "text": "tradition and thought and rich with",
      "start": 234.82,
      "duration": 4.26
    },
    {
      "text": "Christian history had fallen to Islam",
      "start": 236.799,
      "duration": 5.551
    },
    {
      "text": "right Christian North Africa think of",
      "start": 239.08,
      "duration": 5.4
    },
    {
      "text": "Christianity in North Africa not anymore",
      "start": 242.35,
      "duration": 4.5
    },
    {
      "text": "in short North Africa from Egypt to",
      "start": 244.48,
      "duration": 4.17
    },
    {
      "text": "present-day Morocco was a vibrant part",
      "start": 246.85,
      "duration": 4.98
    },
    {
      "text": "of the pre-islamic Christian world how",
      "start": 248.65,
      "duration": 4.589
    },
    {
      "text": "many Christians are there in North",
      "start": 251.83,
      "duration": 5.61
    },
    {
      "text": "Africa today and what happened to all",
      "start": 253.239,
      "duration": 10.481
    },
    {
      "text": "the millions of the rest so",
      "start": 257.44,
      "duration": 10.61
    },
    {
      "text": "let's get into Constantinople sieges",
      "start": 263.72,
      "duration": 6.789
    },
    {
      "text": "plural of Constantinople Constantinople",
      "start": 268.05,
      "duration": 4.14
    },
    {
      "text": "the capital of the Christian Byzantine",
      "start": 270.509,
      "duration": 3.72
    },
    {
      "text": "Empire was first perceived by Muslim",
      "start": 272.19,
      "duration": 4.44
    },
    {
      "text": "forces in 674 after four years of",
      "start": 274.229,
      "duration": 4.351
    },
    {
      "text": "fighting the Muslims were finally",
      "start": 276.63,
      "duration": 5.189
    },
    {
      "text": "repelled quote from one historian the",
      "start": 278.58,
      "duration": 4.95
    },
    {
      "text": "Arab attack was the fiercest which had",
      "start": 281.819,
      "duration": 3.181
    },
    {
      "text": "ever been launched by the infidels",
      "start": 283.53,
      "duration": 4.41
    },
    {
      "text": "against the Christian stronghold and the",
      "start": 285,
      "duration": 5.099
    },
    {
      "text": "Byzantine capital was the last dam left",
      "start": 287.94,
      "duration": 5.849
    },
    {
      "text": "to withstand the rising Muslim tide the",
      "start": 290.099,
      "duration": 6.031
    },
    {
      "text": "fact that it held saved not only the",
      "start": 293.789,
      "duration": 3.901
    },
    {
      "text": "Byzantine Empire but the whole of",
      "start": 296.13,
      "duration": 4.65
    },
    {
      "text": "European civilization so Roman Empire",
      "start": 297.69,
      "duration": 6.12
    },
    {
      "text": "101 of course there was an Eastern part",
      "start": 300.78,
      "duration": 5.22
    },
    {
      "text": "and a western part of the Roman Empire",
      "start": 303.81,
      "duration": 3.449
    },
    {
      "text": "the rope the western part of course",
      "start": 306,
      "duration": 2.669
    },
    {
      "text": "valve at the fall of Rome the eastern",
      "start": 307.259,
      "duration": 5.15
    },
    {
      "text": "part lasted several hundred years longer",
      "start": 308.669,
      "duration": 6.9
    },
    {
      "text": "the Muslims returned to Constantinople",
      "start": 312.409,
      "duration": 4.901
    },
    {
      "text": "with vengeance apparently they'd left",
      "start": 315.569,
      "duration": 4.59
    },
    {
      "text": "their keys and scimitars behind in 717",
      "start": 317.31,
      "duration": 6.09
    },
    {
      "text": "and laid siege to the city once more the",
      "start": 320.159,
      "duration": 4.98
    },
    {
      "text": "Byzantines aware of the Muslim threat",
      "start": 323.4,
      "duration": 4.199
    },
    {
      "text": "had signed a treaty with people Geary an",
      "start": 325.139,
      "duration": 5.071
    },
    {
      "text": "emperor Turville the previous year under",
      "start": 327.599,
      "duration": 4.56
    },
    {
      "text": "terms of the treaty Turville was bound",
      "start": 330.21,
      "duration": 3.72
    },
    {
      "text": "to help repel the Muslims at",
      "start": 332.159,
      "duration": 4.44
    },
    {
      "text": "Constantinople and so the Bulgarian army",
      "start": 333.93,
      "duration": 4.859
    },
    {
      "text": "attacked the invading Arabs and forced",
      "start": 336.599,
      "duration": 5.25
    },
    {
      "text": "them to fight a war on two fronts as",
      "start": 338.789,
      "duration": 5.761
    },
    {
      "text": "happened to Germany in the first world",
      "start": 341.849,
      "duration": 5.221
    },
    {
      "text": "war and again in the Second World War",
      "start": 344.55,
      "duration": 6.45
    },
    {
      "text": "not a very easy thing to survive now",
      "start": 347.07,
      "duration": 5.61
    },
    {
      "text": "Bulgarians by the way did convert to",
      "start": 351,
      "duration": 4.77
    },
    {
      "text": "Christianity two centuries later largely",
      "start": 352.68,
      "duration": 4.95
    },
    {
      "text": "because of the strong cultural influence",
      "start": 355.77,
      "duration": 6.03
    },
    {
      "text": "of the Byzantine Empire now sandwiched",
      "start": 357.63,
      "duration": 5.819
    },
    {
      "text": "between the walls of Constantinople and",
      "start": 361.8,
      "duration": 3.419
    },
    {
      "text": "the Bulgarian forces the Muslims were",
      "start": 363.449,
      "duration": 3.84
    },
    {
      "text": "gradually worn down and eventually lost",
      "start": 365.219,
      "duration": 6.031
    },
    {
      "text": "to a Bulgarian onslaught the successful",
      "start": 367.289,
      "duration": 5.581
    },
    {
      "text": "defense of Constantinople was one of the",
      "start": 371.25,
      "duration": 3.659
    },
    {
      "text": "two great victories of the eighth",
      "start": 372.87,
      "duration": 4.199
    },
    {
      "text": "century and the Barbarian Christian",
      "start": 374.909,
      "duration": 4.07
    },
    {
      "text": "Alliance prevented Muslims from entering",
      "start": 377.069,
      "duration": 5.1
    },
    {
      "text": "Europe and doing to Europe what they had",
      "start": 378.979,
      "duration": 5.731
    },
    {
      "text": "done to the Middle East and North Africa",
      "start": 382.169,
      "duration": 4.65
    },
    {
      "text": "indeed when the Byzantine Empire was",
      "start": 384.71,
      "duration": 4.15
    },
    {
      "text": "finally conquered by the Muslim Ottomans",
      "start": 386.819,
      "duration": 5.041
    },
    {
      "text": "in 1453 there were Muslim armies at the",
      "start": 388.86,
      "duration": 4.83
    },
    {
      "text": "gates of Vienna in the heart of Europe",
      "start": 391.86,
      "duration": 4.77
    },
    {
      "text": "within - within less than a century",
      "start": 393.69,
      "duration": 5.88
    },
    {
      "text": "within less than a century so this idea",
      "start": 396.63,
      "duration": 4.77
    },
    {
      "text": "that you can have got to keep them out",
      "start": 399.57,
      "duration": 3.63
    },
    {
      "text": "otherwise they're going to overrun you",
      "start": 401.4,
      "duration": 6.84
    },
    {
      "text": "well it was proven true in 1453 after",
      "start": 403.2,
      "duration": 11.73
    },
    {
      "text": "1453 so Italy Muslims first invaded",
      "start": 408.24,
      "duration": 8.49
    },
    {
      "text": "southern Italy which was then a part of",
      "start": 414.93,
      "duration": 4.16
    },
    {
      "text": "the Byzantine Empire in 667 and",
      "start": 416.73,
      "duration": 4.68
    },
    {
      "text": "relentless raids continued until the",
      "start": 419.09,
      "duration": 4.18
    },
    {
      "text": "island of Sicily was eventually fully",
      "start": 421.41,
      "duration": 5.19
    },
    {
      "text": "conquered in 902 an Islamic state the",
      "start": 423.27,
      "duration": 5.07
    },
    {
      "text": "emirate of sicily was established on the",
      "start": 426.6,
      "duration": 3.33
    },
    {
      "text": "island and muslims would remain in",
      "start": 428.34,
      "duration": 10.89
    },
    {
      "text": "control of it for 264 years now when the",
      "start": 429.93,
      "duration": 12.24
    },
    {
      "text": "Muslims get an island or get an access",
      "start": 439.23,
      "duration": 5.25
    },
    {
      "text": "to the sea at least at this point in",
      "start": 442.17,
      "duration": 4.23
    },
    {
      "text": "history well they kind of went raiding",
      "start": 444.48,
      "duration": 3.72
    },
    {
      "text": "and took millions of Europeans to",
      "start": 446.4,
      "duration": 4.26
    },
    {
      "text": "absolutely brutal into absolutely brutal",
      "start": 448.2,
      "duration": 4.38
    },
    {
      "text": "slavery which we'll get into more of in",
      "start": 450.66,
      "duration": 2.64
    },
    {
      "text": "a few minutes",
      "start": 452.58,
      "duration": 2.94
    },
    {
      "text": "so using Sicily as the base of their",
      "start": 453.3,
      "duration": 4.26
    },
    {
      "text": "operations Muslim began to rage the",
      "start": 455.52,
      "duration": 3.45
    },
    {
      "text": "southern part of the Italian peninsula",
      "start": 457.56,
      "duration": 3.69
    },
    {
      "text": "for hundreds of years the islands of",
      "start": 458.97,
      "duration": 5.22
    },
    {
      "text": "Corsica and Sardinia were also",
      "start": 461.25,
      "duration": 5.87
    },
    {
      "text": "repeatedly ravished by Muslim raids in",
      "start": 464.19,
      "duration": 5.67
    },
    {
      "text": "846 the Muslims launched an attack on",
      "start": 467.12,
      "duration": 6.37
    },
    {
      "text": "Rome but was stopped by Emperor or elion",
      "start": 469.86,
      "duration": 6.36
    },
    {
      "text": "walls around the city I guess used the",
      "start": 473.49,
      "duration": 4.26
    },
    {
      "text": "Trump of his day Muslims back then",
      "start": 476.22,
      "duration": 3.51
    },
    {
      "text": "clearly weren't as proficient in the use",
      "start": 477.75,
      "duration": 4.59
    },
    {
      "text": "of ladders as modern-day Mexicans along",
      "start": 479.73,
      "duration": 5.91
    },
    {
      "text": "the southern US border the invading",
      "start": 482.34,
      "duration": 6.24
    },
    {
      "text": "Muslims sacked the outskirts of the city",
      "start": 485.64,
      "duration": 4.89
    },
    {
      "text": "killing men and women regardless of",
      "start": 488.58,
      "duration": 3.63
    },
    {
      "text": "their age but most importantly with",
      "start": 490.53,
      "duration": 3.48
    },
    {
      "text": "regards to Christianity at least they",
      "start": 492.21,
      "duration": 3.6
    },
    {
      "text": "looted some Peters and simples",
      "start": 494.01,
      "duration": 3.3
    },
    {
      "text": "basilica's of basilica's a kind of",
      "start": 495.81,
      "duration": 3.27
    },
    {
      "text": "church where you go as a pilgrimage",
      "start": 497.31,
      "duration": 4.35
    },
    {
      "text": "these basilica's were located outside",
      "start": 499.08,
      "duration": 5.52
    },
    {
      "text": "the city walls not only did the Muslim",
      "start": 501.66,
      "duration": 4.86
    },
    {
      "text": "invaders desecrate the burial sites of",
      "start": 504.6,
      "duration": 3.33
    },
    {
      "text": "some Peter and simple but they also",
      "start": 506.52,
      "duration": 3.33
    },
    {
      "text": "pillaged two of the holiest places in",
      "start": 507.93,
      "duration": 4.02
    },
    {
      "text": "all of Christendom I don't know where",
      "start": 509.85,
      "duration": 4.98
    },
    {
      "text": "you are in your Christian theology st.",
      "start": 511.95,
      "duration": 5.49
    },
    {
      "text": "Peter and st. Paul kind up there in",
      "start": 514.83,
      "duration": 7.889
    },
    {
      "text": "terms of importance so a second attack",
      "start": 517.44,
      "duration": 7.649
    },
    {
      "text": "on Rome was thwarted in 849 after a",
      "start": 522.719,
      "duration": 4.111
    },
    {
      "text": "coalition of maritime cities joined the",
      "start": 525.089,
      "duration": 3.351
    },
    {
      "text": "papal forces to defeat an invading",
      "start": 526.83,
      "duration": 3.72
    },
    {
      "text": "Muslim fleet",
      "start": 528.44,
      "duration": 4.72
    },
    {
      "text": "the Muslim occupation of Italy posed a",
      "start": 530.55,
      "duration": 5.34
    },
    {
      "text": "serious threat to Rome for centuries the",
      "start": 533.16,
      "duration": 5.67
    },
    {
      "text": "last Arab strongholds in southern Italy",
      "start": 535.89,
      "duration": 7.259
    },
    {
      "text": "fell in 1091 ah look at that four years",
      "start": 538.83,
      "duration": 6.18
    },
    {
      "text": "before a pope preached about the First",
      "start": 543.149,
      "duration": 4.921
    },
    {
      "text": "Crusade I wonder if that's a coincidence",
      "start": 545.01,
      "duration": 6.87
    },
    {
      "text": "or not in the early 10th century a",
      "start": 548.07,
      "duration": 5.79
    },
    {
      "text": "Christian alliance and early precursor",
      "start": 551.88,
      "duration": 4.62
    },
    {
      "text": "to the Crusades was formed between Rome",
      "start": 553.86,
      "duration": 5.01
    },
    {
      "text": "the Franks the Byzantines the lombards",
      "start": 556.5,
      "duration": 5.13
    },
    {
      "text": "who are a Germanic tribe and the Italian",
      "start": 558.87,
      "duration": 4.65
    },
    {
      "text": "city of Naples well the reason you",
      "start": 561.63,
      "duration": 3.63
    },
    {
      "text": "probably haven't heard about it is",
      "start": 563.52,
      "duration": 4.05
    },
    {
      "text": "because the goal of the Alliance was to",
      "start": 565.26,
      "duration": 4.79
    },
    {
      "text": "repel the Muslim invaders of Italy",
      "start": 567.57,
      "duration": 5.76
    },
    {
      "text": "indeed Christian forces led by Pope John",
      "start": 570.05,
      "duration": 6.7
    },
    {
      "text": "the tenth successfully destroyed a key",
      "start": 573.33,
      "duration": 6.06
    },
    {
      "text": "Muslim fortress in central Italy in 915",
      "start": 576.75,
      "duration": 5.82
    },
    {
      "text": "this is one of the few times in history",
      "start": 579.39,
      "duration": 6.42
    },
    {
      "text": "when a pope has led an army into battle",
      "start": 582.57,
      "duration": 6.57
    },
    {
      "text": "Pope the 10th of course Pope the X I",
      "start": 585.81,
      "duration": 5.43
    },
    {
      "text": "imagine a forefather of Malcolm X or",
      "start": 589.14,
      "duration": 2.88
    },
    {
      "text": "Malcolm the 10th",
      "start": 591.24,
      "duration": 4.77
    },
    {
      "text": "I guess I'll look that up later so let's",
      "start": 592.02,
      "duration": 5.73
    },
    {
      "text": "just do a quick brief summary here we",
      "start": 596.01,
      "duration": 4.139
    },
    {
      "text": "talked about five key Christian capitals",
      "start": 597.75,
      "duration": 6.42
    },
    {
      "text": "well by the end of the 7th century three",
      "start": 600.149,
      "duration": 5.94
    },
    {
      "text": "of the five Christian capitals were",
      "start": 604.17,
      "duration": 4.71
    },
    {
      "text": "under Muslim control Constantinople was",
      "start": 606.089,
      "duration": 5.581
    },
    {
      "text": "besieged twice by Muslims and Rome was",
      "start": 608.88,
      "duration": 4.44
    },
    {
      "text": "attacked and had its holy shrines",
      "start": 611.67,
      "duration": 6.15
    },
    {
      "text": "pillaged and desecrated so you could see",
      "start": 613.32,
      "duration": 8.34
    },
    {
      "text": "why the Christians might be rather upset",
      "start": 617.82,
      "duration": 6.54
    },
    {
      "text": "by these continual Muslim onslaughts",
      "start": 621.66,
      "duration": 4.919
    },
    {
      "text": "and predations and the stealing of wide",
      "start": 624.36,
      "duration": 4.05
    },
    {
      "text": "swaths of populations and selling it",
      "start": 626.579,
      "duration": 4.921
    },
    {
      "text": "into brutal slavery but wait there's",
      "start": 628.41,
      "duration": 7.29
    },
    {
      "text": "more let's get into it and the reason",
      "start": 631.5,
      "duration": 5.76
    },
    {
      "text": "why this is important is that the",
      "start": 635.7,
      "duration": 4.32
    },
    {
      "text": "Europeans you know gone through a fairly",
      "start": 637.26,
      "duration": 5.01
    },
    {
      "text": "self critical phrase faze at least since",
      "start": 640.02,
      "duration": 4.41
    },
    {
      "text": "the beginning of the 20th century",
      "start": 642.27,
      "duration": 4.02
    },
    {
      "text": "you know let's review colonialism let's",
      "start": 644.43,
      "duration": 3.36
    },
    {
      "text": "see whether it's a good idea let's look",
      "start": 646.29,
      "duration": 3.299
    },
    {
      "text": "at our participation in slavery and see",
      "start": 647.79,
      "duration": 3.63
    },
    {
      "text": "whether that was a good idea kind of",
      "start": 649.589,
      "duration": 3.631
    },
    {
      "text": "gone through a South critical phase I'm",
      "start": 651.42,
      "duration": 5.1
    },
    {
      "text": "not sure yeah I am quite sure that Islam",
      "start": 653.22,
      "duration": 5.04
    },
    {
      "text": "has not gone through the same phase of",
      "start": 656.52,
      "duration": 3.72
    },
    {
      "text": "saying gosh I wonder repeatedly",
      "start": 658.26,
      "duration": 3.72
    },
    {
      "text": "assaulting and attacking and desecrating",
      "start": 660.24,
      "duration": 3.96
    },
    {
      "text": "Christian neighborhoods and lands and",
      "start": 661.98,
      "duration": 3.87
    },
    {
      "text": "people and basilica's was really the",
      "start": 664.2,
      "duration": 3.03
    },
    {
      "text": "right thing to do guess what kind of",
      "start": 665.85,
      "duration": 1.89
    },
    {
      "text": "sorry",
      "start": 667.23,
      "duration": 2.55
    },
    {
      "text": "what about slavery again which we'll get",
      "start": 667.74,
      "duration": 6
    },
    {
      "text": "to in a minute or two in 7-eleven",
      "start": 669.78,
      "duration": 5.76
    },
    {
      "text": "Muslims invaded Spain which was",
      "start": 673.74,
      "duration": 3.51
    },
    {
      "text": "inhabited by Christian Visigoths and",
      "start": 675.54,
      "duration": 3.63
    },
    {
      "text": "they conquered most of Spain in about",
      "start": 677.25,
      "duration": 3.69
    },
    {
      "text": "nine years and they established the",
      "start": 679.17,
      "duration": 4.08
    },
    {
      "text": "first Islamic state on European",
      "start": 680.94,
      "duration": 6.21
    },
    {
      "text": "territory the emirate of cordoba the",
      "start": 683.25,
      "duration": 5.73
    },
    {
      "text": "Reconquista or the period in which the",
      "start": 687.15,
      "duration": 3.72
    },
    {
      "text": "christians tried and tried to retake",
      "start": 688.98,
      "duration": 3.78
    },
    {
      "text": "spain and portugal in an endless series",
      "start": 690.87,
      "duration": 3.45
    },
    {
      "text": "of bloody battles lasted for",
      "start": 692.76,
      "duration": 4.44
    },
    {
      "text": "approximately seven hundred and seventy",
      "start": 694.32,
      "duration": 5.79
    },
    {
      "text": "years indeed the Muslim stranglehold",
      "start": 697.2,
      "duration": 4.71
    },
    {
      "text": "over the Iberian Peninsula and Europe",
      "start": 700.11,
      "duration": 5.55
    },
    {
      "text": "didn't loosen until the 12th century and",
      "start": 701.91,
      "duration": 5.79
    },
    {
      "text": "the Muslim rulers were not fully",
      "start": 705.66,
      "duration": 6.09
    },
    {
      "text": "expelled until 1492 so plus when the",
      "start": 707.7,
      "duration": 6.27
    },
    {
      "text": "when Isis and so on they talked about",
      "start": 711.75,
      "duration": 3.93
    },
    {
      "text": "going to take Rome well they're",
      "start": 713.97,
      "duration": 4.98
    },
    {
      "text": "referring to historical attempts that",
      "start": 715.68,
      "duration": 5.1
    },
    {
      "text": "have happened in the past see they have",
      "start": 718.95,
      "duration": 4.14
    },
    {
      "text": "a history Europeans have self-hatred but",
      "start": 720.78,
      "duration": 4.77
    },
    {
      "text": "everyone else gets a history now once",
      "start": 723.09,
      "duration": 3.99
    },
    {
      "text": "the Muslims secured control over the",
      "start": 725.55,
      "duration": 3.3
    },
    {
      "text": "Iberian Peninsula they tried to conquer",
      "start": 727.08,
      "duration": 4.74
    },
    {
      "text": "the rest of Europe however oh look its",
      "start": 728.85,
      "duration": 4.44
    },
    {
      "text": "Muslims and French people again the",
      "start": 731.82,
      "duration": 6
    },
    {
      "text": "Franks stood in their way in 732 one of",
      "start": 733.29,
      "duration": 6.66
    },
    {
      "text": "the most important battles in the",
      "start": 737.82,
      "duration": 3.66
    },
    {
      "text": "history of the world took place near the",
      "start": 739.95,
      "duration": 6.72
    },
    {
      "text": "city of Tor France Frankish forces led",
      "start": 741.48,
      "duration": 7.44
    },
    {
      "text": "by Charles Martel defeated an invading",
      "start": 746.67,
      "duration": 4.8
    },
    {
      "text": "Muslim army and put an end to Muslim",
      "start": 748.92,
      "duration": 5.16
    },
    {
      "text": "expansions into Europe from the",
      "start": 751.47,
      "duration": 5.61
    },
    {
      "text": "southwest for the southeast they had to",
      "start": 754.08,
      "duration": 4.92
    },
    {
      "text": "wait for Angela Merkel who apparently",
      "start": 757.08,
      "duration": 4.35
    },
    {
      "text": "now is kind of on their side Western",
      "start": 759,
      "duration": 4.02
    },
    {
      "text": "historians regard the Battle of Tor as",
      "start": 761.43,
      "duration": 5.4
    },
    {
      "text": "the battle that saved European Western",
      "start": 763.02,
      "duration": 6
    },
    {
      "text": "Christian civilization the victories a",
      "start": 766.83,
      "duration": 4.02
    },
    {
      "text": "tour and Constantinople halted Muslim",
      "start": 769.02,
      "duration": 4.44
    },
    {
      "text": "Muslim conquests in Europe for several",
      "start": 770.85,
      "duration": 8.1
    },
    {
      "text": "centuries ah let's break it up a little",
      "start": 773.46,
      "duration": 7.46
    },
    {
      "text": "visual sorry this is the end of the",
      "start": 778.95,
      "duration": 6.99
    },
    {
      "text": "Reconquista battle of tour I think",
      "start": 780.92,
      "duration": 6.4
    },
    {
      "text": "there's a woman in there somewhere in",
      "start": 785.94,
      "duration": 4.1
    },
    {
      "text": "the middle perhaps it's an angel and",
      "start": 787.32,
      "duration": 5.1
    },
    {
      "text": "last but not least let's have a look at",
      "start": 790.04,
      "duration": 4.69
    },
    {
      "text": "the spread of the Muslim Caliphate from",
      "start": 792.42,
      "duration": 4.92
    },
    {
      "text": "622 the founding of Islam to seven",
      "start": 794.73,
      "duration": 4.89
    },
    {
      "text": "50 that's not a lot it's not a big time",
      "start": 797.34,
      "duration": 6.09
    },
    {
      "text": "slice in history and that's quite a lot",
      "start": 799.62,
      "duration": 7.98
    },
    {
      "text": "of non-gray in the map here so there",
      "start": 803.43,
      "duration": 5.91
    },
    {
      "text": "were of course this is a caliphate just",
      "start": 807.6,
      "duration": 6.84
    },
    {
      "text": "basically means Empire so what was life",
      "start": 809.34,
      "duration": 9.15
    },
    {
      "text": "under Muslim rule well for the",
      "start": 814.44,
      "duration": 5.43
    },
    {
      "text": "Christians in the Middle East and North",
      "start": 818.49,
      "duration": 4.46
    },
    {
      "text": "Africa and perhaps soon-to-be Europe",
      "start": 819.87,
      "duration": 5.7
    },
    {
      "text": "well quite brutal I think as the phrase",
      "start": 822.95,
      "duration": 4.69
    },
    {
      "text": "we're looking for so here's how it",
      "start": 825.57,
      "duration": 4.11
    },
    {
      "text": "worked if Christians somehow survived",
      "start": 827.64,
      "duration": 3.51
    },
    {
      "text": "the Muslim onslaught and weren't",
      "start": 829.68,
      "duration": 3.42
    },
    {
      "text": "forcibly converted to Islam they were",
      "start": 831.15,
      "duration": 5.43
    },
    {
      "text": "given the status of Xena's non-muslim",
      "start": 833.1,
      "duration": 5.25
    },
    {
      "text": "second-class citizens and were required",
      "start": 836.58,
      "duration": 7.17
    },
    {
      "text": "to pay exorbitant taxes the most common",
      "start": 838.35,
      "duration": 6.72
    },
    {
      "text": "method of subjugating the christian",
      "start": 843.75,
      "duration": 4.11
    },
    {
      "text": "population were the jizya a religious",
      "start": 845.07,
      "duration": 5.01
    },
    {
      "text": "head tax imposed on non-muslims and the",
      "start": 847.86,
      "duration": 5.37
    },
    {
      "text": "garag and non-muslim land tax or as a",
      "start": 850.08,
      "duration": 4.23
    },
    {
      "text": "few other muslim he had to pay these",
      "start": 853.23,
      "duration": 3.9
    },
    {
      "text": "taxes many Christians chose to convert",
      "start": 854.31,
      "duration": 5.37
    },
    {
      "text": "to Islam to avoid say starving to death",
      "start": 857.13,
      "duration": 5.22
    },
    {
      "text": "the crushing tax burden the jizya alone",
      "start": 859.68,
      "duration": 4.86
    },
    {
      "text": "was more than 20% of a person's wealth",
      "start": 862.35,
      "duration": 3.6
    },
    {
      "text": "this is back when there really wasn't",
      "start": 864.54,
      "duration": 3.3
    },
    {
      "text": "that much wealth in the world well above",
      "start": 865.95,
      "duration": 4.05
    },
    {
      "text": "the norm of taxes for the time and of",
      "start": 867.84,
      "duration": 4.29
    },
    {
      "text": "course this particular tax could be set",
      "start": 870,
      "duration": 3.69
    },
    {
      "text": "much higher depending on them whim of",
      "start": 872.13,
      "duration": 6.71
    },
    {
      "text": "the Muslim rulers now of course it was a",
      "start": 873.69,
      "duration": 8.07
    },
    {
      "text": "slow train of news in the in the middle",
      "start": 878.84,
      "duration": 4.36
    },
    {
      "text": "to ancient world so news of the",
      "start": 881.76,
      "duration": 4.32
    },
    {
      "text": "Christian suffering reached the West in",
      "start": 883.2,
      "duration": 4.47
    },
    {
      "text": "the late 10th and early 11th century",
      "start": 886.08,
      "duration": 3.18
    },
    {
      "text": "when a Muslim Emperor ordered the",
      "start": 887.67,
      "duration": 3.87
    },
    {
      "text": "persecution and forced conversion of",
      "start": 889.26,
      "duration": 4.98
    },
    {
      "text": "many Christians in his empire the",
      "start": 891.54,
      "duration": 5.19
    },
    {
      "text": "oppression of the zimmy's culminated in",
      "start": 894.24,
      "duration": 3.78
    },
    {
      "text": "the destruction of the Church of the",
      "start": 896.73,
      "duration": 4.47
    },
    {
      "text": "Holy Sepulchre in Jerusalem the most",
      "start": 898.02,
      "duration": 6.24
    },
    {
      "text": "revered revered church in the Christian",
      "start": 901.2,
      "duration": 5.01
    },
    {
      "text": "world so the Church of the Holy",
      "start": 904.26,
      "duration": 4.02
    },
    {
      "text": "Sepulchre is the site of Jesus's",
      "start": 906.21,
      "duration": 5.33
    },
    {
      "text": "crucifixion burial and resurrection",
      "start": 908.28,
      "duration": 5.94
    },
    {
      "text": "kinda key kind of important kinda",
      "start": 911.54,
      "duration": 5.56
    },
    {
      "text": "central a historian has noted word",
      "start": 914.22,
      "duration": 5.1
    },
    {
      "text": "reached the West fairly quickly of the",
      "start": 917.1,
      "duration": 3.87
    },
    {
      "text": "Christians suffering and vulnerability",
      "start": 919.32,
      "duration": 3.09
    },
    {
      "text": "of the destruction of the Church of the",
      "start": 920.97,
      "duration": 3.84
    },
    {
      "text": "Holy Sepulchre Sepulcher and of the",
      "start": 922.41,
      "duration": 5.01
    },
    {
      "text": "difficulties encountered by pilgrims to",
      "start": 924.81,
      "duration": 4.26
    },
    {
      "text": "the Holy Land you got to go make the",
      "start": 927.42,
      "duration": 3.39
    },
    {
      "text": "pilgrimage for a lot of these people",
      "start": 929.07,
      "duration": 4.59
    },
    {
      "text": "that news would color and inform Western",
      "start": 930.81,
      "duration": 4.92
    },
    {
      "text": "attitudes towards Jerusalem and Muslims",
      "start": 933.66,
      "duration": 4.32
    },
    {
      "text": "throughout the 11th century and into the",
      "start": 935.73,
      "duration": 10.2
    },
    {
      "text": "era of what we call the Crusades so even",
      "start": 937.98,
      "duration": 9.66
    },
    {
      "text": "though the Christian Byzantines repelled",
      "start": 945.93,
      "duration": 3.39
    },
    {
      "text": "the second Muslim attack on",
      "start": 947.64,
      "duration": 3.6
    },
    {
      "text": "Constantinople the fight for the",
      "start": 949.32,
      "duration": 4.29
    },
    {
      "text": "survival of their homelands was far from",
      "start": 951.24,
      "duration": 3.05
    },
    {
      "text": "over",
      "start": 953.61,
      "duration": 3.06
    },
    {
      "text": "indeed the bloody battle between the",
      "start": 954.29,
      "duration": 4.09
    },
    {
      "text": "Byzantines and the Muslims continued for",
      "start": 956.67,
      "duration": 3.51
    },
    {
      "text": "centuries in both sides had various",
      "start": 958.38,
      "duration": 5.03
    },
    {
      "text": "degrees of successes and failures",
      "start": 960.18,
      "duration": 5.76
    },
    {
      "text": "despite their desperate attempts the",
      "start": 963.41,
      "duration": 4.09
    },
    {
      "text": "Byzantines never succeeded in",
      "start": 965.94,
      "duration": 3.75
    },
    {
      "text": "recapturing their territory as devout",
      "start": 967.5,
      "duration": 3.62
    },
    {
      "text": "Christians they tried to reclaim",
      "start": 969.69,
      "duration": 5.34
    },
    {
      "text": "Jerusalem but failed repeatedly across",
      "start": 971.12,
      "duration": 5.56
    },
    {
      "text": "Jerusalem incredibly important to the",
      "start": 975.03,
      "duration": 3.48
    },
    {
      "text": "Christian world so as one historian puts",
      "start": 976.68,
      "duration": 3.11
    },
    {
      "text": "it quote the Byzantines were",
      "start": 978.51,
      "duration": 4.47
    },
    {
      "text": "demonstrably trying very hard to recover",
      "start": 979.79,
      "duration": 5.26
    },
    {
      "text": "it more than a century before the First",
      "start": 982.98,
      "duration": 6.84
    },
    {
      "text": "Crusade in 1071 the Christian Byzantines",
      "start": 985.05,
      "duration": 6.69
    },
    {
      "text": "suffered a crushing defeat by the",
      "start": 989.82,
      "duration": 3.93
    },
    {
      "text": "Muslims lost a large part of their",
      "start": 991.74,
      "duration": 4.53
    },
    {
      "text": "territory and even allowed their Emperor",
      "start": 993.75,
      "duration": 6.78
    },
    {
      "text": "to be captured between 1073 and 1095 if",
      "start": 996.27,
      "duration": 5.64
    },
    {
      "text": "the Byzantines desperately begged",
      "start": 1000.53,
      "duration": 2.85
    },
    {
      "text": "members of the Western nobility and",
      "start": 1001.91,
      "duration": 4.44
    },
    {
      "text": "Christian leaders for military aid and",
      "start": 1003.38,
      "duration": 4.41
    },
    {
      "text": "remember the Muslims get through the",
      "start": 1006.35,
      "duration": 3.39
    },
    {
      "text": "Byzantines they're at the gates of",
      "start": 1007.79,
      "duration": 5.72
    },
    {
      "text": "Vienna before you know it in 1095",
      "start": 1009.74,
      "duration": 5.7
    },
    {
      "text": "ambassador is sent by the Byzantine",
      "start": 1013.51,
      "duration": 5.26
    },
    {
      "text": "Emperor appeared before pope urban ii to",
      "start": 1015.44,
      "duration": 5.58
    },
    {
      "text": "request western help in dealing with the",
      "start": 1018.77,
      "duration": 5.61
    },
    {
      "text": "muslims later that year the pope put",
      "start": 1021.02,
      "duration": 5.22
    },
    {
      "text": "forward the idea of a Christian crusade",
      "start": 1024.38,
      "duration": 5.37
    },
    {
      "text": "for the first time in history so",
      "start": 1026.24,
      "duration": 5.67
    },
    {
      "text": "big-picture time we have over four",
      "start": 1029.75,
      "duration": 4.47
    },
    {
      "text": "centuries of Muslim aggression towards",
      "start": 1031.91,
      "duration": 4.98
    },
    {
      "text": "Christians and their territories three",
      "start": 1034.22,
      "duration": 5.46
    },
    {
      "text": "out of the five Christian centers are in",
      "start": 1036.89,
      "duration": 5.91
    },
    {
      "text": "the hands of dominant Muslims Rome was",
      "start": 1039.68,
      "duration": 5.06
    },
    {
      "text": "attacked two of its holy sites",
      "start": 1042.8,
      "duration": 4.62
    },
    {
      "text": "desecrated finally Constantinople one of",
      "start": 1044.74,
      "duration": 3.97
    },
    {
      "text": "the last remaining capitals of",
      "start": 1047.42,
      "duration": 3.48
    },
    {
      "text": "Christianity is facing a Muslim threat",
      "start": 1048.71,
      "duration": 4.08
    },
    {
      "text": "that is almost impossible to contain so",
      "start": 1050.9,
      "duration": 4.59
    },
    {
      "text": "given this background the idea that the",
      "start": 1052.79,
      "duration": 5.19
    },
    {
      "text": "Christian Crusades were some unprovoked",
      "start": 1055.49,
      "duration": 4.38
    },
    {
      "text": "act of random aggression on behalf of",
      "start": 1057.98,
      "duration": 5.01
    },
    {
      "text": "bloodthirsty Christians is madness",
      "start": 1059.87,
      "duration": 4.02
    },
    {
      "text": "it's blowback",
      "start": 1062.99,
      "duration": 4.17
    },
    {
      "text": "for 400 years of ever expanding ever",
      "start": 1063.89,
      "duration": 8.31
    },
    {
      "text": "invading Islam now ask your Muslim",
      "start": 1067.16,
      "duration": 6.99
    },
    {
      "text": "friends what's their view of the",
      "start": 1072.2,
      "duration": 4.62
    },
    {
      "text": "Crusades is this view at all accepted",
      "start": 1074.15,
      "duration": 3.57
    },
    {
      "text": "not really",
      "start": 1076.82,
      "duration": 3.18
    },
    {
      "text": "in general nobody mentions the fact that",
      "start": 1077.72,
      "duration": 3.69
    },
    {
      "text": "Jerusalem whose capture was the goal of",
      "start": 1080,
      "duration": 4.35
    },
    {
      "text": "the first Crusades was first conquered",
      "start": 1081.41,
      "duration": 4.56
    },
    {
      "text": "by the Muslims and the Christian",
      "start": 1084.35,
      "duration": 3.48
    },
    {
      "text": "Crusaders just wanted to take back what",
      "start": 1085.97,
      "duration": 3.48
    },
    {
      "text": "was theirs to begin with you know it's",
      "start": 1087.83,
      "duration": 4.41
    },
    {
      "text": "funny how 400 years of throwing endless",
      "start": 1089.45,
      "duration": 5.31
    },
    {
      "text": "waves of people at the Christians will",
      "start": 1092.24,
      "duration": 5.13
    },
    {
      "text": "eventually get blowback and I'm telling",
      "start": 1094.76,
      "duration": 5.28
    },
    {
      "text": "you when Europeans get annoyed they get",
      "start": 1097.37,
      "duration": 8.46
    },
    {
      "text": "very annoyed so you've heard a lot about",
      "start": 1100.04,
      "duration": 7.889
    },
    {
      "text": "Western colonialism you know one of the",
      "start": 1105.83,
      "duration": 3.15
    },
    {
      "text": "interesting things about Western",
      "start": 1107.929,
      "duration": 2.581
    },
    {
      "text": "colonialism oh we've got a whole",
      "start": 1108.98,
      "duration": 3
    },
    {
      "text": "presentation about this which will link",
      "start": 1110.51,
      "duration": 2.18
    },
    {
      "text": "to below",
      "start": 1111.98,
      "duration": 3
    },
    {
      "text": "generally the life expectancy went up",
      "start": 1112.69,
      "duration": 4.619
    },
    {
      "text": "the rule of law was established and",
      "start": 1114.98,
      "duration": 4.5
    },
    {
      "text": "generally corruption diminished and so",
      "start": 1117.309,
      "duration": 4.721
    },
    {
      "text": "on and so you know when the British left",
      "start": 1119.48,
      "duration": 4.829
    },
    {
      "text": "for instance in Pakistan a lot of people",
      "start": 1122.03,
      "duration": 5.12
    },
    {
      "text": "fled because the Muslims were coming so",
      "start": 1124.309,
      "duration": 5.781
    },
    {
      "text": "have you heard much about the Muslim",
      "start": 1127.15,
      "duration": 5.05
    },
    {
      "text": "colonialism the Muslim imperialism",
      "start": 1130.09,
      "duration": 4
    },
    {
      "text": "Islamic caliphates",
      "start": 1132.2,
      "duration": 3.27
    },
    {
      "text": "the empires well at the height of its",
      "start": 1134.09,
      "duration": 2.79
    },
    {
      "text": "power the first Muslim Empire the",
      "start": 1135.47,
      "duration": 4.11
    },
    {
      "text": "rashidun caliphate spanned a territory",
      "start": 1136.88,
      "duration": 5.28
    },
    {
      "text": "of nine million square kilometers that's",
      "start": 1139.58,
      "duration": 5.01
    },
    {
      "text": "close to the size of the modern United",
      "start": 1142.16,
      "duration": 5.73
    },
    {
      "text": "States so not particularly small the",
      "start": 1144.59,
      "duration": 5.459
    },
    {
      "text": "second Muslim Empire the Umayyad",
      "start": 1147.89,
      "duration": 3.779
    },
    {
      "text": "Caliphate was one and a half times",
      "start": 1150.049,
      "duration": 4.711
    },
    {
      "text": "larger clocking in at 15 million square",
      "start": 1151.669,
      "duration": 4.741
    },
    {
      "text": "kilometers that's close to the size of",
      "start": 1154.76,
      "duration": 3.96
    },
    {
      "text": "modern-day Russia which if I remember",
      "start": 1156.41,
      "duration": 3.36
    },
    {
      "text": "rightly is a little bit tough to",
      "start": 1158.72,
      "duration": 4.32
    },
    {
      "text": "pogo-stick Allah across in one week so",
      "start": 1159.77,
      "duration": 4.89
    },
    {
      "text": "let's compare the Roman Empire which of",
      "start": 1163.04,
      "duration": 3.509
    },
    {
      "text": "course most Europeans have heard of the",
      "start": 1164.66,
      "duration": 3.57
    },
    {
      "text": "Roman Empire in its prime encompassed",
      "start": 1166.549,
      "duration": 4.651
    },
    {
      "text": "only 5 million kilometers squared the",
      "start": 1168.23,
      "duration": 4.29
    },
    {
      "text": "kind of thing that you lick and put on a",
      "start": 1171.2,
      "duration": 2.28
    },
    {
      "text": "postage stamp",
      "start": 1172.52,
      "duration": 4.32
    },
    {
      "text": "now after 800 years the Roman Empire had",
      "start": 1173.48,
      "duration": 6.449
    },
    {
      "text": "5 million square kilometers the Umayyad",
      "start": 1176.84,
      "duration": 5.52
    },
    {
      "text": "Caliphate became 3 times larger than the",
      "start": 1179.929,
      "duration": 4.5
    },
    {
      "text": "Roman Empire in less than 130 years",
      "start": 1182.36,
      "duration": 4.77
    },
    {
      "text": "after Muslim conquests began in the",
      "start": 1184.429,
      "duration": 5.041
    },
    {
      "text": "Middle East so it took less than 130",
      "start": 1187.13,
      "duration": 5.85
    },
    {
      "text": "years so the Muslims to do 3 times what",
      "start": 1189.47,
      "duration": 6.36
    },
    {
      "text": "the Roman Empire took 800 years to do so",
      "start": 1192.98,
      "duration": 6.24
    },
    {
      "text": "it was spreading this kind of what I'm",
      "start": 1195.83,
      "duration": 5.7
    },
    {
      "text": "saying I guess they were just very",
      "start": 1199.22,
      "duration": 3.35
    },
    {
      "text": "convincing",
      "start": 1201.53,
      "duration": 3.66
    },
    {
      "text": "now Muslim conquests weren't limited the",
      "start": 1202.57,
      "duration": 4.27
    },
    {
      "text": "pre-christian crusade times they",
      "start": 1205.19,
      "duration": 5.43
    },
    {
      "text": "continued well into the 17th century the",
      "start": 1206.84,
      "duration": 5.94
    },
    {
      "text": "Ottoman or Turkish Empire captured",
      "start": 1210.62,
      "duration": 5.67
    },
    {
      "text": "Constantinople in 1453 putting an end to",
      "start": 1212.78,
      "duration": 6.66
    },
    {
      "text": "the Christian Byzantine Empire conquered",
      "start": 1216.29,
      "duration": 5.19
    },
    {
      "text": "the Balkans and eventually attempted to",
      "start": 1219.44,
      "duration": 3.81
    },
    {
      "text": "capture Vienna located right in the",
      "start": 1221.48,
      "duration": 6.84
    },
    {
      "text": "middle of Europe in both 1529 and 1683",
      "start": 1223.25,
      "duration": 10.1
    },
    {
      "text": "in 1878 after Russia won a russia",
      "start": 1228.32,
      "duration": 7.5
    },
    {
      "text": "turkish war bulgaria was the last",
      "start": 1233.35,
      "duration": 4.35
    },
    {
      "text": "european territory to be freed from",
      "start": 1235.82,
      "duration": 8.33
    },
    {
      "text": "muslim rule is but those counting that's",
      "start": 1237.7,
      "duration": 9.7
    },
    {
      "text": "1122 years after the emirate of cordoba",
      "start": 1244.15,
      "duration": 8.62
    },
    {
      "text": "was established and again to get a sense",
      "start": 1247.4,
      "duration": 7.08
    },
    {
      "text": "of what life was like for christians",
      "start": 1252.77,
      "duration": 4.26
    },
    {
      "text": "under the muslim under Muslim rule take",
      "start": 1254.48,
      "duration": 4.59
    },
    {
      "text": "a look the history of the Balkans not",
      "start": 1257.03,
      "duration": 4.26
    },
    {
      "text": "only were Christians massacred every",
      "start": 1259.07,
      "duration": 4.38
    },
    {
      "text": "time they oppose their Muslim overlords",
      "start": 1261.29,
      "duration": 4.86
    },
    {
      "text": "but they were also forced to pay this",
      "start": 1263.45,
      "duration": 5.34
    },
    {
      "text": "religious tax the jizya in exchange for",
      "start": 1266.15,
      "duration": 5.82
    },
    {
      "text": "keeping their religion and say what they",
      "start": 1268.79,
      "duration": 4.8
    },
    {
      "text": "were sentimentally attached to which was",
      "start": 1271.97,
      "duration": 5.06
    },
    {
      "text": "their heads still being on their bodies",
      "start": 1273.59,
      "duration": 6.75
    },
    {
      "text": "now interestingly Isis is currently",
      "start": 1277.03,
      "duration": 5.95
    },
    {
      "text": "forcing Christians in Syria to pay this",
      "start": 1280.34,
      "duration": 6.9
    },
    {
      "text": "jizya this particular religious tax and",
      "start": 1282.98,
      "duration": 8.25
    },
    {
      "text": "the Turks also imposed what is not",
      "start": 1287.24,
      "duration": 7.59
    },
    {
      "text": "euphemistically called the blood tax now",
      "start": 1291.23,
      "duration": 7.58
    },
    {
      "text": "under the Turkish Muslim Ottoman rule",
      "start": 1294.83,
      "duration": 8.55
    },
    {
      "text": "the Christian boys aged 818 were",
      "start": 1298.81,
      "duration": 6.94
    },
    {
      "text": "routinely abducted from their parents",
      "start": 1303.38,
      "duration": 4.59
    },
    {
      "text": "forcibly converted to Islam and then",
      "start": 1305.75,
      "duration": 4.59
    },
    {
      "text": "enrolled in the autumn Ottoman military",
      "start": 1307.97,
      "duration": 5.54
    },
    {
      "text": "which formed the elite Janissary Corps",
      "start": 1310.34,
      "duration": 6.12
    },
    {
      "text": "some stolen from your parents forcibly",
      "start": 1313.51,
      "duration": 4.48
    },
    {
      "text": "converted to Islam thrown into the",
      "start": 1316.46,
      "duration": 5.19
    },
    {
      "text": "military that is quite a tax let me",
      "start": 1317.99,
      "duration": 5.13
    },
    {
      "text": "place a little tough to put that on your",
      "start": 1321.65,
      "duration": 3.71
    },
    {
      "text": "1040",
      "start": 1323.12,
      "duration": 2.24
    },
    {
      "text": "now of course every time you hear about",
      "start": 1325.77,
      "duration": 8.83
    },
    {
      "text": "Europeans in sort of the mid last",
      "start": 1329.5,
      "duration": 8.91
    },
    {
      "text": "millennia slavery domination imperialism",
      "start": 1334.6,
      "duration": 7.74
    },
    {
      "text": "slavery you European bastards well if",
      "start": 1338.41,
      "duration": 5.55
    },
    {
      "text": "you ever hear about Islamic slavery you",
      "start": 1342.34,
      "duration": 3.78
    },
    {
      "text": "should have because it was really quite",
      "start": 1343.96,
      "duration": 4.08
    },
    {
      "text": "a lot very big and exceedingly brutal",
      "start": 1346.12,
      "duration": 3.18
    },
    {
      "text": "and we got a whole presentation on this",
      "start": 1348.04,
      "duration": 2.46
    },
    {
      "text": "channel called the truth about slavery",
      "start": 1349.3,
      "duration": 3.51
    },
    {
      "text": "we go into this in more detail but it's",
      "start": 1350.5,
      "duration": 4.29
    },
    {
      "text": "lamb dominated the slave trade between",
      "start": 1352.81,
      "duration": 5.94
    },
    {
      "text": "the 7th and 15th centuries the",
      "start": 1354.79,
      "duration": 5.31
    },
    {
      "text": "Christians entered the market of human",
      "start": 1358.75,
      "duration": 5.04
    },
    {
      "text": "flesh much later 1519 to 1815 is the",
      "start": 1360.1,
      "duration": 6.96
    },
    {
      "text": "period of Christian slave trading the",
      "start": 1363.79,
      "duration": 6.6
    },
    {
      "text": "death toll from 14 centuries of the",
      "start": 1367.06,
      "duration": 5.13
    },
    {
      "text": "Muslim slave trade in Africa is",
      "start": 1370.39,
      "duration": 7.38
    },
    {
      "text": "estimated at over all 112 million souls",
      "start": 1372.19,
      "duration": 7.74
    },
    {
      "text": "now the Muslim slave trade typically",
      "start": 1377.77,
      "duration": 5.04
    },
    {
      "text": "dealt in the sale of castrated male",
      "start": 1379.93,
      "duration": 7.44
    },
    {
      "text": "slaves called eunuchs eunuchs later to",
      "start": 1382.81,
      "duration": 6.06
    },
    {
      "text": "be renamed as an operating system were",
      "start": 1387.37,
      "duration": 3.45
    },
    {
      "text": "created by completely amputating the",
      "start": 1388.87,
      "duration": 4.68
    },
    {
      "text": "scrotum and penis of 8 to 12 year old",
      "start": 1390.82,
      "duration": 5.46
    },
    {
      "text": "African boys as you could imagine the",
      "start": 1393.55,
      "duration": 5.7
    },
    {
      "text": "survival rate of this savage mutilation",
      "start": 1396.28,
      "duration": 8.37
    },
    {
      "text": "was very very low and Africans of course",
      "start": 1399.25,
      "duration": 6.81
    },
    {
      "text": "in Africa are constantly complaining",
      "start": 1404.65,
      "duration": 2.97
    },
    {
      "text": "about Western imperialism European",
      "start": 1406.06,
      "duration": 3.81
    },
    {
      "text": "imperialism even though life expectancy",
      "start": 1407.62,
      "duration": 4.2
    },
    {
      "text": "more than doubled when Europeans took",
      "start": 1409.87,
      "duration": 4.62
    },
    {
      "text": "over South Africa do you see a lot of",
      "start": 1411.82,
      "duration": 4.65
    },
    {
      "text": "people from Africa going to the Islamic",
      "start": 1414.49,
      "duration": 3.69
    },
    {
      "text": "countries complaining about the much",
      "start": 1416.47,
      "duration": 4.77
    },
    {
      "text": "longer and much more brutal Islamic",
      "start": 1418.18,
      "duration": 4.05
    },
    {
      "text": "slave trade",
      "start": 1421.24,
      "duration": 4.64
    },
    {
      "text": "no because Muslims are not self-critical",
      "start": 1422.23,
      "duration": 6.99
    },
    {
      "text": "Europeans have gone from south criticism",
      "start": 1425.88,
      "duration": 5.74
    },
    {
      "text": "to pathological civilization and",
      "start": 1429.22,
      "duration": 4.26
    },
    {
      "text": "soul-destroying self-hatred but not a",
      "start": 1431.62,
      "duration": 3.24
    },
    {
      "text": "lot of people going out to Saudi Arabia",
      "start": 1433.48,
      "duration": 3.33
    },
    {
      "text": "saying hey man you owe us reparations",
      "start": 1434.86,
      "duration": 4.08
    },
    {
      "text": "for slavery because they'd be like hey",
      "start": 1436.81,
      "duration": 8.01
    },
    {
      "text": "big goods leave historian Robert Davis",
      "start": 1438.94,
      "duration": 8.61
    },
    {
      "text": "estimates that North African Muslim",
      "start": 1444.82,
      "duration": 4.5
    },
    {
      "text": "pirates abducted and enslaved more than",
      "start": 1447.55,
      "duration": 3.69
    },
    {
      "text": "a million Europeans from coastal towns",
      "start": 1449.32,
      "duration": 4.71
    },
    {
      "text": "between 1530 and 1780",
      "start": 1451.24,
      "duration": 5.8
    },
    {
      "text": "the practice of kidnapping Christians to",
      "start": 1454.03,
      "duration": 4.51
    },
    {
      "text": "be sold to slaves dates back to the",
      "start": 1457.04,
      "duration": 2.67
    },
    {
      "text": "seventh century and of course when",
      "start": 1458.54,
      "duration": 3.66
    },
    {
      "text": "Christian Europeans went to Africa they",
      "start": 1459.71,
      "duration": 3.96
    },
    {
      "text": "couldn't go inland because they couldn't",
      "start": 1462.2,
      "duration": 4.17
    },
    {
      "text": "survive the bugs right that the viruses",
      "start": 1463.67,
      "duration": 6.24
    },
    {
      "text": "and so on and so they bought black",
      "start": 1466.37,
      "duration": 5.25
    },
    {
      "text": "slaves from other blacks who'd captured",
      "start": 1469.91,
      "duration": 3.09
    },
    {
      "text": "them who were selling them to the whites",
      "start": 1471.62,
      "duration": 4.74
    },
    {
      "text": "but the the Muslims bypassed the",
      "start": 1473,
      "duration": 4.65
    },
    {
      "text": "middleman went directly in caught the",
      "start": 1476.36,
      "duration": 2.58
    },
    {
      "text": "slaves themselves are simply stole them",
      "start": 1477.65,
      "duration": 5.82
    },
    {
      "text": "from Christian families one historian",
      "start": 1478.94,
      "duration": 7.47
    },
    {
      "text": "noted quote it was the perpetual raiding",
      "start": 1483.47,
      "duration": 5.22
    },
    {
      "text": "of Muslim pirates and slave traders that",
      "start": 1486.41,
      "duration": 3.87
    },
    {
      "text": "brought about the abandonment throughout",
      "start": 1488.69,
      "duration": 3.33
    },
    {
      "text": "southern Europe of the scattered",
      "start": 1490.28,
      "duration": 3.6
    },
    {
      "text": "settlements of classical times and the",
      "start": 1492.02,
      "duration": 3.51
    },
    {
      "text": "retreat to defended hilltop",
      "start": 1493.88,
      "duration": 3.75
    },
    {
      "text": "fortifications the first medieval",
      "start": 1495.53,
      "duration": 4.47
    },
    {
      "text": "castles the same rating led to the",
      "start": 1497.63,
      "duration": 3.48
    },
    {
      "text": "abandonment of the old agricultural",
      "start": 1500,
      "duration": 3.15
    },
    {
      "text": "systems with their irrigation dikes and",
      "start": 1501.11,
      "duration": 4.53
    },
    {
      "text": "ditches so hey if you ever wondered why",
      "start": 1503.15,
      "duration": 4.08
    },
    {
      "text": "there were castles originally in Europe",
      "start": 1505.64,
      "duration": 3.48
    },
    {
      "text": "it's because of Muslim slave traders and",
      "start": 1507.23,
      "duration": 4.2
    },
    {
      "text": "this meant of course couldn't do any",
      "start": 1509.12,
      "duration": 4.56
    },
    {
      "text": "fishing couldn't go down to the shore",
      "start": 1511.43,
      "duration": 4.68
    },
    {
      "text": "couldn't spend a day at the seaside and",
      "start": 1513.68,
      "duration": 4.98
    },
    {
      "text": "Oh also couldn't engage in the kind of",
      "start": 1516.11,
      "duration": 4.14
    },
    {
      "text": "large-scale irrigation and agriculture",
      "start": 1518.66,
      "duration": 4.38
    },
    {
      "text": "that helped stop Europeans from starving",
      "start": 1520.25,
      "duration": 5.64
    },
    {
      "text": "to death in the winter the Muslims this",
      "start": 1523.04,
      "duration": 4.14
    },
    {
      "text": "is one of the things that Jefferson had",
      "start": 1525.89,
      "duration": 2.67
    },
    {
      "text": "to deal with when he became president",
      "start": 1527.18,
      "duration": 3.54
    },
    {
      "text": "was yes that's right Muslim slave",
      "start": 1528.56,
      "duration": 4.2
    },
    {
      "text": "traders constantly infesting the sea",
      "start": 1530.72,
      "duration": 7.11
    },
    {
      "text": "lanes so the barbaric slave raiding",
      "start": 1532.76,
      "duration": 6.9
    },
    {
      "text": "activities of Muslim pirates continued",
      "start": 1537.83,
      "duration": 3.33
    },
    {
      "text": "to have a telling effect on Europe",
      "start": 1539.66,
      "duration": 3.6
    },
    {
      "text": "throughout the centuries France England",
      "start": 1541.16,
      "duration": 4.2
    },
    {
      "text": "and Spain lost thousands of ships",
      "start": 1543.26,
      "duration": 4.86
    },
    {
      "text": "devastating to their seaborne trade long",
      "start": 1545.36,
      "duration": 4.41
    },
    {
      "text": "stretches of the coast in Spain and",
      "start": 1548.12,
      "duration": 3.27
    },
    {
      "text": "Italy were almost completely abandoned",
      "start": 1549.77,
      "duration": 4.11
    },
    {
      "text": "by their inhabitants until the 19th",
      "start": 1551.39,
      "duration": 8.97
    },
    {
      "text": "century undying people now the ottoman",
      "start": 1553.88,
      "duration": 8.82
    },
    {
      "text": "penetration into Europe in the 13 50s in",
      "start": 1560.36,
      "duration": 4.17
    },
    {
      "text": "the capture of Constantinople later in",
      "start": 1562.7,
      "duration": 5.73
    },
    {
      "text": "1453 opened new floodgates for the slave",
      "start": 1564.53,
      "duration": 6.09
    },
    {
      "text": "trade from the European front in their",
      "start": 1568.43,
      "duration": 5.01
    },
    {
      "text": "last attempt to over in Europe in 1683",
      "start": 1570.62,
      "duration": 4.65
    },
    {
      "text": "the Ottoman army although defeated",
      "start": 1573.44,
      "duration": 4.4
    },
    {
      "text": "returned from the gates of Vienna with",
      "start": 1575.27,
      "duration": 7.17
    },
    {
      "text": "80,000 captives an immense number of",
      "start": 1577.84,
      "duration": 6.94
    },
    {
      "text": "slaves flowed from the Crimea the",
      "start": 1582.44,
      "duration": 5.04
    },
    {
      "text": "Balkans the steppes of West Asia to",
      "start": 1584.78,
      "duration": 6.27
    },
    {
      "text": "markets in Islamic countries historian",
      "start": 1587.48,
      "duration": 6.21
    },
    {
      "text": "David Bryan Davis laments that quote the",
      "start": 1591.05,
      "duration": 5.04
    },
    {
      "text": "Tartars and other Black Sea Peoples had",
      "start": 1593.69,
      "duration": 4.97
    },
    {
      "text": "sold millions of Ukrainians Georgians",
      "start": 1596.09,
      "duration": 5.34
    },
    {
      "text": "Circassians Armenians Bulgarians Slavs",
      "start": 1598.66,
      "duration": 6.04
    },
    {
      "text": "and Turks have you known much about this",
      "start": 1601.43,
      "duration": 4.77
    },
    {
      "text": "slave trade which vastly dwarfed",
      "start": 1604.7,
      "duration": 3.48
    },
    {
      "text": "anything that happened in the Atlantic",
      "start": 1606.2,
      "duration": 4.65
    },
    {
      "text": "no crimean muslim tetiz",
      "start": 1608.18,
      "duration": 6.78
    },
    {
      "text": "enslaved and sold some 1 million seven",
      "start": 1610.85,
      "duration": 5.7
    },
    {
      "text": "hundred and fifty thousand Ukrainians",
      "start": 1614.96,
      "duration": 3.48
    },
    {
      "text": "poles and Russians between forty and",
      "start": 1616.55,
      "duration": 4.32
    },
    {
      "text": "sixty eight and sixteen ninety four and",
      "start": 1618.44,
      "duration": 3.87
    },
    {
      "text": "again we've got the truth about slavery",
      "start": 1620.87,
      "duration": 4.79
    },
    {
      "text": "on this channel you got to check it out",
      "start": 1622.31,
      "duration": 7.38
    },
    {
      "text": "so the reason why we want to talk about",
      "start": 1625.66,
      "duration": 9.69
    },
    {
      "text": "this is that like racism like sexism",
      "start": 1629.69,
      "duration": 8.19
    },
    {
      "text": "colonialism is all Western badness and",
      "start": 1635.35,
      "duration": 4.51
    },
    {
      "text": "slavery all Western badness to someone",
      "start": 1637.88,
      "duration": 4.29
    },
    {
      "text": "but before Western colonialism there was",
      "start": 1639.86,
      "duration": 4.29
    },
    {
      "text": "Muslim imperialism before the Christian",
      "start": 1642.17,
      "duration": 3.75
    },
    {
      "text": "Crusades there were a myriad of Muslim",
      "start": 1644.15,
      "duration": 3.66
    },
    {
      "text": "Muslim Crusades which were enormous ly",
      "start": 1645.92,
      "duration": 3.36
    },
    {
      "text": "successful and kept battering down the",
      "start": 1647.81,
      "duration": 3.63
    },
    {
      "text": "door of Europe and taking over vast",
      "start": 1649.28,
      "duration": 4.74
    },
    {
      "text": "swathes of Europe Sicily Portugal Spain",
      "start": 1651.44,
      "duration": 5.01
    },
    {
      "text": "and so on which took sometimes upwards",
      "start": 1654.02,
      "duration": 4.38
    },
    {
      "text": "of half is half a millennia to dislodge",
      "start": 1656.45,
      "duration": 5.46
    },
    {
      "text": "and what bothers me so much about all of",
      "start": 1658.4,
      "duration": 6.6
    },
    {
      "text": "this is that the Europeans seems to me",
      "start": 1661.91,
      "duration": 5.28
    },
    {
      "text": "are the only cultural left in the world",
      "start": 1665,
      "duration": 5.22
    },
    {
      "text": "that is never allowed to have a history",
      "start": 1667.19,
      "duration": 4.38
    },
    {
      "text": "the only thing they're allowed to have",
      "start": 1670.22,
      "duration": 4.5
    },
    {
      "text": "is guilt and self-castigation what utter",
      "start": 1671.57,
      "duration": 5.16
    },
    {
      "text": "nonsense next time someone comes to you",
      "start": 1674.72,
      "duration": 3.48
    },
    {
      "text": "and complains about slavery just ask",
      "start": 1676.73,
      "duration": 3.63
    },
    {
      "text": "them hey how about Muslim slavery every",
      "start": 1678.2,
      "duration": 4.41
    },
    {
      "text": "year that I ever care about that no",
      "start": 1680.36,
      "duration": 4.47
    },
    {
      "text": "because the Muslims don't self attack on",
      "start": 1682.61,
      "duration": 4.35
    },
    {
      "text": "it and therefore nobody wants to install",
      "start": 1684.83,
      "duration": 3.84
    },
    {
      "text": "the big giant guilt button that people",
      "start": 1686.96,
      "duration": 4.02
    },
    {
      "text": "repeatedly pound so that Europeans cough",
      "start": 1688.67,
      "duration": 4.26
    },
    {
      "text": "up money and resources so you'll stop",
      "start": 1690.98,
      "duration": 3.39
    },
    {
      "text": "making them feel guilty about things",
      "start": 1692.93,
      "duration": 4.1
    },
    {
      "text": "they never did individually and which",
      "start": 1694.37,
      "duration": 5.15
    },
    {
      "text": "European civilization such as slavery",
      "start": 1697.03,
      "duration": 5.44
    },
    {
      "text": "actually ended it was a European",
      "start": 1699.52,
      "duration": 4.51
    },
    {
      "text": "civilization particularly the British",
      "start": 1702.47,
      "duration": 4.26
    },
    {
      "text": "who spent immense amounts of blood and",
      "start": 1704.03,
      "duration": 5.34
    },
    {
      "text": "treasure to end slavery around the world",
      "start": 1706.73,
      "duration": 5.07
    },
    {
      "text": "so this is a history that you need to",
      "start": 1709.37,
      "duration": 3.93
    },
    {
      "text": "know there's an enormous amount to be",
      "start": 1711.8,
      "duration": 4.22
    },
    {
      "text": "incredibly proud of in European history",
      "start": 1713.3,
      "duration": 4.89
    },
    {
      "text": "and that of course is a great challenge",
      "start": 1716.02,
      "duration": 2.8
    },
    {
      "text": "to the",
      "start": 1718.19,
      "duration": 3.27
    },
    {
      "text": "world who don't want a confident Europe",
      "start": 1718.82,
      "duration": 5.88
    },
    {
      "text": "because then they can't come in on the",
      "start": 1721.46,
      "duration": 5.4
    },
    {
      "text": "welfare estate and slowly infiltrate the",
      "start": 1724.7,
      "duration": 3.329
    },
    {
      "text": "society as a whole",
      "start": 1726.86,
      "duration": 3.179
    },
    {
      "text": "so Christianity kind of became a",
      "start": 1728.029,
      "duration": 4.14
    },
    {
      "text": "European religion in many ways because",
      "start": 1730.039,
      "duration": 3.36
    },
    {
      "text": "it was driven out of its home in the",
      "start": 1732.169,
      "duration": 3.151
    },
    {
      "text": "Middle East and when it tried to go back",
      "start": 1733.399,
      "duration": 3.39
    },
    {
      "text": "and get some of his own aah evil",
      "start": 1735.32,
      "duration": 4.189
    },
    {
      "text": "Christian Crusades of nastiness and",
      "start": 1736.789,
      "duration": 6.02
    },
    {
      "text": "people I mean this is true for everyone",
      "start": 1739.509,
      "duration": 5.92
    },
    {
      "text": "you have a history this history is",
      "start": 1742.809,
      "duration": 6.161
    },
    {
      "text": "important there are Europeans by hacking",
      "start": 1745.429,
      "duration": 5.041
    },
    {
      "text": "at the roots of their history and and",
      "start": 1748.97,
      "duration": 3.51
    },
    {
      "text": "destroying the source any respect for",
      "start": 1750.47,
      "duration": 4.74
    },
    {
      "text": "the source of their culture if you don't",
      "start": 1752.48,
      "duration": 3.96
    },
    {
      "text": "have a history you're like a tree",
      "start": 1755.21,
      "duration": 2.969
    },
    {
      "text": "without any roots just plop down there",
      "start": 1756.44,
      "duration": 2.459
    },
    {
      "text": "on the ground",
      "start": 1758.179,
      "duration": 2.37
    },
    {
      "text": "the first breeze or a guy leaning",
      "start": 1758.899,
      "duration": 3.441
    },
    {
      "text": "against you you're just gonna fall over",
      "start": 1760.549,
      "duration": 4.521
    },
    {
      "text": "and it's hard for people in Europe and",
      "start": 1762.34,
      "duration": 5.079
    },
    {
      "text": "even in North America to some degree but",
      "start": 1765.07,
      "duration": 3.79
    },
    {
      "text": "particularly in Europe it's got can a",
      "start": 1767.419,
      "duration": 3.541
    },
    {
      "text": "secular it's got kind of lazy it's got",
      "start": 1768.86,
      "duration": 3.6
    },
    {
      "text": "kind of like hey am I going to get that",
      "start": 1770.96,
      "duration": 2.849
    },
    {
      "text": "promotion I wonder if that new video",
      "start": 1772.46,
      "duration": 2.61
    },
    {
      "text": "games coming out there's this girl that",
      "start": 1773.809,
      "duration": 2.82
    },
    {
      "text": "really like at the cafe it's become very",
      "start": 1775.07,
      "duration": 3.689
    },
    {
      "text": "sort of small-minded and personal and",
      "start": 1776.629,
      "duration": 5.461
    },
    {
      "text": "hedonistic and place for all of that but",
      "start": 1778.759,
      "duration": 5.311
    },
    {
      "text": "because Europe has become so secular and",
      "start": 1782.09,
      "duration": 5.699
    },
    {
      "text": "has become so self-hating it really",
      "start": 1784.07,
      "duration": 7.41
    },
    {
      "text": "doesn't have much luck understanding the",
      "start": 1787.789,
      "duration": 6.39
    },
    {
      "text": "mindset of religious people who believe",
      "start": 1791.48,
      "duration": 5.039
    },
    {
      "text": "they are genuinely hooked into a much",
      "start": 1794.179,
      "duration": 4.801
    },
    {
      "text": "larger plan who have a much deeper sense",
      "start": 1796.519,
      "duration": 4.29
    },
    {
      "text": "of history and who have a much bigger",
      "start": 1798.98,
      "duration": 6.179
    },
    {
      "text": "purpose that is a big big challenge and",
      "start": 1800.809,
      "duration": 7.59
    },
    {
      "text": "if there is to be a civilization in the",
      "start": 1805.159,
      "duration": 4.801
    },
    {
      "text": "future in other words if we're going to",
      "start": 1808.399,
      "duration": 5.701
    },
    {
      "text": "keep what largely white Western European",
      "start": 1809.96,
      "duration": 6.36
    },
    {
      "text": "Christians have developed you know",
      "start": 1814.1,
      "duration": 4.939
    },
    {
      "text": "scientific method the free-market",
      "start": 1816.32,
      "duration": 5.099
    },
    {
      "text": "philosophy reason evidence you know",
      "start": 1819.039,
      "duration": 5.051
    },
    {
      "text": "equality for women a separation of",
      "start": 1821.419,
      "duration": 4.831
    },
    {
      "text": "church and state rule of law innocent",
      "start": 1824.09,
      "duration": 3.9
    },
    {
      "text": "until proven guilty you know all those",
      "start": 1826.25,
      "duration": 3.419
    },
    {
      "text": "nice little things that make life worth",
      "start": 1827.99,
      "duration": 4.86
    },
    {
      "text": "getting out of bed for if we're going to",
      "start": 1829.669,
      "duration": 5.551
    },
    {
      "text": "keep that I have a message to all",
      "start": 1832.85,
      "duration": 4.65
    },
    {
      "text": "Europeans and even those of us in North",
      "start": 1835.22,
      "duration": 6.419
    },
    {
      "text": "America stop apologizing please dear God",
      "start": 1837.5,
      "duration": 6.36
    },
    {
      "text": "you've got to stop apologizing by any",
      "start": 1841.639,
      "duration": 5.28
    },
    {
      "text": "objective standard Europe ranks very low",
      "start": 1843.86,
      "duration": 5.279
    },
    {
      "text": "on the list of criminal enterprises",
      "start": 1846.919,
      "duration": 5.13
    },
    {
      "text": "throughout history and as I gave off a",
      "start": 1849.139,
      "duration": 3.591
    },
    {
      "text": "brief list",
      "start": 1852.049,
      "duration": 2.031
    },
    {
      "text": "the top of my head has an enormous",
      "start": 1852.73,
      "duration": 3.81
    },
    {
      "text": "amount to be incredibly happy and proud",
      "start": 1854.08,
      "duration": 3.87
    },
    {
      "text": "of so the next time someone starts",
      "start": 1856.54,
      "duration": 3.389
    },
    {
      "text": "talking to you about slavery or colonial",
      "start": 1857.95,
      "duration": 4.77
    },
    {
      "text": "and so on say hey how does Europe rank",
      "start": 1859.929,
      "duration": 4.801
    },
    {
      "text": "relative to all of the other cultures",
      "start": 1862.72,
      "duration": 4.079
    },
    {
      "text": "throughout history and they won't have a",
      "start": 1864.73,
      "duration": 3.75
    },
    {
      "text": "clue they pick on the Europeans because",
      "start": 1866.799,
      "duration": 4.801
    },
    {
      "text": "Europe has a history of self-criticism",
      "start": 1868.48,
      "duration": 5.97
    },
    {
      "text": "and revisionism and a willingness to own",
      "start": 1871.6,
      "duration": 4.26
    },
    {
      "text": "up to that which was wrong in history",
      "start": 1874.45,
      "duration": 4.29
    },
    {
      "text": "and work to make it better now if you're",
      "start": 1875.86,
      "duration": 4.98
    },
    {
      "text": "self-critical among healthy people",
      "start": 1878.74,
      "duration": 5.069
    },
    {
      "text": "that's really really good how wonderful",
      "start": 1880.84,
      "duration": 6.69
    },
    {
      "text": "how helpful how great however if you are",
      "start": 1883.809,
      "duration": 5.851
    },
    {
      "text": "say a wash in the world of pretty",
      "start": 1887.53,
      "duration": 4.019
    },
    {
      "text": "sociopathic and destructive cultures",
      "start": 1889.66,
      "duration": 4.62
    },
    {
      "text": "self-criticism is a giant weakness and",
      "start": 1891.549,
      "duration": 5.281
    },
    {
      "text": "those cultures will pound you down until",
      "start": 1894.28,
      "duration": 6.21
    },
    {
      "text": "you bounce back hard or go right through",
      "start": 1896.83,
      "duration": 6.719
    },
    {
      "text": "the bottom of the earth let us stop",
      "start": 1900.49,
      "duration": 5.85
    },
    {
      "text": "apologizing it's so ridiculous it's so",
      "start": 1903.549,
      "duration": 6.691
    },
    {
      "text": "embarrassing and it's so unnecessary if",
      "start": 1906.34,
      "duration": 6.54
    },
    {
      "text": "Europe is so bad if North America is so",
      "start": 1910.24,
      "duration": 6.2
    },
    {
      "text": "bad why is everyone trying to get in",
      "start": 1912.88,
      "duration": 6.09
    },
    {
      "text": "because there's great wealth and great",
      "start": 1916.44,
      "duration": 4.45
    },
    {
      "text": "value and great civilization and great",
      "start": 1918.97,
      "duration": 4.77
    },
    {
      "text": "treasure that for 2500 years since the",
      "start": 1920.89,
      "duration": 4.32
    },
    {
      "text": "days of the pre-socratics has been",
      "start": 1923.74,
      "duration": 3.66
    },
    {
      "text": "slowly evolving and pushed along by the",
      "start": 1925.21,
      "duration": 7.31
    },
    {
      "text": "West by Europe by North America stop",
      "start": 1927.4,
      "duration": 10.11
    },
    {
      "text": "apologizing stop defending start pushing",
      "start": 1932.52,
      "duration": 8.14
    },
    {
      "text": "back everything that we have inherited",
      "start": 1937.51,
      "duration": 6.45
    },
    {
      "text": "we will lose if we continue to attack",
      "start": 1940.66,
      "duration": 7.56
    },
    {
      "text": "ourselves and the light in the world so",
      "start": 1943.96,
      "duration": 7.5
    },
    {
      "text": "briefly sparked over the past 2,000",
      "start": 1948.22,
      "duration": 12.839
    },
    {
      "text": "years will be gone possibly forever this",
      "start": 1951.46,
      "duration": 11.58
    },
    {
      "text": "is the van molyneux for freedomain radio",
      "start": 1961.059,
      "duration": 4.921
    },
    {
      "text": "please help us out freedomainradio.com /",
      "start": 1963.04,
      "duration": 5.67
    },
    {
      "text": "donate to help out the show please help",
      "start": 1965.98,
      "duration": 4.5
    },
    {
      "text": "us get this essential message to the",
      "start": 1968.71,
      "duration": 4.83
    },
    {
      "text": "world and to the future and thank you so",
      "start": 1970.48,
      "duration": 5.87
    },
    {
      "text": "much for watching",
      "start": 1973.54,
      "duration": 2.81
    }
  ],
  "Errors": null,
  "TranscriptStderr": null
}