[
    {
        "start": "10.88",
        "dur": "4.02",
        "text": "hi everybody its defend molyneux from"
    },
    {
        "start": "13.309",
        "dur": "2.281",
        "text": "freedomain radio I hope that you're"
    },
    {
        "start": "14.9",
        "dur": "5.16",
        "text": "doing very well"
    },
    {
        "start": "15.59",
        "dur": "5.91",
        "text": "it is the 21st of March 2008 I don't"
    },
    {
        "start": "20.06",
        "dur": "3.96",
        "text": "mean to shock you but we are in fact"
    },
    {
        "start": "21.5",
        "dur": "2.849",
        "text": "going to do just a little bit on current"
    },
    {
        "start": "24.02",
        "dur": "2.19",
        "text": "events"
    },
    {
        "start": "24.349",
        "dur": "3.601",
        "text": "now I'm no economist though I do"
    },
    {
        "start": "26.21",
        "dur": "4.31",
        "text": "occasionally play one in my podcast so"
    },
    {
        "start": "27.95",
        "dur": "5.22",
        "text": "take this with all of the caveats my"
    },
    {
        "start": "30.52",
        "dur": "6.01",
        "text": "economic education occurred mostly in"
    },
    {
        "start": "33.17",
        "dur": "4.59",
        "text": "the history of economics particularly in"
    },
    {
        "start": "36.53",
        "dur": "4.049",
        "text": "the Middle Ages at a graduate school"
    },
    {
        "start": "37.76",
        "dur": "6.66",
        "text": "level but I am certainly no PhD in"
    },
    {
        "start": "40.579",
        "dur": "5.011",
        "text": "economics so take this for what you paid"
    },
    {
        "start": "44.42",
        "dur": "3.24",
        "text": "for it but I think that we can come up"
    },
    {
        "start": "45.59",
        "dur": "5.37",
        "text": "with some useful stuff which is an"
    },
    {
        "start": "47.66",
        "dur": "5.37",
        "text": "anarchist analysis of the housing crisis"
    },
    {
        "start": "50.96",
        "dur": "3.81",
        "text": "and the current financial problems that"
    },
    {
        "start": "53.03",
        "dur": "7.68",
        "text": "are unwinding in the United States so"
    },
    {
        "start": "54.77",
        "dur": "8.82",
        "text": "let's take a a tour through an article"
    },
    {
        "start": "60.71",
        "dur": "5.57",
        "text": "that popped up which for a lot of people"
    },
    {
        "start": "63.59",
        "dur": "5.639",
        "text": "and this is from The Telegraph co uk and"
    },
    {
        "start": "66.28",
        "dur": "5.199",
        "text": "it is an article entitled foreign"
    },
    {
        "start": "69.229",
        "dur": "4.111",
        "text": "investors veto Fed rescue and let's just"
    },
    {
        "start": "71.479",
        "dur": "3.21",
        "text": "tool through a couple of their phrases"
    },
    {
        "start": "73.34",
        "dur": "3.9",
        "text": "in there and see if we can't unpack a"
    },
    {
        "start": "74.689",
        "dur": "6.81",
        "text": "little bit about what on earth is going"
    },
    {
        "start": "77.24",
        "dur": "5.85",
        "text": "on as feared foreign bondholders have"
    },
    {
        "start": "81.499",
        "dur": "3.9",
        "text": "begun to exercise a collective veto of"
    },
    {
        "start": "83.09",
        "dur": "4.139",
        "text": "no confidence in the devaluation"
    },
    {
        "start": "85.399",
        "dur": "3.78",
        "text": "policies of the US government the"
    },
    {
        "start": "87.229",
        "dur": "6.45",
        "text": "Federal Reserve faces a potential veto"
    },
    {
        "start": "89.179",
        "dur": "6.991",
        "text": "of its rescue mint measures Asian mid"
    },
    {
        "start": "93.679",
        "dur": "5.341",
        "text": "Eastern European investors stood aside"
    },
    {
        "start": "96.17",
        "dur": "6.059",
        "text": "at last week's auction of 10-year US"
    },
    {
        "start": "99.02",
        "dur": "6.119",
        "text": "Treasury notes it was a disastrous a"
    },
    {
        "start": "102.229",
        "dur": "4.14",
        "text": "said rate a trail from forecast web we"
    },
    {
        "start": "105.139",
        "dur": "2.73",
        "text": "may be close to the point where the"
    },
    {
        "start": "106.369",
        "dur": "4.89",
        "text": "uglier consequences of benign neglect"
    },
    {
        "start": "107.869",
        "dur": "5.161",
        "text": "towards the currency are revealed the"
    },
    {
        "start": "111.259",
        "dur": "3.54",
        "text": "share of foreign buyers indirect bidders"
    },
    {
        "start": "113.03",
        "dur": "4.649",
        "text": "plummeted to 5.8 percent from an average"
    },
    {
        "start": "114.799",
        "dur": "5.88",
        "text": "25 percent over the last eight weeks on"
    },
    {
        "start": "117.679",
        "dur": "7.25",
        "text": "the Richter scale of unfolding dramas"
    },
    {
        "start": "120.679",
        "dur": "10.021",
        "text": "this matches the death of Bear Stearns"
    },
    {
        "start": "124.929",
        "dur": "7.901",
        "text": "now I'll post the article in the YouTube"
    },
    {
        "start": "130.7",
        "dur": "3.99",
        "text": "description but what are they talking"
    },
    {
        "start": "132.83",
        "dur": "3.45",
        "text": "about what is going on here and for"
    },
    {
        "start": "134.69",
        "dur": "4.05",
        "text": "those of you who are just hearing the"
    },
    {
        "start": "136.28",
        "dur": "4.92",
        "text": "vague rumblings of economics meltdowns"
    },
    {
        "start": "138.74",
        "dur": "5.13",
        "text": "catastrophes disasters and so on here is"
    },
    {
        "start": "141.2",
        "dur": "4.59",
        "text": "there probably than the quickest and"
    },
    {
        "start": "143.87",
        "dur": "4.199",
        "text": "hopefully at least the reasonably"
    },
    {
        "start": "145.79",
        "dur": "3.57",
        "text": "accurate assessment of what is happening"
    },
    {
        "start": "148.069",
        "dur": "6.691",
        "text": "in and how it all came about"
    },
    {
        "start": "149.36",
        "dur": "7.709",
        "text": "so from 2001 to 2004 the Federal Reserve"
    },
    {
        "start": "154.76",
        "dur": "3.479",
        "text": "cut its rate and that is the rate at"
    },
    {
        "start": "157.069",
        "dur": "3.03",
        "text": "which institutions lend to other"
    },
    {
        "start": "158.239",
        "dur": "4.621",
        "text": "institutions carrots rate significantly"
    },
    {
        "start": "160.099",
        "dur": "4.73",
        "text": "why in 2001 well of course I had a lot"
    },
    {
        "start": "162.86",
        "dur": "5.28",
        "text": "to do with the attacks on New York and"
    },
    {
        "start": "164.829",
        "dur": "7.451",
        "text": "fears of investor confidence that might"
    },
    {
        "start": "168.14",
        "dur": "6.54",
        "text": "be resulting from that and why did the"
    },
    {
        "start": "172.28",
        "dur": "4.59",
        "text": "Federal Reserve lower its rate well the"
    },
    {
        "start": "174.68",
        "dur": "3.779",
        "text": "lower the amount of money the important"
    },
    {
        "start": "176.87",
        "dur": "3.899",
        "text": "thing is the money as a commodity money"
    },
    {
        "start": "178.459",
        "dur": "5.431",
        "text": "is a good money is a thing money is like"
    },
    {
        "start": "180.769",
        "dur": "6",
        "text": "a couch or a car or a TV or a computer"
    },
    {
        "start": "183.89",
        "dur": "4.769",
        "text": "money is a commodity and of course when"
    },
    {
        "start": "186.769",
        "dur": "4.681",
        "text": "the price of any commodity or good or"
    },
    {
        "start": "188.659",
        "dur": "5.131",
        "text": "service goes down all other things being"
    },
    {
        "start": "191.45",
        "dur": "4.679",
        "text": "equal the demand will rise this we all"
    },
    {
        "start": "193.79",
        "dur": "6.27",
        "text": "know right so when the price of money"
    },
    {
        "start": "196.129",
        "dur": "5.761",
        "text": "goes down the the price sorry the"
    },
    {
        "start": "200.06",
        "dur": "4.019",
        "text": "consumption of money the demand for"
    },
    {
        "start": "201.89",
        "dur": "3.719",
        "text": "money goes up now what is the demand for"
    },
    {
        "start": "204.079",
        "dur": "2.91",
        "text": "money well the demand for money is in"
    },
    {
        "start": "205.609",
        "dur": "5.071",
        "text": "terms of borrowing right"
    },
    {
        "start": "206.989",
        "dur": "5.61",
        "text": "so if Maseratis suddenly went down to a"
    },
    {
        "start": "210.68",
        "dur": "4.679",
        "text": "dollar apiece we would all be lining up"
    },
    {
        "start": "212.599",
        "dur": "4.86",
        "text": "at the maserati dealer to pick one up or"
    },
    {
        "start": "215.359",
        "dur": "3.151",
        "text": "two or ten or a hundred even if we"
    },
    {
        "start": "217.459",
        "dur": "4.381",
        "text": "didn't really need them and of course"
    },
    {
        "start": "218.51",
        "dur": "4.86",
        "text": "because the price was so low a huge"
    },
    {
        "start": "221.84",
        "dur": "4.049",
        "text": "demand would be set up for the Maserati"
    },
    {
        "start": "223.37",
        "dur": "4.89",
        "text": "cars which would draw all of these"
    },
    {
        "start": "225.889",
        "dur": "5.07",
        "text": "resources and people and goods and"
    },
    {
        "start": "228.26",
        "dur": "4.83",
        "text": "services and capital and equipment and"
    },
    {
        "start": "230.959",
        "dur": "4.081",
        "text": "so on it would draw them away from all"
    },
    {
        "start": "233.09",
        "dur": "3.6",
        "text": "of the other car dealerships it would"
    },
    {
        "start": "235.04",
        "dur": "4.229",
        "text": "draw them away from what making washing"
    },
    {
        "start": "236.69",
        "dur": "6.09",
        "text": "machines or movies or any of these kinds"
    },
    {
        "start": "239.269",
        "dur": "5.97",
        "text": "of things so when the price of money is"
    },
    {
        "start": "242.78",
        "dur": "4.44",
        "text": "driven down when the price of the good"
    },
    {
        "start": "245.239",
        "dur": "5.4",
        "text": "called money is driven down the demand"
    },
    {
        "start": "247.22",
        "dur": "6.239",
        "text": "for money increases and so of course"
    },
    {
        "start": "250.639",
        "dur": "5.731",
        "text": "when the Fed pushes the or sets the"
    },
    {
        "start": "253.459",
        "dur": "6.39",
        "text": "interest rate artificially low then what"
    },
    {
        "start": "256.37",
        "dur": "5.82",
        "text": "happens is the demand for capital for"
    },
    {
        "start": "259.849",
        "dur": "5.19",
        "text": "fur for money goes up and the way that"
    },
    {
        "start": "262.19",
        "dur": "6.15",
        "text": "this translated in the US economy was in"
    },
    {
        "start": "265.039",
        "dur": "5.041",
        "text": "increased loans to these Kowal called"
    },
    {
        "start": "268.34",
        "dur": "4.17",
        "text": "subprime mortgages which is mortgages"
    },
    {
        "start": "270.08",
        "dur": "4.68",
        "text": "below prime also known as subprime in"
    },
    {
        "start": "272.51",
        "dur": "4.35",
        "text": "terms of the people's ability to pay"
    },
    {
        "start": "274.76",
        "dur": "7.11",
        "text": "them back so"
    },
    {
        "start": "276.86",
        "dur": "7.47",
        "text": "the rules for lending money to people to"
    },
    {
        "start": "281.87",
        "dur": "5.039",
        "text": "your average low-income home"
    },
    {
        "start": "284.33",
        "dur": "6.45",
        "text": "desire our home wanna be homeowner wanna"
    },
    {
        "start": "286.909",
        "dur": "5.73",
        "text": "be the rules for for lending money to"
    },
    {
        "start": "290.78",
        "dur": "5.099",
        "text": "these people were relaxed considerably"
    },
    {
        "start": "292.639",
        "dur": "4.351",
        "text": "and the question of course to ask if"
    },
    {
        "start": "295.879",
        "dur": "3.961",
        "text": "you're interested in this kind of stuff"
    },
    {
        "start": "296.99",
        "dur": "4.889",
        "text": "is is why well why just because the"
    },
    {
        "start": "299.84",
        "dur": "4.229",
        "text": "price of money goes down just because"
    },
    {
        "start": "301.879",
        "dur": "3.841",
        "text": "interest rates go down does that mean"
    },
    {
        "start": "304.069",
        "dur": "3.6",
        "text": "that people are going to take enormously"
    },
    {
        "start": "305.72",
        "dur": "3.39",
        "text": "high risk loans because important to"
    },
    {
        "start": "307.669",
        "dur": "3.601",
        "text": "remember when you're lending money I"
    },
    {
        "start": "309.11",
        "dur": "5.22",
        "text": "mean in a sort of free-market scenario"
    },
    {
        "start": "311.27",
        "dur": "5.369",
        "text": "and a sort of ideal non coerced and"
    },
    {
        "start": "314.33",
        "dur": "7.799",
        "text": "unregulated by the government of self"
    },
    {
        "start": "316.639",
        "dur": "8.27",
        "text": "regulated economy if you put out a loan"
    },
    {
        "start": "322.129",
        "dur": "5.85",
        "text": "you are making maybe a percent or two on"
    },
    {
        "start": "324.909",
        "dur": "5.111",
        "text": "that loan right so if I lend you a"
    },
    {
        "start": "327.979",
        "dur": "5.011",
        "text": "thousand dollars I'm going to be making"
    },
    {
        "start": "330.02",
        "dur": "4.619",
        "text": "you know not much you know when it when"
    },
    {
        "start": "332.99",
        "dur": "3.59",
        "text": "it comes back I'm gonna be making ten or"
    },
    {
        "start": "334.639",
        "dur": "6.75",
        "text": "twenty bucks a year on the loan payback"
    },
    {
        "start": "336.58",
        "dur": "8.079",
        "text": "so what that means of course is that"
    },
    {
        "start": "341.389",
        "dur": "5.58",
        "text": "every single time a bank lends someone"
    },
    {
        "start": "344.659",
        "dur": "6.57",
        "text": "money they're making a percent or two on"
    },
    {
        "start": "346.969",
        "dur": "8.85",
        "text": "the on the loan and what that means is"
    },
    {
        "start": "351.229",
        "dur": "7.41",
        "text": "that they cannot have loan defaults to"
    },
    {
        "start": "355.819",
        "dur": "4.35",
        "text": "any great degree at all the business of"
    },
    {
        "start": "358.639",
        "dur": "4.351",
        "text": "lending money they used to call it the"
    },
    {
        "start": "360.169",
        "dur": "5.37",
        "text": "363 rule of banking you know borrow at"
    },
    {
        "start": "362.99",
        "dur": "5.82",
        "text": "3% lend at 6% go to play golf at 3 p.m."
    },
    {
        "start": "365.539",
        "dur": "5.78",
        "text": "but this idea it's if you're making 1 or"
    },
    {
        "start": "368.81",
        "dur": "6.479",
        "text": "2 percent on loans then if one or two"
    },
    {
        "start": "371.319",
        "dur": "6.731",
        "text": "people out of a hundred default or maybe"
    },
    {
        "start": "375.289",
        "dur": "4.111",
        "text": "three or four default on the loan then"
    },
    {
        "start": "378.05",
        "dur": "2.869",
        "text": "the rest of your profits are completely"
    },
    {
        "start": "379.4",
        "dur": "4.29",
        "text": "wiped out it is a highly highly"
    },
    {
        "start": "380.919",
        "dur": "5.74",
        "text": "leveraged business it is a tail wag in"
    },
    {
        "start": "383.69",
        "dur": "5.159",
        "text": "the dark kind of situation so the"
    },
    {
        "start": "386.659",
        "dur": "5.37",
        "text": "question is why did all of these"
    },
    {
        "start": "388.849",
        "dur": "5.43",
        "text": "organizations decide to start lending"
    },
    {
        "start": "392.029",
        "dur": "4.021",
        "text": "money to highly risky people because"
    },
    {
        "start": "394.279",
        "dur": "4.561",
        "text": "aren't they taking on the risk"
    },
    {
        "start": "396.05",
        "dur": "4.589",
        "text": "themselves just because the price of"
    },
    {
        "start": "398.84",
        "dur": "4.71",
        "text": "interest the interest rates or the price"
    },
    {
        "start": "400.639",
        "dur": "4.381",
        "text": "of money has gone down doesn't mean that"
    },
    {
        "start": "403.55",
        "dur": "3.299",
        "text": "you are automatically gonna start"
    },
    {
        "start": "405.02",
        "dur": "3.3",
        "text": "lending to all of these uncrown credit"
    },
    {
        "start": "406.849",
        "dur": "2.691",
        "text": "worthy people or untrustworthy people"
    },
    {
        "start": "408.32",
        "dur": "4.22",
        "text": "are people who can't"
    },
    {
        "start": "409.54",
        "dur": "6.81",
        "text": "sustained the payments or whatever well"
    },
    {
        "start": "412.54",
        "dur": "8.19",
        "text": "of course what what what occurred was"
    },
    {
        "start": "416.35",
        "dur": "6.99",
        "text": "that they were able to separate the risk"
    },
    {
        "start": "420.73",
        "dur": "4.05",
        "text": "right and and this is has a lot and it's"
    },
    {
        "start": "423.34",
        "dur": "3.48",
        "text": "all complicated mess which we don't have"
    },
    {
        "start": "424.78",
        "dur": "4.11",
        "text": "to get into particularly but what"
    },
    {
        "start": "426.82",
        "dur": "3.63",
        "text": "happened was they package so they these"
    },
    {
        "start": "428.89",
        "dur": "3.33",
        "text": "companies would go out and lend to a"
    },
    {
        "start": "430.45",
        "dur": "3.78",
        "text": "whole bunch of people who were barely"
    },
    {
        "start": "432.22",
        "dur": "4.2",
        "text": "scraping by in places where there was"
    },
    {
        "start": "434.23",
        "dur": "5.19",
        "text": "high instability economic instability"
    },
    {
        "start": "436.42",
        "dur": "4.74",
        "text": "high unemployment and job insecurity and"
    },
    {
        "start": "439.42",
        "dur": "3.45",
        "text": "so on so they would go out and they"
    },
    {
        "start": "441.16",
        "dur": "2.94",
        "text": "would lend all of this money to people"
    },
    {
        "start": "442.87",
        "dur": "2.97",
        "text": "to buy a house these people would then"
    },
    {
        "start": "444.1",
        "dur": "4.53",
        "text": "go out buy a condo or a townhouse or a"
    },
    {
        "start": "445.84",
        "dur": "5.61",
        "text": "house and then these institutions would"
    },
    {
        "start": "448.63",
        "dur": "4.92",
        "text": "repackage these loans bundle them all up"
    },
    {
        "start": "451.45",
        "dur": "4.11",
        "text": "in these big derivative monsters and"
    },
    {
        "start": "453.55",
        "dur": "5.61",
        "text": "then they would sell those as income"
    },
    {
        "start": "455.56",
        "dur": "6.51",
        "text": "generators for other people so they"
    },
    {
        "start": "459.16",
        "dur": "6.12",
        "text": "basically passed the risk along to other"
    },
    {
        "start": "462.07",
        "dur": "5.34",
        "text": "people now you may say and well may you"
    },
    {
        "start": "465.28",
        "dur": "4.89",
        "text": "say what on earth is the point of that"
    },
    {
        "start": "467.41",
        "dur": "7.17",
        "text": "right I mean why would you want to take"
    },
    {
        "start": "470.17",
        "dur": "5.85",
        "text": "on somebody else's loan when you don't"
    },
    {
        "start": "474.58",
        "dur": "3.33",
        "text": "even know what the hell is going on"
    },
    {
        "start": "476.02",
        "dur": "3.33",
        "text": "right I mean at least the company that"
    },
    {
        "start": "477.91",
        "dur": "3.32",
        "text": "has made the loan has some skin in the"
    },
    {
        "start": "479.35",
        "dur": "3.78",
        "text": "game right they're actually out there"
    },
    {
        "start": "481.23",
        "dur": "4.09",
        "text": "assessing the risk and lending the money"
    },
    {
        "start": "483.13",
        "dur": "4.35",
        "text": "why would some person in the middle of"
    },
    {
        "start": "485.32",
        "dur": "5.4",
        "text": "nowhere somewhere out in the"
    },
    {
        "start": "487.48",
        "dur": "5.25",
        "text": "international financial ecosystem why on"
    },
    {
        "start": "490.72",
        "dur": "4.2",
        "text": "earth would they want to pick up these"
    },
    {
        "start": "492.73",
        "dur": "4.59",
        "text": "loans when they couldn't assess the"
    },
    {
        "start": "494.92",
        "dur": "5.01",
        "text": "value or the I mean it's really really"
    },
    {
        "start": "497.32",
        "dur": "4.14",
        "text": "risky so why would they want to do that"
    },
    {
        "start": "499.93",
        "dur": "3.84",
        "text": "well of course the reason that they"
    },
    {
        "start": "501.46",
        "dur": "4.38",
        "text": "would want to do that is that the"
    },
    {
        "start": "503.77",
        "dur": "3.33",
        "text": "government and this is not just true of"
    },
    {
        "start": "505.84",
        "dur": "3.75",
        "text": "the US government but other governments"
    },
    {
        "start": "507.1",
        "dur": "4.44",
        "text": "as well have created these situations"
    },
    {
        "start": "509.59",
        "dur": "3.93",
        "text": "where you can peel off the profits in"
    },
    {
        "start": "511.54",
        "dur": "4.62",
        "text": "the short run and you can put them into"
    },
    {
        "start": "513.52",
        "dur": "6.149",
        "text": "other companies right so what happens is"
    },
    {
        "start": "516.16",
        "dur": "6",
        "text": "you basically swallow these big risky"
    },
    {
        "start": "519.669",
        "dur": "4.591",
        "text": "loans where you are making a fair amount"
    },
    {
        "start": "522.16",
        "dur": "4.26",
        "text": "of money in the short run you peel off"
    },
    {
        "start": "524.26",
        "dur": "4.68",
        "text": "those profits and you put them in some"
    },
    {
        "start": "526.42",
        "dur": "4.02",
        "text": "offshore some other company and then"
    },
    {
        "start": "528.94",
        "dur": "3.21",
        "text": "what happens is when your original"
    },
    {
        "start": "530.44",
        "dur": "4.32",
        "text": "company when the if those loans default"
    },
    {
        "start": "532.15",
        "dur": "4.56",
        "text": "no problem you've already taken the"
    },
    {
        "start": "534.76",
        "dur": "4.07",
        "text": "profits and put them elsewhere where the"
    },
    {
        "start": "536.71",
        "dur": "4.71",
        "text": "collapse of the original organization"
    },
    {
        "start": "538.83",
        "dur": "4.09",
        "text": "doesn't doesn't affect them right so the"
    },
    {
        "start": "541.42",
        "dur": "3.06",
        "text": "government has created this ability to"
    },
    {
        "start": "542.92",
        "dur": "3.45",
        "text": "Hiva this is the Enron thing to write"
    },
    {
        "start": "544.48",
        "dur": "3.78",
        "text": "hive off these profits put them"
    },
    {
        "start": "546.37",
        "dur": "5.37",
        "text": "elsewhere where they are immune from"
    },
    {
        "start": "548.26",
        "dur": "6.99",
        "text": "repercussions if your original if your"
    },
    {
        "start": "551.74",
        "dur": "4.89",
        "text": "original corporation the one that's"
    },
    {
        "start": "555.25",
        "dur": "4.649",
        "text": "actually absorbing all of these things"
    },
    {
        "start": "556.63",
        "dur": "5.13",
        "text": "goes down so I mean this is an entirely"
    },
    {
        "start": "559.899",
        "dur": "3.961",
        "text": "state created and state generated"
    },
    {
        "start": "561.76",
        "dur": "3.389",
        "text": "in-state sustained situation the"
    },
    {
        "start": "563.86",
        "dur": "3.599",
        "text": "government has the power to set interest"
    },
    {
        "start": "565.149",
        "dur": "4.401",
        "text": "rates to print money and so on and so"
    },
    {
        "start": "567.459",
        "dur": "4.291",
        "text": "because it printed so much money it"
    },
    {
        "start": "569.55",
        "dur": "3.37",
        "text": "failed to regulate any of the loans"
    },
    {
        "start": "571.75",
        "dur": "3.329",
        "text": "which of course it always stare that's"
    },
    {
        "start": "572.92",
        "dur": "3.84",
        "text": "right and then it created the ability"
    },
    {
        "start": "575.079",
        "dur": "3.931",
        "text": "for these people to hive off these"
    },
    {
        "start": "576.76",
        "dur": "4.829",
        "text": "profits and of course that is in return"
    },
    {
        "start": "579.01",
        "dur": "3.81",
        "text": "for financial contributions to people"
    },
    {
        "start": "581.589",
        "dur": "3.201",
        "text": "who were running for office I mean this"
    },
    {
        "start": "582.82",
        "dur": "4.259",
        "text": "is the Wall Street in Washington"
    },
    {
        "start": "584.79",
        "dur": "4.06",
        "text": "bear-hug which shoe you know causes the"
    },
    {
        "start": "587.079",
        "dur": "5.37",
        "text": "middle classes head to explode for the"
    },
    {
        "start": "588.85",
        "dur": "4.859",
        "text": "most part so in the short run sort of"
    },
    {
        "start": "592.449",
        "dur": "3.181",
        "text": "what happens is people make a lot of"
    },
    {
        "start": "593.709",
        "dur": "4.44",
        "text": "money and they they - off they carve it"
    },
    {
        "start": "595.63",
        "dur": "4.29",
        "text": "off right so if you can make a lot of"
    },
    {
        "start": "598.149",
        "dur": "3.571",
        "text": "money in the short run without exposing"
    },
    {
        "start": "599.92",
        "dur": "4.68",
        "text": "yourself to any substantial risk in the"
    },
    {
        "start": "601.72",
        "dur": "4.65",
        "text": "long run why wouldn't you do it I mean"
    },
    {
        "start": "604.6",
        "dur": "3.929",
        "text": "that's I mean this is a moral of course"
    },
    {
        "start": "606.37",
        "dur": "4.44",
        "text": "but this is economics understands and"
    },
    {
        "start": "608.529",
        "dur": "4.441",
        "text": "respects the fact maybe not respects but"
    },
    {
        "start": "610.81",
        "dur": "6.209",
        "text": "understands it appreciates the fact that"
    },
    {
        "start": "612.97",
        "dur": "7.799",
        "text": "people are motivated by maximizing their"
    },
    {
        "start": "617.019",
        "dur": "5.341",
        "text": "gains in the short run so what happens"
    },
    {
        "start": "620.769",
        "dur": "2.871",
        "text": "is of course the profits have all been"
    },
    {
        "start": "622.36",
        "dur": "3.75",
        "text": "siphoned off from these large"
    },
    {
        "start": "623.64",
        "dur": "5.05",
        "text": "corporations the bear stearns and so on"
    },
    {
        "start": "626.11",
        "dur": "4.86",
        "text": "and then what happens is when the house"
    },
    {
        "start": "628.69",
        "dur": "6.41",
        "text": "of cards begins to collapse right when"
    },
    {
        "start": "630.97",
        "dur": "6.179",
        "text": "when the when the the government's"
    },
    {
        "start": "635.1",
        "dur": "3.76",
        "text": "printing of money and artificial"
    },
    {
        "start": "637.149",
        "dur": "3.3",
        "text": "suppression of the interest rates can no"
    },
    {
        "start": "638.86",
        "dur": "2.94",
        "text": "longer sustain the basic realities"
    },
    {
        "start": "640.449",
        "dur": "3.781",
        "text": "because of course what has happened is"
    },
    {
        "start": "641.8",
        "dur": "4.92",
        "text": "when you artificially sister lower the"
    },
    {
        "start": "644.23",
        "dur": "3.99",
        "text": "the interest rates and make it very"
    },
    {
        "start": "646.72",
        "dur": "3.57",
        "text": "possible for people to make an enormous"
    },
    {
        "start": "648.22",
        "dur": "5.099",
        "text": "amount of short-term profit selling"
    },
    {
        "start": "650.29",
        "dur": "5.01",
        "text": "houses in an unsustainable way to mostly"
    },
    {
        "start": "653.319",
        "dur": "3.811",
        "text": "poor lower middle class people and to"
    },
    {
        "start": "655.3",
        "dur": "4.05",
        "text": "some degree middle class people what"
    },
    {
        "start": "657.13",
        "dur": "4.29",
        "text": "happens well there's this huge tsunami"
    },
    {
        "start": "659.35",
        "dur": "5.01",
        "text": "or tidal wave of capital and resources"
    },
    {
        "start": "661.42",
        "dur": "6.39",
        "text": "and labor and energy and so on that goes"
    },
    {
        "start": "664.36",
        "dur": "5.82",
        "text": "from every other industry into the"
    },
    {
        "start": "667.81",
        "dur": "3.75",
        "text": "housing industry right because that's"
    },
    {
        "start": "670.18",
        "dur": "2.909",
        "text": "where the money is from building and"
    },
    {
        "start": "671.56",
        "dur": "4.019",
        "text": "selling houses is where you make the"
    },
    {
        "start": "673.089",
        "dur": "3.601",
        "text": "most savage and crazed crazy-ass profits"
    },
    {
        "start": "675.579",
        "dur": "4.931",
        "text": "on the planet"
    },
    {
        "start": "676.69",
        "dur": "4.9",
        "text": "so what happens is people no longer lend"
    },
    {
        "start": "680.51",
        "dur": "2.67",
        "text": "manufacturers"
    },
    {
        "start": "681.59",
        "dur": "3.63",
        "text": "people no longer lend to service"
    },
    {
        "start": "683.18",
        "dur": "5.85",
        "text": "industries all the money is going into"
    },
    {
        "start": "685.22",
        "dur": "6.3",
        "text": "construction and financial services so"
    },
    {
        "start": "689.03",
        "dur": "4.23",
        "text": "what happens well somebody who has a job"
    },
    {
        "start": "691.52",
        "dur": "3.18",
        "text": "in a manufacturing organization or a"
    },
    {
        "start": "693.26",
        "dur": "3.39",
        "text": "service organization or something like"
    },
    {
        "start": "694.7",
        "dur": "4.41",
        "text": "that buys a house because interest rates"
    },
    {
        "start": "696.65",
        "dur": "5.61",
        "text": "are low but because everyone is buying a"
    },
    {
        "start": "699.11",
        "dur": "5.13",
        "text": "house all of the investment is going to"
    },
    {
        "start": "702.26",
        "dur": "4.62",
        "text": "the housing market which means that his"
    },
    {
        "start": "704.24",
        "dur": "4.32",
        "text": "job is at risk right because when all of"
    },
    {
        "start": "706.88",
        "dur": "3.33",
        "text": "the investment is going elsewhere it"
    },
    {
        "start": "708.56",
        "dur": "4.38",
        "text": "means that there's less investment for"
    },
    {
        "start": "710.21",
        "dur": "4.83",
        "text": "actually productive sectors of the"
    },
    {
        "start": "712.94",
        "dur": "3.48",
        "text": "economy and it's not to say that housing"
    },
    {
        "start": "715.04",
        "dur": "3.99",
        "text": "is not we all need a place to live but"
    },
    {
        "start": "716.42",
        "dur": "5.76",
        "text": "you know relative to how it would be in"
    },
    {
        "start": "719.03",
        "dur": "4.62",
        "text": "a free market situation so because"
    },
    {
        "start": "722.18",
        "dur": "3.57",
        "text": "everybody's out there buying houses the"
    },
    {
        "start": "723.65",
        "dur": "3.93",
        "text": "capital all goes to the housing markets"
    },
    {
        "start": "725.75",
        "dur": "3.24",
        "text": "the the labor the investment or goes to"
    },
    {
        "start": "727.58",
        "dur": "3.42",
        "text": "the housing and the financial services"
    },
    {
        "start": "728.99",
        "dur": "3.42",
        "text": "there's less available for these other"
    },
    {
        "start": "731",
        "dur": "3.45",
        "text": "areas which means that they start"
    },
    {
        "start": "732.41",
        "dur": "4.83",
        "text": "shedding jobs everything that you see"
    },
    {
        "start": "734.45",
        "dur": "4.92",
        "text": "that is a visible bubble is is the"
    },
    {
        "start": "737.24",
        "dur": "3.78",
        "text": "result of a crater that you can't see"
    },
    {
        "start": "739.37",
        "dur": "3.87",
        "text": "somewhere else for economics is all"
    },
    {
        "start": "741.02",
        "dur": "4.38",
        "text": "about seeing the hidden losses behind"
    },
    {
        "start": "743.24",
        "dur": "4.35",
        "text": "particular aspects of transactions right"
    },
    {
        "start": "745.4",
        "dur": "4.32",
        "text": "so when the government subsidizes jobs"
    },
    {
        "start": "747.59",
        "dur": "3.63",
        "text": "you see the thousand jobs of the created"
    },
    {
        "start": "749.72",
        "dur": "3.27",
        "text": "you don't see the 5,000 jobs that"
    },
    {
        "start": "751.22",
        "dur": "4.55",
        "text": "weren't created because the money was"
    },
    {
        "start": "752.99",
        "dur": "7.08",
        "text": "forcibly shoved into one particular area"
    },
    {
        "start": "755.77",
        "dur": "6.36",
        "text": "so these people then default on their"
    },
    {
        "start": "760.07",
        "dur": "6.84",
        "text": "housing they simply can't afford them"
    },
    {
        "start": "762.13",
        "dur": "7.06",
        "text": "which of course is not good not good for"
    },
    {
        "start": "766.91",
        "dur": "4.32",
        "text": "the bank right because the bank has lent"
    },
    {
        "start": "769.19",
        "dur": "4.74",
        "text": "the money to the person to buy the house"
    },
    {
        "start": "771.23",
        "dur": "4.05",
        "text": "on the expectation that the the money"
    },
    {
        "start": "773.93",
        "dur": "4.59",
        "text": "will be paid back of course and then it"
    },
    {
        "start": "775.28",
        "dur": "5.16",
        "text": "has resold this as a glammed-up Gordian"
    },
    {
        "start": "778.52",
        "dur": "6.21",
        "text": "knot of financial derivative services or"
    },
    {
        "start": "780.44",
        "dur": "6.48",
        "text": "instruments to other people and this"
    },
    {
        "start": "784.73",
        "dur": "6",
        "text": "this default begins to cause problems"
    },
    {
        "start": "786.92",
        "dur": "4.95",
        "text": "right so lending and this is the sort of"
    },
    {
        "start": "790.73",
        "dur": "3.33",
        "text": "the bubble thing right because you lend"
    },
    {
        "start": "791.87",
        "dur": "3.6",
        "text": "money also to people when housing prices"
    },
    {
        "start": "794.06",
        "dur": "3.39",
        "text": "are going up based on the fact that"
    },
    {
        "start": "795.47",
        "dur": "3.75",
        "text": "they're accumulating value in their"
    },
    {
        "start": "797.45",
        "dur": "3.66",
        "text": "house because house prices are going up"
    },
    {
        "start": "799.22",
        "dur": "5.25",
        "text": "when lots of defaults start to happen"
    },
    {
        "start": "801.11",
        "dur": "5.52",
        "text": "what happens is the the price of houses"
    },
    {
        "start": "804.47",
        "dur": "3.96",
        "text": "of course begins to go down or at least"
    },
    {
        "start": "806.63",
        "dur": "3.1",
        "text": "it starts accelerating upwards so all"
    },
    {
        "start": "808.43",
        "dur": "3.519",
        "text": "the projections about how"
    },
    {
        "start": "809.73",
        "dur": "4.169",
        "text": "is going to be made or out of buying a"
    },
    {
        "start": "811.949",
        "dur": "3.271",
        "text": "house goes down which means that these"
    },
    {
        "start": "813.899",
        "dur": "3.18",
        "text": "companies have to take a write down"
    },
    {
        "start": "815.22",
        "dur": "3.69",
        "text": "because the assets that they have in"
    },
    {
        "start": "817.079",
        "dur": "3.271",
        "text": "terms of houses are no longer as"
    },
    {
        "start": "818.91",
        "dur": "2.639",
        "text": "valuable right because you have the"
    },
    {
        "start": "820.35",
        "dur": "2.669",
        "text": "asset as a house which you're selling"
    },
    {
        "start": "821.549",
        "dur": "3.39",
        "text": "off month by month to the person with"
    },
    {
        "start": "823.019",
        "dur": "5.28",
        "text": "the mortgage so those asses to them"
    },
    {
        "start": "824.939",
        "dur": "4.89",
        "text": "become a lot less valuable so what"
    },
    {
        "start": "828.299",
        "dur": "3.57",
        "text": "happens well you begin to have a"
    },
    {
        "start": "829.829",
        "dur": "4.62",
        "text": "financial catastrophe again completely"
    },
    {
        "start": "831.869",
        "dur": "4.53",
        "text": "created and completely sustained and"
    },
    {
        "start": "834.449",
        "dur": "4.56",
        "text": "completely dominated by state-run"
    },
    {
        "start": "836.399",
        "dur": "4.201",
        "text": "institutions the Fed the SEC the"
    },
    {
        "start": "839.009",
        "dur": "2.82",
        "text": "Financial Regulation sector and so on"
    },
    {
        "start": "840.6",
        "dur": "2.729",
        "text": "it's got nothing to do with protecting"
    },
    {
        "start": "841.829",
        "dur": "3.84",
        "text": "the consumers got nothing to do with"
    },
    {
        "start": "843.329",
        "dur": "4.26",
        "text": "protecting you it's all about rewarding"
    },
    {
        "start": "845.669",
        "dur": "3.72",
        "text": "friends and punishing enemies as is the"
    },
    {
        "start": "847.589",
        "dur": "3.69",
        "text": "case with all uses of political violence"
    },
    {
        "start": "849.389",
        "dur": "4.53",
        "text": "in the form of regulation and taxation"
    },
    {
        "start": "851.279",
        "dur": "5.25",
        "text": "and coercion and so on so what then"
    },
    {
        "start": "853.919",
        "dur": "4.77",
        "text": "begins to happen well these financial"
    },
    {
        "start": "856.529",
        "dur": "5.46",
        "text": "institutions become unable to pay their"
    },
    {
        "start": "858.689",
        "dur": "4.59",
        "text": "bills now again this doesn't mean that"
    },
    {
        "start": "861.989",
        "dur": "2.731",
        "text": "the people at the top who are able to"
    },
    {
        "start": "863.279",
        "dur": "3.18",
        "text": "skim off the profits pay themself"
    },
    {
        "start": "864.72",
        "dur": "3.739",
        "text": "handsome bonuses put that money offshore"
    },
    {
        "start": "866.459",
        "dur": "3.99",
        "text": "in ways that can't be accessed by"
    },
    {
        "start": "868.459",
        "dur": "3.46",
        "text": "regulators or the government those"
    },
    {
        "start": "870.449",
        "dur": "2.73",
        "text": "people are doing fine I mean those"
    },
    {
        "start": "871.919",
        "dur": "3.09",
        "text": "people thank you very much have had a"
    },
    {
        "start": "873.179",
        "dur": "4.32",
        "text": "fantastic ride they're perfectly happy"
    },
    {
        "start": "875.009",
        "dur": "4.29",
        "text": "they're perfectly satisfied and you know"
    },
    {
        "start": "877.499",
        "dur": "3.36",
        "text": "of course I mean this is a complete"
    },
    {
        "start": "879.299",
        "dur": "4.38",
        "text": "indication of when a bubble is occurring"
    },
    {
        "start": "880.859",
        "dur": "5.1",
        "text": "when people begin to get paid commission"
    },
    {
        "start": "883.679",
        "dur": "3.9",
        "text": "for the transaction rather than salary"
    },
    {
        "start": "885.959",
        "dur": "3.271",
        "text": "in the long run you know that a bubble"
    },
    {
        "start": "887.579",
        "dur": "4.86",
        "text": "is occurring right it's the people who"
    },
    {
        "start": "889.23",
        "dur": "5.25",
        "text": "would make these mortgage loans to a"
    },
    {
        "start": "892.439",
        "dur": "3.51",
        "text": "poor and lower income people would get"
    },
    {
        "start": "894.48",
        "dur": "3.479",
        "text": "paid for the transaction they wouldn't"
    },
    {
        "start": "895.949",
        "dur": "4.92",
        "text": "get paid in terms of long term salary"
    },
    {
        "start": "897.959",
        "dur": "4.141",
        "text": "for the long term success of that loan"
    },
    {
        "start": "900.869",
        "dur": "2.88",
        "text": "which meant that they just you would"
    },
    {
        "start": "902.1",
        "dur": "3.359",
        "text": "sign anybody up in order to get paid"
    },
    {
        "start": "903.749",
        "dur": "3.21",
        "text": "their commission and to help with the"
    },
    {
        "start": "905.459",
        "dur": "3.48",
        "text": "long term consequences I mean this is"
    },
    {
        "start": "906.959",
        "dur": "5.701",
        "text": "all been evident for for quite some time"
    },
    {
        "start": "908.939",
        "dur": "8.85",
        "text": "let me tell you so when these financial"
    },
    {
        "start": "912.66",
        "dur": "8.609",
        "text": "institutions are unable to to make their"
    },
    {
        "start": "917.789",
        "dur": "5.52",
        "text": "commitments everybody gets scared right"
    },
    {
        "start": "921.269",
        "dur": "5.87",
        "text": "the government gets scared because if"
    },
    {
        "start": "923.309",
        "dur": "6.48",
        "text": "there is a perceived instability or core"
    },
    {
        "start": "927.139",
        "dur": "6.01",
        "text": "value absence right at the heart of the"
    },
    {
        "start": "929.789",
        "dur": "5.1",
        "text": "US financials industry well then as you"
    },
    {
        "start": "933.149",
        "dur": "4.261",
        "text": "can see from this article that I started"
    },
    {
        "start": "934.889",
        "dur": "5.76",
        "text": "reading foreign bondholders don't want"
    },
    {
        "start": "937.41",
        "dur": "5.339",
        "text": "to buy US Treasury bonds now I mean"
    },
    {
        "start": "940.649",
        "dur": "2.791",
        "text": "again I want to get overly complicated"
    },
    {
        "start": "942.749",
        "dur": "1.711",
        "text": "but"
    },
    {
        "start": "943.44",
        "dur": "4.35",
        "text": "three bonds basically the government"
    },
    {
        "start": "944.46",
        "dur": "4.8",
        "text": "will take $100 now promising that in 10"
    },
    {
        "start": "947.79",
        "dur": "3.09",
        "text": "years it would give people a hundred and"
    },
    {
        "start": "949.26",
        "dur": "3.48",
        "text": "ten dollars and right so basically it's"
    },
    {
        "start": "950.88",
        "dur": "3.36",
        "text": "a total screw you to food future"
    },
    {
        "start": "952.74",
        "dur": "4.71",
        "text": "taxpayers right it's pillaging the"
    },
    {
        "start": "954.24",
        "dur": "4.53",
        "text": "future to to pay for the malinvestments"
    },
    {
        "start": "957.45",
        "dur": "3.36",
        "text": "in the present and of course government"
    },
    {
        "start": "958.77",
        "dur": "5.49",
        "text": "itself is fundamentally a complete and"
    },
    {
        "start": "960.81",
        "dur": "5.49",
        "text": "total malinvestment so the government"
    },
    {
        "start": "964.26",
        "dur": "5.85",
        "text": "and this is Bernanke I think his name is"
    },
    {
        "start": "966.3",
        "dur": "7.77",
        "text": "the new Fed guy but he just he just am"
    },
    {
        "start": "970.11",
        "dur": "5.88",
        "text": "not elected just appointed has no no say"
    },
    {
        "start": "974.07",
        "dur": "3.27",
        "text": "the people have no say in what he does"
    },
    {
        "start": "975.99",
        "dur": "3.15",
        "text": "not that the people have any say really"
    },
    {
        "start": "977.34",
        "dur": "3.75",
        "text": "but even he does they don't even have"
    },
    {
        "start": "979.14",
        "dur": "5.19",
        "text": "the illusion of a say and what this guy"
    },
    {
        "start": "981.09",
        "dur": "5.84",
        "text": "does he just injects 200 billion dollars"
    },
    {
        "start": "984.33",
        "dur": "4.77",
        "text": "into so couple of financial companies"
    },
    {
        "start": "986.93",
        "dur": "3.91",
        "text": "how is it that he gets the right to"
    },
    {
        "start": "989.1",
        "dur": "5.13",
        "text": "spend 200 billion dollars of future"
    },
    {
        "start": "990.84",
        "dur": "4.92",
        "text": "taxpayers money because it's a screwed"
    },
    {
        "start": "994.23",
        "dur": "3.15",
        "text": "up an evil system that's why I mean"
    },
    {
        "start": "995.76",
        "dur": "3.72",
        "text": "because it is a completely exploit"
    },
    {
        "start": "997.38",
        "dur": "4.59",
        "text": "exploitive system we are tax livestock"
    },
    {
        "start": "999.48",
        "dur": "4.26",
        "text": "to our financial masters you know this"
    },
    {
        "start": "1001.97",
        "dur": "4.47",
        "text": "is not just me making stuff up this is"
    },
    {
        "start": "1003.74",
        "dur": "4.59",
        "text": "not just crazy paranoid and artistic"
    },
    {
        "start": "1006.44",
        "dur": "3.69",
        "text": "ranting that's just a fact I mean we"
    },
    {
        "start": "1008.33",
        "dur": "3.42",
        "text": "don't have any control over the most"
    },
    {
        "start": "1010.13",
        "dur": "3.57",
        "text": "foundational instrument of interactions"
    },
    {
        "start": "1011.75",
        "dur": "3.84",
        "text": "which is currency and it's certainly not"
    },
    {
        "start": "1013.7",
        "dur": "3.3",
        "text": "read run for our benefit but it's run"
    },
    {
        "start": "1015.59",
        "dur": "3.3",
        "text": "for the benefit of the people who have"
    },
    {
        "start": "1017",
        "dur": "6.48",
        "text": "access to power it's not you and it's"
    },
    {
        "start": "1018.89",
        "dur": "6.33",
        "text": "not me and it never will be so the US"
    },
    {
        "start": "1023.48",
        "dur": "4.02",
        "text": "government of course is desperate to"
    },
    {
        "start": "1025.22",
        "dur": "5.729",
        "text": "keep having foreigners lending money"
    },
    {
        "start": "1027.5",
        "dur": "5.37",
        "text": "right because one another one of the"
    },
    {
        "start": "1030.949",
        "dur": "6.331",
        "text": "reasons why the Fed has kept the"
    },
    {
        "start": "1032.87",
        "dur": "5.76",
        "text": "interest rate low is because it it keeps"
    },
    {
        "start": "1037.28",
        "dur": "3.299",
        "text": "an artificial demand for goods and"
    },
    {
        "start": "1038.63",
        "dur": "4.319",
        "text": "services going again particularly in the"
    },
    {
        "start": "1040.579",
        "dur": "4.591",
        "text": "real estate market which covers up all"
    },
    {
        "start": "1042.949",
        "dur": "3.661",
        "text": "of the problems that are caused by the"
    },
    {
        "start": "1045.17",
        "dur": "4.35",
        "text": "massive amount of spending that's going"
    },
    {
        "start": "1046.61",
        "dur": "5.07",
        "text": "into the the genocides in Iraq and"
    },
    {
        "start": "1049.52",
        "dur": "3.99",
        "text": "Afghanistan right because murder is a"
    },
    {
        "start": "1051.68",
        "dur": "4.56",
        "text": "highly profitable business for state"
    },
    {
        "start": "1053.51",
        "dur": "4.95",
        "text": "allegiance organizations right and the"
    },
    {
        "start": "1056.24",
        "dur": "4.17",
        "text": "mecan't ilysm of death is staggeringly"
    },
    {
        "start": "1058.46",
        "dur": "3.78",
        "text": "profitable and I used that word profit"
    },
    {
        "start": "1060.41",
        "dur": "3.21",
        "text": "in a completely non free-market way in"
    },
    {
        "start": "1062.24",
        "dur": "6.33",
        "text": "the way that a mugger profits from his"
    },
    {
        "start": "1063.62",
        "dur": "7.47",
        "text": "victims so the US government has had a"
    },
    {
        "start": "1068.57",
        "dur": "5.34",
        "text": "huge problem which is that it is running"
    },
    {
        "start": "1071.09",
        "dur": "4.53",
        "text": "the Iraq war in order to prey upon the"
    },
    {
        "start": "1073.91",
        "dur": "2.95",
        "text": "last remains our public finance"
    },
    {
        "start": "1075.62",
        "dur": "5.92",
        "text": "potential right and the same"
    },
    {
        "start": "1076.86",
        "dur": "7.71",
        "text": "way that the the Russian government in"
    },
    {
        "start": "1081.54",
        "dur": "5.009",
        "text": "the 1980s was was running the"
    },
    {
        "start": "1084.57",
        "dur": "4.25",
        "text": "Afghanistan war so that it could pillage"
    },
    {
        "start": "1086.549",
        "dur": "4.351",
        "text": "the Treasury as much as possible so"
    },
    {
        "start": "1088.82",
        "dur": "3.7",
        "text": "given that we sort of can understand"
    },
    {
        "start": "1090.9",
        "dur": "2.94",
        "text": "that the war is being ran to pillage to"
    },
    {
        "start": "1092.52",
        "dur": "2.7",
        "text": "Treasury it's got nothing to do with"
    },
    {
        "start": "1093.84",
        "dur": "2.76",
        "text": "them because they just invent reason"
    },
    {
        "start": "1095.22",
        "dur": "3.57",
        "text": "after reason of our weapons of mass"
    },
    {
        "start": "1096.6",
        "dur": "3.9",
        "text": "destruction bringing democracy is like"
    },
    {
        "start": "1098.79",
        "dur": "3.09",
        "text": "hey what will they buy today that I can"
    },
    {
        "start": "1100.5",
        "dur": "3.299",
        "text": "put forward as a justification for this"
    },
    {
        "start": "1101.88",
        "dur": "3.299",
        "text": "war which means that the real"
    },
    {
        "start": "1103.799",
        "dur": "2.88",
        "text": "justification of course is not being"
    },
    {
        "start": "1105.179",
        "dur": "5.101",
        "text": "talked about and the real justification"
    },
    {
        "start": "1106.679",
        "dur": "5.88",
        "text": "is that war is by far the most efficient"
    },
    {
        "start": "1110.28",
        "dur": "3.87",
        "text": "way to pillage the public person there's"
    },
    {
        "start": "1112.559",
        "dur": "4.081",
        "text": "just no better way because people simply"
    },
    {
        "start": "1114.15",
        "dur": "3.99",
        "text": "will not stand for because they are"
    },
    {
        "start": "1116.64",
        "dur": "3.779",
        "text": "patriotic and they support the troops"
    },
    {
        "start": "1118.14",
        "dur": "3.9",
        "text": "they will not stand for reductions in"
    },
    {
        "start": "1120.419",
        "dur": "3.151",
        "text": "public spending or controls in public"
    },
    {
        "start": "1122.04",
        "dur": "5.04",
        "text": "spending during a time of war so if you"
    },
    {
        "start": "1123.57",
        "dur": "6.15",
        "text": "want to pillage the Treasury you start a"
    },
    {
        "start": "1127.08",
        "dur": "4.02",
        "text": "war this is why Wars get started the"
    },
    {
        "start": "1129.72",
        "dur": "5.31",
        "text": "most efficient way to steal things right"
    },
    {
        "start": "1131.1",
        "dur": "6.66",
        "text": "so given that the American average"
    },
    {
        "start": "1135.03",
        "dur": "4.17",
        "text": "American citizen would not be a big fan"
    },
    {
        "start": "1137.76",
        "dur": "1.98",
        "text": "of the war if he got a half a couple of"
    },
    {
        "start": "1139.2",
        "dur": "3.12",
        "text": "hundred bucks"
    },
    {
        "start": "1139.74",
        "dur": "5.01",
        "text": "bill in his mailbox every month they"
    },
    {
        "start": "1142.32",
        "dur": "3.9",
        "text": "have to make sure that the true cost of"
    },
    {
        "start": "1144.75",
        "dur": "3.9",
        "text": "the war hidden from the American public"
    },
    {
        "start": "1146.22",
        "dur": "4.23",
        "text": "so that when the disaster finally hits"
    },
    {
        "start": "1148.65",
        "dur": "3.93",
        "text": "so the financial meltdown finally hits"
    },
    {
        "start": "1150.45",
        "dur": "3.56",
        "text": "it will be years after the war has"
    },
    {
        "start": "1152.58",
        "dur": "4.62",
        "text": "started that we just passed the"
    },
    {
        "start": "1154.01",
        "dur": "4.57",
        "text": "five-year anniversary so they have to"
    },
    {
        "start": "1157.2",
        "dur": "3.81",
        "text": "hide these costs and what that means is"
    },
    {
        "start": "1158.58",
        "dur": "3.99",
        "text": "they have to get foreigners to buy US"
    },
    {
        "start": "1161.01",
        "dur": "3.539",
        "text": "government bonds right so basically"
    },
    {
        "start": "1162.57",
        "dur": "4.68",
        "text": "they're selling future generations to"
    },
    {
        "start": "1164.549",
        "dur": "4.771",
        "text": "foreigners and what is it like over 65%"
    },
    {
        "start": "1167.25",
        "dur": "3.84",
        "text": "of the u.s. national debt is held by"
    },
    {
        "start": "1169.32",
        "dur": "3.39",
        "text": "foreigners to number one being Japan and"
    },
    {
        "start": "1171.09",
        "dur": "3.839",
        "text": "the reason for that of course is that"
    },
    {
        "start": "1172.71",
        "dur": "4.589",
        "text": "America is still 60 years after"
    },
    {
        "start": "1174.929",
        "dur": "6.271",
        "text": "defeating Japan by nuking it unjustly"
    },
    {
        "start": "1177.299",
        "dur": "5.911",
        "text": "the u.s. is still occupying Japan and"
    },
    {
        "start": "1181.2",
        "dur": "6.21",
        "text": "Okinawa and has nukes actually offshore"
    },
    {
        "start": "1183.21",
        "dur": "5.7",
        "text": "in ships and pretty much you can get the"
    },
    {
        "start": "1187.41",
        "dur": "3.33",
        "text": "Japanese government to do whatever at"
    },
    {
        "start": "1188.91",
        "dur": "4.95",
        "text": "once so one of the things that it says"
    },
    {
        "start": "1190.74",
        "dur": "4.29",
        "text": "is you know passing buyer bonds or bad"
    },
    {
        "start": "1193.86",
        "dur": "2.699",
        "text": "things will happen to you it's a"
    },
    {
        "start": "1195.03",
        "dur": "6.09",
        "text": "shakedown of course like everything that"
    },
    {
        "start": "1196.559",
        "dur": "7.261",
        "text": "the government does so the US government"
    },
    {
        "start": "1201.12",
        "dur": "4.41",
        "text": "needs constant infusions of capital from"
    },
    {
        "start": "1203.82",
        "dur": "3.69",
        "text": "foreigners to pay for its ever"
    },
    {
        "start": "1205.53",
        "dur": "4.2",
        "text": "escalating spending right"
    },
    {
        "start": "1207.51",
        "dur": "3.12",
        "text": "so basically we're being sold to people"
    },
    {
        "start": "1209.73",
        "dur": "3.569",
        "text": "around the globe"
    },
    {
        "start": "1210.63",
        "dur": "4.71",
        "text": "so that our our tax Lords can become"
    },
    {
        "start": "1213.299",
        "dur": "3.301",
        "text": "rich in the in the short run and of"
    },
    {
        "start": "1215.34",
        "dur": "2.699",
        "text": "course they're going to escape with"
    },
    {
        "start": "1216.6",
        "dur": "5.67",
        "text": "their capital intact and we're gonna be"
    },
    {
        "start": "1218.039",
        "dur": "6.151",
        "text": "left holding the bloody bag right so the"
    },
    {
        "start": "1222.27",
        "dur": "4.26",
        "text": "US government goes out and tries to sell"
    },
    {
        "start": "1224.19",
        "dur": "4.71",
        "text": "all these Treasury bonds and what people"
    },
    {
        "start": "1226.53",
        "dur": "4.32",
        "text": "are saying in countries and you can see"
    },
    {
        "start": "1228.9",
        "dur": "3.72",
        "text": "here it says it's gone down to 5.8"
    },
    {
        "start": "1230.85",
        "dur": "3.99",
        "text": "percent from 25 percent of foreign"
    },
    {
        "start": "1232.62",
        "dur": "5.4",
        "text": "buyers indirect bidders it means that"
    },
    {
        "start": "1234.84",
        "dur": "4.5",
        "text": "people no longer want to buy the US"
    },
    {
        "start": "1238.02",
        "dur": "3.12",
        "text": "bonds and what it means is that they"
    },
    {
        "start": "1239.34",
        "dur": "4.079",
        "text": "don't believe that the US has at least"
    },
    {
        "start": "1241.14",
        "dur": "5.61",
        "text": "it's certainly less than 10 years to go"
    },
    {
        "start": "1243.419",
        "dur": "4.801",
        "text": "before it is unable to repay its"
    },
    {
        "start": "1246.75",
        "dur": "2.73",
        "text": "obligations I would actually be"
    },
    {
        "start": "1248.22",
        "dur": "4.26",
        "text": "interested to see what happens with"
    },
    {
        "start": "1249.48",
        "dur": "4.29",
        "text": "five-year bonds about three years ago I"
    },
    {
        "start": "1252.48",
        "dur": "4.26",
        "text": "said it was gonna be five to fifteen"
    },
    {
        "start": "1253.77",
        "dur": "5.76",
        "text": "years before the shite really hits the"
    },
    {
        "start": "1256.74",
        "dur": "4.23",
        "text": "fan economically in the US I may have"
    },
    {
        "start": "1259.53",
        "dur": "4.05",
        "text": "been a little optimistic it probably"
    },
    {
        "start": "1260.97",
        "dur": "5.15",
        "text": "will only before but I think a year is a"
    },
    {
        "start": "1263.58",
        "dur": "4.709",
        "text": "year off is is actually quite good so so"
    },
    {
        "start": "1266.12",
        "dur": "7.75",
        "text": "that's what it means when they say well"
    },
    {
        "start": "1268.289",
        "dur": "8.221",
        "text": "it's a disaster that it's a disaster"
    },
    {
        "start": "1273.87",
        "dur": "5.25",
        "text": "that European and Middle Eastern and"
    },
    {
        "start": "1276.51",
        "dur": "3.99",
        "text": "Asian investors are not interested in"
    },
    {
        "start": "1279.12",
        "dur": "3.179",
        "text": "buying the response what it means is"
    },
    {
        "start": "1280.5",
        "dur": "5.58",
        "text": "that the US is going to find it very"
    },
    {
        "start": "1282.299",
        "dur": "6.091",
        "text": "hard if not impossible to to pay its its"
    },
    {
        "start": "1286.08",
        "dur": "3.78",
        "text": "bill so and it will try printing money"
    },
    {
        "start": "1288.39",
        "dur": "3.21",
        "text": "of course recently the Fed has stopped"
    },
    {
        "start": "1289.86",
        "dur": "2.67",
        "text": "reporting how much money it's printing"
    },
    {
        "start": "1291.6",
        "dur": "4.35",
        "text": "which is why people are getting"
    },
    {
        "start": "1292.53",
        "dur": "5.279",
        "text": "particularly leery and this of course is"
    },
    {
        "start": "1295.95",
        "dur": "4.32",
        "text": "why the US dollar has fallen relative to"
    },
    {
        "start": "1297.809",
        "dur": "4.201",
        "text": "other currencies like any commodity and"
    },
    {
        "start": "1300.27",
        "dur": "3.18",
        "text": "particularly have cost money is a weird"
    },
    {
        "start": "1302.01",
        "dur": "3.299",
        "text": "commodity because it represents all the"
    },
    {
        "start": "1303.45",
        "dur": "4.229",
        "text": "other commodities right so if you have a"
    },
    {
        "start": "1305.309",
        "dur": "4.591",
        "text": "hundred units of goods and a hundred"
    },
    {
        "start": "1307.679",
        "dur": "5.011",
        "text": "units of dollars then one dollar equals"
    },
    {
        "start": "1309.9",
        "dur": "6.09",
        "text": "one goods at one good if you have a"
    },
    {
        "start": "1312.69",
        "dur": "5.19",
        "text": "hundred units of goods and 200 units of"
    },
    {
        "start": "1315.99",
        "dur": "3.87",
        "text": "dollars then two dollars will represent"
    },
    {
        "start": "1317.88",
        "dur": "3.81",
        "text": "one good and that's just inflation right"
    },
    {
        "start": "1319.86",
        "dur": "4.17",
        "text": "so each dollar becomes worth half what"
    },
    {
        "start": "1321.69",
        "dur": "3.69",
        "text": "it was before and that of course is what"
    },
    {
        "start": "1324.03",
        "dur": "2.67",
        "text": "is happening so another thing that's"
    },
    {
        "start": "1325.38",
        "dur": "2.82",
        "text": "occurring and probably one of the"
    },
    {
        "start": "1326.7",
        "dur": "4.95",
        "text": "reasons why nobody wants to buy these"
    },
    {
        "start": "1328.2",
        "dur": "5.43",
        "text": "10-year US Treasury notes is because"
    },
    {
        "start": "1331.65",
        "dur": "3.779",
        "text": "when you factor in the deflation of the"
    },
    {
        "start": "1333.63",
        "dur": "3.09",
        "text": "US dollar over ten years they'd have to"
    },
    {
        "start": "1335.429",
        "dur": "3.271",
        "text": "pay have an interest rate of something"
    },
    {
        "start": "1336.72",
        "dur": "3.449",
        "text": "like 20 percent I would imagine which"
    },
    {
        "start": "1338.7",
        "dur": "3.479",
        "text": "they can't possibly offer with any"
    },
    {
        "start": "1340.169",
        "dur": "3.081",
        "text": "credibility because the dollars you're"
    },
    {
        "start": "1342.179",
        "dur": "2.601",
        "text": "going to get paid back within"
    },
    {
        "start": "1343.25",
        "dur": "3.39",
        "text": "ten years will be worth vastly less than"
    },
    {
        "start": "1344.78",
        "dur": "3.36",
        "text": "they are now because clearly people"
    },
    {
        "start": "1346.64",
        "dur": "3.66",
        "text": "believe that the flooded the Fed is"
    },
    {
        "start": "1348.14",
        "dur": "4.98",
        "text": "going to try and inflate its way out of"
    },
    {
        "start": "1350.3",
        "dur": "4.74",
        "text": "this situation but of course the reality"
    },
    {
        "start": "1353.12",
        "dur": "3.84",
        "text": "is is nobody's trying to get out of the"
    },
    {
        "start": "1355.04",
        "dur": "4.38",
        "text": "situation anymore nobody's trying to"
    },
    {
        "start": "1356.96",
        "dur": "4.38",
        "text": "create a sustainable situation all"
    },
    {
        "start": "1359.42",
        "dur": "4.2",
        "text": "that's happening is that the people at"
    },
    {
        "start": "1361.34",
        "dur": "4.47",
        "text": "the top are realizing that the gig is"
    },
    {
        "start": "1363.62",
        "dur": "4.05",
        "text": "almost up and they better grab"
    },
    {
        "start": "1365.81",
        "dur": "4.5",
        "text": "everything they can from the public"
    },
    {
        "start": "1367.67",
        "dur": "5.97",
        "text": "treasury before the door comes down as"
    },
    {
        "start": "1370.31",
        "dur": "5.49",
        "text": "it did in the Soviet Union so I hope"
    },
    {
        "start": "1373.64",
        "dur": "4.02",
        "text": "that this is a helpful semi rapid"
    },
    {
        "start": "1375.8",
        "dur": "3.72",
        "text": "analysis and thank you so much for"
    },
    {
        "start": "1377.66",
        "dur": "4.08",
        "text": "watching a freedomain radio an entirely"
    },
    {
        "start": "1379.52",
        "dur": "5.13",
        "text": "voluntarily funded for esophageal"
    },
    {
        "start": "1381.74",
        "dur": "4.29",
        "text": "educational organization and so if you'd"
    },
    {
        "start": "1384.65",
        "dur": "2.82",
        "text": "like to donate if you found this"
    },
    {
        "start": "1386.03",
        "dur": "2.07",
        "text": "information to be helpful if you would"
    },
    {
        "start": "1387.47",
        "dur": "2.22",
        "text": "like to donate"
    },
    {
        "start": "1388.1",
        "dur": "4.05",
        "text": "I would hugely appreciate it at"
    },
    {
        "start": "1389.69",
        "dur": "3.48",
        "text": "freedomainradio.com and thank you so"
    },
    {
        "start": "1392.15",
        "dur": "3.05",
        "text": "much for watching I will talk to you"
    },
    {
        "start": "1393.17",
        "dur": "2.03",
        "text": "soon"
    }
]