{
  "Title": "30 Signs the Middle Class is Dying...",
  "Id": "-jG8Mrp6-CE",
  "Transcript": [
    {
      "text": "hi everybody its defend molyneux from",
      "start": 0,
      "duration": 4.17
    },
    {
      "text": "freedomain radio hope you're doing well",
      "start": 2.01,
      "duration": 8.25
    },
    {
      "text": "January the 8th 2012 and here is 30",
      "start": 4.17,
      "duration": 9.509
    },
    {
      "text": "signs this is from zero hedge 30 signs",
      "start": 10.26,
      "duration": 5.039
    },
    {
      "text": "that the middle class in America is",
      "start": 13.679,
      "duration": 4.561
    },
    {
      "text": "going the way of the dodo and as is",
      "start": 15.299,
      "duration": 4.07
    },
    {
      "text": "usually the case with the middle class",
      "start": 18.24,
      "duration": 3.93
    },
    {
      "text": "taking the rest of society with it today",
      "start": 19.369,
      "duration": 5.351
    },
    {
      "text": "only fifty five point three percent of",
      "start": 22.17,
      "duration": 4.32
    },
    {
      "text": "all Americans between the ages of 16 and",
      "start": 24.72,
      "duration": 4.59
    },
    {
      "text": "29 have jobs and of course some of those",
      "start": 26.49,
      "duration": 5.01
    },
    {
      "text": "are shuffling papers in the way of the",
      "start": 29.31,
      "duration": 3.449
    },
    {
      "text": "free market in the form of government",
      "start": 31.5,
      "duration": 3.96
    },
    {
      "text": "bureaucracies this is number two in the",
      "start": 32.759,
      "duration": 4.771
    },
    {
      "text": "u.s. today there are 240 million",
      "start": 35.46,
      "duration": 4.05
    },
    {
      "text": "working-age people only about 140",
      "start": 37.53,
      "duration": 4.77
    },
    {
      "text": "million of them are working a whole lot",
      "start": 39.51,
      "duration": 6
    },
    {
      "text": "of dependents since the year 2000 the US",
      "start": 42.3,
      "duration": 6.21
    },
    {
      "text": "has lost 10% of its middle class jobs in",
      "start": 45.51,
      "duration": 5.16
    },
    {
      "text": "the year 2000 about 72 million now",
      "start": 48.51,
      "duration": 6.24
    },
    {
      "text": "they're about 65 number 5 according to",
      "start": 50.67,
      "duration": 4.86
    },
    {
      "text": "the NYT",
      "start": 54.75,
      "duration": 2.489
    },
    {
      "text": "hundred million Americans are leaving",
      "start": 55.53,
      "duration": 3.959
    },
    {
      "text": "either living in poverty or in the",
      "start": 57.239,
      "duration": 6.78
    },
    {
      "text": "fretful zone just above it according to",
      "start": 59.489,
      "duration": 6.391
    },
    {
      "text": "that same article this is number 6 34",
      "start": 64.019,
      "duration": 3.21
    },
    {
      "text": "percent of all elderly Americans are",
      "start": 65.88,
      "duration": 3.18
    },
    {
      "text": "living in poverty or near poor and near",
      "start": 67.229,
      "duration": 3.301
    },
    {
      "text": "poverty and 39 percent of all children",
      "start": 69.06,
      "duration": 3.3
    },
    {
      "text": "in America are living in poverty or near",
      "start": 70.53,
      "duration": 3.629
    },
    {
      "text": "poverty to which I would add almost 60",
      "start": 72.36,
      "duration": 3.06
    },
    {
      "text": "percent of American children are growing",
      "start": 74.159,
      "duration": 3.6
    },
    {
      "text": "up without a two-parent household that",
      "start": 75.42,
      "duration": 6.69
    },
    {
      "text": "is not good number seven in 1984 the",
      "start": 77.759,
      "duration": 6.75
    },
    {
      "text": "median net worth of households led by",
      "start": 82.11,
      "duration": 4.14
    },
    {
      "text": "someone 65 and older was ten times",
      "start": 84.509,
      "duration": 4.171
    },
    {
      "text": "larger than the median net worth of",
      "start": 86.25,
      "duration": 4.229
    },
    {
      "text": "households led by someone 35 or younger",
      "start": 88.68,
      "duration": 6.66
    },
    {
      "text": "today it's 47 times larger than the",
      "start": 90.479,
      "duration": 6.301
    },
    {
      "text": "medium net worth of households that by",
      "start": 95.34,
      "duration": 3.389
    },
    {
      "text": "someone 35 or younger they have gotten",
      "start": 96.78,
      "duration": 5.46
    },
    {
      "text": "almost 5 times richer the elderly at the",
      "start": 98.729,
      "duration": 4.861
    },
    {
      "text": "same time of course that's increasing",
      "start": 102.24,
      "duration": 3.269
    },
    {
      "text": "poverty among the elderly that's of",
      "start": 103.59,
      "duration": 3.09
    },
    {
      "text": "course the missing of the middle class",
      "start": 105.509,
      "duration": 5
    },
    {
      "text": "right number 8 since the year 2000",
      "start": 106.68,
      "duration": 7.17
    },
    {
      "text": "incomes by us health for US households",
      "start": 110.509,
      "duration": 4.93
    },
    {
      "text": "led by someone between the ages of 25",
      "start": 113.85,
      "duration": 4.32
    },
    {
      "text": "and 34 have fallen by about 12 percent",
      "start": 115.439,
      "duration": 4.771
    },
    {
      "text": "after you adjust for inflation that is",
      "start": 118.17,
      "duration": 3.769
    },
    {
      "text": "not good",
      "start": 120.21,
      "duration": 4.259
    },
    {
      "text": "the total value of household real estate",
      "start": 121.939,
      "duration": 4.18
    },
    {
      "text": "in the US has declined from twenty seven",
      "start": 124.469,
      "duration": 3.121
    },
    {
      "text": "twenty two point seven trillion in oh",
      "start": 126.119,
      "duration": 3.301
    },
    {
      "text": "six sixteen point two trillion today",
      "start": 127.59,
      "duration": 3.449
    },
    {
      "text": "most of this wealth has been lost by the",
      "start": 129.42,
      "duration": 2.97
    },
    {
      "text": "middle classes",
      "start": 131.039,
      "duration": 4.111
    },
    {
      "text": "number ten many formerly great",
      "start": 132.39,
      "duration": 4.47
    },
    {
      "text": "manufacturing cities are turning into",
      "start": 135.15,
      "duration": 4.95
    },
    {
      "text": "ghost towns since 1950 the population of",
      "start": 136.86,
      "duration": 4.86
    },
    {
      "text": "Pittsburg Pennsylvania has declined by",
      "start": 140.1,
      "duration": 4.47
    },
    {
      "text": "more than 50 percent in Dayton Ohio mark",
      "start": 141.72,
      "duration": 5.07
    },
    {
      "text": "almost 20 percent of all houses now",
      "start": 144.57,
      "duration": 6.3
    },
    {
      "text": "stand empty number 11 since 1971",
      "start": 146.79,
      "duration": 5.85
    },
    {
      "text": "consumer debt in the United States",
      "start": 150.87,
      "duration": 4.31
    },
    {
      "text": "increased by a whopping seventeen",
      "start": 152.64,
      "duration": 6.65
    },
    {
      "text": "hundred percent of course this is",
      "start": 155.18,
      "duration": 6.64
    },
    {
      "text": "filling in the loss of income loss of",
      "start": 159.29,
      "duration": 4.27
    },
    {
      "text": "real wages loss of opportunities lots of",
      "start": 161.82,
      "duration": 4.17
    },
    {
      "text": "benefits loss of retirement plans people",
      "start": 163.56,
      "duration": 4.35
    },
    {
      "text": "are just going into debt to fill in the",
      "start": 165.99,
      "duration": 4.469
    },
    {
      "text": "inevitable decay of a post socialist",
      "start": 167.91,
      "duration": 6.03
    },
    {
      "text": "economy number twelve the number of",
      "start": 170.459,
      "duration": 5.071
    },
    {
      "text": "pages of federal tax rules and",
      "start": 173.94,
      "duration": 3.15
    },
    {
      "text": "regulations has increased by eighteen",
      "start": 175.53,
      "duration": 4.59
    },
    {
      "text": "thousand percent since 1913 the wealthy",
      "start": 177.09,
      "duration": 4.5
    },
    {
      "text": "know how to avoid taxes but most of",
      "start": 180.12,
      "duration": 5.31
    },
    {
      "text": "those the middle class do not is often",
      "start": 181.59,
      "duration": 4.56
    },
    {
      "text": "thought it would be a pretty good",
      "start": 185.43,
      "duration": 2.37
    },
    {
      "text": "defense if you were accused of some",
      "start": 186.15,
      "duration": 4.17
    },
    {
      "text": "missing some obvious at some obscure tax",
      "start": 187.8,
      "duration": 4.56
    },
    {
      "text": "payment just say hey I'll be my own",
      "start": 190.32,
      "duration": 3.33
    },
    {
      "text": "defense I'm just gonna bring in book",
      "start": 192.36,
      "duration": 3.18
    },
    {
      "text": "after book after book of the tax code",
      "start": 193.65,
      "duration": 3.78
    },
    {
      "text": "look at the judge and say are you",
      "start": 195.54,
      "duration": 4.979
    },
    {
      "text": "kidding me ignorance of the law is no",
      "start": 197.43,
      "duration": 5.07
    },
    {
      "text": "excuse does anybody know what's in all",
      "start": 200.519,
      "duration": 4.141
    },
    {
      "text": "these books no don't give me this",
      "start": 202.5,
      "duration": 5.79
    },
    {
      "text": "ridiculous nonsense number thirteen the",
      "start": 204.66,
      "duration": 4.859
    },
    {
      "text": "number of Americans that fell into",
      "start": 208.29,
      "duration": 3.479
    },
    {
      "text": "poverty 2.6 million set a new all-time",
      "start": 209.519,
      "duration": 4.551
    },
    {
      "text": "record last year and extreme poverty",
      "start": 211.769,
      "duration": 4.581
    },
    {
      "text": "6.7% is at the highest level ever",
      "start": 214.07,
      "duration": 6.25
    },
    {
      "text": "measured in the United States number",
      "start": 216.35,
      "duration": 5.38
    },
    {
      "text": "fourteen according to one study between",
      "start": 220.32,
      "duration": 4.59
    },
    {
      "text": "1969 and 2009 the median wages earned by",
      "start": 221.73,
      "duration": 4.8
    },
    {
      "text": "American men between the ages of 30 and",
      "start": 224.91,
      "duration": 5.19
    },
    {
      "text": "50 dropped by 27 percent after you",
      "start": 226.53,
      "duration": 6.03
    },
    {
      "text": "account for inflation between 1969 and",
      "start": 230.1,
      "duration": 5.58
    },
    {
      "text": "oh nine dropped by almost 30 percent",
      "start": 232.56,
      "duration": 4.8
    },
    {
      "text": "don't think this doesn't have a lot to",
      "start": 235.68,
      "duration": 3.089
    },
    {
      "text": "do with what's happening to marriage and",
      "start": 237.36,
      "duration": 5.099
    },
    {
      "text": "family stability according to US",
      "start": 238.769,
      "duration": 6.061
    },
    {
      "text": "Representative Betty Sutton America has",
      "start": 242.459,
      "duration": 4.201
    },
    {
      "text": "lost an average of 15 manufacturing",
      "start": 244.83,
      "duration": 5.49
    },
    {
      "text": "facilities a day over the last ten years",
      "start": 246.66,
      "duration": 6
    },
    {
      "text": "during 2010 it got even worse last year",
      "start": 250.32,
      "duration": 4.65
    },
    {
      "text": "an average of 23 manufacturing",
      "start": 252.66,
      "duration": 6.87
    },
    {
      "text": "facilities every single day shut down in",
      "start": 254.97,
      "duration": 7.83
    },
    {
      "text": "the United States number 16 back in 1980",
      "start": 259.53,
      "duration": 4.8
    },
    {
      "text": "less than 30 percent of all jobs in the",
      "start": 262.8,
      "duration": 3.18
    },
    {
      "text": "US were low-income jobs today more",
      "start": 264.33,
      "duration": 5.37
    },
    {
      "text": "forty percent are low-income jobs number",
      "start": 265.98,
      "duration": 5.22
    },
    {
      "text": "seventeen most Americans are scratching",
      "start": 269.7,
      "duration": 2.76
    },
    {
      "text": "and clawing into whatever they can to",
      "start": 271.2,
      "duration": 2.64
    },
    {
      "text": "make a living these days half of all",
      "start": 272.46,
      "duration": 3.15
    },
    {
      "text": "American workers now earn five hundred",
      "start": 273.84,
      "duration": 3.51
    },
    {
      "text": "and five dollars or less per week that",
      "start": 275.61,
      "duration": 5.46
    },
    {
      "text": "would be before taxes number eighteen",
      "start": 277.35,
      "duration": 5.52
    },
    {
      "text": "food prices continued to rise at a very",
      "start": 281.07,
      "duration": 4.29
    },
    {
      "text": "brisk pace the price of beef is at nine",
      "start": 282.87,
      "duration": 3.84
    },
    {
      "text": "point eight percent over the past year",
      "start": 285.36,
      "duration": 3
    },
    {
      "text": "the price of eggs is up ten point two",
      "start": 286.71,
      "duration": 3.57
    },
    {
      "text": "percent and the price of potatoes is up",
      "start": 288.36,
      "duration": 4.68
    },
    {
      "text": "12 percent over the past year yeah it's",
      "start": 290.28,
      "duration": 3.15
    },
    {
      "text": "true",
      "start": 293.04,
      "duration": 2.37
    },
    {
      "text": "two-thirds of a grocery cart is like a",
      "start": 293.43,
      "duration": 3.6
    },
    {
      "text": "hundred bucks these days it's nutty and",
      "start": 295.41,
      "duration": 3.63
    },
    {
      "text": "that's even I I try and saving scrimp",
      "start": 297.03,
      "duration": 5.64
    },
    {
      "text": "and coupon like crazy 19 number 19",
      "start": 299.04,
      "duration": 5.07
    },
    {
      "text": "electricity bills in the US have risen",
      "start": 302.67,
      "duration": 2.73
    },
    {
      "text": "fast and the overall rate of inflation",
      "start": 304.11,
      "duration": 7.47
    },
    {
      "text": "for five years in a row number 21 sorry",
      "start": 305.4,
      "duration": 7.83
    },
    {
      "text": "number 20 the average American household",
      "start": 311.58,
      "duration": 3.33
    },
    {
      "text": "will have spent a staggering four",
      "start": 313.23,
      "duration": 3.06
    },
    {
      "text": "thousand one hundred and fifty five",
      "start": 314.91,
      "duration": 3.17
    },
    {
      "text": "dollars on gasoline by the end of 2011",
      "start": 316.29,
      "duration": 3.78
    },
    {
      "text": "number twenty-one if inflation was",
      "start": 318.08,
      "duration": 3.94
    },
    {
      "text": "measured the exact same way that it was",
      "start": 320.07,
      "duration": 3.69
    },
    {
      "text": "measured back in nineteen eighty the",
      "start": 322.02,
      "duration": 3.09
    },
    {
      "text": "rate of inflation in the US would be",
      "start": 323.76,
      "duration": 4.71
    },
    {
      "text": "well over ten percent number twenty-two",
      "start": 325.11,
      "duration": 4.89
    },
    {
      "text": "if the number of Americans considered to",
      "start": 328.47,
      "duration": 3.33
    },
    {
      "text": "be looking for work was the same today",
      "start": 330,
      "duration": 3.36
    },
    {
      "text": "as it was back in oh seven the official",
      "start": 331.8,
      "duration": 2.85
    },
    {
      "text": "unemployment rate put out by the US",
      "start": 333.36,
      "duration": 4.11
    },
    {
      "text": "government would be up to 11 percent see",
      "start": 334.65,
      "duration": 4.62
    },
    {
      "text": "don't like reality just change the",
      "start": 337.47,
      "duration": 4.2
    },
    {
      "text": "numbers number 23 according to the",
      "start": 339.27,
      "duration": 4.89
    },
    {
      "text": "student loan debt clock total student",
      "start": 341.67,
      "duration": 4.14
    },
    {
      "text": "loan debt in the US will surpass the one",
      "start": 344.16,
      "duration": 3.93
    },
    {
      "text": "trillion dollar mark at some point in",
      "start": 345.81,
      "duration": 4.92
    },
    {
      "text": "2012 most of that debt is owned by",
      "start": 348.09,
      "duration": 4.89
    },
    {
      "text": "members of the middle class number 24",
      "start": 350.73,
      "duration": 3.57
    },
    {
      "text": "incredibly more than one out of every",
      "start": 352.98,
      "duration": 2.97
    },
    {
      "text": "seven Americans is on food stamps and",
      "start": 354.3,
      "duration": 3.33
    },
    {
      "text": "one out of every four US children is on",
      "start": 355.95,
      "duration": 5.96
    },
    {
      "text": "food stamps at this point number 25",
      "start": 357.63,
      "duration": 6.39
    },
    {
      "text": "since Barack Obama took office the",
      "start": 361.91,
      "duration": 4.12
    },
    {
      "text": "number of Americans on food stamp stamps",
      "start": 364.02,
      "duration": 3.72
    },
    {
      "text": "is increased by fourteen point three",
      "start": 366.03,
      "duration": 5.82
    },
    {
      "text": "million dollars number 26 and 22 in 20",
      "start": 367.74,
      "duration": 6.33
    },
    {
      "text": "in 2010 forty two percent of all single",
      "start": 371.85,
      "duration": 4.55
    },
    {
      "text": "mothers in the US were on food stamps",
      "start": 374.07,
      "duration": 5.94
    },
    {
      "text": "number twenty-seven in 1970 sixty-five",
      "start": 376.4,
      "duration": 4.78
    },
    {
      "text": "percent of all Americans lived in",
      "start": 380.01,
      "duration": 3.06
    },
    {
      "text": "middle-class neighborhoods by 2007 only",
      "start": 381.18,
      "duration": 3.63
    },
    {
      "text": "44 percent of all Americans lived in",
      "start": 383.07,
      "duration": 4.41
    },
    {
      "text": "middle-class neighborhoods number",
      "start": 384.81,
      "duration": 3.75
    },
    {
      "text": "twenty-eight according to a recent",
      "start": 387.48,
      "duration": 3.18
    },
    {
      "text": "report produced by Pew Charitable Trusts",
      "start": 388.56,
      "duration": 3.57
    },
    {
      "text": "approximately one out of every three",
      "start": 390.66,
      "duration": 2.85
    },
    {
      "text": "Americans that grew up in a middle-class",
      "start": 392.13,
      "duration": 3.63
    },
    {
      "text": "household has slipped down the income",
      "start": 393.51,
      "duration": 6
    },
    {
      "text": "ladder number 29 in the u.s. today the",
      "start": 395.76,
      "duration": 5.46
    },
    {
      "text": "wealthiest 1% of all Americans have a",
      "start": 399.51,
      "duration": 3.21
    },
    {
      "text": "greater net worth than the bottom and",
      "start": 401.22,
      "duration": 7.14
    },
    {
      "text": "ninety percent combined number 30 the",
      "start": 402.72,
      "duration": 7.56
    },
    {
      "text": "poorest 50 percent of all Americans now",
      "start": 408.36,
      "duration": 3.87
    },
    {
      "text": "collectively own just two and a half",
      "start": 410.28,
      "duration": 4.62
    },
    {
      "text": "percent of all the wealth in the United",
      "start": 412.23,
      "duration": 7.44
    },
    {
      "text": "States these are all problems that the",
      "start": 414.9,
      "duration": 6.42
    },
    {
      "text": "expansion of state power was supposed to",
      "start": 419.67,
      "duration": 6.75
    },
    {
      "text": "solve right remember stability economic",
      "start": 421.32,
      "duration": 7.26
    },
    {
      "text": "stability prosperity increasing",
      "start": 426.42,
      "duration": 4.61
    },
    {
      "text": "prosperity family stability poverty",
      "start": 428.58,
      "duration": 6.15
    },
    {
      "text": "dependence manufacturing problems",
      "start": 431.03,
      "duration": 5.77
    },
    {
      "text": "remember all of the health and safety",
      "start": 434.73,
      "duration": 3.54
    },
    {
      "text": "regulations all the environmental",
      "start": 436.8,
      "duration": 3.15
    },
    {
      "text": "regulation see they were brought in to",
      "start": 438.27,
      "duration": 3.6
    },
    {
      "text": "keep the workers safe well now they're",
      "start": 439.95,
      "duration": 3.09
    },
    {
      "text": "very safe because they don't have any",
      "start": 441.87,
      "duration": 4.95
    },
    {
      "text": "goddamn jobs the government always over",
      "start": 443.04,
      "duration": 6.05
    },
    {
      "text": "swings the government always cuts off",
      "start": 446.82,
      "duration": 4.62
    },
    {
      "text": "society at the knees violence will never",
      "start": 449.09,
      "duration": 4.21
    },
    {
      "text": "solve these problems never ever ever",
      "start": 451.44,
      "duration": 3.99
    },
    {
      "text": "ever ever ever solve these problems and",
      "start": 453.3,
      "duration": 3.78
    },
    {
      "text": "that ship of state is slowly turning",
      "start": 455.43,
      "duration": 3.69
    },
    {
      "text": "around because people are slowly slowly",
      "start": 457.08,
      "duration": 3.57
    },
    {
      "text": "slowly god help them beginning to",
      "start": 459.12,
      "duration": 4.32
    },
    {
      "text": "recognize that more state power is not",
      "start": 460.65,
      "duration": 4.71
    },
    {
      "text": "going to solve what massive increases in",
      "start": 463.44,
      "duration": 4.29
    },
    {
      "text": "state power has failed to solve one more",
      "start": 465.36,
      "duration": 4.56
    },
    {
      "text": "dose of cocaine does not help the",
      "start": 467.73,
      "duration": 4.16
    },
    {
      "text": "cokehead hanging off a bridge so",
      "start": 469.92,
      "duration": 3.9
    },
    {
      "text": "hopefully this will start to turn around",
      "start": 471.89,
      "duration": 3.82
    },
    {
      "text": "my absolute massive deep in sympathies",
      "start": 473.82,
      "duration": 3.36
    },
    {
      "text": "to everyone out there in middle class",
      "start": 475.71,
      "duration": 3.09
    },
    {
      "text": "land who is finding themselves slipping",
      "start": 477.18,
      "duration": 3.45
    },
    {
      "text": "down the ever-increasing everett tilting",
      "start": 478.8,
      "duration": 4.58
    },
    {
      "text": "glacial frozen wall without any crampons",
      "start": 480.63,
      "duration": 4.95
    },
    {
      "text": "we can turn this thing around I",
      "start": 483.38,
      "duration": 3.88
    },
    {
      "text": "hopefully we can start to really begin",
      "start": 485.58,
      "duration": 3.78
    },
    {
      "text": "to make inroads this year but we first",
      "start": 487.26,
      "duration": 4.41
    },
    {
      "text": "have to put down the gun stop waving it",
      "start": 489.36,
      "duration": 4.08
    },
    {
      "text": "around stop imagining that more violence",
      "start": 491.67,
      "duration": 2.91
    },
    {
      "text": "and more state power is going to do",
      "start": 493.44,
      "duration": 3.3
    },
    {
      "text": "anything either to make every single",
      "start": 494.58,
      "duration": 6.57
    },
    {
      "text": "thing worse that's it freedomain radio",
      "start": 496.74,
      "duration": 5.79
    },
    {
      "text": "send a show let's turn it over to the",
      "start": 501.15,
      "duration": 2.88
    },
    {
      "text": "listeners 2:00 p.m. Eastern Standard",
      "start": 502.53,
      "duration": 3.93
    },
    {
      "text": "Time just drop by FDR you were held calm",
      "start": 504.03,
      "duration": 7.08
    },
    {
      "text": "/ch at for your chance to listen hector",
      "start": 506.46,
      "duration": 7.98
    },
    {
      "text": "harangue complain whine ask questions",
      "start": 511.11,
      "duration": 5.73
    },
    {
      "text": "and occasionally praise the show so do",
      "start": 514.44,
      "duration": 4.82
    },
    {
      "text": "we have a caller",
      "start": 516.84,
      "duration": 2.42
    }
  ],
  "Errors": null,
  "TranscriptStderr": null
}