{
  "Title": "The Truth About Domestic Violence - You'll Never Believe...",
  "Id": "-KgBVedec_0",
  "Transcript": [
    {
      "text": "Hi, everybody. This is Stefan Molyneux from\nFreedomain Radio. I hope you're doing well.",
      "start": 0.44,
      "duration": 3.74
    },
    {
      "text": "This is the largely unguessed and, in general,\nactively hidden truth about domestic violence.",
      "start": 4.18,
      "duration": 7
    },
    {
      "text": "If you're a man, I really strongly suggest\nthat you watch this.",
      "start": 11.73,
      "duration": 5.92
    },
    {
      "text": "So let's start with definitions. What is domestic\nviolence? Well, in most of the studies that",
      "start": 17.65,
      "duration": 3.84
    },
    {
      "text": "are going to be cited and, as always, the\nreferences are below in the description bar.",
      "start": 21.49,
      "duration": 4.9
    },
    {
      "text": "Minor violence is when you throw something\nat someone, you push, you grab, you shove",
      "start": 26.39,
      "duration": 4.54
    },
    {
      "text": "or you slap an intimate partner. Severe violence\nis kicked, bit, punched, hit or tried to hit",
      "start": 30.93,
      "duration": 7
    },
    {
      "text": "with object, beat up or choked, threatened\nwith a knife or a gun, or when you're using",
      "start": 38.28,
      "duration": 7
    },
    {
      "text": "a knife or a gun.",
      "start": 45.399,
      "duration": 2.73
    },
    {
      "text": "So this is the rate per 1,000 couples. This\nis a graph of marital violence and the first",
      "start": 48.129,
      "duration": 6
    },
    {
      "text": "on the left is husband to wife and the second\non the right is wife to husband. So rates",
      "start": 54.129,
      "duration": 5.44
    },
    {
      "text": "of overall violence, husband to wife per 1,000\ncouples, 121 in 1975; 113 in 1985; severe",
      "start": 59.569,
      "duration": 7
    },
    {
      "text": "violence is 38 versus 30. So this is husband\nto wife, husband attacking wife.",
      "start": 71.26,
      "duration": 7
    },
    {
      "text": "Wife attacking husband, let's see what we\nget. Overall violence in 1975, 116; in 1985;",
      "start": 78.91,
      "duration": 7
    },
    {
      "text": "achieved parity with male and female violence\nfrom 1975 at 121 per 1,000 couples; severe",
      "start": 86.05,
      "duration": 7
    },
    {
      "text": "violence 61 and 58 for '75 and '85, respectively.\nAs you can see, overall violence is similar",
      "start": 95,
      "duration": 7
    },
    {
      "text": "but severe violence is more common, significantly\nmore common, almost twice as common from wife",
      "start": 103.28,
      "duration": 7
    },
    {
      "text": "to husband, male victims of severe violence\non the part of the spouse.",
      "start": 111.02,
      "duration": 7
    },
    {
      "text": "Trends in minor and severe assaults by husbands\nand wives. So this is the rate per 1,000 couples",
      "start": 120.49,
      "duration": 7
    },
    {
      "text": "and this is 1975, 1985, and 1992. As you can\nsee, minor assaults by husbands declined and",
      "start": 127.909,
      "duration": 7
    },
    {
      "text": "then rise, by wives are lower and then rise\nto be actually higher than husbands. Severe",
      "start": 135.02,
      "duration": 6.03
    },
    {
      "text": "assaults always remain higher for wives than\nfor husbands. In other words, husbands are",
      "start": 141.05,
      "duration": 5.51
    },
    {
      "text": "the victims far more often. They remain close\nto 50 to 40 and stay high whereas severe assaults",
      "start": 146.56,
      "duration": 6.08
    },
    {
      "text": "from husbands declined by almost half from\njust below 40 to 20 from 1975 to 1992. These",
      "start": 152.64,
      "duration": 7
    },
    {
      "text": "are very, very important statistics to really\nunderstand.",
      "start": 160.84,
      "duration": 4.85
    },
    {
      "text": "So in 1978, Suzanne Steinmetz identified Battered\nHusband Syndrome. I'm sure you've heard in",
      "start": 165.69,
      "duration": 5.25
    },
    {
      "text": "the general women in peril movie of the week\nBattered Wife Syndrome. What about Battered",
      "start": 170.94,
      "duration": 3.94
    },
    {
      "text": "Husband Syndrome, have you ever heard of that?\nWell, it's over 30 years ago that it was first",
      "start": 174.88,
      "duration": 5.079
    },
    {
      "text": "defined and she suggested that husband beating\nwas a similar incidence to wife beating but,",
      "start": 179.959,
      "duration": 7
    },
    {
      "text": "of course, have you ever heard of that? Of\ncourse not.",
      "start": 188.25,
      "duration": 2.9
    },
    {
      "text": "A firestorm of protest comes up from the left\nand from feminist groups and so on, death",
      "start": 191.15,
      "duration": 5.96
    },
    {
      "text": "threats, bomb threats, violent intimidation\nand, of course, a lot of researchers shy away.",
      "start": 197.11,
      "duration": 6.709
    },
    {
      "text": "Death threats and bomb threats and reporting\npeople to the police and having bomb-sniffing",
      "start": 203.819,
      "duration": 5.381
    },
    {
      "text": "dogs in your office, not everybody's idea\nof a tasty way to while away your brain rot",
      "start": 209.2,
      "duration": 6.259
    },
    {
      "text": "of academia. So unfortunately, this remains\nsomewhat underreported, I guess, we could",
      "start": 215.459,
      "duration": 5.271
    },
    {
      "text": "say.",
      "start": 220.73,
      "duration": 0.47
    },
    {
      "text": "So changes in severe spousal beatings, again,\nfrom 1975 to 1992, where the wife is the victim,",
      "start": 221.2,
      "duration": 7
    },
    {
      "text": "it declines significantly from 3% to under\n1%. And this is the result, I would argue,",
      "start": 228.37,
      "duration": 7
    },
    {
      "text": "of a significant exposure and visibility of\nspousal abuse on the part of the husband,",
      "start": 236.01,
      "duration": 6.199
    },
    {
      "text": "the husband beating the wife.",
      "start": 242.209,
      "duration": 2.511
    },
    {
      "text": "What happens to the husband who is the victim\nof severe spousal beatings? Well, because",
      "start": 244.72,
      "duration": 4.39
    },
    {
      "text": "this stuff remains underreported, it remains\ntragically high, remaining above 4%. It started",
      "start": 249.11,
      "duration": 5.73
    },
    {
      "text": "off higher than the men's and as the men's\ndeclined as a result of social pressure and",
      "start": 254.84,
      "duration": 4.64
    },
    {
      "text": "enlightenment, the wife spousal abuse on the\nhusband remains high and does not decline",
      "start": 259.48,
      "duration": 6.96
    },
    {
      "text": "because this stuff remains vastly underreported\nand for reasons we'll get into in a few minutes.",
      "start": 266.44,
      "duration": 7
    },
    {
      "text": "So this is a meta-analysis, which is an analysis\nof a wide variety of published studies and",
      "start": 273.6,
      "duration": 4.38
    },
    {
      "text": "reports. These are all peer-reviewed and very\nprofessional and so on, sex differences in",
      "start": 277.98,
      "duration": 5.219
    },
    {
      "text": "aggression, which is who is initiating. So\nfemale violence -- and this is not a zero-based",
      "start": 283.199,
      "duration": 6.571
    },
    {
      "text": "scale. I just zoomed in a little here to show\nthe difference -- female violence, 34,053",
      "start": 289.77,
      "duration": 4.869
    },
    {
      "text": "incidents; male violence, 30,434, right? So\nthat, of course, is less. It's more than 10%",
      "start": 294.639,
      "duration": 7
    },
    {
      "text": "less male-initiated violence versus female-initiated\nviolence in a meta-analysis of a wide variety",
      "start": 304.12,
      "duration": 5.41
    },
    {
      "text": "of studies.",
      "start": 309.53,
      "duration": 2.18
    },
    {
      "text": "Injuries, who gets injured more, this I think\nit's probably close to what you know but it's",
      "start": 311.71,
      "duration": 4.91
    },
    {
      "text": "certainly not the entire story, as we'll talk\nabout in a minute or two. So in this meta-analysis,",
      "start": 316.62,
      "duration": 4.28
    },
    {
      "text": "there were over 7,000 male injuries of domestic\nviolence and female injuries were about 7%",
      "start": 320.9,
      "duration": 7
    },
    {
      "text": "or 8% higher at 7,531.",
      "start": 328.78,
      "duration": 3.46
    },
    {
      "text": "Men, I think, are just sort of trying to say,\n\"Yes, we recognize and respect the tragedy",
      "start": 332.24,
      "duration": 6.52
    },
    {
      "text": "on the right. Can we, to some degree, recognize\nand respect the tragedy on the left?\" Well,",
      "start": 338.76,
      "duration": 5.87
    },
    {
      "text": "hopefully we can.",
      "start": 344.63,
      "duration": 1.819
    },
    {
      "text": "Medical treatment received as a result of\npartner abuse: males, almost 5,000; females,",
      "start": 346.449,
      "duration": 6.851
    },
    {
      "text": "63,000 and changed. So quite a bit higher\non the female side but let's look into some",
      "start": 353.3,
      "duration": 6.22
    },
    {
      "text": "of the reasons why.",
      "start": 359.52,
      "duration": 1.88
    },
    {
      "text": "So why do we have such an overwhelming impression\nthat it is husbands beating wife? Well, police",
      "start": 361.4,
      "duration": 6.489
    },
    {
      "text": "reports say that women are reported victims\nof domestic violence 75% to 90% of the time.",
      "start": 367.889,
      "duration": 5.75
    },
    {
      "text": "In the emergency room of the patients seen,\nwomen receive treatment for the effects of",
      "start": 373.639,
      "duration": 3.181
    },
    {
      "text": "domestic violence for 75% to 90% of the time.\nIn a recent study in 1999, found similar rates",
      "start": 376.82,
      "duration": 7
    },
    {
      "text": "of victimization for men and women.",
      "start": 384.47,
      "duration": 5.05
    },
    {
      "text": "So social science survey findings, gender\nparity in perpetration and victimization of",
      "start": 389.52,
      "duration": 4.88
    },
    {
      "text": "partner assaults, men and women are attacking\neach other about equally. \"Yay! Egalitarianism!\"",
      "start": 394.4,
      "duration": 7
    },
    {
      "text": "So what could be going on here? Well, the\nreality is that men are reluctant to report",
      "start": 402.43,
      "duration": 4.12
    },
    {
      "text": "victimization if you're beaten up by your\nwife. Most men would never think of calling",
      "start": 406.55,
      "duration": 4
    },
    {
      "text": "the cops for a variety of reasons: social\nstigma, shame, a feeling that you're not going",
      "start": 410.55,
      "duration": 4.85
    },
    {
      "text": "to be believed and, of course, the most important\naspect is if that you and your wife are involved",
      "start": 415.4,
      "duration": 7
    },
    {
      "text": "in a kick and bite slugfest and you call the\ncops, as the man, the woman will say, most",
      "start": 422.449,
      "duration": 6.131
    },
    {
      "text": "likely, that you started it and then you will\nbe immediately hauled off to jail. So men",
      "start": 428.58,
      "duration": 5.32
    },
    {
      "text": "do not usually feel that they have access\nto police protection in these kinds of situations.",
      "start": 433.9,
      "duration": 6.59
    },
    {
      "text": "Police and courts have tended to disbelieve\nmale victims and men, in general, \"Suck it",
      "start": 440.49,
      "duration": 4.47
    },
    {
      "text": "up. We're taught to endure pain and not complain,\"\nwhich is probably one reason why men are reluctant",
      "start": 444.96,
      "duration": 4.91
    },
    {
      "text": "to report physical discomfort or pain or injury,\nthe old stereotype of nagging your husband",
      "start": 449.87,
      "duration": 4.6
    },
    {
      "text": "to go to the doctor.",
      "start": 454.47,
      "duration": 1.789
    },
    {
      "text": "Even violent men, statistically, are less\nlikely to assault their partners because there's",
      "start": 456.259,
      "duration": 3.391
    },
    {
      "text": "this age-old don't-hit-a-girl chivalry norm\nand this was established with a fair degree",
      "start": 459.65,
      "duration": 6.609
    },
    {
      "text": "of certainty in 2006.",
      "start": 466.259,
      "duration": 3.13
    },
    {
      "text": "So we're going to now go to an even bigger\nmeta-analysis representative sample surveys",
      "start": 469.389,
      "duration": 5.761
    },
    {
      "text": "and these include the US '75, '85, '93, 2000,\n'02, '07, '08, 2010, and 2011, so we're getting",
      "start": 475.15,
      "duration": 7
    },
    {
      "text": "more recent data. Canada '86 through '99,\nGreat Britain '96 to '04, New Zealand '01,",
      "start": 482.85,
      "duration": 7
    },
    {
      "text": "Australia '96. There was a study in '98 of\ndomestic violence in the military and evaluated",
      "start": 490.509,
      "duration": 7
    },
    {
      "text": "over 3,000 subjects and found that more men\nthan women were victims of physical abuse",
      "start": 498.52,
      "duration": 5.67
    },
    {
      "text": "and that is in the military. Of course, where\nyou would imagine not the most peaceful men",
      "start": 504.19,
      "duration": 3.97
    },
    {
      "text": "are but more men than women are the victims\nof physical abuse.",
      "start": 508.16,
      "duration": 4.08
    },
    {
      "text": "Also in dating, now, dating sounds kind of\ninnocuous but basically it means relationships",
      "start": 512.24,
      "duration": 3.469
    },
    {
      "text": "prior to engagement. One hundred twenty-three\ndating studies have all been published and",
      "start": 515.709,
      "duration": 4.601
    },
    {
      "text": "the results of those studies reveal equal\nor greater victimization of men in these pre-engagement",
      "start": 520.31,
      "duration": 7
    },
    {
      "text": "relationships.",
      "start": 528.89,
      "duration": 1.42
    },
    {
      "text": "Dr. Murray Straus, I think quite a hero of\nthis kind of information, a man who's been",
      "start": 530.31,
      "duration": 7
    },
    {
      "text": "on this show, he reports data from worldwide\nstudy of dating violence. Data was collected",
      "start": 537.55,
      "duration": 4.51
    },
    {
      "text": "from students in 68 universities in 32 countries\nconsisted of over 13,600 subjects. Overall,",
      "start": 542.06,
      "duration": 7
    },
    {
      "text": "31.2% of subjects assaulted their dating partner\nin the past year. This is universities. This",
      "start": 550.76,
      "duration": 6.98
    },
    {
      "text": "is not ghettos and so on. This is mostly privileged\nkids.",
      "start": 557.74,
      "duration": 6.77
    },
    {
      "text": "Just in the past year, almost a third of them\nhad assaulted their dating partner. Violence",
      "start": 564.51,
      "duration": 3.47
    },
    {
      "text": "is crushingly endemic in human society although,\nin general, violence is, in truth, declining",
      "start": 567.98,
      "duration": 7
    },
    {
      "text": "in many ways in recent history.",
      "start": 576.13,
      "duration": 2.6
    },
    {
      "text": "So mutual violence, almost 70% of those people\nwho were violent, the male-only violence,",
      "start": 578.73,
      "duration": 5.24
    },
    {
      "text": "in other words, it's only the man who is attacking\nis under 10% and female-only is over 21%.",
      "start": 583.97,
      "duration": 7
    },
    {
      "text": "That, I think, is again something very important\nto really sit and ponder and process. I mean,",
      "start": 591.72,
      "duration": 6.71
    },
    {
      "text": "I myself, have never been really subject to\nviolence from a man, only from a woman, which",
      "start": 598.43,
      "duration": 5.599
    },
    {
      "text": "would be my mother.",
      "start": 604.029,
      "duration": 2.49
    },
    {
      "text": "The overall rate of severe assaults in this\nworldwide dating violence study was 10.8%,",
      "start": 606.519,
      "duration": 7
    },
    {
      "text": "mutual violence 54.8%, male-only severe assaults\nof those who were engaged in these severe",
      "start": 614.93,
      "duration": 6.21
    },
    {
      "text": "assaults, male-only 15.7%, female-only 29.4%.\nThat again is something really important to",
      "start": 621.14,
      "duration": 7
    },
    {
      "text": "understand to the degree to which we do not\nsee women's role in the cycle of violence",
      "start": 630.38,
      "duration": 5.51
    },
    {
      "text": "is the degree to which we really cannot cure\nthis horrible groundhogs day of facial bludgeoning.",
      "start": 635.89,
      "duration": 7
    },
    {
      "text": "So what is the myth? Well, the myth is that\nfemales, well, people say, well, they may",
      "start": 644.04,
      "duration": 4.45
    },
    {
      "text": "aggress against their male partners but it's\nalways or almost always self-defense. This",
      "start": 648.49,
      "duration": 6.17
    },
    {
      "text": "is not held up by the data. Objective studies\nreveal that in half of the cases, it is impossible",
      "start": 654.66,
      "duration": 5.89
    },
    {
      "text": "to tell who initiated the violence and male\nand female initiation of aggression in the",
      "start": 660.55,
      "duration": 5
    },
    {
      "text": "other half is about equal.",
      "start": 665.55,
      "duration": 2.63
    },
    {
      "text": "So it's about equal for men and women to initiate\nviolence in relationships where it can be",
      "start": 668.18,
      "duration": 5.9
    },
    {
      "text": "determined. Where it can't be determined,\nI think it's reasonable to assume, though",
      "start": 674.08,
      "duration": 2.819
    },
    {
      "text": "it can't be proven, that the same patterns\nwould continue.",
      "start": 676.899,
      "duration": 4.801
    },
    {
      "text": "In general, studies of marital couples indicate\nthat the women initiate pattern of violence",
      "start": 681.7,
      "duration": 4.88
    },
    {
      "text": "25% of the time. Men initiate pattern of violence\n25% of the time and mutual violence occurs",
      "start": 686.58,
      "duration": 6.78
    },
    {
      "text": "50% of the time, a grimly efficient egalitarianism\nof aggression. The dating studies though generally",
      "start": 693.36,
      "duration": 7
    },
    {
      "text": "show that women initiate violence at a significantly\nhigher rates than men.",
      "start": 700.73,
      "duration": 4.95
    },
    {
      "text": "A 2006 study on physical and psychological\naggression examined partner aggression in",
      "start": 705.68,
      "duration": 5.56
    },
    {
      "text": "a sample of 453 cohabiting couples with kids\nbetween three to seven years of age: minor",
      "start": 711.24,
      "duration": 6.52
    },
    {
      "text": "aggression, males 23.8%, women 33.8%; severe\naggression, men 8.4%, women 11.5%.",
      "start": 717.76,
      "duration": 7
    },
    {
      "text": "One of the key findings that came out of this\nwas that a female physical aggression generally",
      "start": 730.66,
      "duration": 6.109
    },
    {
      "text": "occurs when a man is verbally aggressive and\nhe says mean things, then the woman will assault",
      "start": 736.769,
      "duration": 6.741
    },
    {
      "text": "him but the key reason for male aggression\nwas female physical aggression. In other words,",
      "start": 743.51,
      "duration": 6.21
    },
    {
      "text": "the men fought because the women started hitting\nthem. The women fought because the men were",
      "start": 749.72,
      "duration": 4.239
    },
    {
      "text": "speaking in a negative way or destructive\nway towards them, which again I think is certainly",
      "start": 753.959,
      "duration": 6.12
    },
    {
      "text": "in a rational philosophy. Verbal abuse does\nnot justify physical violence.",
      "start": 760.079,
      "duration": 7
    },
    {
      "text": "So the authors of this study in '06 conclude\nthat women may be the first to escalate a",
      "start": 768.76,
      "duration": 4.6
    },
    {
      "text": "conflict and use physical aggression.",
      "start": 773.36,
      "duration": 4.099
    },
    {
      "text": "So let's just have a look at this graphically.\nMale minor aggression 23.8%, female 33.8%,",
      "start": 777.459,
      "duration": 7
    },
    {
      "text": "male major aggression 8.4% versus 11.5% and\nthis is a great tragedy. It is a great tragedy",
      "start": 785.31,
      "duration": 7
    },
    {
      "text": "not focusing on women's capacity to violence,\nas I'll argue at the end, is one of the key",
      "start": 793.07,
      "duration": 3.85
    },
    {
      "text": "reasons why female violence continues and,\nin some ways, even escalates.",
      "start": 796.92,
      "duration": 4.88
    },
    {
      "text": "So another myth we say, well, because of the\nstrength differential, men have 40% or more",
      "start": 801.8,
      "duration": 4.44
    },
    {
      "text": "greater upper body strength than women. Women\nare significantly more likely to be injured",
      "start": 806.24,
      "duration": 4.88
    },
    {
      "text": "than men are but recent data suggests a parity\nin serious injuries.",
      "start": 811.12,
      "duration": 7
    },
    {
      "text": "In '07, a bunch of guys found in a national\nstudy of over 11,000 young adults that there",
      "start": 818.709,
      "duration": 6.44
    },
    {
      "text": "was violence in 24% of the relationships.\nHalf of couple violence was reciprocal and",
      "start": 825.149,
      "duration": 7
    },
    {
      "text": "the non-reciprocal violence, in other words,\nwhere one person was beating on the other,",
      "start": 832.26,
      "duration": 4.17
    },
    {
      "text": "women were perpetrators in 70% of the cases.",
      "start": 836.43,
      "duration": 5.279
    },
    {
      "text": "Overall, women were, in fact, more likely\nto be injured. However, in reciprocal violence,",
      "start": 841.709,
      "duration": 6.25
    },
    {
      "text": "men reported more injuries than women in relationships\nwith non-reciprocal violence. So where both",
      "start": 847.959,
      "duration": 6.62
    },
    {
      "text": "people are beating up on each other, men get\ninjured more than just the men who -- in relationships",
      "start": 854.579,
      "duration": 7
    },
    {
      "text": "where the men are beating up with women.",
      "start": 862.26,
      "duration": 2.48
    },
    {
      "text": "So rather than self-reporting, you can go\nto ER data, this is from the late '90s. A",
      "start": 864.74,
      "duration": 4.82
    },
    {
      "text": "13-week period in the ER was studied and found\nthat of the 866 male patients who were admitted,",
      "start": 869.56,
      "duration": 7
    },
    {
      "text": "12.6% of them were victims of domestic violence.\nThis compares to 14.4% of women treated for",
      "start": 877.639,
      "duration": 7
    },
    {
      "text": "partner violence in emergency departments.\nSo, again, this is less than 2% disparity",
      "start": 885.66,
      "duration": 6.5
    },
    {
      "text": "and that's again important to understand.",
      "start": 892.16,
      "duration": 3.14
    },
    {
      "text": "Forty-eight percent of the male victims reported\nbeing kicked, bitten, choked or punched. Thirty-seven",
      "start": 895.3,
      "duration": 7
    },
    {
      "text": "percent of men reported having a weapon used\nagainst them by a female partner. One of the",
      "start": 902.55,
      "duration": 6.789
    },
    {
      "text": "ways that you can make up for a strength disparity\nis to use a weapon, of course.",
      "start": 909.339,
      "duration": 6.171
    },
    {
      "text": "So in 2000, a meta-analysis was published\nin the Psychological Bulletin, one of the",
      "start": 915.51,
      "duration": 3.97
    },
    {
      "text": "most respected and peer-reviewed journals,\n56% of serious injuries was sustained by women,",
      "start": 919.48,
      "duration": 5.229
    },
    {
      "text": "44% by men. Of course, this is in no way to\ndiscount the horror of the women being beaten.",
      "start": 924.709,
      "duration": 4.56
    },
    {
      "text": "I would just kind of want to point out that\nthen their marriage of evil known as domestic",
      "start": 929.269,
      "duration": 4.44
    },
    {
      "text": "abuse, there is not just one person standing\non top of the bloody wedding cake. There are,",
      "start": 933.709,
      "duration": 4.18
    },
    {
      "text": "in fact, two people and the idea of this 19th\ncentury fainting-hearted female victimization",
      "start": 937.889,
      "duration": 7
    },
    {
      "text": "is something we should delegate to the dustbin\nof history and recognize that the capacity",
      "start": 945.329,
      "duration": 5.411
    },
    {
      "text": "for evil and violence is a bit strong in the\nfemale heart as in the male.",
      "start": 950.74,
      "duration": 5.64
    },
    {
      "text": "So Murray Straus in '05 reports that women\nare seriously injured twice as often as men.",
      "start": 956.38,
      "duration": 4.459
    },
    {
      "text": "Laroche in '05 reports a similar percentage\nof men and women who were terrorized by their",
      "start": 960.839,
      "duration": 4.18
    },
    {
      "text": "partners that received medical attention.\nBut again, the 84% is not indicative of the",
      "start": 965.019,
      "duration": 6.151
    },
    {
      "text": "amount of violence occurring in the relationship\nor whether men and women or both are starting",
      "start": 971.17,
      "duration": 3.39
    },
    {
      "text": "it. It is indicative of one's willingness\nto go and get help and the perception of whether",
      "start": 974.56,
      "duration": 4.07
    },
    {
      "text": "one can be believed.",
      "start": 978.63,
      "duration": 2.55
    },
    {
      "text": "Vasquez and Falcone in '97 report equal cross-gender\nviolence in trauma center with male injuries",
      "start": 981.18,
      "duration": 4.62
    },
    {
      "text": "more severe than female. Men were stabbed,\nwomen were assaulted. So this is important",
      "start": 985.8,
      "duration": 7
    },
    {
      "text": "to understand. There's a lot of mixed messages\nin all of these stuff and that, of course,",
      "start": 994.41,
      "duration": 6.19
    },
    {
      "text": "in understandable.",
      "start": 1000.6,
      "duration": 1.44
    },
    {
      "text": "So 447 young men and 391 young women were\nassessed in New Zealand in '05. Men were found",
      "start": 1002.04,
      "duration": 7
    },
    {
      "text": "to be more exposed to severe domestic violence\nthan women. There were similar rates of injury,",
      "start": 1010.519,
      "duration": 5.81
    },
    {
      "text": "3.9% for men versus 3.3% for women. Women\nreport initiating assaults three times more",
      "start": 1016.329,
      "duration": 6.57
    },
    {
      "text": "than men, 34% versus 12%. Again, looking at\nthat, we have almost 300% more assaults initiated",
      "start": 1022.899,
      "duration": 7
    },
    {
      "text": "by women than by men.",
      "start": 1032.549,
      "duration": 2.08
    },
    {
      "text": "Of course, if there are children involved,\none of the questions is why do men stay? One",
      "start": 1034.629,
      "duration": 5.35
    },
    {
      "text": "of the reasons that men stay is if there are\nchildren involved than almost for certain,",
      "start": 1039.979,
      "duration": 4.55
    },
    {
      "text": "if the woman is violent, the woman is going\nto be assaulting the children. The man stays",
      "start": 1044.529,
      "duration": 3.25
    },
    {
      "text": "as a human shield knowing that he's very unlikely\nto get custody if he leaves and also knowing",
      "start": 1047.779,
      "duration": 4.28
    },
    {
      "text": "his wife's capacity for brutality. The idea\nof linking her up with lawyers in family court",
      "start": 1052.059,
      "duration": 4.45
    },
    {
      "text": "system, particularly in the United States\nis so terrifying that most men would rather",
      "start": 1056.509,
      "duration": 5.01
    },
    {
      "text": "stay and endure.",
      "start": 1061.519,
      "duration": 2.061
    },
    {
      "text": "In '84, researchers found that when weapons\nwere employed in domestic violence in encounters,",
      "start": 1063.58,
      "duration": 6.069
    },
    {
      "text": "men used weapons 25% of the time, women used\nweapons 86% of the time. Of course, in some,",
      "start": 1069.649,
      "duration": 7
    },
    {
      "text": "both men and women use weapons.",
      "start": 1077.2,
      "duration": 4.02
    },
    {
      "text": "So equality is equal. Women are equal in their\ncapacities for evil relative to men. Here,",
      "start": 1081.22,
      "duration": 7
    },
    {
      "text": "we're merely talking about spousal or intimate\npartner or dating violence. When we look at",
      "start": 1091.389,
      "duration": 4.38
    },
    {
      "text": "violence against children, women are vastly\noverrepresented in attacks and assaults and",
      "start": 1095.769,
      "duration": 4.13
    },
    {
      "text": "murders of children. The women do have the\ncapacity for violence. They have the capacity",
      "start": 1099.899,
      "duration": 5.1
    },
    {
      "text": "for brutality, for control, the isolation\nof the victim, which is common to almost all",
      "start": 1104.999,
      "duration": 4.99
    },
    {
      "text": "abusive situations. Women have this capacity.\nIt's extremely dangerous and very widespread.",
      "start": 1109.989,
      "duration": 6.12
    },
    {
      "text": "If we don't hold women accountable, then the\nviolence is not going to diminish. We saw",
      "start": 1116.109,
      "duration": 3.721
    },
    {
      "text": "that from the graphs earlier where as the\nresult of an increased awareness of male and",
      "start": 1119.83,
      "duration": 4.329
    },
    {
      "text": "female violence, male violence diminished.\nWe would like to see, of course, all good",
      "start": 1124.159,
      "duration": 3.75
    },
    {
      "text": "people would like to see women assaulting\nmen less, which is occurring in male on female",
      "start": 1127.909,
      "duration": 5.97
    },
    {
      "text": "violence but not on female on male violence\nto a large degree because it's invisible and",
      "start": 1133.879,
      "duration": 4.52
    },
    {
      "text": "the police don't believe you and men don't\nwant to go for help and they are hostaged",
      "start": 1138.399,
      "duration": 4.35
    },
    {
      "text": "by family court systems often.",
      "start": 1142.749,
      "duration": 2.101
    },
    {
      "text": "We know that accountability works. When violence\nis identified and violence is condemned, then",
      "start": 1144.85,
      "duration": 6.949
    },
    {
      "text": "it tends to diminish. Negative reactions or\nnegative repercussions work. People respond",
      "start": 1151.799,
      "duration": 5.63
    },
    {
      "text": "to incentives and disincentives. I mean, as\nrecently as the 1950s, nobody really believed",
      "start": 1157.429,
      "duration": 4.8
    },
    {
      "text": "the child abuse existed. There's a doctor\nwho first began to imagine that the concussions",
      "start": 1162.229,
      "duration": 5.111
    },
    {
      "text": "and contusions and broken bones, and so on\nthat the parents will bring in their children",
      "start": 1167.34,
      "duration": 3.73
    },
    {
      "text": "in for may not be the result of falling out\nof trees but instead falling on a parent's",
      "start": 1171.07,
      "duration": 4.219
    },
    {
      "text": "fist.",
      "start": 1175.289,
      "duration": 0.911
    },
    {
      "text": "So it really is only 50 or 60 years since\nchild abuse really began to be examined and,",
      "start": 1176.2,
      "duration": 5.069
    },
    {
      "text": "in many ways, excluding SSRIs, it has diminished\nenormously and the same thing needs to be",
      "start": 1181.269,
      "duration": 5.311
    },
    {
      "text": "true for female violence. We need to understand\nits courses. We need to understand that if",
      "start": 1186.58,
      "duration": 5.829
    },
    {
      "text": "children are exposed to this level of violence\namong their parents or their caregivers, there",
      "start": 1192.409,
      "duration": 5.84
    },
    {
      "text": "is going to be a huge amount of gender hostility\nthat arises as a result.",
      "start": 1198.249,
      "duration": 4.64
    },
    {
      "text": "As Senator Anne Cools, who I recently spoke\nwith at a conference, said, \"Behind every",
      "start": 1202.889,
      "duration": 4.6
    },
    {
      "text": "wife beater is an abusive mother.\" Why would\na man grow up with such hatred of women? Because",
      "start": 1207.489,
      "duration": 6.351
    },
    {
      "text": "maybe he saw his father being beaten up by\na woman, maybe he was beaten up by a woman",
      "start": 1213.84,
      "duration": 3.37
    },
    {
      "text": "and his father was helpless in the web that\nhe had been caught in.",
      "start": 1217.21,
      "duration": 4.159
    },
    {
      "text": "So we have to focus on ending the cycle of\nviolence no matter what. Facts cannot be sexist.",
      "start": 1221.369,
      "duration": 6.54
    },
    {
      "text": "Reality cannot be hostile to all but false\nagenda. So let us work together to recognize",
      "start": 1227.909,
      "duration": 5.99
    },
    {
      "text": "and expose women's capacity for violence and\nwork to heal and diminish our capacity for",
      "start": 1233.899,
      "duration": 6.51
    },
    {
      "text": "repetition.",
      "start": 1240.409,
      "duration": 0.911
    },
    {
      "text": "This is Stefan Molyneux for Freedomain Radio.\nThank you so much for watching.",
      "start": 1241.32,
      "duration": 7
    }
  ],
  "Errors": null,
  "TranscriptStderr": null
}