[
    {
        "start": "0.03",
        "dur": "10.41",
        "text": "oh I guess I did a little Paul here and"
    },
    {
        "start": "4.879",
        "dur": "7.871",
        "text": "17th of March 2020 and we are going to"
    },
    {
        "start": "10.44",
        "dur": "5.34",
        "text": "do a little homeschooling yes yes I know"
    },
    {
        "start": "12.75",
        "dur": "7.89",
        "text": "there were quite a few requests for 80s"
    },
    {
        "start": "15.78",
        "dur": "7.73",
        "text": "karaoke because that was an option that"
    },
    {
        "start": "20.64",
        "dur": "4.68",
        "text": "I put out there in the world do you want"
    },
    {
        "start": "23.51",
        "dur": "3.519",
        "text": "coronavirus updates do you want"
    },
    {
        "start": "25.32",
        "dur": "7.049",
        "text": "homeschooling instructions or do you"
    },
    {
        "start": "27.029",
        "dur": "8.19",
        "text": "want 80's karaoke and well I was just"
    },
    {
        "start": "32.369",
        "dur": "7.321",
        "text": "out there getting my Billy Idol we're"
    },
    {
        "start": "35.219",
        "dur": "5.731",
        "text": "gone little liposuction and a sneer so"
    },
    {
        "start": "39.69",
        "dur": "3.689",
        "text": "yeah I hope you guys are having a great"
    },
    {
        "start": "40.95",
        "dur": "3.81",
        "text": "a great evening we're gonna do some"
    },
    {
        "start": "43.379",
        "dur": "3.18",
        "text": "homeschooling stuff tonight because of"
    },
    {
        "start": "44.76",
        "dur": "3.81",
        "text": "course you know a lot of people your"
    },
    {
        "start": "46.559",
        "dur": "4.23",
        "text": "kids are home they have been blown back"
    },
    {
        "start": "48.57",
        "dur": "4.77",
        "text": "to you by the chill winds of the Chinese"
    },
    {
        "start": "50.789",
        "dur": "6.331",
        "text": "Communist Party's hiding of the true"
    },
    {
        "start": "53.34",
        "dur": "7.019",
        "text": "danger of coronavirus and living on a"
    },
    {
        "start": "57.12",
        "dur": "6.48",
        "text": "prayer should we do a little karaoke"
    },
    {
        "start": "60.359",
        "dur": "6.211",
        "text": "well everyone everyone comes in should"
    },
    {
        "start": "63.6",
        "dur": "4.29",
        "text": "we do did we do just a tiny bit now it's"
    },
    {
        "start": "66.57",
        "dur": "2.82",
        "text": "probably not gonna be any fun for you"
    },
    {
        "start": "67.89",
        "dur": "3.81",
        "text": "guys wouldn't be any fun for you I'm"
    },
    {
        "start": "69.39",
        "dur": "3.96",
        "text": "sure you know this is serious stuff here"
    },
    {
        "start": "71.7",
        "dur": "4.23",
        "text": "you know we do serious stuff in this"
    },
    {
        "start": "73.35",
        "dur": "5.67",
        "text": "show it's a philosophy show where we"
    },
    {
        "start": "75.93",
        "dur": "5.369",
        "text": "deal with of course the most essential"
    },
    {
        "start": "79.02",
        "dur": "10.08",
        "text": "and important human issues the education"
    },
    {
        "start": "81.299",
        "dur": "9.511",
        "text": "of the young and 80s karaoke you guys"
    },
    {
        "start": "89.1",
        "dur": "10.32",
        "text": "have favorite karaoke songs do you ever"
    },
    {
        "start": "90.81",
        "dur": "11.61",
        "text": "do it sing please sing please do it do"
    },
    {
        "start": "99.42",
        "dur": "8.19",
        "text": "it alright well just while we're waiting"
    },
    {
        "start": "102.42",
        "dur": "9.87",
        "text": "for everyone to gather a little sister"
    },
    {
        "start": "107.61",
        "dur": "8.219",
        "text": "what have you done net a little sister"
    },
    {
        "start": "112.29",
        "dur": "6.75",
        "text": "who's your only one hey little sister"
    },
    {
        "start": "115.829",
        "dur": "5.731",
        "text": "who's just Superman hey little sister"
    },
    {
        "start": "119.04",
        "dur": "7.399",
        "text": "who's the one you want hey little sister"
    },
    {
        "start": "121.56",
        "dur": "8.99",
        "text": "shotgun it's a last day to start again"
    },
    {
        "start": "126.439",
        "dur": "9.271",
        "text": "come on it's a nice day for a"
    },
    {
        "start": "130.55",
        "dur": "6.57",
        "text": "wedding all right oh yeah this reduce"
    },
    {
        "start": "135.71",
        "dur": "5.97",
        "text": "Derrick's remind me of him doing a"
    },
    {
        "start": "137.12",
        "dur": "7.59",
        "text": "debate this Friday night 8 p.m. eastern"
    },
    {
        "start": "141.68",
        "dur": "4.71",
        "text": "standard time with jf Gary Eppie who are"
    },
    {
        "start": "144.71",
        "dur": "4.44",
        "text": "we gonna talk moral nihilism versus"
    },
    {
        "start": "146.39",
        "dur": "6.18",
        "text": "universally preferable behavior or good"
    },
    {
        "start": "149.15",
        "dur": "7.77",
        "text": "versus evil angel versus devil and so"
    },
    {
        "start": "152.57",
        "dur": "5.19",
        "text": "his his his intro speech is gonna go"
    },
    {
        "start": "156.92",
        "dur": "3.98",
        "text": "something like this"
    },
    {
        "start": "157.76",
        "dur": "6.66",
        "text": "there is nothing fair in this world"
    },
    {
        "start": "160.9",
        "dur": "6.58",
        "text": "there is nothing safe in this world and"
    },
    {
        "start": "164.42",
        "dur": "6.12",
        "text": "there's nothing sure in this world and"
    },
    {
        "start": "167.48",
        "dur": "7.2",
        "text": "there's nothing pure in this world look"
    },
    {
        "start": "170.54",
        "dur": "5.88",
        "text": "for something left in this world start"
    },
    {
        "start": "174.68",
        "dur": "4.5",
        "text": "again"
    },
    {
        "start": "176.42",
        "dur": "5.07",
        "text": "come on it's a nice day for a white"
    },
    {
        "start": "179.18",
        "dur": "3.96",
        "text": "wedding all right so that's of course I"
    },
    {
        "start": "181.49",
        "dur": "3.21",
        "text": "will be available for vocal lessons for"
    },
    {
        "start": "183.14",
        "dur": "7.04",
        "text": "children who have their toes caught in"
    },
    {
        "start": "184.7",
        "dur": "10.38",
        "text": "mousetraps but let's start with some"
    },
    {
        "start": "190.18",
        "dur": "7.12",
        "text": "questions about it's like it's like"
    },
    {
        "start": "195.08",
        "dur": "4.17",
        "text": "seeing my teacher kick back but and this"
    },
    {
        "start": "197.3",
        "dur": "3.84",
        "text": "is an old Judd Apatow show actually kind"
    },
    {
        "start": "199.25",
        "dur": "7.23",
        "text": "of like that from way back in the day"
    },
    {
        "start": "201.14",
        "dur": "7.86",
        "text": "this was Oh freaks and geeks there's"
    },
    {
        "start": "206.48",
        "dur": "5.88",
        "text": "that stringy haired guy who was the kind"
    },
    {
        "start": "209",
        "dur": "5.73",
        "text": "of half cool guidance counselor and boy"
    },
    {
        "start": "212.36",
        "dur": "4.53",
        "text": "did I ever get some rage mail from when"
    },
    {
        "start": "214.73",
        "dur": "4.5",
        "text": "I made a joke on Twitter years ago about"
    },
    {
        "start": "216.89",
        "dur": "4.17",
        "text": "no last year maybe about why on earth"
    },
    {
        "start": "219.23",
        "dur": "3.24",
        "text": "would you take career advice from"
    },
    {
        "start": "221.06",
        "dur": "3.27",
        "text": "somebody who ended up as a high school"
    },
    {
        "start": "222.47",
        "dur": "3.18",
        "text": "guidance counselor because you know the"
    },
    {
        "start": "224.33",
        "dur": "3.42",
        "text": "guy he was my high school guidance"
    },
    {
        "start": "225.65",
        "dur": "3.48",
        "text": "counselor was kind of pimply cannot"
    },
    {
        "start": "227.75",
        "dur": "2.76",
        "text": "overweight and stuck in a back office"
    },
    {
        "start": "229.13",
        "dur": "3.3",
        "text": "that everybody thought was originally a"
    },
    {
        "start": "230.51",
        "dur": "5.22",
        "text": "janitor's closet and I remember he had"
    },
    {
        "start": "232.43",
        "dur": "4.44",
        "text": "these signs over his desk like behind"
    },
    {
        "start": "235.73",
        "dur": "3.33",
        "text": "him it's like here are all of the"
    },
    {
        "start": "236.87",
        "dur": "4.56",
        "text": "occupations that you will never be able"
    },
    {
        "start": "239.06",
        "dur": "4.86",
        "text": "to get into if you don't become"
    },
    {
        "start": "241.43",
        "dur": "5.82",
        "text": "excellent at math and it was like tax"
    },
    {
        "start": "243.92",
        "dur": "5.01",
        "text": "accountant accountant actuarial"
    },
    {
        "start": "247.25",
        "dur": "6.019",
        "text": "economists you know all things that I"
    },
    {
        "start": "248.93",
        "dur": "4.339",
        "text": "wouldn't particularly want to do so"
    },
    {
        "start": "254.2",
        "dur": "7.599",
        "text": "let's get into a home schooling just out"
    },
    {
        "start": "259.28",
        "dur": "5.12",
        "text": "of curiosity are you guys doing"
    },
    {
        "start": "261.799",
        "dur": "2.601",
        "text": "homeschooling"
    },
    {
        "start": "264.43",
        "dur": "4.18",
        "text": "yeah don't quit your day job don't worry"
    },
    {
        "start": "266.66",
        "dur": "3.87",
        "text": "I'm not about to become a Billy Idol"
    },
    {
        "start": "268.61",
        "dur": "2.37",
        "text": "frontman cover band guy don't worry"
    },
    {
        "start": "270.53",
        "dur": "7.2",
        "text": "about it"
    },
    {
        "start": "270.98",
        "dur": "8.939",
        "text": "don't sweat it yeah I did a video years"
    },
    {
        "start": "277.73",
        "dur": "6.51",
        "text": "ago with Loretta Lynn there's stuff"
    },
    {
        "start": "279.919",
        "dur": "7.381",
        "text": "concerning concerning homeschooling but"
    },
    {
        "start": "284.24",
        "dur": "5.16",
        "text": "I am not hugely uh I'm not usually a"
    },
    {
        "start": "287.3",
        "dur": "3.65",
        "text": "math guy myself I'm okay at it I'm sort"
    },
    {
        "start": "289.4",
        "dur": "3.78",
        "text": "of give myself a 6 out of 10 on math"
    },
    {
        "start": "290.95",
        "dur": "4.62",
        "text": "there's certainly my my wife's much"
    },
    {
        "start": "293.18",
        "dur": "5.01",
        "text": "better at it than I am"
    },
    {
        "start": "295.57",
        "dur": "6.01",
        "text": "let's see here do you see a state"
    },
    {
        "start": "298.19",
        "dur": "6.3",
        "text": "enforced lockdown coming staff not"
    },
    {
        "start": "301.58",
        "dur": "5.67",
        "text": "imminently not imminently I will say"
    },
    {
        "start": "304.49",
        "dur": "3.899",
        "text": "this though that there is indications"
    },
    {
        "start": "307.25",
        "dur": "2.669",
        "text": "okay well just while people are"
    },
    {
        "start": "308.389",
        "dur": "4.731",
        "text": "gathering in there are definitely"
    },
    {
        "start": "309.919",
        "dur": "7.081",
        "text": "indications that coronavirus is leaving"
    },
    {
        "start": "313.12",
        "dur": "7.72",
        "text": "some people with like permanent damage I"
    },
    {
        "start": "317",
        "dur": "6.24",
        "text": "did talk about this more briefly last"
    },
    {
        "start": "320.84",
        "dur": "4.26",
        "text": "night was it last night so this is from"
    },
    {
        "start": "323.24",
        "dur": "3.54",
        "text": "a business insider I'll just read this"
    },
    {
        "start": "325.1",
        "dur": "6.33",
        "text": "up and then we will get to the"
    },
    {
        "start": "326.78",
        "dur": "6.3",
        "text": "homeschooling stuff but some people who"
    },
    {
        "start": "331.43",
        "dur": "3.84",
        "text": "recover from the corona virus might be"
    },
    {
        "start": "333.08",
        "dur": "3.63",
        "text": "left with 20 to 30% less lung function"
    },
    {
        "start": "335.27",
        "dur": "3.47",
        "text": "and gasping for breath when they walk"
    },
    {
        "start": "336.71",
        "dur": "6.6",
        "text": "quickly this is according to Hong Kong"
    },
    {
        "start": "338.74",
        "dur": "6.429",
        "text": "doctress and that's obviously not good"
    },
    {
        "start": "343.31",
        "dur": "6.18",
        "text": "at all not good at all"
    },
    {
        "start": "345.169",
        "dur": "5.671",
        "text": "and I've made it to 54 without any"
    },
    {
        "start": "349.49",
        "dur": "3",
        "text": "permanent damage for anything other than"
    },
    {
        "start": "350.84",
        "dur": "4.53",
        "text": "a tiny bit of tinnitus in my left ear as"
    },
    {
        "start": "352.49",
        "dur": "5.399",
        "text": "a leftover from radiation treatment for"
    },
    {
        "start": "355.37",
        "dur": "4.019",
        "text": "cancer but yeah people who recover from"
    },
    {
        "start": "357.889",
        "dur": "3.391",
        "text": "kovat 19 can still be left with"
    },
    {
        "start": "359.389",
        "dur": "3.561",
        "text": "substantially reduced lung functions the"
    },
    {
        "start": "361.28",
        "dur": "3.69",
        "text": "Hong Kong Hospital Authority has found"
    },
    {
        "start": "362.95",
        "dur": "3.76",
        "text": "after observing the first wave of"
    },
    {
        "start": "364.97",
        "dur": "4.46",
        "text": "patients discharged after becoming"
    },
    {
        "start": "366.71",
        "dur": "5.16",
        "text": "infected by the novel coronavirus"
    },
    {
        "start": "369.43",
        "dur": "3.88",
        "text": "the doctors made the observation after"
    },
    {
        "start": "371.87",
        "dur": "2.94",
        "text": "studying a group of twelve patients who"
    },
    {
        "start": "373.31",
        "dur": "4.53",
        "text": "had recovered rather than as part of a"
    },
    {
        "start": "374.81",
        "dur": "4.89",
        "text": "wider ranging study found a drop of 20"
    },
    {
        "start": "377.84",
        "dur": "4.26",
        "text": "to 30 percent in opacity in two or three"
    },
    {
        "start": "379.7",
        "dur": "3.87",
        "text": "of them though yeah that's a you know"
    },
    {
        "start": "382.1",
        "dur": "4.95",
        "text": "really really do what you can to avoid"
    },
    {
        "start": "383.57",
        "dur": "4.92",
        "text": "this virus if you can I mean it's gonna"
    },
    {
        "start": "387.05",
        "dur": "3.63",
        "text": "be around for a while and eventually"
    },
    {
        "start": "388.49",
        "dur": "6.39",
        "text": "it's going to be like dodging dodgeball"
    },
    {
        "start": "390.68",
        "dur": "6",
        "text": "with progressively diminishing results"
    },
    {
        "start": "394.88",
        "dur": "4.92",
        "text": "but"
    },
    {
        "start": "396.68",
        "dur": "8.91",
        "text": "yeah that's interesting I was expecting"
    },
    {
        "start": "399.8",
        "dur": "7.41",
        "text": "karaoke and not impressed well oh you"
    },
    {
        "start": "405.59",
        "dur": "3.99",
        "text": "get them and getting some lag that's sir"
    },
    {
        "start": "407.21",
        "dur": "6.179",
        "text": "I'm not oh yeah dropped a couple of"
    },
    {
        "start": "409.58",
        "dur": "5.399",
        "text": "frames here if it comes back we'll I'll"
    },
    {
        "start": "413.389",
        "dur": "3.601",
        "text": "drop it some more you did miss the"
    },
    {
        "start": "414.979",
        "dur": "5.101",
        "text": "karaoke I'm afraid I don't even know if"
    },
    {
        "start": "416.99",
        "dur": "4.38",
        "text": "it went live on YouTube kiss I never"
    },
    {
        "start": "420.08",
        "dur": "2.79",
        "text": "know when this thing starts like it says"
    },
    {
        "start": "421.37",
        "dur": "3.75",
        "text": "on my local streamer it says who we're"
    },
    {
        "start": "422.87",
        "dur": "4.65",
        "text": "starting and then when is it actually"
    },
    {
        "start": "425.12",
        "dur": "7.38",
        "text": "pick up on YouTube like I I have no idea"
    },
    {
        "start": "427.52",
        "dur": "10.019",
        "text": "anyway okay so I've put together my top"
    },
    {
        "start": "432.5",
        "dur": "8.25",
        "text": "10 list of really essential"
    },
    {
        "start": "437.539",
        "dur": "4.531",
        "text": "homeschooling stuff and I'm just gonna"
    },
    {
        "start": "440.75",
        "dur": "3.06",
        "text": "go through them these aren't in any"
    },
    {
        "start": "442.07",
        "dur": "3.12",
        "text": "particular order of importance and I"
    },
    {
        "start": "443.81",
        "dur": "2.49",
        "text": "wanted to get you guys thoughts on it if"
    },
    {
        "start": "445.19",
        "dur": "3.63",
        "text": "you were homeschooled or for you are"
    },
    {
        "start": "446.3",
        "dur": "5.36",
        "text": "homeschooling but you know for the"
    },
    {
        "start": "448.82",
        "dur": "6",
        "text": "parents who are at home now it is"
    },
    {
        "start": "451.66",
        "dur": "5.92",
        "text": "important to try and instill a love of"
    },
    {
        "start": "454.82",
        "dur": "4.65",
        "text": "learning in your children and the first"
    },
    {
        "start": "457.58",
        "dur": "6.059",
        "text": "thing that I'll talk about with regards"
    },
    {
        "start": "459.47",
        "dur": "6.36",
        "text": "to homeschooling is and I this audience"
    },
    {
        "start": "463.639",
        "dur": "4.771",
        "text": "like you I know that you really enjoy"
    },
    {
        "start": "465.83",
        "dur": "4.95",
        "text": "learning I mean you come to this channel"
    },
    {
        "start": "468.41",
        "dur": "6.33",
        "text": "which is obviously like sometimes"
    },
    {
        "start": "470.78",
        "dur": "6.54",
        "text": "getting your social credit score kicked"
    },
    {
        "start": "474.74",
        "dur": "5.31",
        "text": "in the nads by a rabid mule with all the"
    },
    {
        "start": "477.32",
        "dur": "4.379",
        "text": "truth bombs that come out but I know"
    },
    {
        "start": "480.05",
        "dur": "6.08",
        "text": "that you guys are into it this sort of"
    },
    {
        "start": "481.699",
        "dur": "8.371",
        "text": "lifelong learning stuff but it is"
    },
    {
        "start": "486.13",
        "dur": "6.34",
        "text": "important that you display first and"
    },
    {
        "start": "490.07",
        "dur": "5.129",
        "text": "foremost all of the traits that you wish"
    },
    {
        "start": "492.47",
        "dur": "4.83",
        "text": "be inculcated in your children you have"
    },
    {
        "start": "495.199",
        "dur": "4.411",
        "text": "to display them first yourself that"
    },
    {
        "start": "497.3",
        "dur": "4.29",
        "text": "people think that parenting is working"
    },
    {
        "start": "499.61",
        "dur": "4.679",
        "text": "on how to interact with your children"
    },
    {
        "start": "501.59",
        "dur": "6.06",
        "text": "that's not the primary aspect of"
    },
    {
        "start": "504.289",
        "dur": "8.24",
        "text": "parenting at all the primary aspect of"
    },
    {
        "start": "507.65",
        "dur": "7.65",
        "text": "parenting has almost nothing to do with"
    },
    {
        "start": "512.529",
        "dur": "6.01",
        "text": "you interacting with your children the"
    },
    {
        "start": "515.3",
        "dur": "5.1",
        "text": "primary aspect of parenting is the"
    },
    {
        "start": "518.539",
        "dur": "6.511",
        "text": "character and behavior that you bring to"
    },
    {
        "start": "520.4",
        "dur": "7.5",
        "text": "bear on the the issues right that is"
    },
    {
        "start": "525.05",
        "dur": "5.45",
        "text": "what parenting is all about if you want"
    },
    {
        "start": "527.9",
        "dur": "5.03",
        "text": "your children to be good readers"
    },
    {
        "start": "530.5",
        "dur": "3.6",
        "text": "to enjoy reading you have to see you"
    },
    {
        "start": "532.93",
        "dur": "4.35",
        "text": "reading boy if they have to see you"
    },
    {
        "start": "534.1",
        "dur": "7.47",
        "text": "reading to them you have to show the"
    },
    {
        "start": "537.28",
        "dur": "7.02",
        "text": "pleasure that you take in reading and"
    },
    {
        "start": "541.57",
        "dur": "5.04",
        "text": "then they will absorb that if you want"
    },
    {
        "start": "544.3",
        "dur": "3.99",
        "text": "them to negotiate in a peaceful manner"
    },
    {
        "start": "546.61",
        "dur": "4.47",
        "text": "for what it is that they want you have"
    },
    {
        "start": "548.29",
        "dur": "4.86",
        "text": "to first show them negotiating with your"
    },
    {
        "start": "551.08",
        "dur": "3.78",
        "text": "spouse negotiating with them in a"
    },
    {
        "start": "553.15",
        "dur": "3.06",
        "text": "peaceful manner or what it is that you"
    },
    {
        "start": "554.86",
        "dur": "3.72",
        "text": "want if you want to teach them"
    },
    {
        "start": "556.21",
        "dur": "3.63",
        "text": "assertiveness then you know if your food"
    },
    {
        "start": "558.58",
        "dur": "2.46",
        "text": "comes cold in the restaurant hey"
    },
    {
        "start": "559.84",
        "dur": "2.64",
        "text": "remember back in the day when you used"
    },
    {
        "start": "561.04",
        "dur": "3.2",
        "text": "to be able to go to a restaurant so if"
    },
    {
        "start": "562.48",
        "dur": "5.61",
        "text": "your food comes cold in the restaurant"
    },
    {
        "start": "564.24",
        "dur": "5.5",
        "text": "then they need to see you sending the"
    },
    {
        "start": "568.09",
        "dur": "2.97",
        "text": "food back you know not being mean about"
    },
    {
        "start": "569.74",
        "dur": "2.97",
        "text": "it just saying you know sorry this is"
    },
    {
        "start": "571.06",
        "dur": "6.69",
        "text": "not can you warm this up or get me"
    },
    {
        "start": "572.71",
        "dur": "9.15",
        "text": "another one or whatever right so that is"
    },
    {
        "start": "577.75",
        "dur": "5.91",
        "text": "I don't drop frames yeah all right okay"
    },
    {
        "start": "581.86",
        "dur": "3.27",
        "text": "will will drop down to sixty frames it's"
    },
    {
        "start": "583.66",
        "dur": "3.51",
        "text": "probably a bit pricey anyway I know"
    },
    {
        "start": "585.13",
        "dur": "4.2",
        "text": "what's going on with that but let's see"
    },
    {
        "start": "587.17",
        "dur": "4.77",
        "text": "if we can drop down to sixty frames can"
    },
    {
        "start": "589.33",
        "dur": "4.98",
        "text": "we no doesn't let me do it"
    },
    {
        "start": "591.94",
        "dur": "5.04",
        "text": "excellent well I ain't stuffing it's not"
    },
    {
        "start": "594.31",
        "dur": "5.34",
        "text": "it again so I guess we'll just struggle"
    },
    {
        "start": "596.98",
        "dur": "5.46",
        "text": "through so if you want your children to"
    },
    {
        "start": "599.65",
        "dur": "5.82",
        "text": "not be influenced overly by their peers"
    },
    {
        "start": "602.44",
        "dur": "5.7",
        "text": "then of course you have to not be overly"
    },
    {
        "start": "605.47",
        "dur": "4.38",
        "text": "influenced by your peers right I mean so"
    },
    {
        "start": "608.14",
        "dur": "3.03",
        "text": "parenting is the relationship that you"
    },
    {
        "start": "609.85",
        "dur": "2.52",
        "text": "have with yourself and it's a"
    },
    {
        "start": "611.17",
        "dur": "5.25",
        "text": "relationship that you have with virtue"
    },
    {
        "start": "612.37",
        "dur": "6.03",
        "text": "now if you have that straight then all"
    },
    {
        "start": "616.42",
        "dur": "3.69",
        "text": "is well right if you have that straight"
    },
    {
        "start": "618.4",
        "dur": "6.45",
        "text": "then all is well if you don't have that"
    },
    {
        "start": "620.11",
        "dur": "13.91",
        "text": "straight then that's bad right I'm just"
    },
    {
        "start": "624.85",
        "dur": "9.17",
        "text": "gonna deal with a couple of BOTS here so"
    },
    {
        "start": "634.74",
        "dur": "5.92",
        "text": "when it comes to homeschooling a lot of"
    },
    {
        "start": "638.56",
        "dur": "4.83",
        "text": "people think well okay what I want to do"
    },
    {
        "start": "640.66",
        "dur": "3.929",
        "text": "of course is I want to just get my kids"
    },
    {
        "start": "643.39",
        "dur": "2.46",
        "text": "interested in knowledge and I'm gonna"
    },
    {
        "start": "644.589",
        "dur": "2.701",
        "text": "sit down with them with a bunch of books"
    },
    {
        "start": "645.85",
        "dur": "4.32",
        "text": "and try and get them interested in stuff"
    },
    {
        "start": "647.29",
        "dur": "4.83",
        "text": "and that is in my experience and I've"
    },
    {
        "start": "650.17",
        "dur": "3.66",
        "text": "been doing this for well quite a long"
    },
    {
        "start": "652.12",
        "dur": "3.33",
        "text": "time now and I think quite successfully"
    },
    {
        "start": "653.83",
        "dur": "3.96",
        "text": "for those of you who've heard my"
    },
    {
        "start": "655.45",
        "dur": "3.9",
        "text": "daughter she's 11 and loves doing shows"
    },
    {
        "start": "657.79",
        "dur": "4.32",
        "text": "with me we just went through the"
    },
    {
        "start": "659.35",
        "dur": "4.92",
        "text": "Communist Manifesto and it's a great"
    },
    {
        "start": "662.11",
        "dur": "5.1",
        "text": "deal of fun and I mean I"
    },
    {
        "start": "664.27",
        "dur": "9.18",
        "text": "I get it I know she is a smart kid but"
    },
    {
        "start": "667.21",
        "dur": "9.39",
        "text": "nonetheless it is something that comes"
    },
    {
        "start": "673.45",
        "dur": "5.01",
        "text": "because I have a deep love of learning I"
    },
    {
        "start": "676.6",
        "dur": "3.39",
        "text": "have a deep love of knowledge now if you"
    },
    {
        "start": "678.46",
        "dur": "3.21",
        "text": "have that if you have that deep love of"
    },
    {
        "start": "679.99",
        "dur": "6.75",
        "text": "knowledge and that's part of how you"
    },
    {
        "start": "681.67",
        "dur": "8.69",
        "text": "live your life then you will transmit"
    },
    {
        "start": "686.74",
        "dur": "6.12",
        "text": "that to your children almost without any"
    },
    {
        "start": "690.36",
        "dur": "5.2",
        "text": "effort whatsoever and if you don't have"
    },
    {
        "start": "692.86",
        "dur": "5.16",
        "text": "that already then trying to get your"
    },
    {
        "start": "695.56",
        "dur": "7.29",
        "text": "kids to get involved in that stuff is"
    },
    {
        "start": "698.02",
        "dur": "6.87",
        "text": "simply not going to work so let me just"
    },
    {
        "start": "702.85",
        "dur": "3.42",
        "text": "see here I'm getting some dropped frames"
    },
    {
        "start": "704.89",
        "dur": "3.66",
        "text": "here I'm just gonna make sure that"
    },
    {
        "start": "706.27",
        "dur": "5.42",
        "text": "nothing else is going on in ye olde"
    },
    {
        "start": "708.55",
        "dur": "5.52",
        "text": "background here"
    },
    {
        "start": "711.69",
        "dur": "3.97",
        "text": "nothing's playing nothing's rollin"
    },
    {
        "start": "714.07",
        "dur": "8.43",
        "text": "nothing's cooking nothing's going on"
    },
    {
        "start": "715.66",
        "dur": "10.14",
        "text": "there so let me just sort that out and I"
    },
    {
        "start": "722.5",
        "dur": "5.13",
        "text": "don't know I have this one does not let"
    },
    {
        "start": "725.8",
        "dur": "10.44",
        "text": "me change the resolution or the"
    },
    {
        "start": "727.63",
        "dur": "13.14",
        "text": "framerate on the fly so that I can't do"
    },
    {
        "start": "736.24",
        "dur": "6.33",
        "text": "a huge amount about okay I'm just gonna"
    },
    {
        "start": "740.77",
        "dur": "2.16",
        "text": "jump back into the chat window he loved"
    },
    {
        "start": "742.57",
        "dur": "2.31",
        "text": "that"
    },
    {
        "start": "742.93",
        "dur": "6.35",
        "text": "yeah it's funny it's exactly the same"
    },
    {
        "start": "744.88",
        "dur": "4.4",
        "text": "setup as I had the other day who knows"
    },
    {
        "start": "751.62",
        "dur": "9.64",
        "text": "let's see yeah there live sorry about"
    },
    {
        "start": "755.23",
        "dur": "7.8",
        "text": "all of this it's always baffling you"
    },
    {
        "start": "761.26",
        "dur": "2.19",
        "text": "know what changes from one day to the"
    },
    {
        "start": "763.03",
        "dur": "4.82",
        "text": "next"
    },
    {
        "start": "763.45",
        "dur": "4.4",
        "text": "it says I have an excellent Kinect"
    },
    {
        "start": "772.889",
        "dur": "4.32",
        "text": "all right yeah we're still dropping"
    },
    {
        "start": "775.799",
        "dur": "1.79",
        "text": "frames do you think I should I start it"
    },
    {
        "start": "777.209",
        "dur": "4.41",
        "text": "again"
    },
    {
        "start": "777.589",
        "dur": "7.68",
        "text": "it's almost unwatchable okay I'll be"
    },
    {
        "start": "781.619",
        "dur": "3.65",
        "text": "back let me start again"
    },
    {
        "start": "792.67",
        "dur": "3.69",
        "text": "yeah it's it yeah it's still dropping"
    },
    {
        "start": "794.769",
        "dur": "8.281",
        "text": "like crazy okay I'll come back with 30"
    },
    {
        "start": "796.36",
        "dur": "9.02",
        "text": "frames a second no I am dropping a lot"
    },
    {
        "start": "803.05",
        "dur": "2.33",
        "text": "of friends"
    }
]