{
  "Title": "The Terrible Truth About Open Borders",
  "Id": "1GtagDn403Y",
  "Transcript": [
    {
      "text": "so this border situation is really",
      "start": 0.24,
      "duration": 4.5
    },
    {
      "text": "getting candidates at the moment just",
      "start": 2.399,
      "duration": 3.661
    },
    {
      "text": "about every time I log into social media",
      "start": 4.74,
      "duration": 3.39
    },
    {
      "text": "I'm seeing some more emotional",
      "start": 6.06,
      "duration": 4.35
    },
    {
      "text": "tear-jerking sentimentality estrogen",
      "start": 8.13,
      "duration": 5.1
    },
    {
      "text": "laced Fantasyland wherein resources are",
      "start": 10.41,
      "duration": 4.32
    },
    {
      "text": "infinite and anytime you deny it",
      "start": 13.23,
      "duration": 3.27
    },
    {
      "text": "resources to anyone it's because you",
      "start": 14.73,
      "duration": 3.48
    },
    {
      "text": "hate them and want the dead like you're",
      "start": 16.5,
      "duration": 3.689
    },
    {
      "text": "just denying oxygen to people laboring",
      "start": 18.21,
      "duration": 4.13
    },
    {
      "text": "on the last iron lung breath of",
      "start": 20.189,
      "duration": 5.1
    },
    {
      "text": "mortality and the latest of course is a",
      "start": 22.34,
      "duration": 5.259
    },
    {
      "text": "woman who has wonderfully manicured",
      "start": 25.289,
      "duration": 5.701
    },
    {
      "text": "nails and eyebrows by Xaro and perfect",
      "start": 27.599,
      "duration": 6.601
    },
    {
      "text": "makeup who was crying about her toddler",
      "start": 30.99,
      "duration": 6.21
    },
    {
      "text": "who died after she crossed the border",
      "start": 34.2,
      "duration": 4.769
    },
    {
      "text": "illegally into the United States within",
      "start": 37.2,
      "duration": 2.97
    },
    {
      "text": "some sort of detention I've heard",
      "start": 38.969,
      "duration": 3.421
    },
    {
      "text": "various stories I've seen pictures of",
      "start": 40.17,
      "duration": 3.9
    },
    {
      "text": "her looking healthy and happy with her",
      "start": 42.39,
      "duration": 5.31
    },
    {
      "text": "babies pierced ears in Mexico I think it",
      "start": 44.07,
      "duration": 5.1
    },
    {
      "text": "is but she crossed over to the border",
      "start": 47.7,
      "duration": 4.65
    },
    {
      "text": "and she was detained and then at some",
      "start": 49.17,
      "duration": 4.74
    },
    {
      "text": "point some people say soon as some",
      "start": 52.35,
      "duration": 3.84
    },
    {
      "text": "people say later her baby dies in",
      "start": 53.91,
      "duration": 4.44
    },
    {
      "text": "custody now that of course to me would",
      "start": 56.19,
      "duration": 5.49
    },
    {
      "text": "indicate that her baby was unwell before",
      "start": 58.35,
      "duration": 6
    },
    {
      "text": "she crossed over or got sick during the",
      "start": 61.68,
      "duration": 7.68
    },
    {
      "text": "crossover in which case how can how can",
      "start": 64.35,
      "duration": 7.17
    },
    {
      "text": "the American taxpayers be blamed for a",
      "start": 69.36,
      "duration": 5.7
    },
    {
      "text": "woman seemingly without a father or a",
      "start": 71.52,
      "duration": 6.72
    },
    {
      "text": "husband who brings a toddler across a",
      "start": 75.06,
      "duration": 5.4
    },
    {
      "text": "desert to a highly dangerous border",
      "start": 78.24,
      "duration": 4.71
    },
    {
      "text": "crossing if you bring your child to the",
      "start": 80.46,
      "duration": 5.22
    },
    {
      "text": "commission of a crime that's on you",
      "start": 82.95,
      "duration": 5.459
    },
    {
      "text": "that's not on the American taxpayer if",
      "start": 85.68,
      "duration": 5.759
    },
    {
      "text": "you bring a toddler to a home invasion",
      "start": 88.409,
      "duration": 6.091
    },
    {
      "text": "to breaking into a home and the toddler",
      "start": 91.439,
      "duration": 5.941
    },
    {
      "text": "gets injured or hurts that's on you it's",
      "start": 94.5,
      "duration": 6.299
    },
    {
      "text": "not on the American taxpayers and if you",
      "start": 97.38,
      "duration": 6.57
    },
    {
      "text": "bring a toddler when you're trying to",
      "start": 100.799,
      "duration": 5.64
    },
    {
      "text": "break into a country in the commission",
      "start": 103.95,
      "duration": 5.15
    },
    {
      "text": "of a crime in a very dangerous cartel",
      "start": 106.439,
      "duration": 5.401
    },
    {
      "text": "controlled neighborhood that's on you",
      "start": 109.1,
      "duration": 6.25
    },
    {
      "text": "that is not on the American taxpayer in",
      "start": 111.84,
      "duration": 5.37
    },
    {
      "text": "any conceivable way shape or form so",
      "start": 115.35,
      "duration": 3.69
    },
    {
      "text": "this stuff that I just find completely",
      "start": 117.21,
      "duration": 5.159
    },
    {
      "text": "incomprehensible how is it white",
      "start": 119.04,
      "duration": 5.009
    },
    {
      "text": "people's fault how is that the American",
      "start": 122.369,
      "duration": 3.78
    },
    {
      "text": "taxpayers fault that this woman chooses",
      "start": 124.049,
      "duration": 3.841
    },
    {
      "text": "to make this dangerous tract with her",
      "start": 126.149,
      "duration": 6.271
    },
    {
      "text": "toddler and they're not coming for",
      "start": 127.89,
      "duration": 6
    },
    {
      "text": "freedom so oh I want to check",
      "start": 132.42,
      "duration": 3.51
    },
    {
      "text": "a better life no that's not true what",
      "start": 133.89,
      "duration": 6.3
    },
    {
      "text": "you want is a chance to get your heavily",
      "start": 135.93,
      "duration": 5.7
    },
    {
      "text": "manicured fingers into the wallets of",
      "start": 140.19,
      "duration": 3.8
    },
    {
      "text": "the American taxpayer and I cannot I",
      "start": 141.63,
      "duration": 5.97
    },
    {
      "text": "refuse anymore to have more sympathy for",
      "start": 143.99,
      "duration": 4.87
    },
    {
      "text": "people and their children that they have",
      "start": 147.6,
      "duration": 2.27
    },
    {
      "text": "for themselves and their own children",
      "start": 148.86,
      "duration": 4.41
    },
    {
      "text": "why should I care more about your child",
      "start": 149.87,
      "duration": 6.089
    },
    {
      "text": "than you do it doesn't work it doesn't",
      "start": 153.27,
      "duration": 5.25
    },
    {
      "text": "make sense and it's gonna swamp and",
      "start": 155.959,
      "duration": 6.191
    },
    {
      "text": "drown us all in an endless baby bird",
      "start": 158.52,
      "duration": 6.81
    },
    {
      "text": "feeding outstretched fingers of taxpayer",
      "start": 162.15,
      "duration": 6
    },
    {
      "text": "pocketbook pillaging I can't do it I",
      "start": 165.33,
      "duration": 4.5
    },
    {
      "text": "can't I've whether it's compassion",
      "start": 168.15,
      "duration": 3.809
    },
    {
      "text": "fatigue or or empathy burnout or",
      "start": 169.83,
      "duration": 4.35
    },
    {
      "text": "pathological altruism short-circuit I",
      "start": 171.959,
      "duration": 4.741
    },
    {
      "text": "don't know but I am I'm out of it I'm",
      "start": 174.18,
      "duration": 3.059
    },
    {
      "text": "done",
      "start": 176.7,
      "duration": 4.289
    },
    {
      "text": "I got absolutely done because they're",
      "start": 177.239,
      "duration": 4.861
    },
    {
      "text": "not coming for freedom they're coming",
      "start": 180.989,
      "duration": 2.611
    },
    {
      "text": "for free stuff I want a better life no",
      "start": 182.1,
      "duration": 3.359
    },
    {
      "text": "you want free healthcare you want free",
      "start": 183.6,
      "duration": 3.359
    },
    {
      "text": "education you want free roads you want",
      "start": 185.459,
      "duration": 3.78
    },
    {
      "text": "to gain the fruits of a civilization",
      "start": 186.959,
      "duration": 4.111
    },
    {
      "text": "hard-won from a wilderness without",
      "start": 189.239,
      "duration": 3.591
    },
    {
      "text": "actually having to go through the",
      "start": 191.07,
      "duration": 3.48
    },
    {
      "text": "significant effort of building that",
      "start": 192.83,
      "duration": 3.97
    },
    {
      "text": "civilization can you imagine trying to",
      "start": 194.55,
      "duration": 4.23
    },
    {
      "text": "cut down the back forty and plant a farm",
      "start": 196.8,
      "duration": 4.2
    },
    {
      "text": "with those heavily manicured nails and",
      "start": 198.78,
      "duration": 3.6
    },
    {
      "text": "that perfect makeup",
      "start": 201,
      "duration": 3.09
    },
    {
      "text": "how was she released from custody how is",
      "start": 202.38,
      "duration": 4.05
    },
    {
      "text": "she testifying in front of Alexandria",
      "start": 204.09,
      "duration": 3.989
    },
    {
      "text": "kasnia Cortez how is any of this",
      "start": 206.43,
      "duration": 5.43
    },
    {
      "text": "happening it makes no sense can you just",
      "start": 208.079,
      "duration": 5.22
    },
    {
      "text": "be released from a detention set I get",
      "start": 211.86,
      "duration": 3
    },
    {
      "text": "perfect makeup and hair done and get a",
      "start": 213.299,
      "duration": 3.931
    },
    {
      "text": "perfect manicure and then go and wring",
      "start": 214.86,
      "duration": 4.59
    },
    {
      "text": "some crocodile tears of Democrat",
      "start": 217.23,
      "duration": 4.89
    },
    {
      "text": "immigrant pillaging sympathy out of AOC",
      "start": 219.45,
      "duration": 5.22
    },
    {
      "text": "makes no sense at all this is all staged",
      "start": 222.12,
      "duration": 4.26
    },
    {
      "text": "it's all a photo-op is it even her kid I",
      "start": 224.67,
      "duration": 4.68
    },
    {
      "text": "don't know who knows at this point it's",
      "start": 226.38,
      "duration": 6.24
    },
    {
      "text": "just a heavily sentimentalized onrushing",
      "start": 229.35,
      "duration": 6.54
    },
    {
      "text": "estrogen grab at the wallets of the",
      "start": 232.62,
      "duration": 6.24
    },
    {
      "text": "nation and I cannot anymore care for",
      "start": 235.89,
      "duration": 4.98
    },
    {
      "text": "people and their children more than they",
      "start": 238.86,
      "duration": 3.629
    },
    {
      "text": "care for their own children if you if",
      "start": 240.87,
      "duration": 2.91
    },
    {
      "text": "you don't care enough about your child",
      "start": 242.489,
      "duration": 3.481
    },
    {
      "text": "do not take your child on a dangerous",
      "start": 243.78,
      "duration": 4.38
    },
    {
      "text": "border-crossing if you don't care enough",
      "start": 245.97,
      "duration": 7.859
    },
    {
      "text": "for your child to apply for asylum in",
      "start": 248.16,
      "duration": 8.699
    },
    {
      "text": "the honorable decent legal way to show",
      "start": 253.829,
      "duration": 4.65
    },
    {
      "text": "yourself at a port of entry to apply it",
      "start": 256.859,
      "duration": 3.18
    },
    {
      "text": "an embassy if you if you don't care",
      "start": 258.479,
      "duration": 2.76
    },
    {
      "text": "about enough your truck for your child",
      "start": 260.039,
      "duration": 4.231
    },
    {
      "text": "to do the process safely and then you",
      "start": 261.239,
      "duration": 5.011
    },
    {
      "text": "ask me to cry because your child has",
      "start": 264.27,
      "duration": 2.91
    },
    {
      "text": "died",
      "start": 266.25,
      "duration": 3.93
    },
    {
      "text": "I can't do it I can't do it this is like",
      "start": 267.18,
      "duration": 6.06
    },
    {
      "text": "the pathological altruism curse of the",
      "start": 270.18,
      "duration": 5.19
    },
    {
      "text": "white race which is all we care so much",
      "start": 273.24,
      "duration": 3.06
    },
    {
      "text": "about everyone else",
      "start": 275.37,
      "duration": 1.799
    },
    {
      "text": "even more than they care about",
      "start": 276.3,
      "duration": 2.459
    },
    {
      "text": "themselves and that's just gonna work",
      "start": 277.169,
      "duration": 5.761
    },
    {
      "text": "out fine because there was originally in",
      "start": 278.759,
      "duration": 5.371
    },
    {
      "text": "the West these things called friendly",
      "start": 282.93,
      "duration": 3.03
    },
    {
      "text": "societies where you paid in your dues",
      "start": 284.13,
      "duration": 3.99
    },
    {
      "text": "and you got great stuff out of it like",
      "start": 285.96,
      "duration": 3.84
    },
    {
      "text": "you worked and you paid it was kind of",
      "start": 288.12,
      "duration": 3.269
    },
    {
      "text": "like a union but it was voluntary and it",
      "start": 289.8,
      "duration": 3
    },
    {
      "text": "encompassed things like for the",
      "start": 291.389,
      "duration": 3.051
    },
    {
      "text": "provision of health care and and",
      "start": 292.8,
      "duration": 3.51
    },
    {
      "text": "unemployment insurance and old-age",
      "start": 294.44,
      "duration": 4.81
    },
    {
      "text": "insurance then just accidental death and",
      "start": 296.31,
      "duration": 5.609
    },
    {
      "text": "and and and dismemberment insurance and",
      "start": 299.25,
      "duration": 5.1
    },
    {
      "text": "injury insurance so you paid into it and",
      "start": 301.919,
      "duration": 5.041
    },
    {
      "text": "if something bad happened you got out of",
      "start": 304.35,
      "duration": 4.65
    },
    {
      "text": "it and you assumed it was an amazing",
      "start": 306.96,
      "duration": 3.39
    },
    {
      "text": "system it was about a hundred years ago",
      "start": 309,
      "duration": 3.72
    },
    {
      "text": "like the Shriners and and these largest",
      "start": 310.35,
      "duration": 3.84
    },
    {
      "text": "and so on like the dim echoes of all",
      "start": 312.72,
      "duration": 3.03
    },
    {
      "text": "this kind of stuff it was an amazing",
      "start": 314.19,
      "duration": 5.25
    },
    {
      "text": "system and for one day's wages you've",
      "start": 315.75,
      "duration": 6.09
    },
    {
      "text": "got access to a doctor for 365 days of",
      "start": 319.44,
      "duration": 3.78
    },
    {
      "text": "the year and that's one of the reasons",
      "start": 321.84,
      "duration": 3.75
    },
    {
      "text": "why doctors hated it is is it drove down",
      "start": 323.22,
      "duration": 5.97
    },
    {
      "text": "what they wanted to charge for people so",
      "start": 325.59,
      "duration": 5.73
    },
    {
      "text": "this system wherein you paid into sort",
      "start": 329.19,
      "duration": 4.02
    },
    {
      "text": "of social insurance and then you got",
      "start": 331.32,
      "duration": 4.29
    },
    {
      "text": "security out of it was a great system",
      "start": 333.21,
      "duration": 4.709
    },
    {
      "text": "now then it was killed by regulations it",
      "start": 335.61,
      "duration": 3.27
    },
    {
      "text": "was killed by the government and it was",
      "start": 337.919,
      "duration": 2.401
    },
    {
      "text": "finally displaced by the welfare state",
      "start": 338.88,
      "duration": 4.349
    },
    {
      "text": "but the welfare state is different so",
      "start": 340.32,
      "duration": 4.95
    },
    {
      "text": "insurance of course works through",
      "start": 343.229,
      "duration": 7.171
    },
    {
      "text": "uncertainty you cannot apply for fire",
      "start": 345.27,
      "duration": 6.69
    },
    {
      "text": "insurance for your house when your house",
      "start": 350.4,
      "duration": 3.09
    },
    {
      "text": "is currently on fire because there's no",
      "start": 351.96,
      "duration": 4.019
    },
    {
      "text": "uncertainty there's no doubt you cannot",
      "start": 353.49,
      "duration": 7.89
    },
    {
      "text": "apply for I don't know insurance against",
      "start": 355.979,
      "duration": 6.571
    },
    {
      "text": "getting cancer when you've already been",
      "start": 361.38,
      "duration": 2.55
    },
    {
      "text": "diagnosed with cancer there has to be",
      "start": 362.55,
      "duration": 4.589
    },
    {
      "text": "uncertainty in the future in order for",
      "start": 363.93,
      "duration": 4.44
    },
    {
      "text": "an insurance to work and you have to",
      "start": 367.139,
      "duration": 2.611
    },
    {
      "text": "have more people paying in that are",
      "start": 368.37,
      "duration": 2.64
    },
    {
      "text": "taking out right that's just the way it",
      "start": 369.75,
      "duration": 3.9
    },
    {
      "text": "works so the way that the welfare state",
      "start": 371.01,
      "duration": 4.439
    },
    {
      "text": "was originally conceived offer was quite",
      "start": 373.65,
      "duration": 3.66
    },
    {
      "text": "simple it was well we got a bunch of",
      "start": 375.449,
      "duration": 3.5
    },
    {
      "text": "taxpayers who are paying into the system",
      "start": 377.31,
      "duration": 3.78
    },
    {
      "text": "every now and then something bad is",
      "start": 378.949,
      "duration": 3.581
    },
    {
      "text": "going to happen that was unforeseen and",
      "start": 381.09,
      "duration": 3.389
    },
    {
      "text": "strangely enough regulations and other",
      "start": 382.53,
      "duration": 3.15
    },
    {
      "text": "things have driven away these friendly",
      "start": 384.479,
      "duration": 2.851
    },
    {
      "text": "societies so we're going to give people",
      "start": 385.68,
      "duration": 3.239
    },
    {
      "text": "a safety net right a soft place to fall",
      "start": 387.33,
      "duration": 3.72
    },
    {
      "text": "if something accidental and unforeseen",
      "start": 388.919,
      "duration": 3.541
    },
    {
      "text": "happens that isn't covered by regular",
      "start": 391.05,
      "duration": 2.67
    },
    {
      "text": "insurance and bla bla bla but you had to",
      "start": 392.46,
      "duration": 3.92
    },
    {
      "text": "pay into the system and you had to",
      "start": 393.72,
      "duration": 6.87
    },
    {
      "text": "accidentally lose your job right because",
      "start": 396.38,
      "duration": 4.39
    },
    {
      "text": "it",
      "start": 400.59,
      "duration": 1.44
    },
    {
      "text": "you got fired for unemployment insurance",
      "start": 400.77,
      "duration": 2.85
    },
    {
      "text": "you've got fired you couldn't get it so",
      "start": 402.03,
      "duration": 3.18
    },
    {
      "text": "I had to be like layoffs or something",
      "start": 403.62,
      "duration": 2.93
    },
    {
      "text": "like that right so it had to be",
      "start": 405.21,
      "duration": 4.56
    },
    {
      "text": "uncertain in terms of the future there's",
      "start": 406.55,
      "duration": 4.839
    },
    {
      "text": "no way that insurance can work and this",
      "start": 409.77,
      "duration": 3.299
    },
    {
      "text": "is one of the things now that has",
      "start": 411.389,
      "duration": 2.911
    },
    {
      "text": "happened to American health care system",
      "start": 413.069,
      "duration": 3.241
    },
    {
      "text": "the American health care system is this",
      "start": 414.3,
      "duration": 3.899
    },
    {
      "text": "they say well you can't deny people for",
      "start": 416.31,
      "duration": 3.329
    },
    {
      "text": "pre-existing conditions and that comes",
      "start": 418.199,
      "duration": 3.271
    },
    {
      "text": "out of this weird world war 2 thing",
      "start": 419.639,
      "duration": 4.911
    },
    {
      "text": "where employers weren't allowed to",
      "start": 421.47,
      "duration": 5.099
    },
    {
      "text": "charge oh they weren't allowed to give",
      "start": 424.55,
      "duration": 3.549
    },
    {
      "text": "raises to people and so they just paid",
      "start": 426.569,
      "duration": 2.91
    },
    {
      "text": "their health insurance instead which was",
      "start": 428.099,
      "duration": 2.85
    },
    {
      "text": "the best thing that they could do but",
      "start": 429.479,
      "duration": 2.701
    },
    {
      "text": "then your health insurance was tied to",
      "start": 430.949,
      "duration": 2.641
    },
    {
      "text": "the job and if you switch jobs and blah",
      "start": 432.18,
      "duration": 3.87
    },
    {
      "text": "blah blah right so in America in a lot",
      "start": 433.59,
      "duration": 3.99
    },
    {
      "text": "of places in a lot of ways you are not",
      "start": 436.05,
      "duration": 2.489
    },
    {
      "text": "allowed to be denied for pre-existing",
      "start": 437.58,
      "duration": 3.209
    },
    {
      "text": "conditions what does that mean well it",
      "start": 438.539,
      "duration": 3.63
    },
    {
      "text": "means that people bite until they get",
      "start": 440.789,
      "duration": 5.611
    },
    {
      "text": "sick until they get health insurance",
      "start": 442.169,
      "duration": 5.761
    },
    {
      "text": "right and that's one of the reasons why",
      "start": 446.4,
      "duration": 2.85
    },
    {
      "text": "Obama had to force you to buy health",
      "start": 447.93,
      "duration": 1.709
    },
    {
      "text": "insurance",
      "start": 449.25,
      "duration": 2.61
    },
    {
      "text": "just endless regulations escalations and",
      "start": 449.639,
      "duration": 5.671
    },
    {
      "text": "more more red tape so you have to be",
      "start": 451.86,
      "duration": 6.179
    },
    {
      "text": "healthy before you get health insurance",
      "start": 455.31,
      "duration": 4.65
    },
    {
      "text": "once you're sick it doesn't work and",
      "start": 458.039,
      "duration": 4.47
    },
    {
      "text": "this is one of the basic fundamental",
      "start": 459.96,
      "duration": 5.07
    },
    {
      "text": "mathematical realities of life now how",
      "start": 462.509,
      "duration": 4.47
    },
    {
      "text": "it's things how things change now with",
      "start": 465.03,
      "duration": 6.87
    },
    {
      "text": "the welfare state well you don't need to",
      "start": 466.979,
      "duration": 6.66
    },
    {
      "text": "have worked and paid into the system and",
      "start": 471.9,
      "duration": 4.379
    },
    {
      "text": "then be subject to something bad that",
      "start": 473.639,
      "duration": 6.78
    },
    {
      "text": "happened right because uncertainty has",
      "start": 476.279,
      "duration": 6.051
    },
    {
      "text": "been taken out of the equation and",
      "start": 480.419,
      "duration": 4.981
    },
    {
      "text": "people say our nature was it America was",
      "start": 482.33,
      "duration": 6.79
    },
    {
      "text": "a nation of immigrants nope false false",
      "start": 485.4,
      "duration": 4.919
    },
    {
      "text": "on just about every level first of all",
      "start": 489.12,
      "duration": 3.18
    },
    {
      "text": "it was a nation of settlers settlers are",
      "start": 490.319,
      "duration": 3.6
    },
    {
      "text": "very different from immigrants settlers",
      "start": 492.3,
      "duration": 3.33
    },
    {
      "text": "came out and carved the country and",
      "start": 493.919,
      "duration": 3.03
    },
    {
      "text": "immigrants come and enjoy the fruits of",
      "start": 495.63,
      "duration": 1.89
    },
    {
      "text": "their labor",
      "start": 496.949,
      "duration": 2.671
    },
    {
      "text": "so no nation of settlers not of",
      "start": 497.52,
      "duration": 4.679
    },
    {
      "text": "immigrants secondly if people say well",
      "start": 499.62,
      "duration": 5.37
    },
    {
      "text": "it was a nation of immigrants and you've",
      "start": 502.199,
      "duration": 4.351
    },
    {
      "text": "got like my hold my lamp beside the",
      "start": 504.99,
      "duration": 3.329
    },
    {
      "text": "Golden Door and the Statue of Liberty in",
      "start": 506.55,
      "duration": 3.119
    },
    {
      "text": "the 19th century it's like okay well",
      "start": 508.319,
      "duration": 2.94
    },
    {
      "text": "then that was all-white immigration",
      "start": 509.669,
      "duration": 3.721
    },
    {
      "text": "America was created as the white ethno",
      "start": 511.259,
      "duration": 3.33
    },
    {
      "text": "state a white Christian latchkey",
      "start": 513.39,
      "duration": 3.48
    },
    {
      "text": "Protestant ethno state the Irish and the",
      "start": 514.589,
      "duration": 3.361
    },
    {
      "text": "Catholics were a certain amount of",
      "start": 516.87,
      "duration": 3.029
    },
    {
      "text": "challenge to integrate but boy I'm sure",
      "start": 517.95,
      "duration": 3.779
    },
    {
      "text": "the Somalis will be next in line no",
      "start": 519.899,
      "duration": 6.361
    },
    {
      "text": "problem but the reality is that you you",
      "start": 521.729,
      "duration": 6.511
    },
    {
      "text": "have a job the idea it's just say",
      "start": 526.26,
      "duration": 3.93
    },
    {
      "text": "welfare unemployment sure you have a job",
      "start": 528.24,
      "duration": 5.07
    },
    {
      "text": "something bad happens you don't have any",
      "start": 530.19,
      "duration": 4.35
    },
    {
      "text": "savings will tide you over",
      "start": 533.31,
      "duration": 2.339
    },
    {
      "text": "for a couple of weeks till you get a new",
      "start": 534.54,
      "duration": 2.31
    },
    {
      "text": "job right there's got to be uncertain",
      "start": 535.649,
      "duration": 2.461
    },
    {
      "text": "you have to have a job being paying into",
      "start": 536.85,
      "duration": 1.65
    },
    {
      "text": "it right",
      "start": 538.11,
      "duration": 2.55
    },
    {
      "text": "well the welfare state right Oh your",
      "start": 538.5,
      "duration": 3.839
    },
    {
      "text": "husband got hit by a truck on his way to",
      "start": 540.66,
      "duration": 3.39
    },
    {
      "text": "mail his life insurance check that's",
      "start": 542.339,
      "duration": 3.271
    },
    {
      "text": "really unfortunate so we don't want you",
      "start": 544.05,
      "duration": 3.57
    },
    {
      "text": "to live in the gutter so let's give you",
      "start": 545.61,
      "duration": 4.38
    },
    {
      "text": "some some money and so on and the more",
      "start": 547.62,
      "duration": 3.75
    },
    {
      "text": "children you have the more money weren't",
      "start": 549.99,
      "duration": 2.64
    },
    {
      "text": "gonna give you because you got mouths to",
      "start": 551.37,
      "duration": 2.79
    },
    {
      "text": "feed and so on but that's all nonsense",
      "start": 552.63,
      "duration": 4.92
    },
    {
      "text": "now because now you don't ever have to",
      "start": 554.16,
      "duration": 5.22
    },
    {
      "text": "have paid into the system and now you",
      "start": 557.55,
      "duration": 3.45
    },
    {
      "text": "can specifically come to a country",
      "start": 559.38,
      "duration": 4.17
    },
    {
      "text": "knowing for sure that you're gonna be",
      "start": 561,
      "duration": 3.81
    },
    {
      "text": "taking out more than you put in",
      "start": 563.55,
      "duration": 3.87
    },
    {
      "text": "and again insurance can't work that way",
      "start": 564.81,
      "duration": 4.199
    },
    {
      "text": "and the welfare state was supposed to",
      "start": 567.42,
      "duration": 3.539
    },
    {
      "text": "replicate some of the facets of",
      "start": 569.009,
      "duration": 3.841
    },
    {
      "text": "insurance which means you don't know if",
      "start": 570.959,
      "duration": 4.291
    },
    {
      "text": "there's going to be a disaster but if a",
      "start": 572.85,
      "duration": 4.56
    },
    {
      "text": "disaster happens so when people let's",
      "start": 575.25,
      "duration": 4.079
    },
    {
      "text": "say this woman right she comes in she's",
      "start": 577.41,
      "duration": 6.659
    },
    {
      "text": "got a baby she comes in she's not paid",
      "start": 579.329,
      "duration": 6.781
    },
    {
      "text": "anything into the system because she's",
      "start": 584.069,
      "duration": 3.721
    },
    {
      "text": "been another in another country she's",
      "start": 586.11,
      "duration": 3.089
    },
    {
      "text": "not paid anything into the system and",
      "start": 587.79,
      "duration": 4.59
    },
    {
      "text": "she's already a liability for sure for",
      "start": 589.199,
      "duration": 5.07
    },
    {
      "text": "sure she even if she gets a job of",
      "start": 592.38,
      "duration": 3.99
    },
    {
      "text": "course if she gets a job then her money",
      "start": 594.269,
      "duration": 5.43
    },
    {
      "text": "is all gonna go into childcare right so",
      "start": 596.37,
      "duration": 6.12
    },
    {
      "text": "she's not going to add anything to the",
      "start": 599.699,
      "duration": 4.89
    },
    {
      "text": "economics of America she's going to in",
      "start": 602.49,
      "duration": 3.779
    },
    {
      "text": "fact take an enormous amount from the",
      "start": 604.589,
      "duration": 3.81
    },
    {
      "text": "economics of America she's coming in she",
      "start": 606.269,
      "duration": 4.141
    },
    {
      "text": "has a sick child she has no husband boom",
      "start": 608.399,
      "duration": 2.701
    },
    {
      "text": "boom boom",
      "start": 610.41,
      "duration": 2.159
    },
    {
      "text": "she's automatically gonna be taken out",
      "start": 611.1,
      "duration": 3.33
    },
    {
      "text": "and it's true I mean the illegals in",
      "start": 612.569,
      "duration": 3.811
    },
    {
      "text": "particular take out seven dollars in",
      "start": 614.43,
      "duration": 3.87
    },
    {
      "text": "resources for every dollar they pay in",
      "start": 616.38,
      "duration": 5.13
    },
    {
      "text": "taxes so in this situation you trying to",
      "start": 618.3,
      "duration": 6.93
    },
    {
      "text": "set up an insurance system where people",
      "start": 621.51,
      "duration": 6.809
    },
    {
      "text": "who are already sick apply for health",
      "start": 625.23,
      "duration": 4.5
    },
    {
      "text": "insurance and people whose houses are",
      "start": 628.319,
      "duration": 3.111
    },
    {
      "text": "already on fire are the only people",
      "start": 629.73,
      "duration": 5.7
    },
    {
      "text": "applying for fire insurance and people",
      "start": 631.43,
      "duration": 5.95
    },
    {
      "text": "who have already lost their jobs are the",
      "start": 635.43,
      "duration": 3.33
    },
    {
      "text": "only people imply applying for",
      "start": 637.38,
      "duration": 3.75
    },
    {
      "text": "unemployment insurance so it can't",
      "start": 638.76,
      "duration": 4.949
    },
    {
      "text": "possibly work and I understand the",
      "start": 641.13,
      "duration": 4.079
    },
    {
      "text": "actions of each individual but they have",
      "start": 643.709,
      "duration": 3.511
    },
    {
      "text": "to be saying people in the world who",
      "start": 645.209,
      "duration": 4.081
    },
    {
      "text": "push back against this system which",
      "start": 647.22,
      "duration": 5.46
    },
    {
      "text": "cannot work it cannot mathematically",
      "start": 649.29,
      "duration": 6.57
    },
    {
      "text": "continue and for America to open its",
      "start": 652.68,
      "duration": 5.519
    },
    {
      "text": "borders of course through the plan this",
      "start": 655.86,
      "duration": 4.409
    },
    {
      "text": "this hysterical escalation of this open",
      "start": 658.199,
      "duration": 4.291
    },
    {
      "text": "borders rhetoric and provision of free",
      "start": 660.269,
      "duration": 3.991
    },
    {
      "text": "health care it's just a way to bring",
      "start": 662.49,
      "duration": 3.089
    },
    {
      "text": "people into the country who are going to",
      "start": 664.26,
      "duration": 3.689
    },
    {
      "text": "reliably vote or fraudulently vote for",
      "start": 665.579,
      "duration": 2.731
    },
    {
      "text": "the demo",
      "start": 667.949,
      "duration": 2.49
    },
    {
      "text": "rats or appeal to demographics who are",
      "start": 668.31,
      "duration": 3.54
    },
    {
      "text": "already voting in further cement their",
      "start": 670.439,
      "duration": 3.45
    },
    {
      "text": "vote for the Democrats right they can't",
      "start": 671.85,
      "duration": 3.419
    },
    {
      "text": "win against Donald Trump they can't win",
      "start": 673.889,
      "duration": 2.851
    },
    {
      "text": "against the record high stock market",
      "start": 675.269,
      "duration": 4.5
    },
    {
      "text": "they can't win against low unemployment",
      "start": 676.74,
      "duration": 5.82
    },
    {
      "text": "they simply can't win and they've lost",
      "start": 679.769,
      "duration": 4.351
    },
    {
      "text": "credibility because they predicted all",
      "start": 682.56,
      "duration": 3.6
    },
    {
      "text": "these disastrous and these disasters did",
      "start": 684.12,
      "duration": 5.819
    },
    {
      "text": "not come to fruition so they can't win",
      "start": 686.16,
      "duration": 5.789
    },
    {
      "text": "and and whoever they're gonna field it's",
      "start": 689.939,
      "duration": 3.63
    },
    {
      "text": "just gonna be some you know leftist",
      "start": 691.949,
      "duration": 4.921
    },
    {
      "text": "lunatic who can't add the number of toes",
      "start": 693.569,
      "duration": 4.5
    },
    {
      "text": "they have together and get to anything",
      "start": 696.87,
      "duration": 4.139
    },
    {
      "text": "close to ten so what are they gonna do",
      "start": 698.069,
      "duration": 4.351
    },
    {
      "text": "well they're gonna open the borders as",
      "start": 701.009,
      "duration": 2.82
    },
    {
      "text": "much as humanly possible they're gonna",
      "start": 702.42,
      "duration": 2.82
    },
    {
      "text": "bribe people to come into the country",
      "start": 703.829,
      "duration": 2.67
    },
    {
      "text": "there's got to be massive voter fraud",
      "start": 705.24,
      "duration": 4.409
    },
    {
      "text": "and that's the plan and that's the plan",
      "start": 706.499,
      "duration": 7.681
    },
    {
      "text": "so by 2020 America the experiment did",
      "start": 709.649,
      "duration": 6.24
    },
    {
      "text": "not even last a quarter of a millennia",
      "start": 714.18,
      "duration": 6.389
    },
    {
      "text": "will be 244 years and it will come down",
      "start": 715.889,
      "duration": 7.13
    },
    {
      "text": "to that",
      "start": 720.569,
      "duration": 2.45
    }
  ],
  "Errors": null,
  "TranscriptStderr": null
}