[
    {
        "start": "0.179",
        "dur": "6.74",
        "text": "anybody who's had to deal with any kind"
    },
    {
        "start": "2.85",
        "dur": "6.539",
        "text": "of unfolding crisis knows this that"
    },
    {
        "start": "6.919",
        "dur": "4.331",
        "text": "objectively verifiable information and"
    },
    {
        "start": "9.389",
        "dur": "3.601",
        "text": "transparency is key to containing a"
    },
    {
        "start": "11.25",
        "dur": "4.139",
        "text": "crisis of this magnitude and make no"
    },
    {
        "start": "12.99",
        "dur": "4.56",
        "text": "mistake the Jeffrey Epstein the death of"
    },
    {
        "start": "15.389",
        "dur": "5.821",
        "text": "Jeffrey Epstein this morning a mere 15"
    },
    {
        "start": "17.55",
        "dur": "6.809",
        "text": "hours ago is a massive massive crisis"
    },
    {
        "start": "21.21",
        "dur": "4.62",
        "text": "for the Constitution what is a country"
    },
    {
        "start": "24.359",
        "dur": "4.58",
        "text": "but as a civilization what as a culture"
    },
    {
        "start": "25.83",
        "dur": "7.229",
        "text": "it is the desire to restrain one's own"
    },
    {
        "start": "28.939",
        "dur": "5.8",
        "text": "predatory mammalian immoral behavior out"
    },
    {
        "start": "33.059",
        "dur": "3.301",
        "text": "of respect for the rule of law the idea"
    },
    {
        "start": "34.739",
        "dur": "3.151",
        "text": "that the law is virtuous the idea that"
    },
    {
        "start": "36.36",
        "dur": "4.05",
        "text": "the law is good and the idea that the"
    },
    {
        "start": "37.89",
        "dur": "5.07",
        "text": "law does not play favorites based upon"
    },
    {
        "start": "40.41",
        "dur": "5.85",
        "text": "the size of a man's wallet or his degree"
    },
    {
        "start": "42.96",
        "dur": "5.64",
        "text": "of political power and if the law"
    },
    {
        "start": "46.26",
        "dur": "5.04",
        "text": "crumbles in terms of people's respect"
    },
    {
        "start": "48.6",
        "dur": "4.229",
        "text": "for it then the society becomes almost"
    },
    {
        "start": "51.3",
        "dur": "2.759",
        "text": "immediately unworkable because people"
    },
    {
        "start": "52.829",
        "dur": "2.971",
        "text": "have been like hey you can do what you"
    },
    {
        "start": "54.059",
        "dur": "3",
        "text": "can get away with you know that old"
    },
    {
        "start": "55.8",
        "dur": "3.599",
        "text": "thing conscience is what you do but"
    },
    {
        "start": "57.059",
        "dur": "4.111",
        "text": "nobody's watching well if people don't"
    },
    {
        "start": "59.399",
        "dur": "3.21",
        "text": "believe in God and people don't have"
    },
    {
        "start": "61.17",
        "dur": "4.05",
        "text": "respect for the rule of law what will"
    },
    {
        "start": "62.609",
        "dur": "3.961",
        "text": "they do they will do what just about"
    },
    {
        "start": "65.22",
        "dur": "3.36",
        "text": "everyone in the third world does which"
    },
    {
        "start": "66.57",
        "dur": "3.51",
        "text": "is whatever you can get away with you"
    },
    {
        "start": "68.58",
        "dur": "2.7",
        "text": "will get away with if you have a"
    },
    {
        "start": "70.08",
        "dur": "3.27",
        "text": "reasonable chance of not getting caught"
    },
    {
        "start": "71.28",
        "dur": "4.65",
        "text": "and the benefits outweigh the risks you"
    },
    {
        "start": "73.35",
        "dur": "3.6",
        "text": "will just go and do it and you can't"
    },
    {
        "start": "75.93",
        "dur": "3.45",
        "text": "have a society you can't have a"
    },
    {
        "start": "76.95",
        "dur": "4.14",
        "text": "civilization if that's what people do it"
    },
    {
        "start": "79.38",
        "dur": "3.5",
        "text": "just ends up being dissolving into the"
    },
    {
        "start": "81.09",
        "dur": "4.77",
        "text": "usual you know chaotic corrupt"
    },
    {
        "start": "82.88",
        "dur": "4.239",
        "text": "oligarchical mess that we see throughout"
    },
    {
        "start": "85.86",
        "dur": "3.68",
        "text": "most of human history and throughout the"
    },
    {
        "start": "87.119",
        "dur": "5.07",
        "text": "world so this is a massive crisis an"
    },
    {
        "start": "89.54",
        "dur": "4.119",
        "text": "attorney general bar and other people"
    },
    {
        "start": "92.189",
        "dur": "2.941",
        "text": "should be damn well out front of this"
    },
    {
        "start": "93.659",
        "dur": "2.731",
        "text": "crisis and they should be monitoring"
    },
    {
        "start": "95.13",
        "dur": "4.41",
        "text": "what's going on on Twitter and other"
    },
    {
        "start": "96.39",
        "dur": "5.159",
        "text": "places and they should be getting the"
    },
    {
        "start": "99.54",
        "dur": "3.96",
        "text": "video footage out they should be getting"
    },
    {
        "start": "101.549",
        "dur": "3.241",
        "text": "people in front of cameras they should"
    },
    {
        "start": "103.5",
        "dur": "2.729",
        "text": "be getting the guards out there to"
    },
    {
        "start": "104.79",
        "dur": "2.579",
        "text": "explain they should be publishing the"
    },
    {
        "start": "106.229",
        "dur": "4.561",
        "text": "documents they should be getting"
    },
    {
        "start": "107.369",
        "dur": "7.381",
        "text": "everything out there right now before"
    },
    {
        "start": "110.79",
        "dur": "6.78",
        "text": "people's trust in the system they live"
    },
    {
        "start": "114.75",
        "dur": "4.56",
        "text": "under completely vanishes and the"
    },
    {
        "start": "117.57",
        "dur": "3.39",
        "text": "country although it remains"
    },
    {
        "start": "119.31",
        "dur": "4.379",
        "text": "geographically and it remains under the"
    },
    {
        "start": "120.96",
        "dur": "6.36",
        "text": "extensible rule of coercion no longer"
    },
    {
        "start": "123.689",
        "dur": "7.951",
        "text": "has respect for the rule of law this is"
    },
    {
        "start": "127.32",
        "dur": "6.45",
        "text": "a massive crisis and the fact that no"
    },
    {
        "start": "131.64",
        "dur": "3.63",
        "text": "information seems to be coming out that"
    },
    {
        "start": "133.77",
        "dur": "3.48",
        "text": "there's an investigation that's starting"
    },
    {
        "start": "135.27",
        "dur": "3.9",
        "text": "up a bla bla bla bla bla it's like they"
    },
    {
        "start": "137.25",
        "dur": "4.43",
        "text": "don't understand this is a five alarm"
    },
    {
        "start": "139.17",
        "dur": "5.01",
        "text": "fire the credibility at the nation a"
    },
    {
        "start": "141.68",
        "dur": "3.94",
        "text": "five alarm fire and the credibility of"
    },
    {
        "start": "144.18",
        "dur": "3.66",
        "text": "the nation you have got to get this"
    },
    {
        "start": "145.62",
        "dur": "4.05",
        "text": "information out in front of people as"
    },
    {
        "start": "147.84",
        "dur": "3.27",
        "text": "quickly as humanly possible right now"
    },
    {
        "start": "149.67",
        "dur": "2.85",
        "text": "out there on the internet people are"
    },
    {
        "start": "151.11",
        "dur": "3.66",
        "text": "saying oh well the ear folds of the guy"
    },
    {
        "start": "152.52",
        "dur": "5.82",
        "text": "taken out of the prison don't math match"
    },
    {
        "start": "154.77",
        "dur": "5.7",
        "text": "Jeffrey Epstein's ear folds maybe he was"
    },
    {
        "start": "158.34",
        "dur": "3.6",
        "text": "the body was switched in a hobo was put"
    },
    {
        "start": "160.47",
        "dur": "3.45",
        "text": "in his place and he's been spirited out"
    },
    {
        "start": "161.94",
        "dur": "5.43",
        "text": "like this is where people are they don't"
    },
    {
        "start": "163.92",
        "dur": "4.56",
        "text": "believe anything you're saying if you're"
    },
    {
        "start": "167.37",
        "dur": "3.39",
        "text": "in the government and of course the"
    },
    {
        "start": "168.48",
        "dur": "4.05",
        "text": "lickspittle toady prostitutes and the"
    },
    {
        "start": "170.76",
        "dur": "3.33",
        "text": "media are just lapping it all up and the"
    },
    {
        "start": "172.53",
        "dur": "5.31",
        "text": "same people who bought you close to two"
    },
    {
        "start": "174.09",
        "dur": "5.73",
        "text": "years of frantic spiderweb Russia"
    },
    {
        "start": "177.84",
        "dur": "5.4",
        "text": "Kalusha conspiracy theories are now just"
    },
    {
        "start": "179.82",
        "dur": "5.64",
        "text": "swallowing this explanation of suicide"
    },
    {
        "start": "183.24",
        "dur": "6.12",
        "text": "how do you know all you have is a body"
    },
    {
        "start": "185.46",
        "dur": "5.73",
        "text": "oh no no we know no suicide before the"
    },
    {
        "start": "189.36",
        "dur": "5.22",
        "text": "body before the autopsy before like"
    },
    {
        "start": "191.19",
        "dur": "5.43",
        "text": "suicide come on people it's not credible"
    },
    {
        "start": "194.58",
        "dur": "3.42",
        "text": "people don't believe it people don't"
    },
    {
        "start": "196.62",
        "dur": "6.87",
        "text": "believe it and why should they"
    },
    {
        "start": "198",
        "dur": "7.02",
        "text": "I mean after the FBI declined to go"
    },
    {
        "start": "203.49",
        "dur": "3.06",
        "text": "after or recommend prosecution to the"
    },
    {
        "start": "205.02",
        "dur": "3.84",
        "text": "DOJ for Hillary Clinton the email"
    },
    {
        "start": "206.55",
        "dur": "5.94",
        "text": "scandal that was a body blow to people's"
    },
    {
        "start": "208.86",
        "dur": "5.79",
        "text": "trust in the rule of law the sudden and"
    },
    {
        "start": "212.49",
        "dur": "3.87",
        "text": "highly predictable death of Jeffrey"
    },
    {
        "start": "214.65",
        "dur": "3.03",
        "text": "Epstein is a kill shot to people's"
    },
    {
        "start": "216.36",
        "dur": "2.79",
        "text": "respect for the rule of law and you lose"
    },
    {
        "start": "217.68",
        "dur": "3.87",
        "text": "the respect for the rule of law you lose"
    },
    {
        "start": "219.15",
        "dur": "6.78",
        "text": "your damn country you understand it may"
    },
    {
        "start": "221.55",
        "dur": "6.21",
        "text": "be dead culture walking but the"
    },
    {
        "start": "225.93",
        "dur": "4.95",
        "text": "destination is the same and this idea"
    },
    {
        "start": "227.76",
        "dur": "6",
        "text": "that you know there was supposed to be"
    },
    {
        "start": "230.88",
        "dur": "5.07",
        "text": "15-minute checks on this guy supposed to"
    },
    {
        "start": "233.76",
        "dur": "4.23",
        "text": "be video surveillance at all times"
    },
    {
        "start": "235.95",
        "dur": "4.83",
        "text": "oh oh the check didn't happen oh he was"
    },
    {
        "start": "237.99",
        "dur": "6.9",
        "text": "taken off suicide watch the day or the"
    },
    {
        "start": "240.78",
        "dur": "8.79",
        "text": "day before all of the documents came out"
    },
    {
        "start": "244.89",
        "dur": "9",
        "text": "naming high-level powerful people who"
    },
    {
        "start": "249.57",
        "dur": "6.9",
        "text": "know where he is oh what a shame the"
    },
    {
        "start": "253.89",
        "dur": "4.17",
        "text": "video just stopped working listen I've"
    },
    {
        "start": "256.47",
        "dur": "4.49",
        "text": "been doing thousands of my own videos"
    },
    {
        "start": "258.06",
        "dur": "6.83",
        "text": "for the last 15 years I have never once"
    },
    {
        "start": "260.96",
        "dur": "3.93",
        "text": "had a video camera fail"
    },
    {
        "start": "265.36",
        "dur": "5.47",
        "text": "so I I'm appalled"
    },
    {
        "start": "269.09",
        "dur": "3",
        "text": "I'm appalled I mean nobody wants to"
    },
    {
        "start": "270.83",
        "dur": "3.21",
        "text": "think the worst of this kind of stuff"
    },
    {
        "start": "272.09",
        "dur": "3.3",
        "text": "but in the absence of any kind of"
    },
    {
        "start": "274.04",
        "dur": "4.41",
        "text": "objective information out there"
    },
    {
        "start": "275.39",
        "dur": "4.59",
        "text": "countering what seems completely obvious"
    },
    {
        "start": "278.45",
        "dur": "3.08",
        "text": "to everyone but this guy was the first"
    },
    {
        "start": "279.98",
        "dur": "2.96",
        "text": "guy to die in forever in New York City"
    },
    {
        "start": "281.53",
        "dur": "3.52",
        "text": "jail"
    },
    {
        "start": "282.94",
        "dur": "3.61",
        "text": "the guy who was already supposed to be"
    },
    {
        "start": "285.05",
        "dur": "3.27",
        "text": "on suicide watch not supposed to have"
    },
    {
        "start": "286.55",
        "dur": "3",
        "text": "anything in his jail cell that he'd harm"
    },
    {
        "start": "288.32",
        "dur": "3.15",
        "text": "himself with this guy supposed to be"
    },
    {
        "start": "289.55",
        "dur": "3.9",
        "text": "checked on every 15 minutes this guy"
    },
    {
        "start": "291.47",
        "dur": "4.65",
        "text": "who's supposed to have a video feat and"
    },
    {
        "start": "293.45",
        "dur": "4.65",
        "text": "surveillance at all times every single"
    },
    {
        "start": "296.12",
        "dur": "10.07",
        "text": "system breaks down at the same time and"
    },
    {
        "start": "298.1",
        "dur": "11.73",
        "text": "he's carted out dead the lack of"
    },
    {
        "start": "306.19",
        "dur": "6.48",
        "text": "communication about all of this the lack"
    },
    {
        "start": "309.83",
        "dur": "7.2",
        "text": "of provision of essential information"
    },
    {
        "start": "312.67",
        "dur": "10.26",
        "text": "that counters what people strongly"
    },
    {
        "start": "317.03",
        "dur": "8.04",
        "text": "suspect well for many people of course"
    },
    {
        "start": "322.93",
        "dur": "4.32",
        "text": "it's gonna be all the confirmation they"
    },
    {
        "start": "325.07",
        "dur": "2.18",
        "text": "need"
    }
]