{
  "Title": "Rio 2: Not Safe For Kids!",
  "Id": "2L3QzdUo2a0",
  "Transcript": [
    {
      "text": "hi everybody stefan molyneux from",
      "start": 0,
      "duration": 2.52
    },
    {
      "text": "freedomain radio hope you're doing well",
      "start": 1.5,
      "duration": 3.27
    },
    {
      "text": "this is the philosophical movement",
      "start": 2.52,
      "duration": 4.89
    },
    {
      "text": "review for the movie rio 2 in the first",
      "start": 4.77,
      "duration": 4.11
    },
    {
      "text": "time in the history of this show and",
      "start": 7.41,
      "duration": 4.14
    },
    {
      "text": "after seven or eight years of movie",
      "start": 8.88,
      "duration": 4.919
    },
    {
      "text": "reviews i am finally giving a movie a",
      "start": 11.55,
      "duration": 4.979
    },
    {
      "text": "minus 6 6 6 rating in other words it is",
      "start": 13.799,
      "duration": 5.82
    },
    {
      "text": "radioactive to heart mind and soul alike",
      "start": 16.529,
      "duration": 5.16
    },
    {
      "text": "and should be avoided at all costs",
      "start": 19.619,
      "duration": 4.41
    },
    {
      "text": "please do not give these people any any",
      "start": 21.689,
      "duration": 6.301
    },
    {
      "text": "money for the absolutely rampant anti",
      "start": 24.029,
      "duration": 8.37
    },
    {
      "text": "male anti rational bias in the movie for",
      "start": 27.99,
      "duration": 6.839
    },
    {
      "text": "those who don't notice this in other",
      "start": 32.399,
      "duration": 5.371
    },
    {
      "text": "words if you are either not a man or if",
      "start": 34.829,
      "duration": 4.531
    },
    {
      "text": "you have no self esteem because of",
      "start": 37.77,
      "duration": 3.719
    },
    {
      "text": "movies like this the really important",
      "start": 39.36,
      "duration": 4.59
    },
    {
      "text": "thing to understand about movies from a",
      "start": 41.489,
      "duration": 5.811
    },
    {
      "text": "male perspective is to recast the movie",
      "start": 43.95,
      "duration": 6.75
    },
    {
      "text": "with women as whites and men as blacks",
      "start": 47.3,
      "duration": 4.84
    },
    {
      "text": "and then you'll sort of have a chance to",
      "start": 50.7,
      "duration": 3.66
    },
    {
      "text": "understand just how unbelievably",
      "start": 52.14,
      "duration": 5.79
    },
    {
      "text": "offensive this movie is to any man where",
      "start": 54.36,
      "duration": 5.249
    },
    {
      "text": "the set of castanets clacking back and",
      "start": 57.93,
      "duration": 4.859
    },
    {
      "text": "forth if you had a movie where all the",
      "start": 59.609,
      "duration": 5.7
    },
    {
      "text": "whites were heroic and Noble and smart",
      "start": 62.789,
      "duration": 4.741
    },
    {
      "text": "and wise and funny and caring and",
      "start": 65.309,
      "duration": 4.891
    },
    {
      "text": "unselfish and so on and all the blacks",
      "start": 67.53,
      "duration": 7.05
    },
    {
      "text": "were violent and stupid and abusive and",
      "start": 70.2,
      "duration": 6.09
    },
    {
      "text": "all of that then you would understand",
      "start": 74.58,
      "duration": 3.75
    },
    {
      "text": "the incredible racism that would be",
      "start": 76.29,
      "duration": 4.77
    },
    {
      "text": "involved in such a movie the rampant",
      "start": 78.33,
      "duration": 5.19
    },
    {
      "text": "rampant sexism against men in this movie",
      "start": 81.06,
      "duration": 5.669
    },
    {
      "text": "is truly breathtaking it is like it",
      "start": 83.52,
      "duration": 5.79
    },
    {
      "text": "outdoes the CGI which is obviously",
      "start": 86.729,
      "duration": 5.191
    },
    {
      "text": "spectacular and fantastic to watch by",
      "start": 89.31,
      "duration": 4.44
    },
    {
      "text": "you know in almost infinite factors this",
      "start": 91.92,
      "duration": 3.839
    },
    {
      "text": "is the first movie I took my daughter to",
      "start": 93.75,
      "duration": 5.52
    },
    {
      "text": "I actually had to deprogram her all of",
      "start": 95.759,
      "duration": 5.61
    },
    {
      "text": "all the drive home oh I had to deprogram",
      "start": 99.27,
      "duration": 3.33
    },
    {
      "text": "her from the movie and help her",
      "start": 101.369,
      "duration": 3.75
    },
    {
      "text": "understand just how horrible it was",
      "start": 102.6,
      "duration": 5.159
    },
    {
      "text": "towards men and that's not something I",
      "start": 105.119,
      "duration": 5.481
    },
    {
      "text": "really want to want to pay to do so",
      "start": 107.759,
      "duration": 4.89
    },
    {
      "text": "let's and there's going to be some",
      "start": 110.6,
      "duration": 4.15
    },
    {
      "text": "spoilers in this although since I hope",
      "start": 112.649,
      "duration": 3.9
    },
    {
      "text": "you'll never see the movie or at least",
      "start": 114.75,
      "duration": 4.049
    },
    {
      "text": "won't pay to see it then hopefully won't",
      "start": 116.549,
      "duration": 3.691
    },
    {
      "text": "matter much but I just wanted to mention",
      "start": 118.799,
      "duration": 4.051
    },
    {
      "text": "that ahead of time so the movie opens",
      "start": 120.24,
      "duration": 6.03
    },
    {
      "text": "and Blu and jewel who these blue birds",
      "start": 122.85,
      "duration": 6.389
    },
    {
      "text": "they have had three children there are",
      "start": 126.27,
      "duration": 4.68
    },
    {
      "text": "two girls and a boy",
      "start": 129.239,
      "duration": 4.651
    },
    {
      "text": "now let's see girls and a boy who is",
      "start": 130.95,
      "duration": 5.19
    },
    {
      "text": "going to be the most sociopathic is it",
      "start": 133.89,
      "duration": 3.6
    },
    {
      "text": "going to be the girls know one of them",
      "start": 136.14,
      "duration": 3.27
    },
    {
      "text": "loves music the other one really loves",
      "start": 137.49,
      "duration": 4.82
    },
    {
      "text": "to learn and to read and the boy is",
      "start": 139.41,
      "duration": 5.46
    },
    {
      "text": "mischievous or what that means is that",
      "start": 142.31,
      "duration": 5.02
    },
    {
      "text": "he's a complete sociopath so it starts",
      "start": 144.87,
      "duration": 5.4
    },
    {
      "text": "at a party and the parents are asking",
      "start": 147.33,
      "duration": 5.4
    },
    {
      "text": "their two male bird friends where the",
      "start": 150.27,
      "duration": 4.71
    },
    {
      "text": "children are they left their children in",
      "start": 152.73,
      "duration": 5.94
    },
    {
      "text": "the care of these two men and they don't",
      "start": 154.98,
      "duration": 4.979
    },
    {
      "text": "even know where they are they said oh we",
      "start": 158.67,
      "duration": 2.64
    },
    {
      "text": "left them with this dog who's also a",
      "start": 159.959,
      "duration": 3.091
    },
    {
      "text": "male and the dog doesn't know where they",
      "start": 161.31,
      "duration": 4.2
    },
    {
      "text": "are so right away we have men in the",
      "start": 163.05,
      "duration": 3.84
    },
    {
      "text": "care of children or men who are",
      "start": 165.51,
      "duration": 3.54
    },
    {
      "text": "caretakers for children completely and",
      "start": 166.89,
      "duration": 4.38
    },
    {
      "text": "totally irresponsible don't even know",
      "start": 169.05,
      "duration": 5.07
    },
    {
      "text": "where the children are welcome to the",
      "start": 171.27,
      "duration": 5.31
    },
    {
      "text": "world of men as portrayed through the",
      "start": 174.12,
      "duration": 4.32
    },
    {
      "text": "absolutely horrendous eyes of this",
      "start": 176.58,
      "duration": 4.86
    },
    {
      "text": "director and his team of four writers so",
      "start": 178.44,
      "duration": 4.89
    },
    {
      "text": "then we find the children then what's",
      "start": 181.44,
      "duration": 4.5
    },
    {
      "text": "happened while a little baby girl bird",
      "start": 183.33,
      "duration": 5.04
    },
    {
      "text": "has been put in charge of them and the",
      "start": 185.94,
      "duration": 5.25
    },
    {
      "text": "little boy has tied her to a firework",
      "start": 188.37,
      "duration": 4.589
    },
    {
      "text": "and is about to set the fireworks off",
      "start": 191.19,
      "duration": 6.39
    },
    {
      "text": "and that's a completely evil like I said",
      "start": 192.959,
      "duration": 6.051
    },
    {
      "text": "as I had to say to my daughter I said",
      "start": 197.58,
      "duration": 5.4
    },
    {
      "text": "imagine if I tied a frog she loves frogs",
      "start": 199.01,
      "duration": 6.1
    },
    {
      "text": "imagine if I had tied a frog to a",
      "start": 202.98,
      "duration": 4.2
    },
    {
      "text": "firework what would you do she's like",
      "start": 205.11,
      "duration": 3.33
    },
    {
      "text": "well I'd knock you over and stop you",
      "start": 207.18,
      "duration": 2.73
    },
    {
      "text": "from lighting it and I'm like yes you",
      "start": 208.44,
      "duration": 3.84
    },
    {
      "text": "should not that I ever would but that is",
      "start": 209.91,
      "duration": 6.54
    },
    {
      "text": "a horrendous thing to do and this is a",
      "start": 212.28,
      "duration": 6.09
    },
    {
      "text": "mark of a sociopath is cruelty to",
      "start": 216.45,
      "duration": 4.68
    },
    {
      "text": "animals and he has tied a baby bird",
      "start": 218.37,
      "duration": 6.33
    },
    {
      "text": "girly to a firework and it's about to",
      "start": 221.13,
      "duration": 6.15
    },
    {
      "text": "light it which will kill her so the",
      "start": 224.7,
      "duration": 4.71
    },
    {
      "text": "child is about to engage in murder the",
      "start": 227.28,
      "duration": 4.92
    },
    {
      "text": "boy child and this is never commented as",
      "start": 229.41,
      "duration": 5.01
    },
    {
      "text": "problematic or negative or bad in any",
      "start": 232.2,
      "duration": 4.259
    },
    {
      "text": "way shape or form the parents come along",
      "start": 234.42,
      "duration": 4.05
    },
    {
      "text": "and it's like oh well I don't think",
      "start": 236.459,
      "duration": 4.081
    },
    {
      "text": "we'll be doing that now we'll be you",
      "start": 238.47,
      "duration": 3.329
    },
    {
      "text": "know when you should be rushing them to",
      "start": 240.54,
      "duration": 2.85
    },
    {
      "text": "a team of forensic psychiatrists and",
      "start": 241.799,
      "duration": 2.761
    },
    {
      "text": "trying to figure out what on earth is",
      "start": 243.39,
      "duration": 4.23
    },
    {
      "text": "wrong with the kid right and then the",
      "start": 244.56,
      "duration": 7.049
    },
    {
      "text": "boy the father whose name is blue he",
      "start": 247.62,
      "duration": 5.19
    },
    {
      "text": "gets tangled up in the rocket goes",
      "start": 251.609,
      "duration": 2.85
    },
    {
      "text": "shooting up into the sky and gets really",
      "start": 252.81,
      "duration": 5.429
    },
    {
      "text": "badly burned and everyone's like who are",
      "start": 254.459,
      "duration": 7.02
    },
    {
      "text": "the fireworks right and and that nobody",
      "start": 258.239,
      "duration": 5.881
    },
    {
      "text": "mentions or notices that the the dad has",
      "start": 261.479,
      "duration": 4.771
    },
    {
      "text": "been badly burned because the child has",
      "start": 264.12,
      "duration": 3.549
    },
    {
      "text": "been lighting our fireworks",
      "start": 266.25,
      "duration": 4.539
    },
    {
      "text": "and the father is so incompetent he's",
      "start": 267.669,
      "duration": 4.74
    },
    {
      "text": "holding a match and you know the match",
      "start": 270.789,
      "duration": 3
    },
    {
      "text": "goes and he doesn't even notice that",
      "start": 272.409,
      "duration": 2.97
    },
    {
      "text": "he's holding a match and that the match",
      "start": 273.789,
      "duration": 4.38
    },
    {
      "text": "burns dead in saying that the the mother",
      "start": 275.379,
      "duration": 5.431
    },
    {
      "text": "whose name is jewel never notices and",
      "start": 278.169,
      "duration": 3.93
    },
    {
      "text": "this is a continual theme throughout the",
      "start": 280.81,
      "duration": 3.87
    },
    {
      "text": "movie she has no idea how abused her",
      "start": 282.099,
      "duration": 4.951
    },
    {
      "text": "husband is by by her father by all the",
      "start": 284.68,
      "duration": 4.859
    },
    {
      "text": "other birds and by his own children she",
      "start": 287.05,
      "duration": 4.019
    },
    {
      "text": "never mentions his or says you know",
      "start": 289.539,
      "duration": 2.641
    },
    {
      "text": "people should treat you better she has",
      "start": 291.069,
      "duration": 2.34
    },
    {
      "text": "no respect for him with nothing but",
      "start": 292.18,
      "duration": 4.35
    },
    {
      "text": "contempt for him and this is how the",
      "start": 293.409,
      "duration": 5.431
    },
    {
      "text": "movie starts that the the manner is",
      "start": 296.53,
      "duration": 3.629
    },
    {
      "text": "completely irresponsible don't even know",
      "start": 298.84,
      "duration": 2.879
    },
    {
      "text": "where the kids are and the boy is a",
      "start": 300.159,
      "duration": 3.06
    },
    {
      "text": "complete sociopath who's about to murder",
      "start": 301.719,
      "duration": 6.211
    },
    {
      "text": "another bird and this is this is pretty",
      "start": 303.219,
      "duration": 9.961
    },
    {
      "text": "pretty tragic so you don't need to know",
      "start": 307.93,
      "duration": 6.75
    },
    {
      "text": "the whole story that's pretty much paint",
      "start": 313.18,
      "duration": 3.69
    },
    {
      "text": "by numbers you know pro-government and",
      "start": 314.68,
      "duration": 5.579
    },
    {
      "text": "you know standard-issue beret green",
      "start": 316.87,
      "duration": 5.13
    },
    {
      "text": "green beret environmentalism which we'll",
      "start": 320.259,
      "duration": 4.71
    },
    {
      "text": "get to at the end but they see these",
      "start": 322,
      "duration": 5.639
    },
    {
      "text": "birds right so that there's a man named",
      "start": 324.969,
      "duration": 5.7
    },
    {
      "text": "Tulio and his wife I think it's wife by",
      "start": 327.639,
      "duration": 6.541
    },
    {
      "text": "this point whose name is Linda Linda and",
      "start": 330.669,
      "duration": 6.391
    },
    {
      "text": "they're going down the Amazon they're",
      "start": 334.18,
      "duration": 4.409
    },
    {
      "text": "going to release a bird into the wild",
      "start": 337.06,
      "duration": 3.99
    },
    {
      "text": "now Tulio is a scientist and an",
      "start": 338.589,
      "duration": 5.431
    },
    {
      "text": "experienced orphan ologist and Linda ran",
      "start": 341.05,
      "duration": 5.07
    },
    {
      "text": "a bookstore now who's the expert in",
      "start": 344.02,
      "duration": 4.29
    },
    {
      "text": "jungle navigation and rowing well of",
      "start": 346.12,
      "duration": 4.37
    },
    {
      "text": "course it's the woman how could the man",
      "start": 348.31,
      "duration": 5.219
    },
    {
      "text": "possibly be an expert at anything men",
      "start": 350.49,
      "duration": 5.649
    },
    {
      "text": "are basically there to have to step on",
      "start": 353.529,
      "duration": 4.471
    },
    {
      "text": "rakes to have the rakes go up into their",
      "start": 356.139,
      "duration": 3.99
    },
    {
      "text": "face about 400 times in a row while the",
      "start": 358,
      "duration": 4.259
    },
    {
      "text": "women roll their eyes and ignore the",
      "start": 360.129,
      "duration": 4.741
    },
    {
      "text": "harm that the men are experiencing that",
      "start": 362.259,
      "duration": 3.96
    },
    {
      "text": "is the whole purpose of men they're",
      "start": 364.87,
      "duration": 4.259
    },
    {
      "text": "complete idiots and and the funny thing",
      "start": 366.219,
      "duration": 3.991
    },
    {
      "text": "is that the woman doesn't feel like",
      "start": 369.129,
      "duration": 2.371
    },
    {
      "text": "she's been given any credit when of",
      "start": 370.21,
      "duration": 3.69
    },
    {
      "text": "course it is through the writers the man",
      "start": 371.5,
      "duration": 5.49
    },
    {
      "text": "is not allowed to be given any credit",
      "start": 373.9,
      "duration": 4.799
    },
    {
      "text": "whatsoever and so he's an author",
      "start": 376.99,
      "duration": 5.16
    },
    {
      "text": "knowledge estándares bird free and he's",
      "start": 378.699,
      "duration": 4.951
    },
    {
      "text": "making these weird squawking sounds",
      "start": 382.15,
      "duration": 3.509
    },
    {
      "text": "supposedly to talk to the bird but it",
      "start": 383.65,
      "duration": 4.71
    },
    {
      "text": "scares the bird right so this is a bird",
      "start": 385.659,
      "duration": 6.63
    },
    {
      "text": "expert who doesn't even know when he's",
      "start": 388.36,
      "duration": 5.51
    },
    {
      "text": "scaring a bird with strange to you know",
      "start": 392.289,
      "duration": 3.961
    },
    {
      "text": "extranged walking noises like how",
      "start": 393.87,
      "duration": 5.169
    },
    {
      "text": "incompetent can you be how I mean how",
      "start": 396.25,
      "duration": 5.23
    },
    {
      "text": "it's like this guy is the",
      "start": 399.039,
      "duration": 5.261
    },
    {
      "text": "expert dentist and he has no idea when",
      "start": 401.48,
      "duration": 4.44
    },
    {
      "text": "he drills that it hurts his patients I",
      "start": 404.3,
      "duration": 4.44
    },
    {
      "text": "mean that you can't give even their even",
      "start": 405.92,
      "duration": 5.85
    },
    {
      "text": "the man who's a an expert in birds can't",
      "start": 408.74,
      "duration": 4.8
    },
    {
      "text": "even be given the basic understanding of",
      "start": 411.77,
      "duration": 3.21
    },
    {
      "text": "knowing what frightens birds and what",
      "start": 413.54,
      "duration": 3.96
    },
    {
      "text": "doesn't and he's so dumb that it's the",
      "start": 414.98,
      "duration": 3.93
    },
    {
      "text": "bird who notices that they're about to",
      "start": 417.5,
      "duration": 3.03
    },
    {
      "text": "go over a waterfall and the man",
      "start": 418.91,
      "duration": 3.03
    },
    {
      "text": "completely ignores it right",
      "start": 420.53,
      "duration": 2.88
    },
    {
      "text": "the bird is squawking and warning him",
      "start": 421.94,
      "duration": 3.15
    },
    {
      "text": "and he's like oh he's just excited or",
      "start": 423.41,
      "duration": 3.36
    },
    {
      "text": "he's gonna miss us he doesn't even",
      "start": 425.09,
      "duration": 4.74
    },
    {
      "text": "understand what a warning behavior on",
      "start": 426.77,
      "duration": 5.73
    },
    {
      "text": "the part of a bird is he's that stupid",
      "start": 429.83,
      "duration": 4.71
    },
    {
      "text": "and this is the most educated most",
      "start": 432.5,
      "duration": 4.59
    },
    {
      "text": "expert film man in the entire film and",
      "start": 434.54,
      "duration": 4.56
    },
    {
      "text": "he's completely retarded he's out",
      "start": 437.09,
      "duration": 4.89
    },
    {
      "text": "thought by a bird he has less than a",
      "start": 439.1,
      "duration": 5.31
    },
    {
      "text": "bird brain and this is the most elevated",
      "start": 441.98,
      "duration": 5.1
    },
    {
      "text": "man in the whole movie it is absolutely",
      "start": 444.41,
      "duration": 7.41
    },
    {
      "text": "shocking so they find these these lost",
      "start": 447.08,
      "duration": 6.72
    },
    {
      "text": "flock of of these I think they're blue",
      "start": 451.82,
      "duration": 5.25
    },
    {
      "text": "macaws and this is shown on TV now Jule",
      "start": 453.8,
      "duration": 6.18
    },
    {
      "text": "the Blues wife that these are the two",
      "start": 457.07,
      "duration": 5.82
    },
    {
      "text": "birds again play the movie but jewel",
      "start": 459.98,
      "duration": 7.17
    },
    {
      "text": "sees all these birds and she's like",
      "start": 462.89,
      "duration": 6.24
    },
    {
      "text": "we've got to go there we're not alone",
      "start": 467.15,
      "duration": 3.72
    },
    {
      "text": "we've got to go there well this is",
      "start": 469.13,
      "duration": 3.6
    },
    {
      "text": "hypergamy 101 right which is the desire",
      "start": 470.87,
      "duration": 3.93
    },
    {
      "text": "for women to marry up nothing wrong with",
      "start": 472.73,
      "duration": 3.48
    },
    {
      "text": "it it's one of the things that drives us",
      "start": 474.8,
      "duration": 3.06
    },
    {
      "text": "out of the caves and into skyscrapers",
      "start": 476.21,
      "duration": 3.96
    },
    {
      "text": "that's fine but she's like oh my god if",
      "start": 477.86,
      "duration": 3.54
    },
    {
      "text": "there are other men there I don't have",
      "start": 480.17,
      "duration": 2.88
    },
    {
      "text": "to put up with you you bumbling idiot I",
      "start": 481.4,
      "duration": 3.48
    },
    {
      "text": "need to go around other men and see if I",
      "start": 483.05,
      "duration": 3.21
    },
    {
      "text": "can trade up and this is partly what",
      "start": 484.88,
      "duration": 5.49
    },
    {
      "text": "starts to happen during the movie and so",
      "start": 486.26,
      "duration": 5.55
    },
    {
      "text": "they make a deal right the kids don't",
      "start": 490.37,
      "duration": 3.93
    },
    {
      "text": "really want to go but the mom really",
      "start": 491.81,
      "duration": 4.05
    },
    {
      "text": "wants to go and then she convinces the",
      "start": 494.3,
      "duration": 3.45
    },
    {
      "text": "kids to go and she convinces her husband",
      "start": 495.86,
      "duration": 3.51
    },
    {
      "text": "to go which is important when she later",
      "start": 497.75,
      "duration": 4.92
    },
    {
      "text": "accused him of being selfish and he says",
      "start": 499.37,
      "duration": 5.85
    },
    {
      "text": "okay we can go we'll just go and then",
      "start": 502.67,
      "duration": 3.75
    },
    {
      "text": "we're gonna come back right and she's",
      "start": 505.22,
      "duration": 2.37
    },
    {
      "text": "like yeah we're gonna come back so",
      "start": 506.42,
      "duration": 3.51
    },
    {
      "text": "that's their deal right now this guy",
      "start": 507.59,
      "duration": 4.829
    },
    {
      "text": "that the male bird blew he flies",
      "start": 509.93,
      "duration": 4.56
    },
    {
      "text": "thousands of miles now the joke is he's",
      "start": 512.419,
      "duration": 4.141
    },
    {
      "text": "got a GPS he's got a fanny pack he's got",
      "start": 514.49,
      "duration": 3.84
    },
    {
      "text": "a Swiss Army knife he's prepared right",
      "start": 516.56,
      "duration": 5.25
    },
    {
      "text": "to go into the jungle and this is made",
      "start": 518.33,
      "duration": 6.57
    },
    {
      "text": "fun of the whole time now just again to",
      "start": 521.81,
      "duration": 5.13
    },
    {
      "text": "give you an example right so blue is a",
      "start": 524.9,
      "duration": 3.81
    },
    {
      "text": "very intelligent bird right he uses",
      "start": 526.94,
      "duration": 4.17
    },
    {
      "text": "tools and and he knows language and he's",
      "start": 528.71,
      "duration": 4.83
    },
    {
      "text": "very intelligent bird and he relies upon",
      "start": 531.11,
      "duration": 4.24
    },
    {
      "text": "technology which is",
      "start": 533.54,
      "duration": 5.349
    },
    {
      "text": "an intelligent thing to do right now the",
      "start": 535.35,
      "duration": 6.299
    },
    {
      "text": "GPS is constantly getting things wrong",
      "start": 538.889,
      "duration": 5.401
    },
    {
      "text": "but somehow magically his wife knows",
      "start": 541.649,
      "duration": 3.99
    },
    {
      "text": "where to go on this thousand mile",
      "start": 544.29,
      "duration": 3.9
    },
    {
      "text": "journey and again this is just the",
      "start": 545.639,
      "duration": 5.911
    },
    {
      "text": "repetitive continual absolutely sadistic",
      "start": 548.19,
      "duration": 5.009
    },
    {
      "text": "humiliation of the main character who is",
      "start": 551.55,
      "duration": 3.479
    },
    {
      "text": "a male he's always an idiot",
      "start": 553.199,
      "duration": 3.601
    },
    {
      "text": "he's always wrong he's always mistaken",
      "start": 555.029,
      "duration": 4.441
    },
    {
      "text": "at one point he's bathing himself and he",
      "start": 556.8,
      "duration": 4.769
    },
    {
      "text": "finds out oh it's drinking he's drinking",
      "start": 559.47,
      "duration": 3.27
    },
    {
      "text": "and brushing his teeth and he finds out",
      "start": 561.569,
      "duration": 2.7
    },
    {
      "text": "basically that the other birds are",
      "start": 562.74,
      "duration": 4.14
    },
    {
      "text": "peeing and washing themselves in the so",
      "start": 564.269,
      "duration": 4.171
    },
    {
      "text": "he's basically eating people think this",
      "start": 566.88,
      "duration": 3.509
    },
    {
      "text": "is just continuous is continual",
      "start": 568.44,
      "duration": 5.55
    },
    {
      "text": "humiliation of the male and that's just",
      "start": 570.389,
      "duration": 6.87
    },
    {
      "text": "a horrendous and don't you get godlike",
      "start": 573.99,
      "duration": 5.25
    },
    {
      "text": "at some point these male actors have got",
      "start": 577.259,
      "duration": 4.741
    },
    {
      "text": "to man up and say no I am NOT doing",
      "start": 579.24,
      "duration": 4.95
    },
    {
      "text": "these characters anymore I'm",
      "start": 582,
      "duration": 4.98
    },
    {
      "text": "not doing this Gary unmarried idiot man",
      "start": 584.19,
      "duration": 4.019
    },
    {
      "text": "stuff anymore",
      "start": 586.98,
      "duration": 2.82
    },
    {
      "text": "you know like blacks have done it",
      "start": 588.209,
      "duration": 2.43
    },
    {
      "text": "they're like no I don't want to play",
      "start": 589.8,
      "duration": 3.269
    },
    {
      "text": "another thug I don't want to play at one",
      "start": 590.639,
      "duration": 4.021
    },
    {
      "text": "of these these idiot I don't want to be",
      "start": 593.069,
      "duration": 5.491
    },
    {
      "text": "Al Jolson in like face paint and mammy I",
      "start": 594.66,
      "duration": 5.489
    },
    {
      "text": "don't want to do that racist stuff",
      "start": 598.56,
      "duration": 3.719
    },
    {
      "text": "anymore it's like come on men Jesse",
      "start": 600.149,
      "duration": 3.901
    },
    {
      "text": "Eisenberg Jesus Christ grow a pair man",
      "start": 602.279,
      "duration": 3.961
    },
    {
      "text": "you you're worth millions of dollars can",
      "start": 604.05,
      "duration": 3.96
    },
    {
      "text": "you not say no I'm not doing this movie",
      "start": 606.24,
      "duration": 5.37
    },
    {
      "text": "I'm not going to be portraying two",
      "start": 608.01,
      "duration": 6.059
    },
    {
      "text": "children two boys and two girls",
      "start": 611.61,
      "duration": 4.62
    },
    {
      "text": "the continual humiliation of a male",
      "start": 614.069,
      "duration": 5.07
    },
    {
      "text": "character I do not want boys to see this",
      "start": 616.23,
      "duration": 4.469
    },
    {
      "text": "I don't want to see the rampant anti",
      "start": 619.139,
      "duration": 4.231
    },
    {
      "text": "intellectualism of the film like at one",
      "start": 620.699,
      "duration": 5.88
    },
    {
      "text": "point the blue accidentally starts a",
      "start": 623.37,
      "duration": 5.82
    },
    {
      "text": "gang warfare who look more men who are",
      "start": 626.579,
      "duration": 4.74
    },
    {
      "text": "being gang warfare right there's these",
      "start": 629.19,
      "duration": 4.379
    },
    {
      "text": "red birds and he accidentally goes into",
      "start": 631.319,
      "duration": 3.931
    },
    {
      "text": "their territory to get a Brazil nut and",
      "start": 633.569,
      "duration": 4.62
    },
    {
      "text": "then there's a gang war that starts up",
      "start": 635.25,
      "duration": 4.529
    },
    {
      "text": "and and you know that this you've got",
      "start": 638.189,
      "duration": 3.661
    },
    {
      "text": "the blue birds versus the red birds you",
      "start": 639.779,
      "duration": 3.721
    },
    {
      "text": "know the Bloods and the Crips and blah",
      "start": 641.85,
      "duration": 4.229
    },
    {
      "text": "blah so these birds are complete",
      "start": 643.5,
      "duration": 5.339
    },
    {
      "text": "sociopaths they're just monstrous",
      "start": 646.079,
      "duration": 6.781
    },
    {
      "text": "criminal paramilitary gang warfare",
      "start": 648.839,
      "duration": 7.62
    },
    {
      "text": "related and this is like a continual",
      "start": 652.86,
      "duration": 5.39
    },
    {
      "text": "throughout the movie I mean he's he's uh",
      "start": 656.459,
      "duration": 4.11
    },
    {
      "text": "he's put into a game which he's",
      "start": 658.25,
      "duration": 3.79
    },
    {
      "text": "completely incompetent in which is",
      "start": 660.569,
      "duration": 4.191
    },
    {
      "text": "further humiliation and the whole time",
      "start": 662.04,
      "duration": 5.33
    },
    {
      "text": "that he is being humiliated this this",
      "start": 664.76,
      "duration": 5.34
    },
    {
      "text": "man character this male bird his wife",
      "start": 667.37,
      "duration": 4.77
    },
    {
      "text": "doesn't notice a thing because she's too",
      "start": 670.1,
      "duration": 3.63
    },
    {
      "text": "busy flirting with another man right",
      "start": 672.14,
      "duration": 3.06
    },
    {
      "text": "this is the hypergamy right she wanted",
      "start": 673.73,
      "duration": 3.57
    },
    {
      "text": "to go and find any other bird than this",
      "start": 675.2,
      "duration": 3.75
    },
    {
      "text": "guy who was the only burden that the",
      "start": 677.3,
      "duration": 2.97
    },
    {
      "text": "specie she could mate with which is why",
      "start": 678.95,
      "duration": 3.21
    },
    {
      "text": "she had the kids with him and so on and",
      "start": 680.27,
      "duration": 3.66
    },
    {
      "text": "it's just horrendous so at some point",
      "start": 682.16,
      "duration": 4.92
    },
    {
      "text": "you men you got to read these scripts",
      "start": 683.93,
      "duration": 6.33
    },
    {
      "text": "and say you I am NOT gonna lend my",
      "start": 687.08,
      "duration": 7.5
    },
    {
      "text": "talent and intelligence and my charisma",
      "start": 690.26,
      "duration": 7.77
    },
    {
      "text": "to the continual portrayal of men as",
      "start": 694.58,
      "duration": 7.91
    },
    {
      "text": "complete retards and violent incompetent",
      "start": 698.03,
      "duration": 7.11
    },
    {
      "text": "party brain scatterbrained like there's",
      "start": 702.49,
      "duration": 5.2
    },
    {
      "text": "a George Lopez voices this this - can",
      "start": 705.14,
      "duration": 6.72
    },
    {
      "text": "and the - can has a wife who's a",
      "start": 707.69,
      "duration": 5.46
    },
    {
      "text": "complete bully right and she's a",
      "start": 711.86,
      "duration": 2.94
    },
    {
      "text": "terrible singer and he's like he's glad",
      "start": 713.15,
      "duration": 3.72
    },
    {
      "text": "I'm gonna get you a pimp like you better",
      "start": 714.8,
      "duration": 3.6
    },
    {
      "text": "right and he's scared of her and in the",
      "start": 716.87,
      "duration": 2.73
    },
    {
      "text": "first movie he's always trying to get",
      "start": 718.4,
      "duration": 3.06
    },
    {
      "text": "away from her and he's henpecked right I",
      "start": 719.6,
      "duration": 3.71
    },
    {
      "text": "gets to camp act or whatever right and",
      "start": 721.46,
      "duration": 5.13
    },
    {
      "text": "this is the kind of nonsense that is",
      "start": 723.31,
      "duration": 5.74
    },
    {
      "text": "going on the men are a weak incompetent",
      "start": 726.59,
      "duration": 5.73
    },
    {
      "text": "and and stop taking money to program",
      "start": 729.05,
      "duration": 6.06
    },
    {
      "text": "little boys and little girls that men",
      "start": 732.32,
      "duration": 4.68
    },
    {
      "text": "are foolish ridiculous and incompetent",
      "start": 735.11,
      "duration": 6.93
    },
    {
      "text": "it is in God it's stop it stop it for my",
      "start": 737,
      "duration": 6.21
    },
    {
      "text": "daughter's sake I don't want it to be",
      "start": 742.04,
      "duration": 2.94
    },
    {
      "text": "programmed with this and then",
      "start": 743.21,
      "duration": 3.45
    },
    {
      "text": "have no respect for man I'm one of the",
      "start": 744.98,
      "duration": 3.12
    },
    {
      "text": "men I wanted to have respect for I don't",
      "start": 746.66,
      "duration": 2.67
    },
    {
      "text": "want to have no respect for the other",
      "start": 748.1,
      "duration": 3.87
    },
    {
      "text": "boys around so stop doing it it is",
      "start": 749.33,
      "duration": 4.92
    },
    {
      "text": "destructive to the world as a whole",
      "start": 751.97,
      "duration": 5.43
    },
    {
      "text": "now there's one that gets there two",
      "start": 754.25,
      "duration": 6.8
    },
    {
      "text": "characters and female characters who are",
      "start": 757.4,
      "duration": 7.95
    },
    {
      "text": "less than saintly right one is this",
      "start": 761.05,
      "duration": 7.03
    },
    {
      "text": "poison frog who's voiced by this",
      "start": 765.35,
      "duration": 4.95
    },
    {
      "text": "pipsqueak from Glee who's spectacularly",
      "start": 768.08,
      "duration": 5.04
    },
    {
      "text": "great in the in the role the singing is",
      "start": 770.3,
      "duration": 4.89
    },
    {
      "text": "just stunning and she's just really",
      "start": 773.12,
      "duration": 4.83
    },
    {
      "text": "great and she's in love with a mean bird",
      "start": 775.19,
      "duration": 4.11
    },
    {
      "text": "who's seeking vengeance for what",
      "start": 777.95,
      "duration": 3.03
    },
    {
      "text": "happened in the first film and she loved",
      "start": 779.3,
      "duration": 3.06
    },
    {
      "text": "but she loves him she gets this amazing",
      "start": 780.98,
      "duration": 3.57
    },
    {
      "text": "song and she's just you know so she",
      "start": 782.36,
      "duration": 5.64
    },
    {
      "text": "likes the mean bird and it turns out at",
      "start": 784.55,
      "duration": 6.75
    },
    {
      "text": "the end doesn't matter why she's given",
      "start": 788,
      "duration": 5.22
    },
    {
      "text": "an excuse like there's a reason why",
      "start": 791.3,
      "duration": 4.26
    },
    {
      "text": "right none of the evil guys have an",
      "start": 793.22,
      "duration": 4.17
    },
    {
      "text": "excuse right there that nobody ever says",
      "start": 795.56,
      "duration": 2.95
    },
    {
      "text": "well you were beaten by him up",
      "start": 797.39,
      "duration": 3.07
    },
    {
      "text": "but she had bad parents and this is why",
      "start": 798.51,
      "duration": 6.48
    },
    {
      "text": "this evil female character has is is is",
      "start": 800.46,
      "duration": 7.32
    },
    {
      "text": "attracted to this mean bird right so",
      "start": 804.99,
      "duration": 4.8
    },
    {
      "text": "that the men are just causeless idiots",
      "start": 807.78,
      "duration": 5.43
    },
    {
      "text": "and evil and mean and the women are all",
      "start": 809.79,
      "duration": 5.52
    },
    {
      "text": "Saints and when one isn't a saying she",
      "start": 813.21,
      "duration": 4.56
    },
    {
      "text": "has to be given an excuse based upon her",
      "start": 815.31,
      "duration": 4.38
    },
    {
      "text": "childhood and again this is you know the",
      "start": 817.77,
      "duration": 3.63
    },
    {
      "text": "fact that evil women are always granted",
      "start": 819.69,
      "duration": 3.45
    },
    {
      "text": "excuses and you have to expend reasons",
      "start": 821.4,
      "duration": 3.57
    },
    {
      "text": "as to why they're this way whereas",
      "start": 823.14,
      "duration": 4.47
    },
    {
      "text": "manages causeless evil BOTS that's such",
      "start": 824.97,
      "duration": 4.41
    },
    {
      "text": "a cliche that people don't even notice",
      "start": 827.61,
      "duration": 3.54
    },
    {
      "text": "it anymore right it's like breathing",
      "start": 829.38,
      "duration": 2.91
    },
    {
      "text": "unless you're sitting there",
      "start": 831.15,
      "duration": 3.21
    },
    {
      "text": "concentrating out it's just so continual",
      "start": 832.29,
      "duration": 3.27
    },
    {
      "text": "and omnipresent that you don't even",
      "start": 834.36,
      "duration": 3.63
    },
    {
      "text": "notice it anymore and then there's one",
      "start": 835.56,
      "duration": 6.6
    },
    {
      "text": "bird who's I think the the the Careers",
      "start": 837.99,
      "duration": 7.8
    },
    {
      "text": "charismatic birds father mother who is",
      "start": 842.16,
      "duration": 5.55
    },
    {
      "text": "like an ant and she babbles and gets",
      "start": 845.79,
      "duration": 4.92
    },
    {
      "text": "things wrong and jewel like the female",
      "start": 847.71,
      "duration": 4.83
    },
    {
      "text": "bird says to her husband just just go",
      "start": 850.71,
      "duration": 3.27
    },
    {
      "text": "with it don't you don't write don't",
      "start": 852.54,
      "duration": 3.66
    },
    {
      "text": "criticize don't question don't say what",
      "start": 853.98,
      "duration": 3.21
    },
    {
      "text": "are you talking about don't try to",
      "start": 856.2,
      "duration": 2.49
    },
    {
      "text": "understand it just smile and nod and go",
      "start": 857.19,
      "duration": 3.51
    },
    {
      "text": "along with it right again you know",
      "start": 858.69,
      "duration": 4.05
    },
    {
      "text": "creating these exceptions for women and",
      "start": 860.7,
      "duration": 4.14
    },
    {
      "text": "treating them like they're children",
      "start": 862.74,
      "duration": 3.99
    },
    {
      "text": "while treating like holy children while",
      "start": 864.84,
      "duration": 6.17
    },
    {
      "text": "treating men like evil elves right and",
      "start": 866.73,
      "duration": 4.28
    },
    {
      "text": "what I think is also interesting all the",
      "start": 871.61,
      "duration": 5.53
    },
    {
      "text": "news media tells the truth in the movie",
      "start": 875.19,
      "duration": 4.02
    },
    {
      "text": "and all the people in the news in the",
      "start": 877.14,
      "duration": 4.26
    },
    {
      "text": "news media are women and all the bad",
      "start": 879.21,
      "duration": 4.02
    },
    {
      "text": "guys are men right so they're these evil",
      "start": 881.4,
      "duration": 4.44
    },
    {
      "text": "loggers who look evil people who want to",
      "start": 883.23,
      "duration": 4.98
    },
    {
      "text": "use property in nature and leave a",
      "start": 885.84,
      "duration": 4.5
    },
    {
      "text": "smoking wasteland in this way they have",
      "start": 888.21,
      "duration": 3.9
    },
    {
      "text": "to be male and of course right I mean",
      "start": 890.34,
      "duration": 3.45
    },
    {
      "text": "the reason why the Amazon forest is",
      "start": 892.11,
      "duration": 2.91
    },
    {
      "text": "being stripped is because you can't buy",
      "start": 893.79,
      "duration": 2.67
    },
    {
      "text": "the property there you can only buy the",
      "start": 895.02,
      "duration": 2.85
    },
    {
      "text": "timber rights which means clear cutting",
      "start": 896.46,
      "duration": 3.21
    },
    {
      "text": "and no replanting is the order of the",
      "start": 897.87,
      "duration": 4.11
    },
    {
      "text": "day because it's more profitable for the",
      "start": 899.67,
      "duration": 3.9
    },
    {
      "text": "governments to collect the taxes on",
      "start": 901.98,
      "duration": 3.66
    },
    {
      "text": "stuff where they don't have to replant",
      "start": 903.57,
      "duration": 5.76
    },
    {
      "text": "right so in in Canada you you can't buy",
      "start": 905.64,
      "duration": 5.04
    },
    {
      "text": "timber rights you buy the land and then",
      "start": 909.33,
      "duration": 3.84
    },
    {
      "text": "you you replant right but in the Amazon",
      "start": 910.68,
      "duration": 3.6
    },
    {
      "text": "you can't buy the land just by the",
      "start": 913.17,
      "duration": 2.82
    },
    {
      "text": "timber right so it's government but of",
      "start": 914.28,
      "duration": 4.2
    },
    {
      "text": "course it's these evil private guys it's",
      "start": 915.99,
      "duration": 4.38
    },
    {
      "text": "all men and then the chainsaws it's all",
      "start": 918.48,
      "duration": 4.11
    },
    {
      "text": "men who were doing this stuff and there",
      "start": 920.37,
      "duration": 4.86
    },
    {
      "text": "are no female people who are exploiting",
      "start": 922.59,
      "duration": 3.9
    },
    {
      "text": "the environment as if there's no such",
      "start": 925.23,
      "duration": 2.76
    },
    {
      "text": "thing as cosmetics or perfume or",
      "start": 926.49,
      "duration": 3.26
    },
    {
      "text": "anything like that",
      "start": 927.99,
      "duration": 4.53
    },
    {
      "text": "so a Tullio the",
      "start": 929.75,
      "duration": 4.72
    },
    {
      "text": "phonologists at one point Linda goes up",
      "start": 932.52,
      "duration": 3.78
    },
    {
      "text": "and you know thumps the guy with the",
      "start": 934.47,
      "duration": 3.42
    },
    {
      "text": "chainsaw who's an evil guy who",
      "start": 936.3,
      "duration": 3.24
    },
    {
      "text": "apparently is going to chain saw her for",
      "start": 937.89,
      "duration": 3.09
    },
    {
      "text": "death for objecting to him cutting down",
      "start": 939.54,
      "duration": 4.65
    },
    {
      "text": "a tree and Tulio is like these men cut",
      "start": 940.98,
      "duration": 5.04
    },
    {
      "text": "up more than trees and he's like Ron",
      "start": 944.19,
      "duration": 3.57
    },
    {
      "text": "Linda run and she runs away to save",
      "start": 946.02,
      "duration": 3.81
    },
    {
      "text": "herself and then he turns around this",
      "start": 947.76,
      "duration": 4.59
    },
    {
      "text": "like skinny 12 pound guy he turns around",
      "start": 949.83,
      "duration": 4.59
    },
    {
      "text": "to face the men advancing on him with",
      "start": 952.35,
      "duration": 5.22
    },
    {
      "text": "chainsaws and he's like all right so I",
      "start": 954.42,
      "duration": 5.76
    },
    {
      "text": "mean this is like a this is male",
      "start": 957.57,
      "duration": 5.07
    },
    {
      "text": "disposability like why why doesn't she",
      "start": 960.18,
      "duration": 4.62
    },
    {
      "text": "stay and he ran away right because men",
      "start": 962.64,
      "duration": 3.75
    },
    {
      "text": "are disposable and women must always be",
      "start": 964.8,
      "duration": 2.94
    },
    {
      "text": "protected and saved because remember",
      "start": 966.39,
      "duration": 3.03
    },
    {
      "text": "it's a highly oppressive patriarchy that",
      "start": 967.74,
      "duration": 3.81
    },
    {
      "text": "women live under and then he's",
      "start": 969.42,
      "duration": 3.54
    },
    {
      "text": "completely incompetent if he trips and",
      "start": 971.55,
      "duration": 3.29
    },
    {
      "text": "falls over or something like that and",
      "start": 972.96,
      "duration": 5.19
    },
    {
      "text": "there's another of this Roberto guy who",
      "start": 974.84,
      "duration": 7.62
    },
    {
      "text": "is a really pretty charismatic Playboy",
      "start": 978.15,
      "duration": 6.21
    },
    {
      "text": "Bluebird why there's a sentence I",
      "start": 982.46,
      "duration": 3.57
    },
    {
      "text": "thought I'd be saying at this show and",
      "start": 984.36,
      "duration": 5.04
    },
    {
      "text": "he's voiced voiced by Bruno Mars who was",
      "start": 986.03,
      "duration": 5.65
    },
    {
      "text": "like a staggeringly good singer like he",
      "start": 989.4,
      "duration": 3.72
    },
    {
      "text": "does this little a cappella number that",
      "start": 991.68,
      "duration": 3.06
    },
    {
      "text": "just gives you goosebumps it's so good",
      "start": 993.12,
      "duration": 4.02
    },
    {
      "text": "and he's sort of suave and charismatic",
      "start": 994.74,
      "duration": 6.21
    },
    {
      "text": "and vaguely straight somewhat straight",
      "start": 997.14,
      "duration": 5.43
    },
    {
      "text": "and he's all over",
      "start": 1000.95,
      "duration": 3.93
    },
    {
      "text": "he's a good-looking suave charismatic",
      "start": 1002.57,
      "duration": 6.06
    },
    {
      "text": "bird who's all over a blues wife jewel",
      "start": 1004.88,
      "duration": 5.55
    },
    {
      "text": "and she's flirting with him like crazy",
      "start": 1008.63,
      "duration": 4.05
    },
    {
      "text": "and so on and then when dangerous so",
      "start": 1010.43,
      "duration": 4.05
    },
    {
      "text": "he's fairly competent that's like okay",
      "start": 1012.68,
      "duration": 3.32
    },
    {
      "text": "well so he's kind of sleazy he's",
      "start": 1014.48,
      "duration": 4.53
    },
    {
      "text": "basically all over a married woman kind",
      "start": 1016,
      "duration": 4.78
    },
    {
      "text": "of gross but then when danger come he",
      "start": 1019.01,
      "duration": 3.3
    },
    {
      "text": "becomes completely hysterical and",
      "start": 1020.78,
      "duration": 3.12
    },
    {
      "text": "babbles and you know can't think",
      "start": 1022.31,
      "duration": 3.27
    },
    {
      "text": "straight so again just another man who's",
      "start": 1023.9,
      "duration": 3.33
    },
    {
      "text": "kind of sleazy and sex-crazed and then",
      "start": 1025.58,
      "duration": 4.29
    },
    {
      "text": "completely ineffective when when danger",
      "start": 1027.23,
      "duration": 5.55
    },
    {
      "text": "comes and that's pretty horrendous to",
      "start": 1029.87,
      "duration": 5.13
    },
    {
      "text": "see as well the anti intellectualism",
      "start": 1032.78,
      "duration": 4.38
    },
    {
      "text": "y'know you could do a whole show on it",
      "start": 1035,
      "duration": 3.6
    },
    {
      "text": "that blue is smart and tries to reach",
      "start": 1037.16,
      "duration": 3
    },
    {
      "text": "things out and tries to negotiate with",
      "start": 1038.6,
      "duration": 3.57
    },
    {
      "text": "people and is continually ground down by",
      "start": 1040.16,
      "duration": 4.049
    },
    {
      "text": "the alphas and the beta's right the",
      "start": 1042.17,
      "duration": 3.48
    },
    {
      "text": "people who just use the birds who just",
      "start": 1044.209,
      "duration": 3.271
    },
    {
      "text": "use force to get what they want so at",
      "start": 1045.65,
      "duration": 3.9
    },
    {
      "text": "one point when their gang war is about",
      "start": 1047.48,
      "duration": 4.26
    },
    {
      "text": "to be settled by a sports game he says",
      "start": 1049.55,
      "duration": 3.72
    },
    {
      "text": "listen we're an intelligent species we",
      "start": 1051.74,
      "duration": 3.15
    },
    {
      "text": "have advanced reasoning skills let's",
      "start": 1053.27,
      "duration": 3.45
    },
    {
      "text": "negotiate and you know everybody just",
      "start": 1054.89,
      "duration": 3.54
    },
    {
      "text": "like rolls their eyes and they go ahead",
      "start": 1056.72,
      "duration": 6.18
    },
    {
      "text": "and do what they're saying and it's it's",
      "start": 1058.43,
      "duration": 7.14
    },
    {
      "text": "horrendous to see horrendous to see just",
      "start": 1062.9,
      "duration": 3.519
    },
    {
      "text": "how you",
      "start": 1065.57,
      "duration": 4.059
    },
    {
      "text": "men are portrayed and I mean this has a",
      "start": 1066.419,
      "duration": 6.781
    },
    {
      "text": "lot to do with the sort of the social",
      "start": 1069.629,
      "duration": 5.941
    },
    {
      "text": "welfare state as a whole so you know",
      "start": 1073.2,
      "duration": 4.89
    },
    {
      "text": "back in the day when men and women were",
      "start": 1075.57,
      "duration": 3.989
    },
    {
      "text": "treated like adults rather than the",
      "start": 1078.09,
      "duration": 3.719
    },
    {
      "text": "perpetual adolescence of statism that we",
      "start": 1079.559,
      "duration": 5.97
    },
    {
      "text": "all charged through like slow motion goo",
      "start": 1081.809,
      "duration": 7.021
    },
    {
      "text": "BOTS these days a woman had to choose a",
      "start": 1085.529,
      "duration": 4.83
    },
    {
      "text": "quality man if she wanted to have kids",
      "start": 1088.83,
      "duration": 2.969
    },
    {
      "text": "because she'd get pregnant and she'd be",
      "start": 1090.359,
      "duration": 3.211
    },
    {
      "text": "disabled by having kids for like ten",
      "start": 1091.799,
      "duration": 2.161
    },
    {
      "text": "years",
      "start": 1093.57,
      "duration": 1.949
    },
    {
      "text": "Kevon kids breastfeeding having kids",
      "start": 1093.96,
      "duration": 3.149
    },
    {
      "text": "breastfeeding so she'd need to choose a",
      "start": 1095.519,
      "duration": 3.061
    },
    {
      "text": "man who stuck around she needed to",
      "start": 1097.109,
      "duration": 3.991
    },
    {
      "text": "choose a quality a virtuous man that a",
      "start": 1098.58,
      "duration": 5.64
    },
    {
      "text": "steady man a good provider and then",
      "start": 1101.1,
      "duration": 5.22
    },
    {
      "text": "after women got the vote shortly after",
      "start": 1104.22,
      "duration": 3.179
    },
    {
      "text": "men got the vote you start to get all",
      "start": 1106.32,
      "duration": 3.63
    },
    {
      "text": "these social programs in which are to do",
      "start": 1107.399,
      "duration": 3.87
    },
    {
      "text": "with taking care of the elderly which",
      "start": 1109.95,
      "duration": 3.03
    },
    {
      "text": "was women's job for the most part and to",
      "start": 1111.269,
      "duration": 3.36
    },
    {
      "text": "do with taking care of children and all",
      "start": 1112.98,
      "duration": 3.329
    },
    {
      "text": "this sort of stuff gets you know women",
      "start": 1114.629,
      "duration": 2.971
    },
    {
      "text": "vote for free stuff just like men",
      "start": 1116.309,
      "duration": 5.19
    },
    {
      "text": "sometimes do as well and in South",
      "start": 1117.6,
      "duration": 7.23
    },
    {
      "text": "America the state has been huge for I",
      "start": 1121.499,
      "duration": 5.971
    },
    {
      "text": "think was in the 1920s Argentina had the",
      "start": 1124.83,
      "duration": 4.949
    },
    {
      "text": "same GDP as America but then Argentina",
      "start": 1127.47,
      "duration": 4.559
    },
    {
      "text": "went full full poor socialist like",
      "start": 1129.779,
      "duration": 4.561
    },
    {
      "text": "balls-deep socialism and they've just",
      "start": 1132.029,
      "duration": 4.26
    },
    {
      "text": "you know fallen off the map as far as",
      "start": 1134.34,
      "duration": 3.839
    },
    {
      "text": "standard of living and income growth and",
      "start": 1136.289,
      "duration": 3.87
    },
    {
      "text": "so on compared to the US which has had",
      "start": 1138.179,
      "duration": 3.21
    },
    {
      "text": "the remnants of the free market system",
      "start": 1140.159,
      "duration": 4.74
    },
    {
      "text": "for a couple of generations and so women",
      "start": 1141.389,
      "duration": 5.67
    },
    {
      "text": "like how could you possibly have a",
      "start": 1144.899,
      "duration": 4.041
    },
    {
      "text": "culture that views men with such",
      "start": 1147.059,
      "duration": 5.55
    },
    {
      "text": "bottomless contempt well it's because",
      "start": 1148.94,
      "duration": 6.25
    },
    {
      "text": "women can go marry the state and get",
      "start": 1152.609,
      "duration": 3.81
    },
    {
      "text": "what they want from the government and",
      "start": 1155.19,
      "duration": 2.609
    },
    {
      "text": "therefore they can treat men like crap",
      "start": 1156.419,
      "duration": 2.671
    },
    {
      "text": "like imagine if the government sent",
      "start": 1157.799,
      "duration": 5.19
    },
    {
      "text": "around sex workers every two days to",
      "start": 1159.09,
      "duration": 6.029
    },
    {
      "text": "bang young men senseless to have sex",
      "start": 1162.989,
      "duration": 3.87
    },
    {
      "text": "with young men then young men would not",
      "start": 1165.119,
      "duration": 3.42
    },
    {
      "text": "be likely to bring roses on dates with",
      "start": 1166.859,
      "duration": 2.79
    },
    {
      "text": "women because they're like well I can",
      "start": 1168.539,
      "duration": 2.46
    },
    {
      "text": "get free sex from the government so I",
      "start": 1169.649,
      "duration": 3.421
    },
    {
      "text": "don't have to really treat women nicely",
      "start": 1170.999,
      "duration": 4.05
    },
    {
      "text": "because women can get free resources",
      "start": 1173.07,
      "duration": 3.539
    },
    {
      "text": "from the government or supposedly free",
      "start": 1175.049,
      "duration": 2.94
    },
    {
      "text": "resources they don't have to treat men",
      "start": 1176.609,
      "duration": 5.07
    },
    {
      "text": "with respect and this is what you see is",
      "start": 1177.989,
      "duration": 6.69
    },
    {
      "text": "an outgrowth of the women wedding the",
      "start": 1181.679,
      "duration": 4.95
    },
    {
      "text": "you know bottomless alpha-male state and",
      "start": 1184.679,
      "duration": 4.35
    },
    {
      "text": "then turning all the men into disposable",
      "start": 1186.629,
      "duration": 4.23
    },
    {
      "text": "Zetas because they are because the",
      "start": 1189.029,
      "duration": 3.27
    },
    {
      "text": "government is providing at least until",
      "start": 1190.859,
      "duration": 3.27
    },
    {
      "text": "it crashes the women what they need if",
      "start": 1192.299,
      "duration": 3.81
    },
    {
      "text": "the women make bad choices in who they",
      "start": 1194.129,
      "duration": 5.071
    },
    {
      "text": "have children with so this movie is an",
      "start": 1196.109,
      "duration": 4.111
    },
    {
      "text": "example",
      "start": 1199.2,
      "duration": 3.15
    },
    {
      "text": "of just how toxic and poisonous this is",
      "start": 1200.22,
      "duration": 4.35
    },
    {
      "text": "of course there's you know the bad",
      "start": 1202.35,
      "duration": 4.86
    },
    {
      "text": "loggers and the good government see the",
      "start": 1204.57,
      "duration": 4.739
    },
    {
      "text": "government comes along and it's okay",
      "start": 1207.21,
      "duration": 4.199
    },
    {
      "text": "we've turned this into a protected Park",
      "start": 1209.309,
      "duration": 3.721
    },
    {
      "text": "and therefore therefore therefore like",
      "start": 1211.409,
      "duration": 3.541
    },
    {
      "text": "governments are also great at",
      "start": 1213.03,
      "duration": 4.649
    },
    {
      "text": "maintaining the economy you know I mean",
      "start": 1214.95,
      "duration": 4.44
    },
    {
      "text": "the sorry maintaining the environment I",
      "start": 1217.679,
      "duration": 3.601
    },
    {
      "text": "mean the economy is something we pass to",
      "start": 1219.39,
      "duration": 3.24
    },
    {
      "text": "the next generation and if the economy",
      "start": 1221.28,
      "duration": 2.82
    },
    {
      "text": "is Laden down with that that's",
      "start": 1222.63,
      "duration": 3.179
    },
    {
      "text": "destructive to the next generation the",
      "start": 1224.1,
      "duration": 3.27
    },
    {
      "text": "government has no more concern about the",
      "start": 1225.809,
      "duration": 2.641
    },
    {
      "text": "environment than it does about the",
      "start": 1227.37,
      "duration": 3.27
    },
    {
      "text": "economy or the lives of its citizens",
      "start": 1228.45,
      "duration": 3.42
    },
    {
      "text": "through war and imprisonment it's",
      "start": 1230.64,
      "duration": 3.12
    },
    {
      "text": "continually shredding and breaking them",
      "start": 1231.87,
      "duration": 5.7
    },
    {
      "text": "so I mean I literally could spend hours",
      "start": 1233.76,
      "duration": 6.63
    },
    {
      "text": "on this movie just just how absolutely",
      "start": 1237.57,
      "duration": 5.91
    },
    {
      "text": "toxic it is it is it is damaging their",
      "start": 1240.39,
      "duration": 5.789
    },
    {
      "text": "two children it is a shameful shameful",
      "start": 1243.48,
      "duration": 5.97
    },
    {
      "text": "Peete piece of misandry of anti male",
      "start": 1246.179,
      "duration": 5.761
    },
    {
      "text": "anti human anti-intellectual anti",
      "start": 1249.45,
      "duration": 4.469
    },
    {
      "text": "rational propaganda the mineral",
      "start": 1251.94,
      "duration": 5.16
    },
    {
      "text": "incompetent or evil or foolish the women",
      "start": 1253.919,
      "duration": 5.221
    },
    {
      "text": "are all saints and competent and rolling",
      "start": 1257.1,
      "duration": 3.42
    },
    {
      "text": "their eyes as they attempt to support",
      "start": 1259.14,
      "duration": 3.18
    },
    {
      "text": "the men and the last thing i want to say",
      "start": 1260.52,
      "duration": 5.519
    },
    {
      "text": "is towards the end of the movie right",
      "start": 1262.32,
      "duration": 6.3
    },
    {
      "text": "the deal between the right jewel and and",
      "start": 1266.039,
      "duration": 5.791
    },
    {
      "text": "blue was we go to the amazon and then we",
      "start": 1268.62,
      "duration": 4.559
    },
    {
      "text": "come back right that was the deal that",
      "start": 1271.83,
      "duration": 3.3
    },
    {
      "text": "was the only way it goes right and then",
      "start": 1273.179,
      "duration": 5.041
    },
    {
      "text": "a jewel gets there and she's being wooed",
      "start": 1275.13,
      "duration": 6.15
    },
    {
      "text": "by this hunky roberto guy and she now",
      "start": 1278.22,
      "duration": 5.569
    },
    {
      "text": "she wants to stay she wants to stay and",
      "start": 1281.28,
      "duration": 4.379
    },
    {
      "text": "she's just like what we're gonna stay",
      "start": 1283.789,
      "duration": 3.461
    },
    {
      "text": "and he's like well wait wait wait we had",
      "start": 1285.659,
      "duration": 2.941
    },
    {
      "text": "a deal we should talk about this and",
      "start": 1287.25,
      "duration": 2.82
    },
    {
      "text": "then she basically says well the kids",
      "start": 1288.6,
      "duration": 3.03
    },
    {
      "text": "are thriving they're really happy stop",
      "start": 1290.07,
      "duration": 5.91
    },
    {
      "text": "being selfish right but let me tell you",
      "start": 1291.63,
      "duration": 6.95
    },
    {
      "text": "something why this is so jaw-dropping",
      "start": 1295.98,
      "duration": 6.48
    },
    {
      "text": "ever since her husband came to where the",
      "start": 1298.58,
      "duration": 6.91
    },
    {
      "text": "jungle because he was raised as a pet or",
      "start": 1302.46,
      "duration": 5.04
    },
    {
      "text": "as a companion he also ever since her",
      "start": 1305.49,
      "duration": 5.46
    },
    {
      "text": "husband came to the jungle he has been",
      "start": 1307.5,
      "duration": 6.299
    },
    {
      "text": "abused her own father abuses him and",
      "start": 1310.95,
      "duration": 4.38
    },
    {
      "text": "puts him in life-threatening situations",
      "start": 1313.799,
      "duration": 4.231
    },
    {
      "text": "like having him dance on on snapping",
      "start": 1315.33,
      "duration": 5.91
    },
    {
      "text": "crocodiles mouths puts him in and",
      "start": 1318.03,
      "duration": 5.879
    },
    {
      "text": "injures him and and berates him and and",
      "start": 1321.24,
      "duration": 5.429
    },
    {
      "text": "threatens him and the other like then",
      "start": 1323.909,
      "duration": 5.311
    },
    {
      "text": "does his sexual guy roberto who's",
      "start": 1326.669,
      "duration": 4.38
    },
    {
      "text": "constantly hitting on her which is",
      "start": 1329.22,
      "duration": 3.81
    },
    {
      "text": "sexually humiliating to the husband and",
      "start": 1331.049,
      "duration": 2.941
    },
    {
      "text": "so on",
      "start": 1333.03,
      "duration": 2.55
    },
    {
      "text": "he's being ignored he's completely a",
      "start": 1333.99,
      "duration": 2.76
    },
    {
      "text": "fish out of water because he grew up",
      "start": 1335.58,
      "duration": 2.849
    },
    {
      "text": "with humans and here these are all birds",
      "start": 1336.75,
      "duration": 4.92
    },
    {
      "text": "in the Amazon so the whole time her",
      "start": 1338.429,
      "duration": 6.661
    },
    {
      "text": "husband is there he's being humiliated",
      "start": 1341.67,
      "duration": 5.37
    },
    {
      "text": "and she has no problem with it",
      "start": 1345.09,
      "duration": 2.61
    },
    {
      "text": "whatsoever",
      "start": 1347.04,
      "duration": 2.19
    },
    {
      "text": "the kids are humiliating him that no",
      "start": 1347.7,
      "duration": 3.39
    },
    {
      "text": "respect for him she humiliates him by",
      "start": 1349.23,
      "duration": 4.199
    },
    {
      "text": "continually flirting with this sexy guy",
      "start": 1351.09,
      "duration": 6
    },
    {
      "text": "bird and her father humiliates him at",
      "start": 1353.429,
      "duration": 5.641
    },
    {
      "text": "all the other birds he's humiliated in",
      "start": 1357.09,
      "duration": 4.02
    },
    {
      "text": "the game in the sports game of the turf",
      "start": 1359.07,
      "duration": 4.38
    },
    {
      "text": "war so there's this continual",
      "start": 1361.11,
      "duration": 4.65
    },
    {
      "text": "humiliation of her husband she does",
      "start": 1363.45,
      "duration": 4.47
    },
    {
      "text": "nothing the father of her children she",
      "start": 1365.76,
      "duration": 3.54
    },
    {
      "text": "never complains about it she never",
      "start": 1367.92,
      "duration": 3
    },
    {
      "text": "notices it she never gives him any",
      "start": 1369.3,
      "duration": 3.3
    },
    {
      "text": "support and she certainly never says to",
      "start": 1370.92,
      "duration": 4.74
    },
    {
      "text": "people hey Dad this is my my husband",
      "start": 1372.6,
      "duration": 5.04
    },
    {
      "text": "this is the father of my children you",
      "start": 1375.66,
      "duration": 3.99
    },
    {
      "text": "damn well treat him with respect he",
      "start": 1377.64,
      "duration": 3.66
    },
    {
      "text": "knows things you don't know listen you",
      "start": 1379.65,
      "duration": 3.27
    },
    {
      "text": "have he happens to be in your element",
      "start": 1381.3,
      "duration": 3.87
    },
    {
      "text": "okay fine so you know more if you were",
      "start": 1382.92,
      "duration": 4.259
    },
    {
      "text": "to come to a city he would not treat you",
      "start": 1385.17,
      "duration": 4.259
    },
    {
      "text": "this way he would not pretend that his",
      "start": 1387.179,
      "duration": 4.201
    },
    {
      "text": "accidentally gathered knowledge through",
      "start": 1389.429,
      "duration": 3.561
    },
    {
      "text": "experience made him somehow morally",
      "start": 1391.38,
      "duration": 4.02
    },
    {
      "text": "spiritually superior to you he would",
      "start": 1392.99,
      "duration": 4.15
    },
    {
      "text": "recognize that you're just a fish out of",
      "start": 1395.4,
      "duration": 3.21
    },
    {
      "text": "water like he is now and he would treat",
      "start": 1397.14,
      "duration": 3.03
    },
    {
      "text": "you with respect anyway so you better",
      "start": 1398.61,
      "duration": 2.79
    },
    {
      "text": "damn well treat the father of my",
      "start": 1400.17,
      "duration": 3.33
    },
    {
      "text": "children with respect or you dad or",
      "start": 1401.4,
      "duration": 3.99
    },
    {
      "text": "something like that maybe with a little",
      "start": 1403.5,
      "duration": 3.84
    },
    {
      "text": "less swearing for the children but that",
      "start": 1405.39,
      "duration": 5.33
    },
    {
      "text": "never happens so she basically",
      "start": 1407.34,
      "duration": 5.73
    },
    {
      "text": "humiliates him the whole way there by",
      "start": 1410.72,
      "duration": 4.03
    },
    {
      "text": "making fun of his fanny pack and his GPS",
      "start": 1413.07,
      "duration": 3.3
    },
    {
      "text": "and his knife and so on and his life of",
      "start": 1414.75,
      "duration": 3.179
    },
    {
      "text": "course never works and the GPS never",
      "start": 1416.37,
      "duration": 5.27
    },
    {
      "text": "works because for a movie that relies so",
      "start": 1417.929,
      "duration": 6.061
    },
    {
      "text": "basically and inevitably on technology",
      "start": 1421.64,
      "duration": 3.88
    },
    {
      "text": "it makes a lot of fun of technology but",
      "start": 1423.99,
      "duration": 2.85
    },
    {
      "text": "then again that's just kind of natural",
      "start": 1425.52,
      "duration": 4.65
    },
    {
      "text": "that's just populism so she basically",
      "start": 1426.84,
      "duration": 5.91
    },
    {
      "text": "drags him halfway around the world to go",
      "start": 1430.17,
      "duration": 4.44
    },
    {
      "text": "to this jungle with the promise that",
      "start": 1432.75,
      "duration": 3.48
    },
    {
      "text": "they will return he is continually",
      "start": 1434.61,
      "duration": 4.38
    },
    {
      "text": "humiliated she breaks her word to return",
      "start": 1436.23,
      "duration": 6.09
    },
    {
      "text": "and then then she has the unbelievable",
      "start": 1438.99,
      "duration": 6.54
    },
    {
      "text": "gall to call him selfish to use the",
      "start": 1442.32,
      "duration": 7.29
    },
    {
      "text": "children and to call him selfish he is",
      "start": 1445.53,
      "duration": 6.18
    },
    {
      "text": "selfish for not wanting to stay in a",
      "start": 1449.61,
      "duration": 3.9
    },
    {
      "text": "place where he continually being abused",
      "start": 1451.71,
      "duration": 5.099
    },
    {
      "text": "by her relatives and to not want to stay",
      "start": 1453.51,
      "duration": 5.04
    },
    {
      "text": "in a place where his wife is continually",
      "start": 1456.809,
      "duration": 6.241
    },
    {
      "text": "flirting with an alpha male he's selfish",
      "start": 1458.55,
      "duration": 6.78
    },
    {
      "text": "for wanting her to keep her word and she",
      "start": 1463.05,
      "duration": 4.379
    },
    {
      "text": "is not at all selfish for flirting with",
      "start": 1465.33,
      "duration": 2.64
    },
    {
      "text": "a guy",
      "start": 1467.429,
      "duration": 2.041
    },
    {
      "text": "and worshipping your dad despite the",
      "start": 1467.97,
      "duration": 2.79
    },
    {
      "text": "fact that they're both humiliating and",
      "start": 1469.47,
      "duration": 4.59
    },
    {
      "text": "abusing her husband oh my god these and",
      "start": 1470.76,
      "duration": 4.92
    },
    {
      "text": "this is why I'm saying like it's it's so",
      "start": 1474.06,
      "duration": 4.89
    },
    {
      "text": "astonishingly toxic a movie like it",
      "start": 1475.68,
      "duration": 5.43
    },
    {
      "text": "really should come with some sort of",
      "start": 1478.95,
      "duration": 4.59
    },
    {
      "text": "essential warning just about how harmful",
      "start": 1481.11,
      "duration": 4.89
    },
    {
      "text": "this is going to be - men and women -",
      "start": 1483.54,
      "duration": 7.68
    },
    {
      "text": "boys and girls it is a sexism that is so",
      "start": 1486,
      "duration": 7.98
    },
    {
      "text": "staggering and I did do a quick search",
      "start": 1491.22,
      "duration": 5.52
    },
    {
      "text": "to my knowledge it has been mentioned by",
      "start": 1493.98,
      "duration": 5.27
    },
    {
      "text": "no reviewers whatsoever just how",
      "start": 1496.74,
      "duration": 5.91
    },
    {
      "text": "relentlessly anti male Pro female and",
      "start": 1499.25,
      "duration": 6.25
    },
    {
      "text": "insane this movie is in it's bottomless",
      "start": 1502.65,
      "duration": 4.37
    },
    {
      "text": "hatred and contempt for men and",
      "start": 1505.5,
      "duration": 4.32
    },
    {
      "text": "terrified worship of women boy I can",
      "start": 1507.02,
      "duration": 4.48
    },
    {
      "text": "only imagine what the directors marriage",
      "start": 1509.82,
      "duration": 4.05
    },
    {
      "text": "is like but anyway please please please",
      "start": 1511.5,
      "duration": 4.23
    },
    {
      "text": "stay away from this movie do not expose",
      "start": 1513.87,
      "duration": 3.81
    },
    {
      "text": "your children to this movie if they do",
      "start": 1515.73,
      "duration": 4.35
    },
    {
      "text": "accidentally see it make sure they're in",
      "start": 1517.68,
      "duration": 4.62
    },
    {
      "text": "a soundproof hazmat suit and scrub them",
      "start": 1520.08,
      "duration": 4.53
    },
    {
      "text": "down with some sort of radioactive anti",
      "start": 1522.3,
      "duration": 3.9
    },
    {
      "text": "radioactive green jelly afterwards this",
      "start": 1524.61,
      "duration": 2.82
    },
    {
      "text": "is stefan molyneux from freedomain radio",
      "start": 1526.2,
      "duration": 3.15
    },
    {
      "text": "thank you so much for watching have",
      "start": 1527.43,
      "duration": 4.76
    },
    {
      "text": "yourselves a great day",
      "start": 1529.35,
      "duration": 2.84
    }
  ],
  "Errors": null,
  "TranscriptStderr": null
}