[
    {
        "start": "0.17",
        "dur": "6.749",
        "text": "anybody who's had to deal with any kind"
    },
    {
        "start": "2.76",
        "dur": "6.629",
        "text": "of unfolding crisis knows this that"
    },
    {
        "start": "6.919",
        "dur": "4.331",
        "text": "objectively verifiable information and"
    },
    {
        "start": "9.389",
        "dur": "3.601",
        "text": "transparency is key to containing a"
    },
    {
        "start": "11.25",
        "dur": "4.139",
        "text": "crisis of this magnitude and make no"
    },
    {
        "start": "12.99",
        "dur": "4.56",
        "text": "mistake the Jeffrey Epstein the death of"
    },
    {
        "start": "15.389",
        "dur": "5.851",
        "text": "Jeffrey Epstein this morning a mere 15"
    },
    {
        "start": "17.55",
        "dur": "6.809",
        "text": "hours ago is a massive massive crisis"
    },
    {
        "start": "21.24",
        "dur": "4.59",
        "text": "for the Constitution what is a country"
    },
    {
        "start": "24.359",
        "dur": "4.58",
        "text": "what is a civilization what is a culture"
    },
    {
        "start": "25.83",
        "dur": "7.26",
        "text": "it is the desire to restrain one's own"
    },
    {
        "start": "28.939",
        "dur": "5.8",
        "text": "predatory mammalian immoral behavior out"
    },
    {
        "start": "33.09",
        "dur": "3.239",
        "text": "of respect for the rule of law the idea"
    },
    {
        "start": "34.739",
        "dur": "3.151",
        "text": "that the law is virtuous the idea that"
    },
    {
        "start": "36.329",
        "dur": "4.081",
        "text": "the law is good and the idea that the"
    },
    {
        "start": "37.89",
        "dur": "5.07",
        "text": "law does not play favorites based upon"
    },
    {
        "start": "40.41",
        "dur": "5.85",
        "text": "the size of a man's wallet or his degree"
    },
    {
        "start": "42.96",
        "dur": "5.579",
        "text": "of political power and if the law"
    },
    {
        "start": "46.26",
        "dur": "4.92",
        "text": "crumbles in terms of people's respect"
    },
    {
        "start": "48.539",
        "dur": "4.29",
        "text": "for it then the society becomes almost"
    },
    {
        "start": "51.18",
        "dur": "2.879",
        "text": "immediately unworkable because people"
    },
    {
        "start": "52.829",
        "dur": "3",
        "text": "are then like hey you can do what you"
    },
    {
        "start": "54.059",
        "dur": "3.031",
        "text": "can get away with you know that old"
    },
    {
        "start": "55.829",
        "dur": "3.601",
        "text": "thing conscience is what you do but"
    },
    {
        "start": "57.09",
        "dur": "4.109",
        "text": "nobody's watching well if people don't"
    },
    {
        "start": "59.43",
        "dur": "3.179",
        "text": "believe in God and people don't have"
    },
    {
        "start": "61.199",
        "dur": "4.021",
        "text": "respect for the rule of law what will"
    },
    {
        "start": "62.609",
        "dur": "3.991",
        "text": "they do they will do what just about"
    },
    {
        "start": "65.22",
        "dur": "3.36",
        "text": "everyone in the third world does which"
    },
    {
        "start": "66.6",
        "dur": "3.48",
        "text": "is whatever you can get away with you"
    },
    {
        "start": "68.58",
        "dur": "2.7",
        "text": "will get away with if you have a"
    },
    {
        "start": "70.08",
        "dur": "3.27",
        "text": "reasonable chance of not getting caught"
    },
    {
        "start": "71.28",
        "dur": "4.65",
        "text": "and the benefits outweigh the risks you"
    },
    {
        "start": "73.35",
        "dur": "3.6",
        "text": "will just go and do it and you can't"
    },
    {
        "start": "75.93",
        "dur": "3.45",
        "text": "have a society you can't have a"
    },
    {
        "start": "76.95",
        "dur": "4.169",
        "text": "civilization if that's what people do it"
    },
    {
        "start": "79.38",
        "dur": "3.5",
        "text": "just ends up being dissolving into the"
    },
    {
        "start": "81.119",
        "dur": "4.771",
        "text": "usual you know chaotic corrupt"
    },
    {
        "start": "82.88",
        "dur": "4.239",
        "text": "oligarchical mess that we see throughout"
    },
    {
        "start": "85.89",
        "dur": "3.65",
        "text": "most of human history and throughout the"
    },
    {
        "start": "87.119",
        "dur": "5.07",
        "text": "world so this is a massive crisis and"
    },
    {
        "start": "89.54",
        "dur": "4.119",
        "text": "attorney general Barr and other people"
    },
    {
        "start": "92.189",
        "dur": "2.941",
        "text": "should be damn well out front of this"
    },
    {
        "start": "93.659",
        "dur": "2.731",
        "text": "crisis and they should be monitoring"
    },
    {
        "start": "95.13",
        "dur": "4.41",
        "text": "what's going on on Twitter and other"
    },
    {
        "start": "96.39",
        "dur": "5.159",
        "text": "places and they should be getting the"
    },
    {
        "start": "99.54",
        "dur": "3.96",
        "text": "video footage out they should be getting"
    },
    {
        "start": "101.549",
        "dur": "3.241",
        "text": "people in front of cameras they should"
    },
    {
        "start": "103.5",
        "dur": "2.759",
        "text": "be getting the guards out there to"
    },
    {
        "start": "104.79",
        "dur": "2.579",
        "text": "explain they should be publishing the"
    },
    {
        "start": "106.259",
        "dur": "4.531",
        "text": "documents they should be getting"
    },
    {
        "start": "107.369",
        "dur": "7.381",
        "text": "everything out there right now before"
    },
    {
        "start": "110.79",
        "dur": "6.78",
        "text": "people's trust in the system they live"
    },
    {
        "start": "114.75",
        "dur": "4.56",
        "text": "under completely vanishes and the"
    },
    {
        "start": "117.57",
        "dur": "3.39",
        "text": "country although it remains"
    },
    {
        "start": "119.31",
        "dur": "4.379",
        "text": "geographically and it remains under the"
    },
    {
        "start": "120.96",
        "dur": "6.39",
        "text": "extensible rule of coercion no longer"
    },
    {
        "start": "123.689",
        "dur": "7.951",
        "text": "has respect for the rule of law this is"
    },
    {
        "start": "127.35",
        "dur": "6.15",
        "text": "a massive crisis and the fact that no"
    },
    {
        "start": "131.64",
        "dur": "2.19",
        "text": "information seems to be coming out that"
    },
    {
        "start": "133.5",
        "dur": "1.89",
        "text": "Oh"
    },
    {
        "start": "133.83",
        "dur": "3.45",
        "text": "there's an investigation at starting up"
    },
    {
        "start": "135.39",
        "dur": "3.9",
        "text": "a bla bla bla bla bla it's like they"
    },
    {
        "start": "137.28",
        "dur": "4.82",
        "text": "don't understand this is a five-alarm"
    },
    {
        "start": "139.29",
        "dur": "4.89",
        "text": "fire the credibility at the nation a"
    },
    {
        "start": "142.1",
        "dur": "3.55",
        "text": "five-alarm fire and the credibility of"
    },
    {
        "start": "144.18",
        "dur": "3.69",
        "text": "the nation you have got to get this"
    },
    {
        "start": "145.65",
        "dur": "3.87",
        "text": "information out in front of people as"
    },
    {
        "start": "147.87",
        "dur": "3.27",
        "text": "quickly as humanly possible right now"
    },
    {
        "start": "149.52",
        "dur": "2.91",
        "text": "out there on the internet people are"
    },
    {
        "start": "151.14",
        "dur": "2.88",
        "text": "saying oh well the ear folds that the"
    },
    {
        "start": "152.43",
        "dur": "5.49",
        "text": "guy taken out of the prison don't math"
    },
    {
        "start": "154.02",
        "dur": "6.15",
        "text": "match jeffrey Epstein's ear folds maybe"
    },
    {
        "start": "157.92",
        "dur": "3.51",
        "text": "he was the body was switched in a hobo"
    },
    {
        "start": "160.17",
        "dur": "2.91",
        "text": "was put in his place and he's been"
    },
    {
        "start": "161.43",
        "dur": "4.26",
        "text": "spirited out like this is where people"
    },
    {
        "start": "163.08",
        "dur": "4.95",
        "text": "are they don't believe anything you're"
    },
    {
        "start": "165.69",
        "dur": "4.23",
        "text": "saying if you're in the government and"
    },
    {
        "start": "168.03",
        "dur": "3.3",
        "text": "of course the lickspittle toady"
    },
    {
        "start": "169.92",
        "dur": "3.06",
        "text": "prostitutes and the media are just"
    },
    {
        "start": "171.33",
        "dur": "3.27",
        "text": "lapping it all up and the same people"
    },
    {
        "start": "172.98",
        "dur": "5.4",
        "text": "who brought you close to two years of"
    },
    {
        "start": "174.6",
        "dur": "5.22",
        "text": "frantic spider web russia Kalusha"
    },
    {
        "start": "178.38",
        "dur": "4.86",
        "text": "conspiracy theories are now just"
    },
    {
        "start": "179.82",
        "dur": "5.639",
        "text": "swallowing this explanation of suicide"
    },
    {
        "start": "183.24",
        "dur": "6.12",
        "text": "how do you know all you have is a body"
    },
    {
        "start": "185.459",
        "dur": "5.731",
        "text": "oh no no we know no suicide before the"
    },
    {
        "start": "189.36",
        "dur": "5.25",
        "text": "body before the autopsy before like"
    },
    {
        "start": "191.19",
        "dur": "4.28",
        "text": "suicide come on people it's not credible"
    },
    {
        "start": "194.61",
        "dur": "3.24",
        "text": "people don't believe it"
    },
    {
        "start": "195.47",
        "dur": "8.019",
        "text": "people don't believe it and why should"
    },
    {
        "start": "197.85",
        "dur": "7.62",
        "text": "they I mean after the FBI declined to go"
    },
    {
        "start": "203.489",
        "dur": "3.301",
        "text": "after a reccomend prosecution to the DOJ"
    },
    {
        "start": "205.47",
        "dur": "3.57",
        "text": "for Hillary Clinton the email scandal"
    },
    {
        "start": "206.79",
        "dur": "5.97",
        "text": "that was a body blow to people's trust"
    },
    {
        "start": "209.04",
        "dur": "6.15",
        "text": "in the rule of law the sudden and highly"
    },
    {
        "start": "212.76",
        "dur": "4.11",
        "text": "predictable death of Jeffrey Epstein is"
    },
    {
        "start": "215.19",
        "dur": "3.03",
        "text": "a kill shot to people's respect for the"
    },
    {
        "start": "216.87",
        "dur": "2.64",
        "text": "rule of law and you lose the respect for"
    },
    {
        "start": "218.22",
        "dur": "4.5",
        "text": "the rule of law you lose your damn"
    },
    {
        "start": "219.51",
        "dur": "7.08",
        "text": "country you understand it may be dead"
    },
    {
        "start": "222.72",
        "dur": "7.65",
        "text": "culture walking but the destination is"
    },
    {
        "start": "226.59",
        "dur": "4.89",
        "text": "the same and this idea that you know"
    },
    {
        "start": "230.37",
        "dur": "4.05",
        "text": "there was supposed to be 15-minute"
    },
    {
        "start": "231.48",
        "dur": "5.37",
        "text": "checks on this guy supposed to be video"
    },
    {
        "start": "234.42",
        "dur": "3.93",
        "text": "surveillance at all times oh oh the"
    },
    {
        "start": "236.85",
        "dur": "5.78",
        "text": "check didn't happen oh he was taken off"
    },
    {
        "start": "238.35",
        "dur": "7.25",
        "text": "suicide watch the day or the day before"
    },
    {
        "start": "242.63",
        "dur": "7.18",
        "text": "all of the documents came out naming"
    },
    {
        "start": "245.6",
        "dur": "5.53",
        "text": "high-level powerful people who know"
    },
    {
        "start": "249.81",
        "dur": "5.61",
        "text": "where he is"
    },
    {
        "start": "251.13",
        "dur": "6.3",
        "text": "oh what a shame the video just stopped"
    },
    {
        "start": "255.42",
        "dur": "3.9",
        "text": "working listen I've been doing thousands"
    },
    {
        "start": "257.43",
        "dur": "7.489",
        "text": "of my own videos for the last 15 years I"
    },
    {
        "start": "259.32",
        "dur": "5.599",
        "text": "have never once had a video camera fail"
    },
    {
        "start": "265.91",
        "dur": "5.64",
        "text": "so I I'm appalled I'm appalled I mean"
    },
    {
        "start": "270.2",
        "dur": "3.42",
        "text": "nobody wants to think the worst of this"
    },
    {
        "start": "271.55",
        "dur": "3.84",
        "text": "kind of stuff but in the absence of any"
    },
    {
        "start": "273.62",
        "dur": "4.83",
        "text": "kind of objective information out there"
    },
    {
        "start": "275.39",
        "dur": "4.59",
        "text": "countering what seems completely obvious"
    },
    {
        "start": "278.45",
        "dur": "3.09",
        "text": "to everyone that this guy was the first"
    },
    {
        "start": "279.98",
        "dur": "4.98",
        "text": "guy to die in forever in New York City"
    },
    {
        "start": "281.54",
        "dur": "5.01",
        "text": "Jail the guy who was already supposed to"
    },
    {
        "start": "284.96",
        "dur": "3.36",
        "text": "be on suicide watch not supposed to have"
    },
    {
        "start": "286.55",
        "dur": "3.06",
        "text": "anything in his jail cell that he'd harm"
    },
    {
        "start": "288.32",
        "dur": "3.15",
        "text": "himself with this guy supposed to be"
    },
    {
        "start": "289.61",
        "dur": "3.87",
        "text": "checked on every 15 minutes this guy"
    },
    {
        "start": "291.47",
        "dur": "4.65",
        "text": "who's supposed to have a video feat in"
    },
    {
        "start": "293.48",
        "dur": "4.65",
        "text": "surveillance at all times every single"
    },
    {
        "start": "296.12",
        "dur": "10.07",
        "text": "system breaks down at the same time and"
    },
    {
        "start": "298.13",
        "dur": "11.73",
        "text": "he's counted out dead the lack of"
    },
    {
        "start": "306.19",
        "dur": "6.48",
        "text": "communication about all of this the lack"
    },
    {
        "start": "309.86",
        "dur": "7.05",
        "text": "of provision of essential information"
    },
    {
        "start": "312.67",
        "dur": "10.26",
        "text": "that counters what people strongly"
    },
    {
        "start": "316.91",
        "dur": "8.04",
        "text": "suspect well for many people of course"
    },
    {
        "start": "322.93",
        "dur": "4.32",
        "text": "it's going to be all the confirmation"
    },
    {
        "start": "324.95",
        "dur": "2.3",
        "text": "they need"
    }
]