[
    {
        "start": "0",
        "dur": "5.31",
        "text": "so one of my major goals as a moral"
    },
    {
        "start": "2.07",
        "dur": "4.829",
        "text": "philosopher is to take care of and look"
    },
    {
        "start": "5.31",
        "dur": "4.8",
        "text": "out for your ever-loving souls my"
    },
    {
        "start": "6.899",
        "dur": "4.86",
        "text": "friends I've had many many decades of"
    },
    {
        "start": "10.11",
        "dur": "5.279",
        "text": "experience in talking to people about"
    },
    {
        "start": "11.759",
        "dur": "5.581",
        "text": "deep horrible moral choices that they"
    },
    {
        "start": "15.389",
        "dur": "4.171",
        "text": "have made and now having pushed past a"
    },
    {
        "start": "17.34",
        "dur": "5.25",
        "text": "half-century I can see the fallout and"
    },
    {
        "start": "19.56",
        "dur": "5.85",
        "text": "the long shadow cast by early wrongdoing"
    },
    {
        "start": "22.59",
        "dur": "4.98",
        "text": "and how much it gnaws at and eats up the"
    },
    {
        "start": "25.41",
        "dur": "4.109",
        "text": "soul the happiness the capacity to love"
    },
    {
        "start": "27.57",
        "dur": "4.98",
        "text": "and be loved the ease the South content"
    },
    {
        "start": "29.519",
        "dur": "5.671",
        "text": "our capacity to experience basic and"
    },
    {
        "start": "32.55",
        "dur": "4.11",
        "text": "profound joys all gets destroyed when we"
    },
    {
        "start": "35.19",
        "dur": "3.18",
        "text": "act against our conscience do you have"
    },
    {
        "start": "36.66",
        "dur": "3.27",
        "text": "to be religious to believe in a"
    },
    {
        "start": "38.37",
        "dur": "2.849",
        "text": "conscience the conscience is that part"
    },
    {
        "start": "39.93",
        "dur": "2.879",
        "text": "of us whether we like it or not that"
    },
    {
        "start": "41.219",
        "dur": "4.11",
        "text": "universal eise's our actions and"
    },
    {
        "start": "42.809",
        "dur": "5.851",
        "text": "understands deeply the blowback of our"
    },
    {
        "start": "45.329",
        "dur": "6.21",
        "text": "decisions so the reason why I am"
    },
    {
        "start": "48.66",
        "dur": "4.86",
        "text": "fighting so hard to oppose the false"
    },
    {
        "start": "51.539",
        "dur": "4.381",
        "text": "narratives regarding Ahmad Harbury case"
    },
    {
        "start": "53.52",
        "dur": "5.339",
        "text": "is that the more you spread these little"
    },
    {
        "start": "55.92",
        "dur": "4.979",
        "text": "poison pills of who he was hunted down"
    },
    {
        "start": "58.859",
        "dur": "4.2",
        "text": "and the McMichaels were the aggressors"
    },
    {
        "start": "60.899",
        "dur": "3.781",
        "text": "and they chased him and they cornered"
    },
    {
        "start": "63.059",
        "dur": "3.691",
        "text": "him and they murdered him and they shot"
    },
    {
        "start": "64.68",
        "dur": "7.71",
        "text": "him in cold blood"
    },
    {
        "start": "66.75",
        "dur": "9.78",
        "text": "the more you sow these lies the more you"
    },
    {
        "start": "72.39",
        "dur": "6.63",
        "text": "are setting a landmine under the"
    },
    {
        "start": "76.53",
        "dur": "4.589",
        "text": "neighbourhoods of the most vulnerable in"
    },
    {
        "start": "79.02",
        "dur": "4.77",
        "text": "society the more you are going to"
    },
    {
        "start": "81.119",
        "dur": "5.281",
        "text": "guarantee riots and looting and murders"
    },
    {
        "start": "83.79",
        "dur": "5.64",
        "text": "and assaults and the destruction of"
    },
    {
        "start": "86.4",
        "dur": "5.19",
        "text": "entire communities based upon your lies"
    },
    {
        "start": "89.43",
        "dur": "5.07",
        "text": "and whether you like it or not there's a"
    },
    {
        "start": "91.59",
        "dur": "4.95",
        "text": "part of you that will recognize that you"
    },
    {
        "start": "94.5",
        "dur": "3.47",
        "text": "for the satisfaction of little sick"
    },
    {
        "start": "96.54",
        "dur": "4.71",
        "text": "sadistic pleasures in the here-and-now"
    },
    {
        "start": "97.97",
        "dur": "6.219",
        "text": "spread lies that caused the deaths of"
    },
    {
        "start": "101.25",
        "dur": "6.72",
        "text": "dozens or hundreds or perhaps even more"
    },
    {
        "start": "104.189",
        "dur": "5.82",
        "text": "because in my very strong opinion the"
    },
    {
        "start": "107.97",
        "dur": "4.71",
        "text": "McMichaels are going to be acquitted by"
    },
    {
        "start": "110.009",
        "dur": "4.771",
        "text": "the law and the more that people believe"
    },
    {
        "start": "112.68",
        "dur": "4.41",
        "text": "the lies that you are spreading the more"
    },
    {
        "start": "114.78",
        "dur": "4.14",
        "text": "violence and rioting and looting and"
    },
    {
        "start": "117.09",
        "dur": "4.26",
        "text": "murder will result and that blood will"
    },
    {
        "start": "118.92",
        "dur": "3.409",
        "text": "be on your hands whether you like it or"
    },
    {
        "start": "121.35",
        "dur": "3.479",
        "text": "not"
    },
    {
        "start": "122.329",
        "dur": "5.47",
        "text": "so I'm begging you for the sake of"
    },
    {
        "start": "124.829",
        "dur": "5.52",
        "text": "justice for the sake of truth reserve"
    },
    {
        "start": "127.799",
        "dur": "4.681",
        "text": "judgment speak the facts and although"
    },
    {
        "start": "130.349",
        "dur": "2.791",
        "text": "you may be tempted to sow the seeds of"
    },
    {
        "start": "132.48",
        "dur": "2.91",
        "text": "destruction"
    },
    {
        "start": "133.14",
        "dur": "3.57",
        "text": "will reek and destroy other"
    },
    {
        "start": "135.39",
        "dur": "5.3",
        "text": "neighborhoods than your own please"
    },
    {
        "start": "136.71",
        "dur": "3.98",
        "text": "please stop"
    }
]