{
  "Title": "The Biggest Lie of the New Century",
  "Id": "3LooltgB254",
  "Transcript": [
    {
      "text": "the great lie of the 18th century was",
      "start": 0.17,
      "duration": 5.379
    },
    {
      "text": "the idea that when the government has",
      "start": 3.48,
      "duration": 4.709
    },
    {
      "text": "the power to enforce religion competing",
      "start": 5.549,
      "duration": 4.17
    },
    {
      "text": "religions can live in such a system",
      "start": 8.189,
      "duration": 3.541
    },
    {
      "text": "peacefully they can't they will all",
      "start": 9.719,
      "duration": 3.901
    },
    {
      "text": "attempt to gain control of the state and",
      "start": 11.73,
      "duration": 3.48
    },
    {
      "text": "use the power of the state to impose",
      "start": 13.62,
      "duration": 4.11
    },
    {
      "text": "their religious views on others and that",
      "start": 15.21,
      "duration": 3.989
    },
    {
      "text": "was solved by the separation of church",
      "start": 17.73,
      "duration": 3.84
    },
    {
      "text": "and state the great lie of the 19th",
      "start": 19.199,
      "duration": 5.16
    },
    {
      "text": "century was that civilization and free",
      "start": 21.57,
      "duration": 5.64
    },
    {
      "text": "markets and democracy and all of the",
      "start": 24.359,
      "duration": 5.67
    },
    {
      "text": "virtues of classical liberal Western",
      "start": 27.21,
      "duration": 5.88
    },
    {
      "text": "civilization can be spread through the",
      "start": 30.029,
      "duration": 5.161
    },
    {
      "text": "domination of other countries through",
      "start": 33.09,
      "duration": 4.32
    },
    {
      "text": "imperialism and nation-building and that",
      "start": 35.19,
      "duration": 4.549
    },
    {
      "text": "was solved by the shredding of the",
      "start": 37.41,
      "duration": 5.61
    },
    {
      "text": "imperialistic ethic in the first half of",
      "start": 39.739,
      "duration": 6.16
    },
    {
      "text": "the 20th century the great lie of the",
      "start": 43.02,
      "duration": 6.99
    },
    {
      "text": "20th century was that all wealth arises",
      "start": 45.899,
      "duration": 5.671
    },
    {
      "text": "or most wealth arises from exploitation",
      "start": 50.01,
      "duration": 5.04
    },
    {
      "text": "and therefore we can use force to steal",
      "start": 51.57,
      "duration": 5.46
    },
    {
      "text": "back money from the wealth and use it to",
      "start": 55.05,
      "duration": 3.45
    },
    {
      "text": "spread among the general population the",
      "start": 57.03,
      "duration": 3.9
    },
    {
      "text": "result of course has been that everyone",
      "start": 58.5,
      "duration": 4.559
    },
    {
      "text": "ends up poor that lie is still in the",
      "start": 60.93,
      "duration": 5.13
    },
    {
      "text": "process of being challenged now the",
      "start": 63.059,
      "duration": 6.24
    },
    {
      "text": "great lie of the 21st century the great",
      "start": 66.06,
      "duration": 5.58
    },
    {
      "text": "lie of the 21st century is similar to",
      "start": 69.299,
      "duration": 4.32
    },
    {
      "text": "the 18th century that when you get",
      "start": 71.64,
      "duration": 4.94
    },
    {
      "text": "various ethnicities in a very powerful",
      "start": 73.619,
      "duration": 5.131
    },
    {
      "text": "government environment that those",
      "start": 76.58,
      "duration": 4.12
    },
    {
      "text": "ethnicities can live in peace rather",
      "start": 78.75,
      "duration": 3.45
    },
    {
      "text": "than each trying to grab the power of",
      "start": 80.7,
      "duration": 3.39
    },
    {
      "text": "the state and use it to advance their",
      "start": 82.2,
      "duration": 3.66
    },
    {
      "text": "own groups interest at the expense of",
      "start": 84.09,
      "duration": 4.56
    },
    {
      "text": "everyone else that lie has yet to be",
      "start": 85.86,
      "duration": 7.79
    },
    {
      "text": "perceived let alone widely repudiated",
      "start": 88.65,
      "duration": 5
    }
  ],
  "Errors": null,
  "TranscriptStderr": null
}