{
  "Title": "But Twitter Is A Private Company...",
  "Id": "44uOmiS7XPs",
  "Transcript": [
    {
      "text": "so as you've probably heard if you",
      "start": 0.03,
      "duration": 3.389
    },
    {
      "text": "haven't had your eyeballs glued to the",
      "start": 1.65,
      "duration": 3.78
    },
    {
      "text": "tentacle brain implants of mainstream",
      "start": 3.419,
      "duration": 5.161
    },
    {
      "text": "media propaganda James O'Keefe and his",
      "start": 5.43,
      "duration": 6.419
    },
    {
      "text": "project Veritas intrepid team of truth",
      "start": 8.58,
      "duration": 5.34
    },
    {
      "text": "revelers have broken a massive",
      "start": 11.849,
      "duration": 4.471
    },
    {
      "text": "censorship story regarding Twitter that",
      "start": 13.92,
      "duration": 5.16
    },
    {
      "text": "twitter has algorithms and has engineers",
      "start": 16.32,
      "duration": 4.14
    },
    {
      "text": "and other people admitting to shadow",
      "start": 19.08,
      "duration": 3.6
    },
    {
      "text": "banning entire groups mass deleting",
      "start": 20.46,
      "duration": 4.649
    },
    {
      "text": "accounts based upon what they call",
      "start": 22.68,
      "duration": 3.839
    },
    {
      "text": "machine learning like the machine is",
      "start": 25.109,
      "duration": 2.941
    },
    {
      "text": "just somehow independent I'm a computer",
      "start": 26.519,
      "duration": 3.901
    },
    {
      "text": "programmer Rob wise I mean I know input",
      "start": 28.05,
      "duration": 4.259
    },
    {
      "text": "is input and output is out but it's not",
      "start": 30.42,
      "duration": 3.24
    },
    {
      "text": "the machine that's learning it's what",
      "start": 32.309,
      "duration": 3.241
    },
    {
      "text": "you're putting into it and they're",
      "start": 33.66,
      "duration": 3.6
    },
    {
      "text": "putting in search terms like guns",
      "start": 35.55,
      "duration": 4.77
    },
    {
      "text": "Trump cross so you know basically",
      "start": 37.26,
      "duration": 5.16
    },
    {
      "text": "targeting white Christian conservatives",
      "start": 40.32,
      "duration": 4.38
    },
    {
      "text": "for suppression for shadow banning form",
      "start": 42.42,
      "duration": 4.44
    },
    {
      "text": "a solution for account deactivation and",
      "start": 44.7,
      "duration": 3.48
    },
    {
      "text": "so on and I got a whole bunch of",
      "start": 46.86,
      "duration": 2.73
    },
    {
      "text": "comments from people on on that video",
      "start": 48.18,
      "duration": 3.949
    },
    {
      "text": "saying oh yeah same thing happened to me",
      "start": 49.59,
      "duration": 6
    },
    {
      "text": "now whenever this kind of stuff comes up",
      "start": 52.129,
      "duration": 5.11
    },
    {
      "text": "you do get a whole bunch of people",
      "start": 55.59,
      "duration": 4.32
    },
    {
      "text": "swarming from the mothership a political",
      "start": 57.239,
      "duration": 4.261
    },
    {
      "text": "irrationality across the internet",
      "start": 59.91,
      "duration": 4.1
    },
    {
      "text": "typing madly apparently with their",
      "start": 61.5,
      "duration": 5.82
    },
    {
      "text": "single remaining that sac and that well",
      "start": 64.01,
      "duration": 4.719
    },
    {
      "text": "it's a private company you see it has",
      "start": 67.32,
      "duration": 2.549
    },
    {
      "text": "the right to discriminate who have",
      "start": 68.729,
      "duration": 2.731
    },
    {
      "text": "against whoever at once and this comes",
      "start": 69.869,
      "duration": 5.871
    },
    {
      "text": "from the left and the right and it's",
      "start": 71.46,
      "duration": 7.229
    },
    {
      "text": "it's a terrible argument you know me",
      "start": 75.74,
      "duration": 4.21
    },
    {
      "text": "saying it doesn't make them just you",
      "start": 78.689,
      "duration": 3
    },
    {
      "text": "know I'll tell you why it's a terrible",
      "start": 79.95,
      "duration": 3.51
    },
    {
      "text": "argument but it's a terrible argument",
      "start": 81.689,
      "duration": 3.871
    },
    {
      "text": "and it's a really it's a wrong argument",
      "start": 83.46,
      "duration": 5.97
    },
    {
      "text": "in in very fundamental way so let me",
      "start": 85.56,
      "duration": 5.309
    },
    {
      "text": "sort of clear something up first is that",
      "start": 89.43,
      "duration": 3.39
    },
    {
      "text": "the mere exercise of control over your",
      "start": 90.869,
      "duration": 4.89
    },
    {
      "text": "own private property is not a government",
      "start": 92.82,
      "duration": 4.65
    },
    {
      "text": "function so I'm having a great pool",
      "start": 95.759,
      "duration": 3.691
    },
    {
      "text": "party you come over and you're openly",
      "start": 97.47,
      "duration": 4.62
    },
    {
      "text": "peeing into the pool I get to kick you",
      "start": 99.45,
      "duration": 4.41
    },
    {
      "text": "out of my house right and I'm not being",
      "start": 102.09,
      "duration": 4.23
    },
    {
      "text": "a fascist I'm just saying you Kings like",
      "start": 103.86,
      "duration": 4.2
    },
    {
      "text": "the bar owner at 2:00 a.m. you can go",
      "start": 106.32,
      "duration": 3.299
    },
    {
      "text": "anywhere you just can't you don't have",
      "start": 108.06,
      "duration": 3.03
    },
    {
      "text": "to go home you just can't stay here",
      "start": 109.619,
      "duration": 4.381
    },
    {
      "text": "so yeah excluding people from use of",
      "start": 111.09,
      "duration": 5.22
    },
    {
      "text": "your own private property is of course",
      "start": 114,
      "duration": 3.75
    },
    {
      "text": "not the same as censorship you're on a",
      "start": 116.31,
      "duration": 2.64
    },
    {
      "text": "message board someone's being a troll",
      "start": 117.75,
      "duration": 2.82
    },
    {
      "text": "what do they always do they banned me",
      "start": 118.95,
      "duration": 3.15
    },
    {
      "text": "you interfere with my free speech like",
      "start": 120.57,
      "duration": 3
    },
    {
      "text": "no you could type anywhere you want just",
      "start": 122.1,
      "duration": 2.67
    },
    {
      "text": "not on the server that I'm paying for",
      "start": 123.57,
      "duration": 3.839
    },
    {
      "text": "right so so I want to sort of be clear",
      "start": 124.77,
      "duration": 4.379
    },
    {
      "text": "about that and the question is not",
      "start": 127.409,
      "duration": 4.41
    },
    {
      "text": "whether sense whether this whether",
      "start": 129.149,
      "duration": 4.951
    },
    {
      "text": "Twitter has the right to sue",
      "start": 131.819,
      "duration": 5.461
    },
    {
      "text": "yes these things and I'm gonna use the",
      "start": 134.1,
      "duration": 4.62
    },
    {
      "text": "word censorship here even though that's",
      "start": 137.28,
      "duration": 2.64
    },
    {
      "text": "more of a political function just",
      "start": 138.72,
      "duration": 2.61
    },
    {
      "text": "because it's a commonly understood term",
      "start": 139.92,
      "duration": 2.85
    },
    {
      "text": "and I don't want people to get confused",
      "start": 141.33,
      "duration": 2.91
    },
    {
      "text": "when I have to keep repeating shadow",
      "start": 142.77,
      "duration": 2.82
    },
    {
      "text": "banning of suppression which they may",
      "start": 144.24,
      "duration": 2.52
    },
    {
      "text": "not be as clear on it's definitely",
      "start": 145.59,
      "duration": 3.72
    },
    {
      "text": "censoring of opinions based upon their",
      "start": 146.76,
      "duration": 5.7
    },
    {
      "text": "political content right so here's here's",
      "start": 149.31,
      "duration": 4.26
    },
    {
      "text": "here the issues and there are a couple",
      "start": 152.46,
      "duration": 2.76
    },
    {
      "text": "of them first of all first and foremost",
      "start": 153.57,
      "duration": 4.64
    },
    {
      "text": "when you have a platform like Twitter",
      "start": 155.22,
      "duration": 5.7
    },
    {
      "text": "then people can't spend an enormous",
      "start": 158.21,
      "duration": 4.63
    },
    {
      "text": "amount of time to develop their",
      "start": 160.92,
      "duration": 4.02
    },
    {
      "text": "following to develop their base to add",
      "start": 162.84,
      "duration": 6.36
    },
    {
      "text": "value to their account it's sort of like",
      "start": 164.94,
      "duration": 5.91
    },
    {
      "text": "if somebody who says you have clear",
      "start": 169.2,
      "duration": 3.63
    },
    {
      "text": "title to the land and then you spend a",
      "start": 170.85,
      "duration": 4.08
    },
    {
      "text": "year building a house and then somebody",
      "start": 172.83,
      "duration": 3.75
    },
    {
      "text": "says oh wait no I'm taking you by your",
      "start": 174.93,
      "duration": 3
    },
    {
      "text": "title to the land you're like well what",
      "start": 176.58,
      "duration": 2.64
    },
    {
      "text": "about my house it's like no I'm just",
      "start": 177.93,
      "duration": 4.35
    },
    {
      "text": "gonna demolish it well so think of",
      "start": 179.22,
      "duration": 4.89
    },
    {
      "text": "Twitter as the land and a Twitter",
      "start": 182.28,
      "duration": 3.27
    },
    {
      "text": "account as the house that people build",
      "start": 184.11,
      "duration": 3.78
    },
    {
      "text": "on that land now if somebody says to you",
      "start": 185.55,
      "duration": 5.4
    },
    {
      "text": "but you can build here but the land",
      "start": 187.89,
      "duration": 5.1
    },
    {
      "text": "ownership is still in hot disputes and",
      "start": 190.95,
      "duration": 3.84
    },
    {
      "text": "it could go either way and you know I",
      "start": 192.99,
      "duration": 3.9
    },
    {
      "text": "might then then they're gonna say no I'm",
      "start": 194.79,
      "duration": 3.18
    },
    {
      "text": "not gonna build he I'm gonna build",
      "start": 196.89,
      "duration": 3.12
    },
    {
      "text": "somewhere else I'm gonna go and apply my",
      "start": 197.97,
      "duration": 3.57
    },
    {
      "text": "energy so resource can build up a blog",
      "start": 200.01,
      "duration": 3.21
    },
    {
      "text": "maybe it go to Facebook or YouTube or",
      "start": 201.54,
      "duration": 2.64
    },
    {
      "text": "whatever it is I'm not gonna go to",
      "start": 203.22,
      "duration": 3
    },
    {
      "text": "Twitter because there's it's a random",
      "start": 204.18,
      "duration": 3.87
    },
    {
      "text": "pulled the rug out destroy your account",
      "start": 206.22,
      "duration": 6.02
    },
    {
      "text": "to lead years of your work and so on so",
      "start": 208.05,
      "duration": 6.81
    },
    {
      "text": "now of course Twitter does say you know",
      "start": 212.24,
      "duration": 3.88
    },
    {
      "text": "we we have the right to terminate",
      "start": 214.86,
      "duration": 2.88
    },
    {
      "text": "accounts and so on but they do have",
      "start": 216.12,
      "duration": 4.14
    },
    {
      "text": "Terms of Service and the Terms of",
      "start": 217.74,
      "duration": 4.26
    },
    {
      "text": "Service do have a lot of ambiguity in",
      "start": 220.26,
      "duration": 3.18
    },
    {
      "text": "them of course you know I mean who knows",
      "start": 222,
      "duration": 3.93
    },
    {
      "text": "what what standards objectively you",
      "start": 223.44,
      "duration": 4.44
    },
    {
      "text": "might reach or not reach for these kinds",
      "start": 225.93,
      "duration": 4.8
    },
    {
      "text": "of things but what happens is of course",
      "start": 227.88,
      "duration": 5.34
    },
    {
      "text": "there is confusion and misdirection",
      "start": 230.73,
      "duration": 5.55
    },
    {
      "text": "because you go onto Twitter and you can",
      "start": 233.22,
      "duration": 5.34
    },
    {
      "text": "see the most egregious stuff that's been",
      "start": 236.28,
      "duration": 4.5
    },
    {
      "text": "out for years you know like you know you",
      "start": 238.56,
      "duration": 4.47
    },
    {
      "text": "can one during the assassination of this",
      "start": 240.78,
      "duration": 3.66
    },
    {
      "text": "person and the destruction of this race",
      "start": 243.03,
      "duration": 3.21
    },
    {
      "text": "of the white race of course and this",
      "start": 244.44,
      "duration": 3.39
    },
    {
      "text": "stuff stays apps you say okay well so",
      "start": 246.24,
      "duration": 4.08
    },
    {
      "text": "that's allowable in their Terms of",
      "start": 247.83,
      "duration": 5.64
    },
    {
      "text": "Service so they obviously allow some",
      "start": 250.32,
      "duration": 5.94
    },
    {
      "text": "pretty astounding and horrendous stuff",
      "start": 253.47,
      "duration": 4.769
    },
    {
      "text": "to to go up and you know in the a",
      "start": 256.26,
      "duration": 3.599
    },
    {
      "text": "picture of Kathy Griffin holding Trump's",
      "start": 258.239,
      "duration": 3.451
    },
    {
      "text": "a simulated severed head and so on and",
      "start": 259.859,
      "duration": 7.981
    },
    {
      "text": "so clearly it's not really anal when it",
      "start": 261.69,
      "duration": 8.67
    },
    {
      "text": "comes to repressing and some presently",
      "start": 267.84,
      "duration": 4.859
    },
    {
      "text": "you it's not just what you can post",
      "start": 270.36,
      "duration": 4.29
    },
    {
      "text": "pictures of cute kittens and dogs that",
      "start": 272.699,
      "duration": 3.5
    },
    {
      "text": "don't look like Hitler and you're fine",
      "start": 274.65,
      "duration": 3.06
    },
    {
      "text": "good luck man",
      "start": 276.199,
      "duration": 4.811
    },
    {
      "text": "and so you see all the stuff and you say",
      "start": 277.71,
      "duration": 5.25
    },
    {
      "text": "okay well they're not crazy about this",
      "start": 281.01,
      "duration": 4.11
    },
    {
      "text": "kind of stuff so I can put forward",
      "start": 282.96,
      "duration": 3.57
    },
    {
      "text": "opinions that are controversial I can",
      "start": 285.12,
      "duration": 2.4
    },
    {
      "text": "put forward arguments that are",
      "start": 286.53,
      "duration": 5.37
    },
    {
      "text": "challenging and so on right so that's",
      "start": 287.52,
      "duration": 5.91
    },
    {
      "text": "sort of the implicit contract that's",
      "start": 291.9,
      "duration": 5.1
    },
    {
      "text": "there and so you then build your house",
      "start": 293.43,
      "duration": 5.82
    },
    {
      "text": "on this plot of land and then what",
      "start": 297,
      "duration": 3.84
    },
    {
      "text": "happens is you come back and your house",
      "start": 299.25,
      "duration": 6
    },
    {
      "text": "is gone and you say well wait I thought",
      "start": 300.84,
      "duration": 6.329
    },
    {
      "text": "I had titles I was a bane right I wasn't",
      "start": 305.25,
      "duration": 3.27
    },
    {
      "text": "doing anything criminal on this land I",
      "start": 307.169,
      "duration": 2.761
    },
    {
      "text": "wasn't doing anything this this other",
      "start": 308.52,
      "duration": 3.869
    },
    {
      "text": "guy you say well the thing is you put",
      "start": 309.93,
      "duration": 7.35
    },
    {
      "text": "this yard sign out front you say what so",
      "start": 312.389,
      "duration": 7.611
    },
    {
      "text": "that my neighbor has like ten yard signs",
      "start": 317.28,
      "duration": 6.81
    },
    {
      "text": "so why do they get to stay and I don't",
      "start": 320,
      "duration": 7.389
    },
    {
      "text": "like why did you toast my house when I",
      "start": 324.09,
      "duration": 4.889
    },
    {
      "text": "have one yard signed by my neighbor has",
      "start": 327.389,
      "duration": 4.5
    },
    {
      "text": "ten yard signs we don't have to tell you",
      "start": 328.979,
      "duration": 4.711
    },
    {
      "text": "because we can we have the discretion to",
      "start": 331.889,
      "duration": 5.28
    },
    {
      "text": "do it as we like now that is interesting",
      "start": 333.69,
      "duration": 5.4
    },
    {
      "text": "because the question like let's say that",
      "start": 337.169,
      "duration": 3.661
    },
    {
      "text": "the yard sign is a political candidate",
      "start": 339.09,
      "duration": 2.91
    },
    {
      "text": "right so let's say your neighbor is a",
      "start": 340.83,
      "duration": 3.269
    },
    {
      "text": "socialist and you're a libertarian right",
      "start": 342,
      "duration": 5.88
    },
    {
      "text": "and so your neighbor has ten yard signs",
      "start": 344.099,
      "duration": 7.621
    },
    {
      "text": "and Twitter comes to you and says oh you",
      "start": 347.88,
      "duration": 5.61
    },
    {
      "text": "know we deleted your we got rid of your",
      "start": 351.72,
      "duration": 3.48
    },
    {
      "text": "house we've taken back ownership of the",
      "start": 353.49,
      "duration": 2.79
    },
    {
      "text": "land we got rid of your house because",
      "start": 355.2,
      "duration": 4.98
    },
    {
      "text": "you have a yard sign with political",
      "start": 356.28,
      "duration": 5.009
    },
    {
      "text": "content and you say well when my",
      "start": 360.18,
      "duration": 2.31
    },
    {
      "text": "neighbor is a social he's got ten yard",
      "start": 361.289,
      "duration": 2.821
    },
    {
      "text": "signs of political content and they just",
      "start": 362.49,
      "duration": 3.929
    },
    {
      "text": "never get back to you well that's a",
      "start": 364.11,
      "duration": 5.279
    },
    {
      "text": "problem that's a problem in terms of are",
      "start": 366.419,
      "duration": 4.291
    },
    {
      "text": "they consistently applying their rules",
      "start": 369.389,
      "duration": 5.28
    },
    {
      "text": "now they are free of course to not",
      "start": 370.71,
      "duration": 8.07
    },
    {
      "text": "consistently apply their rules but but",
      "start": 374.669,
      "duration": 6.211
    },
    {
      "text": "if they claim that they are applying",
      "start": 378.78,
      "duration": 7.859
    },
    {
      "text": "their rules consistently then they have",
      "start": 380.88,
      "duration": 7.11
    },
    {
      "text": "to apply their rules consistently that's",
      "start": 386.639,
      "duration": 3.03
    },
    {
      "text": "part of the contract explicit or",
      "start": 387.99,
      "duration": 4.41
    },
    {
      "text": "implicit of having people invest time",
      "start": 389.669,
      "duration": 5.671
    },
    {
      "text": "and labor into your platform right so if",
      "start": 392.4,
      "duration": 5.34
    },
    {
      "text": "your neighbor has ten lawn signs you",
      "start": 395.34,
      "duration": 3.569
    },
    {
      "text": "look at that and you say well they're",
      "start": 397.74,
      "duration": 3.929
    },
    {
      "text": "fine so I guess we can do lawn sign",
      "start": 398.909,
      "duration": 4.29
    },
    {
      "text": "and you put up your libertarian loan",
      "start": 401.669,
      "duration": 4.171
    },
    {
      "text": "sign and then you get your house gets",
      "start": 403.199,
      "duration": 6.511
    },
    {
      "text": "deleted well then like the shouldn't you",
      "start": 405.84,
      "duration": 5.579
    },
    {
      "text": "delete his and then his gets to stay up",
      "start": 409.71,
      "duration": 3.419
    },
    {
      "text": "well then you have an inconsistency",
      "start": 411.419,
      "duration": 3.78
    },
    {
      "text": "problem and what's happened is you have",
      "start": 413.129,
      "duration": 5.37
    },
    {
      "text": "not been given the full facts regarding",
      "start": 415.199,
      "duration": 5.041
    },
    {
      "text": "your investment in building the house on",
      "start": 418.499,
      "duration": 3.561
    },
    {
      "text": "that particular piece of land you",
      "start": 420.24,
      "duration": 5.579
    },
    {
      "text": "weren't told socialist lawn signs are",
      "start": 422.06,
      "duration": 6.129
    },
    {
      "text": "fine but libertarian lawn signs were",
      "start": 425.819,
      "duration": 5.07
    },
    {
      "text": "gonna destroy your house now if you'd",
      "start": 428.189,
      "duration": 5.13
    },
    {
      "text": "have known that ahead of time then you",
      "start": 430.889,
      "duration": 3.691
    },
    {
      "text": "would not have put the libertarian lawn",
      "start": 433.319,
      "duration": 2.761
    },
    {
      "text": "sign or if you wanted a libertarian lawn",
      "start": 434.58,
      "duration": 2.639
    },
    {
      "text": "sign you would never built your house",
      "start": 436.08,
      "duration": 2.519
    },
    {
      "text": "there so if they'd said well you can",
      "start": 437.219,
      "duration": 2.611
    },
    {
      "text": "have socialist lawn signs you can't have",
      "start": 438.599,
      "duration": 3.12
    },
    {
      "text": "libertarian lawn signs you'd have made",
      "start": 439.83,
      "duration": 3.66
    },
    {
      "text": "your decisions accordingly but when they",
      "start": 441.719,
      "duration": 4.531
    },
    {
      "text": "have socialist lawn signs up and they",
      "start": 443.49,
      "duration": 4.5
    },
    {
      "text": "say we don't discriminate based upon",
      "start": 446.25,
      "duration": 5.759
    },
    {
      "text": "political content then clearly you're",
      "start": 447.99,
      "duration": 5.489
    },
    {
      "text": "allowed to have a libertarian sign but",
      "start": 452.009,
      "duration": 2.25
    },
    {
      "text": "if you're not allowed to have a",
      "start": 453.479,
      "duration": 2.16
    },
    {
      "text": "libertarian sign but they don't tell you",
      "start": 454.259,
      "duration": 6.03
    },
    {
      "text": "that well then you have a problem so if",
      "start": 455.639,
      "duration": 6.75
    },
    {
      "text": "it's hate speech if one group does it",
      "start": 460.289,
      "duration": 3.18
    },
    {
      "text": "but it's not hate speech if another",
      "start": 462.389,
      "duration": 2.25
    },
    {
      "text": "group does it you can threaten this",
      "start": 463.469,
      "duration": 2.31
    },
    {
      "text": "person but you can't threaten this",
      "start": 464.639,
      "duration": 3.09
    },
    {
      "text": "person is demographic can threaten this",
      "start": 465.779,
      "duration": 3.721
    },
    {
      "text": "but not in Reverse and so on they need",
      "start": 467.729,
      "duration": 3.24
    },
    {
      "text": "to be explicit about all of that so they",
      "start": 469.5,
      "duration": 5.31
    },
    {
      "text": "need to say up front that we do searches",
      "start": 470.969,
      "duration": 7.44
    },
    {
      "text": "for these keywords and we master leet",
      "start": 474.81,
      "duration": 5.099
    },
    {
      "text": "these accounts we shadow ban people",
      "start": 478.409,
      "duration": 4.5
    },
    {
      "text": "based upon these criteria and the vast",
      "start": 479.909,
      "duration": 6.66
    },
    {
      "text": "majority of our engineers and other",
      "start": 482.909,
      "duration": 6.66
    },
    {
      "text": "employees who have review power over",
      "start": 486.569,
      "duration": 5.4
    },
    {
      "text": "your account the vast majority of them",
      "start": 489.569,
      "duration": 6.451
    },
    {
      "text": "are left-wing so you're not gonna get a",
      "start": 491.969,
      "duration": 5.76
    },
    {
      "text": "fair shake right because see diversity",
      "start": 496.02,
      "duration": 3.329
    },
    {
      "text": "is really really good unless of course",
      "start": 497.729,
      "duration": 3.391
    },
    {
      "text": "diversity involves hiring conservatives",
      "start": 499.349,
      "duration": 4.081
    },
    {
      "text": "or non leftist in which case well you",
      "start": 501.12,
      "duration": 5.099
    },
    {
      "text": "just fighting Nazis so nothing wrong",
      "start": 503.43,
      "duration": 4.769
    },
    {
      "text": "with that so they need to say well we",
      "start": 506.219,
      "duration": 5.19
    },
    {
      "text": "have a leftist platform we strenuously",
      "start": 508.199,
      "duration": 5.57
    },
    {
      "text": "oppose an attempt to undermine",
      "start": 511.409,
      "duration": 4.62
    },
    {
      "text": "conservative white Christian accounts",
      "start": 513.769,
      "duration": 5.801
    },
    {
      "text": "and they're for sure you know we we hate",
      "start": 516.029,
      "duration": 5.341
    },
    {
      "text": "libertarianism we love socialism so the",
      "start": 519.57,
      "duration": 3.329
    },
    {
      "text": "guy with the socialist lawn science his",
      "start": 521.37,
      "duration": 2.88
    },
    {
      "text": "house can stay but your house what the",
      "start": 522.899,
      "duration": 3.151
    },
    {
      "text": "Hmong libertarian sign is gonna be toast",
      "start": 524.25,
      "duration": 3.72
    },
    {
      "text": "well you can make your decision then you",
      "start": 526.05,
      "duration": 3.3
    },
    {
      "text": "can say well do I really want to invest",
      "start": 527.97,
      "duration": 2.88
    },
    {
      "text": "my time and effort and labor and",
      "start": 529.35,
      "duration": 3.15
    },
    {
      "text": "hundreds or maybe even thousands of",
      "start": 530.85,
      "duration": 4.02
    },
    {
      "text": "hours building up an audience on a",
      "start": 532.5,
      "duration": 2.94
    },
    {
      "text": "platform",
      "start": 534.87,
      "duration": 2.45
    },
    {
      "text": "that has this particular prejudice",
      "start": 535.44,
      "duration": 5.91
    },
    {
      "text": "against me you know if they just mean if",
      "start": 537.32,
      "duration": 7.03
    },
    {
      "text": "you ain't white you're right again this",
      "start": 541.35,
      "duration": 5.13
    },
    {
      "text": "needs if if you're not a Christian right",
      "start": 544.35,
      "duration": 4.77
    },
    {
      "text": "they just need to be explicit about all",
      "start": 546.48,
      "duration": 4.29
    },
    {
      "text": "of that because otherwise it seems",
      "start": 549.12,
      "duration": 4.65
    },
    {
      "text": "pretty dishonest to me and it just seems",
      "start": 550.77,
      "duration": 5.85
    },
    {
      "text": "pretty dishonest they need to be clear",
      "start": 553.77,
      "duration": 5.52
    },
    {
      "text": "about the guidelines so they say it's",
      "start": 556.62,
      "duration": 4.08
    },
    {
      "text": "not written down one of these engineer",
      "start": 559.29,
      "duration": 2.79
    },
    {
      "text": "says well it's not written down but it's",
      "start": 560.7,
      "duration": 2.67
    },
    {
      "text": "kind of talked about and it's implicit",
      "start": 562.08,
      "duration": 2.76
    },
    {
      "text": "in the way it trickles down from the top",
      "start": 563.37,
      "duration": 4.29
    },
    {
      "text": "and so on like who we ban in right so",
      "start": 564.84,
      "duration": 6.3
    },
    {
      "text": "they just need to say we do moderate",
      "start": 567.66,
      "duration": 6.44
    },
    {
      "text": "based upon political content and we do",
      "start": 571.14,
      "duration": 5.61
    },
    {
      "text": "take action against accounts that go",
      "start": 574.1,
      "duration": 4.3
    },
    {
      "text": "against our political beliefs and our",
      "start": 576.75,
      "duration": 3.99
    },
    {
      "text": "political beliefs our x y\u0026z that this is",
      "start": 578.4,
      "duration": 5.55
    },
    {
      "text": "a leftist promotion platform and a non",
      "start": 580.74,
      "duration": 6.84
    },
    {
      "text": "leftist oppression platform and so you",
      "start": 583.95,
      "duration": 5.01
    },
    {
      "text": "need to make your decisions accordingly",
      "start": 587.58,
      "duration": 4.92
    },
    {
      "text": "if you're not on the left then you need",
      "start": 588.96,
      "duration": 4.82
    },
    {
      "text": "to make your decisions accordingly",
      "start": 592.5,
      "duration": 5.04
    },
    {
      "text": "that's being honest right that's being",
      "start": 593.78,
      "duration": 8.26
    },
    {
      "text": "honest and it's sort of like if you're",
      "start": 597.54,
      "duration": 6.24
    },
    {
      "text": "involved in an adjudication dispute",
      "start": 602.04,
      "duration": 2.97
    },
    {
      "text": "let's just pretend there's no such thing",
      "start": 603.78,
      "duration": 2.61
    },
    {
      "text": "as conflict of interest like with the",
      "start": 605.01,
      "duration": 3.57
    },
    {
      "text": "Clintons or something but if you're",
      "start": 606.39,
      "duration": 4.2
    },
    {
      "text": "involved in some sort of dispute and it",
      "start": 608.58,
      "duration": 4.26
    },
    {
      "text": "goes in front of a judge and they say",
      "start": 610.59,
      "duration": 4.62
    },
    {
      "text": "well which judge you want with the you",
      "start": 612.84,
      "duration": 4.29
    },
    {
      "text": "choose this judge and it turns out that",
      "start": 615.21,
      "duration": 4.62
    },
    {
      "text": "the judge is like best friends with your",
      "start": 617.13,
      "duration": 5.67
    },
    {
      "text": "opponent do you feel like that's fair",
      "start": 619.83,
      "duration": 4.68
    },
    {
      "text": "like if they'd said well the judge is",
      "start": 622.8,
      "duration": 2.88
    },
    {
      "text": "best friends with your opponent and you",
      "start": 624.51,
      "duration": 3.03
    },
    {
      "text": "just said well no I don't want to do",
      "start": 625.68,
      "duration": 5.04
    },
    {
      "text": "that right so as far as that goes",
      "start": 627.54,
      "duration": 5.4
    },
    {
      "text": "people need the information so they know",
      "start": 630.72,
      "duration": 4.8
    },
    {
      "text": "where to build their houses and if",
      "start": 632.94,
      "duration": 3.87
    },
    {
      "text": "they're building their house on a piece",
      "start": 635.52,
      "duration": 2.79
    },
    {
      "text": "of land that can be ank towei from them",
      "start": 636.81,
      "duration": 3.66
    },
    {
      "text": "for doing exactly what other people do",
      "start": 638.31,
      "duration": 3.72
    },
    {
      "text": "but with a different political content",
      "start": 640.47,
      "duration": 2.97
    },
    {
      "text": "or a different belief content different",
      "start": 642.03,
      "duration": 4.04
    },
    {
      "text": "ideological content that's a big problem",
      "start": 643.44,
      "duration": 5.13
    },
    {
      "text": "it's not being honest with people",
      "start": 646.07,
      "duration": 4.45
    },
    {
      "text": "because people spend a lot of time a lot",
      "start": 648.57,
      "duration": 4.019
    },
    {
      "text": "of time building up Twitter audience is",
      "start": 650.52,
      "duration": 3.27
    },
    {
      "text": "building up their following on social",
      "start": 652.589,
      "duration": 5.311
    },
    {
      "text": "media and if they are going to be judged",
      "start": 653.79,
      "duration": 6.63
    },
    {
      "text": "according to the content then that needs",
      "start": 657.9,
      "duration": 3.71
    },
    {
      "text": "to be explicit in the Terms of Service",
      "start": 660.42,
      "duration": 3.57
    },
    {
      "text": "here are the search terms we use and it",
      "start": 661.61,
      "duration": 3.76
    },
    {
      "text": "needs to be updated needs to be public",
      "start": 663.99,
      "duration": 3.48
    },
    {
      "text": "needs to be transparent it needs to be",
      "start": 665.37,
      "duration": 3.18
    },
    {
      "text": "transparent right",
      "start": 667.47,
      "duration": 4.8
    },
    {
      "text": "and so sure they do have the right to",
      "start": 668.55,
      "duration": 5.97
    },
    {
      "text": "discriminate against whoever they wanted",
      "start": 672.27,
      "duration": 4.77
    },
    {
      "text": "but do they have the right and I'm no",
      "start": 674.52,
      "duration": 3.72
    },
    {
      "text": "lawyer I'm just sort of asking the",
      "start": 677.04,
      "duration": 3.77
    },
    {
      "text": "question do they have the right to",
      "start": 678.24,
      "duration": 5.19
    },
    {
      "text": "represent that they have an objective",
      "start": 680.81,
      "duration": 6.84
    },
    {
      "text": "process when they don't do they say well",
      "start": 683.43,
      "duration": 6.54
    },
    {
      "text": "here are the standards by which we are",
      "start": 687.65,
      "duration": 4.78
    },
    {
      "text": "gonna get get into trouble but then they",
      "start": 689.97,
      "duration": 3.87
    },
    {
      "text": "don't apply those standards consistently",
      "start": 692.43,
      "duration": 2.79
    },
    {
      "text": "in other words if there's a bias in the",
      "start": 693.84,
      "duration": 4.25
    },
    {
      "text": "application of standards should people",
      "start": 695.22,
      "duration": 6.51
    },
    {
      "text": "know about that should people know about",
      "start": 698.09,
      "duration": 9.34
    },
    {
      "text": "that like if if someone someone fly if",
      "start": 701.73,
      "duration": 7.17
    },
    {
      "text": "someone says come fly out for this job",
      "start": 707.43,
      "duration": 2.94
    },
    {
      "text": "interview like we're not gonna pay for",
      "start": 708.9,
      "duration": 2.67
    },
    {
      "text": "it because you know it's a good job and",
      "start": 710.37,
      "duration": 2.4
    },
    {
      "text": "all that but if you want to fly out for",
      "start": 711.57,
      "duration": 2.69
    },
    {
      "text": "the job interview that's great",
      "start": 712.77,
      "duration": 5.46
    },
    {
      "text": "and you're gonna say well how am I kinda",
      "start": 714.26,
      "duration": 6.19
    },
    {
      "text": "in the in the running is a decent chance",
      "start": 718.23,
      "duration": 3.72
    },
    {
      "text": "that I'm gonna get it and people say oh",
      "start": 720.45,
      "duration": 3.39
    },
    {
      "text": "yeah you know it's still a wide-open",
      "start": 721.95,
      "duration": 3.33
    },
    {
      "text": "field we haven't made any final",
      "start": 723.84,
      "duration": 3.96
    },
    {
      "text": "decisions you know everyone's got equal",
      "start": 725.28,
      "duration": 5.52
    },
    {
      "text": "standing then so you spend a thousand",
      "start": 727.8,
      "duration": 4.98
    },
    {
      "text": "bucks you fly out you know you sleep in",
      "start": 730.8,
      "duration": 3.09
    },
    {
      "text": "your car you go to the interview or",
      "start": 732.78,
      "duration": 2.49
    },
    {
      "text": "whatever and then they say oh no",
      "start": 733.89,
      "duration": 3.57
    },
    {
      "text": "actually um I mean I just ended up my",
      "start": 735.27,
      "duration": 3.9
    },
    {
      "text": "brother applied for the job months ago",
      "start": 737.46,
      "duration": 3.99
    },
    {
      "text": "and he's a perfect fit so we just we",
      "start": 739.17,
      "duration": 4.2
    },
    {
      "text": "hired him we just we're doing this for",
      "start": 741.45,
      "duration": 3.75
    },
    {
      "text": "show right we just we want to pretend",
      "start": 743.37,
      "duration": 3.12
    },
    {
      "text": "that it wasn't a nepotism or whatever",
      "start": 745.2,
      "duration": 3.81
    },
    {
      "text": "are you gonna be pissed well they have",
      "start": 746.49,
      "duration": 4.17
    },
    {
      "text": "the right to hire their own brother they",
      "start": 749.01,
      "duration": 3.3
    },
    {
      "text": "have the right to you know not hire you",
      "start": 750.66,
      "duration": 4.02
    },
    {
      "text": "it's perfectly free it's like yeah but I",
      "start": 752.31,
      "duration": 4.68
    },
    {
      "text": "don't know there's in this situation the",
      "start": 754.68,
      "duration": 4.25
    },
    {
      "text": "company wasn't particularly upfront",
      "start": 756.99,
      "duration": 5.16
    },
    {
      "text": "about where things were they had a bias",
      "start": 758.93,
      "duration": 4.66
    },
    {
      "text": "towards hiring someone they didn't tell",
      "start": 762.15,
      "duration": 2.58
    },
    {
      "text": "you about it you ended up spending a",
      "start": 763.59,
      "duration": 4.11
    },
    {
      "text": "thousand bucks go out go to the job",
      "start": 764.73,
      "duration": 4.35
    },
    {
      "text": "interview just to be told that you just",
      "start": 767.7,
      "duration": 5.01
    },
    {
      "text": "wasted your money in your time well do",
      "start": 769.08,
      "duration": 4.68
    },
    {
      "text": "they have the right to hire the bread",
      "start": 772.71,
      "duration": 2.31
    },
    {
      "text": "sure they have the right not to hire you",
      "start": 773.76,
      "duration": 5.81
    },
    {
      "text": "yeah but should they tell you upfront",
      "start": 775.02,
      "duration": 10.05
    },
    {
      "text": "about what your chances are of course",
      "start": 779.57,
      "duration": 9.58
    },
    {
      "text": "they should of course they should it's",
      "start": 785.07,
      "duration": 7.74
    },
    {
      "text": "wrong right now that having been said so",
      "start": 789.15,
      "duration": 5.16
    },
    {
      "text": "people say well these companies have the",
      "start": 792.81,
      "duration": 5.64
    },
    {
      "text": "right to discriminate okay let's put",
      "start": 794.31,
      "duration": 5.88
    },
    {
      "text": "everything else aside and let's say they",
      "start": 798.45,
      "duration": 3.36
    },
    {
      "text": "have the right to discriminate which of",
      "start": 800.19,
      "duration": 2.03
    },
    {
      "text": "course I have",
      "start": 801.81,
      "duration": 3.08
    },
    {
      "text": "if they do what they do I mean if a",
      "start": 802.22,
      "duration": 4.53
    },
    {
      "text": "woman has a right to say no to a man who",
      "start": 804.89,
      "duration": 5.22
    },
    {
      "text": "asks her out then everyone has the right",
      "start": 806.75,
      "duration": 4.56
    },
    {
      "text": "to discriminate because that's",
      "start": 810.11,
      "duration": 3.3
    },
    {
      "text": "discriminatory the discriminatory used",
      "start": 811.31,
      "duration": 3.8
    },
    {
      "text": "to be such a good word you know he has",
      "start": 813.41,
      "duration": 6.06
    },
    {
      "text": "discriminatory tastes in wine but okay",
      "start": 815.11,
      "duration": 6.43
    },
    {
      "text": "so then we have a principle here we have",
      "start": 819.47,
      "duration": 4.89
    },
    {
      "text": "a principle which is that companies have",
      "start": 821.54,
      "duration": 5.88
    },
    {
      "text": "the right to associate and do business",
      "start": 824.36,
      "duration": 4.65
    },
    {
      "text": "with whoever they want and they can use",
      "start": 827.42,
      "duration": 2.88
    },
    {
      "text": "whatever prejudice they want they can",
      "start": 829.01,
      "duration": 2.76
    },
    {
      "text": "use whatever political standards they",
      "start": 830.3,
      "duration": 3.26
    },
    {
      "text": "can use whatever bigotries whatever",
      "start": 831.77,
      "duration": 3.69
    },
    {
      "text": "ideological approach they can do",
      "start": 833.56,
      "duration": 4.63
    },
    {
      "text": "whatever they want and they should never",
      "start": 835.46,
      "duration": 4.14
    },
    {
      "text": "effort be forced to do business with",
      "start": 838.19,
      "duration": 2.73
    },
    {
      "text": "someone that they don't want to do",
      "start": 839.6,
      "duration": 5.13
    },
    {
      "text": "business with okay well that's a very",
      "start": 840.92,
      "duration": 6.06
    },
    {
      "text": "very big thing to talk about because",
      "start": 844.73,
      "duration": 4.08
    },
    {
      "text": "that means that you have to get rid of",
      "start": 846.98,
      "duration": 3.6
    },
    {
      "text": "affirmative action right that means you",
      "start": 848.81,
      "duration": 3.78
    },
    {
      "text": "have to get rid of I think it was in the",
      "start": 850.58,
      "duration": 4.56
    },
    {
      "text": "six and mid sixties equal pay for work",
      "start": 852.59,
      "duration": 3.84
    },
    {
      "text": "of equal value where the government",
      "start": 855.14,
      "duration": 3.03
    },
    {
      "text": "forced employers to put everyone in the",
      "start": 856.43,
      "duration": 4.16
    },
    {
      "text": "category and pay men and women the same",
      "start": 858.17,
      "duration": 5.46
    },
    {
      "text": "so that means that you can't have any",
      "start": 860.59,
      "duration": 5.92
    },
    {
      "text": "preferential hiring policies at all",
      "start": 863.63,
      "duration": 6.96
    },
    {
      "text": "based on race on on ethnicity on gender",
      "start": 866.51,
      "duration": 7.2
    },
    {
      "text": "on anything like that so boy if",
      "start": 870.59,
      "duration": 4.53
    },
    {
      "text": "companies can discriminate against",
      "start": 873.71,
      "duration": 4.2
    },
    {
      "text": "whoever they want to we have a huge",
      "start": 875.12,
      "duration": 4.74
    },
    {
      "text": "legislative task throughout the entire",
      "start": 877.91,
      "duration": 4.38
    },
    {
      "text": "West a huge legislative task which is",
      "start": 879.86,
      "duration": 4.17
    },
    {
      "text": "distant business mantel all of these",
      "start": 882.29,
      "duration": 4.92
    },
    {
      "text": "damn quota systems and all of these like",
      "start": 884.03,
      "duration": 5.13
    },
    {
      "text": "then there can't be anything to do with",
      "start": 887.21,
      "duration": 3.93
    },
    {
      "text": "maternity leave legislation there can't",
      "start": 889.16,
      "duration": 3.39
    },
    {
      "text": "be anything to do with any kind of",
      "start": 891.14,
      "duration": 3.21
    },
    {
      "text": "preferential hyoe because you see if",
      "start": 892.55,
      "duration": 4.5
    },
    {
      "text": "companies can discriminate against white",
      "start": 894.35,
      "duration": 4.83
    },
    {
      "text": "conservative Christians then they can",
      "start": 897.05,
      "duration": 4.71
    },
    {
      "text": "discriminate against everyone unless",
      "start": 899.18,
      "duration": 4.86
    },
    {
      "text": "you're a complete racist and say company",
      "start": 901.76,
      "duration": 3.24
    },
    {
      "text": "should only be able to discriminate",
      "start": 904.04,
      "duration": 4.14
    },
    {
      "text": "against white people so we have to we",
      "start": 905,
      "duration": 4.83
    },
    {
      "text": "have a huge task and we've really got to",
      "start": 908.18,
      "duration": 4.5
    },
    {
      "text": "have this conversation because people",
      "start": 909.83,
      "duration": 5.34
    },
    {
      "text": "are all over the web admitting and and",
      "start": 912.68,
      "duration": 4.8
    },
    {
      "text": "focusing on and reinforcing and making",
      "start": 915.17,
      "duration": 5.34
    },
    {
      "text": "the argument that companies have the",
      "start": 917.48,
      "duration": 4.62
    },
    {
      "text": "perfect right to discriminate against",
      "start": 920.51,
      "duration": 3.33
    },
    {
      "text": "whoever they want whenever they want",
      "start": 922.1,
      "duration": 3.96
    },
    {
      "text": "however they want in any category that",
      "start": 923.84,
      "duration": 7.2
    },
    {
      "text": "they want so boom that's it for quota",
      "start": 926.06,
      "duration": 6.6
    },
    {
      "text": "systems that's it for affirmative action",
      "start": 931.04,
      "duration": 4.14
    },
    {
      "text": "what about universities universities in",
      "start": 932.66,
      "duration": 3.48
    },
    {
      "text": "many places in",
      "start": 935.18,
      "duration": 3.93
    },
    {
      "text": "naca add scores to blacks and subtract",
      "start": 936.14,
      "duration": 5.52
    },
    {
      "text": "scores from East Asians from the Chinese",
      "start": 939.11,
      "duration": 6.87
    },
    {
      "text": "Japanese and selenite well that's wrong",
      "start": 941.66,
      "duration": 7.5
    },
    {
      "text": "because you can't you have the right to",
      "start": 945.98,
      "duration": 4.41
    },
    {
      "text": "discriminate against whoever you want",
      "start": 949.16,
      "duration": 2.88
    },
    {
      "text": "you can just take red-headed people from",
      "start": 950.39,
      "duration": 3.42
    },
    {
      "text": "County Cork if you want perfectly fine",
      "start": 952.04,
      "duration": 3.78
    },
    {
      "text": "perfectly valid you can never ever",
      "start": 953.81,
      "duration": 4.53
    },
    {
      "text": "complain about racism in a company or",
      "start": 955.82,
      "duration": 5.04
    },
    {
      "text": "sexism or anything like that like if a",
      "start": 958.34,
      "duration": 6.96
    },
    {
      "text": "company wants to hire someone and a",
      "start": 960.86,
      "duration": 6.36
    },
    {
      "text": "young woman applies and she's recently",
      "start": 965.3,
      "duration": 7.29
    },
    {
      "text": "married and well that young woman is a",
      "start": 967.22,
      "duration": 7.14
    },
    {
      "text": "pretty substantial chance of having a",
      "start": 972.59,
      "duration": 3.06
    },
    {
      "text": "kid within the next couple of years",
      "start": 974.36,
      "duration": 3.57
    },
    {
      "text": "which means she wants to be a good mom",
      "start": 975.65,
      "duration": 3.45
    },
    {
      "text": "she's gonna be breastfeeding for the",
      "start": 977.93,
      "duration": 2.73
    },
    {
      "text": "recommended year-and-a-half and so on",
      "start": 979.1,
      "duration": 2.85
    },
    {
      "text": "she may come back she may not come back",
      "start": 980.66,
      "duration": 2.76
    },
    {
      "text": "if she does come back she's gonna have",
      "start": 981.95,
      "duration": 3.66
    },
    {
      "text": "diminished capacity to stay late travel",
      "start": 983.42,
      "duration": 3.33
    },
    {
      "text": "and work weekends because she's got a",
      "start": 985.61,
      "duration": 3.81
    },
    {
      "text": "kid and so maybe you hire the man over",
      "start": 986.75,
      "duration": 8.34
    },
    {
      "text": "the woman well nobody can nobody can",
      "start": 989.42,
      "duration": 8.76
    },
    {
      "text": "complain about that anymore right and so",
      "start": 995.09,
      "duration": 5.67
    },
    {
      "text": "oh if companies want to say well I'm",
      "start": 998.18,
      "duration": 3.84
    },
    {
      "text": "just gonna forget I don't care about",
      "start": 1000.76,
      "duration": 3
    },
    {
      "text": "college I don't want to I mean college",
      "start": 1002.02,
      "duration": 3.27
    },
    {
      "text": "is ridiculous because if I get someone",
      "start": 1003.76,
      "duration": 3.54
    },
    {
      "text": "coming in from college particularly if",
      "start": 1005.29,
      "duration": 3
    },
    {
      "text": "they have an arts degree they're gonna",
      "start": 1007.3,
      "duration": 2.31
    },
    {
      "text": "hate the free market they're gonna hate",
      "start": 1008.29,
      "duration": 2.61
    },
    {
      "text": "me as a boss they're gonna think if I'm",
      "start": 1009.61,
      "duration": 2.67
    },
    {
      "text": "an exploiter they've been programmed by",
      "start": 1010.9,
      "duration": 3.63
    },
    {
      "text": "Marxist idiot robots to hate the free",
      "start": 1012.28,
      "duration": 4.14
    },
    {
      "text": "market so why on earth what I want any",
      "start": 1014.53,
      "duration": 4.95
    },
    {
      "text": "of these people in my business so forget",
      "start": 1016.42,
      "duration": 4.08
    },
    {
      "text": "about all of that I don't care about",
      "start": 1019.48,
      "duration": 2.37
    },
    {
      "text": "college plus they're gonna have a lot of",
      "start": 1020.5,
      "duration": 3.69
    },
    {
      "text": "debt that they're gonna be complaining",
      "start": 1021.85,
      "duration": 4.979
    },
    {
      "text": "about and they're gonna want higher pay",
      "start": 1024.19,
      "duration": 4.41
    },
    {
      "text": "because they're in debt are you here in",
      "start": 1026.829,
      "duration": 3.571
    },
    {
      "text": "debt for $50,000 you need more money",
      "start": 1028.6,
      "duration": 3.06
    },
    {
      "text": "than somebody who isn't debt so I'm",
      "start": 1030.4,
      "duration": 2.49
    },
    {
      "text": "gonna end up paying for their student",
      "start": 1031.66,
      "duration": 3.6
    },
    {
      "text": "loan I'm gonna end up paying through",
      "start": 1032.89,
      "duration": 4.68
    },
    {
      "text": "proxy for the indoctrination of the next",
      "start": 1035.26,
      "duration": 5.63
    },
    {
      "text": "generation by pumping up the income of",
      "start": 1037.57,
      "duration": 5.55
    },
    {
      "text": "universities and of course I mean",
      "start": 1040.89,
      "duration": 3.49
    },
    {
      "text": "student loans should be subject to",
      "start": 1043.12,
      "duration": 2.88
    },
    {
      "text": "bankruptcy laws of course it should of",
      "start": 1044.38,
      "duration": 4.74
    },
    {
      "text": "course it should because that way more",
      "start": 1046,
      "duration": 4.41
    },
    {
      "text": "students could declare bankruptcy get",
      "start": 1049.12,
      "duration": 2.64
    },
    {
      "text": "out from under their student loans and",
      "start": 1050.41,
      "duration": 3.51
    },
    {
      "text": "then banks will be less likely to lend",
      "start": 1051.76,
      "duration": 4.59
    },
    {
      "text": "to students to get into useless degrees",
      "start": 1053.92,
      "duration": 3.63
    },
    {
      "text": "which means that people will actually",
      "start": 1056.35,
      "duration": 3.06
    },
    {
      "text": "have to work for a living and contribute",
      "start": 1057.55,
      "duration": 3.75
    },
    {
      "text": "something of value to society other than",
      "start": 1059.41,
      "duration": 3.36
    },
    {
      "text": "producing another generation of read",
      "start": 1061.3,
      "duration": 3.12
    },
    {
      "text": "based termites to chewed through the",
      "start": 1062.77,
      "duration": 3.03
    },
    {
      "text": "foundations of everything that we value",
      "start": 1064.42,
      "duration": 2.59
    },
    {
      "text": "so",
      "start": 1065.8,
      "duration": 4.07
    },
    {
      "text": "you could say as a corporation you could",
      "start": 1067.01,
      "duration": 4.419
    },
    {
      "text": "say I don't care about I don't want",
      "start": 1069.87,
      "duration": 3.66
    },
    {
      "text": "anyone from college fundamentally I just",
      "start": 1071.429,
      "duration": 4.681
    },
    {
      "text": "just and an our IQ test and our",
      "start": 1073.53,
      "duration": 4.32
    },
    {
      "text": "intelligence test that's all and even",
      "start": 1076.11,
      "duration": 3.36
    },
    {
      "text": "statistically that's all you do need and",
      "start": 1077.85,
      "duration": 2.76
    },
    {
      "text": "I don't even need an HR department",
      "start": 1079.47,
      "duration": 2.64
    },
    {
      "text": "because I'm allowed to discriminate",
      "start": 1080.61,
      "duration": 2.64
    },
    {
      "text": "against whoever I want that's no",
      "start": 1082.11,
      "duration": 3.18
    },
    {
      "text": "diversity there's no quotas anything",
      "start": 1083.25,
      "duration": 3.36
    },
    {
      "text": "like that so I don't need an HR",
      "start": 1085.29,
      "duration": 3.03
    },
    {
      "text": "department therefore I can get rid of",
      "start": 1086.61,
      "duration": 3.72
    },
    {
      "text": "this big giant pen to put women who",
      "start": 1088.32,
      "duration": 3.69
    },
    {
      "text": "can't produce things that the business",
      "start": 1090.33,
      "duration": 4.04
    },
    {
      "text": "needs is a core value and so on so I",
      "start": 1092.01,
      "duration": 5.19
    },
    {
      "text": "just have an IQ test me to take whoever",
      "start": 1094.37,
      "duration": 4.57
    },
    {
      "text": "scores 120 or more on the IQ test I",
      "start": 1097.2,
      "duration": 3
    },
    {
      "text": "don't care about their education I don't",
      "start": 1098.94,
      "duration": 2.55
    },
    {
      "text": "care about their college degrees or",
      "start": 1100.2,
      "duration": 3.24
    },
    {
      "text": "anything like that well everyone should",
      "start": 1101.49,
      "duration": 3.689
    },
    {
      "text": "say well fantastic it's really",
      "start": 1103.44,
      "duration": 3.78
    },
    {
      "text": "economically efficient it's gonna save a",
      "start": 1105.179,
      "duration": 3.691
    },
    {
      "text": "huge amount of money it's gonna allow",
      "start": 1107.22,
      "duration": 3.27
    },
    {
      "text": "the company to grow it's gonna reduce",
      "start": 1108.87,
      "duration": 3.059
    },
    {
      "text": "the price of whatever it is they put out",
      "start": 1110.49,
      "duration": 3.3
    },
    {
      "text": "which is great for the poor so boom you",
      "start": 1111.929,
      "duration": 3.75
    },
    {
      "text": "see private companies have the right to",
      "start": 1113.79,
      "duration": 4.76
    },
    {
      "text": "discriminate against whoever they want",
      "start": 1115.679,
      "duration": 6.811
    },
    {
      "text": "so let's make that a principle and I'm",
      "start": 1118.55,
      "duration": 5.68
    },
    {
      "text": "actually down with all of that but if",
      "start": 1122.49,
      "duration": 3.87
    },
    {
      "text": "you just make a discriminatory well you",
      "start": 1124.23,
      "duration": 3.66
    },
    {
      "text": "see companies can discriminate against",
      "start": 1126.36,
      "duration": 2.22
    },
    {
      "text": "whoever they want",
      "start": 1127.89,
      "duration": 2.76
    },
    {
      "text": "if whoever they want is white male",
      "start": 1128.58,
      "duration": 6.479
    },
    {
      "text": "Christians in general well sorry you're",
      "start": 1130.65,
      "duration": 6.86
    },
    {
      "text": "just a big",
      "start": 1135.059,
      "duration": 2.451
    }
  ],
  "Errors": null,
  "TranscriptStderr": null
}