{
  "Title": "Stefan Molyneux Free Speech Event Under Attack!",
  "Id": "4udbH3t2J8o",
  "Transcript": [
    {
      "text": "so I'm going to be giving a speech in",
      "start": 0.03,
      "duration": 9.39
    },
    {
      "text": "Vancouver on March the 15th 2019 and",
      "start": 3.89,
      "duration": 8.169
    },
    {
      "text": "it's going to be about free speech its",
      "start": 9.42,
      "duration": 4.92
    },
    {
      "text": "importance the consequences of losing it",
      "start": 12.059,
      "duration": 6.241
    },
    {
      "text": "and what's happened of course I was",
      "start": 14.34,
      "duration": 7.83
    },
    {
      "text": "asked today on Twitter how I thought",
      "start": 18.3,
      "duration": 6.95
    },
    {
      "text": "George Orwell would be characterized at",
      "start": 22.17,
      "duration": 6.359
    },
    {
      "text": "this time in the 21st century and this",
      "start": 25.25,
      "duration": 6.49
    },
    {
      "text": "was by a teacher who had taught 1984 for",
      "start": 28.529,
      "duration": 6.271
    },
    {
      "text": "10 years and I said that I was very",
      "start": 31.74,
      "duration": 5.4
    },
    {
      "text": "clear and very certain about this I said",
      "start": 34.8,
      "duration": 4.259
    },
    {
      "text": "that he would be attacked relentlessly",
      "start": 37.14,
      "duration": 5.61
    },
    {
      "text": "as a far-right propagandist what because",
      "start": 39.059,
      "duration": 6.031
    },
    {
      "text": "he was criticizing socialism he was",
      "start": 42.75,
      "duration": 4.85
    },
    {
      "text": "criticizing communism he was criticizing",
      "start": 45.09,
      "duration": 6.87
    },
    {
      "text": "collectivism large state apparatus so",
      "start": 47.6,
      "duration": 7.299
    },
    {
      "text": "the better you are at criticizing",
      "start": 51.96,
      "duration": 5.46
    },
    {
      "text": "communism the more you will be portrayed",
      "start": 54.899,
      "duration": 6.421
    },
    {
      "text": "as a far-right extremist as a Nazi as a",
      "start": 57.42,
      "duration": 6.629
    },
    {
      "text": "fascist because this false dichotomy is",
      "start": 61.32,
      "duration": 4.979
    },
    {
      "text": "what they want to set up that you either",
      "start": 64.049,
      "duration": 4.14
    },
    {
      "text": "accept all of the lovely gifts of",
      "start": 66.299,
      "duration": 4.201
    },
    {
      "text": "socialism or you're not see right so",
      "start": 68.189,
      "duration": 3.841
    },
    {
      "text": "this is the false dichotomy that was set",
      "start": 70.5,
      "duration": 3.93
    },
    {
      "text": "up and that is set up regularly has been",
      "start": 72.03,
      "duration": 3.9
    },
    {
      "text": "throughout history it's what course all",
      "start": 74.43,
      "duration": 3.329
    },
    {
      "text": "those street riots in Germany in 1930s",
      "start": 75.93,
      "duration": 3.95
    },
    {
      "text": "but know how that all turned out and",
      "start": 77.759,
      "duration": 4.441
    },
    {
      "text": "what's happening well Loren southern and",
      "start": 79.88,
      "duration": 4.54
    },
    {
      "text": "I are ganging up together I suppose to",
      "start": 82.2,
      "duration": 4.83
    },
    {
      "text": "do another great evening our philosophy",
      "start": 84.42,
      "duration": 4.949
    },
    {
      "text": "in conversation and curiosity and data",
      "start": 87.03,
      "duration": 3.93
    },
    {
      "text": "and reason and evidence and all of that",
      "start": 89.369,
      "duration": 3.841
    },
    {
      "text": "good intellectual stuff and what is",
      "start": 90.96,
      "duration": 3.799
    },
    {
      "text": "happening so this is from the",
      "start": 93.21,
      "duration": 5.67
    },
    {
      "text": "post-millennial an tyfa harasses",
      "start": 94.759,
      "duration": 6.011
    },
    {
      "text": "vancouver greek orthodox community of a",
      "start": 98.88,
      "duration": 5.07
    },
    {
      "text": "free speech event and this is going to",
      "start": 100.77,
      "duration": 5.489
    },
    {
      "text": "be at 7:00 p.m. March the 15th and",
      "start": 103.95,
      "duration": 4.739
    },
    {
      "text": "what's happening the Hellenic community",
      "start": 106.259,
      "duration": 5.491
    },
    {
      "text": "of Vancouver H CV has been threatened",
      "start": 108.689,
      "duration": 4.621
    },
    {
      "text": "and intimidated by far-left",
      "start": 111.75,
      "duration": 3.39
    },
    {
      "text": "activists after being booked as a venue",
      "start": 113.31,
      "duration": 3.15
    },
    {
      "text": "by the University of British Columbia",
      "start": 115.14,
      "duration": 5.43
    },
    {
      "text": "free speech club the venue which also",
      "start": 116.46,
      "duration": 5.79
    },
    {
      "text": "includes us in George's Greek Orthodox",
      "start": 120.57,
      "duration": 3.479
    },
    {
      "text": "Church has said that it has been at the",
      "start": 122.25,
      "duration": 3.21
    },
    {
      "text": "receiving end of an online harassment",
      "start": 124.049,
      "duration": 4.08
    },
    {
      "text": "campaign for simply booking their space",
      "start": 125.46,
      "duration": 6.09
    },
    {
      "text": "to the club the attacks against our",
      "start": 128.129,
      "duration": 5.501
    },
    {
      "text": "community are unwarranted offending into",
      "start": 131.55,
      "duration": 4.27
    },
    {
      "text": "Despicable said Hellenic community",
      "start": 133.63,
      "duration": 4.8
    },
    {
      "text": "president Dimitri embolus the free",
      "start": 135.82,
      "duration": 4.2
    },
    {
      "text": "speech Club has hosted American",
      "start": 138.43,
      "duration": 3.39
    },
    {
      "text": "political commentator and lawyer ben",
      "start": 140.02,
      "duration": 2.25
    },
    {
      "text": "shapiro",
      "start": 141.82,
      "duration": 2.55
    },
    {
      "text": "and canadian psychology professor dr.",
      "start": 142.27,
      "duration": 4.62
    },
    {
      "text": "jordan B Peterson in the past",
      "start": 144.37,
      "duration": 4.62
    },
    {
      "text": "now of course Lauren Southern and I and",
      "start": 146.89,
      "duration": 6.45
    },
    {
      "text": "what do we four have in common well we",
      "start": 148.99,
      "duration": 6.75
    },
    {
      "text": "are critical of socialism and",
      "start": 153.34,
      "duration": 5.13
    },
    {
      "text": "collectivism and communism and big state",
      "start": 155.74,
      "duration": 5.7
    },
    {
      "text": "control of language and the economy and",
      "start": 158.47,
      "duration": 6.71
    },
    {
      "text": "the mindset of people and of course of",
      "start": 161.44,
      "duration": 6.77
    },
    {
      "text": "the governed control of education so you",
      "start": 165.18,
      "duration": 6.73
    },
    {
      "text": "can see the pattern that is going on",
      "start": 168.21,
      "duration": 8.11
    },
    {
      "text": "that while you may still have the right",
      "start": 171.91,
      "duration": 8.61
    },
    {
      "text": "to free speech in theory the right to",
      "start": 176.32,
      "duration": 7.53
    },
    {
      "text": "free speech in practice is being",
      "start": 180.52,
      "duration": 4.86
    },
    {
      "text": "severely curtailed now how are they",
      "start": 183.85,
      "duration": 3.93
    },
    {
      "text": "going about it well with threats and",
      "start": 185.38,
      "duration": 4.71
    },
    {
      "text": "with a sort of economic and",
      "start": 187.78,
      "duration": 4.38
    },
    {
      "text": "psychological form of warfare which",
      "start": 190.09,
      "duration": 4.23
    },
    {
      "text": "we'll get into silicium change in venue",
      "start": 192.16,
      "duration": 5.07
    },
    {
      "text": "after high security costs from UBC the",
      "start": 194.32,
      "duration": 4.53
    },
    {
      "text": "free speech Club has rented the space",
      "start": 197.23,
      "duration": 2.79
    },
    {
      "text": "for an appearance featuring",
      "start": 198.85,
      "duration": 3.06
    },
    {
      "text": "self-described libertarian youtuber",
      "start": 200.02,
      "duration": 3.21
    },
    {
      "text": "stefan molyneux and documentary",
      "start": 201.91,
      "duration": 2.61
    },
    {
      "text": "filmmaker and political commentator",
      "start": 203.23,
      "duration": 3.75
    },
    {
      "text": "lauren southern leaf at the event is set",
      "start": 204.52,
      "duration": 4.59
    },
    {
      "text": "to take place on Friday March 15 at 7:00",
      "start": 206.98,
      "duration": 4.04
    },
    {
      "text": "p.m.",
      "start": 209.11,
      "duration": 4.17
    },
    {
      "text": "originally the club intended on hosting",
      "start": 211.02,
      "duration": 4.03
    },
    {
      "text": "the event of the UBC on the UBC campus",
      "start": 213.28,
      "duration": 3.75
    },
    {
      "text": "at the Chan Center for the Performing",
      "start": 215.05,
      "duration": 4.68
    },
    {
      "text": "Arts but had to change venues after the",
      "start": 217.03,
      "duration": 5.27
    },
    {
      "text": "venue's security casts became",
      "start": 219.73,
      "duration": 7.47
    },
    {
      "text": "unmanageable again that's how they do it",
      "start": 222.3,
      "duration": 6.4
    },
    {
      "text": "as there are these threats there are",
      "start": 227.2,
      "duration": 5.67
    },
    {
      "text": "these threats of you know who knows you",
      "start": 228.7,
      "duration": 6.27
    },
    {
      "text": "name it right and therefore the security",
      "start": 232.87,
      "duration": 4.65
    },
    {
      "text": "costs become too expensive and the",
      "start": 234.97,
      "duration": 5.31
    },
    {
      "text": "nervousness perhaps of the facility",
      "start": 237.52,
      "duration": 5.43
    },
    {
      "text": "owners becomes too great and that's how",
      "start": 240.28,
      "duration": 4.23
    },
    {
      "text": "you get a platform right so they can do",
      "start": 242.95,
      "duration": 4.71
    },
    {
      "text": "platform you online by spreading lies",
      "start": 244.51,
      "duration": 4.949
    },
    {
      "text": "about you and making up these hysteria",
      "start": 247.66,
      "duration": 3.63
    },
    {
      "text": "sand and so on and then what they can do",
      "start": 249.459,
      "duration": 3.241
    },
    {
      "text": "is they can shut you down from going out",
      "start": 251.29,
      "duration": 2.61
    },
    {
      "text": "to speak to people which offend",
      "start": 252.7,
      "duration": 3.15
    },
    {
      "text": "essentially steals you up and kills your",
      "start": 253.9,
      "duration": 4.38
    },
    {
      "text": "capacity to communicate with people who",
      "start": 255.85,
      "duration": 4.98
    },
    {
      "text": "want to come for a peaceful evening of",
      "start": 258.28,
      "duration": 6.139
    },
    {
      "text": "philosophy and thought and debate and",
      "start": 260.83,
      "duration": 6.59
    },
    {
      "text": "this is where we are this is a terrible",
      "start": 264.419,
      "duration": 7.551
    },
    {
      "text": "horrible place for our society to be and",
      "start": 267.42,
      "duration": 8.19
    },
    {
      "text": "it is like being a freethinker under a",
      "start": 271.97,
      "duration": 7.02
    },
    {
      "text": "theocracy it is like being an atheist",
      "start": 275.61,
      "duration": 7.08
    },
    {
      "text": "under a powerful theocratic despotism it",
      "start": 278.99,
      "duration": 6.73
    },
    {
      "text": "is a dangerous and difficult and costly",
      "start": 282.69,
      "duration": 7.49
    },
    {
      "text": "situation to speak your mind in the West",
      "start": 285.72,
      "duration": 7.08
    },
    {
      "text": "we all know it and you can see it",
      "start": 290.18,
      "duration": 5.05
    },
    {
      "text": "manifesting in this this kind of these",
      "start": 292.8,
      "duration": 4.56
    },
    {
      "text": "kinds of attacks the article goes on to",
      "start": 295.23,
      "duration": 3.9
    },
    {
      "text": "say the chance Center has hosted prior",
      "start": 297.36,
      "duration": 3.12
    },
    {
      "text": "events by the Free Speech Club including",
      "start": 299.13,
      "duration": 2.85
    },
    {
      "text": "an evening featuring featuring dr.",
      "start": 300.48,
      "duration": 3.72
    },
    {
      "text": "Jordan Peterson on November 3rd 2017 and",
      "start": 301.98,
      "duration": 4.83
    },
    {
      "text": "one featuring Ben Shapiro on October",
      "start": 304.2,
      "duration": 5.94
    },
    {
      "text": "31st 2018 the post-millennial reached",
      "start": 306.81,
      "duration": 4.86
    },
    {
      "text": "out to the chan center for comment but",
      "start": 310.14,
      "duration": 3.03
    },
    {
      "text": "had not heard back by the time we",
      "start": 311.67,
      "duration": 4.44
    },
    {
      "text": "published this article since the change",
      "start": 313.17,
      "duration": 4.38
    },
    {
      "text": "in venue was announced far-left",
      "start": 316.11,
      "duration": 2.94
    },
    {
      "text": "activists have launched a harassment",
      "start": 317.55,
      "duration": 3.51
    },
    {
      "text": "campaign via email social media and",
      "start": 319.05,
      "duration": 3.72
    },
    {
      "text": "phone targeting the Hellenic community",
      "start": 321.06,
      "duration": 3.63
    },
    {
      "text": "our Vancouver has simply renting their",
      "start": 322.77,
      "duration": 5.85
    },
    {
      "text": "space to the Kruk this is Ambrose again",
      "start": 324.69,
      "duration": 5.64
    },
    {
      "text": "if any group officially deemed a hate",
      "start": 328.62,
      "duration": 3.69
    },
    {
      "text": "group decided to rent from us we deny",
      "start": 330.33,
      "duration": 4.62
    },
    {
      "text": "them these people are being attacked by",
      "start": 332.31,
      "duration": 4.59
    },
    {
      "text": "their political opponents but no one has",
      "start": 334.95,
      "duration": 4.32
    },
    {
      "text": "the right to attack us the Halong",
      "start": 336.9,
      "duration": 4.11
    },
    {
      "text": "hellenic community of vancouver and we",
      "start": 339.27,
      "duration": 4.46
    },
    {
      "text": "will defend ourselves vigorously and",
      "start": 341.01,
      "duration": 5.19
    },
    {
      "text": "Tifa groups like the revolutionary",
      "start": 343.73,
      "duration": 4.75
    },
    {
      "text": "communists vancouver and the",
      "start": 346.2,
      "duration": 4.2
    },
    {
      "text": "revolutionary student movement vancouver",
      "start": 348.48,
      "duration": 3.9
    },
    {
      "text": "have doxxed or published the private",
      "start": 350.4,
      "duration": 4.65
    },
    {
      "text": "information of the community online for",
      "start": 352.38,
      "duration": 4.95
    },
    {
      "text": "a targeted harassment campaign the",
      "start": 355.05,
      "duration": 4.05
    },
    {
      "text": "harassment included leaving negative",
      "start": 357.33,
      "duration": 3.81
    },
    {
      "text": "reviews on the ethnic and religious",
      "start": 359.1,
      "duration": 3.87
    },
    {
      "text": "communities Facebook page and getting",
      "start": 361.14,
      "duration": 3.12
    },
    {
      "text": "members to flood the group with",
      "start": 362.97,
      "duration": 5.88
    },
    {
      "text": "aggressive comments this is the",
      "start": 364.26,
      "duration": 6.57
    },
    {
      "text": "Revolutionary Communist Vancouver's",
      "start": 368.85,
      "duration": 3.93
    },
    {
      "text": "Facebook group they say we aren't fooled",
      "start": 370.83,
      "duration": 5.07
    },
    {
      "text": "by their at the H Seavey's crocodile",
      "start": 372.78,
      "duration": 4.83
    },
    {
      "text": "tears and neither are the masses",
      "start": 375.9,
      "duration": 3.69
    },
    {
      "text": "remember voicing your disdain for the",
      "start": 377.61,
      "duration": 4.23
    },
    {
      "text": "hell at Hellenic center hosting fascists",
      "start": 379.59,
      "duration": 4.38
    },
    {
      "text": "via phone or email is not bullying but a",
      "start": 381.84,
      "duration": 7.92
    },
    {
      "text": "justified response see no issue no",
      "start": 383.97,
      "duration": 8.22
    },
    {
      "text": "problem they view this as perfectly",
      "start": 389.76,
      "duration": 5.39
    },
    {
      "text": "legitimate and",
      "start": 392.19,
      "duration": 5.24
    },
    {
      "text": "this is before they gain more political",
      "start": 395.15,
      "duration": 4.38
    },
    {
      "text": "power folks however the Hellenic",
      "start": 397.43,
      "duration": 3.54
    },
    {
      "text": "community maintains that it has hosted",
      "start": 399.53,
      "duration": 3.12
    },
    {
      "text": "events across the political spectrum in",
      "start": 400.97,
      "duration": 5.699
    },
    {
      "text": "the past so Dimitri's Ambrose again said",
      "start": 402.65,
      "duration": 5.46
    },
    {
      "text": "historically we have hosted greens",
      "start": 406.669,
      "duration": 4.021
    },
    {
      "text": "liberals conservatives NDP libertarians",
      "start": 408.11,
      "duration": 4.8
    },
    {
      "text": "Trotskyites everyone we are politically",
      "start": 410.69,
      "duration": 6.33
    },
    {
      "text": "agnostic now of course when communists",
      "start": 412.91,
      "duration": 6.99
    },
    {
      "text": "get together it's not that the supposed",
      "start": 417.02,
      "duration": 5.88
    },
    {
      "text": "far-right fascist go and threaten and",
      "start": 419.9,
      "duration": 5.79
    },
    {
      "text": "disrupt and and oxen and are aggressive",
      "start": 422.9,
      "duration": 4.71
    },
    {
      "text": "towards these particular certainly if if",
      "start": 425.69,
      "duration": 3.42
    },
    {
      "text": "leftist get together Democrats get",
      "start": 427.61,
      "duration": 3.57
    },
    {
      "text": "together liberals get together the",
      "start": 429.11,
      "duration": 6.33
    },
    {
      "text": "Conservatives aren't doing that so it's",
      "start": 431.18,
      "duration": 7.799
    },
    {
      "text": "only when one particular group get",
      "start": 435.44,
      "duration": 6.509
    },
    {
      "text": "together and that group is those who",
      "start": 438.979,
      "duration": 8.461
    },
    {
      "text": "criticize communism now this tells you",
      "start": 441.949,
      "duration": 6.991
    },
    {
      "text": "that communism is far from a dead",
      "start": 447.44,
      "duration": 3.509
    },
    {
      "text": "ideology it is far from something deep",
      "start": 448.94,
      "duration": 3.3
    },
    {
      "text": "in the historical rear view which is",
      "start": 450.949,
      "duration": 3.121
    },
    {
      "text": "where it should be after causing a",
      "start": 452.24,
      "duration": 5.28
    },
    {
      "text": "hundred million deaths in the 20th",
      "start": 454.07,
      "duration": 6.21
    },
    {
      "text": "century good heavens it's very much a",
      "start": 457.52,
      "duration": 5.149
    },
    {
      "text": "living breathing fire-breathing",
      "start": 460.28,
      "duration": 7.98
    },
    {
      "text": "dangerous ideology and so the article",
      "start": 462.669,
      "duration": 7.12
    },
    {
      "text": "goes on to say among the tax decreed",
      "start": 468.26,
      "duration": 2.969
    },
    {
      "text": "tactics used by the revolutionary",
      "start": 469.789,
      "duration": 2.94
    },
    {
      "text": "student movement Vancouver has been",
      "start": 471.229,
      "duration": 2.881
    },
    {
      "text": "plastering posters throughout the local",
      "start": 472.729,
      "duration": 2.761
    },
    {
      "text": "community with the address and",
      "start": 474.11,
      "duration": 2.85
    },
    {
      "text": "information of the Hellenic community",
      "start": 475.49,
      "duration": 2.609
    },
    {
      "text": "calling for the event to be shut down",
      "start": 476.96,
      "duration": 2.94
    },
    {
      "text": "and for the two speakers to be tea",
      "start": 478.099,
      "duration": 4.261
    },
    {
      "text": "platform police have gotten involved",
      "start": 479.9,
      "duration": 5.61
    },
    {
      "text": "over threats of violence according to",
      "start": 482.36,
      "duration": 7.2
    },
    {
      "text": "free speech club director Angelo isidoro",
      "start": 485.51,
      "duration": 6.27
    },
    {
      "text": "he has been targeted with death threats",
      "start": 489.56,
      "duration": 3.81
    },
    {
      "text": "and harassment since he announced the",
      "start": 491.78,
      "duration": 3.509
    },
    {
      "text": "new venue in the event since receiving",
      "start": 493.37,
      "duration": 3.479
    },
    {
      "text": "the threats the police have gotten",
      "start": 495.289,
      "duration": 2.91
    },
    {
      "text": "involved in ensuring that the event",
      "start": 496.849,
      "duration": 6.091
    },
    {
      "text": "proceeds safely Facebook user Gregory",
      "start": 498.199,
      "duration": 7.171
    },
    {
      "text": "Robertson on the hdvs repute Review page",
      "start": 502.94,
      "duration": 4.68
    },
    {
      "text": "said what helps is slapping the shite",
      "start": 505.37,
      "duration": 2.91
    },
    {
      "text": "out of them",
      "start": 507.62,
      "duration": 3.12
    },
    {
      "text": "we didn't debate the Nazis we shot them",
      "start": 508.28,
      "duration": 8.249
    },
    {
      "text": "that's how this game works that's how",
      "start": 510.74,
      "duration": 8.94
    },
    {
      "text": "this game works it reminds me of being",
      "start": 516.529,
      "duration": 5.76
    },
    {
      "text": "in New York at and I have the freedom",
      "start": 519.68,
      "duration": 5.22
    },
    {
      "text": "and they were chanting outside",
      "start": 522.289,
      "duration": 5.131
    },
    {
      "text": "forget the red pill how about a lead",
      "start": 524.9,
      "duration": 6.05
    },
    {
      "text": "pill in other words how about a bullet",
      "start": 527.42,
      "duration": 3.53
    },
    {
      "text": "Isadora said this community has been",
      "start": 531.13,
      "duration": 3.61
    },
    {
      "text": "receiving a lot of harassment of",
      "start": 533.27,
      "duration": 3.87
    },
    {
      "text": "bullying from these radical groups but",
      "start": 534.74,
      "duration": 4.86
    },
    {
      "text": "the police have been incredibly helpful",
      "start": 537.14,
      "duration": 4.38
    },
    {
      "text": "and will set a tone on the night of the",
      "start": 539.6,
      "duration": 6.27
    },
    {
      "text": "event most of my family was killed in",
      "start": 541.52,
      "duration": 7.08
    },
    {
      "text": "the Greek Oh Armenian Genocide and went",
      "start": 545.87,
      "duration": 4.92
    },
    {
      "text": "on like all Greeks to struggle through",
      "start": 548.6,
      "duration": 4.1
    },
    {
      "text": "the oppression of Nazism and communism",
      "start": 550.79,
      "duration": 4.53
    },
    {
      "text": "authoritarian evil is no stranger to our",
      "start": 552.7,
      "duration": 4.12
    },
    {
      "text": "community we have encountered it before",
      "start": 555.32,
      "duration": 4.23
    },
    {
      "text": "and we come out more emboldened in the",
      "start": 556.82,
      "duration": 6.09
    },
    {
      "text": "end local police forces are expected to",
      "start": 559.55,
      "duration": 5.19
    },
    {
      "text": "be at the event and the protest",
      "start": 562.91,
      "duration": 6.3
    },
    {
      "text": "organized by opponents to the event HCV",
      "start": 564.74,
      "duration": 8.31
    },
    {
      "text": "president Samba said the VPD Vancouver",
      "start": 569.21,
      "duration": 5.19
    },
    {
      "text": "Police Department are involved and",
      "start": 573.05,
      "duration": 2.64
    },
    {
      "text": "anyone causing grief to any of our",
      "start": 574.4,
      "duration": 2.85
    },
    {
      "text": "members will be subject to the laws of",
      "start": 575.69,
      "duration": 2.63
    },
    {
      "text": "this land",
      "start": 577.25,
      "duration": 3.029
    },
    {
      "text": "both stefan molyneux and lauren",
      "start": 578.32,
      "duration": 3.07
    },
    {
      "text": "sutherland have achieved celebrity",
      "start": 580.279,
      "duration": 2.581
    },
    {
      "text": "status on the web for their views on",
      "start": 581.39,
      "duration": 4.53
    },
    {
      "text": "various issues hi hey you know",
      "start": 582.86,
      "duration": 4.8
    },
    {
      "text": "technically I really think it's for my",
      "start": 585.92,
      "duration": 3.6
    },
    {
      "text": "strict method methodology of following",
      "start": 587.66,
      "duration": 3.42
    },
    {
      "text": "reason and evidence but anyway the",
      "start": 589.52,
      "duration": 2.97
    },
    {
      "text": "article goes on to say many commentators",
      "start": 591.08,
      "duration": 3.509
    },
    {
      "text": "in the mainstream media and on the Left",
      "start": 592.49,
      "duration": 4.17
    },
    {
      "text": "have been described have described their",
      "start": 594.589,
      "duration": 3.991
    },
    {
      "text": "views on topics such as immigration",
      "start": 596.66,
      "duration": 5.58
    },
    {
      "text": "ethnicity and feminism as alt-right one",
      "start": 598.58,
      "duration": 7.14
    },
    {
      "text": "opinion piece penned by Fareed larezo",
      "start": 602.24,
      "duration": 6.39
    },
    {
      "text": "sorry Larissa in the UBC student paper",
      "start": 605.72,
      "duration": 5.76
    },
    {
      "text": "the UBC condemned the event as hate",
      "start": 608.63,
      "duration": 6.02
    },
    {
      "text": "speech again this is not an argument",
      "start": 611.48,
      "duration": 5.67
    },
    {
      "text": "alt-right is not an argument towards",
      "start": 614.65,
      "duration": 4.42
    },
    {
      "text": "phrase hate speech is not an argument",
      "start": 617.15,
      "duration": 4.23
    },
    {
      "text": "it's not reason it's not evidence it's",
      "start": 619.07,
      "duration": 4.92
    },
    {
      "text": "not rebuttal if we're so wrong if we are",
      "start": 621.38,
      "duration": 4.95
    },
    {
      "text": "so full of nastiness and and viciousness",
      "start": 623.99,
      "duration": 5.82
    },
    {
      "text": "then you should film us giving our",
      "start": 626.33,
      "duration": 5.43
    },
    {
      "text": "speeches you should broadcast so that",
      "start": 629.81,
      "duration": 4.23
    },
    {
      "text": "everyone can see how terrible we are why",
      "start": 631.76,
      "duration": 4.22
    },
    {
      "text": "on earth would you want to shut down an",
      "start": 634.04,
      "duration": 6.08
    },
    {
      "text": "event that is going to openly prove",
      "start": 635.98,
      "duration": 6.52
    },
    {
      "text": "everything nasty that you say about",
      "start": 640.12,
      "duration": 4.06
    },
    {
      "text": "Lauryn and myself and that's because",
      "start": 642.5,
      "duration": 4.41
    },
    {
      "text": "because they know that we're not that",
      "start": 644.18,
      "duration": 4.68
    },
    {
      "text": "way inclined we they know that we're not",
      "start": 646.91,
      "duration": 4.29
    },
    {
      "text": "driven by hatred they know that we're",
      "start": 648.86,
      "duration": 5.969
    },
    {
      "text": "not driven by fascism or or any of these",
      "start": 651.2,
      "duration": 6.72
    },
    {
      "text": "horrible totalitarian ideologies",
      "start": 654.829,
      "duration": 5.85
    },
    {
      "text": "I mean this article refers to me as a",
      "start": 657.92,
      "duration": 3.569
    },
    {
      "text": "self-described",
      "start": 660.679,
      "duration": 2.491
    },
    {
      "text": "libertarian and technically I'm an",
      "start": 661.489,
      "duration": 3.6
    },
    {
      "text": "anarcho-capitalist but what on earth",
      "start": 663.17,
      "duration": 3.329
    },
    {
      "text": "would that have to do with any form of",
      "start": 665.089,
      "duration": 4.31
    },
    {
      "text": "totalitarianism libertarianism is a",
      "start": 666.499,
      "duration": 5.61
    },
    {
      "text": "state that is so small it would be about",
      "start": 669.399,
      "duration": 4.99
    },
    {
      "text": "2% the size of the current state in",
      "start": 672.109,
      "duration": 6.54
    },
    {
      "text": "other words a vast extension of human",
      "start": 674.389,
      "duration": 7.2
    },
    {
      "text": "liberties in in speech in thought in",
      "start": 678.649,
      "duration": 5.12
    },
    {
      "text": "ideas in property and independence",
      "start": 681.589,
      "duration": 5.391
    },
    {
      "text": "Liberty but you see that's the enemy",
      "start": 683.769,
      "duration": 7.84
    },
    {
      "text": "that's the enemy that is their enemy is",
      "start": 686.98,
      "duration": 7.149
    },
    {
      "text": "freedom that is their enemy his reason",
      "start": 691.609,
      "duration": 3.991
    },
    {
      "text": "that is their enemy is independent",
      "start": 694.129,
      "duration": 5.341
    },
    {
      "text": "thought philosophy is their enemy and we",
      "start": 695.6,
      "duration": 5.639
    },
    {
      "text": "know that because they're willing to",
      "start": 699.47,
      "duration": 3.209
    },
    {
      "text": "threaten they're willing to threaten",
      "start": 701.239,
      "duration": 3.21
    },
    {
      "text": "violence they're willing to darks",
      "start": 702.679,
      "duration": 7.14
    },
    {
      "text": "they're willing to attack what well what",
      "start": 704.449,
      "duration": 7.64
    },
    {
      "text": "is the opposite of violence reason",
      "start": 709.819,
      "duration": 4.411
    },
    {
      "text": "that's the enemy that they're facing is",
      "start": 712.089,
      "duration": 4.451
    },
    {
      "text": "rational discourse which if they were",
      "start": 714.23,
      "duration": 4.949
    },
    {
      "text": "competent in they would simply rebut",
      "start": 716.54,
      "duration": 4.949
    },
    {
      "text": "they would go through my speech or",
      "start": 719.179,
      "duration": 4.2
    },
    {
      "text": "Lawrence Beach line-by-line they they do",
      "start": 721.489,
      "duration": 3.991
    },
    {
      "text": "an entertaining rebuttal they'd they'd",
      "start": 723.379,
      "duration": 4.08
    },
    {
      "text": "find ways I mean the signs of people who",
      "start": 725.48,
      "duration": 4.829
    },
    {
      "text": "disagree with me and sometimes I'll",
      "start": 727.459,
      "duration": 4.201
    },
    {
      "text": "ignore it sometimes I'll go and do",
      "start": 730.309,
      "duration": 3.81
    },
    {
      "text": "rebuttals sometimes I'll write or or do",
      "start": 731.66,
      "duration": 3.839
    },
    {
      "text": "a video about it this is called",
      "start": 734.119,
      "duration": 2.76
    },
    {
      "text": "civilization this is where we disagree",
      "start": 735.499,
      "duration": 3.9
    },
    {
      "text": "with each other and we reason things and",
      "start": 736.879,
      "duration": 4.05
    },
    {
      "text": "how the way we oppose and we let the",
      "start": 739.399,
      "duration": 3.48
    },
    {
      "text": "best argument win the day in the",
      "start": 740.929,
      "duration": 7.38
    },
    {
      "text": "marketplace of ideas but they have both",
      "start": 742.879,
      "duration": 8.46
    },
    {
      "text": "certainty and anti rationality you know",
      "start": 748.309,
      "duration": 5.161
    },
    {
      "text": "that is a very deadly brew for human",
      "start": 751.339,
      "duration": 3.75
    },
    {
      "text": "beings they have certainty plus anti",
      "start": 753.47,
      "duration": 3.75
    },
    {
      "text": "rationality are the primary ingredients",
      "start": 755.089,
      "duration": 6.81
    },
    {
      "text": "in violence if you are anti rational but",
      "start": 757.22,
      "duration": 6.51
    },
    {
      "text": "you're uncertain then you hesitate to",
      "start": 761.899,
      "duration": 4.321
    },
    {
      "text": "use force or threats or intimidation and",
      "start": 763.73,
      "duration": 4.859
    },
    {
      "text": "so on if you are certain but you are",
      "start": 766.22,
      "duration": 4.289
    },
    {
      "text": "rational then you engage in debate but",
      "start": 768.589,
      "duration": 3.69
    },
    {
      "text": "if you are anti rational and you were",
      "start": 770.509,
      "duration": 5.04
    },
    {
      "text": "certain well we can see we can see here",
      "start": 772.279,
      "duration": 7.35
    },
    {
      "text": "what happens southern a british columbia",
      "start": 775.549,
      "duration": 5.76
    },
    {
      "text": "local and activist has become a",
      "start": 779.629,
      "duration": 3.57
    },
    {
      "text": "successful documentary filmmaker in her",
      "start": 781.309,
      "duration": 3.69
    },
    {
      "text": "own right and has been working at",
      "start": 783.199,
      "duration": 3.24
    },
    {
      "text": "traveling across the world working on",
      "start": 784.999,
      "duration": 3.3
    },
    {
      "text": "borderless a documentary film intent on",
      "start": 786.439,
      "duration": 3.721
    },
    {
      "text": "raising awareness on europe's ongoing",
      "start": 788.299,
      "duration": 2.431
    },
    {
      "text": "migrant",
      "start": 790.16,
      "duration": 3.179
    },
    {
      "text": "for her efforts southern has also been",
      "start": 790.73,
      "duration": 3.659
    },
    {
      "text": "invited to speak in front of the",
      "start": 793.339,
      "duration": 2.881
    },
    {
      "text": "European Union Parliament on the issue",
      "start": 794.389,
      "duration": 4.231
    },
    {
      "text": "Molyneux who regularly vlogs on his",
      "start": 796.22,
      "duration": 4.59
    },
    {
      "text": "YouTube channel about a myriad of topics",
      "start": 798.62,
      "duration": 4.38
    },
    {
      "text": "has courted controversy over his views",
      "start": 800.81,
      "duration": 4.05
    },
    {
      "text": "on IQ differences between races single",
      "start": 803,
      "duration": 3.42
    },
    {
      "text": "motherhood and sex differences between",
      "start": 804.86,
      "duration": 4.469
    },
    {
      "text": "men and women right that's a nice way of",
      "start": 806.42,
      "duration": 4.859
    },
    {
      "text": "putting it and you know courted",
      "start": 809.329,
      "duration": 6.091
    },
    {
      "text": "controversy and so on it's like again",
      "start": 811.279,
      "duration": 5.401
    },
    {
      "text": "this is sort of reference to something",
      "start": 815.42,
      "duration": 2.64
    },
    {
      "text": "that happened on Twitter and you should",
      "start": 816.68,
      "duration": 2.909
    },
    {
      "text": "really follow me on Twitter at Stefan",
      "start": 818.06,
      "duration": 3.69
    },
    {
      "text": "Molyneux but say oh these are",
      "start": 819.589,
      "duration": 5.221
    },
    {
      "text": "controversial views it was like no there",
      "start": 821.75,
      "duration": 5.1
    },
    {
      "text": "is no controversial there's no such",
      "start": 824.81,
      "duration": 3.719
    },
    {
      "text": "thing as a controversial D if you can be",
      "start": 826.85,
      "duration": 3.27
    },
    {
      "text": "correct or incorrect it can be rational",
      "start": 828.529,
      "duration": 3.3
    },
    {
      "text": "anti rational can be based on evidence",
      "start": 830.12,
      "duration": 2.969
    },
    {
      "text": "and go against the evidence and so on",
      "start": 831.829,
      "duration": 2.76
    },
    {
      "text": "but there's no such thing as",
      "start": 833.089,
      "duration": 3.961
    },
    {
      "text": "controversial views because the person",
      "start": 834.589,
      "duration": 5.401
    },
    {
      "text": "who holds the views clearly doesn't find",
      "start": 837.05,
      "duration": 4.469
    },
    {
      "text": "them so controversial that they should",
      "start": 839.99,
      "duration": 3.39
    },
    {
      "text": "provoke a violent hysterical Fight Club",
      "start": 841.519,
      "duration": 3.12
    },
    {
      "text": "punch yourself in the head Canon",
      "start": 843.38,
      "duration": 4.889
    },
    {
      "text": "responds they're not controversial views",
      "start": 844.639,
      "duration": 6.271
    },
    {
      "text": "they are highly reactive and sometimes",
      "start": 848.269,
      "duration": 4.5
    },
    {
      "text": "dangerous people who when coming in",
      "start": 850.91,
      "duration": 4.08
    },
    {
      "text": "contact with reason and evidence in",
      "start": 852.769,
      "duration": 4.981
    },
    {
      "text": "science get aggressive because it",
      "start": 854.99,
      "duration": 5.37
    },
    {
      "text": "threatens their worldview there's no",
      "start": 857.75,
      "duration": 3.81
    },
    {
      "text": "such thing as controversial views",
      "start": 860.36,
      "duration": 3.12
    },
    {
      "text": "there's just hysterical aggressive",
      "start": 861.56,
      "duration": 3.99
    },
    {
      "text": "people who don't like to be contradicted",
      "start": 863.48,
      "duration": 3.87
    },
    {
      "text": "when their Dogma is challenged and",
      "start": 865.55,
      "duration": 4.26
    },
    {
      "text": "they're not my views this is well",
      "start": 867.35,
      "duration": 4.169
    },
    {
      "text": "established science going back a hundred",
      "start": 869.81,
      "duration": 3.75
    },
    {
      "text": "years and you know those who are",
      "start": 871.519,
      "duration": 3.841
    },
    {
      "text": "listening or if you want to look below",
      "start": 873.56,
      "duration": 5.009
    },
    {
      "text": "I've interviewed 18 of the world's",
      "start": 875.36,
      "duration": 6.089
    },
    {
      "text": "renowned top experts on the field of",
      "start": 878.569,
      "duration": 5.88
    },
    {
      "text": "human intelligence and IQ and ethnic",
      "start": 881.449,
      "duration": 4.471
    },
    {
      "text": "differences and so on it's not my view",
      "start": 884.449,
      "duration": 5.421
    },
    {
      "text": "to shoot the messenger you can go to FDR",
      "start": 885.92,
      "duration": 10.2
    },
    {
      "text": "URL com /iq it's FDR URL com /iq and you",
      "start": 889.87,
      "duration": 9.909
    },
    {
      "text": "can go through what the experts say",
      "start": 896.12,
      "duration": 6.149
    },
    {
      "text": "I have read their books I let them talk",
      "start": 899.779,
      "duration": 4.441
    },
    {
      "text": "I prompt it a little I agreed I",
      "start": 902.269,
      "duration": 4.05
    },
    {
      "text": "disagreed a little but it's their voice",
      "start": 904.22,
      "duration": 6.989
    },
    {
      "text": "that really matters so you can have to",
      "start": 906.319,
      "duration": 6.33
    },
    {
      "text": "deal with a lot of science if you want",
      "start": 911.209,
      "duration": 2.671
    },
    {
      "text": "to push back against this these aren't",
      "start": 912.649,
      "duration": 2.511
    },
    {
      "text": "my views and so on",
      "start": 913.88,
      "duration": 3.509
    },
    {
      "text": "currently male news YouTube channel is",
      "start": 915.16,
      "duration": 5.02
    },
    {
      "text": "shy of nearly 1 million subscribers this",
      "start": 917.389,
      "duration": 4.26
    },
    {
      "text": "is not the first time that souther and",
      "start": 920.18,
      "duration": 2.909
    },
    {
      "text": "Molyneux have appeared together on stage",
      "start": 921.649,
      "duration": 2.411
    },
    {
      "text": "or",
      "start": 923.089,
      "duration": 2.381
    },
    {
      "text": "in videos the pair have toured and",
      "start": 924.06,
      "duration": 2.73
    },
    {
      "text": "spoken together before both in New",
      "start": 925.47,
      "duration": 2.34
    },
    {
      "text": "Zealand and Australia",
      "start": 926.79,
      "duration": 4.08
    },
    {
      "text": "well technically Australia yes and there",
      "start": 927.81,
      "duration": 4.35
    },
    {
      "text": "was quite a bit of violence particularly",
      "start": 930.87,
      "duration": 4.14
    },
    {
      "text": "in Mel in Melbourne but no New Zealand",
      "start": 932.16,
      "duration": 5.79
    },
    {
      "text": "we were well we'll get into that another",
      "start": 935.01,
      "duration": 5.57
    },
    {
      "text": "time but we didn't make our speech",
      "start": 937.95,
      "duration": 4.65
    },
    {
      "text": "speaker and host replies to harassment",
      "start": 940.58,
      "duration": 3.79
    },
    {
      "text": "in a statement provided to the",
      "start": 942.6,
      "duration": 3.42
    },
    {
      "text": "post-millennial stefan molyneux claimed",
      "start": 944.37,
      "duration": 3.24
    },
    {
      "text": "that an article published about the",
      "start": 946.02,
      "duration": 3.99
    },
    {
      "text": "event in the u bc which has since been",
      "start": 947.61,
      "duration": 4.32
    },
    {
      "text": "removed without explanation was quote",
      "start": 950.01,
      "duration": 4.53
    },
    {
      "text": "full of hysteria and misinformation well",
      "start": 951.93,
      "duration": 4.35
    },
    {
      "text": "I think it was a bit more serious than",
      "start": 954.54,
      "duration": 2.16
    },
    {
      "text": "that",
      "start": 956.28,
      "duration": 3.21
    },
    {
      "text": "but the article was written by UBC",
      "start": 956.7,
      "duration": 4.17
    },
    {
      "text": "students against bigotry which is",
      "start": 959.49,
      "duration": 3.12
    },
    {
      "text": "joining other far-left groups in a March",
      "start": 960.87,
      "duration": 3.24
    },
    {
      "text": "and a protest against the Hellenic",
      "start": 962.61,
      "duration": 4.95
    },
    {
      "text": "community so this is what I said the",
      "start": 964.11,
      "duration": 5.64
    },
    {
      "text": "fact that they do not link to any of my",
      "start": 967.56,
      "duration": 4.35
    },
    {
      "text": "speeches or books directly is highly",
      "start": 969.75,
      "duration": 3.84
    },
    {
      "text": "irresponsible and a clear sign of bad",
      "start": 971.91,
      "duration": 4.62
    },
    {
      "text": "intent calling an individual me such",
      "start": 973.59,
      "duration": 4.23
    },
    {
      "text": "vicious names without checking",
      "start": 976.53,
      "duration": 3.45
    },
    {
      "text": "thoroughly is a terrible breach of moral",
      "start": 977.82,
      "duration": 4.68
    },
    {
      "text": "and intellectual responsibility it",
      "start": 979.98,
      "duration": 4.44
    },
    {
      "text": "provokes hysteria and frankly can",
      "start": 982.5,
      "duration": 3.66
    },
    {
      "text": "increase the risk of physical danger to",
      "start": 984.42,
      "duration": 3.48
    },
    {
      "text": "me and those who want to come and hear",
      "start": 986.16,
      "duration": 4.44
    },
    {
      "text": "my arguments and evidence and it's true",
      "start": 987.9,
      "duration": 4.86
    },
    {
      "text": "you know like people say well you know",
      "start": 990.6,
      "duration": 4.25
    },
    {
      "text": "free speech comes with responsibilities",
      "start": 992.76,
      "duration": 4.08
    },
    {
      "text": "they always say that to me no free",
      "start": 994.85,
      "duration": 3.49
    },
    {
      "text": "speech comes with responsibilities like",
      "start": 996.84,
      "duration": 3.03
    },
    {
      "text": "what I shouldn't say things that are",
      "start": 998.34,
      "duration": 3.12
    },
    {
      "text": "scientifically validated because it",
      "start": 999.87,
      "duration": 3.39
    },
    {
      "text": "might upset people well to help with",
      "start": 1001.46,
      "duration": 3.84
    },
    {
      "text": "that I'm not living under the goddamned",
      "start": 1003.26,
      "duration": 4.77
    },
    {
      "text": "Inquisition I'm not living in Soviet",
      "start": 1005.3,
      "duration": 4.65
    },
    {
      "text": "Russia I could tell the truth about",
      "start": 1008.03,
      "duration": 5.79
    },
    {
      "text": "science and not be expected to shut up",
      "start": 1009.95,
      "duration": 6.77
    },
    {
      "text": "because it ruffles some people's feels",
      "start": 1013.82,
      "duration": 6.69
    },
    {
      "text": "but like I'm sorry if if science reason",
      "start": 1016.72,
      "duration": 6.4
    },
    {
      "text": "evidence philosophy in fact bother you",
      "start": 1020.51,
      "duration": 5.4
    },
    {
      "text": "to the point where you feel this rising",
      "start": 1023.12,
      "duration": 5.34
    },
    {
      "text": "tsunami of violent intent within you",
      "start": 1025.91,
      "duration": 5.3
    },
    {
      "text": "that's just a clear signal that",
      "start": 1028.46,
      "duration": 5.64
    },
    {
      "text": "intellectual thought recent debate and",
      "start": 1031.21,
      "duration": 5.56
    },
    {
      "text": "maybe even civilization itself is just",
      "start": 1034.1,
      "duration": 5.58
    },
    {
      "text": "not for you it's not for you I don't go",
      "start": 1036.77,
      "duration": 5.34
    },
    {
      "text": "wandering into ultimate fighting",
      "start": 1039.68,
      "duration": 5.91
    },
    {
      "text": "championship rings because I'm not good",
      "start": 1042.11,
      "duration": 6.24
    },
    {
      "text": "at that stuff it's not for me so I don't",
      "start": 1045.59,
      "duration": 3.6
    },
    {
      "text": "go and do it",
      "start": 1048.35,
      "duration": 2.79
    },
    {
      "text": "you know when the ballet is running I",
      "start": 1049.19,
      "duration": 3.45
    },
    {
      "text": "haven't seen a ballet and forever but if",
      "start": 1051.14,
      "duration": 3.54
    },
    {
      "text": "I went to see a ballet I wouldn't jump",
      "start": 1052.64,
      "duration": 5.1
    },
    {
      "text": "up on stage like I'm doing",
      "start": 1054.68,
      "duration": 5.31
    },
    {
      "text": "oki back after the Greek Greece megamix",
      "start": 1057.74,
      "duration": 4.11
    },
    {
      "text": "and stopped dancing along with them",
      "start": 1059.99,
      "duration": 3.63
    },
    {
      "text": "because it's not my thing I'm not good",
      "start": 1061.85,
      "duration": 3.66
    },
    {
      "text": "at it it's not my skillset it's not my",
      "start": 1063.62,
      "duration": 5.1
    },
    {
      "text": "ability so I stay out of areas that I'm",
      "start": 1065.51,
      "duration": 6.27
    },
    {
      "text": "incompetent in I certainly wouldn't go",
      "start": 1068.72,
      "duration": 6.959
    },
    {
      "text": "around punching people who were better",
      "start": 1071.78,
      "duration": 6.75
    },
    {
      "text": "at things than I was and so if your",
      "start": 1075.679,
      "duration": 5.101
    },
    {
      "text": "response to hearing facts reason and",
      "start": 1078.53,
      "duration": 4.56
    },
    {
      "text": "evidence and I've had scientific experts",
      "start": 1080.78,
      "duration": 6.779
    },
    {
      "text": "from all spectrum all of the spectrum of",
      "start": 1083.09,
      "duration": 6.51
    },
    {
      "text": "political ideologies in particular in",
      "start": 1087.559,
      "duration": 4.62
    },
    {
      "text": "intelligence and other fields they're on",
      "start": 1089.6,
      "duration": 4.11
    },
    {
      "text": "there talking I agree with some of them",
      "start": 1092.179,
      "duration": 2.611
    },
    {
      "text": "I disagree but some of them doesn't",
      "start": 1093.71,
      "duration": 3.14
    },
    {
      "text": "really matter they are again the experts",
      "start": 1094.79,
      "duration": 7.74
    },
    {
      "text": "so if facts bother you you just should",
      "start": 1096.85,
      "duration": 8.38
    },
    {
      "text": "do something other then get into",
      "start": 1102.53,
      "duration": 4.26
    },
    {
      "text": "intellectual debates because you can't",
      "start": 1105.23,
      "duration": 2.97
    },
    {
      "text": "you know if people are debating in",
      "start": 1106.79,
      "duration": 3.45
    },
    {
      "text": "Japanese I don't",
      "start": 1108.2,
      "duration": 3.51
    },
    {
      "text": "raskolnikov style hit them with a hammer",
      "start": 1110.24,
      "duration": 3.99
    },
    {
      "text": "or or Doc's them or threaten them or",
      "start": 1111.71,
      "duration": 4.62
    },
    {
      "text": "anything because I don't speak Japanese",
      "start": 1114.23,
      "duration": 3.72
    },
    {
      "text": "I can't engage like if you've got a",
      "start": 1116.33,
      "duration": 3.78
    },
    {
      "text": "little reason and evidence find",
      "start": 1117.95,
      "duration": 4.5
    },
    {
      "text": "something else to do it's not for you or",
      "start": 1120.11,
      "duration": 4.14
    },
    {
      "text": "you could learn how to deal with reason",
      "start": 1122.45,
      "duration": 3.12
    },
    {
      "text": "and evidence and rebutting bla bla bla",
      "start": 1124.25,
      "duration": 3.72
    },
    {
      "text": "right but of course if they could rebut",
      "start": 1125.57,
      "duration": 5.43
    },
    {
      "text": "very easily they wouldn't they wouldn't",
      "start": 1127.97,
      "duration": 4.65
    },
    {
      "text": "go to intimidation they wouldn't go to",
      "start": 1131,
      "duration": 3.84
    },
    {
      "text": "threats they wouldn't be death sending",
      "start": 1132.62,
      "duration": 5.79
    },
    {
      "text": "death threats to somebody for hosting so",
      "start": 1134.84,
      "duration": 5.76
    },
    {
      "text": "people say all free speech comes with",
      "start": 1138.41,
      "duration": 3.96
    },
    {
      "text": "responsibility yeah you know what else",
      "start": 1140.6,
      "duration": 3.72
    },
    {
      "text": "free speech comes with free speech comes",
      "start": 1142.37,
      "duration": 4.65
    },
    {
      "text": "with the damn responsibility to check",
      "start": 1144.32,
      "duration": 4.73
    },
    {
      "text": "before you call people horrible names",
      "start": 1147.02,
      "duration": 4.17
    },
    {
      "text": "because these horrible names they're",
      "start": 1149.05,
      "duration": 3.85
    },
    {
      "text": "sent out as like bad signals for crazy",
      "start": 1151.19,
      "duration": 3.81
    },
    {
      "text": "people to come and perform violence",
      "start": 1152.9,
      "duration": 3.87
    },
    {
      "text": "against the people you're labeling",
      "start": 1155,
      "duration": 2.76
    },
    {
      "text": "that's what they're for",
      "start": 1156.77,
      "duration": 3.12
    },
    {
      "text": "you know everybody understands that",
      "start": 1157.76,
      "duration": 3.21
    },
    {
      "text": "right there they're trying to paint a",
      "start": 1159.89,
      "duration": 3.539
    },
    {
      "text": "death laser on your head so that crazy",
      "start": 1160.97,
      "duration": 3.72
    },
    {
      "text": "people will think that you're the",
      "start": 1163.429,
      "duration": 3.511
    },
    {
      "text": "manifestation of some sort of evil and",
      "start": 1164.69,
      "duration": 4.53
    },
    {
      "text": "then will consider that they're killing",
      "start": 1166.94,
      "duration": 3.72
    },
    {
      "text": "Hitler by killing you like I mean this",
      "start": 1169.22,
      "duration": 2.73
    },
    {
      "text": "is you understand this is kind of how",
      "start": 1170.66,
      "duration": 2.1
    },
    {
      "text": "this stuff works",
      "start": 1171.95,
      "duration": 3.93
    },
    {
      "text": "and so yes free speech does come with",
      "start": 1172.76,
      "duration": 4.919
    },
    {
      "text": "responsibilities and it comes with the",
      "start": 1175.88,
      "duration": 3.54
    },
    {
      "text": "responsibility to get your damn facts",
      "start": 1177.679,
      "duration": 4.081
    },
    {
      "text": "right before you start labeling people",
      "start": 1179.42,
      "duration": 5.22
    },
    {
      "text": "in these horrible kinds of ways that's a",
      "start": 1181.76,
      "duration": 4.59
    },
    {
      "text": "bit more of a responsibility than",
      "start": 1184.64,
      "duration": 4.339
    },
    {
      "text": "anything is claim against me",
      "start": 1186.35,
      "duration": 4.74
    },
    {
      "text": "according to the free speech Club the",
      "start": 1188.979,
      "duration": 3.55
    },
    {
      "text": "group is open to ideological diversity",
      "start": 1191.09,
      "duration": 3.569
    },
    {
      "text": "and has hosted speakers with opposing",
      "start": 1192.529,
      "duration": 7.08
    },
    {
      "text": "political views before ICC Daru said",
      "start": 1194.659,
      "duration": 7.02
    },
    {
      "text": "we've hosted countless left-leaning",
      "start": 1199.609,
      "duration": 3.75
    },
    {
      "text": "events in the past such as questioning",
      "start": 1201.679,
      "duration": 3.031
    },
    {
      "text": "free speech where liberal professors",
      "start": 1203.359,
      "duration": 2.88
    },
    {
      "text": "lectured on us on why free speech",
      "start": 1204.71,
      "duration": 4.62
    },
    {
      "text": "doesn't exist well I guess their fruit",
      "start": 1206.239,
      "duration": 5.64
    },
    {
      "text": "has born from the tree another prominent",
      "start": 1209.33,
      "duration": 4.439
    },
    {
      "text": "example is hosting self-proclaimed",
      "start": 1211.879,
      "duration": 4.23
    },
    {
      "text": "socialist and transgender pundit Kant",
      "start": 1213.769,
      "duration": 5.22
    },
    {
      "text": "contra points in our event with her we",
      "start": 1216.109,
      "duration": 4.14
    },
    {
      "text": "raised money for the trevor project",
      "start": 1218.989,
      "duration": 5.31
    },
    {
      "text": "which helps suicidal LGBTQ teens seems",
      "start": 1220.249,
      "duration": 5.55
    },
    {
      "text": "like a worthy cause to me I think that's",
      "start": 1224.299,
      "duration": 4.83
    },
    {
      "text": "a wonderful thing to do at as of the",
      "start": 1225.799,
      "duration": 5.041
    },
    {
      "text": "time of writing the event is set to",
      "start": 1229.129,
      "duration": 3.51
    },
    {
      "text": "continue successfully despite the",
      "start": 1230.84,
      "duration": 3.509
    },
    {
      "text": "protests being organized by left-wing",
      "start": 1232.639,
      "duration": 5.25
    },
    {
      "text": "activists now these are not protests I",
      "start": 1234.349,
      "duration": 5.82
    },
    {
      "text": "mean in my view this just straight-up",
      "start": 1237.889,
      "duration": 4.62
    },
    {
      "text": "intimidation some of it legal some of it",
      "start": 1240.169,
      "duration": 3.87
    },
    {
      "text": "in my view while obviously death threats",
      "start": 1242.509,
      "duration": 3.48
    },
    {
      "text": "it's always not legal the criminal",
      "start": 1244.039,
      "duration": 6.51
    },
    {
      "text": "activity so this is you know the threat",
      "start": 1245.989,
      "duration": 9.211
    },
    {
      "text": "of violence in pursuit of political ends",
      "start": 1250.549,
      "duration": 8.19
    },
    {
      "text": "is terrorism but isn't that what we're",
      "start": 1255.2,
      "duration": 6.839
    },
    {
      "text": "we're facing here and I'm gonna go and",
      "start": 1258.739,
      "duration": 7.17
    },
    {
      "text": "I'm gonna give my damn speech because we",
      "start": 1262.039,
      "duration": 6.36
    },
    {
      "text": "cannot back down in the face of this",
      "start": 1265.909,
      "duration": 5.061
    },
    {
      "text": "kind of aggression we cannot do it",
      "start": 1268.399,
      "duration": 8.91
    },
    {
      "text": "my ancestors force totalitarianism",
      "start": 1270.97,
      "duration": 10.199
    },
    {
      "text": "they fought tyranny they fought massive",
      "start": 1277.309,
      "duration": 9.81
    },
    {
      "text": "governments and I don't have to go to",
      "start": 1281.169,
      "duration": 7.99
    },
    {
      "text": "war I don't have to go into a trench I",
      "start": 1287.119,
      "duration": 3.54
    },
    {
      "text": "don't have to face mustard gas or",
      "start": 1289.159,
      "duration": 5.12
    },
    {
      "text": "shrapnel or have rats eat my frozen toes",
      "start": 1290.659,
      "duration": 8.69
    },
    {
      "text": "all I have to do is stand on a podium",
      "start": 1294.279,
      "duration": 8.47
    },
    {
      "text": "look at an audience and tell the truth",
      "start": 1299.349,
      "duration": 8.14
    },
    {
      "text": "and that's exactly what I'm gonna do now",
      "start": 1302.749,
      "duration": 6.03
    },
    {
      "text": "if you want to help out these people",
      "start": 1307.489,
      "duration": 2.581
    },
    {
      "text": "I'll put the links of the place below",
      "start": 1308.779,
      "duration": 4.441
    },
    {
      "text": "please write your support to them it",
      "start": 1310.07,
      "duration": 5.37
    },
    {
      "text": "helps give their reviews on their",
      "start": 1313.22,
      "duration": 4.709
    },
    {
      "text": "facebook and other places email your",
      "start": 1315.44,
      "duration": 4.679
    },
    {
      "text": "support thank them show your",
      "start": 1317.929,
      "duration": 4.141
    },
    {
      "text": "appreciation because I can't do it with",
      "start": 1320.119,
      "duration": 4.321
    },
    {
      "text": "the courage of these kinds of people and",
      "start": 1322.07,
      "duration": 4.17
    },
    {
      "text": "and I am incredibly grateful that they",
      "start": 1324.44,
      "duration": 4.8
    },
    {
      "text": "stand up and stand firm against this",
      "start": 1326.24,
      "duration": 7.5
    },
    {
      "text": "kind of viciousness as we have to we",
      "start": 1329.24,
      "duration": 6.51
    },
    {
      "text": "have to simply show their support please",
      "start": 1333.74,
      "duration": 3.42
    },
    {
      "text": "come to the event I'll put the link",
      "start": 1335.75,
      "duration": 5.97
    },
    {
      "text": "below it's gonna be exciting it's gonna",
      "start": 1337.16,
      "duration": 7.86
    },
    {
      "text": "be memorable it's gonna be honest it's",
      "start": 1341.72,
      "duration": 4.44
    },
    {
      "text": "gonna be civilized",
      "start": 1345.02,
      "duration": 7.49
    },
    {
      "text": "damn it because we can't back down I",
      "start": 1346.16,
      "duration": 6.35
    },
    {
      "text": "mean we lose free speech we are nothing",
      "start": 1352.84,
      "duration": 11.62
    },
    {
      "text": "but bald apes with the jaw bones of an",
      "start": 1357.68,
      "duration": 9.3
    },
    {
      "text": "ass glaring at each other across a",
      "start": 1364.46,
      "duration": 4.92
    },
    {
      "text": "clearing finding out whose skull gets",
      "start": 1366.98,
      "duration": 6.21
    },
    {
      "text": "smashed by who to get what food we",
      "start": 1369.38,
      "duration": 5.91
    },
    {
      "text": "cannot devolve back to that we must hold",
      "start": 1373.19,
      "duration": 5.61
    },
    {
      "text": "on to this civilization our ancestors",
      "start": 1375.29,
      "duration": 6.06
    },
    {
      "text": "fought so hard to carve out of violence",
      "start": 1378.8,
      "duration": 8.7
    },
    {
      "text": "and bigotry and human prejudice I won",
      "start": 1381.35,
      "duration": 11.34
    },
    {
      "text": "back down please remember that in help",
      "start": 1387.5,
      "duration": 9.41
    },
    {
      "text": "out everyone who stands for free speech",
      "start": 1392.69,
      "duration": 4.22
    }
  ],
  "Errors": null,
  "TranscriptStderr": null
}