{
  "Title": "Stefan Molyneux Jay Dyer Debate in 20 Minutes!",
  "Id": "4zPNinakUik",
  "Transcript": [
    {
      "text": "hey everybody stefan molyneux from",
      "start": 12.799,
      "duration": 7.151
    },
    {
      "text": "freedomain just dropping by this is a 20",
      "start": 15.18,
      "duration": 6.57
    },
    {
      "text": "off as we used to say when I was growing",
      "start": 19.95,
      "duration": 4.62
    },
    {
      "text": "up I didn't say 20 to 8 we said 20 off 8",
      "start": 21.75,
      "duration": 7.619
    },
    {
      "text": "and I just wanted to remind you in case",
      "start": 24.57,
      "duration": 7.439
    },
    {
      "text": "well I mean you could do something else",
      "start": 29.369,
      "duration": 4.921
    },
    {
      "text": "with your evening but why why would you",
      "start": 32.009,
      "duration": 6.871
    },
    {
      "text": "so Jay Dyer and I are going to be having",
      "start": 34.29,
      "duration": 7.23
    },
    {
      "text": "a debate right here live streamed to",
      "start": 38.88,
      "duration": 3.9
    },
    {
      "text": "YouTube we're also going to stick around",
      "start": 41.52,
      "duration": 6.809
    },
    {
      "text": "afterwards for a Q\u0026A and we are going to",
      "start": 42.78,
      "duration": 9.66
    },
    {
      "text": "be getting down into it I have a feeling",
      "start": 48.329,
      "duration": 7.441
    },
    {
      "text": "it could end up being just a little bit",
      "start": 52.44,
      "duration": 5.79
    },
    {
      "text": "contentious I could be wrong I could be",
      "start": 55.77,
      "duration": 4.859
    },
    {
      "text": "wrong I was wrong I was wrong once",
      "start": 58.23,
      "duration": 5.73
    },
    {
      "text": "before the terrible terrible time when I",
      "start": 60.629,
      "duration": 6.181
    },
    {
      "text": "was 7 no 8 no no I was 7 that's Ryan I",
      "start": 63.96,
      "duration": 5.13
    },
    {
      "text": "was 7 it was wrong it was a horrible",
      "start": 66.81,
      "duration": 5.25
    },
    {
      "text": "horrible thing so yeah it seems to be",
      "start": 69.09,
      "duration": 5.94
    },
    {
      "text": "working this is streaming from the very",
      "start": 72.06,
      "duration": 4.559
    },
    {
      "text": "technology that we will be using first",
      "start": 75.03,
      "duration": 3.929
    },
    {
      "text": "time I tried it I got the fabled blue",
      "start": 76.619,
      "duration": 4.02
    },
    {
      "text": "screen of death and then windows they're",
      "start": 78.959,
      "duration": 3.72
    },
    {
      "text": "about 14 updates you know people say",
      "start": 80.639,
      "duration": 3.72
    },
    {
      "text": "that Bill Gates owns the patent on the",
      "start": 82.679,
      "duration": 3.87
    },
    {
      "text": "corona virus he should know all about",
      "start": 84.359,
      "duration": 5.49
    },
    {
      "text": "viruses he made Windows so I hope that",
      "start": 86.549,
      "duration": 6.39
    },
    {
      "text": "you will join us tonight for what is",
      "start": 89.849,
      "duration": 5.91
    },
    {
      "text": "going to be a truly spectacular debate",
      "start": 92.939,
      "duration": 7.731
    },
    {
      "text": "about reason reality truth god virtue",
      "start": 95.759,
      "duration": 9.78
    },
    {
      "text": "society politics and you'll see why Jay",
      "start": 100.67,
      "duration": 6.159
    },
    {
      "text": "Dyer is actually a little bit miss name",
      "start": 105.539,
      "duration": 5.18
    },
    {
      "text": "should be di re but I'm not going to be",
      "start": 106.829,
      "duration": 6.301
    },
    {
      "text": "keeping this going I just wanted to drop",
      "start": 110.719,
      "duration": 6.371
    },
    {
      "text": "by give it a test and see oh look I'm 53",
      "start": 113.13,
      "duration": 6.18
    },
    {
      "text": "and I have a pimple isn't that lovely",
      "start": 117.09,
      "duration": 4.529
    },
    {
      "text": "knee problems and pimples I love middle",
      "start": 119.31,
      "duration": 4.949
    },
    {
      "text": "age all right so I hope that you guys",
      "start": 121.619,
      "duration": 5.581
    },
    {
      "text": "are gonna stick around and I guess if",
      "start": 124.259,
      "duration": 4.791
    },
    {
      "text": "you guys know I don't know much about",
      "start": 127.2,
      "duration": 4.95
    },
    {
      "text": "good old Jay but I can have a quick look",
      "start": 129.05,
      "duration": 5.83
    },
    {
      "text": "in the chat here and see that",
      "start": 132.15,
      "duration": 5.37
    },
    {
      "text": "and see what's what's going on is it",
      "start": 134.88,
      "duration": 4.89
    },
    {
      "text": "coming through okay right 720 I think",
      "start": 137.52,
      "duration": 3.96
    },
    {
      "text": "it's only 25 frames a second which makes",
      "start": 139.77,
      "duration": 4.89
    },
    {
      "text": "me look like old-timey Clark Gable",
      "start": 141.48,
      "duration": 5.94
    },
    {
      "text": "people say Jay Dyer is unstoppable and",
      "start": 144.66,
      "duration": 5.04
    },
    {
      "text": "unbeatable well it could be the case",
      "start": 147.42,
      "duration": 4.29
    },
    {
      "text": "that the immovable force no the",
      "start": 149.7,
      "duration": 3.39
    },
    {
      "text": "unstoppable force meets the immovable",
      "start": 151.71,
      "duration": 5.16
    },
    {
      "text": "object his name is not gay Dyer I die I",
      "start": 153.09,
      "duration": 6.3
    },
    {
      "text": "rejects that J is not a gamma male now",
      "start": 156.87,
      "duration": 6.26
    },
    {
      "text": "he's good he's good he's he's smart",
      "start": 159.39,
      "duration": 5.64
    },
    {
      "text": "probably the most interesting thing to",
      "start": 163.13,
      "duration": 3.19
    },
    {
      "text": "watch ever when's tonight when you have",
      "start": 165.03,
      "duration": 2.31
    },
    {
      "text": "the flu and have been watching the",
      "start": 166.32,
      "duration": 3.6
    },
    {
      "text": "interwebs about coronavirus oh man I",
      "start": 167.34,
      "duration": 3.93
    },
    {
      "text": "hope you're fine I'm sure you will be",
      "start": 169.92,
      "duration": 6.45
    },
    {
      "text": "I'm sure you will be let's see here",
      "start": 171.27,
      "duration": 7.17
    },
    {
      "text": "better be able to support your",
      "start": 176.37,
      "duration": 5.25
    },
    {
      "text": "presuppositions 60 K now in fact at 50",
      "start": 178.44,
      "duration": 4.47
    },
    {
      "text": "new cases in 24 hours",
      "start": 181.62,
      "duration": 3.66
    },
    {
      "text": "oh yeah man this is the one I'm telling",
      "start": 182.91,
      "duration": 6.06
    },
    {
      "text": "you I have not been alarmed about this",
      "start": 185.28,
      "duration": 5.34
    },
    {
      "text": "katma stuff in the past but I'll tell",
      "start": 188.97,
      "duration": 3.15
    },
    {
      "text": "you this right now my friends I'm",
      "start": 190.62,
      "duration": 3.87
    },
    {
      "text": "alarmed about this one and I am NOT one",
      "start": 192.12,
      "duration": 5.73
    },
    {
      "text": "who is massively easy to alarm you could",
      "start": 194.49,
      "duration": 5.88
    },
    {
      "text": "even say I am disarmingly an alarm",
      "start": 197.85,
      "duration": 5.85
    },
    {
      "text": "middly Mishnah alright so what else do",
      "start": 200.37,
      "duration": 5.19
    },
    {
      "text": "we have here any other thoughts before",
      "start": 203.7,
      "duration": 3.66
    },
    {
      "text": "we go on somebody says I would love to",
      "start": 205.56,
      "duration": 3.15
    },
    {
      "text": "have you on my show sometime for a chat",
      "start": 207.36,
      "duration": 4.92
    },
    {
      "text": "love you show thank you send me and the",
      "start": 208.71,
      "duration": 5.16
    },
    {
      "text": "Communists will go personal no no no",
      "start": 212.28,
      "duration": 2.64
    },
    {
      "text": "he's against communism",
      "start": 213.87,
      "duration": 3.06
    },
    {
      "text": "he said he's against communism he's he's",
      "start": 214.92,
      "duration": 4.74
    },
    {
      "text": "a nice Christian boy Jay's mom says he's",
      "start": 216.93,
      "duration": 4.13
    },
    {
      "text": "a very nice boy hey",
      "start": 219.66,
      "duration": 3.81
    },
    {
      "text": "but enough about his fiancee all right",
      "start": 221.06,
      "duration": 4.42
    },
    {
      "text": "what's the topic I just told you sorry",
      "start": 223.47,
      "duration": 5.16
    },
    {
      "text": "you came in late and love from the",
      "start": 225.48,
      "duration": 6.39
    },
    {
      "text": "Pilbara desert in Australia ah good I'll",
      "start": 228.63,
      "duration": 4.92
    },
    {
      "text": "try and work it a little dry humor",
      "start": 231.87,
      "duration": 4.4
    },
    {
      "text": "he said working in a little dry humor",
      "start": 233.55,
      "duration": 4.83
    },
    {
      "text": "apparently the corona virus is piqued",
      "start": 236.27,
      "duration": 4.27
    },
    {
      "text": "and may be stabilized very shortly I",
      "start": 238.38,
      "duration": 4.41
    },
    {
      "text": "will tell you I do not believe that to",
      "start": 240.54,
      "duration": 5.64
    },
    {
      "text": "be the case but like in many things I am",
      "start": 242.79,
      "duration": 7.98
    },
    {
      "text": "overjoyed to be proven wrong and I just",
      "start": 246.18,
      "duration": 7.8
    },
    {
      "text": "wanted to mention as well for those of",
      "start": 250.77,
      "duration": 6.029
    },
    {
      "text": "you who don't know so those of you who",
      "start": 253.98,
      "duration": 6.35
    },
    {
      "text": "have very kindly generously and",
      "start": 256.799,
      "duration": 5.551
    },
    {
      "text": "wonderfully signed up for",
      "start": 260.33,
      "duration": 4.48
    },
    {
      "text": "we subscriptions on the subscribed star",
      "start": 262.35,
      "duration": 5.01
    },
    {
      "text": "channel that's subscribed Starcom",
      "start": 264.81,
      "duration": 4.05
    },
    {
      "text": "forward slash free domain",
      "start": 267.36,
      "duration": 3.75
    },
    {
      "text": "three bucks a month what is that ten",
      "start": 268.86,
      "duration": 4.649
    },
    {
      "text": "cents a day ten cents a day ten cents a",
      "start": 271.11,
      "duration": 4.2
    },
    {
      "text": "day dance and to dance",
      "start": 273.509,
      "duration": 4.831
    },
    {
      "text": "and so we've I've set up a server a",
      "start": 275.31,
      "duration": 5.639
    },
    {
      "text": "chance server a voice server and we",
      "start": 278.34,
      "duration": 3.99
    },
    {
      "text": "actually had a good chat last night",
      "start": 280.949,
      "duration": 3
    },
    {
      "text": "about potential ways to approach this",
      "start": 282.33,
      "duration": 4.709
    },
    {
      "text": "debate today so if you do sign up when",
      "start": 283.949,
      "duration": 5.34
    },
    {
      "text": "you do sign up you will get an invite to",
      "start": 287.039,
      "duration": 4.41
    },
    {
      "text": "the server wherein you can chat with",
      "start": 289.289,
      "duration": 5.041
    },
    {
      "text": "other listeners and myself I was around",
      "start": 291.449,
      "duration": 4.53
    },
    {
      "text": "chatting with people today while I was",
      "start": 294.33,
      "duration": 5.67
    },
    {
      "text": "working on prep for the debate so I I",
      "start": 295.979,
      "duration": 6.03
    },
    {
      "text": "hope that you will think about that",
      "start": 300,
      "duration": 5.25
    },
    {
      "text": "sorry to give mr. mr. pitch here but",
      "start": 302.009,
      "duration": 5.37
    },
    {
      "text": "it's kind of cool I mean it's funny",
      "start": 305.25,
      "duration": 4.59
    },
    {
      "text": "because it's like it's old-school man",
      "start": 307.379,
      "duration": 3.931
    },
    {
      "text": "really old-school because way back in",
      "start": 309.84,
      "duration": 4.44
    },
    {
      "text": "the day we used to have a community",
      "start": 311.31,
      "duration": 4.62
    },
    {
      "text": "server message board until it became",
      "start": 314.28,
      "duration": 6.539
    },
    {
      "text": "vulnerable to DDoS attacks and we used",
      "start": 315.93,
      "duration": 6.51
    },
    {
      "text": "to have a chat room and we used to have",
      "start": 320.819,
      "duration": 3.78
    },
    {
      "text": "like great debate that's on there and so",
      "start": 322.44,
      "duration": 5.129
    },
    {
      "text": "I'm hoping to bring that back and the",
      "start": 324.599,
      "duration": 4.141
    },
    {
      "text": "way that we'll do it is through",
      "start": 327.569,
      "duration": 4.171
    },
    {
      "text": "subscribe Sarthe um thank you Stefan is",
      "start": 328.74,
      "duration": 5.359
    },
    {
      "text": "going to get crushed by the dire wave",
      "start": 331.74,
      "duration": 5.19
    },
    {
      "text": "jay dyer is the reason I am an Orthodox",
      "start": 334.099,
      "duration": 7.54
    },
    {
      "text": "today all right and hail Cobra had to",
      "start": 336.93,
      "duration": 8.4
    },
    {
      "text": "know is that something to do with Stefan",
      "start": 341.639,
      "duration": 4.981
    },
    {
      "text": "Steph is very smart but his",
      "start": 345.33,
      "duration": 4.309
    },
    {
      "text": "presuppositions are unjustifiable",
      "start": 346.62,
      "duration": 4.71
    },
    {
      "text": "presuppositions doesn't it sound like",
      "start": 349.639,
      "duration": 3.301
    },
    {
      "text": "something you take before you take the",
      "start": 351.33,
      "duration": 4.559
    },
    {
      "text": "hemorrhoid treatment all right will you",
      "start": 352.94,
      "duration": 4.839
    },
    {
      "text": "support Trump this year I will support",
      "start": 355.889,
      "duration": 5.58
    },
    {
      "text": "the facts this year as I do every year",
      "start": 357.779,
      "duration": 6.32
    },
    {
      "text": "what is the debate topic reason evidence",
      "start": 361.469,
      "duration": 4.95
    },
    {
      "text": "empiricism metaphysics you name it it's",
      "start": 364.099,
      "duration": 4.301
    },
    {
      "text": "gonna be really really cool I hope you",
      "start": 366.419,
      "duration": 3.99
    },
    {
      "text": "have a fruitful discussion tonight hey",
      "start": 368.4,
      "duration": 5.639
    },
    {
      "text": "is that a reference to Genesis we'll see",
      "start": 370.409,
      "duration": 4.44
    },
    {
      "text": "we'll see",
      "start": 374.039,
      "duration": 2.91
    },
    {
      "text": "will this be like the debate with Peter",
      "start": 374.849,
      "duration": 7.921
    },
    {
      "text": "Joseph we shall see I've been looking",
      "start": 376.949,
      "duration": 10.201
    },
    {
      "text": "forward to it today so I I'm pleased I'm",
      "start": 382.77,
      "duration": 5.91
    },
    {
      "text": "glad that we're doing it and he's been",
      "start": 387.15,
      "duration": 3.54
    },
    {
      "text": "around for a while and I actually",
      "start": 388.68,
      "duration": 3.209
    },
    {
      "text": "mistook him for another guy on the",
      "start": 390.69,
      "duration": 5.219
    },
    {
      "text": "internet so I'm glad to have had that it",
      "start": 391.889,
      "duration": 5.37
    },
    {
      "text": "is going to be let I will tell you that",
      "start": 395.909,
      "duration": 3.271
    },
    {
      "text": "for sure you know he is there yeah he is",
      "start": 397.259,
      "duration": 3.69
    },
    {
      "text": "a tough and wily and intelligent and",
      "start": 399.18,
      "duration": 3.36
    },
    {
      "text": "well-educated and well-read",
      "start": 400.949,
      "duration": 4.441
    },
    {
      "text": "I won't say opponent but debate partner",
      "start": 402.54,
      "duration": 6.78
    },
    {
      "text": "I suppose you could say and somebody",
      "start": 405.39,
      "duration": 5.52
    },
    {
      "text": "said I just watched your myths of world",
      "start": 409.32,
      "duration": 4.71
    },
    {
      "text": "wars video from 2007 oh yes when the",
      "start": 410.91,
      "duration": 4.5
    },
    {
      "text": "resolution was lower and my skin was",
      "start": 414.03,
      "duration": 4.38
    },
    {
      "text": "smoother Peter Joseph is a Marxist yeah",
      "start": 415.41,
      "duration": 5.94
    },
    {
      "text": "kind of right kind of I wonder how bad",
      "start": 418.41,
      "duration": 6.72
    },
    {
      "text": "the chats gonna get you'll lose if you",
      "start": 421.35,
      "duration": 6.39
    },
    {
      "text": "start from observations def I am hosting",
      "start": 425.13,
      "duration": 4.68
    },
    {
      "text": "the debate and it's gonna be live",
      "start": 427.74,
      "duration": 3.96
    },
    {
      "text": "streamed which is great I'm really",
      "start": 429.81,
      "duration": 3.69
    },
    {
      "text": "really working to try because I produce",
      "start": 431.7,
      "duration": 3.96
    },
    {
      "text": "so many dang shows that I'm really",
      "start": 433.5,
      "duration": 4.35
    },
    {
      "text": "really trying to find ways to minimize",
      "start": 435.66,
      "duration": 3.24
    },
    {
      "text": "the amount of sort of post-production",
      "start": 437.85,
      "duration": 3.45
    },
    {
      "text": "labor that is needed in this kind of",
      "start": 438.9,
      "duration": 4.95
    },
    {
      "text": "situation staff is top 10 sexiest males",
      "start": 441.3,
      "duration": 4.65
    },
    {
      "text": "of YouTube actually I will tell you this",
      "start": 443.85,
      "duration": 5.1
    },
    {
      "text": "to my friends that's all ten it's not",
      "start": 445.95,
      "duration": 5.04
    },
    {
      "text": "just I'm not in the top ten I am the top",
      "start": 448.95,
      "duration": 4.65
    },
    {
      "text": "ten all right let me just adjust my tool",
      "start": 450.99,
      "duration": 4.8
    },
    {
      "text": "belt and the snake I have wrapped around",
      "start": 453.6,
      "duration": 4.62
    },
    {
      "text": "my snake all right Steph obviously will",
      "start": 455.79,
      "duration": 4.44
    },
    {
      "text": "win now the truth will win the truth",
      "start": 458.22,
      "duration": 2.55
    },
    {
      "text": "will win",
      "start": 460.23,
      "duration": 2.34
    },
    {
      "text": "would you ever cast a bronze sword with",
      "start": 460.77,
      "duration": 4.91
    },
    {
      "text": "Sargon doesn't doesn't Sargon do",
      "start": 462.57,
      "duration": 6.06
    },
    {
      "text": "Dungeons \u0026 Dragons I actually had this I",
      "start": 465.68,
      "duration": 3.94
    },
    {
      "text": "was talking about this with my daughter",
      "start": 468.63,
      "duration": 3.05
    },
    {
      "text": "the other day that I have this thought",
      "start": 469.62,
      "duration": 4.89
    },
    {
      "text": "about running a Dungeons \u0026 Dragons",
      "start": 471.68,
      "duration": 5.62
    },
    {
      "text": "campaign over Skype and live-streaming",
      "start": 474.51,
      "duration": 4.92
    },
    {
      "text": "it out all of that because I was a",
      "start": 477.3,
      "duration": 3.98
    },
    {
      "text": "really really good dungeon master really",
      "start": 479.43,
      "duration": 4.53
    },
    {
      "text": "atmospheric and good good characters and",
      "start": 481.28,
      "duration": 5.17
    },
    {
      "text": "so on would you or anyone be interested",
      "start": 483.96,
      "duration": 5.31
    },
    {
      "text": "in that just let me let me know because",
      "start": 486.45,
      "duration": 6.42
    },
    {
      "text": "I I do like me some dungeons and dragons",
      "start": 489.27,
      "duration": 6.66
    },
    {
      "text": "that is very very cool Steph do you have",
      "start": 492.87,
      "duration": 5.13
    },
    {
      "text": "any volunteering opportunities you know",
      "start": 495.93,
      "duration": 4.89
    },
    {
      "text": "make make the case make the case Jay",
      "start": 498,
      "duration": 4.26
    },
    {
      "text": "will go after your ability to make",
      "start": 500.82,
      "duration": 4.14
    },
    {
      "text": "Universal claims yeah Steph will you",
      "start": 502.26,
      "duration": 3.78
    },
    {
      "text": "ever do it truth about Andrew Jackson",
      "start": 504.96,
      "duration": 2.85
    },
    {
      "text": "I'd love to hear it yeah throw some",
      "start": 506.04,
      "duration": 3.81
    },
    {
      "text": "throw some slides together for me man",
      "start": 507.81,
      "duration": 5.07
    },
    {
      "text": "and I be I'd be happy to",
      "start": 509.85,
      "duration": 7.319
    },
    {
      "text": "let's see your awesome staff thank you",
      "start": 512.88,
      "duration": 5.91
    },
    {
      "text": "for all that you do thank you so much my",
      "start": 517.169,
      "duration": 2.971
    },
    {
      "text": "friend it's a very very kind it is a",
      "start": 518.79,
      "duration": 6.36
    },
    {
      "text": "wonderfully wonderful privilege here's",
      "start": 520.14,
      "duration": 6.51
    },
    {
      "text": "something I don't understand",
      "start": 525.15,
      "duration": 4.5
    },
    {
      "text": "CJ - it talks the papacy not being",
      "start": 526.65,
      "duration": 4.56
    },
    {
      "text": "necessary for survival of the church yet",
      "start": 529.65,
      "duration": 3.41
    },
    {
      "text": "the Pope saved East from swimming in",
      "start": 531.21,
      "duration": 4.85
    },
    {
      "text": "monophysitism",
      "start": 533.06,
      "duration": 3
    },
    {
      "text": "I'm gonna have to plead the fifth on",
      "start": 536.2,
      "duration": 3.36
    },
    {
      "text": "that one I don't know what that what",
      "start": 537.55,
      "duration": 4.26
    },
    {
      "text": "that means hey what were the J divided",
      "start": 539.56,
      "duration": 4.92
    },
    {
      "text": "Jedi debate the about the role of Reason",
      "start": 541.81,
      "duration": 4.74
    },
    {
      "text": "in the pursuit of knowledge do you",
      "start": 544.48,
      "duration": 3.57
    },
    {
      "text": "believe there's an imminent pandemic now",
      "start": 546.55,
      "duration": 3.69
    },
    {
      "text": "yes I do",
      "start": 548.05,
      "duration": 3.96
    },
    {
      "text": "D\u0026D is mental push ups to the",
      "start": 550.24,
      "duration": 2.37
    },
    {
      "text": "imagination",
      "start": 552.01,
      "duration": 2.79
    },
    {
      "text": "it's true man it is really true boy oh",
      "start": 552.61,
      "duration": 4.29
    },
    {
      "text": "boy oh boy would you be posting good on",
      "start": 554.8,
      "duration": 4.98
    },
    {
      "text": "YouTube yeah Steph did you know you can",
      "start": 556.9,
      "duration": 5.19
    },
    {
      "text": "cook a steak in the dishwasher hey man",
      "start": 559.78,
      "duration": 3.78
    },
    {
      "text": "just because somebody's out there",
      "start": 562.09,
      "duration": 2.94
    },
    {
      "text": "washing your dishes doesn't mean you",
      "start": 563.56,
      "duration": 3.51
    },
    {
      "text": "should insert a steak into them unless",
      "start": 565.03,
      "duration": 3.18
    },
    {
      "text": "they're a vampire in which case you",
      "start": 567.07,
      "duration": 4.23
    },
    {
      "text": "really should please don't hold any",
      "start": 568.21,
      "duration": 4.41
    },
    {
      "text": "punches smash the guy in this debate",
      "start": 571.3,
      "duration": 6.12
    },
    {
      "text": "sweep for me all right all right Stefan",
      "start": 572.62,
      "duration": 6.03
    },
    {
      "text": "is the strongest debater you know I",
      "start": 577.42,
      "duration": 2.67
    },
    {
      "text": "gotta tell you here's a little funny",
      "start": 578.65,
      "duration": 4.44
    },
    {
      "text": "little thing about my my body whenever a",
      "start": 580.09,
      "duration": 5.25
    },
    {
      "text": "camera is on me my nose gets itchy you",
      "start": 583.09,
      "duration": 4.44
    },
    {
      "text": "see this in in you know I'll just be",
      "start": 585.34,
      "duration": 3.6
    },
    {
      "text": "doing this and I'm like in the middle of",
      "start": 587.53,
      "duration": 3.63
    },
    {
      "text": "a so I'm basically just gonna take a",
      "start": 588.94,
      "duration": 4.23
    },
    {
      "text": "weedwacker up there and hope for the",
      "start": 591.16,
      "duration": 2.31
    },
    {
      "text": "best",
      "start": 593.17,
      "duration": 2.49
    },
    {
      "text": "how much time have we got before we go",
      "start": 593.47,
      "duration": 4.44
    },
    {
      "text": "ten minutes all right Steph do skyrim",
      "start": 595.66,
      "duration": 9.39
    },
    {
      "text": "videos I I'd like to it's a bit old now",
      "start": 597.91,
      "duration": 8.4
    },
    {
      "text": "isn't it I think ever coming out with a",
      "start": 605.05,
      "duration": 4.05
    },
    {
      "text": "new one let's see here",
      "start": 606.31,
      "duration": 4.59
    },
    {
      "text": "protip J rambles a lot but he doesn't",
      "start": 609.1,
      "duration": 3.72
    },
    {
      "text": "have a clear argument if you ask for a",
      "start": 610.9,
      "duration": 4.47
    },
    {
      "text": "formally valid syllogism he'd faceplant",
      "start": 612.82,
      "duration": 7.56
    },
    {
      "text": "yeah we'll see we'll see uh what is the",
      "start": 615.37,
      "duration": 7.17
    },
    {
      "text": "Scandinavian yeah I saw then will you be",
      "start": 620.38,
      "duration": 3.63
    },
    {
      "text": "doing another video on the coronavirus",
      "start": 622.54,
      "duration": 3.6
    },
    {
      "text": "you provided the best info I've seen so",
      "start": 624.01,
      "duration": 3.57
    },
    {
      "text": "far good luck for the debate - thank you",
      "start": 626.14,
      "duration": 4.07
    },
    {
      "text": "I will I will be doing one tomorrow and",
      "start": 627.58,
      "duration": 6.8
    },
    {
      "text": "for those of you who are invited to the",
      "start": 630.21,
      "duration": 9.42
    },
    {
      "text": "server I through subscribes are please -",
      "start": 634.38,
      "duration": 9.61
    },
    {
      "text": "remember - I would be watching that for",
      "start": 639.63,
      "duration": 7.03
    },
    {
      "text": "debate tips in there so that would be",
      "start": 643.99,
      "duration": 5.22
    },
    {
      "text": "that would be great the nose itch thing",
      "start": 646.66,
      "duration": 3.69
    },
    {
      "text": "could be bright lights what does that",
      "start": 649.21,
      "duration": 4.4
    },
    {
      "text": "mean what does that mean I don't know",
      "start": 650.35,
      "duration": 6.48
    },
    {
      "text": "J's J dies i ki was too high in he still",
      "start": 653.61,
      "duration": 5.26
    },
    {
      "text": "has hair how can he lose you know he is",
      "start": 656.83,
      "duration": 3.81
    },
    {
      "text": "a tasty slab of man meat there's no",
      "start": 658.87,
      "duration": 2.79
    },
    {
      "text": "question he's a good-looking guy",
      "start": 660.64,
      "duration": 3.81
    },
    {
      "text": "for sure do you have post-it notes I am",
      "start": 661.66,
      "duration": 5.349
    },
    {
      "text": "a post-it note no but that B's",
      "start": 664.45,
      "duration": 4.239
    },
    {
      "text": "good thing I bought the art of the",
      "start": 667.009,
      "duration": 5.971
    },
    {
      "text": "argument today yes that's right my",
      "start": 668.689,
      "duration": 5.4
    },
    {
      "text": "friends the art of the argument",
      "start": 672.98,
      "duration": 2.579
    },
    {
      "text": "available for little anyway you can get",
      "start": 674.089,
      "duration": 3.391
    },
    {
      "text": "that in Amazon you can see the link art",
      "start": 675.559,
      "duration": 4.26
    },
    {
      "text": "of the argument calm how long will the",
      "start": 677.48,
      "duration": 5.129
    },
    {
      "text": "debate be until last man standing rules",
      "start": 679.819,
      "duration": 6.48
    },
    {
      "text": "is gonna be how it goes take notes chat",
      "start": 682.609,
      "duration": 5.22
    },
    {
      "text": "staff is going to put on a clinic please",
      "start": 686.299,
      "duration": 3
    },
    {
      "text": "do a show on negative interest rates and",
      "start": 687.829,
      "duration": 3.93
    },
    {
      "text": "the cash banned in Australia how long",
      "start": 689.299,
      "duration": 4.44
    },
    {
      "text": "will the debate be a long time I don't",
      "start": 691.759,
      "duration": 3.24
    },
    {
      "text": "know but the see the agreement is that's",
      "start": 693.739,
      "duration": 6.18
    },
    {
      "text": "the Chinese one and I probably 242 new",
      "start": 694.999,
      "duration": 8.25
    },
    {
      "text": "deaths in the province yeah it's it's",
      "start": 699.919,
      "duration": 4.38
    },
    {
      "text": "bad it's bad",
      "start": 703.249,
      "duration": 3.481
    },
    {
      "text": "any advice for apathy apathy is rage",
      "start": 704.299,
      "duration": 3.96
    },
    {
      "text": "spread thin so figure out what you're",
      "start": 706.73,
      "duration": 5.969
    },
    {
      "text": "angry about and why you want to see if",
      "start": 708.259,
      "duration": 7.651
    },
    {
      "text": "people are if people have bullied us to",
      "start": 712.699,
      "duration": 4.89
    },
    {
      "text": "be successful in our lives because it",
      "start": 715.91,
      "duration": 3.839
    },
    {
      "text": "feeds their vanity then we'll like well",
      "start": 717.589,
      "duration": 3.15
    },
    {
      "text": "to hell I'm not going to feed your",
      "start": 719.749,
      "duration": 2.58
    },
    {
      "text": "vanity I'm going to be a failure and it",
      "start": 720.739,
      "duration": 3.421
    },
    {
      "text": "usually means that you're angry stiff",
      "start": 722.329,
      "duration": 4.95
    },
    {
      "text": "and assert its false dichotomy why on",
      "start": 724.16,
      "duration": 5.419
    },
    {
      "text": "earth would you want to choose all right",
      "start": 727.279,
      "duration": 5.24
    },
    {
      "text": "J fills them books with post-it notes",
      "start": 729.579,
      "duration": 5.17
    },
    {
      "text": "Steph as a business person you should",
      "start": 732.519,
      "duration": 5.021
    },
    {
      "text": "benefit from the low interest rates well",
      "start": 734.749,
      "duration": 4.231
    },
    {
      "text": "except that the low interest rates means",
      "start": 737.54,
      "duration": 3
    },
    {
      "text": "less savings which means less investment",
      "start": 738.98,
      "duration": 4.409
    },
    {
      "text": "which means means less worker efficiency",
      "start": 740.54,
      "duration": 6.269
    },
    {
      "text": "and all that kind of stuff right truth",
      "start": 743.389,
      "duration": 4.8
    },
    {
      "text": "about Einstein what happened to that",
      "start": 746.809,
      "duration": 2.07
    },
    {
      "text": "Stephon",
      "start": 748.189,
      "duration": 5.281
    },
    {
      "text": "oh boy if if I had a dime for every",
      "start": 748.879,
      "duration": 6.75
    },
    {
      "text": "project I've got somewhat finished man I",
      "start": 753.47,
      "duration": 3.449
    },
    {
      "text": "mean I'm in about two thirds of the way",
      "start": 755.629,
      "duration": 3.3
    },
    {
      "text": "through the truth about Immanuel Kant I",
      "start": 756.919,
      "duration": 3.57
    },
    {
      "text": "can't finish it",
      "start": 758.929,
      "duration": 5.041
    },
    {
      "text": "oh that even hurt my dad funny bone I'm",
      "start": 760.489,
      "duration": 5.34
    },
    {
      "text": "sorry about that I'm just sorry about",
      "start": 763.97,
      "duration": 2.94
    },
    {
      "text": "that will you discuss the nature of",
      "start": 765.829,
      "duration": 4.17
    },
    {
      "text": "objective truth yes hey it's free real",
      "start": 766.91,
      "duration": 7.019
    },
    {
      "text": "estate all right all right why is the",
      "start": 769.999,
      "duration": 6.69
    },
    {
      "text": "camera bobbing oh sorry I'm it's sitting",
      "start": 773.929,
      "duration": 4.2
    },
    {
      "text": "on something and I've got a mouse going",
      "start": 776.689,
      "duration": 1.74
    },
    {
      "text": "here",
      "start": 778.129,
      "duration": 3.3
    },
    {
      "text": "or maybe I'm bobbing - J will be",
      "start": 778.429,
      "duration": 4.95
    },
    {
      "text": "condescending his tactic is to anger",
      "start": 781.429,
      "duration": 5.1
    },
    {
      "text": "yeah we'll see we'll see is the debate",
      "start": 783.379,
      "duration": 5.04
    },
    {
      "text": "on the kill stream I don't know what",
      "start": 786.529,
      "duration": 3
    },
    {
      "text": "that means",
      "start": 788.419,
      "duration": 3.63
    },
    {
      "text": "I'm just like you can stream to like",
      "start": 789.529,
      "duration": 3.99
    },
    {
      "text": "custom servers and stuff like that but",
      "start": 792.049,
      "duration": 3.6
    },
    {
      "text": "for this one I'm trying not to get I've",
      "start": 793.519,
      "duration": 4.53
    },
    {
      "text": "sort of got this new rule don't try more",
      "start": 795.649,
      "duration": 3.87
    },
    {
      "text": "than one horrible technical thing at",
      "start": 798.049,
      "duration": 2.401
    },
    {
      "text": "once",
      "start": 799.519,
      "duration": 2.521
    },
    {
      "text": "so I'll just stream this to YouTube",
      "start": 800.45,
      "duration": 3.74
    },
    {
      "text": "please go on the Joe Rogan show again",
      "start": 802.04,
      "duration": 4.89
    },
    {
      "text": "you know it's not gonna happen it's not",
      "start": 804.19,
      "duration": 3.34
    },
    {
      "text": "gonna happen",
      "start": 806.93,
      "duration": 3.99
    },
    {
      "text": "hey Molyneux hey Apple I'm a single",
      "start": 807.53,
      "duration": 5.46
    },
    {
      "text": "black woman in my 40s love you work love",
      "start": 810.92,
      "duration": 3.21
    },
    {
      "text": "you back thank you very much for your",
      "start": 812.99,
      "duration": 2.67
    },
    {
      "text": "kind words I'm glad that you find it",
      "start": 814.13,
      "duration": 4.65
    },
    {
      "text": "useful what's your favorite brain food",
      "start": 815.66,
      "duration": 6.74
    },
    {
      "text": "you're smart well obviously papyrus with",
      "start": 818.78,
      "duration": 6.44
    },
    {
      "text": "Aristotle's blood and semen all over it",
      "start": 822.4,
      "duration": 4.39
    },
    {
      "text": "are you afraid of",
      "start": 825.22,
      "duration": 3.58
    },
    {
      "text": "Einstein due to anti-semitism I don't",
      "start": 826.79,
      "duration": 4.53
    },
    {
      "text": "know what that means I'm afraid Jay",
      "start": 828.8,
      "duration": 4.8
    },
    {
      "text": "annihilated NIC Fuentes I don't know",
      "start": 831.32,
      "duration": 4.71
    },
    {
      "text": "Nexus smart guy man that's he's a smart",
      "start": 833.6,
      "duration": 5.31
    },
    {
      "text": "guy and a good debater outrageous guy in",
      "start": 836.03,
      "duration": 6.42
    },
    {
      "text": "many ways but some real talent Stephan",
      "start": 838.91,
      "duration": 7.44
    },
    {
      "text": "Joe Rogan or oil and h2o what time does",
      "start": 842.45,
      "duration": 5.52
    },
    {
      "text": "the debate start my gosh in about five",
      "start": 846.35,
      "duration": 2.85
    },
    {
      "text": "minutes okay listen I better jump off",
      "start": 847.97,
      "duration": 2.79
    },
    {
      "text": "this I just wanted to jump on test the",
      "start": 849.2,
      "duration": 4.2
    },
    {
      "text": "tech say hello to my lovely friends out",
      "start": 850.76,
      "duration": 5.76
    },
    {
      "text": "there and it's all coming through nice",
      "start": 853.4,
      "duration": 5.6
    },
    {
      "text": "and smooth and clear which is great and",
      "start": 856.52,
      "duration": 5.07
    },
    {
      "text": "the debates gonna be free right here",
      "start": 859,
      "duration": 7.99
    },
    {
      "text": "right here on on YouTube so I will just",
      "start": 861.59,
      "duration": 8.22
    },
    {
      "text": "turn this off and see you guys in a",
      "start": 866.99,
      "duration": 4.29
    },
    {
      "text": "couple of minutes feel free to give me",
      "start": 869.81,
      "duration": 3.65
    },
    {
      "text": "suggestions and thoughts in the chat and",
      "start": 871.28,
      "duration": 7.25
    },
    {
      "text": "I love you guys jack you soon",
      "start": 873.46,
      "duration": 5.07
    }
  ],
  "Errors": null,
  "TranscriptStderr": null
}