{
  "Title": "Anti-Trump Leftist Hysteria | Lauren Southern and Stefan Molyneux",
  "Id": "5h3hC5ZdMvs",
  "Transcript": [
    {
      "text": "hi everybody's defend molyneux from",
      "start": 0,
      "duration": 2.939
    },
    {
      "text": "freedomain radio back with a good friend",
      "start": 1.439,
      "duration": 3.15
    },
    {
      "text": "Lauren southern she's the hostess",
      "start": 2.939,
      "duration": 4.471
    },
    {
      "text": "scanned off on the rebel media and the",
      "start": 4.589,
      "duration": 5.521
    },
    {
      "text": "author of Bavarian how the baby boomers",
      "start": 7.41,
      "duration": 4.979
    },
    {
      "text": "immigration and Islam screwed my",
      "start": 10.11,
      "duration": 4.59
    },
    {
      "text": "generation you can order this fantastic",
      "start": 12.389,
      "duration": 4.98
    },
    {
      "text": "book which is number one in Canada I",
      "start": 14.7,
      "duration": 5.01
    },
    {
      "text": "believe as we speak and catching up to",
      "start": 17.369,
      "duration": 4.381
    },
    {
      "text": "megyn kelly in the ultimate battle of",
      "start": 19.71,
      "duration": 4.05
    },
    {
      "text": "the blondes and you can order the book",
      "start": 21.75,
      "duration": 4.59
    },
    {
      "text": "at barbarians book comm follow Lauren on",
      "start": 23.76,
      "duration": 5.009
    },
    {
      "text": "twitter.com slash Lauren and Abbas",
      "start": 26.34,
      "duration": 5.429
    },
    {
      "text": "southern and the rebel Mediacom Lauren",
      "start": 28.769,
      "duration": 6.661
    },
    {
      "text": "southern so Lauren half how was your",
      "start": 31.769,
      "duration": 5.79
    },
    {
      "text": "weekend house how's your luck did you",
      "start": 35.43,
      "duration": 3.75
    },
    {
      "text": "did you get up to anything did you get",
      "start": 37.559,
      "duration": 3.511
    },
    {
      "text": "out at all did you catch some Sun did",
      "start": 39.18,
      "duration": 3.12
    },
    {
      "text": "you catch some pepper spray",
      "start": 41.07,
      "duration": 5.399
    },
    {
      "text": "housing how pretty tall weekend what for",
      "start": 42.3,
      "duration": 6.48
    },
    {
      "text": "a really long walk a little pepper spray",
      "start": 46.469,
      "duration": 5.191
    },
    {
      "text": "in the air is good time as you can tell",
      "start": 48.78,
      "duration": 5.57
    },
    {
      "text": "by my voice had a little too much fun",
      "start": 51.66,
      "duration": 6.809
    },
    {
      "text": "and and rocks and garbage can",
      "start": 54.35,
      "duration": 6.13
    },
    {
      "text": "well all manner of things going through",
      "start": 58.469,
      "duration": 3.75
    },
    {
      "text": "the air one thing not going through the",
      "start": 60.48,
      "duration": 4.41
    },
    {
      "text": "air any kind of rational arguments from",
      "start": 62.219,
      "duration": 4.381
    },
    {
      "text": "the people you have in conversation - it",
      "start": 64.89,
      "duration": 3.72
    },
    {
      "text": "does seem to be rather conspicuously",
      "start": 66.6,
      "duration": 3.21
    },
    {
      "text": "absent which is I guess why the",
      "start": 68.61,
      "duration": 3.9
    },
    {
      "text": "aforementioned rocks and garbage cans",
      "start": 69.81,
      "duration": 5.19
    },
    {
      "text": "were flying through the air right well",
      "start": 72.51,
      "duration": 5.19
    },
    {
      "text": "the big point they had was we do not",
      "start": 75,
      "duration": 5.4
    },
    {
      "text": "negotiate with fascists we do not talk",
      "start": 77.7,
      "duration": 5.01
    },
    {
      "text": "to fascist doesn't matter what the",
      "start": 80.4,
      "duration": 4.92
    },
    {
      "text": "actual definition of fascist is they",
      "start": 82.71,
      "duration": 4.65
    },
    {
      "text": "just don't talk to anyone that they deem",
      "start": 85.32,
      "duration": 6.18
    },
    {
      "text": "a fascist and unfortunately I was on",
      "start": 87.36,
      "duration": 6.119
    },
    {
      "text": "their list of fascists of the deplorable",
      "start": 91.5,
      "duration": 5.34
    },
    {
      "text": "along with Cassandra Fairbanks and Mike",
      "start": 93.479,
      "duration": 6.121
    },
    {
      "text": "sort of it's so walking there was a hell",
      "start": 96.84,
      "duration": 5.58
    },
    {
      "text": "of a time it felt like a I don't know",
      "start": 99.6,
      "duration": 4.409
    },
    {
      "text": "like news that you're the kind of",
      "start": 102.42,
      "duration": 3.3
    },
    {
      "text": "paparazzi tons of the mainstream media",
      "start": 104.009,
      "duration": 4.11
    },
    {
      "text": "getting pictures men like chanting with",
      "start": 105.72,
      "duration": 4.59
    },
    {
      "text": "war drums as you're walking in and they",
      "start": 108.119,
      "duration": 5.07
    },
    {
      "text": "were just shrieking at you oh it was a",
      "start": 110.31,
      "duration": 4.89
    },
    {
      "text": "really surreal experience walking into",
      "start": 113.189,
      "duration": 5.191
    },
    {
      "text": "deplorable not quite as to realize the",
      "start": 115.2,
      "duration": 6.029
    },
    {
      "text": "next day going to the surrounding",
      "start": 118.38,
      "duration": 4.89
    },
    {
      "text": "blockades around the Trump inauguration",
      "start": 121.229,
      "duration": 4.561
    },
    {
      "text": "where they add black bloc protesters an",
      "start": 123.27,
      "duration": 6.09
    },
    {
      "text": "tyfa and an oracle communists",
      "start": 125.79,
      "duration": 7.02
    },
    {
      "text": "protesting it is wild having seen the",
      "start": 129.36,
      "duration": 5.84
    },
    {
      "text": "videos of you and Mike Serna bitch and",
      "start": 132.81,
      "duration": 5.07
    },
    {
      "text": "Gavin McGinnis and other people what to",
      "start": 135.2,
      "duration": 5.26
    },
    {
      "text": "me was really astonishing was seeing",
      "start": 137.88,
      "duration": 5.25
    },
    {
      "text": "people chanting these like mindless",
      "start": 140.46,
      "duration": 5.01
    },
    {
      "text": "hypnotic drive me crazy like intelligent",
      "start": 143.13,
      "duration": 3.78
    },
    {
      "text": "people get driven crazy by repetition",
      "start": 145.47,
      "duration": 2.73
    },
    {
      "text": "but less intelligent people seem to",
      "start": 146.91,
      "duration": 4.05
    },
    {
      "text": "thrive in that echo chamber and hitting",
      "start": 148.2,
      "duration": 4.83
    },
    {
      "text": "things with hammers and hitting like one",
      "start": 150.96,
      "duration": 3.63
    },
    {
      "text": "guy was hitting something with a rock",
      "start": 153.03,
      "duration": 3.72
    },
    {
      "text": "and it's like man we've come a long way",
      "start": 154.59,
      "duration": 3.3
    },
    {
      "text": "from the Enlightenment now which is",
      "start": 156.75,
      "duration": 2.55
    },
    {
      "text": "chanting and hitting things with rocks",
      "start": 157.89,
      "duration": 2.91
    },
    {
      "text": "like what's next we it's like we're",
      "start": 159.3,
      "duration": 3.9
    },
    {
      "text": "rewinding the 2001 movie when it goes",
      "start": 160.8,
      "duration": 4.35
    },
    {
      "text": "from spaceships so that like Abe hitting",
      "start": 163.2,
      "duration": 4.23
    },
    {
      "text": "something with a bone and you know",
      "start": 165.15,
      "duration": 3.99
    },
    {
      "text": "what's crazy as a lot of people will",
      "start": 167.43,
      "duration": 3.09
    },
    {
      "text": "probably see in the raw for the giant",
      "start": 169.14,
      "duration": 4.74
    },
    {
      "text": "uploaded but that you know that night I",
      "start": 170.52,
      "duration": 6.06
    },
    {
      "text": "believe it got even crazier and I just",
      "start": 173.88,
      "duration": 4.89
    },
    {
      "text": "haven't uploaded that yet people were",
      "start": 176.58,
      "duration": 4.83
    },
    {
      "text": "literally breaking bricks on the ground",
      "start": 178.77,
      "duration": 4.32
    },
    {
      "text": "they were pulling them out from the",
      "start": 181.41,
      "duration": 2.25
    },
    {
      "text": "street",
      "start": 183.09,
      "duration": 2.34
    },
    {
      "text": "bricks breaking them on the ground and",
      "start": 183.66,
      "duration": 4.62
    },
    {
      "text": "just tossing them in the air at cops and",
      "start": 185.43,
      "duration": 5.25
    },
    {
      "text": "myself and a few my friends Tim Cole and",
      "start": 188.28,
      "duration": 4.74
    },
    {
      "text": "Luke radowski we were having to hide",
      "start": 190.68,
      "duration": 4.68
    },
    {
      "text": "under a terrace because for bricks",
      "start": 193.02,
      "duration": 4.2
    },
    {
      "text": "flying through the air at cops and that",
      "start": 195.36,
      "duration": 5.55
    },
    {
      "text": "journalists it was just unreal and I'm",
      "start": 197.22,
      "duration": 5.88
    },
    {
      "text": "sure you thought they said his set of",
      "start": 200.91,
      "duration": 5.31
    },
    {
      "text": "limousine on fire you're smashing all of",
      "start": 203.1,
      "duration": 6.12
    },
    {
      "text": "the car windows military vehicle going",
      "start": 206.22,
      "duration": 4.739
    },
    {
      "text": "by that they were spray-painting and",
      "start": 209.22,
      "duration": 4.38
    },
    {
      "text": "trying to smash the windows up I mean I",
      "start": 210.959,
      "duration": 4.741
    },
    {
      "text": "never seen anything like it and the",
      "start": 213.6,
      "duration": 3.48
    },
    {
      "text": "thing that will probably make you the",
      "start": 215.7,
      "duration": 4.11
    },
    {
      "text": "most sad I think is amongst all of these",
      "start": 217.08,
      "duration": 5.129
    },
    {
      "text": "protesters there were some young young",
      "start": 219.81,
      "duration": 5.31
    },
    {
      "text": "people there I mean they were maybe",
      "start": 222.209,
      "duration": 5.551
    },
    {
      "text": "grade 10 grade 11 as well and they were",
      "start": 225.12,
      "duration": 4.77
    },
    {
      "text": "saying this is so cool this is awesome",
      "start": 227.76,
      "duration": 3.75
    },
    {
      "text": "or opposing Trump and I'm sitting there",
      "start": 229.89,
      "duration": 4.56
    },
    {
      "text": "like you guys are kids your kids here",
      "start": 231.51,
      "duration": 5.1
    },
    {
      "text": "burning down your city well I don't",
      "start": 234.45,
      "duration": 4.53
    },
    {
      "text": "think you even fully understand what",
      "start": 236.61,
      "duration": 4.68
    },
    {
      "text": "Trump stands for what the ideas are here",
      "start": 238.98,
      "duration": 5.37
    },
    {
      "text": "but what caused this while there is all",
      "start": 241.29,
      "duration": 4.53
    },
    {
      "text": "the media they were listening to is the",
      "start": 244.35,
      "duration": 2.669
    },
    {
      "text": "school they literally believe they're",
      "start": 245.82,
      "duration": 4.889
    },
    {
      "text": "protesting literally Hitler and that's",
      "start": 247.019,
      "duration": 5.641
    },
    {
      "text": "why this is happening as because they",
      "start": 250.709,
      "duration": 3.271
    },
    {
      "text": "truly believe they're doing this for a",
      "start": 252.66,
      "duration": 2.01
    },
    {
      "text": "good cause",
      "start": 253.98,
      "duration": 2.58
    },
    {
      "text": "I'm not sure how smashing windows of",
      "start": 254.67,
      "duration": 3.72
    },
    {
      "text": "helping that but they're very very",
      "start": 256.56,
      "duration": 5.01
    },
    {
      "text": "misguided I mentioned this in a video",
      "start": 258.39,
      "duration": 4.26
    },
    {
      "text": "recently",
      "start": 261.57,
      "duration": 3.24
    },
    {
      "text": "it it makes me so angry to think of",
      "start": 262.65,
      "duration": 3.66
    },
    {
      "text": "these you know middle-aged comfortable",
      "start": 264.81,
      "duration": 3.6
    },
    {
      "text": "millionaire millionaires in the media",
      "start": 266.31,
      "duration": 3.75
    },
    {
      "text": "sitting in their air-conditioned offices",
      "start": 268.41,
      "duration": 3.93
    },
    {
      "text": "pumping these impressionable kids who",
      "start": 270.06,
      "duration": 3.6
    },
    {
      "text": "haven't been taught critical thinking",
      "start": 272.34,
      "duration": 2.579
    },
    {
      "text": "skills because the school system is",
      "start": 273.66,
      "duration": 3.09
    },
    {
      "text": "terrible they're pumping these kids up",
      "start": 274.919,
      "duration": 3.991
    },
    {
      "text": "it's so much anger so much rage so",
      "start": 276.75,
      "duration": 4.08
    },
    {
      "text": "little compromise so little reason so",
      "start": 278.91,
      "duration": 3.99
    },
    {
      "text": "little listening and these kids going",
      "start": 280.83,
      "duration": 4.2
    },
    {
      "text": "out and smashing things up and so on and",
      "start": 282.9,
      "duration": 3.42
    },
    {
      "text": "now couple of hundreds that we've",
      "start": 285.03,
      "duration": 2.94
    },
    {
      "text": "arrested they're facing up to ten years",
      "start": 286.32,
      "duration": 4.14
    },
    {
      "text": "in prison but the people in the media",
      "start": 287.97,
      "duration": 4.229
    },
    {
      "text": "they're going back to their no no we'll",
      "start": 290.46,
      "duration": 3.72
    },
    {
      "text": "cut to the next commercial we go but the",
      "start": 292.199,
      "duration": 3.69
    },
    {
      "text": "kids themselves I mean there could be",
      "start": 294.18,
      "duration": 3.93
    },
    {
      "text": "years in prison because it's felony",
      "start": 295.889,
      "duration": 3.721
    },
    {
      "text": "rioting right it's not just a little",
      "start": 298.11,
      "duration": 3.059
    },
    {
      "text": "destruction it's not just a little bit",
      "start": 299.61,
      "duration": 2.49
    },
    {
      "text": "here and there I mean this is",
      "start": 301.169,
      "duration": 2.581
    },
    {
      "text": "significant stuff this is the age of",
      "start": 302.1,
      "duration": 3.39
    },
    {
      "text": "Trump I guess no one told them that he",
      "start": 303.75,
      "duration": 2.46
    },
    {
      "text": "was going to be the law-and-order",
      "start": 305.49,
      "duration": 2.549
    },
    {
      "text": "president and the stuff that they got",
      "start": 306.21,
      "duration": 3.269
    },
    {
      "text": "away with for the last eight years",
      "start": 308.039,
      "duration": 4.471
    },
    {
      "text": "that's off the table well you know",
      "start": 309.479,
      "duration": 5.481
    },
    {
      "text": "what's going to infuriate you even more",
      "start": 312.51,
      "duration": 4.62
    },
    {
      "text": "exactly what you were saying I was out",
      "start": 314.96,
      "duration": 3.61
    },
    {
      "text": "there when they were just about to set",
      "start": 317.13,
      "duration": 2.909
    },
    {
      "text": "that limousine on fire and I see this",
      "start": 318.57,
      "duration": 4.05
    },
    {
      "text": "car pull up on the side of the road it's",
      "start": 320.039,
      "duration": 6
    },
    {
      "text": "big black kind of bus and I see people",
      "start": 322.62,
      "duration": 4.89
    },
    {
      "text": "start banging on the window banging on",
      "start": 326.039,
      "duration": 3.091
    },
    {
      "text": "the window protesters start surrounding",
      "start": 327.51,
      "duration": 3.689
    },
    {
      "text": "it and I went over there and I look it's",
      "start": 329.13,
      "duration": 4.59
    },
    {
      "text": "Michael freaking Morrie's come to see",
      "start": 331.199,
      "duration": 5.461
    },
    {
      "text": "what all of his work has accomplished",
      "start": 333.72,
      "duration": 4.59
    },
    {
      "text": "and then as people start knocking",
      "start": 336.66,
      "duration": 3.12
    },
    {
      "text": "whether you just see him like tap his",
      "start": 338.31,
      "duration": 3.96
    },
    {
      "text": "driver and they start driving away he",
      "start": 339.78,
      "duration": 4.29
    },
    {
      "text": "comes in to see his anti-trump",
      "start": 342.27,
      "duration": 4.769
    },
    {
      "text": "protesting he has built up seized it",
      "start": 344.07,
      "duration": 4.89
    },
    {
      "text": "decides he doesn't want any freaking",
      "start": 347.039,
      "duration": 4.56
    },
    {
      "text": "part of it and drives off back to his",
      "start": 348.96,
      "duration": 5.28
    },
    {
      "text": "home back to his luxury lifestyle where",
      "start": 351.599,
      "duration": 4.29
    },
    {
      "text": "he doesn't have to see any of that where",
      "start": 354.24,
      "duration": 3.03
    },
    {
      "text": "he doesn't have to have his car smashed",
      "start": 355.889,
      "duration": 2.761
    },
    {
      "text": "where he doesn't have to have his",
      "start": 357.27,
      "duration": 3.42
    },
    {
      "text": "business destroyed no he stopped there",
      "start": 358.65,
      "duration": 6.449
    },
    {
      "text": "and he just pieces it well it's uh it's",
      "start": 360.69,
      "duration": 5.64
    },
    {
      "text": "wretched and of course these are people",
      "start": 365.099,
      "duration": 3.181
    },
    {
      "text": "on the Left who says really really bad",
      "start": 366.33,
      "duration": 4.29
    },
    {
      "text": "to exploit others it's really terrible",
      "start": 368.28,
      "duration": 4.319
    },
    {
      "text": "you know to say give them a job in a",
      "start": 370.62,
      "duration": 4.26
    },
    {
      "text": "mutually beneficial manner but to me the",
      "start": 372.599,
      "duration": 3.871
    },
    {
      "text": "exploitation of these impressionable",
      "start": 374.88,
      "duration": 2.88
    },
    {
      "text": "young and I don't mean to sort of strip",
      "start": 376.47,
      "duration": 2.819
    },
    {
      "text": "their free will they have choices they",
      "start": 377.76,
      "duration": 3.18
    },
    {
      "text": "have the Internet they could avail",
      "start": 379.289,
      "duration": 3.481
    },
    {
      "text": "themselves of better arguments if they",
      "start": 380.94,
      "duration": 3.87
    },
    {
      "text": "so choose but nonetheless they're still",
      "start": 382.77,
      "duration": 3.389
    },
    {
      "text": "you know they're in their late teens",
      "start": 384.81,
      "duration": 2.82
    },
    {
      "text": "their brains are still like half a",
      "start": 386.159,
      "duration": 3.031
    },
    {
      "text": "decade away from maturity that's still",
      "start": 387.63,
      "duration": 4.02
    },
    {
      "text": "very impressionable and they're being",
      "start": 389.19,
      "duration": 4.529
    },
    {
      "text": "used and they're going to be thrown",
      "start": 391.65,
      "duration": 3.72
    },
    {
      "text": "aside and they're going to be ground up",
      "start": 393.719,
      "duration": 2.741
    },
    {
      "text": "by a system",
      "start": 395.37,
      "duration": 2.29
    },
    {
      "text": "it's going to be extraordinarily",
      "start": 396.46,
      "duration": 3.329
    },
    {
      "text": "shocking to them when they when they",
      "start": 397.66,
      "duration": 3.93
    },
    {
      "text": "meet it and I really really can't",
      "start": 399.789,
      "duration": 3.961
    },
    {
      "text": "express how how angry it makes me just",
      "start": 401.59,
      "duration": 3.93
    },
    {
      "text": "how much they're being used by all these",
      "start": 403.75,
      "duration": 3.449
    },
    {
      "text": "people who claim that exploiting other",
      "start": 405.52,
      "duration": 3.179
    },
    {
      "text": "people is the worst thing you could",
      "start": 407.199,
      "duration": 4.801
    },
    {
      "text": "possibly do right and you know I've had",
      "start": 408.699,
      "duration": 5.011
    },
    {
      "text": "I've had some criticism of my video",
      "start": 412,
      "duration": 3.69
    },
    {
      "text": "recently I believe a big youtuber named",
      "start": 413.71,
      "duration": 3.81
    },
    {
      "text": "Thunderfoot he did a big thing on it",
      "start": 415.69,
      "duration": 4.02
    },
    {
      "text": "saying that these are just anarchists",
      "start": 417.52,
      "duration": 4.41
    },
    {
      "text": "they're not protesting trumpism this",
      "start": 419.71,
      "duration": 4.59
    },
    {
      "text": "isn't what the anti-trump sues it looks",
      "start": 421.93,
      "duration": 4.2
    },
    {
      "text": "like your fake news you're a hack Lauren",
      "start": 424.3,
      "duration": 3.72
    },
    {
      "text": "what I have to say to that is look at",
      "start": 426.13,
      "duration": 2.909
    },
    {
      "text": "Madonna",
      "start": 428.02,
      "duration": 3.869
    },
    {
      "text": "you've got Madonna out there saying I",
      "start": 429.039,
      "duration": 4.771
    },
    {
      "text": "want to blow up the White House you've",
      "start": 431.889,
      "duration": 3.361
    },
    {
      "text": "got these people truly believe that",
      "start": 433.81,
      "duration": 3.99
    },
    {
      "text": "radical actions need to happen and yes",
      "start": 435.25,
      "duration": 4.65
    },
    {
      "text": "only a few of the foot soldiers are",
      "start": 437.8,
      "duration": 3.989
    },
    {
      "text": "going to be out there getting arrested",
      "start": 439.9,
      "duration": 4.829
    },
    {
      "text": "for it maybe high school students young",
      "start": 441.789,
      "duration": 4.56
    },
    {
      "text": "stupid University students getting",
      "start": 444.729,
      "duration": 3.481
    },
    {
      "text": "arrested for it but I was interviewing",
      "start": 446.349,
      "duration": 3.331
    },
    {
      "text": "people on the street and they are saying",
      "start": 448.21,
      "duration": 3.69
    },
    {
      "text": "everyone's going to express themselves",
      "start": 449.68,
      "duration": 3.93
    },
    {
      "text": "how they want to express themselves in a",
      "start": 451.9,
      "duration": 4.5
    },
    {
      "text": "way by smashing windows no this isn't",
      "start": 453.61,
      "duration": 4.77
    },
    {
      "text": "just a small part of the anti-trump",
      "start": 456.4,
      "duration": 4.62
    },
    {
      "text": "movement a large amount of people truly",
      "start": 458.38,
      "duration": 4.44
    },
    {
      "text": "believe that violence is the way to stop",
      "start": 461.02,
      "duration": 5.579
    },
    {
      "text": "Trump that this is justified and I mean",
      "start": 462.82,
      "duration": 5.49
    },
    {
      "text": "even the women's March the women's March",
      "start": 466.599,
      "duration": 4.021
    },
    {
      "text": "the stuff they were like I don't think",
      "start": 468.31,
      "duration": 4.26
    },
    {
      "text": "that was an entirely they were saying is",
      "start": 470.62,
      "duration": 4.41
    },
    {
      "text": "a Nazi fascist Hitler as well how are",
      "start": 472.57,
      "duration": 4.349
    },
    {
      "text": "you supposed to respond to Nazi fascist",
      "start": 475.03,
      "duration": 4.439
    },
    {
      "text": "and Hitler you're supposed to violently",
      "start": 476.919,
      "duration": 4.47
    },
    {
      "text": "oppose them so what are people supposed",
      "start": 479.469,
      "duration": 5.311
    },
    {
      "text": "to do well when the rhetoric has become",
      "start": 481.389,
      "duration": 6.361
    },
    {
      "text": "escalated to that point I mean it's like",
      "start": 484.78,
      "duration": 5.49
    },
    {
      "text": "it's like watching two married like a",
      "start": 487.75,
      "duration": 3.24
    },
    {
      "text": "married couple",
      "start": 490.27,
      "duration": 2.459
    },
    {
      "text": "screaming how much they hate each other",
      "start": 490.99,
      "duration": 3.989
    },
    {
      "text": "it's like sorry your marriage is done at",
      "start": 492.729,
      "duration": 3.93
    },
    {
      "text": "this point I mean once you've escalated",
      "start": 494.979,
      "duration": 4.321
    },
    {
      "text": "to that kind of Who's Afraid of Virginia",
      "start": 496.659,
      "duration": 5.161
    },
    {
      "text": "Woolf rhetoric where do you go there's",
      "start": 499.3,
      "duration": 4.35
    },
    {
      "text": "no possibility of negotiation there's no",
      "start": 501.82,
      "duration": 3.899
    },
    {
      "text": "possibility of coexistence once you've",
      "start": 503.65,
      "duration": 3.93
    },
    {
      "text": "escalated things to that degree and I'm",
      "start": 505.719,
      "duration": 3.301
    },
    {
      "text": "fully aware I mean lots of people were",
      "start": 507.58,
      "duration": 3.179
    },
    {
      "text": "out protesting and you saw a lot of it",
      "start": 509.02,
      "duration": 3.509
    },
    {
      "text": "and a lot of them most of them of course",
      "start": 510.759,
      "duration": 3.691
    },
    {
      "text": "weren't violent and that's perfectly",
      "start": 512.529,
      "duration": 3.93
    },
    {
      "text": "valid and perfectly true that to me is",
      "start": 514.45,
      "duration": 3.3
    },
    {
      "text": "not the issue the issue is not that",
      "start": 516.459,
      "duration": 3.301
    },
    {
      "text": "there's a small number of violent people",
      "start": 517.75,
      "duration": 4.349
    },
    {
      "text": "in a larger group the issue is how",
      "start": 519.76,
      "duration": 4.86
    },
    {
      "text": "everyone else is responding to it how's",
      "start": 522.099,
      "duration": 3.93
    },
    {
      "text": "the mainstream media responding to it",
      "start": 524.62,
      "duration": 4.38
    },
    {
      "text": "could Obama and and Hillary Clinton have",
      "start": 526.029,
      "duration": 3.571
    },
    {
      "text": "step",
      "start": 529,
      "duration": 3.389
    },
    {
      "text": "out of the shadows - to say something to",
      "start": 529.6,
      "duration": 4.229
    },
    {
      "text": "calm this down could Michael Moore have",
      "start": 532.389,
      "duration": 4.411
    },
    {
      "text": "come out and thrown his gargantuan bulk",
      "start": 533.829,
      "duration": 5.43
    },
    {
      "text": "between the the violent people and the",
      "start": 536.8,
      "duration": 4.349
    },
    {
      "text": "objects of their violence could people",
      "start": 539.259,
      "duration": 3.301
    },
    {
      "text": "to form human chains because they have",
      "start": 541.149,
      "duration": 2.88
    },
    {
      "text": "pushed back they have rejected could",
      "start": 542.56,
      "duration": 4.35
    },
    {
      "text": "they have anything it's not to me the",
      "start": 544.029,
      "duration": 5.43
    },
    {
      "text": "spark it's everyone else blowing on that",
      "start": 546.91,
      "duration": 4.53
    },
    {
      "text": "spark that is the issue or stepping back",
      "start": 549.459,
      "duration": 5.461
    },
    {
      "text": "from it and letting it burn precisely",
      "start": 551.44,
      "duration": 5.129
    },
    {
      "text": "and I mean you had I'm sure you saw the",
      "start": 554.92,
      "duration": 3.39
    },
    {
      "text": "videos you had Trump supporters really",
      "start": 556.569,
      "duration": 4.38
    },
    {
      "text": "brave guys walking through that protest",
      "start": 558.31,
      "duration": 5.219
    },
    {
      "text": "one guy took a fire extinguisher and was",
      "start": 560.949,
      "duration": 4.351
    },
    {
      "text": "putting up the fires they had there and",
      "start": 563.529,
      "duration": 4.62
    },
    {
      "text": "it's dangerous fast to be out there I",
      "start": 565.3,
      "duration": 5.25
    },
    {
      "text": "mean I usually don't like having",
      "start": 568.149,
      "duration": 4.891
    },
    {
      "text": "security with me just yet you know cost",
      "start": 570.55,
      "duration": 4.2
    },
    {
      "text": "a lot of money and I like to do my",
      "start": 573.04,
      "duration": 4.77
    },
    {
      "text": "journalism at low low cost and I a",
      "start": 574.75,
      "duration": 5.339
    },
    {
      "text": "little too much overconfident but the",
      "start": 577.81,
      "duration": 4.23
    },
    {
      "text": "reality of it is these people were",
      "start": 580.089,
      "duration": 3.81
    },
    {
      "text": "blowing up they were punching people",
      "start": 582.04,
      "duration": 4.469
    },
    {
      "text": "never throwing eggs and rocks and",
      "start": 583.899,
      "duration": 4.411
    },
    {
      "text": "everything I mean immediately when I",
      "start": 586.509,
      "duration": 3.57
    },
    {
      "text": "dismissed my security I was getting",
      "start": 588.31,
      "duration": 3.899
    },
    {
      "text": "shoved in the street just for talking to",
      "start": 590.079,
      "duration": 6.021
    },
    {
      "text": "people with Trump hats on it was like",
      "start": 592.209,
      "duration": 7.11
    },
    {
      "text": "what happened to conversation in this",
      "start": 596.1,
      "duration": 5.02
    },
    {
      "text": "country what happened to sitting down",
      "start": 599.319,
      "duration": 3.931
    },
    {
      "text": "and saying this is why I disagree with",
      "start": 601.12,
      "duration": 4.29
    },
    {
      "text": "Trump who's going to be convinced by",
      "start": 603.25,
      "duration": 4.139
    },
    {
      "text": "rock-throwing who are they going to",
      "start": 605.41,
      "duration": 3.57
    },
    {
      "text": "convince by smashing their businesses I",
      "start": 607.389,
      "duration": 5.521
    },
    {
      "text": "can fathom how you can try kicking them",
      "start": 608.98,
      "duration": 5.459
    },
    {
      "text": "out no way you know I mean you know as",
      "start": 612.91,
      "duration": 2.94
    },
    {
      "text": "well as I do Lauren they're not trying",
      "start": 614.439,
      "duration": 3.33
    },
    {
      "text": "to convince anymore that they're trying",
      "start": 615.85,
      "duration": 4.32
    },
    {
      "text": "to intimidate they're trying to reject",
      "start": 617.769,
      "duration": 5.221
    },
    {
      "text": "the transfer of power and for people who",
      "start": 620.17,
      "duration": 4.5
    },
    {
      "text": "say well they're anarchists or every",
      "start": 622.99,
      "duration": 4.949
    },
    {
      "text": "slide that loses no no it's not every",
      "start": 624.67,
      "duration": 5.43
    },
    {
      "text": "time every side loses this stuff didn't",
      "start": 627.939,
      "duration": 3.57
    },
    {
      "text": "happen these guys went out protesting",
      "start": 630.1,
      "duration": 4.5
    },
    {
      "text": "and smashing out Starbucks and and the",
      "start": 631.509,
      "duration": 5.341
    },
    {
      "text": "poor garbage cans I mean what earth were",
      "start": 634.6,
      "duration": 3.87
    },
    {
      "text": "these people beaten by garbage cans when",
      "start": 636.85,
      "duration": 3.15
    },
    {
      "text": "they were younger why what is it with",
      "start": 638.47,
      "duration": 3.15
    },
    {
      "text": "the garbage cans I don't understand it's",
      "start": 640,
      "duration": 3.089
    },
    {
      "text": "just a fine nice way to contain a fire",
      "start": 641.62,
      "duration": 3.389
    },
    {
      "text": "but no there they're trying to",
      "start": 643.089,
      "duration": 4.35
    },
    {
      "text": "intimidate and this did not happen when",
      "start": 645.009,
      "duration": 4.02
    },
    {
      "text": "Barack Obama got into power I mean",
      "start": 647.439,
      "duration": 3.931
    },
    {
      "text": "although he was dedicated to expanding",
      "start": 649.029,
      "duration": 3.87
    },
    {
      "text": "the size and power of the state and did",
      "start": 651.37,
      "duration": 2.85
    },
    {
      "text": "so repeatedly whereas Trump of course",
      "start": 652.899,
      "duration": 3.331
    },
    {
      "text": "was already signed an order saying no",
      "start": 654.22,
      "duration": 4.469
    },
    {
      "text": "more regulations putting on hold the",
      "start": 656.23,
      "duration": 4.409
    },
    {
      "text": "growth of the hyper regulatory state so",
      "start": 658.689,
      "duration": 3.9
    },
    {
      "text": "you know bad anarchist I mean if you",
      "start": 660.639,
      "duration": 2.731
    },
    {
      "text": "want to protest",
      "start": 662.589,
      "duration": 2.521
    },
    {
      "text": "one protest someone increasing the size",
      "start": 663.37,
      "duration": 3.24
    },
    {
      "text": "and power of the state rather than",
      "start": 665.11,
      "duration": 2.7
    },
    {
      "text": "somebody who's working to try and",
      "start": 666.61,
      "duration": 3.21
    },
    {
      "text": "control and reduce it it's got nothing",
      "start": 667.81,
      "duration": 3.24
    },
    {
      "text": "to do with that it's just the usual",
      "start": 669.82,
      "duration": 4.05
    },
    {
      "text": "leftist addiction to to violence to",
      "start": 671.05,
      "duration": 4.5
    },
    {
      "text": "intimidation to aggression they don't",
      "start": 673.87,
      "duration": 3.09
    },
    {
      "text": "want to have a conversation at the",
      "start": 675.55,
      "duration": 4.26
    },
    {
      "text": "extreme element following them calling",
      "start": 676.96,
      "duration": 5.19
    },
    {
      "text": "themselves a narco communist is kind of",
      "start": 679.81,
      "duration": 5.91
    },
    {
      "text": "a it kind of just shows how little how",
      "start": 682.15,
      "duration": 5.129
    },
    {
      "text": "confused they are how little they",
      "start": 685.72,
      "duration": 3.27
    },
    {
      "text": "actually know about what they're toting",
      "start": 687.279,
      "duration": 3.271
    },
    {
      "text": "and what they're saying I mean most of",
      "start": 688.99,
      "duration": 3.36
    },
    {
      "text": "these people technically are anarchist",
      "start": 690.55,
      "duration": 4.229
    },
    {
      "text": "leftist Marxist but let's assume",
      "start": 692.35,
      "duration": 5.4
    },
    {
      "text": "Marxists and socialists but they don't",
      "start": 694.779,
      "duration": 5.041
    },
    {
      "text": "want small government they don't want",
      "start": 697.75,
      "duration": 6.089
    },
    {
      "text": "they want to put fascists and racists",
      "start": 699.82,
      "duration": 6.33
    },
    {
      "text": "from jail they want they want Richard",
      "start": 703.839,
      "duration": 4.581
    },
    {
      "text": "Spencer behind bars or beaten to a pulp",
      "start": 706.15,
      "duration": 4.89
    },
    {
      "text": "they are not they are not small",
      "start": 708.42,
      "duration": 4.54
    },
    {
      "text": "government people and as you're saying I",
      "start": 711.04,
      "duration": 5.04
    },
    {
      "text": "I really really doubt they would be",
      "start": 712.96,
      "duration": 5.01
    },
    {
      "text": "doing this at Hillary one maybe a few",
      "start": 716.08,
      "duration": 4.38
    },
    {
      "text": "maybe a few Bernie supporters we do it",
      "start": 717.97,
      "duration": 5.04
    },
    {
      "text": "not in this number it would be smashing",
      "start": 720.46,
      "duration": 4.59
    },
    {
      "text": "businesses like he said this didn't",
      "start": 723.01,
      "duration": 5.28
    },
    {
      "text": "happen when Obama was inaugurated it's",
      "start": 725.05,
      "duration": 5.97
    },
    {
      "text": "ridiculous to make that comparison I'm",
      "start": 728.29,
      "duration": 5.64
    },
    {
      "text": "very interested to see where this is",
      "start": 731.02,
      "duration": 5.1
    },
    {
      "text": "going to go and if this kind of behavior",
      "start": 733.93,
      "duration": 4.17
    },
    {
      "text": "is going to continue to happen during",
      "start": 736.12,
      "duration": 5.18
    },
    {
      "text": "Trump speeches during one day Trump",
      "start": 738.1,
      "duration": 6.27
    },
    {
      "text": "events I mean it it's going to be a hell",
      "start": 741.3,
      "duration": 5.229
    },
    {
      "text": "of a year and people are still being",
      "start": 744.37,
      "duration": 4.08
    },
    {
      "text": "radicalized that's the thing the numbers",
      "start": 746.529,
      "duration": 4.111
    },
    {
      "text": "aren't decreasing the numbers are",
      "start": 748.45,
      "duration": 4.77
    },
    {
      "text": "increasing in people on Facebook and",
      "start": 750.64,
      "duration": 4.53
    },
    {
      "text": "young people being indoctrinated through",
      "start": 753.22,
      "duration": 4.02
    },
    {
      "text": "school through social media through",
      "start": 755.17,
      "duration": 3.96
    },
    {
      "text": "whatever they hear from BuzzFeed every",
      "start": 757.24,
      "duration": 4.68
    },
    {
      "text": "day so is this going to happen more",
      "start": 759.13,
      "duration": 6.66
    },
    {
      "text": "throughout Trump's trump presidency not",
      "start": 761.92,
      "duration": 6.539
    },
    {
      "text": "the way to see I think certainly the",
      "start": 765.79,
      "duration": 4.23
    },
    {
      "text": "eruption of violence was predictable",
      "start": 768.459,
      "duration": 4.051
    },
    {
      "text": "after the election these are some very",
      "start": 770.02,
      "duration": 5.069
    },
    {
      "text": "deeply embittered and enraged people who",
      "start": 772.51,
      "duration": 4.11
    },
    {
      "text": "think that the end of the world is upon",
      "start": 775.089,
      "duration": 3.661
    },
    {
      "text": "them and so this kind of hysterical",
      "start": 776.62,
      "duration": 4.14
    },
    {
      "text": "reaction now the question is of course",
      "start": 778.75,
      "duration": 5.07
    },
    {
      "text": "what does Trump do once Jeff Sessions",
      "start": 780.76,
      "duration": 4.86
    },
    {
      "text": "assuming he becomes the Attorney General",
      "start": 783.82,
      "duration": 3.48
    },
    {
      "text": "what does what happens and I think",
      "start": 785.62,
      "duration": 3.24
    },
    {
      "text": "there's going to be this Reaganite thing",
      "start": 787.3,
      "duration": 3.39
    },
    {
      "text": "where this happened to the sixties of",
      "start": 788.86,
      "duration": 3.09
    },
    {
      "text": "course the radicals occupied the",
      "start": 790.69,
      "duration": 3.66
    },
    {
      "text": "buildings and I talk like I was there",
      "start": 791.95,
      "duration": 3.24
    },
    {
      "text": "early for",
      "start": 794.35,
      "duration": 3.24
    },
    {
      "text": "but you know is the sixties I remember",
      "start": 795.19,
      "duration": 5.78
    },
    {
      "text": "well but when Reagan got in he just",
      "start": 797.59,
      "duration": 5.61
    },
    {
      "text": "rounded people up and threw a bunch of",
      "start": 800.97,
      "duration": 5.44
    },
    {
      "text": "people in jail and it dried up pretty",
      "start": 803.2,
      "duration": 5.1
    },
    {
      "text": "quickly this is casting the resolve of",
      "start": 806.41,
      "duration": 4.05
    },
    {
      "text": "the new administration and and where it",
      "start": 808.3,
      "duration": 4.26
    },
    {
      "text": "goes from here I think depends on the",
      "start": 810.46,
      "duration": 4.86
    },
    {
      "text": "reaction if it's going to be contained",
      "start": 812.56,
      "duration": 5.43
    },
    {
      "text": "through through legal repercussions then",
      "start": 815.32,
      "duration": 3.93
    },
    {
      "text": "I think things are going to dry up",
      "start": 817.99,
      "duration": 3.72
    },
    {
      "text": "pretty quickly of course there is a hope",
      "start": 819.25,
      "duration": 5.67
    },
    {
      "text": "that if Trump does what he wants to do",
      "start": 821.71,
      "duration": 5.31
    },
    {
      "text": "and successful that which I think he",
      "start": 824.92,
      "duration": 4.23
    },
    {
      "text": "will there's going to be more",
      "start": 827.02,
      "duration": 4.2
    },
    {
      "text": "opportunity more jobs and maybe there'll",
      "start": 829.15,
      "duration": 3.63
    },
    {
      "text": "be some clawbacks on the welfare state",
      "start": 831.22,
      "duration": 3.3
    },
    {
      "text": "and maybe there'll be way they'll be",
      "start": 832.78,
      "duration": 3.6
    },
    {
      "text": "sort of an off-ramp for something like",
      "start": 834.52,
      "duration": 3.18
    },
    {
      "text": "the crazy people are the crazy people",
      "start": 836.38,
      "duration": 2.43
    },
    {
      "text": "they're just going to do what they do",
      "start": 837.7,
      "duration": 2.88
    },
    {
      "text": "until they end up in jail or dead or",
      "start": 838.81,
      "duration": 2.4
    },
    {
      "text": "whatever right",
      "start": 840.58,
      "duration": 3.45
    },
    {
      "text": "but maybe there's an off-ramp for some",
      "start": 841.21,
      "duration": 6.18
    },
    {
      "text": "of the people who get a glimpse of where",
      "start": 844.03,
      "duration": 5.19
    },
    {
      "text": "they could be if they didn't stay in",
      "start": 847.39,
      "duration": 3.48
    },
    {
      "text": "crazy town and there's I think going to",
      "start": 849.22,
      "duration": 3.93
    },
    {
      "text": "be more opportunity more possibilities",
      "start": 850.87,
      "duration": 4.17
    },
    {
      "text": "and it's going to be less comfortable to",
      "start": 853.15,
      "duration": 3.9
    },
    {
      "text": "stay there and of course a lot of the",
      "start": 855.04,
      "duration": 3.36
    },
    {
      "text": "left is going to be paralyzed I think",
      "start": 857.05,
      "duration": 3.51
    },
    {
      "text": "has been paralyzed going forward by some",
      "start": 858.4,
      "duration": 3.78
    },
    {
      "text": "of this James O'Keefe stuff like the",
      "start": 860.56,
      "duration": 3.81
    },
    {
      "text": "project there it says now they don't",
      "start": 862.18,
      "duration": 4.44
    },
    {
      "text": "know who's got a secret camera going",
      "start": 864.37,
      "duration": 4.11
    },
    {
      "text": "they don't know I mean now to see the",
      "start": 866.62,
      "duration": 3.36
    },
    {
      "text": "guys who were threatening the deplorable",
      "start": 868.48,
      "duration": 3.57
    },
    {
      "text": "with these these asset attacks and with",
      "start": 869.98,
      "duration": 4.08
    },
    {
      "text": "throat punching threats and the chaining",
      "start": 872.05,
      "duration": 5.07
    },
    {
      "text": "up the metro and so on well now that",
      "start": 874.06,
      "duration": 4.56
    },
    {
      "text": "it's tough for them to plan because they",
      "start": 877.12,
      "duration": 4.68
    },
    {
      "text": "don't know who's to trustable anymore so",
      "start": 878.62,
      "duration": 4.29
    },
    {
      "text": "I think there's going to be some kind of",
      "start": 881.8,
      "duration": 3.02
    },
    {
      "text": "paralysis if there's legal repercussions",
      "start": 882.91,
      "duration": 4.5
    },
    {
      "text": "hopefully hopefully it will rescue about",
      "start": 884.82,
      "duration": 5.97
    },
    {
      "text": "the people out of this mess I think I",
      "start": 887.41,
      "duration": 5.97
    },
    {
      "text": "really really hope so when I went to a",
      "start": 890.79,
      "duration": 5.74
    },
    {
      "text": "Linden rally for Trump either first time",
      "start": 893.38,
      "duration": 4.62
    },
    {
      "text": "I saw him and realized there was a man",
      "start": 896.53,
      "duration": 3.42
    },
    {
      "text": "in the crowd I think he'll think he was",
      "start": 898,
      "duration": 3.48
    },
    {
      "text": "Hispanic actually and he was holding a",
      "start": 899.95,
      "duration": 4.139
    },
    {
      "text": "sign and it said Trump loves you and he",
      "start": 901.48,
      "duration": 4.35
    },
    {
      "text": "was yelling at protesters across the",
      "start": 904.089,
      "duration": 4.531
    },
    {
      "text": "street Trump loves you and you're going",
      "start": 905.83,
      "duration": 4.38
    },
    {
      "text": "to love Trump too and that was this",
      "start": 908.62,
      "duration": 3.03
    },
    {
      "text": "whole message trouble of you you're",
      "start": 910.21,
      "duration": 2.85
    },
    {
      "text": "going to love Trump - he's going to give",
      "start": 911.65,
      "duration": 3.12
    },
    {
      "text": "you jobs he's gonna do all this stuff",
      "start": 913.06,
      "duration": 3.81
    },
    {
      "text": "for you and that should be the message",
      "start": 914.77,
      "duration": 4.71
    },
    {
      "text": "like just wait and see wait and see to",
      "start": 916.87,
      "duration": 5.25
    },
    {
      "text": "see if Trump does good things if if",
      "start": 919.48,
      "duration": 5.31
    },
    {
      "text": "Trump does suddenly start putting all",
      "start": 922.12,
      "duration": 6.06
    },
    {
      "text": "Hispanics into gas chambers I will be",
      "start": 924.79,
      "duration": 4.39
    },
    {
      "text": "right out there",
      "start": 928.18,
      "duration": 3.22
    },
    {
      "text": "- you trying to get Trump out of office",
      "start": 929.18,
      "duration": 3.96
    },
    {
      "text": "I will be right out there with you right",
      "start": 931.4,
      "duration": 4.38
    },
    {
      "text": "in the government but man I really doubt",
      "start": 933.14,
      "duration": 4.74
    },
    {
      "text": "that's going to happen I really know",
      "start": 935.78,
      "duration": 3.81
    },
    {
      "text": "that's going to happen and that's why I",
      "start": 937.88,
      "duration": 3.15
    },
    {
      "text": "got so much support because that was a",
      "start": 939.59,
      "duration": 4.98
    },
    {
      "text": "ridiculous narrative but the problem is",
      "start": 941.03,
      "duration": 5.22
    },
    {
      "text": "that a lot of these people want Trump to",
      "start": 944.57,
      "duration": 4.08
    },
    {
      "text": "fail they genuinely genuinely want to be",
      "start": 946.25,
      "duration": 3.81
    },
    {
      "text": "I mean I was talking to them on the",
      "start": 948.65,
      "duration": 3.51
    },
    {
      "text": "street so I don't want him to be right",
      "start": 950.06,
      "duration": 3.96
    },
    {
      "text": "no matter what so they're going to have",
      "start": 952.16,
      "duration": 4.89
    },
    {
      "text": "a certain have that preconceived no",
      "start": 954.02,
      "duration": 4.23
    },
    {
      "text": "matter what happens they're gonna have a",
      "start": 957.05,
      "duration": 3.42
    },
    {
      "text": "bias where whatever Trump does they're",
      "start": 958.25,
      "duration": 3.69
    },
    {
      "text": "going to want to see the negatives wanna",
      "start": 960.47,
      "duration": 5.01
    },
    {
      "text": "see the negative what I wanted him to do",
      "start": 961.94,
      "duration": 5.07
    },
    {
      "text": "well because I want America to do well",
      "start": 965.48,
      "duration": 4.08
    },
    {
      "text": "didn't do as well as people were saying",
      "start": 967.01,
      "duration": 4.56
    },
    {
      "text": "he would unfortunately Dupree awful job",
      "start": 969.56,
      "duration": 3.63
    },
    {
      "text": "in my opinion but I wanted him to be",
      "start": 971.57,
      "duration": 3.72
    },
    {
      "text": "well I want Trump to do well the Trump",
      "start": 973.19,
      "duration": 3.78
    },
    {
      "text": "were Democrat if the only one I would",
      "start": 975.29,
      "duration": 3.87
    },
    {
      "text": "want her to do an awesome job I would",
      "start": 976.97,
      "duration": 3.48
    },
    {
      "text": "have my doubts that I would want her to",
      "start": 979.16,
      "duration": 4.05
    },
    {
      "text": "do an awesome these people protesting",
      "start": 980.45,
      "duration": 5.07
    },
    {
      "text": "they don't want that we can hope that it",
      "start": 983.21,
      "duration": 3.45
    },
    {
      "text": "will change and we can hope that Trump",
      "start": 985.52,
      "duration": 2.85
    },
    {
      "text": "policy policies will change their mind",
      "start": 986.66,
      "duration": 5.19
    },
    {
      "text": "if he does a great job but I don't know",
      "start": 988.37,
      "duration": 4.65
    },
    {
      "text": "it's going to be a whole lot of fight",
      "start": 991.85,
      "duration": 3
    },
    {
      "text": "and a whole lot of propaganda I hope",
      "start": 993.02,
      "duration": 3.99
    },
    {
      "text": "there no matter what he does well then",
      "start": 994.85,
      "duration": 3.93
    },
    {
      "text": "this goes back to the battle I think",
      "start": 997.01,
      "duration": 3.45
    },
    {
      "text": "between what's called the alternative",
      "start": 998.78,
      "duration": 4.05
    },
    {
      "text": "media sort of what you and I and others",
      "start": 1000.46,
      "duration": 3.84
    },
    {
      "text": "are doing and what the mainstream media",
      "start": 1002.83,
      "duration": 3.84
    },
    {
      "text": "is doing which is so I'm trying to bring",
      "start": 1004.3,
      "duration": 4.5
    },
    {
      "text": "sort of reason and evidence and calm and",
      "start": 1006.67,
      "duration": 4.86
    },
    {
      "text": "back off and so on and the mainstream",
      "start": 1008.8,
      "duration": 4.38
    },
    {
      "text": "media is just fueling it up their",
      "start": 1011.53,
      "duration": 3.81
    },
    {
      "text": "protesters they were not protesters",
      "start": 1013.18,
      "duration": 4.47
    },
    {
      "text": "they're rioters what are they they're",
      "start": 1015.34,
      "duration": 3.57
    },
    {
      "text": "chanting they're hitting things with",
      "start": 1017.65,
      "duration": 3.54
    },
    {
      "text": "rocks that's not a protest that's that's",
      "start": 1018.91,
      "duration": 4.05
    },
    {
      "text": "barely something you'd put in an ape",
      "start": 1021.19,
      "duration": 6
    },
    {
      "text": "exhibit so I go back to this well you",
      "start": 1022.96,
      "duration": 6.12
    },
    {
      "text": "know they discharged their venom they",
      "start": 1027.19,
      "duration": 3.39
    },
    {
      "text": "discharged their rage maybe they sort of",
      "start": 1029.08,
      "duration": 3.33
    },
    {
      "text": "calmed down a little bit but then they",
      "start": 1030.58,
      "duration": 4.32
    },
    {
      "text": "go back to this well and they're praised",
      "start": 1032.41,
      "duration": 5.19
    },
    {
      "text": "as freedom fighters as protesters",
      "start": 1034.9,
      "duration": 4.11
    },
    {
      "text": "they're fighting the power and then",
      "start": 1037.6,
      "duration": 3.69
    },
    {
      "text": "they're enraged and further in venoms by",
      "start": 1039.01,
      "duration": 3.87
    },
    {
      "text": "all the mainstream media narratives that",
      "start": 1041.29,
      "duration": 3.24
    },
    {
      "text": "have terrible Trump is encompass Hitler",
      "start": 1042.88,
      "duration": 5.7
    },
    {
      "text": "and blah blah blah man I mean I just",
      "start": 1044.53,
      "duration": 6.75
    },
    {
      "text": "went where does this go in particular",
      "start": 1048.58,
      "duration": 4.89
    },
    {
      "text": "well of course - my goal is to try and",
      "start": 1051.28,
      "duration": 3.48
    },
    {
      "text": "displace the mainstream media as much as",
      "start": 1053.47,
      "duration": 3.81
    },
    {
      "text": "possible if Trump can help bypass having",
      "start": 1054.76,
      "duration": 3.72
    },
    {
      "text": "to go through the mainstream media to",
      "start": 1057.28,
      "duration": 3.62
    },
    {
      "text": "talk to the people so much the better",
      "start": 1058.48,
      "duration": 4.47
    },
    {
      "text": "bleed the venom added",
      "start": 1060.9,
      "duration": 3.94
    },
    {
      "text": "sauce I think is the key and I think",
      "start": 1062.95,
      "duration": 3.15
    },
    {
      "text": "that how much these people are being",
      "start": 1064.84,
      "duration": 3.63
    },
    {
      "text": "manipulative manipulated by the media is",
      "start": 1066.1,
      "duration": 4.17
    },
    {
      "text": "a terrible terrible thing and that I",
      "start": 1068.47,
      "duration": 3.12
    },
    {
      "text": "think is why it's so important what",
      "start": 1070.27,
      "duration": 2.67
    },
    {
      "text": "we're doing is it's bringing the truth",
      "start": 1071.59,
      "duration": 3.21
    },
    {
      "text": "and bringing hopefully some calm and",
      "start": 1072.94,
      "duration": 4.8
    },
    {
      "text": "some reason and some evidence if they're",
      "start": 1074.8,
      "duration": 4.29
    },
    {
      "text": "all out there and they can't be saved",
      "start": 1077.74,
      "duration": 2.91
    },
    {
      "text": "then there's going to be a lot of",
      "start": 1079.09,
      "duration": 3.72
    },
    {
      "text": "conflict but I still think that there's",
      "start": 1080.65,
      "duration": 4.74
    },
    {
      "text": "some out there who may be able to listen",
      "start": 1082.81,
      "duration": 6
    },
    {
      "text": "to reason absolutely fake news is",
      "start": 1085.39,
      "duration": 5.64
    },
    {
      "text": "growing and it's going to continue to",
      "start": 1088.81,
      "duration": 5.04
    },
    {
      "text": "grow certainly in an administration",
      "start": 1091.03,
      "duration": 4.77
    },
    {
      "text": "where it has a chance to thrive and it's",
      "start": 1093.85,
      "duration": 3.48
    },
    {
      "text": "not going to be shut down like Hillary",
      "start": 1095.8,
      "duration": 3.9
    },
    {
      "text": "was threatening with organizations like",
      "start": 1097.33,
      "duration": 5.19
    },
    {
      "text": "Breitbart sigh so I got a I hope for the",
      "start": 1099.7,
      "duration": 5.52
    },
    {
      "text": "same thing now last thing I wanted to",
      "start": 1102.52,
      "duration": 6.56
    },
    {
      "text": "ask you how much fun was the deplorable",
      "start": 1105.22,
      "duration": 6.99
    },
    {
      "text": "every you know it I've only thought life",
      "start": 1109.08,
      "duration": 5.32
    },
    {
      "text": "is so much better when people put effort",
      "start": 1112.21,
      "duration": 3.81
    },
    {
      "text": "into it life is so much more beautiful",
      "start": 1114.4,
      "duration": 2.82
    },
    {
      "text": "and everyone that showed up there you",
      "start": 1116.02,
      "duration": 4.2
    },
    {
      "text": "had the protesters out that just wreaked",
      "start": 1117.22,
      "duration": 5.39
    },
    {
      "text": "quite frankly they're like in their",
      "start": 1120.22,
      "duration": 4.98
    },
    {
      "text": "three-day old clothes greatly hair",
      "start": 1122.61,
      "duration": 4
    },
    {
      "text": "throwing eggs at everyone and then you",
      "start": 1125.2,
      "duration": 3.86
    },
    {
      "text": "get inside and it's just this beautiful",
      "start": 1126.61,
      "duration": 5.4
    },
    {
      "text": "fall of people that have done their",
      "start": 1129.06,
      "duration": 6.07
    },
    {
      "text": "utmost to look wonderful be on the best",
      "start": 1132.01,
      "duration": 5.88
    },
    {
      "text": "behavior so much effort was put to put",
      "start": 1135.13,
      "duration": 4.65
    },
    {
      "text": "this all together everyone was so kind",
      "start": 1137.89,
      "duration": 5.7
    },
    {
      "text": "it's just absolutely lovely event and",
      "start": 1139.78,
      "duration": 6.3
    },
    {
      "text": "there are so many fascinating people",
      "start": 1143.59,
      "duration": 4.35
    },
    {
      "text": "there talk to fascinating things that",
      "start": 1146.08,
      "duration": 3.87
    },
    {
      "text": "were being said during the speeches I",
      "start": 1147.94,
      "duration": 5.28
    },
    {
      "text": "mean it's what I'd like every meeting of",
      "start": 1149.95,
      "duration": 4.98
    },
    {
      "text": "intellectual people to be like I'd love",
      "start": 1153.22,
      "duration": 3.56
    },
    {
      "text": "a ball that we had like that with",
      "start": 1154.93,
      "duration": 3.78
    },
    {
      "text": "leftists included as well that had a",
      "start": 1156.78,
      "duration": 3.13
    },
    {
      "text": "discussion but a partially they were",
      "start": 1158.71,
      "duration": 2.94
    },
    {
      "text": "outside throwing eggs and didn't want to",
      "start": 1159.91,
      "duration": 3.63
    },
    {
      "text": "put on suits and dresses they wanted to",
      "start": 1161.65,
      "duration": 5.61
    },
    {
      "text": "call us Nazi KKK and was dancing in the",
      "start": 1163.54,
      "duration": 7.92
    },
    {
      "text": "crowd but it was an absolutely lovely",
      "start": 1167.26,
      "duration": 5.55
    },
    {
      "text": "event and I was so happy to meet",
      "start": 1171.46,
      "duration": 3.3
    },
    {
      "text": "everyone I got to meet there didn't get",
      "start": 1172.81,
      "duration": 3.18
    },
    {
      "text": "to stay for as long as I would have",
      "start": 1174.76,
      "duration": 4.11
    },
    {
      "text": "liked but everyone with the court this",
      "start": 1175.99,
      "duration": 4.23
    },
    {
      "text": "is a lot of fun and you should have been",
      "start": 1178.87,
      "duration": 5.46
    },
    {
      "text": "there yes it may be a regret I take to",
      "start": 1180.22,
      "duration": 6.78
    },
    {
      "text": "my grave but last thing I'm sorry there",
      "start": 1184.33,
      "duration": 3.69
    },
    {
      "text": "was one more thing",
      "start": 1187,
      "duration": 5.19
    },
    {
      "text": "Sheila Gunn Creed okay we'll put the",
      "start": 1188.02,
      "duration": 5.82
    },
    {
      "text": "link of this below very briefly she was",
      "start": 1192.19,
      "duration": 3.78
    },
    {
      "text": "there at an event in Alberta which is",
      "start": 1193.84,
      "duration": 2.91
    },
    {
      "text": "being run by",
      "start": 1195.97,
      "duration": 2.88
    },
    {
      "text": "an NDP government which is I guess a",
      "start": 1196.75,
      "duration": 3.57
    },
    {
      "text": "little bit to the left of the Democrats",
      "start": 1198.85,
      "duration": 3.329
    },
    {
      "text": "in the states in many ways but similar",
      "start": 1200.32,
      "duration": 4.05
    },
    {
      "text": "kind of kettle of fish and she said a",
      "start": 1202.179,
      "duration": 4.201
    },
    {
      "text": "woman's March and she's punched in the",
      "start": 1204.37,
      "duration": 6.419
    },
    {
      "text": "face by a man so at a woman's March at a",
      "start": 1206.38,
      "duration": 6.99
    },
    {
      "text": "feminist March a woman is punched in the",
      "start": 1210.789,
      "duration": 5.731
    },
    {
      "text": "face by a man take it from there because",
      "start": 1213.37,
      "duration": 6.15
    },
    {
      "text": "I try not to be too shocked by things I",
      "start": 1216.52,
      "duration": 4.59
    },
    {
      "text": "kinda know we're going to happen but",
      "start": 1219.52,
      "duration": 3.539
    },
    {
      "text": "nonetheless seeing that response of the",
      "start": 1221.11,
      "duration": 3.65
    },
    {
      "text": "crowd to be was really quite startling",
      "start": 1223.059,
      "duration": 6.24
    },
    {
      "text": "ya know the crowd she loves she was four",
      "start": 1224.76,
      "duration": 6.76
    },
    {
      "text": "with me at the rebels she's lovely",
      "start": 1229.299,
      "duration": 5.161
    },
    {
      "text": "lovely lady does great work this man",
      "start": 1231.52,
      "duration": 4.59
    },
    {
      "text": "taking a part of the Alberta government",
      "start": 1234.46,
      "duration": 3.449
    },
    {
      "text": "and all of the awful policies they",
      "start": 1236.11,
      "duration": 3.87
    },
    {
      "text": "prodded punched in the face at the",
      "start": 1237.909,
      "duration": 4.26
    },
    {
      "text": "women's protest and the ladies in the",
      "start": 1239.98,
      "duration": 5.22
    },
    {
      "text": "crowd just like basically Pat the fan on",
      "start": 1242.169,
      "duration": 4.351
    },
    {
      "text": "the back and bring him back away from",
      "start": 1245.2,
      "duration": 4.349
    },
    {
      "text": "Sheila and nothing he wasn't tackled he",
      "start": 1246.52,
      "duration": 4.529
    },
    {
      "text": "wasn't condemned there was no shrieking",
      "start": 1249.549,
      "duration": 3.301
    },
    {
      "text": "from the feminists in the crowd saying",
      "start": 1251.049,
      "duration": 4.74
    },
    {
      "text": "why would you assault a woman no it just",
      "start": 1252.85,
      "duration": 6.059
    },
    {
      "text": "commonly bring him away so that so that",
      "start": 1255.789,
      "duration": 4.89
    },
    {
      "text": "they can't basically the police can't",
      "start": 1258.909,
      "duration": 5.431
    },
    {
      "text": "find them it was just I mean I usually",
      "start": 1260.679,
      "duration": 5.461
    },
    {
      "text": "just as shocked as you were saying it's",
      "start": 1264.34,
      "duration": 3.6
    },
    {
      "text": "me watching it but this is a very",
      "start": 1266.14,
      "duration": 4.05
    },
    {
      "text": "important thing for us because the rebel",
      "start": 1267.94,
      "duration": 5.07
    },
    {
      "text": "recently held a rally against the carbon",
      "start": 1270.19,
      "duration": 5.609
    },
    {
      "text": "tax in Alberta and there were 3,000",
      "start": 1273.01,
      "duration": 4.59
    },
    {
      "text": "people there that word is saying we we",
      "start": 1275.799,
      "duration": 4.5
    },
    {
      "text": "can't afford this tax this is ridiculous",
      "start": 1277.6,
      "duration": 5.39
    },
    {
      "text": "we are packed so Eileen with fathers and",
      "start": 1280.299,
      "duration": 5.071
    },
    {
      "text": "there was a chant that happened about",
      "start": 1282.99,
      "duration": 4.96
    },
    {
      "text": "not least they said lock her up lock her",
      "start": 1285.37,
      "duration": 5.64
    },
    {
      "text": "up it was a joking chance because it how",
      "start": 1287.95,
      "duration": 4.89
    },
    {
      "text": "many jobs is not Lee lost Alberta and",
      "start": 1291.01,
      "duration": 5.31
    },
    {
      "text": "the mainstream media went wild in Canada",
      "start": 1292.84,
      "duration": 6.39
    },
    {
      "text": "they were just condemning any politician",
      "start": 1296.32,
      "duration": 5.64
    },
    {
      "text": "that showed up through our anti anti",
      "start": 1299.23,
      "duration": 5.069
    },
    {
      "text": "carbon tax protest they were condemning",
      "start": 1301.96,
      "duration": 3.709
    },
    {
      "text": "everyone they're saying they were all",
      "start": 1304.299,
      "duration": 3.75
    },
    {
      "text": "awful radicals this that and the other",
      "start": 1305.669,
      "duration": 4.951
    },
    {
      "text": "this winners March had tons of people",
      "start": 1308.049,
      "duration": 4.831
    },
    {
      "text": "from the leftist government in Canada",
      "start": 1310.62,
      "duration": 5.65
    },
    {
      "text": "tons of NDP members and this happened a",
      "start": 1312.88,
      "duration": 5.4
    },
    {
      "text": "woman gets punched in the face by a man",
      "start": 1316.27,
      "duration": 5.039
    },
    {
      "text": "at their protest and they have the Gulf",
      "start": 1318.28,
      "duration": 5.24
    },
    {
      "text": "condemned this peaceful",
      "start": 1321.309,
      "duration": 3.831
    },
    {
      "text": "protests we had against their carbon tax",
      "start": 1323.52,
      "duration": 4.02
    },
    {
      "text": "in Canada so it's going to be very",
      "start": 1325.14,
      "duration": 4.29
    },
    {
      "text": "interesting to see the reaction we get",
      "start": 1327.54,
      "duration": 4.26
    },
    {
      "text": "are they going to condemn the people and",
      "start": 1329.43,
      "duration": 3.66
    },
    {
      "text": "the NDP leaders that were at this",
      "start": 1331.8,
      "duration": 3.78
    },
    {
      "text": "woman's March is the whole March going",
      "start": 1333.09,
      "duration": 7.95
    },
    {
      "text": "to be called all evil radicals I mean if",
      "start": 1335.58,
      "duration": 6.66
    },
    {
      "text": "you're going to treat it the same as",
      "start": 1341.04,
      "duration": 4.46
    },
    {
      "text": "they treated our carbon tax rally then",
      "start": 1342.24,
      "duration": 5.49
    },
    {
      "text": "basically everyone and all the",
      "start": 1345.5,
      "duration": 3.7
    },
    {
      "text": "politicians there should be fired I",
      "start": 1347.73,
      "duration": 4.53
    },
    {
      "text": "think it was insane it's going to be",
      "start": 1349.2,
      "duration": 4.17
    },
    {
      "text": "insane to seeing it how the mainstream",
      "start": 1352.26,
      "duration": 3.96
    },
    {
      "text": "react reaction is this boiler is going",
      "start": 1353.37,
      "duration": 4.26
    },
    {
      "text": "to be massive you hypocritical buried",
      "start": 1356.22,
      "duration": 2.52
    },
    {
      "text": "under the rug and people are going to",
      "start": 1357.63,
      "duration": 2.88
    },
    {
      "text": "move on like it hasn't happened I hate",
      "start": 1358.74,
      "duration": 4.02
    },
    {
      "text": "to pull a John you there Lauren but I've",
      "start": 1360.51,
      "duration": 5.97
    },
    {
      "text": "been down that road no but it is well",
      "start": 1362.76,
      "duration": 4.86
    },
    {
      "text": "that's the good thing is that the",
      "start": 1366.48,
      "duration": 3.23
    },
    {
      "text": "hypocrisy is becoming more visible",
      "start": 1367.62,
      "duration": 4.44
    },
    {
      "text": "watching that video and it's important I",
      "start": 1369.71,
      "duration": 4.23
    },
    {
      "text": "think she was told to calm down and and",
      "start": 1372.06,
      "duration": 4.2
    },
    {
      "text": "there was no sympathy nobody gave her a",
      "start": 1373.94,
      "duration": 5.44
    },
    {
      "text": "hug nobody a master she was okay as like",
      "start": 1376.26,
      "duration": 5.46
    },
    {
      "text": "I'm good punched through look everywhere",
      "start": 1379.38,
      "duration": 4.32
    },
    {
      "text": "ah but she's on the right or she's",
      "start": 1381.72,
      "duration": 3.9
    },
    {
      "text": "perceived that way yeah but she's on the",
      "start": 1383.7,
      "duration": 4.92
    },
    {
      "text": "right and therefore the vaginas on the",
      "start": 1385.62,
      "duration": 3.36
    },
    {
      "text": "left",
      "start": 1388.62,
      "duration": 3.39
    },
    {
      "text": "excellent vaginas on the right ooh which",
      "start": 1388.98,
      "duration": 5.61
    },
    {
      "text": "is evil evil and this of course is",
      "start": 1392.01,
      "duration": 4.41
    },
    {
      "text": "what's important you know the fact that",
      "start": 1394.59,
      "duration": 4.71
    },
    {
      "text": "there was some the Disraeli going on",
      "start": 1396.42,
      "duration": 5.67
    },
    {
      "text": "this March going on I look through the",
      "start": 1399.3,
      "duration": 4.44
    },
    {
      "text": "pictures the Lord help me I can't unsee",
      "start": 1402.09,
      "duration": 6
    },
    {
      "text": "some of that stuff but it is not an",
      "start": 1403.74,
      "duration": 6.27
    },
    {
      "text": "argument not an argument and we do need",
      "start": 1408.09,
      "duration": 3.33
    },
    {
      "text": "to get back to actually having",
      "start": 1410.01,
      "duration": 2.91
    },
    {
      "text": "conversations with people about things",
      "start": 1411.42,
      "duration": 3.44
    },
    {
      "text": "that matter screaming at each other",
      "start": 1412.92,
      "duration": 5.04
    },
    {
      "text": "well toddlers and civilizations don't",
      "start": 1414.86,
      "duration": 6.31
    },
    {
      "text": "really go and end too long so thank you",
      "start": 1417.96,
      "duration": 5.67
    },
    {
      "text": "and appreciate it keep your voice safe",
      "start": 1421.17,
      "duration": 4.14
    },
    {
      "text": "of course get back to your dulcet tones",
      "start": 1423.63,
      "duration": 3.84
    },
    {
      "text": "tones as soon as possible and please",
      "start": 1425.31,
      "duration": 4.59
    },
    {
      "text": "everyone remember to go to barbarians",
      "start": 1427.47,
      "duration": 4.5
    },
    {
      "text": "book combo put links to all of Lawrence",
      "start": 1429.9,
      "duration": 4.2
    },
    {
      "text": "vital statistics below thanks a lot for",
      "start": 1431.97,
      "duration": 3.72
    },
    {
      "text": "all of the great reporting you did it",
      "start": 1434.1,
      "duration": 3.51
    },
    {
      "text": "was fascinating and in lumen a ting to",
      "start": 1435.69,
      "duration": 3.75
    },
    {
      "text": "watch with the link to it below I'm sure",
      "start": 1437.61,
      "duration": 3.6
    },
    {
      "text": "we'll talk again soon and thanks so much",
      "start": 1439.44,
      "duration": 2.49
    },
    {
      "text": "for your time today",
      "start": 1441.21,
      "duration": 4.13
    },
    {
      "text": "thanks for having me",
      "start": 1441.93,
      "duration": 3.41
    }
  ],
  "Errors": null,
  "TranscriptStderr": null
}