{
  "Title": "The Death of the West Part 2: The Nineteenth Century",
  "Id": "6_R4ZOzr-f4",
  "Transcript": [
    {
      "text": "hi everybody its defend molyneux from",
      "start": 0,
      "duration": 5.16
    },
    {
      "text": "freedomain radio this is part ii of the",
      "start": 1.86,
      "duration": 6.51
    },
    {
      "text": "death of the west the 19th century to",
      "start": 5.16,
      "duration": 6.21
    },
    {
      "text": "world war 1 i'm going to put forward a",
      "start": 8.37,
      "duration": 5.46
    },
    {
      "text": "thesis here that may be surprising its",
      "start": 11.37,
      "duration": 4.2
    },
    {
      "text": "original to my knowledge there's some",
      "start": 13.83,
      "duration": 3.09
    },
    {
      "text": "good evidence for it i'm not going to",
      "start": 15.57,
      "duration": 3.15
    },
    {
      "text": "claim that it's an open-and-shut case",
      "start": 16.92,
      "duration": 3.81
    },
    {
      "text": "but i think that it's a very compelling",
      "start": 18.72,
      "duration": 3.84
    },
    {
      "text": "case and i hope that it will help you to",
      "start": 20.73,
      "duration": 4.2
    },
    {
      "text": "understand how we can avoid these kinds",
      "start": 22.56,
      "duration": 4.559
    },
    {
      "text": "of collaborates in the future whenever",
      "start": 24.93,
      "duration": 4.109
    },
    {
      "text": "you look at wrenching social change and",
      "start": 27.119,
      "duration": 4.111
    },
    {
      "text": "world war one can easily be described as",
      "start": 29.039,
      "duration": 3.811
    },
    {
      "text": "one of the most wrenching social changes",
      "start": 31.23,
      "duration": 4.759
    },
    {
      "text": "that ever was and perhaps effort will be",
      "start": 32.85,
      "duration": 6.389
    },
    {
      "text": "looking at the months or years just",
      "start": 35.989,
      "duration": 5.861
    },
    {
      "text": "prior won't do you any good because",
      "start": 39.239,
      "duration": 5.401
    },
    {
      "text": "everything is already in place it's like",
      "start": 41.85,
      "duration": 4.229
    },
    {
      "text": "saying well there was a forest fire",
      "start": 44.64,
      "duration": 3.84
    },
    {
      "text": "because lightning struck a tree no there",
      "start": 46.079,
      "duration": 5.281
    },
    {
      "text": "was a forest fire because there had been",
      "start": 48.48,
      "duration": 4.86
    },
    {
      "text": "a long period of no rain because",
      "start": 51.36,
      "duration": 3.48
    },
    {
      "text": "everything there'd been no there'd been",
      "start": 53.34,
      "duration": 3.09
    },
    {
      "text": "no clear cutting no brain cutting and so",
      "start": 54.84,
      "duration": 2.73
    },
    {
      "text": "on probably because the government owned",
      "start": 56.43,
      "duration": 3.359
    },
    {
      "text": "the land but you don't want to look at",
      "start": 57.57,
      "duration": 4.079
    },
    {
      "text": "just the thing itself you want to look",
      "start": 59.789,
      "duration": 3.151
    },
    {
      "text": "at everything that came before it in",
      "start": 61.649,
      "duration": 2.641
    },
    {
      "text": "order to really understand what's",
      "start": 62.94,
      "duration": 4.98
    },
    {
      "text": "happening so August of 1914 the outbreak",
      "start": 64.29,
      "duration": 5.34
    },
    {
      "text": "of hostilities occurred there was an",
      "start": 67.92,
      "duration": 5.699
    },
    {
      "text": "incredible surge of enthusiasm for the",
      "start": 69.63,
      "duration": 7.23
    },
    {
      "text": "war the people young men signed up in",
      "start": 73.619,
      "duration": 5.79
    },
    {
      "text": "droves they wanted they though we don't",
      "start": 76.86,
      "duration": 3.72
    },
    {
      "text": "want to miss out the adventure of our",
      "start": 79.409,
      "duration": 3.39
    },
    {
      "text": "generation a war that will be over by",
      "start": 80.58,
      "duration": 4.05
    },
    {
      "text": "Christmas as they believed at the time",
      "start": 82.799,
      "duration": 3.481
    },
    {
      "text": "of course the catastrophic",
      "start": 84.63,
      "duration": 6.12
    },
    {
      "text": "miscalculation but why was everybody so",
      "start": 86.28,
      "duration": 7.86
    },
    {
      "text": "enthusiastic for war and why I had",
      "start": 90.75,
      "duration": 5.009
    },
    {
      "text": "everyone not been so enthusiastic for",
      "start": 94.14,
      "duration": 5.43
    },
    {
      "text": "war in the West for about a hundred",
      "start": 95.759,
      "duration": 6.331
    },
    {
      "text": "years previously I just wanted to",
      "start": 99.57,
      "duration": 3.93
    },
    {
      "text": "mention as well I will be talking in the",
      "start": 102.09,
      "duration": 4.319
    },
    {
      "text": "next video about empire because it's not",
      "start": 103.5,
      "duration": 4.2
    },
    {
      "text": "like these were peaceful governments but",
      "start": 106.409,
      "duration": 2.761
    },
    {
      "text": "their violence was lofty directed",
      "start": 107.7,
      "duration": 3
    },
    {
      "text": "overseas we'll get into that I'm not",
      "start": 109.17,
      "duration": 3.33
    },
    {
      "text": "ignoring it or pretending that it was a",
      "start": 110.7,
      "duration": 3.809
    },
    {
      "text": "utopia but I just wanted to mention I",
      "start": 112.5,
      "duration": 5.07
    },
    {
      "text": "will get that to that next video if you",
      "start": 114.509,
      "duration": 7.621
    },
    {
      "text": "go back two generations from 1914 you",
      "start": 117.57,
      "duration": 7.909
    },
    {
      "text": "get to the 1860s and the 1870s",
      "start": 122.13,
      "duration": 7.56
    },
    {
      "text": "it's my argument it's my contention",
      "start": 125.479,
      "duration": 8.201
    },
    {
      "text": "that the reason why people became so",
      "start": 129.69,
      "duration": 7.23
    },
    {
      "text": "enthusiastic for war so enthusiastically",
      "start": 133.68,
      "duration": 6.36
    },
    {
      "text": "patriotic so enthusiastic to obey their",
      "start": 136.92,
      "duration": 5.4
    },
    {
      "text": "political masters was because of the",
      "start": 140.04,
      "duration": 5.13
    },
    {
      "text": "introduction of public education which",
      "start": 142.32,
      "duration": 4.73
    },
    {
      "text": "throughout the Western world occurred I",
      "start": 145.17,
      "duration": 4.08
    },
    {
      "text": "mean it occurred in stages and I don't",
      "start": 147.05,
      "duration": 3.55
    },
    {
      "text": "want to get into all the details you can",
      "start": 149.25,
      "duration": 3.33
    },
    {
      "text": "easily look them up but it was around",
      "start": 150.6,
      "duration": 4.94
    },
    {
      "text": "the 1870s that for many of the country's",
      "start": 152.58,
      "duration": 6.36
    },
    {
      "text": "state education was created now why do I",
      "start": 155.54,
      "duration": 4.87
    },
    {
      "text": "say state education had anything to do",
      "start": 158.94,
      "duration": 4.14
    },
    {
      "text": "with World War one we all know that",
      "start": 160.41,
      "duration": 4.53
    },
    {
      "text": "human beings are kind of like imprinting",
      "start": 163.08,
      "duration": 6.33
    },
    {
      "text": "ducks we tend to give our emotional and",
      "start": 164.94,
      "duration": 6.45
    },
    {
      "text": "intellectual allegiance to whoever",
      "start": 169.41,
      "duration": 3.93
    },
    {
      "text": "raises us this is a biological",
      "start": 171.39,
      "duration": 3.48
    },
    {
      "text": "imperative you have to be loyal to",
      "start": 173.34,
      "duration": 3.27
    },
    {
      "text": "whoever raised you because if you oppose",
      "start": 174.87,
      "duration": 3.24
    },
    {
      "text": "them they will abandon you and you will",
      "start": 176.61,
      "duration": 4.26
    },
    {
      "text": "die we imprint upon whoever raises us",
      "start": 178.11,
      "duration": 6
    },
    {
      "text": "this is well known by by religions who",
      "start": 180.87,
      "duration": 6.15
    },
    {
      "text": "will try to get there squiggly squiggly",
      "start": 184.11,
      "duration": 4.62
    },
    {
      "text": "tentacles into the brains of children as",
      "start": 187.02,
      "duration": 3.57
    },
    {
      "text": "young as possible it is well known by",
      "start": 188.73,
      "duration": 3.09
    },
    {
      "text": "governments who were trying to get a",
      "start": 190.59,
      "duration": 2.7
    },
    {
      "text": "hold of children as young as possible",
      "start": 191.82,
      "duration": 3.99
    },
    {
      "text": "and indoctrinate them for example I mean",
      "start": 193.29,
      "duration": 4.26
    },
    {
      "text": "this is anecdotal but I was in and I",
      "start": 195.81,
      "duration": 3.899
    },
    {
      "text": "took my daughter to the library",
      "start": 197.55,
      "duration": 5.13
    },
    {
      "text": "yesterday and I was playing with her and",
      "start": 199.709,
      "duration": 4.801
    },
    {
      "text": "a three-year-old and a four-year-old a",
      "start": 202.68,
      "duration": 2.97
    },
    {
      "text": "three-year-old boy and a four-year-old",
      "start": 204.51,
      "duration": 3.6
    },
    {
      "text": "girl and I asked them what songs they",
      "start": 205.65,
      "duration": 4.47
    },
    {
      "text": "knew and they started singing one",
      "start": 208.11,
      "duration": 3.78
    },
    {
      "text": "Nursery Rhyme and then the boy said no",
      "start": 210.12,
      "duration": 4.17
    },
    {
      "text": "no Oh Canada right and they stood up at",
      "start": 211.89,
      "duration": 5.099
    },
    {
      "text": "Oh Canada and they literally stood up",
      "start": 214.29,
      "duration": 4.199
    },
    {
      "text": "ramrod straight with their fists",
      "start": 216.989,
      "duration": 3.271
    },
    {
      "text": "clenched at their side staring off into",
      "start": 218.489,
      "duration": 4.651
    },
    {
      "text": "space singing o Canada which is a hymn",
      "start": 220.26,
      "duration": 4.979
    },
    {
      "text": "to the glories of being owned in the",
      "start": 223.14,
      "duration": 5.34
    },
    {
      "text": "Canadian tax livestock farm this occurs",
      "start": 225.239,
      "duration": 5.011
    },
    {
      "text": "very early that the physical gestures",
      "start": 228.48,
      "duration": 3.509
    },
    {
      "text": "were there the physical rigidity the",
      "start": 230.25,
      "duration": 4.05
    },
    {
      "text": "staring off into space the I mean this",
      "start": 231.989,
      "duration": 3.72
    },
    {
      "text": "is a three year old and a four year old",
      "start": 234.3,
      "duration": 3.03
    },
    {
      "text": "who had already received this",
      "start": 235.709,
      "duration": 3.991
    },
    {
      "text": "indoctrination from their government",
      "start": 237.33,
      "duration": 4.62
    },
    {
      "text": "education system it's not",
      "start": 239.7,
      "duration": 4.02
    },
    {
      "text": "inconsequential it is not at all",
      "start": 241.95,
      "duration": 4.65
    },
    {
      "text": "inconsequential whenever you begin to",
      "start": 243.72,
      "duration": 5.19
    },
    {
      "text": "use force to educate children and",
      "start": 246.6,
      "duration": 4.139
    },
    {
      "text": "everybody understands who's got three",
      "start": 248.91,
      "duration": 5.01
    },
    {
      "text": "brain cells rubbing together that it",
      "start": 250.739,
      "duration": 5.341
    },
    {
      "text": "requires the initiation of force for",
      "start": 253.92,
      "duration": 3.36
    },
    {
      "text": "public schools because you have to go",
      "start": 256.08,
      "duration": 3.24
    },
    {
      "text": "and particularly when it was instituted",
      "start": 257.28,
      "duration": 3.99
    },
    {
      "text": "it was a highly regressive tax it taxed",
      "start": 259.32,
      "duration": 3.06
    },
    {
      "text": "the poor",
      "start": 261.27,
      "duration": 3.12
    },
    {
      "text": "eliminated the capacitance there was no",
      "start": 262.38,
      "duration": 3.36
    },
    {
      "text": "homeschooling allowed you could send",
      "start": 264.39,
      "duration": 3.21
    },
    {
      "text": "your kid to a private school but for",
      "start": 265.74,
      "duration": 3.3
    },
    {
      "text": "reasons we'll get into those private",
      "start": 267.6,
      "duration": 3.6
    },
    {
      "text": "schools began to diminish and vanish",
      "start": 269.04,
      "duration": 5.99
    },
    {
      "text": "because they can't compete with free so",
      "start": 271.2,
      "duration": 5.73
    },
    {
      "text": "everybody understands that you have to",
      "start": 275.03,
      "duration": 3.4
    },
    {
      "text": "get your hooks into children very early",
      "start": 276.93,
      "duration": 4.5
    },
    {
      "text": "and then the children will be have a",
      "start": 278.43,
      "duration": 4.23
    },
    {
      "text": "very strong allegiance to you it's a",
      "start": 281.43,
      "duration": 3.03
    },
    {
      "text": "Stockholm Syndrome I mean it can be a",
      "start": 282.66,
      "duration": 3.12
    },
    {
      "text": "beautiful thing when families are great",
      "start": 284.46,
      "duration": 3.24
    },
    {
      "text": "but it's a sarcoma syndrome when you are",
      "start": 285.78,
      "duration": 3.75
    },
    {
      "text": "put into government schools because",
      "start": 287.7,
      "duration": 3.57
    },
    {
      "text": "immediately you have to hide the",
      "start": 289.53,
      "duration": 3.3
    },
    {
      "text": "violence of the environment you have to",
      "start": 291.27,
      "duration": 5.28
    },
    {
      "text": "pretend that it is consensual when it is",
      "start": 292.83,
      "duration": 5.79
    },
    {
      "text": "in fact coercive and blurring this",
      "start": 296.55,
      "duration": 4.11
    },
    {
      "text": "distinction for children is a very bad",
      "start": 298.62,
      "duration": 5.07
    },
    {
      "text": "idea and so it's very important to",
      "start": 300.66,
      "duration": 6.18
    },
    {
      "text": "understand that the government became",
      "start": 303.69,
      "duration": 6
    },
    {
      "text": "the parents to a large degree because",
      "start": 306.84,
      "duration": 5.01
    },
    {
      "text": "parents were originally responsible for",
      "start": 309.69,
      "duration": 3.78
    },
    {
      "text": "educating their children and parents did",
      "start": 311.85,
      "duration": 3.06
    },
    {
      "text": "a fantastic job and we'll get into some",
      "start": 313.47,
      "duration": 3.42
    },
    {
      "text": "statistics in a moment parents did a",
      "start": 314.91,
      "duration": 3.84
    },
    {
      "text": "fantastic job of educating their",
      "start": 316.89,
      "duration": 3.66
    },
    {
      "text": "children but prior to the rise of",
      "start": 318.75,
      "duration": 3.18
    },
    {
      "text": "government schools after the fall of",
      "start": 320.55,
      "duration": 3.24
    },
    {
      "text": "religious schools in the 16th 17th",
      "start": 321.93,
      "duration": 3.9
    },
    {
      "text": "centuries and prior to the rise of",
      "start": 323.79,
      "duration": 3.48
    },
    {
      "text": "government schools in the 19th century",
      "start": 325.83,
      "duration": 4.2
    },
    {
      "text": "there was an amazing time an amazing",
      "start": 327.27,
      "duration": 7.02
    },
    {
      "text": "time of free I mean sort of free as in",
      "start": 330.03,
      "duration": 7.35
    },
    {
      "text": "free market largely a private education",
      "start": 334.29,
      "duration": 5.55
    },
    {
      "text": "where parents would choose literacy",
      "start": 337.38,
      "duration": 4.8
    },
    {
      "text": "rates were very high intelligence kept",
      "start": 339.84,
      "duration": 4.77
    },
    {
      "text": "increasing and there was entrepreneurial",
      "start": 342.18,
      "duration": 3.6
    },
    {
      "text": "skills that were taught and we'll get",
      "start": 344.61,
      "duration": 3.18
    },
    {
      "text": "into some of the amazing education that",
      "start": 345.78,
      "duration": 3.78
    },
    {
      "text": "was going on in the 19th century this",
      "start": 347.79,
      "duration": 4.35
    },
    {
      "text": "all got hammered and crashed down by the",
      "start": 349.56,
      "duration": 7.71
    },
    {
      "text": "rise of government education so when the",
      "start": 352.14,
      "duration": 6.72
    },
    {
      "text": "government educates the children the",
      "start": 357.27,
      "duration": 4.04
    },
    {
      "text": "children are loyal to the government and",
      "start": 358.86,
      "duration": 7.38
    },
    {
      "text": "it was very clear that war worship was",
      "start": 361.31,
      "duration": 6.97
    },
    {
      "text": "instituted in government schools and",
      "start": 366.24,
      "duration": 4.11
    },
    {
      "text": "their sources for this you're welcome to",
      "start": 368.28,
      "duration": 3.21
    },
    {
      "text": "look him up I'm gonna put sources to",
      "start": 370.35,
      "duration": 3.09
    },
    {
      "text": "this which has some specific facts in it",
      "start": 371.49,
      "duration": 3.54
    },
    {
      "text": "below this video here are if you're",
      "start": 373.44,
      "duration": 2.82
    },
    {
      "text": "listening to the audio you can check out",
      "start": 375.03,
      "duration": 5.82
    },
    {
      "text": "the video page but children were taught",
      "start": 376.26,
      "duration": 6.27
    },
    {
      "text": "that war was glorious children were",
      "start": 380.85,
      "duration": 3.54
    },
    {
      "text": "taught that war was noble children were",
      "start": 382.53,
      "duration": 3.66
    },
    {
      "text": "taught that there is nothing finer and",
      "start": 384.39,
      "duration": 3.81
    },
    {
      "text": "nothing more wonderful than for a man to",
      "start": 386.19,
      "duration": 3.89
    },
    {
      "text": "sacrifice his life for his country as",
      "start": 388.2,
      "duration": 3.87
    },
    {
      "text": "Nelson was supposed to have said at the",
      "start": 390.08,
      "duration": 2.95
    },
    {
      "text": "Battle of",
      "start": 392.07,
      "duration": 2.969
    },
    {
      "text": "I regret that I have but one life to",
      "start": 393.03,
      "duration": 3.3
    },
    {
      "text": "give for my country",
      "start": 395.039,
      "duration": 3.421
    },
    {
      "text": "this was pounded into children's heads",
      "start": 396.33,
      "duration": 3.75
    },
    {
      "text": "this was indoctrinated into children's",
      "start": 398.46,
      "duration": 3.989
    },
    {
      "text": "heads why because for the most part",
      "start": 400.08,
      "duration": 5.519
    },
    {
      "text": "people in the government wanted to have",
      "start": 402.449,
      "duration": 5.071
    },
    {
      "text": "future soldiers to go and continue to",
      "start": 405.599,
      "duration": 4.41
    },
    {
      "text": "conquer more third-world countries more",
      "start": 407.52,
      "duration": 5.22
    },
    {
      "text": "to expand their empires and so they if",
      "start": 410.009,
      "duration": 3.84
    },
    {
      "text": "you want to have soldiers who are",
      "start": 412.74,
      "duration": 3.329
    },
    {
      "text": "willing to go and die of tropical",
      "start": 413.849,
      "duration": 4.141
    },
    {
      "text": "diseases and Spears to the chance you",
      "start": 416.069,
      "duration": 4.65
    },
    {
      "text": "have to tell them that war is glorious",
      "start": 417.99,
      "duration": 5.579
    },
    {
      "text": "that obedience to the king or to the",
      "start": 420.719,
      "duration": 4.681
    },
    {
      "text": "political leader is the highest form of",
      "start": 423.569,
      "duration": 4.051
    },
    {
      "text": "virtue and then you can breed your",
      "start": 425.4,
      "duration": 4.079
    },
    {
      "text": "lovely little kill robots to go out and",
      "start": 427.62,
      "duration": 2.97
    },
    {
      "text": "slaughter people they've never met",
      "start": 429.479,
      "duration": 1.59
    },
    {
      "text": "before",
      "start": 430.59,
      "duration": 2.46
    },
    {
      "text": "so the indoctrination and the war",
      "start": 431.069,
      "duration": 3.53
    },
    {
      "text": "worship that was inflicted on children",
      "start": 433.05,
      "duration": 4.56
    },
    {
      "text": "by government schools was enormous and",
      "start": 434.599,
      "duration": 4.63
    },
    {
      "text": "deep and had incredibly long lasting",
      "start": 437.61,
      "duration": 5.429
    },
    {
      "text": "consequences the first generation was of",
      "start": 439.229,
      "duration": 8.24
    },
    {
      "text": "course sort of 1860s 1870s to 1880s",
      "start": 443.039,
      "duration": 7.291
    },
    {
      "text": "1890s one of the things that occurred",
      "start": 447.469,
      "duration": 5.681
    },
    {
      "text": "prior to the first world war and in many",
      "start": 450.33,
      "duration": 5.1
    },
    {
      "text": "ways laid the stage emotionally and",
      "start": 453.15,
      "duration": 5.79
    },
    {
      "text": "psychologically for the horrors of the",
      "start": 455.43,
      "duration": 5.34
    },
    {
      "text": "First World War and the irrationality of",
      "start": 458.94,
      "duration": 3.719
    },
    {
      "text": "the first world war was the rise of",
      "start": 460.77,
      "duration": 5.13
    },
    {
      "text": "modernist art movements so within a",
      "start": 462.659,
      "duration": 4.831
    },
    {
      "text": "generation of the institution of public",
      "start": 465.9,
      "duration": 6.09
    },
    {
      "text": "schools art mutates into Dadaism and",
      "start": 467.49,
      "duration": 8.099
    },
    {
      "text": "cubism and nonsense word poetry and so",
      "start": 471.99,
      "duration": 6.359
    },
    {
      "text": "on and and you get as some commentators",
      "start": 475.589,
      "duration": 5.25
    },
    {
      "text": "have pointed out Picasso style paintings",
      "start": 478.349,
      "duration": 4.081
    },
    {
      "text": "where bodies already looked like they're",
      "start": 480.839,
      "duration": 3.48
    },
    {
      "text": "blown apart while that exploded turned",
      "start": 482.43,
      "duration": 3.989
    },
    {
      "text": "inside out put it in possible angles as",
      "start": 484.319,
      "duration": 4.261
    },
    {
      "text": "if they'd fallen from a high a high",
      "start": 486.419,
      "duration": 5.581
    },
    {
      "text": "building this is the inner torture of",
      "start": 488.58,
      "duration": 4.739
    },
    {
      "text": "children who are herded into government",
      "start": 492,
      "duration": 3.06
    },
    {
      "text": "schools expressing itself through art",
      "start": 493.319,
      "duration": 2.97
    },
    {
      "text": "because not just the artist is the",
      "start": 495.06,
      "duration": 4.56
    },
    {
      "text": "popularity of the art atonal opera anti",
      "start": 496.289,
      "duration": 5.28
    },
    {
      "text": "beautiful dancing dancing books which",
      "start": 499.62,
      "duration": 4.44
    },
    {
      "text": "was grotesque which caused riots when it",
      "start": 501.569,
      "duration": 6.66
    },
    {
      "text": "was first premiered there was a real",
      "start": 504.06,
      "duration": 6.21
    },
    {
      "text": "mutation into irrationality and",
      "start": 508.229,
      "duration": 4.531
    },
    {
      "text": "distortion in art within a generation of",
      "start": 510.27,
      "duration": 4.92
    },
    {
      "text": "public schools because children pick up",
      "start": 512.76,
      "duration": 3.899
    },
    {
      "text": "everything unconsciously and they're",
      "start": 515.19,
      "duration": 3.42
    },
    {
      "text": "reflecting back the horrors of the",
      "start": 516.659,
      "duration": 3.42
    },
    {
      "text": "society that they live in whether herded",
      "start": 518.61,
      "duration": 3.69
    },
    {
      "text": "into state schools and taught that",
      "start": 520.079,
      "duration": 4.171
    },
    {
      "text": "murder is virtue this has profound",
      "start": 522.3,
      "duration": 3.37
    },
    {
      "text": "impacts on",
      "start": 524.25,
      "duration": 2.83
    },
    {
      "text": "mystic sensibilities which then flow",
      "start": 525.67,
      "duration": 3.42
    },
    {
      "text": "outward into society so the irrational",
      "start": 527.08,
      "duration": 4.05
    },
    {
      "text": "madness of the First World War had as",
      "start": 529.09,
      "duration": 3.6
    },
    {
      "text": "late in its foundations",
      "start": 531.13,
      "duration": 3.48
    },
    {
      "text": "the public school system which",
      "start": 532.69,
      "duration": 4.38
    },
    {
      "text": "indoctrinated children to worship war to",
      "start": 534.61,
      "duration": 3.45
    },
    {
      "text": "worship the government and that",
      "start": 537.07,
      "duration": 3.69
    },
    {
      "text": "obedience to the head thugs was the",
      "start": 538.06,
      "duration": 4.68
    },
    {
      "text": "highest possible virtue that could be",
      "start": 540.76,
      "duration": 4.29
    },
    {
      "text": "achieved and so when the call went out",
      "start": 542.74,
      "duration": 7.1
    },
    {
      "text": "in 1914 millions answered the clock I",
      "start": 545.05,
      "duration": 6.93
    },
    {
      "text": "also wanted to mention one follow-up",
      "start": 549.84,
      "duration": 3.94
    },
    {
      "text": "this a number of follow-up things which",
      "start": 551.98,
      "duration": 4.32
    },
    {
      "text": "I will drop in here and there my good",
      "start": 553.78,
      "duration": 4.14
    },
    {
      "text": "friend Charlotte sent me a great message",
      "start": 556.3,
      "duration": 5.19
    },
    {
      "text": "about what helped the West to grow and I",
      "start": 557.92,
      "duration": 4.83
    },
    {
      "text": "absolutely want to get more into those",
      "start": 561.49,
      "duration": 3.27
    },
    {
      "text": "things like the lead the discovery of",
      "start": 562.75,
      "duration": 3.48
    },
    {
      "text": "science and Greek literature",
      "start": 564.76,
      "duration": 3.69
    },
    {
      "text": "particularly philosophy through",
      "start": 566.23,
      "duration": 4.56
    },
    {
      "text": "explorations in the Muslim world and",
      "start": 568.45,
      "duration": 4.68
    },
    {
      "text": "also the relaxation of the ban on",
      "start": 570.79,
      "duration": 3.6
    },
    {
      "text": "lending and lending money for interest",
      "start": 573.13,
      "duration": 3.18
    },
    {
      "text": "ban on Ussuri through the Catholic",
      "start": 574.39,
      "duration": 3.18
    },
    {
      "text": "Church all of these are very very",
      "start": 576.31,
      "duration": 2.91
    },
    {
      "text": "important we will do that in another",
      "start": 577.57,
      "duration": 2.94
    },
    {
      "text": "series called the rise of the West",
      "start": 579.22,
      "duration": 3.33
    },
    {
      "text": "because after we talk about the fall we",
      "start": 580.51,
      "duration": 3.24
    },
    {
      "text": "should talk about the rise because",
      "start": 582.55,
      "duration": 2.73
    },
    {
      "text": "that's where we have to get to after the",
      "start": 583.75,
      "duration": 3.69
    },
    {
      "text": "fall so I just wanted to mention that I",
      "start": 585.28,
      "duration": 3.69
    },
    {
      "text": "also wanted to mention that another",
      "start": 587.44,
      "duration": 4.05
    },
    {
      "text": "reason why America in the spring of 1917",
      "start": 588.97,
      "duration": 5.58
    },
    {
      "text": "entered into world war one was because",
      "start": 591.49,
      "duration": 4.74
    },
    {
      "text": "the French army was falling apart the",
      "start": 594.55,
      "duration": 4.23
    },
    {
      "text": "French army was right 54 divisions",
      "start": 596.23,
      "duration": 6.66
    },
    {
      "text": "mutiny in 1917 early 1917 as a result of",
      "start": 598.78,
      "duration": 6
    },
    {
      "text": "yet another disastrous campaign where",
      "start": 602.89,
      "duration": 3.36
    },
    {
      "text": "hundreds of thousands got slaughtered",
      "start": 604.78,
      "duration": 5.7
    },
    {
      "text": "they shot there they shot their officers",
      "start": 606.25,
      "duration": 8.04
    },
    {
      "text": "they set up soviets or democratic areas",
      "start": 610.48,
      "duration": 4.86
    },
    {
      "text": "and they said that they would not they",
      "start": 614.29,
      "duration": 2.76
    },
    {
      "text": "would defend france if it were invaded",
      "start": 615.34,
      "duration": 3.75
    },
    {
      "text": "but they were no longer going to attack",
      "start": 617.05,
      "duration": 6.27
    },
    {
      "text": "the germans and tens of thousands mutiny",
      "start": 619.09,
      "duration": 6.57
    },
    {
      "text": "- they were arrested and dozens and",
      "start": 623.32,
      "duration": 5.13
    },
    {
      "text": "dozens were shot and this rebellion was",
      "start": 625.66,
      "duration": 5.61
    },
    {
      "text": "barely put down but there was no",
      "start": 628.45,
      "duration": 5.25
    },
    {
      "text": "guarantee at all that the french",
      "start": 631.27,
      "duration": 3.87
    },
    {
      "text": "soldiers would be available for any more",
      "start": 633.7,
      "duration": 2.85
    },
    {
      "text": "of an offensive and the british soldiers",
      "start": 635.14,
      "duration": 2.85
    },
    {
      "text": "of course who weren't quite as badly",
      "start": 636.55,
      "duration": 4.23
    },
    {
      "text": "beaten up were still available but this",
      "start": 637.99,
      "duration": 4.41
    },
    {
      "text": "is another reason why america came in",
      "start": 640.78,
      "duration": 5.1
    },
    {
      "text": "because if the French army had rebelled",
      "start": 642.4,
      "duration": 5.73
    },
    {
      "text": "as it did and had become purely",
      "start": 645.88,
      "duration": 4.71
    },
    {
      "text": "defensive then there was no possibility",
      "start": 648.13,
      "duration": 4.92
    },
    {
      "text": "of beating Germany and extracting the",
      "start": 650.59,
      "duration": 4.71
    },
    {
      "text": "German gold that was necessary to pay",
      "start": 653.05,
      "duration": 3.93
    },
    {
      "text": "off the war debts that had been lent to",
      "start": 655.3,
      "duration": 3.28
    },
    {
      "text": "the Allies by Ameri",
      "start": 656.98,
      "duration": 3.49
    },
    {
      "text": "so this is another reason that America",
      "start": 658.58,
      "duration": 3.78
    },
    {
      "text": "came in it was the same reason in terms",
      "start": 660.47,
      "duration": 3.989
    },
    {
      "text": "of picking up they're getting paid back",
      "start": 662.36,
      "duration": 4.409
    },
    {
      "text": "for their war debts but it was this",
      "start": 664.459,
      "duration": 3.75
    },
    {
      "text": "rebellion within the French army was",
      "start": 666.769,
      "duration": 3.811
    },
    {
      "text": "enormous ly important in drawing America",
      "start": 668.209,
      "duration": 4.291
    },
    {
      "text": "into the war because the West was",
      "start": 670.58,
      "duration": 3.99
    },
    {
      "text": "absolutely crumbling and the peace",
      "start": 672.5,
      "duration": 3.66
    },
    {
      "text": "treaties would have been to have",
      "start": 674.57,
      "duration": 2.55
    },
    {
      "text": "everyone go back home",
      "start": 676.16,
      "duration": 2.85
    },
    {
      "text": "of course the politicians didn't want a",
      "start": 677.12,
      "duration": 3.24
    },
    {
      "text": "peace treaty where everyone went back",
      "start": 679.01,
      "duration": 4.079
    },
    {
      "text": "home because then the deaths of the",
      "start": 680.36,
      "duration": 4.38
    },
    {
      "text": "millions millions of deaths that had",
      "start": 683.089,
      "duration": 4.051
    },
    {
      "text": "already occurred would be quote for",
      "start": 684.74,
      "duration": 5.55
    },
    {
      "text": "nothing it's the fallacy of sunk costs",
      "start": 687.14,
      "duration": 4.8
    },
    {
      "text": "in an absolutely bloody and genocide or",
      "start": 690.29,
      "duration": 3.84
    },
    {
      "text": "pit but of course people who had lost",
      "start": 691.94,
      "duration": 5.79
    },
    {
      "text": "family members in migrant on my side of",
      "start": 694.13,
      "duration": 4.649
    },
    {
      "text": "the family of my British side of the",
      "start": 697.73,
      "duration": 4.26
    },
    {
      "text": "family or other Irish side enormous",
      "start": 698.779,
      "duration": 5.49
    },
    {
      "text": "numbers of men died in the First World",
      "start": 701.99,
      "duration": 5.01
    },
    {
      "text": "War two generations back more died in",
      "start": 704.269,
      "duration": 4.171
    },
    {
      "text": "the Second World War on both my mother's",
      "start": 707,
      "duration": 2.82
    },
    {
      "text": "side and my father's side the German and",
      "start": 708.44,
      "duration": 4.74
    },
    {
      "text": "the Irish side but it's very hard to say",
      "start": 709.82,
      "duration": 5.31
    },
    {
      "text": "to people well after millions have died",
      "start": 713.18,
      "duration": 3.87
    },
    {
      "text": "we're all just gonna go back home and",
      "start": 715.13,
      "duration": 3.81
    },
    {
      "text": "nothing happened so the politicians",
      "start": 717.05,
      "duration": 3.719
    },
    {
      "text": "would have been voted out of office and",
      "start": 718.94,
      "duration": 4.44
    },
    {
      "text": "possibly lynched if they had suggested",
      "start": 720.769,
      "duration": 4.231
    },
    {
      "text": "that because they've expended so much",
      "start": 723.38,
      "duration": 4.74
    },
    {
      "text": "propaganda portraying the enemy as evil",
      "start": 725,
      "duration": 5.25
    },
    {
      "text": "and immoral to the core and there were",
      "start": 728.12,
      "duration": 3.5
    },
    {
      "text": "of course all these atrocity stories",
      "start": 730.25,
      "duration": 4.68
    },
    {
      "text": "that came out of Germany's invasion of",
      "start": 731.62,
      "duration": 6.04
    },
    {
      "text": "Belgium that they were raping nuns and",
      "start": 734.93,
      "duration": 4.29
    },
    {
      "text": "tossing babies around on bayonets it's",
      "start": 737.66,
      "duration": 3.36
    },
    {
      "text": "all nonsense right but it's this is no",
      "start": 739.22,
      "duration": 3.239
    },
    {
      "text": "more true than half the stuff that was",
      "start": 741.02,
      "duration": 4.379
    },
    {
      "text": "said about Saddam Hussein but then this",
      "start": 742.459,
      "duration": 4.171
    },
    {
      "text": "is the propaganda that have been put",
      "start": 745.399,
      "duration": 3.781
    },
    {
      "text": "forward that Germany was an evil that",
      "start": 746.63,
      "duration": 4.47
    },
    {
      "text": "had to be crushed underfoot like a",
      "start": 749.18,
      "duration": 5.219
    },
    {
      "text": "poisonous Viper or spider the church had",
      "start": 751.1,
      "duration": 5.01
    },
    {
      "text": "gotten right into this and exhorted",
      "start": 754.399,
      "duration": 4.021
    },
    {
      "text": "people to go and slaughter and strangle",
      "start": 756.11,
      "duration": 4.02
    },
    {
      "text": "and bayonet Germans were that they were",
      "start": 758.42,
      "duration": 3.63
    },
    {
      "text": "a cancer they were a virus and so you",
      "start": 760.13,
      "duration": 3.24
    },
    {
      "text": "can't just say well we've you know we've",
      "start": 762.05,
      "duration": 2.399
    },
    {
      "text": "reached an agreement we're all gonna go",
      "start": 763.37,
      "duration": 2.07
    },
    {
      "text": "back to where we were because the",
      "start": 764.449,
      "duration": 3.241
    },
    {
      "text": "propaganda had been so intense the",
      "start": 765.44,
      "duration": 4.259
    },
    {
      "text": "British propaganda effort in in America",
      "start": 767.69,
      "duration": 4.649
    },
    {
      "text": "was equally intense and the prominent",
      "start": 769.699,
      "duration": 5.401
    },
    {
      "text": "American writers who had come out in",
      "start": 772.339,
      "duration": 4.291
    },
    {
      "text": "favor of the war and in favor of",
      "start": 775.1,
      "duration": 4.169
    },
    {
      "text": "American intervention the British",
      "start": 776.63,
      "duration": 4.019
    },
    {
      "text": "government arranged to have soldiers",
      "start": 779.269,
      "duration": 3.031
    },
    {
      "text": "write them letters expressing their",
      "start": 780.649,
      "duration": 4.05
    },
    {
      "text": "appreciation and the of course the",
      "start": 782.3,
      "duration": 4.68
    },
    {
      "text": "British government Kathy cables",
      "start": 784.699,
      "duration": 4.171
    },
    {
      "text": "communicating communication cables from",
      "start": 786.98,
      "duration": 2.86
    },
    {
      "text": "Germany",
      "start": 788.87,
      "duration": 3.61
    },
    {
      "text": "to America across the Atlantic which",
      "start": 789.84,
      "duration": 4.88
    },
    {
      "text": "gave Britain the sole",
      "start": 792.48,
      "duration": 4.74
    },
    {
      "text": "Britain the sole source of information",
      "start": 794.72,
      "duration": 3.61
    },
    {
      "text": "about the war and of course they just",
      "start": 797.22,
      "duration": 3.27
    },
    {
      "text": "lied about everything but you just have",
      "start": 798.33,
      "duration": 3.6
    },
    {
      "text": "to look at what happened in Iraq and",
      "start": 800.49,
      "duration": 2.94
    },
    {
      "text": "what's happening in Afghanistan to to",
      "start": 801.93,
      "duration": 3.57
    },
    {
      "text": "know that you know war is just a synonym",
      "start": 803.43,
      "duration": 6.21
    },
    {
      "text": "for rely anyway so let's go back to the",
      "start": 805.5,
      "duration": 6.75
    },
    {
      "text": "to the 19th century I'm gonna give you",
      "start": 809.64,
      "duration": 4.71
    },
    {
      "text": "some statistics which may be surprising",
      "start": 812.25,
      "duration": 4.2
    },
    {
      "text": "because of course when you're at the",
      "start": 814.35,
      "duration": 3.93
    },
    {
      "text": "tail end or the far end of a government",
      "start": 816.45,
      "duration": 4.17
    },
    {
      "text": "program everybody thinks that the",
      "start": 818.28,
      "duration": 4.17
    },
    {
      "text": "government program was put in to solve a",
      "start": 820.62,
      "duration": 5.34
    },
    {
      "text": "genuine problem but public education",
      "start": 822.45,
      "duration": 6.21
    },
    {
      "text": "like everything else did not solve an",
      "start": 825.96,
      "duration": 4.35
    },
    {
      "text": "existing problem in fact it was the",
      "start": 828.66,
      "duration": 4.19
    },
    {
      "text": "success of the free market that caused",
      "start": 830.31,
      "duration": 5.52
    },
    {
      "text": "the government to institute private",
      "start": 832.85,
      "duration": 4.84
    },
    {
      "text": "public schools it was not because it was",
      "start": 835.83,
      "duration": 3.45
    },
    {
      "text": "failing it was because it was succeeding",
      "start": 837.69,
      "duration": 3.84
    },
    {
      "text": "and the moment that it began to go in",
      "start": 839.28,
      "duration": 3.99
    },
    {
      "text": "education standards begin to decline",
      "start": 841.53,
      "duration": 4.14
    },
    {
      "text": "propaganda replaced genuine education a",
      "start": 843.27,
      "duration": 4.14
    },
    {
      "text": "large number of topics were dropped from",
      "start": 845.67,
      "duration": 3.99
    },
    {
      "text": "the curriculum like economics like law",
      "start": 847.41,
      "duration": 4.08
    },
    {
      "text": "like entrepreneurship like business like",
      "start": 849.66,
      "duration": 3.21
    },
    {
      "text": "accounting all the things which would",
      "start": 851.49,
      "duration": 3.72
    },
    {
      "text": "actually help children particularly if",
      "start": 852.87,
      "duration": 4.05
    },
    {
      "text": "the poor actually compete with the",
      "start": 855.21,
      "duration": 2.94
    },
    {
      "text": "middle and upper classes cause the",
      "start": 856.92,
      "duration": 3.36
    },
    {
      "text": "middle and upper classes don't want that",
      "start": 858.15,
      "duration": 5.07
    },
    {
      "text": "they want a nice thick layer between",
      "start": 860.28,
      "duration": 4.62
    },
    {
      "text": "them and the poor because the poor will",
      "start": 863.22,
      "duration": 3.81
    },
    {
      "text": "work for cheap the poor will work for",
      "start": 864.9,
      "duration": 4.41
    },
    {
      "text": "less money and so the rich don't want",
      "start": 867.03,
      "duration": 3.42
    },
    {
      "text": "their wages dragged down by the",
      "start": 869.31,
      "duration": 3.75
    },
    {
      "text": "entrepreneurial aspects or energies of",
      "start": 870.45,
      "duration": 4.44
    },
    {
      "text": "the poor and so they put in public",
      "start": 873.06,
      "duration": 4.92
    },
    {
      "text": "schools to to retard the intelligence",
      "start": 874.89,
      "duration": 4.65
    },
    {
      "text": "and abilities of the poor so that they",
      "start": 877.98,
      "duration": 3.24
    },
    {
      "text": "don't compete with the rich it is a",
      "start": 879.54,
      "duration": 5.16
    },
    {
      "text": "truly vile situation the exact opposite",
      "start": 881.22,
      "duration": 5.64
    },
    {
      "text": "of anything that would be just Noble and",
      "start": 884.7,
      "duration": 4.44
    },
    {
      "text": "right and true and good in the world and",
      "start": 886.86,
      "duration": 3.96
    },
    {
      "text": "of course the function of public schools",
      "start": 889.14,
      "duration": 4.53
    },
    {
      "text": "to maintain the class system to give the",
      "start": 890.82,
      "duration": 4.56
    },
    {
      "text": "rich that the ability to send their",
      "start": 893.67,
      "duration": 3.3
    },
    {
      "text": "children to quality private schools",
      "start": 895.38,
      "duration": 3.45
    },
    {
      "text": "while forcing the poor to send their",
      "start": 896.97,
      "duration": 5.61
    },
    {
      "text": "children to the a metal detecting prison",
      "start": 898.83,
      "duration": 5.49
    },
    {
      "text": "built concentration camps of anti",
      "start": 902.58,
      "duration": 3.69
    },
    {
      "text": "schooling run by the state this is just",
      "start": 904.32,
      "duration": 3.96
    },
    {
      "text": "a way of keeping wealth concentrated and",
      "start": 906.27,
      "duration": 3.69
    },
    {
      "text": "you can see that as public schools have",
      "start": 908.28,
      "duration": 2.97
    },
    {
      "text": "gotten worse wealth is concentrated",
      "start": 909.96,
      "duration": 3.21
    },
    {
      "text": "itself more and more in the hands of the",
      "start": 911.25,
      "duration": 4.23
    },
    {
      "text": "rich this is what governments do they",
      "start": 913.17,
      "duration": 4.02
    },
    {
      "text": "impoverished the poor and enrich the",
      "start": 915.48,
      "duration": 3.9
    },
    {
      "text": "rich the gap will always get wider when",
      "start": 917.19,
      "duration": 5.31
    },
    {
      "text": "governments are in charge so let's look",
      "start": 919.38,
      "duration": 3.67
    },
    {
      "text": "at",
      "start": 922.5,
      "duration": 3.16
    },
    {
      "text": "some of the education some of the",
      "start": 923.05,
      "duration": 6.3
    },
    {
      "text": "educational facts and statistics from a",
      "start": 925.66,
      "duration": 4.95
    },
    {
      "text": "little early and I apologize for reading",
      "start": 929.35,
      "duration": 2.91
    },
    {
      "text": "from notes here I just couldn't remember",
      "start": 930.61,
      "duration": 3.93
    },
    {
      "text": "all of this stuff because my brain is",
      "start": 932.26,
      "duration": 5.7
    },
    {
      "text": "aging okay and look at some of the",
      "start": 934.54,
      "duration": 5.49
    },
    {
      "text": "trustee figures in the u.s. before 1870",
      "start": 937.96,
      "duration": 3.36
    },
    {
      "text": "when substantial state intervention",
      "start": 940.03,
      "duration": 4.89
    },
    {
      "text": "began the 19th sorry the 1838 report on",
      "start": 941.32,
      "duration": 4.95
    },
    {
      "text": "the training of pauper children in work",
      "start": 944.92,
      "duration": 4.08
    },
    {
      "text": "houses shows that 87 percent pauper",
      "start": 946.27,
      "duration": 3.9
    },
    {
      "text": "children the poorest of the poor",
      "start": 949,
      "duration": 5.91
    },
    {
      "text": "children 87 percent could read Portugal",
      "start": 950.17,
      "duration": 6.69
    },
    {
      "text": "in 1950 had only 55 to 60 percent",
      "start": 954.91,
      "duration": 4.62
    },
    {
      "text": "literacy rate 87 percent in a free",
      "start": 956.86,
      "duration": 5.1
    },
    {
      "text": "market when they were far poorer than",
      "start": 959.53,
      "duration": 5.55
    },
    {
      "text": "people in Portugal in 1950 in 1950 Egypt",
      "start": 961.96,
      "duration": 4.83
    },
    {
      "text": "had 20 to 25 percent literacy rate",
      "start": 965.08,
      "duration": 3.57
    },
    {
      "text": "compared to 87 percent of the poorest of",
      "start": 966.79,
      "duration": 5.63
    },
    {
      "text": "the poor in a private school u.s. system",
      "start": 968.65,
      "duration": 3.77
    },
    {
      "text": "the report from the assistant handloom",
      "start": 972.9,
      "duration": 5.26
    },
    {
      "text": "Weaver's Commission in 1839 revealed",
      "start": 975.43,
      "duration": 5.22
    },
    {
      "text": "that over 92% of handloom Weaver's could",
      "start": 978.16,
      "duration": 7.41
    },
    {
      "text": "read and the average school leaving age",
      "start": 980.65,
      "duration": 7.08
    },
    {
      "text": "was 11 and most of the adults were at",
      "start": 985.57,
      "duration": 6.21
    },
    {
      "text": "least 15 in 1833 this was an enormous",
      "start": 987.73,
      "duration": 6.72
    },
    {
      "text": "growth in literacy and truly truly",
      "start": 991.78,
      "duration": 7.23
    },
    {
      "text": "fantastic let's look at at some some",
      "start": 994.45,
      "duration": 7.38
    },
    {
      "text": "other facts and statistics about about",
      "start": 999.01,
      "duration": 5.52
    },
    {
      "text": "education in the 19th in the 19th",
      "start": 1001.83,
      "duration": 7.59
    },
    {
      "text": "century in 1838 in England 80 percent of",
      "start": 1004.53,
      "duration": 7.02
    },
    {
      "text": "children were receiving at least eight",
      "start": 1009.42,
      "duration": 4.35
    },
    {
      "text": "years worth of education in the private",
      "start": 1011.55,
      "duration": 4.8
    },
    {
      "text": "school system which i think is very very",
      "start": 1013.77,
      "duration": 7.08
    },
    {
      "text": "impressive and positive there is in 1839",
      "start": 1016.35,
      "duration": 8.37
    },
    {
      "text": "in an intensive survey the the",
      "start": 1020.85,
      "duration": 5.609
    },
    {
      "text": "government found that no more than two",
      "start": 1024.72,
      "duration": 3.39
    },
    {
      "text": "to three percent of Jews of the juvenile",
      "start": 1026.459,
      "duration": 4.801
    },
    {
      "text": "population are uneducated or are in left",
      "start": 1028.11,
      "duration": 4.71
    },
    {
      "text": "entirely destitute of formal education",
      "start": 1031.26,
      "duration": 6.3
    },
    {
      "text": "so only a 2 to 3 percent of children",
      "start": 1032.82,
      "duration": 8.82
    },
    {
      "text": "were uneducated at all in 1839 the",
      "start": 1037.56,
      "duration": 6.39
    },
    {
      "text": "Manchester survey the society surveyed",
      "start": 1041.64,
      "duration": 6.72
    },
    {
      "text": "huh Russia's a town in England 90% of",
      "start": 1043.95,
      "duration": 6.87
    },
    {
      "text": "adults in both towns could read sorry",
      "start": 1048.36,
      "duration": 4.59
    },
    {
      "text": "how lend a Pendleton and again the",
      "start": 1050.82,
      "duration": 5.27
    },
    {
      "text": "sources are below and the",
      "start": 1052.95,
      "duration": 6.41
    },
    {
      "text": "the school that the ratio of pupils to",
      "start": 1056.09,
      "duration": 5.25
    },
    {
      "text": "teachers is actually was actually better",
      "start": 1059.36,
      "duration": 6.63
    },
    {
      "text": "in the 1830s than it was in 1967 it was",
      "start": 1061.34,
      "duration": 6.03
    },
    {
      "text": "twenty six point eight versus twenty",
      "start": 1065.99,
      "duration": 3.48
    },
    {
      "text": "nine point seven a small difference but",
      "start": 1067.37,
      "duration": 5.789
    },
    {
      "text": "nonetheless better parents were very",
      "start": 1069.47,
      "duration": 5.52
    },
    {
      "text": "effective at sending their children to",
      "start": 1073.159,
      "duration": 3.091
    },
    {
      "text": "good schools and taking their children",
      "start": 1074.99,
      "duration": 3.66
    },
    {
      "text": "out of bad schools which i think is very",
      "start": 1076.25,
      "duration": 5.46
    },
    {
      "text": "very important one of the problems that",
      "start": 1078.65,
      "duration": 4.92
    },
    {
      "text": "occurred when government education was",
      "start": 1081.71,
      "duration": 3.36
    },
    {
      "text": "first instituted did only guaranteed",
      "start": 1083.57,
      "duration": 5.489
    },
    {
      "text": "education for four months of the year",
      "start": 1085.07,
      "duration": 5.79
    },
    {
      "text": "where private schools were eight months",
      "start": 1089.059,
      "duration": 4.86
    },
    {
      "text": "of the year and so because parents were",
      "start": 1090.86,
      "duration": 5.85
    },
    {
      "text": "could send their children to school for",
      "start": 1093.919,
      "duration": 4.26
    },
    {
      "text": "free for four months rather than have",
      "start": 1096.71,
      "duration": 2.67
    },
    {
      "text": "pay and have them go for eight months",
      "start": 1098.179,
      "duration": 2.671
    },
    {
      "text": "the amount of education that the",
      "start": 1099.38,
      "duration": 3.659
    },
    {
      "text": "children received actually went down as",
      "start": 1100.85,
      "duration": 4.319
    },
    {
      "text": "the result of the institution of public",
      "start": 1103.039,
      "duration": 4.77
    },
    {
      "text": "schools and let's have a look at some of",
      "start": 1105.169,
      "duration": 4.081
    },
    {
      "text": "the innovations they're just amazing",
      "start": 1107.809,
      "duration": 3.661
    },
    {
      "text": "some of the innovations that occurred in",
      "start": 1109.25,
      "duration": 3.51
    },
    {
      "text": "the nineteenth century as early as",
      "start": 1111.47,
      "duration": 3.48
    },
    {
      "text": "eighteen eleven the National Society for",
      "start": 1112.76,
      "duration": 3.779
    },
    {
      "text": "promoting the education of the poor was",
      "start": 1114.95,
      "duration": 3.63
    },
    {
      "text": "formed and created national schools and",
      "start": 1116.539,
      "duration": 3.571
    },
    {
      "text": "they followed the idea of a fellow named",
      "start": 1118.58,
      "duration": 3.39
    },
    {
      "text": "Belle Belle and Lancaster were two",
      "start": 1120.11,
      "duration": 3.09
    },
    {
      "text": "British innovators in the realm of",
      "start": 1121.97,
      "duration": 2.73
    },
    {
      "text": "Education in the nineteenth century",
      "start": 1123.2,
      "duration": 3.39
    },
    {
      "text": "now Lancaster schools were very",
      "start": 1124.7,
      "duration": 5.67
    },
    {
      "text": "interesting they created a school and",
      "start": 1126.59,
      "duration": 5.819
    },
    {
      "text": "they had a number of teachers but what",
      "start": 1130.37,
      "duration": 3.51
    },
    {
      "text": "the teachers did was the teachers taught",
      "start": 1132.409,
      "duration": 3.99
    },
    {
      "text": "the elder children the elders the eldest",
      "start": 1133.88,
      "duration": 5.31
    },
    {
      "text": "students and then the elder students",
      "start": 1136.399,
      "duration": 5.76
    },
    {
      "text": "taught the younger children and let me",
      "start": 1139.19,
      "duration": 4.41
    },
    {
      "text": "tell you how it works this is just will",
      "start": 1142.159,
      "duration": 2.39
    },
    {
      "text": "blow your mind",
      "start": 1143.6,
      "duration": 3.48
    },
    {
      "text": "so if you've ever been to college and",
      "start": 1144.549,
      "duration": 3.971
    },
    {
      "text": "lived in a college dorm there's a thing",
      "start": 1147.08,
      "duration": 2.729
    },
    {
      "text": "called scrip it's like monopoly money",
      "start": 1148.52,
      "duration": 3.11
    },
    {
      "text": "that's only good within the school and",
      "start": 1149.809,
      "duration": 5.25
    },
    {
      "text": "the Lancaster schools ran on a system of",
      "start": 1151.63,
      "duration": 6.01
    },
    {
      "text": "script what that means is that they",
      "start": 1155.059,
      "duration": 4.141
    },
    {
      "text": "printed up this money to quote money",
      "start": 1157.64,
      "duration": 3.269
    },
    {
      "text": "which was only valid within the school",
      "start": 1159.2,
      "duration": 5.099
    },
    {
      "text": "system and children got this money they",
      "start": 1160.909,
      "duration": 5.671
    },
    {
      "text": "got a fixed amount of it and then what",
      "start": 1164.299,
      "duration": 4.38
    },
    {
      "text": "they would do is they would pay the",
      "start": 1166.58,
      "duration": 4.74
    },
    {
      "text": "elder students to teach them and so you",
      "start": 1168.679,
      "duration": 4.441
    },
    {
      "text": "had to be really good you competed as an",
      "start": 1171.32,
      "duration": 3.69
    },
    {
      "text": "elder student to teach the younger",
      "start": 1173.12,
      "duration": 3.929
    },
    {
      "text": "children so the younger children were in",
      "start": 1175.01,
      "duration": 4.799
    },
    {
      "text": "fact bidding themselves to get quality",
      "start": 1177.049,
      "duration": 4.26
    },
    {
      "text": "education from older people and they",
      "start": 1179.809,
      "duration": 3.09
    },
    {
      "text": "could also bid to get money to get",
      "start": 1181.309,
      "duration": 2.941
    },
    {
      "text": "education from the teacher but who with",
      "start": 1182.899,
      "duration": 3.991
    },
    {
      "text": "who is more expensive and they do say of",
      "start": 1184.25,
      "duration": 4.23
    },
    {
      "text": "course that when you really know",
      "start": 1186.89,
      "duration": 2.52
    },
    {
      "text": "something is when you",
      "start": 1188.48,
      "duration": 2.16
    },
    {
      "text": "can teach it someone else and they can",
      "start": 1189.41,
      "duration": 3.6
    },
    {
      "text": "understand it so the teacher the eldest",
      "start": 1190.64,
      "duration": 3.51
    },
    {
      "text": "student received instruction from the",
      "start": 1193.01,
      "duration": 2.82
    },
    {
      "text": "teachers and then would in turn instruct",
      "start": 1194.15,
      "duration": 2.88
    },
    {
      "text": "the younger children and they had to",
      "start": 1195.83,
      "duration": 3.06
    },
    {
      "text": "compete for this script with the younger",
      "start": 1197.03,
      "duration": 4.11
    },
    {
      "text": "children and the pupils got together and",
      "start": 1198.89,
      "duration": 4.23
    },
    {
      "text": "they had committees these kids kids",
      "start": 1201.14,
      "duration": 3.69
    },
    {
      "text": "right they would get together and they",
      "start": 1203.12,
      "duration": 3.27
    },
    {
      "text": "had committees where they would pool",
      "start": 1204.83,
      "duration": 2.76
    },
    {
      "text": "their money these script money to buy",
      "start": 1206.39,
      "duration": 4.5
    },
    {
      "text": "textbooks and and and copy them and try",
      "start": 1207.59,
      "duration": 5.52
    },
    {
      "text": "and save money that way and it was truly",
      "start": 1210.89,
      "duration": 4.17
    },
    {
      "text": "an amazing system it is a complete free",
      "start": 1213.11,
      "duration": 4.62
    },
    {
      "text": "market free enterprise system within a",
      "start": 1215.06,
      "duration": 4.65
    },
    {
      "text": "school that itself is within a largely",
      "start": 1217.73,
      "duration": 4.17
    },
    {
      "text": "free enterprise system this was just",
      "start": 1219.71,
      "duration": 3.9
    },
    {
      "text": "astounding there were problems with the",
      "start": 1221.9,
      "duration": 2.7
    },
    {
      "text": "school I'm not going to say that's",
      "start": 1223.61,
      "duration": 2.1
    },
    {
      "text": "perfect I mean it's still a pretty",
      "start": 1224.6,
      "duration": 2.94
    },
    {
      "text": "irrational and religious time in many",
      "start": 1225.71,
      "duration": 4.11
    },
    {
      "text": "ways so it wasn't perfect but both",
      "start": 1227.54,
      "duration": 4.71
    },
    {
      "text": "Lancaster and Bell were the first",
      "start": 1229.82,
      "duration": 5.64
    },
    {
      "text": "educators that I know of who forbade",
      "start": 1232.25,
      "duration": 5.19
    },
    {
      "text": "corporal punishment within their schools",
      "start": 1235.46,
      "duration": 2.85
    },
    {
      "text": "as that doesn't mean there wasn't",
      "start": 1237.44,
      "duration": 2.34
    },
    {
      "text": "punishment there was dunce caps and",
      "start": 1238.31,
      "duration": 3.87
    },
    {
      "text": "humiliations and so on but still it was",
      "start": 1239.78,
      "duration": 5.1
    },
    {
      "text": "a huge step forward to have no physical",
      "start": 1242.18,
      "duration": 5.19
    },
    {
      "text": "punishment no corporal punishment within",
      "start": 1244.88,
      "duration": 3.84
    },
    {
      "text": "schools I mean there's many states in",
      "start": 1247.37,
      "duration": 2.94
    },
    {
      "text": "the u.s. that still allow it 200 years",
      "start": 1248.72,
      "duration": 4.77
    },
    {
      "text": "later so I just wanted to provide an",
      "start": 1250.31,
      "duration": 5.28
    },
    {
      "text": "example of the kind of innovation that",
      "start": 1253.49,
      "duration": 4.53
    },
    {
      "text": "was occurring with scrip and bidding for",
      "start": 1255.59,
      "duration": 4.74
    },
    {
      "text": "services and elder people teaching",
      "start": 1258.02,
      "duration": 5.61
    },
    {
      "text": "younger kids who who they had to compete",
      "start": 1260.33,
      "duration": 5.13
    },
    {
      "text": "to to teach who had to make the lessons",
      "start": 1263.63,
      "duration": 5.13
    },
    {
      "text": "enjoyable and engaging and so on but let",
      "start": 1265.46,
      "duration": 4.53
    },
    {
      "text": "me tell you what really blew my mind",
      "start": 1268.76,
      "duration": 2.61
    },
    {
      "text": "when I read about this and I hope it",
      "start": 1269.99,
      "duration": 4.64
    },
    {
      "text": "would be equally mind-expanding to you",
      "start": 1271.37,
      "duration": 6.03
    },
    {
      "text": "how much do you think a year of Grammar",
      "start": 1274.63,
      "duration": 4.6
    },
    {
      "text": "School Education in the Lancaster School",
      "start": 1277.4,
      "duration": 2.76
    },
    {
      "text": "in the script-based",
      "start": 1279.23,
      "duration": 4.74
    },
    {
      "text": "school cost how much you think it cost",
      "start": 1280.16,
      "duration": 6
    },
    {
      "text": "you'd be surprised let's let's look at a",
      "start": 1283.97,
      "duration": 5.69
    },
    {
      "text": "comparison right in Washington DC",
      "start": 1286.16,
      "duration": 6.12
    },
    {
      "text": "relatively recently the public school",
      "start": 1289.66,
      "duration": 4.93
    },
    {
      "text": "district spends about $13,000 per",
      "start": 1292.28,
      "duration": 6.27
    },
    {
      "text": "student $13,000 per student and 62% of",
      "start": 1294.59,
      "duration": 5.73
    },
    {
      "text": "poor fourth graders in the Washington",
      "start": 1298.55,
      "duration": 4.74
    },
    {
      "text": "area lack basic skills in math right so",
      "start": 1300.32,
      "duration": 4.68
    },
    {
      "text": "we have a basic math literacy rate of",
      "start": 1303.29,
      "duration": 4.68
    },
    {
      "text": "40% versus a much higher literacy rate",
      "start": 1305,
      "duration": 4.98
    },
    {
      "text": "though in reading when the schools were",
      "start": 1307.97,
      "duration": 4.44
    },
    {
      "text": "entirely private",
      "start": 1309.98,
      "duration": 5.65
    },
    {
      "text": "this is how much it costs for a child to",
      "start": 1312.41,
      "duration": 5.83
    },
    {
      "text": "go to the Lancaster School in the 19th",
      "start": 1315.63,
      "duration": 7.06
    },
    {
      "text": "century it cost $40",
      "start": 1318.24,
      "duration": 8.24
    },
    {
      "text": "forty dollars oh that's not even the",
      "start": 1322.69,
      "duration": 6.07
    },
    {
      "text": "best part the best part is it costs",
      "start": 1326.48,
      "duration": 4.86
    },
    {
      "text": "forty dollars in nineteen ninety nine",
      "start": 1328.76,
      "duration": 5.28
    },
    {
      "text": "dollars not forty dollars at the time",
      "start": 1331.34,
      "duration": 3.719
    },
    {
      "text": "which would have been a huge amount of",
      "start": 1334.04,
      "duration": 4.05
    },
    {
      "text": "money it costs forty dollars to send a",
      "start": 1335.059,
      "duration": 6.061
    },
    {
      "text": "kid to these schools where they learned",
      "start": 1338.09,
      "duration": 5.79
    },
    {
      "text": "how to negotiate how to bid how to buy",
      "start": 1341.12,
      "duration": 5.04
    },
    {
      "text": "how to sell how to market how to succeed",
      "start": 1343.88,
      "duration": 4.77
    },
    {
      "text": "in business there's a reason why England",
      "start": 1346.16,
      "duration": 4.17
    },
    {
      "text": "was so entrepreneurial in the nineteenth",
      "start": 1348.65,
      "duration": 2.48
    },
    {
      "text": "century",
      "start": 1350.33,
      "duration": 3.36
    },
    {
      "text": "it costs forty dollars in nineteen",
      "start": 1351.13,
      "duration": 5.47
    },
    {
      "text": "ninety nine dollars to send your kid to",
      "start": 1353.69,
      "duration": 4.71
    },
    {
      "text": "this kind of school where they received",
      "start": 1356.6,
      "duration": 3.66
    },
    {
      "text": "a much more functional education than",
      "start": 1358.4,
      "duration": 3.69
    },
    {
      "text": "can be bought with tens of thousands of",
      "start": 1360.26,
      "duration": 3.66
    },
    {
      "text": "dollars of government money now forty",
      "start": 1362.09,
      "duration": 3.96
    },
    {
      "text": "dollars this is why when schools the",
      "start": 1363.92,
      "duration": 4.11
    },
    {
      "text": "private you will absolutely be able to",
      "start": 1366.05,
      "duration": 4.62
    },
    {
      "text": "send every poor kid in the planet to",
      "start": 1368.03,
      "duration": 6.66
    },
    {
      "text": "school forty dollars a year unbelievable",
      "start": 1370.67,
      "duration": 8.069
    },
    {
      "text": "so what happened well this is from again",
      "start": 1374.69,
      "duration": 6.059
    },
    {
      "text": "an article outpost below established",
      "start": 1378.739,
      "duration": 4.02
    },
    {
      "text": "educational elites found Lancaster",
      "start": 1380.749,
      "duration": 3.24
    },
    {
      "text": "schools so threatening that most",
      "start": 1382.759,
      "duration": 2.67
    },
    {
      "text": "english-speaking countries developed",
      "start": 1383.989,
      "duration": 3.32
    },
    {
      "text": "mandatory publicly paid education",
      "start": 1385.429,
      "duration": 4.98
    },
    {
      "text": "explicitly to keep public education in",
      "start": 1387.309,
      "duration": 6.641
    },
    {
      "text": "quote responsible hands these elites",
      "start": 1390.409,
      "duration": 4.95
    },
    {
      "text": "said that Lancaster schools might become",
      "start": 1393.95,
      "duration": 3.99
    },
    {
      "text": "dishonest provide poor education and",
      "start": 1395.359,
      "duration": 4.731
    },
    {
      "text": "were not accountable to established",
      "start": 1397.94,
      "duration": 5.13
    },
    {
      "text": "authorities in the 18th century in",
      "start": 1400.09,
      "duration": 4.539
    },
    {
      "text": "England nonconformists and from a",
      "start": 1403.07,
      "duration": 2.969
    },
    {
      "text": "religious standpoint were excluded from",
      "start": 1404.629,
      "duration": 2.88
    },
    {
      "text": "most schools and so they formed what",
      "start": 1406.039,
      "duration": 3.21
    },
    {
      "text": "became known as dissenting academies",
      "start": 1407.509,
      "duration": 4.17
    },
    {
      "text": "such as thoses at Daventry in Warrington",
      "start": 1409.249,
      "duration": 4.5
    },
    {
      "text": "the education received that these",
      "start": 1411.679,
      "duration": 3.84
    },
    {
      "text": "schools was more closely linked through",
      "start": 1413.749,
      "duration": 3.06
    },
    {
      "text": "the world of business and included",
      "start": 1415.519,
      "duration": 3.84
    },
    {
      "text": "subjects such as science and accountancy",
      "start": 1416.809,
      "duration": 4.95
    },
    {
      "text": "and I just wanted to mention it in the",
      "start": 1419.359,
      "duration": 4.29
    },
    {
      "text": "early 16th century many boys still went",
      "start": 1421.759,
      "duration": 3.39
    },
    {
      "text": "to Chantry school so religious schools",
      "start": 1423.649,
      "duration": 3.691
    },
    {
      "text": "after the richest changes of the 1540s",
      "start": 1425.149,
      "duration": 3.78
    },
    {
      "text": "in England to Chantry schools were",
      "start": 1427.34,
      "duration": 3.99
    },
    {
      "text": "closed ended the big-picture view of",
      "start": 1428.929,
      "duration": 4.11
    },
    {
      "text": "this of course is that with the",
      "start": 1431.33,
      "duration": 3.39
    },
    {
      "text": "religious wars occurring or the",
      "start": 1433.039,
      "duration": 3.51
    },
    {
      "text": "religious conflicts occurring all the",
      "start": 1434.72,
      "duration": 2.879
    },
    {
      "text": "religions were trying to get hold of",
      "start": 1436.549,
      "duration": 2.46
    },
    {
      "text": "schools and that's an one of the reasons",
      "start": 1437.599,
      "duration": 3.3
    },
    {
      "text": "why they just stopped having church",
      "start": 1439.009,
      "duration": 3.691
    },
    {
      "text": "schools religious schools because it was",
      "start": 1440.899,
      "duration": 3.12
    },
    {
      "text": "just easier to put handed over to the",
      "start": 1442.7,
      "duration": 3.74
    },
    {
      "text": "private sector",
      "start": 1444.019,
      "duration": 2.421
    },
    {
      "text": "so",
      "start": 1447.24,
      "duration": 6.179
    },
    {
      "text": "we had this amazing century with all of",
      "start": 1449.7,
      "duration": 5.37
    },
    {
      "text": "its problems and all of its challenges",
      "start": 1453.419,
      "duration": 3.54
    },
    {
      "text": "we had this amazing century of private",
      "start": 1455.07,
      "duration": 3.599
    },
    {
      "text": "education where children received an",
      "start": 1456.959,
      "duration": 3.12
    },
    {
      "text": "education that gave them incredible",
      "start": 1458.669,
      "duration": 3.63
    },
    {
      "text": "social mobility for a few thousand",
      "start": 1460.079,
      "duration": 5.991
    },
    {
      "text": "dollars a year in modern currency",
      "start": 1462.299,
      "duration": 5.641
    },
    {
      "text": "unprecedent have you ever heard about it",
      "start": 1466.07,
      "duration": 3.13
    },
    {
      "text": "not of course you haven't heard about it",
      "start": 1467.94,
      "duration": 2.76
    },
    {
      "text": "because government education was",
      "start": 1469.2,
      "duration": 3.269
    },
    {
      "text": "supposedly instituted to solve the",
      "start": 1470.7,
      "duration": 3.839
    },
    {
      "text": "problem of a lack of education and all",
      "start": 1472.469,
      "duration": 5.12
    },
    {
      "text": "it is done has is has ensured that",
      "start": 1474.539,
      "duration": 5.97
    },
    {
      "text": "education is is dead that if in the",
      "start": 1477.589,
      "duration": 4.481
    },
    {
      "text": "modern world particularly for the poor",
      "start": 1480.509,
      "duration": 5.34
    },
    {
      "text": "people say well but Shakespeare he went",
      "start": 1482.07,
      "duration": 4.949
    },
    {
      "text": "to a government school but Shakespeare",
      "start": 1485.849,
      "duration": 2.4
    },
    {
      "text": "went to a government school for 12 weeks",
      "start": 1487.019,
      "duration": 4.41
    },
    {
      "text": "a year so I think it's really really",
      "start": 1488.249,
      "duration": 5.91
    },
    {
      "text": "important to to get this terrible arc of",
      "start": 1491.429,
      "duration": 5.37
    },
    {
      "text": "history where the poor and more",
      "start": 1494.159,
      "duration": 4.4
    },
    {
      "text": "importantly their parents their parents",
      "start": 1496.799,
      "duration": 5.22
    },
    {
      "text": "chose the schools their parents selected",
      "start": 1498.559,
      "duration": 6.27
    },
    {
      "text": "the school's the parents educated and",
      "start": 1502.019,
      "duration": 5.13
    },
    {
      "text": "invested in the education of the young",
      "start": 1504.829,
      "duration": 4.84
    },
    {
      "text": "very high literacy rates the American",
      "start": 1507.149,
      "duration": 4.051
    },
    {
      "text": "Revolution was founded on Thomas Paine's",
      "start": 1509.669,
      "duration": 4.44
    },
    {
      "text": "works and they sold one and a half",
      "start": 1511.2,
      "duration": 5.219
    },
    {
      "text": "million copies in a relatively tiny",
      "start": 1514.109,
      "duration": 4.02
    },
    {
      "text": "population in the early nineteenth",
      "start": 1516.419,
      "duration": 4.08
    },
    {
      "text": "century in America a standard book of",
      "start": 1518.129,
      "duration": 4.561
    },
    {
      "text": "grammar sold over five million copies in",
      "start": 1520.499,
      "duration": 4.05
    },
    {
      "text": "five years because that's how literate",
      "start": 1522.69,
      "duration": 3.599
    },
    {
      "text": "the population was Alex de Tocqueville",
      "start": 1524.549,
      "duration": 3.271
    },
    {
      "text": "in democracy in America continually",
      "start": 1526.289,
      "duration": 3.81
    },
    {
      "text": "talks about how Americans love to read",
      "start": 1527.82,
      "duration": 3.419
    },
    {
      "text": "there were thousands of newspapers",
      "start": 1530.099,
      "duration": 3.15
    },
    {
      "text": "hundreds of magazines and subscriptions",
      "start": 1531.239,
      "duration": 4.56
    },
    {
      "text": "Dickens was enormous ly popular when he",
      "start": 1533.249,
      "duration": 4.38
    },
    {
      "text": "came over to visit in America and gave",
      "start": 1535.799,
      "duration": 3.66
    },
    {
      "text": "his incredibly animated readings",
      "start": 1537.629,
      "duration": 4.68
    },
    {
      "text": "the population was incredibly literate",
      "start": 1539.459,
      "duration": 6.54
    },
    {
      "text": "and very very well educated when it was",
      "start": 1542.309,
      "duration": 7.29
    },
    {
      "text": "a free society or more free or free at",
      "start": 1545.999,
      "duration": 6.9
    },
    {
      "text": "least in the realm of Education so again",
      "start": 1549.599,
      "duration": 4.62
    },
    {
      "text": "I'm trying to keep these relatively",
      "start": 1552.899,
      "duration": 3.45
    },
    {
      "text": "short the thesis that I'm putting",
      "start": 1554.219,
      "duration": 4.92
    },
    {
      "text": "forward is that government schools were",
      "start": 1556.349,
      "duration": 5.07
    },
    {
      "text": "instituted because there was a threat of",
      "start": 1559.139,
      "duration": 4.32
    },
    {
      "text": "the disintegration of a statist",
      "start": 1561.419,
      "duration": 4.47
    },
    {
      "text": "hierarchical Society because with the",
      "start": 1563.459,
      "duration": 4.17
    },
    {
      "text": "massive immigrants immigrations that",
      "start": 1565.889,
      "duration": 4.71
    },
    {
      "text": "came in from Germany and from Ireland",
      "start": 1567.629,
      "duration": 4.41
    },
    {
      "text": "the Catholic immigrations that came in",
      "start": 1570.599,
      "duration": 4.62
    },
    {
      "text": "the the government was worried and",
      "start": 1572.039,
      "duration": 4.92
    },
    {
      "text": "people who racists and bigots and",
      "start": 1575.219,
      "duration": 3.33
    },
    {
      "text": "narrow-minded tribalists were worried",
      "start": 1576.959,
      "duration": 4.26
    },
    {
      "text": "that there was no common identity",
      "start": 1578.549,
      "duration": 4.471
    },
    {
      "text": "anymore god spare and help us from",
      "start": 1581.219,
      "duration": 4.321
    },
    {
      "text": "common identities and so there was a",
      "start": 1583.02,
      "duration": 5.07
    },
    {
      "text": "fear that society was becoming too",
      "start": 1585.54,
      "duration": 4.08
    },
    {
      "text": "individualistic that the poor were",
      "start": 1588.09,
      "duration": 2.91
    },
    {
      "text": "getting too uppity that there was too",
      "start": 1589.62,
      "duration": 2.64
    },
    {
      "text": "much education there was too much",
      "start": 1591,
      "duration": 3.24
    },
    {
      "text": "competition people didn't like it the",
      "start": 1592.26,
      "duration": 4.65
    },
    {
      "text": "Conservatives their asses clenched up",
      "start": 1594.24,
      "duration": 4.62
    },
    {
      "text": "tighter than a diamond bore and they",
      "start": 1596.91,
      "duration": 4.5
    },
    {
      "text": "said well we can't have this anymore the",
      "start": 1598.86,
      "duration": 3.78
    },
    {
      "text": "teachers wanted to go to a public school",
      "start": 1601.41,
      "duration": 2.91
    },
    {
      "text": "system for job security and of course",
      "start": 1602.64,
      "duration": 3.09
    },
    {
      "text": "the bad teachers wanted to go because",
      "start": 1604.32,
      "duration": 4.23
    },
    {
      "text": "they couldn't get fired very quickly all",
      "start": 1605.73,
      "duration": 6.66
    },
    {
      "text": "of this conspired to take parents out of",
      "start": 1608.55,
      "duration": 6.39
    },
    {
      "text": "the equation I mean I understand it's",
      "start": 1612.39,
      "duration": 3.99
    },
    {
      "text": "the state that raises children these",
      "start": 1614.94,
      "duration": 2.88
    },
    {
      "text": "days in the West it's the state that",
      "start": 1616.38,
      "duration": 3.36
    },
    {
      "text": "raises children not parents parents can",
      "start": 1617.82,
      "duration": 3.27
    },
    {
      "text": "both go to work for the most part see",
      "start": 1619.74,
      "duration": 2.28
    },
    {
      "text": "their kids for an hour or two a day",
      "start": 1621.09,
      "duration": 3.21
    },
    {
      "text": "which is they don't interacting in a fun",
      "start": 1622.02,
      "duration": 3.78
    },
    {
      "text": "way they're just feeding and bathing and",
      "start": 1624.3,
      "duration": 4.62
    },
    {
      "text": "putting them to bed right the it was to",
      "start": 1625.8,
      "duration": 6.72
    },
    {
      "text": "take over of children by the state which",
      "start": 1628.92,
      "duration": 9.92
    },
    {
      "text": "laid the foundation for the war lust of",
      "start": 1632.52,
      "duration": 8.79
    },
    {
      "text": "World War one because you have to hide",
      "start": 1638.84,
      "duration": 3.97
    },
    {
      "text": "the violence of the state when the",
      "start": 1641.31,
      "duration": 2.73
    },
    {
      "text": "violence of the state is being used to",
      "start": 1642.81,
      "duration": 3.03
    },
    {
      "text": "educate the young because you kind of",
      "start": 1644.04,
      "duration": 3.18
    },
    {
      "text": "say to the young oh yeah you should",
      "start": 1645.84,
      "duration": 3.45
    },
    {
      "text": "absolutely hit someone to get what you",
      "start": 1647.22,
      "duration": 3.45
    },
    {
      "text": "want because that's how my salary is",
      "start": 1649.29,
      "duration": 2.91
    },
    {
      "text": "paid as a teacher you have to hide all",
      "start": 1650.67,
      "duration": 4.26
    },
    {
      "text": "of that and to overcompensate the hiding",
      "start": 1652.2,
      "duration": 4.2
    },
    {
      "text": "of that you have to praise to the sky's",
      "start": 1654.93,
      "duration": 4.53
    },
    {
      "text": "the glories of the state within a",
      "start": 1656.4,
      "duration": 6.06
    },
    {
      "text": "generation or two of government",
      "start": 1659.46,
      "duration": 5.7
    },
    {
      "text": "education coming down on the West you",
      "start": 1662.46,
      "duration": 4.14
    },
    {
      "text": "have the Progressive Socialist Movement",
      "start": 1665.16,
      "duration": 5.4
    },
    {
      "text": "the the Fabian socialism at the George",
      "start": 1666.6,
      "duration": 5.84
    },
    {
      "text": "Bernard Shaw was prominent member or",
      "start": 1670.56,
      "duration": 5.52
    },
    {
      "text": "working to expand the power of the state",
      "start": 1672.44,
      "duration": 5.74
    },
    {
      "text": "in Germany you get under Bismarck the",
      "start": 1676.08,
      "duration": 4.65
    },
    {
      "text": "first welfare state and old-age pensions",
      "start": 1678.18,
      "duration": 5.43
    },
    {
      "text": "this is the state once you break that",
      "start": 1680.73,
      "duration": 4.86
    },
    {
      "text": "barrier where the state can now educate",
      "start": 1683.61,
      "duration": 4.8
    },
    {
      "text": "the children the state can do everything",
      "start": 1685.59,
      "duration": 4.74
    },
    {
      "text": "in anything because people raised by the",
      "start": 1688.41,
      "duration": 3.48
    },
    {
      "text": "state have a much tougher time",
      "start": 1690.33,
      "duration": 3.35
    },
    {
      "text": "questioning and opposing the state",
      "start": 1691.89,
      "duration": 4.89
    },
    {
      "text": "because we bond with whoever raises us",
      "start": 1693.68,
      "duration": 5.44
    },
    {
      "text": "we are imprint like ducks on an orange",
      "start": 1696.78,
      "duration": 5.16
    },
    {
      "text": "balloon and trail at around the last",
      "start": 1699.12,
      "duration": 4.86
    },
    {
      "text": "thing that I ever mentioned as well is",
      "start": 1701.94,
      "duration": 6.9
    },
    {
      "text": "that the mechanization that was so slow",
      "start": 1703.98,
      "duration": 8.19
    },
    {
      "text": "for house II in World War one the the",
      "start": 1708.84,
      "duration": 5.329
    },
    {
      "text": "the aircraft the",
      "start": 1712.17,
      "duration": 5.719
    },
    {
      "text": "the tanks the shells the explosives of",
      "start": 1714.169,
      "duration": 6.6
    },
    {
      "text": "course the the barbed wire and all of",
      "start": 1717.889,
      "duration": 5.91
    },
    {
      "text": "the these the machine guns this all came",
      "start": 1720.769,
      "duration": 5.76
    },
    {
      "text": "out of engineering developed by the",
      "start": 1723.799,
      "duration": 3.421
    },
    {
      "text": "private sector",
      "start": 1726.529,
      "duration": 2.791
    },
    {
      "text": "explosives came out of mining it to blow",
      "start": 1727.22,
      "duration": 3.24
    },
    {
      "text": "the holes in the ground because it was",
      "start": 1729.32,
      "duration": 3.299
    },
    {
      "text": "easier than digging and chipping away so",
      "start": 1730.46,
      "duration": 5.339
    },
    {
      "text": "all of the mechanized murder of the",
      "start": 1732.619,
      "duration": 6.75
    },
    {
      "text": "First World War came out of the relative",
      "start": 1735.799,
      "duration": 5.13
    },
    {
      "text": "economic freedoms of the 19th century",
      "start": 1739.369,
      "duration": 2.851
    },
    {
      "text": "and the incredible advances in",
      "start": 1740.929,
      "duration": 3.421
    },
    {
      "text": "engineering that occurred and in",
      "start": 1742.22,
      "duration": 3.329
    },
    {
      "text": "technology that occurred throughout the",
      "start": 1744.35,
      "duration": 3.179
    },
    {
      "text": "19th century this is why it is so",
      "start": 1745.549,
      "duration": 4.651
    },
    {
      "text": "absolutely suicidal to have a government",
      "start": 1747.529,
      "duration": 3.6
    },
    {
      "text": "might after you have to have a",
      "start": 1750.2,
      "duration": 2.4
    },
    {
      "text": "government and a free market because the",
      "start": 1751.129,
      "duration": 3.75
    },
    {
      "text": "free market produces all of the wealth",
      "start": 1752.6,
      "duration": 4.139
    },
    {
      "text": "the free market produces all of the",
      "start": 1754.879,
      "duration": 4.17
    },
    {
      "text": "technology and the weaponry which sorry",
      "start": 1756.739,
      "duration": 3.75
    },
    {
      "text": "the technology which can be adapted to",
      "start": 1759.049,
      "duration": 3.391
    },
    {
      "text": "weaponry by the government which is why",
      "start": 1760.489,
      "duration": 4.081
    },
    {
      "text": "whenever you have a free market you",
      "start": 1762.44,
      "duration": 3.209
    },
    {
      "text": "always end up with a much larger",
      "start": 1764.57,
      "duration": 2.91
    },
    {
      "text": "government and a much better armed",
      "start": 1765.649,
      "duration": 3.66
    },
    {
      "text": "government at the end of it which is why",
      "start": 1767.48,
      "duration": 3.87
    },
    {
      "text": "you can't have freedom at a government",
      "start": 1769.309,
      "duration": 3.99
    },
    {
      "text": "if freedom where the government is a",
      "start": 1771.35,
      "duration": 4.11
    },
    {
      "text": "short flash-in-the-pan followed by a",
      "start": 1773.299,
      "duration": 5.161
    },
    {
      "text": "death grip tyranny so I hope that this",
      "start": 1775.46,
      "duration": 5.01
    },
    {
      "text": "makes some sense we will talk about",
      "start": 1778.46,
      "duration": 4.74
    },
    {
      "text": "empire and we will talk about the",
      "start": 1780.47,
      "duration": 4.85
    },
    {
      "text": "immediate origins of the first world war",
      "start": 1783.2,
      "duration": 5.849
    },
    {
      "text": "in the next show a thank you so much for",
      "start": 1785.32,
      "duration": 4.66
    },
    {
      "text": "watching I really do appreciate",
      "start": 1789.049,
      "duration": 3.72
    },
    {
      "text": "everybody's kind comments and I look",
      "start": 1789.98,
      "duration": 4.71
    },
    {
      "text": "forward to bringing this very exciting",
      "start": 1792.769,
      "duration": 5.931
    },
    {
      "text": "story to you in the next go-around",
      "start": 1794.69,
      "duration": 4.01
    }
  ],
  "Errors": null,
  "TranscriptStderr": null
}