{
  "Title": "The Death of Western Culture in 60 Seconds",
  "Id": "7aEMxQloXP0",
  "Transcript": [
    {
      "text": "so the fact that the West seems to have",
      "start": 0.03,
      "duration": 4.11
    },
    {
      "text": "no particular values left anymore",
      "start": 2.669,
      "duration": 3.09
    },
    {
      "text": "nothing to defend no respect for its",
      "start": 4.14,
      "duration": 4.08
    },
    {
      "text": "history or culture or achievements is",
      "start": 5.759,
      "duration": 5.331
    },
    {
      "text": "because you have government schools plus",
      "start": 8.22,
      "duration": 5.73
    },
    {
      "text": "multiculturalism and what that means is",
      "start": 11.09,
      "duration": 5.56
    },
    {
      "text": "that you try and jam together a bunch of",
      "start": 13.95,
      "duration": 4.14
    },
    {
      "text": "opposing cultures in a government school",
      "start": 16.65,
      "duration": 4.41
    },
    {
      "text": "whatever values you teach will be",
      "start": 18.09,
      "duration": 5.88
    },
    {
      "text": "offensive to some and they will beget",
      "start": 21.06,
      "duration": 4.53
    },
    {
      "text": "very upset write letters make your life",
      "start": 23.97,
      "duration": 3.69
    },
    {
      "text": "difficult maybe even sue so what happens",
      "start": 25.59,
      "duration": 3.99
    },
    {
      "text": "is you have to avoid offence by",
      "start": 27.66,
      "duration": 4.23
    },
    {
      "text": "progressively stripping all values out",
      "start": 29.58,
      "duration": 3.93
    },
    {
      "text": "of the curriculum and teaching people",
      "start": 31.89,
      "duration": 4.59
    },
    {
      "text": "useless factoids that add up to nothing",
      "start": 33.51,
      "duration": 5.76
    },
    {
      "text": "other than a hill of sand where their",
      "start": 36.48,
      "duration": 4.98
    },
    {
      "text": "brain should be so if you're going to",
      "start": 39.27,
      "duration": 4.44
    },
    {
      "text": "have government education you have to",
      "start": 41.46,
      "duration": 4.41
    },
    {
      "text": "have a monoculture otherwise there's",
      "start": 43.71,
      "duration": 3.84
    },
    {
      "text": "going to be no possibility of being able",
      "start": 45.87,
      "duration": 4.11
    },
    {
      "text": "to transmit any values and what that",
      "start": 47.55,
      "duration": 4.68
    },
    {
      "text": "means is that those children who get the",
      "start": 49.98,
      "duration": 4.68
    },
    {
      "text": "strongest values at home and those are",
      "start": 52.23,
      "duration": 4.169
    },
    {
      "text": "not the West's and children will",
      "start": 54.66,
      "duration": 4.219
    },
    {
      "text": "dominate",
      "start": 56.399,
      "duration": 2.48
    }
  ],
  "Errors": null,
  "TranscriptStderr": null
}