{
  "Title": "Immigration Flipping Texas!?!",
  "Id": "7J9FAyrhi1U",
  "Transcript": [
    {
      "text": "but let's talk to Joshua who is running",
      "start": 0.03,
      "duration": 8.7
    },
    {
      "text": "for Congress in the district court in in",
      "start": 5.549,
      "duration": 4.8
    },
    {
      "text": "Texas I don't know if the Conscription",
      "start": 8.73,
      "duration": 4.17
    },
    {
      "text": "got that right or not Joshua are you are",
      "start": 10.349,
      "duration": 5.46
    },
    {
      "text": "you with me brother yes I'm with you",
      "start": 12.9,
      "duration": 6.09
    },
    {
      "text": "district 14 district 14 in Texas all",
      "start": 15.809,
      "duration": 6.06
    },
    {
      "text": "right so tell me a little bit about well",
      "start": 18.99,
      "duration": 6.119
    },
    {
      "text": "I guess why you've run how the process",
      "start": 21.869,
      "duration": 6.721
    },
    {
      "text": "went and how it's going well so I'm",
      "start": 25.109,
      "duration": 5.01
    },
    {
      "text": "running in the Republican primary",
      "start": 28.59,
      "duration": 3.089
    },
    {
      "text": "against an establishment called",
      "start": 30.119,
      "duration": 4.111
    },
    {
      "text": "establishment Republican who's been in",
      "start": 31.679,
      "duration": 6.121
    },
    {
      "text": "office since 2012 my main concern is",
      "start": 34.23,
      "duration": 5.97
    },
    {
      "text": "immigration I've been working with the",
      "start": 37.8,
      "duration": 4.23
    },
    {
      "text": "party for the past few years to try to",
      "start": 40.2,
      "duration": 4.74
    },
    {
      "text": "get something done and basically they",
      "start": 42.03,
      "duration": 4.56
    },
    {
      "text": "concern to me that nothing's ever going",
      "start": 44.94,
      "duration": 4.86
    },
    {
      "text": "to get done and this summer they passed",
      "start": 46.59,
      "duration": 5.94
    },
    {
      "text": "through the house HR 1044 which is",
      "start": 49.8,
      "duration": 6.06
    },
    {
      "text": "legislation to basically shift our h-1b",
      "start": 52.53,
      "duration": 6.84
    },
    {
      "text": "program I just totally over to India and",
      "start": 55.86,
      "duration": 6.179
    },
    {
      "text": "then expanded on from there and when my",
      "start": 59.37,
      "duration": 5.1
    },
    {
      "text": "congressman voted for that and couldn't",
      "start": 62.039,
      "duration": 4.681
    },
    {
      "text": "give me an explanation as to why I kind",
      "start": 64.47,
      "duration": 3.81
    },
    {
      "text": "of made the decision that's the only",
      "start": 66.72,
      "duration": 3.39
    },
    {
      "text": "option left for me was to run myself",
      "start": 68.28,
      "duration": 4.17
    },
    {
      "text": "okay and sorry just for those who aren't",
      "start": 70.11,
      "duration": 4.41
    },
    {
      "text": "aware of the you know michelle malkin",
      "start": 72.45,
      "duration": 4.89
    },
    {
      "text": "inspired acronym so h-1b and let's just",
      "start": 74.52,
      "duration": 4.05
    },
    {
      "text": "help people to understand what it is",
      "start": 77.34,
      "duration": 4.86
    },
    {
      "text": "that you're talking about so the h-1b is",
      "start": 78.57,
      "duration": 6.27
    },
    {
      "text": "one of a number of guest worker visas as",
      "start": 82.2,
      "duration": 4.47
    },
    {
      "text": "you could call them that are supposed to",
      "start": 84.84,
      "duration": 3.51
    },
    {
      "text": "apply to people who have a certain",
      "start": 86.67,
      "duration": 5.1
    },
    {
      "text": "ability for tech or a certain niche that",
      "start": 88.35,
      "duration": 6.229
    },
    {
      "text": "isn't able to be filled here in the US",
      "start": 91.77,
      "duration": 5.19
    },
    {
      "text": "that isn't what actually ends up",
      "start": 94.579,
      "duration": 3.58
    },
    {
      "text": "happening when it ends up happening is",
      "start": 96.96,
      "duration": 3.119
    },
    {
      "text": "just massive amounts of people get",
      "start": 98.159,
      "duration": 4.14
    },
    {
      "text": "brought over to to do jobs that people",
      "start": 100.079,
      "duration": 4.83
    },
    {
      "text": "in America really want to do so when you",
      "start": 102.299,
      "duration": 5.161
    },
    {
      "text": "hear about like I think Disney was the",
      "start": 104.909,
      "duration": 5.67
    },
    {
      "text": "most recent case r80 where they were",
      "start": 107.46,
      "duration": 5.67
    },
    {
      "text": "bringing over h-1b visa people from",
      "start": 110.579,
      "duration": 4.591
    },
    {
      "text": "India and then had their workers here to",
      "start": 113.13,
      "duration": 5.699
    },
    {
      "text": "train them to replace themselves those",
      "start": 115.17,
      "duration": 4.97
    },
    {
      "text": "sorts of programs I'm talking about",
      "start": 118.829,
      "duration": 3.75
    },
    {
      "text": "there yeah so of course I'm sorry to",
      "start": 120.14,
      "duration": 4.15
    },
    {
      "text": "interrupt but when so they say well we",
      "start": 122.579,
      "duration": 3.54
    },
    {
      "text": "you know we have to bring people in to",
      "start": 124.29,
      "duration": 3.57
    },
    {
      "text": "do the jobs that Americans just won't do",
      "start": 126.119,
      "duration": 3.241
    },
    {
      "text": "well if Americans are currently actually",
      "start": 127.86,
      "duration": 3.959
    },
    {
      "text": "doing those jobs that's pretty pretty",
      "start": 129.36,
      "duration": 4.599
    },
    {
      "text": "tough case to make",
      "start": 131.819,
      "duration": 6.34
    },
    {
      "text": "yes it is it gets in a lot of gray areas",
      "start": 133.959,
      "duration": 6.151
    },
    {
      "text": "about like you know they're supposed to",
      "start": 138.159,
      "duration": 3.42
    },
    {
      "text": "do their due diligence to ensure that",
      "start": 140.11,
      "duration": 4.079
    },
    {
      "text": "these options are that they've tried to",
      "start": 141.579,
      "duration": 4.321
    },
    {
      "text": "hire Americans free spots and those",
      "start": 144.189,
      "duration": 4.05
    },
    {
      "text": "sorts of things but it becomes difficult",
      "start": 145.9,
      "duration": 4.919
    },
    {
      "text": "to impossible to to basically prosecute",
      "start": 148.239,
      "duration": 4.14
    },
    {
      "text": "companies for doing this and you have to",
      "start": 150.819,
      "duration": 3
    },
    {
      "text": "have an administration that's willing to",
      "start": 152.379,
      "duration": 3.991
    },
    {
      "text": "do it you have to have all the pieces",
      "start": 153.819,
      "duration": 4.26
    },
    {
      "text": "lined up so you get this stopped and the",
      "start": 156.37,
      "duration": 3.449
    },
    {
      "text": "bottom line is this is been going on for",
      "start": 158.079,
      "duration": 4.38
    },
    {
      "text": "decades and it's only getting worse",
      "start": 159.819,
      "duration": 7.771
    },
    {
      "text": "so when it s 386 is the Senate version",
      "start": 162.459,
      "duration": 8.191
    },
    {
      "text": "of HR 1044 and we managed to stop at the",
      "start": 167.59,
      "duration": 4.619
    },
    {
      "text": "Senate but if it goes through and if it",
      "start": 170.65,
      "duration": 3.239
    },
    {
      "text": "gets implemented you're going to see a",
      "start": 172.209,
      "duration": 3.661
    },
    {
      "text": "massive expansion of the program which",
      "start": 173.889,
      "duration": 3.66
    },
    {
      "text": "is gonna be quite far worse than it",
      "start": 175.87,
      "duration": 5.489
    },
    {
      "text": "already is well then you have people was",
      "start": 177.549,
      "duration": 5.101
    },
    {
      "text": "it Charlie Cook was saying that he",
      "start": 181.359,
      "duration": 4.561
    },
    {
      "text": "wanted to staple the green card to these",
      "start": 182.65,
      "duration": 4.8
    },
    {
      "text": "did I get that I don't want to misquote",
      "start": 185.92,
      "duration": 2.789
    },
    {
      "text": "someone but that's what I sort of",
      "start": 187.45,
      "duration": 2.909
    },
    {
      "text": "remember seeing somewhere on Twitter",
      "start": 188.709,
      "duration": 4.441
    },
    {
      "text": "yeah that this sort of path to becoming",
      "start": 190.359,
      "duration": 4.261
    },
    {
      "text": "a permanent resident to becoming a",
      "start": 193.15,
      "duration": 3.869
    },
    {
      "text": "citizen it's not just like Bunji and",
      "start": 194.62,
      "duration": 4.619
    },
    {
      "text": "guest workers go back home but there's a",
      "start": 197.019,
      "duration": 6.601
    },
    {
      "text": "sort of path to stay right yes we don't",
      "start": 199.239,
      "duration": 5.671
    },
    {
      "text": "really have numbers as to how many of",
      "start": 203.62,
      "duration": 2.31
    },
    {
      "text": "these people end up staying here",
      "start": 204.91,
      "duration": 3.03
    },
    {
      "text": "permanently but it's it's pretty close",
      "start": 205.93,
      "duration": 3.63
    },
    {
      "text": "to a hundred percent because once these",
      "start": 207.94,
      "duration": 2.85
    },
    {
      "text": "people have children they're those",
      "start": 209.56,
      "duration": 3.599
    },
    {
      "text": "children unfortunately are considered US",
      "start": 210.79,
      "duration": 4.89
    },
    {
      "text": "citizens and a lot of cases and then a",
      "start": 213.159,
      "duration": 4.131
    },
    {
      "text": "lot of these people who come over on",
      "start": 215.68,
      "duration": 4.5
    },
    {
      "text": "there's a program called opt which is",
      "start": 217.29,
      "duration": 4.569
    },
    {
      "text": "sort of a derivative of the h-1b program",
      "start": 220.18,
      "duration": 3.69
    },
    {
      "text": "and you're talking about hundreds of",
      "start": 221.859,
      "duration": 4.951
    },
    {
      "text": "thousands of people in our universities",
      "start": 223.87,
      "duration": 5.67
    },
    {
      "text": "in the type of programs that we want our",
      "start": 226.81,
      "duration": 4.41
    },
    {
      "text": "children to be in like I am an aerospace",
      "start": 229.54,
      "duration": 3.659
    },
    {
      "text": "engineer I have a bachelor's and",
      "start": 231.22,
      "duration": 3.449
    },
    {
      "text": "master's in aerospace engineering I want",
      "start": 233.199,
      "duration": 3.87
    },
    {
      "text": "my children if they choose to go to that",
      "start": 234.669,
      "duration": 4.65
    },
    {
      "text": "line of work to be able to do that I",
      "start": 237.069,
      "duration": 3.871
    },
    {
      "text": "don't want them to have to compete with",
      "start": 239.319,
      "duration": 3.991
    },
    {
      "text": "literally hundreds of thousands of",
      "start": 240.94,
      "duration": 5.189
    },
    {
      "text": "people from mostly India and China who",
      "start": 243.31,
      "duration": 4.62
    },
    {
      "text": "are being brought over here and then put",
      "start": 246.129,
      "duration": 3.72
    },
    {
      "text": "into those schools ahead of my children",
      "start": 247.93,
      "duration": 5.25
    },
    {
      "text": "and I live in Texas if you look at Texas",
      "start": 249.849,
      "duration": 5.67
    },
    {
      "text": "alone in our top universities we have",
      "start": 253.18,
      "duration": 5.13
    },
    {
      "text": "close to 20,000 of those students in our",
      "start": 255.519,
      "duration": 7.351
    },
    {
      "text": "schools 20,000 foreigners you say from",
      "start": 258.31,
      "duration": 6.69
    },
    {
      "text": "India and China in American schools",
      "start": 262.87,
      "duration": 4.14
    },
    {
      "text": "being educated with the goal of course",
      "start": 265,
      "duration": 2.76
    },
    {
      "text": "at some point",
      "start": 267.01,
      "duration": 2.85
    },
    {
      "text": "staying in America and taking jobs away",
      "start": 267.76,
      "duration": 4.68
    },
    {
      "text": "from people who are more named everand",
      "start": 269.86,
      "duration": 4.59
    },
    {
      "text": "that's Justin that's just incorrect",
      "start": 272.44,
      "duration": 4.35
    },
    {
      "text": "along well that's just in Texas okay got",
      "start": 274.45,
      "duration": 2.61
    },
    {
      "text": "it",
      "start": 276.79,
      "duration": 4.5
    },
    {
      "text": "yes sir yes the numbers are actually",
      "start": 277.06,
      "duration": 5.55
    },
    {
      "text": "quite staggering he's talking about",
      "start": 281.29,
      "duration": 3.81
    },
    {
      "text": "hundreds of thousands of people in the",
      "start": 282.61,
      "duration": 4.71
    },
    {
      "text": "u.s. at any given moment be it on an f1",
      "start": 285.1,
      "duration": 7.14
    },
    {
      "text": "or on an h-1b type of visa yeah and",
      "start": 287.32,
      "duration": 6.78
    },
    {
      "text": "they're brought in here to fill these",
      "start": 292.24,
      "duration": 5.55
    },
    {
      "text": "STEM program diplomas that we say we",
      "start": 294.1,
      "duration": 5.67
    },
    {
      "text": "want our kids to go into from day one",
      "start": 297.79,
      "duration": 3.81
    },
    {
      "text": "and then we make it harder and harder",
      "start": 299.77,
      "duration": 3.51
    },
    {
      "text": "and harder for our kids to go into those",
      "start": 301.6,
      "duration": 3.72
    },
    {
      "text": "programs and then if they manage to get",
      "start": 303.28,
      "duration": 3.99
    },
    {
      "text": "into them and get through school when it",
      "start": 305.32,
      "duration": 3.18
    },
    {
      "text": "comes time for them to actually go to",
      "start": 307.27,
      "duration": 2.58
    },
    {
      "text": "work didn't they have to compete with",
      "start": 308.5,
      "duration": 3.75
    },
    {
      "text": "those people either the same people that",
      "start": 309.85,
      "duration": 4.05
    },
    {
      "text": "I went to college with or people being",
      "start": 312.25,
      "duration": 4.2
    },
    {
      "text": "brought in from overseas again on just a",
      "start": 313.9,
      "duration": 5.28
    },
    {
      "text": "straight-up h-1b program for those jobs",
      "start": 316.45,
      "duration": 4.65
    },
    {
      "text": "and those people in my personal",
      "start": 319.18,
      "duration": 4.32
    },
    {
      "text": "experience opinion the job that",
      "start": 321.1,
      "duration": 3.87
    },
    {
      "text": "foreigners do when they're brought over",
      "start": 323.5,
      "duration": 4.14
    },
    {
      "text": "here is vastly inferior to what an",
      "start": 324.97,
      "duration": 4.83
    },
    {
      "text": "American educated person will do but",
      "start": 327.64,
      "duration": 3.39
    },
    {
      "text": "they're still brought over here either",
      "start": 329.8,
      "duration": 3.54
    },
    {
      "text": "because you can pay them so little and",
      "start": 331.03,
      "duration": 4.95
    },
    {
      "text": "comparison or just because the people",
      "start": 333.34,
      "duration": 4.23
    },
    {
      "text": "who in those companies want them brought",
      "start": 335.98,
      "duration": 3.51
    },
    {
      "text": "over all over just because they're",
      "start": 337.57,
      "duration": 3.15
    },
    {
      "text": "easier to get rid of if you have to get",
      "start": 339.49,
      "duration": 4.2
    },
    {
      "text": "rid of them well and aren't they tied to",
      "start": 340.72,
      "duration": 5.67
    },
    {
      "text": "the job based upon the visa which means",
      "start": 343.69,
      "duration": 4.32
    },
    {
      "text": "they really don't have much negotiating",
      "start": 346.39,
      "duration": 3.96
    },
    {
      "text": "elbow room like you hire some American",
      "start": 348.01,
      "duration": 5.34
    },
    {
      "text": "person and if they don't like the way",
      "start": 350.35,
      "duration": 4.23
    },
    {
      "text": "you're doing business they could just go",
      "start": 353.35,
      "duration": 2.91
    },
    {
      "text": "work somewhere else but if I understand",
      "start": 354.58,
      "duration": 3.09
    },
    {
      "text": "it rightly they're kind of tied to the",
      "start": 356.26,
      "duration": 3.21
    },
    {
      "text": "job not completely but and it's not like",
      "start": 357.67,
      "duration": 4.26
    },
    {
      "text": "a total medieval serf thing but it's",
      "start": 359.47,
      "duration": 5.13
    },
    {
      "text": "pretty hard relative to an American for",
      "start": 361.93,
      "duration": 4.98
    },
    {
      "text": "them to negotiate or change jobs and",
      "start": 364.6,
      "duration": 4.95
    },
    {
      "text": "that kind of stuff that's exactly right",
      "start": 366.91,
      "duration": 4.77
    },
    {
      "text": "and these programs are just absolutely",
      "start": 369.55,
      "duration": 4.47
    },
    {
      "text": "riddled with fraud whether it's the",
      "start": 371.68,
      "duration": 3.96
    },
    {
      "text": "people who are brought over are not",
      "start": 374.02,
      "duration": 3.42
    },
    {
      "text": "really capable of doing the jobs they",
      "start": 375.64,
      "duration": 3.84
    },
    {
      "text": "claim to be able to do or it's the",
      "start": 377.44,
      "duration": 4.94
    },
    {
      "text": "people bringing them over or basically I",
      "start": 379.48,
      "duration": 5.04
    },
    {
      "text": "wouldn't say holding them hostage but",
      "start": 382.38,
      "duration": 3.73
    },
    {
      "text": "they're basically forcing them to pay",
      "start": 384.52,
      "duration": 4.17
    },
    {
      "text": "them in order to to retain that h-1b",
      "start": 386.11,
      "duration": 4.14
    },
    {
      "text": "status so that they can stay within this",
      "start": 388.69,
      "duration": 4.05
    },
    {
      "text": "country it's bad for the people who are",
      "start": 390.25,
      "duration": 3.93
    },
    {
      "text": "coming over here and working it's bad",
      "start": 392.74,
      "duration": 4.05
    },
    {
      "text": "for our nation it's bad all around the",
      "start": 394.18,
      "duration": 4.53
    },
    {
      "text": "only people that really benefit from it",
      "start": 396.79,
      "duration": 3.87
    },
    {
      "text": "are these corporations that are hiring",
      "start": 398.71,
      "duration": 2.729
    },
    {
      "text": "these people",
      "start": 400.66,
      "duration": 3.149
    },
    {
      "text": "drastically lower wage and in some cases",
      "start": 401.439,
      "duration": 4.141
    },
    {
      "text": "the people who are brought over here on",
      "start": 403.809,
      "duration": 3.51
    },
    {
      "text": "what's supposed to be a temporary status",
      "start": 405.58,
      "duration": 4.919
    },
    {
      "text": "and end up staying here permanently well",
      "start": 407.319,
      "duration": 6.541
    },
    {
      "text": "and if it's technology particularly even",
      "start": 410.499,
      "duration": 5.31
    },
    {
      "text": "my area of expertise is computer",
      "start": 413.86,
      "duration": 4.139
    },
    {
      "text": "programming and managing programmers so",
      "start": 415.809,
      "duration": 3.96
    },
    {
      "text": "I managed an entire research and",
      "start": 417.999,
      "duration": 3.81
    },
    {
      "text": "development team when I was chief",
      "start": 419.769,
      "duration": 4.41
    },
    {
      "text": "technical officer it's really really",
      "start": 421.809,
      "duration": 4.17
    },
    {
      "text": "helpful to have people who stay and who",
      "start": 424.179,
      "duration": 3.45
    },
    {
      "text": "are motivated because you get this big",
      "start": 425.979,
      "duration": 3.81
    },
    {
      "text": "giant codebase and it takes forever it",
      "start": 427.629,
      "duration": 4.41
    },
    {
      "text": "takes forever to get comfortable and",
      "start": 429.789,
      "duration": 5.04
    },
    {
      "text": "competent with a big new codebase and so",
      "start": 432.039,
      "duration": 5.67
    },
    {
      "text": "you want smart people who are invested",
      "start": 434.829,
      "duration": 4.74
    },
    {
      "text": "and motivated and and understand the",
      "start": 437.709,
      "duration": 3.78
    },
    {
      "text": "code base because swapping people in and",
      "start": 439.569,
      "duration": 3.9
    },
    {
      "text": "out is really tough and you can get as",
      "start": 441.489,
      "duration": 3.09
    },
    {
      "text": "you say you can get a whole bunch of",
      "start": 443.469,
      "duration": 2.97
    },
    {
      "text": "code written fairly quickly that's not",
      "start": 444.579,
      "duration": 2.37
    },
    {
      "text": "the issue",
      "start": 446.439,
      "duration": 2.37
    },
    {
      "text": "writing code is not the issue writing",
      "start": 446.949,
      "duration": 4.17
    },
    {
      "text": "code that you can maintain that is",
      "start": 448.809,
      "duration": 4.5
    },
    {
      "text": "efficient that it'll document it that is",
      "start": 451.119,
      "duration": 4.741
    },
    {
      "text": "readable all of that is a whole",
      "start": 453.309,
      "duration": 4.83
    },
    {
      "text": "different kettle of fish and just",
      "start": 455.86,
      "duration": 5.099
    },
    {
      "text": "getting the code in it's sort of like",
      "start": 458.139,
      "duration": 4.32
    },
    {
      "text": "cocaine for happiness I mean it gets the",
      "start": 460.959,
      "duration": 3
    },
    {
      "text": "job done but you pay a price for down",
      "start": 462.459,
      "duration": 2.52
    },
    {
      "text": "the road and you get a whole bunch of",
      "start": 463.959,
      "duration": 2.46
    },
    {
      "text": "code written but if it's spaghetti code",
      "start": 464.979,
      "duration": 3.15
    },
    {
      "text": "that's badly documented the variable",
      "start": 466.419,
      "duration": 3.11
    },
    {
      "text": "names are confusing there aren't enough",
      "start": 468.129,
      "duration": 3.81
    },
    {
      "text": "comments to for anyone else to be able",
      "start": 469.529,
      "duration": 4.39
    },
    {
      "text": "to follow it then you get a kind of",
      "start": 471.939,
      "duration": 3.9
    },
    {
      "text": "weird job security by writing bad code",
      "start": 473.919,
      "duration": 3.39
    },
    {
      "text": "because nobody can afford to replace you",
      "start": 475.839,
      "duration": 4.651
    },
    {
      "text": "because it's too convoluted that's",
      "start": 477.309,
      "duration": 5.01
    },
    {
      "text": "exactly right and we're actually at the",
      "start": 480.49,
      "duration": 4.229
    },
    {
      "text": "point now where I'm a full-stack",
      "start": 482.319,
      "duration": 5.31
    },
    {
      "text": "developer now myself and I I'm still",
      "start": 484.719,
      "duration": 4.831
    },
    {
      "text": "able to get a lot of work that comes to",
      "start": 487.629,
      "duration": 4.41
    },
    {
      "text": "me from companies who have previously",
      "start": 489.55,
      "duration": 7.409
    },
    {
      "text": "hired out to an h-1b type firm but if",
      "start": 492.039,
      "duration": 7.89
    },
    {
      "text": "the numbers are changed too much more",
      "start": 496.959,
      "duration": 4.62
    },
    {
      "text": "it's going to be almost impossible for",
      "start": 499.929,
      "duration": 3.63
    },
    {
      "text": "me to compete at all I mean I already",
      "start": 501.579,
      "duration": 4.11
    },
    {
      "text": "have to tell that people come to me and",
      "start": 503.559,
      "duration": 3.48
    },
    {
      "text": "I try to explain to them you know this",
      "start": 505.689,
      "duration": 3
    },
    {
      "text": "is how much it costs to do this and they",
      "start": 507.039,
      "duration": 3.12
    },
    {
      "text": "tell me well this company over here is",
      "start": 508.689,
      "duration": 3.54
    },
    {
      "text": "offering to do this for you half the",
      "start": 510.159,
      "duration": 4.41
    },
    {
      "text": "cost and then those people will come",
      "start": 512.229,
      "duration": 4.201
    },
    {
      "text": "back six months or a year later and say",
      "start": 514.569,
      "duration": 3.72
    },
    {
      "text": "okay well you know I paid those people",
      "start": 516.43,
      "duration": 3.93
    },
    {
      "text": "half of what you were asking and I got",
      "start": 518.289,
      "duration": 4.86
    },
    {
      "text": "about half the product right and then",
      "start": 520.36,
      "duration": 4.229
    },
    {
      "text": "we're really behind the eight ball",
      "start": 523.149,
      "duration": 4.081
    },
    {
      "text": "because when tech starts to go wrong",
      "start": 524.589,
      "duration": 5.461
    },
    {
      "text": "there's a lot of cover ups there's a lot",
      "start": 527.23,
      "duration": 4.77
    },
    {
      "text": "of promises there's a lot of it's almost",
      "start": 530.05,
      "duration": 3.659
    },
    {
      "text": "done and it's really hard to know like",
      "start": 532,
      "duration": 2.91
    },
    {
      "text": "if someone's building a",
      "start": 533.709,
      "duration": 3.571
    },
    {
      "text": "for you you can drive out you can",
      "start": 534.91,
      "duration": 4.74
    },
    {
      "text": "eyeball the damn thing and and you can",
      "start": 537.28,
      "duration": 3.93
    },
    {
      "text": "see what the progress is but if you've",
      "start": 539.65,
      "duration": 3.06
    },
    {
      "text": "got a bunch of people building code for",
      "start": 541.21,
      "duration": 3.63
    },
    {
      "text": "you and you're not reviewing that code",
      "start": 542.71,
      "duration": 3.54
    },
    {
      "text": "or a tech expert yourself which",
      "start": 544.84,
      "duration": 2.82
    },
    {
      "text": "generally is not the case because if you",
      "start": 546.25,
      "duration": 3.9
    },
    {
      "text": "were you'd be running it yourself it's",
      "start": 547.66,
      "duration": 5.28
    },
    {
      "text": "it's really easy to flim-flam and pull",
      "start": 550.15,
      "duration": 4.41
    },
    {
      "text": "the wool over people's eyes when it",
      "start": 552.94,
      "duration": 5.46
    },
    {
      "text": "comes to code in particular and then",
      "start": 554.56,
      "duration": 6.15
    },
    {
      "text": "when you finally get it it might work it",
      "start": 558.4,
      "duration": 4.47
    },
    {
      "text": "might work and then it breaks on the",
      "start": 560.71,
      "duration": 4.23
    },
    {
      "text": "next security update or it doesn't work",
      "start": 562.87,
      "duration": 4.77
    },
    {
      "text": "with a firewall or it it can't be",
      "start": 564.94,
      "duration": 4.65
    },
    {
      "text": "upgraded to whatever or it doesn't work",
      "start": 567.64,
      "duration": 3.87
    },
    {
      "text": "on 32-bit or it doesn't work on Windows",
      "start": 569.59,
      "duration": 4.08
    },
    {
      "text": "in yellow and TV if you make how far",
      "start": 571.51,
      "duration": 4.86
    },
    {
      "text": "back it or anything like that so you can",
      "start": 573.67,
      "duration": 4.68
    },
    {
      "text": "get something up and running but you",
      "start": 576.37,
      "duration": 5.46
    },
    {
      "text": "know getting it to a modularized",
      "start": 578.35,
      "duration": 6.24
    },
    {
      "text": "documented maintainable upgradable path",
      "start": 581.83,
      "duration": 5.49
    },
    {
      "text": "I mean that's a whole different kettle",
      "start": 584.59,
      "duration": 4.2
    },
    {
      "text": "of fish I mean you don't really upgrade",
      "start": 587.32,
      "duration": 3.81
    },
    {
      "text": "a house much but code you're going to be",
      "start": 588.79,
      "duration": 5.07
    },
    {
      "text": "upgrading quite a bit and or maybe it's",
      "start": 591.13,
      "duration": 4.29
    },
    {
      "text": "written in such a way oh it works on",
      "start": 593.86,
      "duration": 3.57
    },
    {
      "text": "Android but good luck on iOS or so if",
      "start": 595.42,
      "duration": 4.44
    },
    {
      "text": "it's a mobile thing so yeah it's it's",
      "start": 597.43,
      "duration": 4.71
    },
    {
      "text": "not portable it's not transferable and",
      "start": 599.86,
      "duration": 4.05
    },
    {
      "text": "yeah but you don't really notice that",
      "start": 602.14,
      "duration": 3.63
    },
    {
      "text": "you don't really see that until you hit",
      "start": 603.91,
      "duration": 5.82
    },
    {
      "text": "those limitations down the road yep and",
      "start": 605.77,
      "duration": 5.46
    },
    {
      "text": "then you go try to go back and have it",
      "start": 609.73,
      "duration": 3.54
    },
    {
      "text": "done correctly you're gonna end up",
      "start": 611.23,
      "duration": 4.5
    },
    {
      "text": "paying a fortune waste a lot of time",
      "start": 613.27,
      "duration": 4.17
    },
    {
      "text": "somebody's dynamite it's not again all",
      "start": 615.73,
      "duration": 2.45
    },
    {
      "text": "right",
      "start": 617.44,
      "duration": 7.47
    },
    {
      "text": "yes exactly now do you have any ideas as",
      "start": 618.18,
      "duration": 8.71
    },
    {
      "text": "to why you said well nothing's going to",
      "start": 624.91,
      "duration": 3.15
    },
    {
      "text": "happen right nothing's going to happen",
      "start": 626.89,
      "duration": 5.88
    },
    {
      "text": "do you have any idea why nothing's gonna",
      "start": 628.06,
      "duration": 6.27
    },
    {
      "text": "happen with regards to immigration why",
      "start": 632.77,
      "duration": 3.83
    },
    {
      "text": "this stuff keeps getting pushed through",
      "start": 634.33,
      "duration": 5.91
    },
    {
      "text": "well my general opinion of it is that",
      "start": 636.6,
      "duration": 6.82
    },
    {
      "text": "the Republican Party tends to look at it",
      "start": 640.24,
      "duration": 5.67
    },
    {
      "text": "as sort of if they try to make an effort",
      "start": 643.42,
      "duration": 4.98
    },
    {
      "text": "to enforce immigration laws and they're",
      "start": 645.91,
      "duration": 6.63
    },
    {
      "text": "unsuccessful then the the various",
      "start": 648.4,
      "duration": 5.94
    },
    {
      "text": "populations here who view that as",
      "start": 652.54,
      "duration": 4.41
    },
    {
      "text": "targeting them will then start to view",
      "start": 654.34,
      "duration": 5.16
    },
    {
      "text": "the Republican Party as okay you tried",
      "start": 656.95,
      "duration": 4.92
    },
    {
      "text": "to do something bad to us and so we're",
      "start": 659.5,
      "duration": 4.98
    },
    {
      "text": "never going to vote for you again so",
      "start": 661.87,
      "duration": 5.52
    },
    {
      "text": "it's almost as if there's sort of like a",
      "start": 664.48,
      "duration": 4.06
    },
    {
      "text": "political stalemate",
      "start": 667.39,
      "duration": 3.55
    },
    {
      "text": "going on where neither party wants to",
      "start": 668.54,
      "duration": 4.71
    },
    {
      "text": "just flatly say you know hey we're not",
      "start": 670.94,
      "duration": 3.99
    },
    {
      "text": "going to enforce the law on these people",
      "start": 673.25,
      "duration": 5.25
    },
    {
      "text": "because we want their vote but music but",
      "start": 674.93,
      "duration": 5.73
    },
    {
      "text": "that's basically what's happening I mean",
      "start": 678.5,
      "duration": 4.89
    },
    {
      "text": "do they not understand that the majority",
      "start": 680.66,
      "duration": 4.95
    },
    {
      "text": "of the I'm thinking China and India in",
      "start": 683.39,
      "duration": 5.03
    },
    {
      "text": "particular although not exclusively",
      "start": 685.61,
      "duration": 5.16
    },
    {
      "text": "statistically are much more likely to",
      "start": 688.42,
      "duration": 5.35
    },
    {
      "text": "vote Democrat anyway and so it's like",
      "start": 690.77,
      "duration": 4.95
    },
    {
      "text": "that there's not a plan B here like",
      "start": 693.77,
      "duration": 4.29
    },
    {
      "text": "there's no hold the line as far as the",
      "start": 695.72,
      "duration": 4.2
    },
    {
      "text": "Republican Party goes at the moment I",
      "start": 698.06,
      "duration": 3.33
    },
    {
      "text": "mean as more and more people come in",
      "start": 699.92,
      "duration": 2.94
    },
    {
      "text": "just to pick these two countries as you",
      "start": 701.39,
      "duration": 4.47
    },
    {
      "text": "pointed out China and India well three",
      "start": 702.86,
      "duration": 5.49
    },
    {
      "text": "quarters or so or more are going to vote",
      "start": 705.86,
      "duration": 7.08
    },
    {
      "text": "for Democrat Democrats and so like they",
      "start": 708.35,
      "duration": 7.32
    },
    {
      "text": "might as well give it a drag as you know",
      "start": 712.94,
      "duration": 4.56
    },
    {
      "text": "probably after 2020 there's not really",
      "start": 715.67,
      "duration": 4.56
    },
    {
      "text": "gonna be a Republican Party that is",
      "start": 717.5,
      "duration": 4.8
    },
    {
      "text": "gonna work I mean already you know",
      "start": 720.23,
      "duration": 4.32
    },
    {
      "text": "states are flipping counties are",
      "start": 722.3,
      "duration": 4.5
    },
    {
      "text": "flipping because you know mass migration",
      "start": 724.55,
      "duration": 4.5
    },
    {
      "text": "is a form of gerrymandering of course",
      "start": 726.8,
      "duration": 4.5
    },
    {
      "text": "right and so I don't know what they're",
      "start": 729.05,
      "duration": 3.92
    },
    {
      "text": "waiting for",
      "start": 731.3,
      "duration": 4.44
    },
    {
      "text": "that's that's always my big question",
      "start": 732.97,
      "duration": 4.6
    },
    {
      "text": "like what is the plan B here because",
      "start": 735.74,
      "duration": 5.04
    },
    {
      "text": "statistically they're you know if the",
      "start": 737.57,
      "duration": 4.65
    },
    {
      "text": "planes going into the wall you might as",
      "start": 740.78,
      "duration": 5.37
    },
    {
      "text": "well jump so to speak right yes I have",
      "start": 742.22,
      "duration": 7.17
    },
    {
      "text": "approached them about this extensively",
      "start": 746.15,
      "duration": 6.33
    },
    {
      "text": "before I decided to run and show them",
      "start": 749.39,
      "duration": 5.28
    },
    {
      "text": "the numbers and my district in",
      "start": 752.48,
      "duration": 4.56
    },
    {
      "text": "particular is safe for another two or",
      "start": 754.67,
      "duration": 4.08
    },
    {
      "text": "three election cycles but there are a",
      "start": 757.04,
      "duration": 3.72
    },
    {
      "text": "number of them that are directly around",
      "start": 758.75,
      "duration": 5.73
    },
    {
      "text": "me district 22 district 36 they we had",
      "start": 760.76,
      "duration": 6.03
    },
    {
      "text": "five or six Republican congressman here",
      "start": 764.48,
      "duration": 5.31
    },
    {
      "text": "in Texas not seek reelection and if you",
      "start": 766.79,
      "duration": 5.82
    },
    {
      "text": "look at why they chose to do that one or",
      "start": 769.79,
      "duration": 4.47
    },
    {
      "text": "two of them legitimately just decided",
      "start": 772.61,
      "duration": 3.09
    },
    {
      "text": "their time was up but the rest of them",
      "start": 774.26,
      "duration": 3.57
    },
    {
      "text": "looked at the numbers and say okay you",
      "start": 775.7,
      "duration": 5.07
    },
    {
      "text": "know four years ago it was 6040 and then",
      "start": 777.83,
      "duration": 6.36
    },
    {
      "text": "it was fifty five forty five and then",
      "start": 780.77,
      "duration": 4.77
    },
    {
      "text": "this last election it was something like",
      "start": 784.19,
      "duration": 3.6
    },
    {
      "text": "fifty to forty eight and so they looked",
      "start": 785.54,
      "duration": 3.84
    },
    {
      "text": "around they said okay the demographics",
      "start": 787.79,
      "duration": 4.02
    },
    {
      "text": "are such that I might be able to win one",
      "start": 789.38,
      "duration": 4.71
    },
    {
      "text": "more election but after that there's no",
      "start": 791.81,
      "duration": 5.22
    },
    {
      "text": "way so they just chose to to not seek",
      "start": 794.09,
      "duration": 5.01
    },
    {
      "text": "re-election and not be embarrassed as",
      "start": 797.03,
      "duration": 4.56
    },
    {
      "text": "opposed to admitting the truth you can",
      "start": 799.1,
      "duration": 3.479
    },
    {
      "text": "show them the number",
      "start": 801.59,
      "duration": 2.339
    },
    {
      "text": "show them what's going to happen in",
      "start": 802.579,
      "duration": 4.47
    },
    {
      "text": "Texas and they will admit that this is",
      "start": 803.929,
      "duration": 4.77
    },
    {
      "text": "going to happen but then in the next",
      "start": 807.049,
      "duration": 3.45
    },
    {
      "text": "breath you know when you ask him okay",
      "start": 808.699,
      "duration": 3.091
    },
    {
      "text": "well what are we going to do about this",
      "start": 810.499,
      "duration": 4.471
    },
    {
      "text": "what's the plan it this this is one of",
      "start": 811.79,
      "duration": 5.219
    },
    {
      "text": "the things that drove me to to run for",
      "start": 814.97,
      "duration": 5.549
    },
    {
      "text": "office was that I spoke to more elected",
      "start": 817.009,
      "duration": 4.77
    },
    {
      "text": "officials than I can count",
      "start": 820.519,
      "duration": 2.701
    },
    {
      "text": "anyone that would basically answer the",
      "start": 821.779,
      "duration": 4.17
    },
    {
      "text": "phone and and gave them these numbers",
      "start": 823.22,
      "duration": 4.079
    },
    {
      "text": "and say hey what's the plan to do",
      "start": 825.949,
      "duration": 2.94
    },
    {
      "text": "something about this because if we lose",
      "start": 827.299,
      "duration": 3.69
    },
    {
      "text": "Texas we've lost the nation like there",
      "start": 828.889,
      "duration": 3.51
    },
    {
      "text": "won't be another Republican president",
      "start": 830.989,
      "duration": 3.181
    },
    {
      "text": "there won't be a Republican Senate there",
      "start": 832.399,
      "duration": 3.72
    },
    {
      "text": "won't be a Republican House what's the",
      "start": 834.17,
      "duration": 3.959
    },
    {
      "text": "plan to stop this and not a single",
      "start": 836.119,
      "duration": 3.78
    },
    {
      "text": "person could even tell me that there was",
      "start": 838.129,
      "duration": 4.05
    },
    {
      "text": "a plan the only thing I ever got back",
      "start": 839.899,
      "duration": 3.87
    },
    {
      "text": "was well we'll just have to work harder",
      "start": 842.179,
      "duration": 3.181
    },
    {
      "text": "to convince these people to vote",
      "start": 843.769,
      "duration": 5.97
    },
    {
      "text": "Republican and I honestly I don't know",
      "start": 845.36,
      "duration": 5.579
    },
    {
      "text": "what you know what that means that work",
      "start": 849.739,
      "duration": 2.64
    },
    {
      "text": "harder to convince them to vote this way",
      "start": 850.939,
      "duration": 3.81
    },
    {
      "text": "but everybody seems to understand what's",
      "start": 852.379,
      "duration": 4.05
    },
    {
      "text": "happening everybody seems to understand",
      "start": 854.749,
      "duration": 3.03
    },
    {
      "text": "it's going to happen in the very near",
      "start": 856.429,
      "duration": 4.83
    },
    {
      "text": "future but the only sense that I get",
      "start": 857.779,
      "duration": 5.49
    },
    {
      "text": "from any of them is that well you know",
      "start": 861.259,
      "duration": 4.02
    },
    {
      "text": "they've had a good run their time is up",
      "start": 863.269,
      "duration": 4.56
    },
    {
      "text": "and they're just going to ride off into",
      "start": 865.279,
      "duration": 5.04
    },
    {
      "text": "the sunset when that happens and that's",
      "start": 867.829,
      "duration": 4.74
    },
    {
      "text": "great for them but I have children and",
      "start": 870.319,
      "duration": 4.05
    },
    {
      "text": "I'm extremely concerned about the future",
      "start": 872.569,
      "duration": 3.18
    },
    {
      "text": "for my children and my eventual",
      "start": 874.369,
      "duration": 3.63
    },
    {
      "text": "grandchildren and it boggles my mind",
      "start": 875.749,
      "duration": 3.78
    },
    {
      "text": "that's that these other people are",
      "start": 877.999,
      "duration": 3.39
    },
    {
      "text": "simply not do not seem to be concerned",
      "start": 879.529,
      "duration": 4.831
    },
    {
      "text": "at all about what's going to happen when",
      "start": 881.389,
      "duration": 4.92
    },
    {
      "text": "the demographics gets us that we can't",
      "start": 884.36,
      "duration": 4.349
    },
    {
      "text": "vote a Republican into any office",
      "start": 886.309,
      "duration": 5.46
    },
    {
      "text": "anywhere in Texas or almost anywhere on",
      "start": 888.709,
      "duration": 6.78
    },
    {
      "text": "the national level yeah I mean I think",
      "start": 891.769,
      "duration": 5.701
    },
    {
      "text": "that maybe I mean I don't know what's",
      "start": 895.489,
      "duration": 3.39
    },
    {
      "text": "going on in their minds but I would",
      "start": 897.47,
      "duration": 2.88
    },
    {
      "text": "imagine that it's probably something",
      "start": 898.879,
      "duration": 3.99
    },
    {
      "text": "like okay well maybe we can't really do",
      "start": 900.35,
      "duration": 4.949
    },
    {
      "text": "much about it but I don't want to get",
      "start": 902.869,
      "duration": 4.83
    },
    {
      "text": "called a racist in every newspaper known",
      "start": 905.299,
      "duration": 5.13
    },
    {
      "text": "to man and have my life destroyed that",
      "start": 907.699,
      "duration": 4.32
    },
    {
      "text": "way for trying to enforce immigration",
      "start": 910.429,
      "duration": 4.02
    },
    {
      "text": "law or trying not to invite more people",
      "start": 912.019,
      "duration": 4.44
    },
    {
      "text": "in to take jobs that Americans are more",
      "start": 914.449,
      "duration": 4.17
    },
    {
      "text": "than happy and willing to take so maybe",
      "start": 916.459,
      "duration": 4.8
    },
    {
      "text": "they're saying well I down side is well",
      "start": 918.619,
      "duration": 4.08
    },
    {
      "text": "all the stuff I'm sure that you either",
      "start": 921.259,
      "duration": 3.36
    },
    {
      "text": "our experience or I go to experiences",
      "start": 922.699,
      "duration": 4.05
    },
    {
      "text": "you run for office on trying to enforce",
      "start": 924.619,
      "duration": 4.32
    },
    {
      "text": "immigration law so I can't really change",
      "start": 926.749,
      "duration": 4.92
    },
    {
      "text": "it but it really could wreck my life if",
      "start": 928.939,
      "duration": 4.5
    },
    {
      "text": "I get all of the slander or pushed at me",
      "start": 931.669,
      "duration": 3.061
    },
    {
      "text": "from the mainstream media and maybe",
      "start": 933.439,
      "duration": 2.491
    },
    {
      "text": "that's the calculation",
      "start": 934.73,
      "duration": 4.77
    },
    {
      "text": "I think that's exactly what it is it's",
      "start": 935.93,
      "duration": 6.27
    },
    {
      "text": "you know that the worst case scenario is",
      "start": 939.5,
      "duration": 4.23
    },
    {
      "text": "when this happens is that they lose",
      "start": 942.2,
      "duration": 3.27
    },
    {
      "text": "their office the worst case scenario if",
      "start": 943.73,
      "duration": 3.57
    },
    {
      "text": "you try to stop it is that you lose your",
      "start": 945.47,
      "duration": 6.21
    },
    {
      "text": "entire livelihood right right and I",
      "start": 947.3,
      "duration": 5.97
    },
    {
      "text": "think they look at that calculation they",
      "start": 951.68,
      "duration": 3.69
    },
    {
      "text": "say I'd rather just lose my office than",
      "start": 953.27,
      "duration": 5.67
    },
    {
      "text": "lose everything so given that you know",
      "start": 955.37,
      "duration": 5.61
    },
    {
      "text": "that calculation what's your your",
      "start": 958.94,
      "duration": 4.08
    },
    {
      "text": "reasoning obviously is different no no",
      "start": 960.98,
      "duration": 6
    },
    {
      "text": "how does that different well I think",
      "start": 963.02,
      "duration": 6.39
    },
    {
      "text": "from my point of view I'm just a much",
      "start": 966.98,
      "duration": 5.85
    },
    {
      "text": "bigger coward than these guys are I look",
      "start": 969.41,
      "duration": 5.1
    },
    {
      "text": "at what's going to happen in the future",
      "start": 972.83,
      "duration": 6.15
    },
    {
      "text": "so but before I eventually went to",
      "start": 974.51,
      "duration": 6.06
    },
    {
      "text": "college and became an aerospace engineer",
      "start": 978.98,
      "duration": 3.63
    },
    {
      "text": "I was in the military and in my time",
      "start": 980.57,
      "duration": 4.77
    },
    {
      "text": "overseas you start to see signs of",
      "start": 982.61,
      "duration": 3.72
    },
    {
      "text": "things that are happening in other",
      "start": 985.34,
      "duration": 2.94
    },
    {
      "text": "countries that indicate bad things are",
      "start": 986.33,
      "duration": 3.27
    },
    {
      "text": "going to happen in the somewhat near",
      "start": 988.28,
      "duration": 2.31
    },
    {
      "text": "future",
      "start": 989.6,
      "duration": 3.48
    },
    {
      "text": "those can be it can be ethnic strife in",
      "start": 990.59,
      "duration": 4.41
    },
    {
      "text": "the economic strife it can be any number",
      "start": 993.08,
      "duration": 3.96
    },
    {
      "text": "of things from just the amount of",
      "start": 995,
      "duration": 4.35
    },
    {
      "text": "propaganda that's being Compton to a",
      "start": 997.04,
      "duration": 5.76
    },
    {
      "text": "society to various forms a societal",
      "start": 999.35,
      "duration": 5.82
    },
    {
      "text": "strife and I see every single one of",
      "start": 1002.8,
      "duration": 5.1
    },
    {
      "text": "those signs in this nation right now and",
      "start": 1005.17,
      "duration": 5.04
    },
    {
      "text": "it scares me for what life is going to",
      "start": 1007.9,
      "duration": 6
    },
    {
      "text": "be like for my children and I don't know",
      "start": 1010.21,
      "duration": 5.73
    },
    {
      "text": "I don't believe that other people don't",
      "start": 1013.9,
      "duration": 3.9
    },
    {
      "text": "see these things happening because it's",
      "start": 1015.94,
      "duration": 4.35
    },
    {
      "text": "it's blatantly obvious I think that they",
      "start": 1017.8,
      "duration": 6.6
    },
    {
      "text": "just have this sort of we would call a",
      "start": 1020.29,
      "duration": 6.299
    },
    {
      "text": "normalcy bias which is just you have",
      "start": 1024.4,
      "duration": 3.96
    },
    {
      "text": "this belief that things can you know can",
      "start": 1026.589,
      "duration": 3.87
    },
    {
      "text": "never happen like really bad things can",
      "start": 1028.36,
      "duration": 3.599
    },
    {
      "text": "never happen like with all the stories",
      "start": 1030.459,
      "duration": 3.781
    },
    {
      "text": "of like there's a hurricane coming and",
      "start": 1031.959,
      "duration": 4.261
    },
    {
      "text": "yet people are going to work as if it's",
      "start": 1034.24,
      "duration": 3.9
    },
    {
      "text": "perfectly normal I think people just",
      "start": 1036.22,
      "duration": 3.33
    },
    {
      "text": "tend to look around and think that the",
      "start": 1038.14,
      "duration": 3.03
    },
    {
      "text": "worst-case scenarios just can never",
      "start": 1039.55,
      "duration": 4.35
    },
    {
      "text": "happen and my experience has taught me",
      "start": 1041.17,
      "duration": 4.56
    },
    {
      "text": "that that more often than not the",
      "start": 1043.9,
      "duration": 3.9
    },
    {
      "text": "worst-case scenarios end up being what",
      "start": 1045.73,
      "duration": 4.65
    },
    {
      "text": "actually does happen especially is",
      "start": 1047.8,
      "duration": 4.98
    },
    {
      "text": "mathematics and demographics and you",
      "start": 1050.38,
      "duration": 4.2
    },
    {
      "text": "know I mean that that's that's not even",
      "start": 1052.78,
      "duration": 3.54
    },
    {
      "text": "a roll the dice situation that that is",
      "start": 1054.58,
      "duration": 5.1
    },
    {
      "text": "an inevitability exactly like this is",
      "start": 1056.32,
      "duration": 5.22
    },
    {
      "text": "not something that could happen this is",
      "start": 1059.68,
      "duration": 3.3
    },
    {
      "text": "something that will happen and it will",
      "start": 1061.54,
      "duration": 2.94
    },
    {
      "text": "happen sometime within the next ten",
      "start": 1062.98,
      "duration": 3.66
    },
    {
      "text": "years here in Texas and if you look at",
      "start": 1064.48,
      "duration": 4.98
    },
    {
      "text": "the the death situation of this nation",
      "start": 1066.64,
      "duration": 5.34
    },
    {
      "text": "the other issues that are happening with",
      "start": 1069.46,
      "duration": 5.52
    },
    {
      "text": "the various forms of propaganda and both",
      "start": 1071.98,
      "duration": 5.52
    },
    {
      "text": "racial conflict and economic conflict in",
      "start": 1074.98,
      "duration": 5.1
    },
    {
      "text": "this nation those all have very bad",
      "start": 1077.5,
      "duration": 5.49
    },
    {
      "text": "signals for the very near future and I",
      "start": 1080.08,
      "duration": 4.89
    },
    {
      "text": "think a lot of these people in office",
      "start": 1082.99,
      "duration": 5.37
    },
    {
      "text": "have just no real understanding of how",
      "start": 1084.97,
      "duration": 5.13
    },
    {
      "text": "bad things can get and how quickly they",
      "start": 1088.36,
      "duration": 3.87
    },
    {
      "text": "can get that bad well it's a funny thing",
      "start": 1090.1,
      "duration": 3.57
    },
    {
      "text": "I just saw there's thinking about that",
      "start": 1092.23,
      "duration": 4.17
    },
    {
      "text": "today about how when we get a certain",
      "start": 1093.67,
      "duration": 5.85
    },
    {
      "text": "amount of wealth in society we of course",
      "start": 1096.4,
      "duration": 6.659
    },
    {
      "text": "no longer have survival on our minds but",
      "start": 1099.52,
      "duration": 6.63
    },
    {
      "text": "we are a species that loves to solve",
      "start": 1103.059,
      "duration": 4.741
    },
    {
      "text": "problems and loves to have problems and",
      "start": 1106.15,
      "duration": 4.29
    },
    {
      "text": "loves to deal with problems and so when",
      "start": 1107.8,
      "duration": 5.759
    },
    {
      "text": "our immediate needs are met materially",
      "start": 1110.44,
      "duration": 4.53
    },
    {
      "text": "which is pretty much the case for",
      "start": 1113.559,
      "duration": 3.931
    },
    {
      "text": "everyone in the West these days then",
      "start": 1114.97,
      "duration": 4.26
    },
    {
      "text": "what do we do I think once we solve",
      "start": 1117.49,
      "duration": 4.439
    },
    {
      "text": "problems that are essential we start",
      "start": 1119.23,
      "duration": 4.71
    },
    {
      "text": "inventing problems that are in essential",
      "start": 1121.929,
      "duration": 4.521
    },
    {
      "text": "and we just start saying okay well now",
      "start": 1123.94,
      "duration": 5.73
    },
    {
      "text": "now that we have our material needs met",
      "start": 1126.45,
      "duration": 5.32
    },
    {
      "text": "now we have to have perfect equality and",
      "start": 1129.67,
      "duration": 4.44
    },
    {
      "text": "now we have to have no bad thinking",
      "start": 1131.77,
      "duration": 5.1
    },
    {
      "text": "anywhere and now we have like now we",
      "start": 1134.11,
      "duration": 4.98
    },
    {
      "text": "have to punish people who disagree with",
      "start": 1136.87,
      "duration": 4.29
    },
    {
      "text": "us because we're perfect or something",
      "start": 1139.09,
      "duration": 3.39
    },
    {
      "text": "and it's like we just start inventing",
      "start": 1141.16,
      "duration": 3.93
    },
    {
      "text": "these predators once we tame all of the",
      "start": 1142.48,
      "duration": 4.14
    },
    {
      "text": "ones in the natural environment we start",
      "start": 1145.09,
      "duration": 4.62
    },
    {
      "text": "introducing new ones out of whole cloth",
      "start": 1146.62,
      "duration": 6.57
    },
    {
      "text": "I think and that has very dire",
      "start": 1149.71,
      "duration": 5.82
    },
    {
      "text": "consequences because there was a kind of",
      "start": 1153.19,
      "duration": 4.88
    },
    {
      "text": "elemental pragmatism that gave rise to",
      "start": 1155.53,
      "duration": 5.67
    },
    {
      "text": "this kind of wealth and if you switch",
      "start": 1158.07,
      "duration": 7.8
    },
    {
      "text": "from pragmatism to this weird almost",
      "start": 1161.2,
      "duration": 7.53
    },
    {
      "text": "wildly abstract platonic idealism that",
      "start": 1165.87,
      "duration": 4.63
    },
    {
      "text": "we can just make everything perfect you",
      "start": 1168.73,
      "duration": 3.81
    },
    {
      "text": "end up squandering all of the resources",
      "start": 1170.5,
      "duration": 4.8
    },
    {
      "text": "you gathered in your pragmatic phase and",
      "start": 1172.54,
      "duration": 6.71
    },
    {
      "text": "yeah things get very messy very quickly",
      "start": 1175.3,
      "duration": 7.65
    },
    {
      "text": "if I I worked in the space program for a",
      "start": 1179.25,
      "duration": 6.58
    },
    {
      "text": "fair bit and one of the things I'm",
      "start": 1182.95,
      "duration": 4.68
    },
    {
      "text": "running on is India for interaction and",
      "start": 1185.83,
      "duration": 5.099
    },
    {
      "text": "you see that there you see just a it's a",
      "start": 1187.63,
      "duration": 5.01
    },
    {
      "text": "complete shift from where things used to",
      "start": 1190.929,
      "duration": 3.5
    },
    {
      "text": "be which is you know get the job done",
      "start": 1192.64,
      "duration": 4.47
    },
    {
      "text": "there used to be a sign that was in one",
      "start": 1194.429,
      "duration": 4.511
    },
    {
      "text": "of the main rooms of Mission Control",
      "start": 1197.11,
      "duration": 4.11
    },
    {
      "text": "back and back way back in the day and",
      "start": 1198.94,
      "duration": 4.35
    },
    {
      "text": "the sign said waste anything",
      "start": 1201.22,
      "duration": 4.5
    },
    {
      "text": "but time and it was sort of indicative",
      "start": 1203.29,
      "duration": 4.08
    },
    {
      "text": "of like we gotta get to the moon we",
      "start": 1205.72,
      "duration": 2.4
    },
    {
      "text": "gotta do it now",
      "start": 1207.37,
      "duration": 2.67
    },
    {
      "text": "whatever you have to do to get this done",
      "start": 1208.12,
      "duration": 3.96
    },
    {
      "text": "do it you gotta look nice to do it you",
      "start": 1210.04,
      "duration": 3.69
    },
    {
      "text": "got it you got a waste of material do it",
      "start": 1212.08,
      "duration": 3.93
    },
    {
      "text": "and the mentality now is completely",
      "start": 1213.73,
      "duration": 6.21
    },
    {
      "text": "shifted and I don't know how to best sum",
      "start": 1216.01,
      "duration": 6.57
    },
    {
      "text": "it up in a phrase like that but let me",
      "start": 1219.94,
      "duration": 4.35
    },
    {
      "text": "explain you how affirmative action plays",
      "start": 1222.58,
      "duration": 4.65
    },
    {
      "text": "out in the space program so every",
      "start": 1224.29,
      "duration": 5.19
    },
    {
      "text": "government contract says that a certain",
      "start": 1227.23,
      "duration": 3.89
    },
    {
      "text": "amount of money has to be spent",
      "start": 1229.48,
      "duration": 4.47
    },
    {
      "text": "minority-owned businesses well in the",
      "start": 1231.12,
      "duration": 4.75
    },
    {
      "text": "space program you can't really like farm",
      "start": 1233.95,
      "duration": 4.98
    },
    {
      "text": "outs different little sub components to",
      "start": 1235.87,
      "duration": 4.65
    },
    {
      "text": "be designed by little companies and even",
      "start": 1238.93,
      "duration": 3.72
    },
    {
      "text": "if you could logistically those",
      "start": 1240.52,
      "duration": 4.41
    },
    {
      "text": "companies just really don't exist so",
      "start": 1242.65,
      "duration": 3.65
    },
    {
      "text": "what they've done is they've created",
      "start": 1244.93,
      "duration": 3.75
    },
    {
      "text": "subcontracting companies and these",
      "start": 1246.3,
      "duration": 4.51
    },
    {
      "text": "companies they just exist as a shell",
      "start": 1248.68,
      "duration": 4.68
    },
    {
      "text": "basically they're usually staffed by one",
      "start": 1250.81,
      "duration": 5.01
    },
    {
      "text": "or two people and the government gives",
      "start": 1253.36,
      "duration": 5.43
    },
    {
      "text": "spots to these companies and the owners",
      "start": 1255.82,
      "duration": 4.23
    },
    {
      "text": "of these companies are someone who can",
      "start": 1258.79,
      "duration": 3.99
    },
    {
      "text": "check one of those boxes and so for me",
      "start": 1260.05,
      "duration": 4.89
    },
    {
      "text": "to work in the space program I had to go",
      "start": 1262.78,
      "duration": 4.68
    },
    {
      "text": "had to broker my laborers through one of",
      "start": 1264.94,
      "duration": 4.02
    },
    {
      "text": "these subcontractors and Humber Dean's",
      "start": 1267.46,
      "duration": 4.5
    },
    {
      "text": "to work in one of these spots so I have",
      "start": 1268.96,
      "duration": 3.99
    },
    {
      "text": "a master's degree in aerospace",
      "start": 1271.96,
      "duration": 1.68
    },
    {
      "text": "engineering",
      "start": 1272.95,
      "duration": 2.97
    },
    {
      "text": "I'm always the most and I do the",
      "start": 1273.64,
      "duration": 3.69
    },
    {
      "text": "technical side of the engineering there",
      "start": 1275.92,
      "duration": 4.58
    },
    {
      "text": "at NASA I'm a finite element guy and",
      "start": 1277.33,
      "duration": 6
    },
    {
      "text": "whatever room I was in I was always the",
      "start": 1280.5,
      "duration": 4.63
    },
    {
      "text": "guy that was designing or here I was",
      "start": 1283.33,
      "duration": 3.75
    },
    {
      "text": "doing the math that sort of aspect of it",
      "start": 1285.13,
      "duration": 4.62
    },
    {
      "text": "yes because I had to subcontract my",
      "start": 1287.08,
      "duration": 4.98
    },
    {
      "text": "labor what that meant I had to give",
      "start": 1289.75,
      "duration": 4.08
    },
    {
      "text": "about a third of my salary to that",
      "start": 1292.06,
      "duration": 3.45
    },
    {
      "text": "subcontracting company so I was making",
      "start": 1293.83,
      "duration": 3.3
    },
    {
      "text": "about 2/3 or somebody who was not a",
      "start": 1295.51,
      "duration": 3.21
    },
    {
      "text": "subcontractor someone who's a civil",
      "start": 1297.13,
      "duration": 4.86
    },
    {
      "text": "servant I have no benefits in terms of",
      "start": 1298.72,
      "duration": 5.67
    },
    {
      "text": "if something's done wrong to me I have",
      "start": 1301.99,
      "duration": 3.81
    },
    {
      "text": "somebody I can go to and do something",
      "start": 1304.39,
      "duration": 4.05
    },
    {
      "text": "about it if I'm required to work 60 or",
      "start": 1305.8,
      "duration": 4.71
    },
    {
      "text": "80 hours one week I can't carry those",
      "start": 1308.44,
      "duration": 4.14
    },
    {
      "text": "hours over into the next week if I'm",
      "start": 1310.51,
      "duration": 4.05
    },
    {
      "text": "asked if I'm required to work 24 hours",
      "start": 1312.58,
      "duration": 4.2
    },
    {
      "text": "in one day I still have to be back in my",
      "start": 1314.56,
      "duration": 5.46
    },
    {
      "text": "office eight hours the next day I can",
      "start": 1316.78,
      "duration": 4.65
    },
    {
      "text": "never be promoted because there's",
      "start": 1320.02,
      "duration": 3.24
    },
    {
      "text": "nowhere to be promoted to because I'm",
      "start": 1321.43,
      "duration": 4.14
    },
    {
      "text": "just hired into that spot I'm not hired",
      "start": 1323.26,
      "duration": 3.78
    },
    {
      "text": "really at a company where I can be",
      "start": 1325.57,
      "duration": 4.2
    },
    {
      "text": "promoted and when whatever project I'm",
      "start": 1327.04,
      "duration": 4.29
    },
    {
      "text": "working on when that ends which is",
      "start": 1329.77,
      "duration": 3.96
    },
    {
      "text": "usually somewhere between five to ten",
      "start": 1331.33,
      "duration": 5.37
    },
    {
      "text": "years I'm out of a job and I got",
      "start": 1333.73,
      "duration": 5.49
    },
    {
      "text": "somewhere else to start somewhere else",
      "start": 1336.7,
      "duration": 4.5
    },
    {
      "text": "at a bottom rung as a subcontractor",
      "start": 1339.22,
      "duration": 4.649
    },
    {
      "text": "somewhere else and so there's a lot of",
      "start": 1341.2,
      "duration": 5.039
    },
    {
      "text": "people like me who you work in a program",
      "start": 1343.869,
      "duration": 4.14
    },
    {
      "text": "for a few years and you look around you",
      "start": 1346.239,
      "duration": 4.53
    },
    {
      "text": "say I'm not really welcome here despite",
      "start": 1348.009,
      "duration": 5.01
    },
    {
      "text": "the fact that I love this job and I",
      "start": 1350.769,
      "duration": 4.321
    },
    {
      "text": "really want to stay what's best for my",
      "start": 1353.019,
      "duration": 4.051
    },
    {
      "text": "career in the long term is for me not to",
      "start": 1355.09,
      "duration": 3.899
    },
    {
      "text": "be here so we go off and we do other",
      "start": 1357.07,
      "duration": 4.709
    },
    {
      "text": "things and that's happened with a lot of",
      "start": 1358.989,
      "duration": 4.711
    },
    {
      "text": "people and what you end up with now is",
      "start": 1361.779,
      "duration": 4.441
    },
    {
      "text": "every time a program starts in the space",
      "start": 1363.7,
      "duration": 4.469
    },
    {
      "text": "program you're basically starting from",
      "start": 1366.22,
      "duration": 3.99
    },
    {
      "text": "scratch you've lost all of that",
      "start": 1368.169,
      "duration": 4.74
    },
    {
      "text": "institutional memory whereas before a",
      "start": 1370.21,
      "duration": 4.74
    },
    {
      "text": "young guy would come in he would be",
      "start": 1372.909,
      "duration": 3.6
    },
    {
      "text": "trained and then he would move up a",
      "start": 1374.95,
      "duration": 3
    },
    {
      "text": "little bit he would work on a few",
      "start": 1376.509,
      "duration": 3.36
    },
    {
      "text": "projects and then he would start",
      "start": 1377.95,
      "duration": 3.419
    },
    {
      "text": "training the next generation that came",
      "start": 1379.869,
      "duration": 4.591
    },
    {
      "text": "in that's gone now like when you come",
      "start": 1381.369,
      "duration": 4.92
    },
    {
      "text": "into the space program you're basically",
      "start": 1384.46,
      "duration": 4.289
    },
    {
      "text": "thrown to the Wolves you know there's",
      "start": 1386.289,
      "duration": 4.26
    },
    {
      "text": "nobody there who's been there long",
      "start": 1388.749,
      "duration": 4.62
    },
    {
      "text": "enough to teach you anything or to watch",
      "start": 1390.549,
      "duration": 4.921
    },
    {
      "text": "over what you're doing because all those",
      "start": 1393.369,
      "duration": 3.601
    },
    {
      "text": "guys have either moved on to do",
      "start": 1395.47,
      "duration": 2.97
    },
    {
      "text": "something else because they've come to",
      "start": 1396.97,
      "duration": 3.449
    },
    {
      "text": "that same realization that you know long",
      "start": 1398.44,
      "duration": 3.51
    },
    {
      "text": "term the space program is no good for",
      "start": 1400.419,
      "duration": 4.26
    },
    {
      "text": "them or you know or somebody who's maybe",
      "start": 1401.95,
      "duration": 4.979
    },
    {
      "text": "senior to you has has worked at various",
      "start": 1404.679,
      "duration": 3.661
    },
    {
      "text": "different projects but he's never",
      "start": 1406.929,
      "duration": 3
    },
    {
      "text": "actually done what it is you're doing",
      "start": 1408.34,
      "duration": 4.74
    },
    {
      "text": "now so you simply do not have that",
      "start": 1409.929,
      "duration": 5.19
    },
    {
      "text": "experience to go from one project to the",
      "start": 1413.08,
      "duration": 4.14
    },
    {
      "text": "next to the next to next so you end up",
      "start": 1415.119,
      "duration": 4.62
    },
    {
      "text": "solving the same problems over and over",
      "start": 1417.22,
      "duration": 5.279
    },
    {
      "text": "again and running into the same mistakes",
      "start": 1419.739,
      "duration": 6.331
    },
    {
      "text": "over and over again oh it's horrible and",
      "start": 1422.499,
      "duration": 5.13
    },
    {
      "text": "if you look at of course the space",
      "start": 1426.07,
      "duration": 6.5
    },
    {
      "text": "program as a whole it's sort of like how",
      "start": 1427.629,
      "duration": 4.941
    },
    {
      "text": "Austin Wells described his career you",
      "start": 1432.779,
      "duration": 4.24
    },
    {
      "text": "know the guy who did this famous war of",
      "start": 1435.58,
      "duration": 6.27
    },
    {
      "text": "the worlds' audio play and then did the",
      "start": 1437.019,
      "duration": 7.59
    },
    {
      "text": "Rosa Rosebud movie right the the most",
      "start": 1441.85,
      "duration": 5.779
    },
    {
      "text": "sort of famous famous and best movie and",
      "start": 1444.609,
      "duration": 5.16
    },
    {
      "text": "he said I you know I started at the top",
      "start": 1447.629,
      "duration": 4.451
    },
    {
      "text": "and I worked my way down because he",
      "start": 1449.769,
      "duration": 4.61
    },
    {
      "text": "never matched his early energetic",
      "start": 1452.08,
      "duration": 5.479
    },
    {
      "text": "successes Citizen Kane was the movie and",
      "start": 1454.379,
      "duration": 5.29
    },
    {
      "text": "it's the same thing with this post creme",
      "start": 1457.559,
      "duration": 4.33
    },
    {
      "text": "of space program in America or around",
      "start": 1459.669,
      "duration": 3.72
    },
    {
      "text": "like they started at the top of the work",
      "start": 1461.889,
      "duration": 3.51
    },
    {
      "text": "their way there did the most amazing",
      "start": 1463.389,
      "duration": 5.73
    },
    {
      "text": "feats in the 60s and 70s and since then",
      "start": 1465.399,
      "duration": 4.431
    },
    {
      "text": "I mean you had",
      "start": 1469.119,
      "duration": 4.371
    },
    {
      "text": "Space Shuttle and what no some probes",
      "start": 1469.83,
      "duration": 5.849
    },
    {
      "text": "that were launched pretty early on that",
      "start": 1473.49,
      "duration": 4.59
    },
    {
      "text": "went past Jupiter and and all that and",
      "start": 1475.679,
      "duration": 4.291
    },
    {
      "text": "and it's like well now what right and it",
      "start": 1478.08,
      "duration": 4.14
    },
    {
      "text": "just I don't know I mean one of the",
      "start": 1479.97,
      "duration": 3.54
    },
    {
      "text": "things I talked about in the show years",
      "start": 1482.22,
      "duration": 3.569
    },
    {
      "text": "ago was how the engineers who came into",
      "start": 1483.51,
      "duration": 4.11
    },
    {
      "text": "the space program in the 60s came from",
      "start": 1485.789,
      "duration": 4.681
    },
    {
      "text": "the private sector came from the free",
      "start": 1487.62,
      "duration": 5.1
    },
    {
      "text": "market and had all of the energy and",
      "start": 1490.47,
      "duration": 5.1
    },
    {
      "text": "they had all of the the work ethic at",
      "start": 1492.72,
      "duration": 4.47
    },
    {
      "text": "the dedication and the idealism that",
      "start": 1495.57,
      "duration": 4.29
    },
    {
      "text": "that comes from all of that and now you",
      "start": 1497.19,
      "duration": 4.29
    },
    {
      "text": "just got a bunch of career bureaucrats",
      "start": 1499.86,
      "duration": 3.15
    },
    {
      "text": "who just don't have that same passion",
      "start": 1501.48,
      "duration": 2.909
    },
    {
      "text": "for our discipline it's like when you",
      "start": 1503.01,
      "duration": 3.6
    },
    {
      "text": "when you nationalized the health care",
      "start": 1504.389,
      "duration": 4.561
    },
    {
      "text": "industry well you have all these doctors",
      "start": 1506.61,
      "duration": 5.22
    },
    {
      "text": "who grew up in the free market who are",
      "start": 1508.95,
      "duration": 4.41
    },
    {
      "text": "used to servicing their patients who go",
      "start": 1511.83,
      "duration": 3.03
    },
    {
      "text": "above and beyond the call of duty who",
      "start": 1513.36,
      "duration": 3.33
    },
    {
      "text": "work late who do whatever is necessary",
      "start": 1514.86,
      "duration": 3.539
    },
    {
      "text": "to go and help people and that doesn't",
      "start": 1516.69,
      "duration": 3.869
    },
    {
      "text": "immediately you know vaporize the moment",
      "start": 1518.399,
      "duration": 3.481
    },
    {
      "text": "they start working for the government so",
      "start": 1520.559,
      "duration": 3.21
    },
    {
      "text": "it you get free market discipline with",
      "start": 1521.88,
      "duration": 3.179
    },
    {
      "text": "government funding and that the thing",
      "start": 1523.769,
      "duration": 4.441
    },
    {
      "text": "seems like pure paradise for a time but",
      "start": 1525.059,
      "duration": 5.25
    },
    {
      "text": "then the institutional rot sets in the",
      "start": 1528.21,
      "duration": 4.17
    },
    {
      "text": "laziness sets in the inattention sets in",
      "start": 1530.309,
      "duration": 4.441
    },
    {
      "text": "the lack of consequences set in and then",
      "start": 1532.38,
      "duration": 4.47
    },
    {
      "text": "you have people who didn't develop their",
      "start": 1534.75,
      "duration": 3.539
    },
    {
      "text": "discipline through the free market you",
      "start": 1536.85,
      "duration": 3.24
    },
    {
      "text": "have people who really want a big fat",
      "start": 1538.289,
      "duration": 3.661
    },
    {
      "text": "government job and no consequences and",
      "start": 1540.09,
      "duration": 3.75
    },
    {
      "text": "those are exactly the opposite people as",
      "start": 1541.95,
      "duration": 4.17
    },
    {
      "text": "who started the program and you get of",
      "start": 1543.84,
      "duration": 3.9
    },
    {
      "text": "course yeah all of this diversity staff",
      "start": 1546.12,
      "duration": 3.179
    },
    {
      "text": "and all of this again eteri and stuff",
      "start": 1547.74,
      "duration": 3.299
    },
    {
      "text": "and and it's not focused on the job",
      "start": 1549.299,
      "duration": 3.781
    },
    {
      "text": "anymore it's focused on hitting numbers",
      "start": 1551.039,
      "duration": 3.781
    },
    {
      "text": "and being politically correct and oh",
      "start": 1553.08,
      "duration": 4.11
    },
    {
      "text": "it's just tragic but but that first",
      "start": 1554.82,
      "duration": 4.65
    },
    {
      "text": "cocaine hit of free-market dedication",
      "start": 1557.19,
      "duration": 4.32
    },
    {
      "text": "with government money man if you know",
      "start": 1559.47,
      "duration": 4.23
    },
    {
      "text": "literally you can hit another you can",
      "start": 1561.51,
      "duration": 5.45
    },
    {
      "text": "hit an orbiting body but it doesn't",
      "start": 1563.7,
      "duration": 6.15
    },
    {
      "text": "working I can give you a perfect example",
      "start": 1566.96,
      "duration": 4.929
    },
    {
      "text": "of that but when I was in grad school",
      "start": 1569.85,
      "duration": 3.9
    },
    {
      "text": "and I was designing stuff we have the",
      "start": 1571.889,
      "duration": 4.711
    },
    {
      "text": "shop in our basement and I would get to",
      "start": 1573.75,
      "duration": 4.38
    },
    {
      "text": "a point where I was on a drawing or",
      "start": 1576.6,
      "duration": 3.539
    },
    {
      "text": "something and I would think I have no",
      "start": 1578.13,
      "duration": 3.96
    },
    {
      "text": "idea you know what this what this curve",
      "start": 1580.139,
      "duration": 3.721
    },
    {
      "text": "should be or what this angle should be",
      "start": 1582.09,
      "duration": 3.6
    },
    {
      "text": "and maybe it doesn't really matter to me",
      "start": 1583.86,
      "duration": 3.24
    },
    {
      "text": "so what I would do is just simply take",
      "start": 1585.69,
      "duration": 4.02
    },
    {
      "text": "the drawing down to the shop so the guy",
      "start": 1587.1,
      "duration": 5.13
    },
    {
      "text": "who's actually going to build it and say",
      "start": 1589.71,
      "duration": 4.559
    },
    {
      "text": "what would you think I should do here",
      "start": 1592.23,
      "duration": 3.78
    },
    {
      "text": "and he would simply you know he would",
      "start": 1594.269,
      "duration": 3.15
    },
    {
      "text": "say was this matter to you and I said no",
      "start": 1596.01,
      "duration": 3.419
    },
    {
      "text": "and he said well the easiest thing to do",
      "start": 1597.419,
      "duration": 5.671
    },
    {
      "text": "here is this well when I got to a the",
      "start": 1599.429,
      "duration": 3.941
    },
    {
      "text": "main",
      "start": 1603.09,
      "duration": 2.56
    },
    {
      "text": "job I did in a space program we had no",
      "start": 1603.37,
      "duration": 4.5
    },
    {
      "text": "shop we designed all the components but",
      "start": 1605.65,
      "duration": 3.87
    },
    {
      "text": "the actual building of those components",
      "start": 1607.87,
      "duration": 4.04
    },
    {
      "text": "had to be farmed out to someone else",
      "start": 1609.52,
      "duration": 4.8
    },
    {
      "text": "because of all these little requirements",
      "start": 1611.91,
      "duration": 4.57
    },
    {
      "text": "because of all this bureaucracy so when",
      "start": 1614.32,
      "duration": 3.84
    },
    {
      "text": "I ran into one of those issues where I",
      "start": 1616.48,
      "duration": 3.39
    },
    {
      "text": "would normally just walk over to the guy",
      "start": 1618.16,
      "duration": 4.05
    },
    {
      "text": "who's actually going to build it maybe a",
      "start": 1619.87,
      "duration": 3.93
    },
    {
      "text": "guy who had been building that thing for",
      "start": 1622.21,
      "duration": 3.54
    },
    {
      "text": "you know 20 years and knew what he was",
      "start": 1623.8,
      "duration": 5.55
    },
    {
      "text": "doing that option was not present for me",
      "start": 1625.75,
      "duration": 5.28
    },
    {
      "text": "anymore I had to fill out all kinds of",
      "start": 1629.35,
      "duration": 3.209
    },
    {
      "text": "paperwork and triplicates",
      "start": 1631.03,
      "duration": 3.59
    },
    {
      "text": "and go to three or four different places",
      "start": 1632.559,
      "duration": 5.851
    },
    {
      "text": "before I could talk to anybody and and",
      "start": 1634.62,
      "duration": 5.32
    },
    {
      "text": "you know compare that to just walking",
      "start": 1638.41,
      "duration": 3.36
    },
    {
      "text": "downstairs and and knocking out a door",
      "start": 1639.94,
      "duration": 4.41
    },
    {
      "text": "and it's just that that's where you are",
      "start": 1641.77,
      "duration": 5.07
    },
    {
      "text": "to space program now okay so I have a",
      "start": 1644.35,
      "duration": 4.41
    },
    {
      "text": "bunch of the callers on the queue can",
      "start": 1646.84,
      "duration": 3.75
    },
    {
      "text": "you just tell people about how to find",
      "start": 1648.76,
      "duration": 4.11
    },
    {
      "text": "out the information that you want them",
      "start": 1650.59,
      "duration": 3.93
    },
    {
      "text": "to find out for for you're running for",
      "start": 1652.87,
      "duration": 3.6
    },
    {
      "text": "office and your website and all of that",
      "start": 1654.52,
      "duration": 3.27
    },
    {
      "text": "and give a brief description of other",
      "start": 1656.47,
      "duration": 4.68
    },
    {
      "text": "areas of your platform sure so my",
      "start": 1657.79,
      "duration": 6.12
    },
    {
      "text": "website is Foxworth for congress.com and",
      "start": 1661.15,
      "duration": 4.8
    },
    {
      "text": "that Foxworth like the convenien but",
      "start": 1663.91,
      "duration": 5.54
    },
    {
      "text": "without Y and then SOR Congress comm and",
      "start": 1665.95,
      "duration": 6.69
    },
    {
      "text": "I'm running on a platform to basically a",
      "start": 1669.45,
      "duration": 4.87
    },
    {
      "text": "pledge to immediately immediately",
      "start": 1672.64,
      "duration": 4.14
    },
    {
      "text": "enforce immigration laws basically you",
      "start": 1674.32,
      "duration": 4.62
    },
    {
      "text": "put me into office the day I get there",
      "start": 1676.78,
      "duration": 3.779
    },
    {
      "text": "we're gonna enforce immigration laws the",
      "start": 1678.94,
      "duration": 3.09
    },
    {
      "text": "laws are already on the books we don't",
      "start": 1680.559,
      "duration": 2.701
    },
    {
      "text": "have to work with Congress who don't",
      "start": 1682.03,
      "duration": 3.21
    },
    {
      "text": "have to pass through legislation all we",
      "start": 1683.26,
      "duration": 4.26
    },
    {
      "text": "have to do is enforce the laws so we're",
      "start": 1685.24,
      "duration": 3.6
    },
    {
      "text": "gonna do that we're going to in terms of",
      "start": 1687.52,
      "duration": 2.85
    },
    {
      "text": "action and then we're going to rework",
      "start": 1688.84,
      "duration": 3.51
    },
    {
      "text": "the legal system to end these guest",
      "start": 1690.37,
      "duration": 4.23
    },
    {
      "text": "worker programs I have all sorts of",
      "start": 1692.35,
      "duration": 4.92
    },
    {
      "text": "other plans as far as balancing the",
      "start": 1694.6,
      "duration": 4.14
    },
    {
      "text": "budget health care and everything else",
      "start": 1697.27,
      "duration": 3.539
    },
    {
      "text": "but in my opinion everything is",
      "start": 1698.74,
      "duration": 4.319
    },
    {
      "text": "downstream of immigration so that's what",
      "start": 1700.809,
      "duration": 3.87
    },
    {
      "text": "I start with all right well thanks it",
      "start": 1703.059,
      "duration": 5.25
    },
    {
      "text": "was a variable chat and I guess you can",
      "start": 1704.679,
      "duration": 5.431
    },
    {
      "text": "go and check out the website and and",
      "start": 1708.309,
      "duration": 4.051
    },
    {
      "text": "learn more about his program I really",
      "start": 1710.11,
      "duration": 4.88
    },
    {
      "text": "really appreciate that",
      "start": 1712.36,
      "duration": 2.63
    }
  ],
  "Errors": null,
  "TranscriptStderr": null
}