[
    {
        "start": "0",
        "dur": "4.92",
        "text": "hello everybody it's defend molyneux"
    },
    {
        "start": "2.19",
        "dur": "6.119",
        "text": "from freedomain radio this is true news"
    },
    {
        "start": "4.92",
        "dur": "9.24",
        "text": "a little bit of a departure or a"
    },
    {
        "start": "8.309",
        "dur": "9.06",
        "text": "different take this is a message to our"
    },
    {
        "start": "14.16",
        "dur": "4.74",
        "text": "good friends the auto workers or those"
    },
    {
        "start": "17.369",
        "dur": "3.601",
        "text": "really in the manufacturing sector as a"
    },
    {
        "start": "18.9",
        "dur": "5.539",
        "text": "whole but in in the word of the order"
    },
    {
        "start": "20.97",
        "dur": "3.469",
        "text": "etc in particular"
    },
    {
        "start": "24.88",
        "dur": "9.51",
        "text": "things not not going so well right I"
    },
    {
        "start": "31.32",
        "dur": "8.05",
        "text": "mean plants have clothes been closed"
    },
    {
        "start": "34.39",
        "dur": "6.9",
        "text": "down for weeks one of your companies is"
    },
    {
        "start": "39.37",
        "dur": "5.43",
        "text": "partnering up with the Italian company"
    },
    {
        "start": "41.29",
        "dur": "8.22",
        "text": "Fiat as in fiat currency as in the root"
    },
    {
        "start": "44.8",
        "dur": "6.39",
        "text": "of much of this mess and there seems to"
    },
    {
        "start": "49.51",
        "dur": "5.549",
        "text": "be a lot of anger and resentment and a"
    },
    {
        "start": "51.19",
        "dur": "8.64",
        "text": "lot of bling and a lot of attack against"
    },
    {
        "start": "55.059",
        "dur": "7.291",
        "text": "the system right against capitalism the"
    },
    {
        "start": "59.83",
        "dur": "4.28",
        "text": "free market voluntary trade the managers"
    },
    {
        "start": "62.35",
        "dur": "6.019",
        "text": "the banksters the executives the"
    },
    {
        "start": "64.11",
        "dur": "4.259",
        "text": "government even to some degree and"
    },
    {
        "start": "69.45",
        "dur": "5.86",
        "text": "that's all nonsense now I'm going to"
    },
    {
        "start": "73.21",
        "dur": "4.35",
        "text": "tell you the truth and you're not going"
    },
    {
        "start": "75.31",
        "dur": "3.599",
        "text": "to like it and you will feel an urge to"
    },
    {
        "start": "77.56",
        "dur": "4.169",
        "text": "attack the messenger but that's all"
    },
    {
        "start": "78.909",
        "dur": "4.53",
        "text": "right that's that's the first job of the"
    },
    {
        "start": "81.729",
        "dur": "2.971",
        "text": "philosopher is to be abune to being"
    },
    {
        "start": "83.439",
        "dur": "4.86",
        "text": "attacked for bringing the truth to"
    },
    {
        "start": "84.7",
        "dur": "5.159",
        "text": "people but I'm going to tell you what"
    },
    {
        "start": "88.299",
        "dur": "3.75",
        "text": "happened and give you the chance for an"
    },
    {
        "start": "89.859",
        "dur": "6.481",
        "text": "honorable recourse which is to admit"
    },
    {
        "start": "92.049",
        "dur": "9.121",
        "text": "fault and to work to save your children"
    },
    {
        "start": "96.34",
        "dur": "7.18",
        "text": "from where your country is sliding two"
    },
    {
        "start": "101.17",
        "dur": "5.949",
        "text": "wards"
    },
    {
        "start": "103.52",
        "dur": "5.22",
        "text": "so I'm gonna lay it out for you straight"
    },
    {
        "start": "107.119",
        "dur": "5.341",
        "text": "because I know that many of you are"
    },
    {
        "start": "108.74",
        "dur": "6.15",
        "text": "straight talkers or appreciate that the"
    },
    {
        "start": "112.46",
        "dur": "6.149",
        "text": "reason that the things have gotten so"
    },
    {
        "start": "114.89",
        "dur": "5.49",
        "text": " up it's not because of foreign"
    },
    {
        "start": "118.609",
        "dur": "3.57",
        "text": "competition it's not because of NAFTA"
    },
    {
        "start": "120.38",
        "dur": "4.11",
        "text": "it's not because of Mexican laborers"
    },
    {
        "start": "122.179",
        "dur": "3.9",
        "text": "it's not because of Wall Street it's not"
    },
    {
        "start": "124.49",
        "dur": "4.079",
        "text": "because of the executives it's not"
    },
    {
        "start": "126.079",
        "dur": "4.35",
        "text": "because of any of that nonsense and the"
    },
    {
        "start": "128.569",
        "dur": "4.17",
        "text": "degree to which you cling to these silly"
    },
    {
        "start": "130.429",
        "dur": "4.2",
        "text": "fantasies is the degree to which you are"
    },
    {
        "start": "132.739",
        "dur": "3.36",
        "text": "just making life worse and worse and"
    },
    {
        "start": "134.629",
        "dur": "4.561",
        "text": "worse for those who come after you in"
    },
    {
        "start": "136.099",
        "dur": "9.061",
        "text": "particular your own children"
    },
    {
        "start": "139.19",
        "dur": "8.37",
        "text": "the reason why the government is"
    },
    {
        "start": "145.16",
        "dur": "5.64",
        "text": "appointing people to your boards of"
    },
    {
        "start": "147.56",
        "dur": "4.8",
        "text": "directors and taking huge stakes in"
    },
    {
        "start": "150.8",
        "dur": "4.92",
        "text": "these companies and the reason you've"
    },
    {
        "start": "152.36",
        "dur": "6.76",
        "text": "become so desperately and pathetically"
    },
    {
        "start": "155.72",
        "dur": "5.32",
        "text": "addicted to independent upon the forced"
    },
    {
        "start": "159.12",
        "dur": "5.7",
        "text": "extraction of money from your fellow"
    },
    {
        "start": "161.04",
        "dur": "6.15",
        "text": "citizens is because and I'm going to use"
    },
    {
        "start": "164.82",
        "dur": "3.42",
        "text": "a collective term here just understand"
    },
    {
        "start": "167.19",
        "dur": "2.55",
        "text": "that may not be speaking to you"
    },
    {
        "start": "168.24",
        "dur": "2.7",
        "text": "individually but you're part of a"
    },
    {
        "start": "169.74",
        "dur": "5.61",
        "text": "movement you know those who are"
    },
    {
        "start": "170.94",
        "dur": "9.71",
        "text": "unionized because it's all gotten"
    },
    {
        "start": "175.35",
        "dur": "8.73",
        "text": "up because you went for the gun right"
    },
    {
        "start": "180.65",
        "dur": "4.96",
        "text": "you went for the gun right after the"
    },
    {
        "start": "184.08",
        "dur": "5.129",
        "text": "Second World War things were pretty good"
    },
    {
        "start": "185.61",
        "dur": "6.33",
        "text": "in the blue-collar sector one guy could"
    },
    {
        "start": "189.209",
        "dur": "5.071",
        "text": "support a wife and two kids a house"
    },
    {
        "start": "191.94",
        "dur": "7.769",
        "text": "maybe even a car things were pretty good"
    },
    {
        "start": "194.28",
        "dur": "8.01",
        "text": "and then and it started really in the"
    },
    {
        "start": "199.709",
        "dur": "6.471",
        "text": "60s but really grew in the 70s a bunch"
    },
    {
        "start": "202.29",
        "dur": "5.49",
        "text": "of people came along to you and said"
    },
    {
        "start": "206.18",
        "dur": "4.15",
        "text": "probably with the help of Bruce"
    },
    {
        "start": "207.78",
        "dur": "5.76",
        "text": "Springsteen how you were the real"
    },
    {
        "start": "210.33",
        "dur": "6.75",
        "text": "workers and you deserved more and you"
    },
    {
        "start": "213.54",
        "dur": "6.26",
        "text": "deserved even more free health care and"
    },
    {
        "start": "217.08",
        "dur": "2.72",
        "text": "you deserved"
    },
    {
        "start": "220.15",
        "dur": "5.339",
        "text": "six weeks or four weeks vacation a year"
    },
    {
        "start": "222.939",
        "dur": "4.44",
        "text": "and you deserved a big raise and you"
    },
    {
        "start": "225.489",
        "dur": "4.741",
        "text": "deserved all of this stuff because you"
    },
    {
        "start": "227.379",
        "dur": "5.881",
        "text": "were the real worker and the managers"
    },
    {
        "start": "230.23",
        "dur": "5.13",
        "text": "were against your interests and you were"
    },
    {
        "start": "233.26",
        "dur": "6.21",
        "text": "the ones who made this company really"
    },
    {
        "start": "235.36",
        "dur": "5.28",
        "text": "run and you deserved more now there's"
    },
    {
        "start": "239.47",
        "dur": "2.519",
        "text": "nothing wrong with thinking you deserve"
    },
    {
        "start": "240.64",
        "dur": "2.549",
        "text": "more and there's nothing wrong with"
    },
    {
        "start": "241.989",
        "dur": "4.17",
        "text": "getting together with your friends and"
    },
    {
        "start": "243.189",
        "dur": "4.681",
        "text": "saying let's have a strike to get more"
    },
    {
        "start": "246.159",
        "dur": "3.601",
        "text": "more power to you I think that's"
    },
    {
        "start": "247.87",
        "dur": "4.199",
        "text": "wonderful I think that's very empowering"
    },
    {
        "start": "249.76",
        "dur": "5.03",
        "text": "but that's see if you all decide to go"
    },
    {
        "start": "252.069",
        "dur": "6.781",
        "text": "on strike that's still voluntary"
    },
    {
        "start": "254.79",
        "dur": "5.77",
        "text": "interaction right there's no gun if"
    },
    {
        "start": "258.85",
        "dur": "3.03",
        "text": "everybody just decides to walk out and"
    },
    {
        "start": "260.56",
        "dur": "2.85",
        "text": "I've been a business owner I know what"
    },
    {
        "start": "261.88",
        "dur": "4.259",
        "text": "that's like if everyone just decides to"
    },
    {
        "start": "263.41",
        "dur": "5.789",
        "text": "walk out business owners kind of screwed"
    },
    {
        "start": "266.139",
        "dur": "4.53",
        "text": "right and so there's a lot of power in"
    },
    {
        "start": "269.199",
        "dur": "3",
        "text": "that kind of collective action but"
    },
    {
        "start": "270.669",
        "dur": "4.521",
        "text": "there's no gun everybody decides to quit"
    },
    {
        "start": "272.199",
        "dur": "4.921",
        "text": "or walk out or not come to work that is"
    },
    {
        "start": "275.19",
        "dur": "8.02",
        "text": "strike and that can be a very honorable"
    },
    {
        "start": "277.12",
        "dur": "9.019",
        "text": "thing it's no gun right but you didn't"
    },
    {
        "start": "283.21",
        "dur": "4.95",
        "text": "feel quite comfortable with that did you"
    },
    {
        "start": "286.139",
        "dur": "3.791",
        "text": "didn't feel quite comfortable with that"
    },
    {
        "start": "288.16",
        "dur": "3.3",
        "text": "risk perhaps after you saw what Reagan"
    },
    {
        "start": "289.93",
        "dur": "4.14",
        "text": "did to the airline traffic controllers"
    },
    {
        "start": "291.46",
        "dur": "4.62",
        "text": "and fired them all didn't really feel"
    },
    {
        "start": "294.07",
        "dur": "7.099",
        "text": "comfortable with that so what you"
    },
    {
        "start": "296.08",
        "dur": "8.28",
        "text": "decided to do was to go for the gun and"
    },
    {
        "start": "301.169",
        "dur": "6.461",
        "text": "that means pressuring the government"
    },
    {
        "start": "304.36",
        "dur": "5.61",
        "text": "through your union representatives to"
    },
    {
        "start": "307.63",
        "dur": "3.9",
        "text": "reduce foreign competition through taxes"
    },
    {
        "start": "309.97",
        "dur": "7.86",
        "text": "and import duties and restrictions on"
    },
    {
        "start": "311.53",
        "dur": "7.889",
        "text": "trade to make it illegal to hire what"
    },
    {
        "start": "317.83",
        "dur": "4.41",
        "text": "are called scabs or replacement workers"
    },
    {
        "start": "319.419",
        "dur": "5.071",
        "text": "sorry so if you'll go on strike can't go"
    },
    {
        "start": "322.24",
        "dur": "4.919",
        "text": "and hire other people to make it illegal"
    },
    {
        "start": "324.49",
        "dur": "6.48",
        "text": "to compete through licensing and various"
    },
    {
        "start": "327.159",
        "dur": "5.281",
        "text": "kinds of gun based robbery which"
    },
    {
        "start": "330.97",
        "dur": "5.37",
        "text": "prevents other people from doing your"
    },
    {
        "start": "332.44",
        "dur": "6.78",
        "text": "job unless they complete some completely"
    },
    {
        "start": "336.34",
        "dur": "4.319",
        "text": "ridiculous and lengthy internship like"
    },
    {
        "start": "339.22",
        "dur": "4.22",
        "text": "it takes years and years to become an"
    },
    {
        "start": "340.659",
        "dur": "2.781",
        "text": "electrician please"
    },
    {
        "start": "345.24",
        "dur": "7.44",
        "text": "so you went for the gun you went for the"
    },
    {
        "start": "349.08",
        "dur": "6.03",
        "text": "state you went for the power of violence"
    },
    {
        "start": "352.68",
        "dur": "3.84",
        "text": "so that those and sometimes directly"
    },
    {
        "start": "355.11",
        "dur": "3.75",
        "text": "write that you would beat up people who"
    },
    {
        "start": "356.52",
        "dur": "4.079",
        "text": "crust your strike lines and that did"
    },
    {
        "start": "358.86",
        "dur": "5.399",
        "text": "happen and there was violence and of"
    },
    {
        "start": "360.599",
        "dur": "6.391",
        "text": "course people associate unions with the"
    },
    {
        "start": "364.259",
        "dur": "5.19",
        "text": "Mafia which is entirely inconsequential"
    },
    {
        "start": "366.99",
        "dur": "4.5",
        "text": "in my opinion the real Mafia that the"
    },
    {
        "start": "369.449",
        "dur": "3.72",
        "text": "unions are associated with is the"
    },
    {
        "start": "371.49",
        "dur": "6.54",
        "text": "infinite power of a centralized"
    },
    {
        "start": "373.169",
        "dur": "7.711",
        "text": "government of the centralized state so"
    },
    {
        "start": "378.03",
        "dur": "4.949",
        "text": "you wanted stuff and people slithered in"
    },
    {
        "start": "380.88",
        "dur": "5.039",
        "text": "right whenever people get greedy this is"
    },
    {
        "start": "382.979",
        "dur": "5.31",
        "text": "how people control you and and even more"
    },
    {
        "start": "385.919",
        "dur": "3.75",
        "text": "tragically control your children if they"
    },
    {
        "start": "388.289",
        "dur": "4.35",
        "text": "will tell you that you're entitled to"
    },
    {
        "start": "389.669",
        "dur": "5.191",
        "text": "more than you're getting and they will"
    },
    {
        "start": "392.639",
        "dur": "4.801",
        "text": "also say that you don't actually really"
    },
    {
        "start": "394.86",
        "dur": "5.07",
        "text": "have to take the risk of trying to get"
    },
    {
        "start": "397.44",
        "dur": "4.8",
        "text": "it yourself or even collectively so all"
    },
    {
        "start": "399.93",
        "dur": "3.54",
        "text": "you deserve twenty percent more pay it's"
    },
    {
        "start": "402.24",
        "dur": "2.579",
        "text": "like okay well go in and try and"
    },
    {
        "start": "403.47",
        "dur": "2.669",
        "text": "negotiate that and you'll find out"
    },
    {
        "start": "404.819",
        "dur": "3.09",
        "text": "whether you're actually worth twenty"
    },
    {
        "start": "406.139",
        "dur": "6.381",
        "text": "percent more pay not from your business"
    },
    {
        "start": "407.909",
        "dur": "6.75",
        "text": "owners but from your customers right"
    },
    {
        "start": "412.52",
        "dur": "4.119",
        "text": "because if you're worth twenty percent"
    },
    {
        "start": "414.659",
        "dur": "3.961",
        "text": "more than the price of the car is going"
    },
    {
        "start": "416.639",
        "dur": "4.171",
        "text": "to go up twenty percent more or less and"
    },
    {
        "start": "418.62",
        "dur": "4.44",
        "text": "if the customers are happy with that"
    },
    {
        "start": "420.81",
        "dur": "3.659",
        "text": "then they will buy that car that's"
    },
    {
        "start": "423.06",
        "dur": "4.109",
        "text": "twenty percent more because they just"
    },
    {
        "start": "424.469",
        "dur": "4.23",
        "text": "love you and want you to get paid more"
    },
    {
        "start": "427.169",
        "dur": "4.261",
        "text": "but if they then decide to go to some"
    },
    {
        "start": "428.699",
        "dur": "4.141",
        "text": "other foreign or other manufacturer"
    },
    {
        "start": "431.43",
        "dur": "2.88",
        "text": "who's not giving twenty percent raises"
    },
    {
        "start": "432.84",
        "dur": "4.079",
        "text": "then you'll quickly find out that you're"
    },
    {
        "start": "434.31",
        "dur": "4.169",
        "text": "not worth twenty percent more so you"
    },
    {
        "start": "436.919",
        "dur": "2.791",
        "text": "wanted the twenty percent more that's"
    },
    {
        "start": "438.479",
        "dur": "4.47",
        "text": "what people do they'll come in and I'll"
    },
    {
        "start": "439.71",
        "dur": "5.429",
        "text": "say I can get you more and you don't"
    },
    {
        "start": "442.949",
        "dur": "4.921",
        "text": "have to take the risk of actually trying"
    },
    {
        "start": "445.139",
        "dur": "5.221",
        "text": "to negotiate it for yourself don't worry"
    },
    {
        "start": "447.87",
        "dur": "4.169",
        "text": "you deserve more and I'm going to go to"
    },
    {
        "start": "450.36",
        "dur": "3.299",
        "text": "the congressman and I'm going to go to"
    },
    {
        "start": "452.039",
        "dur": "3.75",
        "text": "the Senate and I'm going to go and rouse"
    },
    {
        "start": "453.659",
        "dur": "3.54",
        "text": "up the politicians and I'm going to get"
    },
    {
        "start": "455.789",
        "dur": "3.531",
        "text": "a media campaign and we're going to get"
    },
    {
        "start": "457.199",
        "dur": "6.881",
        "text": "a law passed"
    },
    {
        "start": "459.32",
        "dur": "7.29",
        "text": "and it's going to guarantee you more"
    },
    {
        "start": "464.08",
        "dur": "6.37",
        "text": "more vacation more healthcare more"
    },
    {
        "start": "466.61",
        "dur": "7.77",
        "text": "pensions more pay more job security less"
    },
    {
        "start": "470.45",
        "dur": "6.45",
        "text": "competition better hours time-and-a-half"
    },
    {
        "start": "474.38",
        "dur": "4.71",
        "text": "for overtime nighttime work we're going"
    },
    {
        "start": "476.9",
        "dur": "3.75",
        "text": "to get you more and you're not going to"
    },
    {
        "start": "479.09",
        "dur": "3.39",
        "text": "have to lift the goddamn finger you're"
    },
    {
        "start": "480.65",
        "dur": "6.03",
        "text": "not going to have to take any risk we"
    },
    {
        "start": "482.48",
        "dur": "6.34",
        "text": "will just give you more by going for the"
    },
    {
        "start": "486.68",
        "dur": "4.57",
        "text": "gun"
    },
    {
        "start": "488.82",
        "dur": "5.43",
        "text": "by getting laws passed in your favor"
    },
    {
        "start": "491.25",
        "dur": "5.49",
        "text": "that have people arrested and thrown in"
    },
    {
        "start": "494.25",
        "dur": "6.51",
        "text": "jail for having the temerity and the"
    },
    {
        "start": "496.74",
        "dur": "6.98",
        "text": "audacity to compete with you in a free"
    },
    {
        "start": "500.76",
        "dur": "2.96",
        "text": "market environment"
    },
    {
        "start": "506.67",
        "dur": "10.2",
        "text": "now come on you know deep deep deep down"
    },
    {
        "start": "512.25",
        "dur": "6.57",
        "text": "in your heart that this was a far from"
    },
    {
        "start": "516.87",
        "dur": "7.7",
        "text": "honorable course of action and that"
    },
    {
        "start": "518.82",
        "dur": "5.75",
        "text": "nothing in this life ever comes for free"
    },
    {
        "start": "524.9",
        "dur": "9.94",
        "text": "so when you got more it wasn't going to"
    },
    {
        "start": "530.04",
        "dur": "8.16",
        "text": "last if you price yourself out of a"
    },
    {
        "start": "534.84",
        "dur": "5.55",
        "text": "market and use the government to"
    },
    {
        "start": "538.2",
        "dur": "5.21",
        "text": "artificially prop up those wages with"
    },
    {
        "start": "540.39",
        "dur": "3.02",
        "text": "the power of the gun"
    },
    {
        "start": "544.05",
        "dur": "6.05",
        "text": "you're just selling your soul to the"
    },
    {
        "start": "546.209",
        "dur": "3.891",
        "text": "devil and not even for that much"
    },
    {
        "start": "550.92",
        "dur": "10.22",
        "text": "and so now that it's all collapsing"
    },
    {
        "start": "557.3",
        "dur": "8.33",
        "text": "everybody wants to avoid this basic"
    },
    {
        "start": "561.14",
        "dur": "7.02",
        "text": "reality that the unions went for the gun"
    },
    {
        "start": "565.63",
        "dur": "7.95",
        "text": "sold their souls sold the souls of the"
    },
    {
        "start": "568.16",
        "dur": "5.42",
        "text": "workers to the Mafia of the state and"
    },
    {
        "start": "574.839",
        "dur": "4.301",
        "text": "gained a little bit for a while right"
    },
    {
        "start": "577.55",
        "dur": "4.83",
        "text": "your paycheck went up you had more job"
    },
    {
        "start": "579.14",
        "dur": "6.06",
        "text": "security right but everything comes at a"
    },
    {
        "start": "582.38",
        "dur": "4.639",
        "text": "cost it's like saying someone who is"
    },
    {
        "start": "585.2",
        "dur": "3.96",
        "text": "taking heroin seems to be very happy"
    },
    {
        "start": "587.019",
        "dur": "5.921",
        "text": "doesn't have to work on their problems"
    },
    {
        "start": "589.16",
        "dur": "6.119",
        "text": "well there's a price to be paid for any"
    },
    {
        "start": "592.94",
        "dur": "4.69",
        "text": "artificial theft and inflation of wages"
    },
    {
        "start": "595.279",
        "dur": "5.681",
        "text": "and working conditions"
    },
    {
        "start": "597.63",
        "dur": "5.01",
        "text": "and the really tragic thing about what"
    },
    {
        "start": "600.96",
        "dur": "4.49",
        "text": "is happening to the auto industry into"
    },
    {
        "start": "602.64",
        "dur": "7.37",
        "text": "the manufacturing sector as a whole is"
    },
    {
        "start": "605.45",
        "dur": "4.56",
        "text": "that if you decide to"
    },
    {
        "start": "611.29",
        "dur": "3.96",
        "text": "get the Mafia to get you some money if"
    },
    {
        "start": "613.75",
        "dur": "3.18",
        "text": "you decide to borrow from the Mafia"
    },
    {
        "start": "615.25",
        "dur": "2.82",
        "text": "which is really all that preferential"
    },
    {
        "start": "616.93",
        "dur": "4.8",
        "text": "legislation does you're just borrowing"
    },
    {
        "start": "618.07",
        "dur": "4.769",
        "text": "from the Mafia is that the bill will"
    },
    {
        "start": "621.73",
        "dur": "3.39",
        "text": "come to you when the bill has been"
    },
    {
        "start": "622.839",
        "dur": "5.581",
        "text": "coming to you in terms of the wages that"
    },
    {
        "start": "625.12",
        "dur": "6.93",
        "text": "have peaked and are now collapsing over"
    },
    {
        "start": "628.42",
        "dur": "5.789",
        "text": "the past 20 years or so and your"
    },
    {
        "start": "632.05",
        "dur": "5.599",
        "text": "children now have no where to go they"
    },
    {
        "start": "634.209",
        "dur": "8.341",
        "text": "have no jobs to get a hold of because"
    },
    {
        "start": "637.649",
        "dur": "9",
        "text": "you sold your souls to the Mafia for a"
    },
    {
        "start": "642.55",
        "dur": "6.74",
        "text": "few points on the dollar it's so sad"
    },
    {
        "start": "646.649",
        "dur": "5.701",
        "text": "it's so"
    },
    {
        "start": "649.29",
        "dur": "4.469",
        "text": "what a terrible deal you know if you're"
    },
    {
        "start": "652.35",
        "dur": "4.409",
        "text": "going to sell your soul to mafia at"
    },
    {
        "start": "653.759",
        "dur": "6.361",
        "text": "least get the Taj Mahal 30 pieces of"
    },
    {
        "start": "656.759",
        "dur": "4.591",
        "text": "silver doesn't really seem to cut it at"
    },
    {
        "start": "660.12",
        "dur": "3.589",
        "text": "the really tragic thing is that if you"
    },
    {
        "start": "661.35",
        "dur": "7.039",
        "text": "end up in debt to the Mafia most times"
    },
    {
        "start": "663.709",
        "dur": "4.68",
        "text": "they won't go after your children"
    },
    {
        "start": "668.75",
        "dur": "5.28",
        "text": "but that's not the way it works with the"
    },
    {
        "start": "671.12",
        "dur": "6.53",
        "text": "state you sell your souls of the state"
    },
    {
        "start": "674.03",
        "dur": "5.67",
        "text": "you will get your 30 pieces of silver"
    },
    {
        "start": "677.65",
        "dur": "5.82",
        "text": "but the federal government and the"
    },
    {
        "start": "679.7",
        "dur": "7.74",
        "text": "Chinese will end up owning your children"
    },
    {
        "start": "683.47",
        "dur": "6.07",
        "text": "so fess up you went for the gun it was"
    },
    {
        "start": "687.44",
        "dur": "3.99",
        "text": "dishonorable you did the entirely wrong"
    },
    {
        "start": "689.54",
        "dur": "5.1",
        "text": "thing and your children will pay the"
    },
    {
        "start": "691.43",
        "dur": "5.97",
        "text": "greatest price so stop telling us all"
    },
    {
        "start": "694.64",
        "dur": "4.44",
        "text": "how hard done by you are fess up to the"
    },
    {
        "start": "697.4",
        "dur": "3.83",
        "text": "immorality that you have committed and"
    },
    {
        "start": "699.08",
        "dur": "5.15",
        "text": "let's work to clean up this mess"
    },
    {
        "start": "701.23",
        "dur": "3",
        "text": "collectively"
    }
]