[
    {
        "start": "0",
        "dur": "5.759",
        "text": "hi everybody fan molyneux from"
    },
    {
        "start": "1.56",
        "dur": "8.13",
        "text": "freedomain radio August the 28th 2011 at"
    },
    {
        "start": "5.759",
        "dur": "5.401",
        "text": "2 p.m. ish and it's the Sunday call-in"
    },
    {
        "start": "9.69",
        "dur": "4.079",
        "text": "show I'm just gonna record the intro for"
    },
    {
        "start": "11.16",
        "dur": "4.86",
        "text": "video so a few people more than a few"
    },
    {
        "start": "13.769",
        "dur": "5.43",
        "text": "people have sent me a recent article put"
    },
    {
        "start": "16.02",
        "dur": "7.679",
        "text": "out by a fine writer called why I am NOT"
    },
    {
        "start": "19.199",
        "dur": "5.941",
        "text": "a libertarian and so I thought we just I"
    },
    {
        "start": "23.699",
        "dur": "3.83",
        "text": "haven't read it yet I kind of like this"
    },
    {
        "start": "25.14",
        "dur": "4.83",
        "text": "doing it life and see how that goes"
    },
    {
        "start": "27.529",
        "dur": "3.67",
        "text": "says so he writes of all the political"
    },
    {
        "start": "29.97",
        "dur": "2.97",
        "text": "movements out there the libertarians"
    },
    {
        "start": "31.199",
        "dur": "2.911",
        "text": "have the coolest rhetoric no matter what"
    },
    {
        "start": "32.94",
        "dur": "2.73",
        "text": "the issue is they get to talk about"
    },
    {
        "start": "34.11",
        "dur": "3.539",
        "text": "freedom versus tyranny and quote all"
    },
    {
        "start": "35.67",
        "dur": "4.59",
        "text": "that rousing stuff the founder said"
    },
    {
        "start": "37.649",
        "dur": "4.59",
        "text": "about King George it's also the perfect"
    },
    {
        "start": "40.26",
        "dur": "3.69",
        "text": "belief system for a young male and maybe"
    },
    {
        "start": "42.239",
        "dur": "3.691",
        "text": "by now young females - you don't need"
    },
    {
        "start": "43.95",
        "dur": "3.539",
        "text": "knowledge or experience of any specific"
    },
    {
        "start": "45.93",
        "dur": "3.449",
        "text": "situations you just need to understand"
    },
    {
        "start": "47.489",
        "dur": "4.14",
        "text": "the one big idea that solves everything"
    },
    {
        "start": "49.379",
        "dur": "4.561",
        "text": "other than a small and approximately"
    },
    {
        "start": "51.629",
        "dur": "3.57",
        "text": "humbled and appropriately humbled"
    },
    {
        "start": "53.94",
        "dur": "4.349",
        "text": "military and judicial establishment"
    },
    {
        "start": "55.199",
        "dur": "4.471",
        "text": "government is bad protect life protect"
    },
    {
        "start": "58.289",
        "dur": "3.871",
        "text": "property enforce contracts and leave"
    },
    {
        "start": "59.67",
        "dur": "4.769",
        "text": "everything else to the market I should"
    },
    {
        "start": "62.16",
        "dur": "3.66",
        "text": "know he writes 35 years ago I was a 19"
    },
    {
        "start": "64.439",
        "dur": "3.901",
        "text": "year old libertarian and I learned all"
    },
    {
        "start": "65.82",
        "dur": "5.13",
        "text": "the arguments now I'm a progressive a"
    },
    {
        "start": "68.34",
        "dur": "4.41",
        "text": "liberal whatever these days even I have"
    },
    {
        "start": "70.95",
        "dur": "5.94",
        "text": "to shake my head at how often I'm"
    },
    {
        "start": "72.75",
        "dur": "7.619",
        "text": "tempted to quote marks I think he means"
    },
    {
        "start": "76.89",
        "dur": "5.22",
        "text": "Carl not Richard what happened well I"
    },
    {
        "start": "80.369",
        "dur": "3.451",
        "text": "suppose I could stroke my white beard"
    },
    {
        "start": "82.11",
        "dur": "4.71",
        "text": "and pontificate vaguely about the"
    },
    {
        "start": "83.82",
        "dur": "4.409",
        "text": "benefits of 35 years and have experience"
    },
    {
        "start": "86.82",
        "dur": "3.659",
        "text": "but I'm thinking that a decent respect"
    },
    {
        "start": "88.229",
        "dur": "4.591",
        "text": "to the opinions of mankind requires me"
    },
    {
        "start": "90.479",
        "dur": "4.561",
        "text": "to be a little bit more specific when"
    },
    {
        "start": "92.82",
        "dur": "4.08",
        "text": "you escape a sweeping worldview like"
    },
    {
        "start": "95.04",
        "dur": "3.45",
        "text": "libertarianism you usually don't find an"
    },
    {
        "start": "96.9",
        "dur": "3.24",
        "text": "equally sweeping critique right away a"
    },
    {
        "start": "98.49",
        "dur": "3.989",
        "text": "broad reframing may come later but the"
    },
    {
        "start": "100.14",
        "dur": "4.049",
        "text": "transformation starts with a few things"
    },
    {
        "start": "102.479",
        "dur": "5.011",
        "text": "that stick in your craw and refuse to"
    },
    {
        "start": "104.189",
        "dur": "4.561",
        "text": "let themselves be swallowed sweet mother"
    },
    {
        "start": "107.49",
        "dur": "3.51",
        "text": "of god I mean this guy's not a bad"
    },
    {
        "start": "108.75",
        "dur": "4.049",
        "text": "writer but lordy Lordy lordy can we make"
    },
    {
        "start": "111",
        "dur": "2.88",
        "text": "an argument at some point ok so he says"
    },
    {
        "start": "112.799",
        "dur": "2.671",
        "text": "for example when I was leaving"
    },
    {
        "start": "113.88",
        "dur": "3.629",
        "text": "fundamentalist Christianity one of the"
    },
    {
        "start": "115.47",
        "dur": "4.38",
        "text": "first things that bothered me was the"
    },
    {
        "start": "117.509",
        "dur": "4.591",
        "text": "genealogy of Jesus the Bible contains"
    },
    {
        "start": "119.85",
        "dur": "4.29",
        "text": "two irreconcilable ones in Matthew and"
    },
    {
        "start": "122.1",
        "dur": "4.619",
        "text": "Luke and they can't both be the gospel"
    },
    {
        "start": "124.14",
        "dur": "4.53",
        "text": "truth now decades later that issue is"
    },
    {
        "start": "126.719",
        "dur": "4.621",
        "text": "nowhere near the top of my why I am NOT"
    },
    {
        "start": "128.67",
        "dur": "4.86",
        "text": "a fundamentalist list I can understand"
    },
    {
        "start": "131.34",
        "dur": "2.4",
        "text": "that so let me start with some specifics"
    },
    {
        "start": "133.53",
        "dur": "1.23",
        "text": "imp"
    },
    {
        "start": "133.74",
        "dur": "3.21",
        "text": "things before I launch in a more"
    },
    {
        "start": "134.76",
        "dur": "4.98",
        "text": "abstract philosophy plague"
    },
    {
        "start": "136.95",
        "dur": "4.59",
        "text": "I recommend that anyone thinking about"
    },
    {
        "start": "139.74",
        "dur": "3.75",
        "text": "becoming a libertarian read the great"
    },
    {
        "start": "141.54",
        "dur": "3.54",
        "text": "influenza by John Barry it doesn't say a"
    },
    {
        "start": "143.49",
        "dur": "3.59",
        "text": "word about political philosophy but it"
    },
    {
        "start": "145.08",
        "dur": "4.86",
        "text": "does compare how various American cities"
    },
    {
        "start": "147.08",
        "dur": "4.36",
        "text": "handled the Spanish flu of 1918 which"
    },
    {
        "start": "149.94",
        "dur": "3.93",
        "text": "globally killed more people than World"
    },
    {
        "start": "151.44",
        "dur": "4.32",
        "text": "War 1 the cities that did best were the"
    },
    {
        "start": "153.87",
        "dur": "3.6",
        "text": "ones that aggressively quarantined shut"
    },
    {
        "start": "155.76",
        "dur": "3.8",
        "text": "down public meeting places imposed"
    },
    {
        "start": "157.47",
        "dur": "8.19",
        "text": "hygiene standards and in general behaved"
    },
    {
        "start": "159.56",
        "dur": "7.36",
        "text": "like tyrants okay so other than the gent"
    },
    {
        "start": "165.66",
        "dur": "3",
        "text": "like you know when you're gonna start"
    },
    {
        "start": "166.92",
        "dur": "4.05",
        "text": "out with generalized insults like well I"
    },
    {
        "start": "168.66",
        "dur": "3.36",
        "text": "was young and it's a perfect philosophy"
    },
    {
        "start": "170.97",
        "dur": "2.46",
        "text": "for a young person who doesn't"
    },
    {
        "start": "172.02",
        "dur": "3.5",
        "text": "understand anything about anything and"
    },
    {
        "start": "173.43",
        "dur": "4.08",
        "text": "wants to you know when you escape and"
    },
    {
        "start": "175.52",
        "dur": "3.07",
        "text": "libertarian is not a worldview the"
    },
    {
        "start": "177.51",
        "dur": "2.82",
        "text": "non-aggression principle is not a"
    },
    {
        "start": "178.59",
        "dur": "2.85",
        "text": "worldview like you know stand over here"
    },
    {
        "start": "180.33",
        "dur": "2.67",
        "text": "it looks a little different stand over"
    },
    {
        "start": "181.44",
        "dur": "6.69",
        "text": "here it's a little different it's not a"
    },
    {
        "start": "183",
        "dur": "8.49",
        "text": "well view it's the principle and so no"
    },
    {
        "start": "188.13",
        "dur": "5.61",
        "text": "arguments yet and then plague Oh plague"
    },
    {
        "start": "191.49",
        "dur": "4.89",
        "text": "plague of all especially the Spanish"
    },
    {
        "start": "193.74",
        "dur": "4.5",
        "text": "plague of the post-world War one period"
    },
    {
        "start": "196.38",
        "dur": "3.24",
        "text": "this is yeah huge numbers of people I"
    },
    {
        "start": "198.24",
        "dur": "3.87",
        "text": "think 20 million people around the world"
    },
    {
        "start": "199.62",
        "dur": "4.05",
        "text": "died the plague was an entirely statist"
    },
    {
        "start": "202.11",
        "dur": "4.35",
        "text": "phenomenon to begin with the plague"
    },
    {
        "start": "203.67",
        "dur": "4.37",
        "text": "occurred when masses of soldiers were"
    },
    {
        "start": "206.46",
        "dur": "5.67",
        "text": "decommissioned at the end of World War"
    },
    {
        "start": "208.04",
        "dur": "6.4",
        "text": "one and returned home so the war was not"
    },
    {
        "start": "212.13",
        "dur": "4.95",
        "text": "exactly a libertarian or anarchist or"
    },
    {
        "start": "214.44",
        "dur": "4.65",
        "text": "free-market endeavor the the First World"
    },
    {
        "start": "217.08",
        "dur": "4.11",
        "text": "War was in an entirely status phenomenon"
    },
    {
        "start": "219.09",
        "dur": "5.37",
        "text": "and so I'm not really sure how the"
    },
    {
        "start": "221.19",
        "dur": "4.92",
        "text": "failure of a plague generated by the"
    },
    {
        "start": "224.46",
        "dur": "4.95",
        "text": "state and the failure of certain"
    },
    {
        "start": "226.11",
        "dur": "4.92",
        "text": "government agencies to deal with that is"
    },
    {
        "start": "229.41",
        "dur": "3.12",
        "text": "somehow a vindication of the government"
    },
    {
        "start": "231.03",
        "dur": "4.11",
        "text": "again this just stuff it blows my mind"
    },
    {
        "start": "232.53",
        "dur": "4.65",
        "text": "but and of course if you live in a free"
    },
    {
        "start": "235.14",
        "dur": "3.51",
        "text": "society people are probably going to"
    },
    {
        "start": "237.18",
        "dur": "3.74",
        "text": "have lots of health insurance and the"
    },
    {
        "start": "238.65",
        "dur": "5.07",
        "text": "health insurance is going to contain"
    },
    {
        "start": "240.92",
        "dur": "5.5",
        "text": "various fine print mechanisms for"
    },
    {
        "start": "243.72",
        "dur": "4.59",
        "text": "dealing with with plague or dealing with"
    },
    {
        "start": "246.42",
        "dur": "3.24",
        "text": "some sort of outbreak because insurance"
    },
    {
        "start": "248.31",
        "dur": "3.899",
        "text": "companies don't want everyone to get"
    },
    {
        "start": "249.66",
        "dur": "4.2",
        "text": "sick if their health insurance so it's"
    },
    {
        "start": "252.209",
        "dur": "3",
        "text": "not a problem that the free market can't"
    },
    {
        "start": "253.86",
        "dur": "3.78",
        "text": "deal with it's just this is entirely"
    },
    {
        "start": "255.209",
        "dur": "4.021",
        "text": "created the whole Spanish influence is"
    },
    {
        "start": "257.64",
        "dur": "5.4",
        "text": "entirely created by the government let's"
    },
    {
        "start": "259.23",
        "dur": "5.189",
        "text": "see here global warming there's a reason"
    },
    {
        "start": "263.04",
        "dur": "3.21",
        "text": "why small government candidates deny"
    },
    {
        "start": "264.419",
        "dur": "3.25",
        "text": "global warming denial it's the only"
    },
    {
        "start": "266.25",
        "dur": "3.129",
        "text": "answer they have global"
    },
    {
        "start": "267.669",
        "dur": "3.661",
        "text": "is a collective problem and there is no"
    },
    {
        "start": "269.379",
        "dur": "3.6",
        "text": "individualistic solution to it even"
    },
    {
        "start": "271.33",
        "dur": "3.059",
        "text": "market-based approaches like cap and"
    },
    {
        "start": "272.979",
        "dur": "2.851",
        "text": "trade require a massive government"
    },
    {
        "start": "274.389",
        "dur": "5.041",
        "text": "intervention to create the market that"
    },
    {
        "start": "275.83",
        "dur": "5.85",
        "text": "attacks the problem I again I'm not sure"
    },
    {
        "start": "279.43",
        "dur": "5.459",
        "text": "how global warming is a free-market"
    },
    {
        "start": "281.68",
        "dur": "5.85",
        "text": "created or caused problem the government"
    },
    {
        "start": "284.889",
        "dur": "4.65",
        "text": "has been controlling pollution for about"
    },
    {
        "start": "287.53",
        "dur": "3.75",
        "text": "150 years so if there's a big problem"
    },
    {
        "start": "289.539",
        "dur": "2.88",
        "text": "with pollution such as people who"
    },
    {
        "start": "291.28",
        "dur": "2.789",
        "text": "believe in global warming if there's a"
    },
    {
        "start": "292.419",
        "dur": "3.09",
        "text": "big problem with pollution first place"
    },
    {
        "start": "294.069",
        "dur": "2.94",
        "text": "to look to is the government or the"
    },
    {
        "start": "295.509",
        "dur": "3.481",
        "text": "agency that's responsible for"
    },
    {
        "start": "297.009",
        "dur": "3.511",
        "text": "controlling said pollution from managing"
    },
    {
        "start": "298.99",
        "dur": "3.389",
        "text": "and dealing with said pollution that"
    },
    {
        "start": "300.52",
        "dur": "3.03",
        "text": "would be the government and so to say"
    },
    {
        "start": "302.379",
        "dur": "2.611",
        "text": "that it's a problem that needs"
    },
    {
        "start": "303.55",
        "dur": "3.389",
        "text": "government when the government's been in"
    },
    {
        "start": "304.99",
        "dur": "3.84",
        "text": "charge of a problem it's obviously"
    },
    {
        "start": "306.939",
        "dur": "5.16",
        "text": "failed to solve like global warming is"
    },
    {
        "start": "308.83",
        "dur": "5.1",
        "text": "one one aspect of things that doesn't"
    },
    {
        "start": "312.099",
        "dur": "3.6",
        "text": "what I mean the very existence of"
    },
    {
        "start": "313.93",
        "dur": "3.539",
        "text": "corporations is a disaster for the"
    },
    {
        "start": "315.699",
        "dur": "3.33",
        "text": "environment because corporations allow"
    },
    {
        "start": "317.469",
        "dur": "4.891",
        "text": "profits to be accrued from customers"
    },
    {
        "start": "319.029",
        "dur": "5.371",
        "text": "taken out of the cooperation and given"
    },
    {
        "start": "322.36",
        "dur": "3.589",
        "text": "to individuals the corporation then"
    },
    {
        "start": "324.4",
        "dur": "5.37",
        "text": "becomes a legal shield for any"
    },
    {
        "start": "325.949",
        "dur": "5.83",
        "text": "retribution or or tort or a suing that"
    },
    {
        "start": "329.77",
        "dur": "3.03",
        "text": "occurs on the basis of the ruination of"
    },
    {
        "start": "331.779",
        "dur": "3.48",
        "text": "other people's property through"
    },
    {
        "start": "332.8",
        "dur": "4.26",
        "text": "pollution and so you've got this massive"
    },
    {
        "start": "335.259",
        "dur": "4.71",
        "text": "legal shield that protects individuals"
    },
    {
        "start": "337.06",
        "dur": "5.55",
        "text": "who profit it from the despoiling of the"
    },
    {
        "start": "339.969",
        "dur": "4.711",
        "text": "countryside they can't be touched"
    },
    {
        "start": "342.61",
        "dur": "3.45",
        "text": "personally so that's a big thing you get"
    },
    {
        "start": "344.68",
        "dur": "3.419",
        "text": "rid of corporations that thing you do is"
    },
    {
        "start": "346.06",
        "dur": "3.84",
        "text": "say what is the greatest polluter in the"
    },
    {
        "start": "348.099",
        "dur": "3.091",
        "text": "planet well it's the government and so"
    },
    {
        "start": "349.9",
        "dur": "3.06",
        "text": "having the government deal that is"
    },
    {
        "start": "351.19",
        "dur": "5.67",
        "text": "really like putting the Fox in charge of"
    },
    {
        "start": "352.96",
        "dur": "6.329",
        "text": "the henhouse and how about the fact that"
    },
    {
        "start": "356.86",
        "dur": "5.149",
        "text": "the government stole from the unborn in"
    },
    {
        "start": "359.289",
        "dur": "4.891",
        "text": "order to bribe everybody with roads"
    },
    {
        "start": "362.009",
        "dur": "3.4",
        "text": "particularly in the post-war period the"
    },
    {
        "start": "364.18",
        "dur": "3.18",
        "text": "government's been taking over and"
    },
    {
        "start": "365.409",
        "dur": "3.63",
        "text": "expanding roads forever now of course"
    },
    {
        "start": "367.36",
        "dur": "3.029",
        "text": "those roads were all falling apart users"
    },
    {
        "start": "369.039",
        "dur": "2.49",
        "text": "reading about all this stuff in Montreal"
    },
    {
        "start": "370.389",
        "dur": "2.731",
        "text": "people are terrified to drive across"
    },
    {
        "start": "371.529",
        "dur": "3.771",
        "text": "bridges because they built all this crap"
    },
    {
        "start": "373.12",
        "dur": "4.139",
        "text": "for Expo 67 which is now falling apart"
    },
    {
        "start": "375.3",
        "dur": "3.489",
        "text": "so government built all these roads"
    },
    {
        "start": "377.259",
        "dur": "3.27",
        "text": "which stimulated the production of cars"
    },
    {
        "start": "378.789",
        "dur": "3.9",
        "text": "and everybody was far-flung and of"
    },
    {
        "start": "380.529",
        "dur": "3.45",
        "text": "course that has a lot to do with with"
    },
    {
        "start": "382.689",
        "dur": "3.66",
        "text": "global warming for people who believe in"
    },
    {
        "start": "383.979",
        "dur": "4.381",
        "text": "it so these are again this is just tip"
    },
    {
        "start": "386.349",
        "dur": "3.63",
        "text": "of the iceberg stuff but they're put"
    },
    {
        "start": "388.36",
        "dur": "2.91",
        "text": "government in charge of Fisheries as"
    },
    {
        "start": "389.979",
        "dur": "3.451",
        "text": "this happened in the East Coast and a"
    },
    {
        "start": "391.27",
        "dur": "4.47",
        "text": "400 year of sustained resource collapses"
    },
    {
        "start": "393.43",
        "dur": "3.57",
        "text": "within a decade or two so again I don't"
    },
    {
        "start": "395.74",
        "dur": "4.96",
        "text": "know how global warming suddenly becomes"
    },
    {
        "start": "397",
        "dur": "5.17",
        "text": "a free-market issue so let's see"
    },
    {
        "start": "400.7",
        "dur": "3",
        "text": "property again I'll just double do the"
    },
    {
        "start": "402.17",
        "dur": "3.75",
        "text": "whole thing because I'm not entirely"
    },
    {
        "start": "403.7",
        "dur": "4.02",
        "text": "sure of the quality these assertions"
    },
    {
        "start": "405.92",
        "dur": "3.21",
        "text": "while there are plays so we need to be"
    },
    {
        "start": "407.72",
        "dur": "3.39",
        "text": "government while there's global warming"
    },
    {
        "start": "409.13",
        "dur": "3.33",
        "text": "so we need a big government well it's"
    },
    {
        "start": "411.11",
        "dur": "5.01",
        "text": "not a lot of research that's going into"
    },
    {
        "start": "412.46",
        "dur": "5.49",
        "text": "this so I had to live he says outside"
    },
    {
        "start": "416.12",
        "dur": "3.36",
        "text": "the libertarian worldview for many years"
    },
    {
        "start": "417.95",
        "dur": "3.93",
        "text": "before I began to grasp the deeper"
    },
    {
        "start": "419.48",
        "dur": "3.93",
        "text": "deeper problem with property every"
    },
    {
        "start": "421.88",
        "dur": "2.94",
        "text": "property system in history and all the"
    },
    {
        "start": "423.41",
        "dur": "3.93",
        "text": "ones I have been able to imagine are"
    },
    {
        "start": "424.82",
        "dur": "4.2",
        "text": "unjust so a government that establishes"
    },
    {
        "start": "427.34",
        "dur": "4.71",
        "text": "a property system defends it and then"
    },
    {
        "start": "429.02",
        "dur": "4.83",
        "text": "stops it and then stops is an agent of"
    },
    {
        "start": "432.05",
        "dur": "3.57",
        "text": "injustice so a government that"
    },
    {
        "start": "433.85",
        "dur": "2.55",
        "text": "establishes a property system defends it"
    },
    {
        "start": "435.62",
        "dur": "2.31",
        "text": "and then stops"
    },
    {
        "start": "436.4",
        "dur": "3.29",
        "text": "it's an agent of injustice oh yes so"
    },
    {
        "start": "437.93",
        "dur": "4.71",
        "text": "this is the problem of well how would we"
    },
    {
        "start": "439.69",
        "dur": "5.05",
        "text": "devolve publicly owned properties to"
    },
    {
        "start": "442.64",
        "dur": "4.02",
        "text": "privately owned people or to private"
    },
    {
        "start": "444.74",
        "dur": "3.21",
        "text": "people without massive injustice yeah"
    },
    {
        "start": "446.66",
        "dur": "3.12",
        "text": "that's a that's a big problem it is a"
    },
    {
        "start": "447.95",
        "dur": "3.27",
        "text": "problem if it's a technical problem it's"
    },
    {
        "start": "449.78",
        "dur": "2.78",
        "text": "not a moral problem it's a technical"
    },
    {
        "start": "451.22",
        "dur": "3.51",
        "text": "problem"
    },
    {
        "start": "452.56",
        "dur": "4.15",
        "text": "libertarians Ted no sorry I'll let me"
    },
    {
        "start": "454.73",
        "dur": "3.21",
        "text": "rephrase that because it is to some"
    },
    {
        "start": "456.71",
        "dur": "2.52",
        "text": "degree a moral problem of people who've"
    },
    {
        "start": "457.94",
        "dur": "3.66",
        "text": "been stolen from should have run some"
    },
    {
        "start": "459.23",
        "dur": "4.17",
        "text": "restitution libertarians tend to take"
    },
    {
        "start": "461.6",
        "dur": "3.3",
        "text": "property as a given as if it were"
    },
    {
        "start": "463.4",
        "dur": "3.45",
        "text": "natural or existed prior to any"
    },
    {
        "start": "464.9",
        "dur": "3.81",
        "text": "government but defining what can be"
    },
    {
        "start": "466.85",
        "dur": "3.81",
        "text": "owned what owning it means in keeping"
    },
    {
        "start": "468.71",
        "dur": "2.97",
        "text": "track of who owns what that's a"
    },
    {
        "start": "470.66",
        "dur": "2.7",
        "text": "government intervention in the economy"
    },
    {
        "start": "471.68",
        "dur": "3.87",
        "text": "that Dwarfs all other government"
    },
    {
        "start": "473.36",
        "dur": "4.14",
        "text": "interventions you see ownership is a"
    },
    {
        "start": "475.55",
        "dur": "3.78",
        "text": "social thing not an individual thing I"
    },
    {
        "start": "477.5",
        "dur": "4.71",
        "text": "can claim I own something but what makes"
    },
    {
        "start": "479.33",
        "dur": "5.07",
        "text": "it what what makes my ownership real is"
    },
    {
        "start": "482.21",
        "dur": "4.47",
        "text": "that the rest of you don't own it my"
    },
    {
        "start": "484.4",
        "dur": "7.74",
        "text": "ownership isn't something I do it's"
    },
    {
        "start": "486.68",
        "dur": "7.08",
        "text": "something we do okay yeah I agree if I"
    },
    {
        "start": "492.14",
        "dur": "3.33",
        "text": "say I own a car other people have to"
    },
    {
        "start": "493.76",
        "dur": "3.03",
        "text": "agree that I own that car and not try"
    },
    {
        "start": "495.47",
        "dur": "3.62",
        "text": "and use it or at least if they do that"
    },
    {
        "start": "496.79",
        "dur": "4.2",
        "text": "it's subject to some sort of sanction"
    },
    {
        "start": "499.09",
        "dur": "3.13",
        "text": "aside he writes this is why it's"
    },
    {
        "start": "500.99",
        "dur": "2.94",
        "text": "completely false to say the government"
    },
    {
        "start": "502.22",
        "dur": "3.99",
        "text": "programs primarily benefit the poor"
    },
    {
        "start": "503.93",
        "dur": "4.05",
        "text": "property is a creation of government so"
    },
    {
        "start": "506.21",
        "dur": "5.3",
        "text": "the primary beneficiaries of government"
    },
    {
        "start": "507.98",
        "dur": "5.58",
        "text": "are the people who own things the rich"
    },
    {
        "start": "511.51",
        "dur": "3.55",
        "text": "so the primary beneficiaries of"
    },
    {
        "start": "513.56",
        "dur": "3.87",
        "text": "government are the people who own things"
    },
    {
        "start": "515.06",
        "dur": "4.26",
        "text": "the rich okay so if government protects"
    },
    {
        "start": "517.43",
        "dur": "3.54",
        "text": "property and you have more property you"
    },
    {
        "start": "519.32",
        "dur": "3.27",
        "text": "disproportionately benefit from"
    },
    {
        "start": "520.97",
        "dur": "3.99",
        "text": "government protecting your property"
    },
    {
        "start": "522.59",
        "dur": "4.59",
        "text": "right since you have more property all"
    },
    {
        "start": "524.96",
        "dur": "4.49",
        "text": "right again I think that's that's an"
    },
    {
        "start": "527.18",
        "dur": "4.32",
        "text": "observation it's not really a judgment"
    },
    {
        "start": "529.45",
        "dur": "3.28",
        "text": "property in labor it's worthwhile to go"
    },
    {
        "start": "531.5",
        "dur": "2.54",
        "text": "back and read the justification of"
    },
    {
        "start": "532.73",
        "dur": "2.96",
        "text": "property that we give"
    },
    {
        "start": "534.04",
        "dur": "3.33",
        "text": "in the early days of capitalism the most"
    },
    {
        "start": "535.69",
        "dur": "3.269",
        "text": "famous and influential of such"
    },
    {
        "start": "537.37",
        "dur": "3.3",
        "text": "justification was in John Locke's"
    },
    {
        "start": "538.959",
        "dur": "3.721",
        "text": "nineteen 1690 classic the second"
    },
    {
        "start": "540.67",
        "dur": "3.39",
        "text": "treatise of civil government Locke"
    },
    {
        "start": "542.68",
        "dur": "2.94",
        "text": "admits to both reason and Christian"
    },
    {
        "start": "544.06",
        "dur": "5.399",
        "text": "revelations say God gave the world to"
    },
    {
        "start": "545.62",
        "dur": "5.77",
        "text": "all people in common all right so he"
    },
    {
        "start": "549.459",
        "dur": "3.86",
        "text": "didn't actually make that last argument"
    },
    {
        "start": "551.39",
        "dur": "6.05",
        "text": "[Music]"
    },
    {
        "start": "553.319",
        "dur": "10.57",
        "text": "see if there's anything else that's did"
    },
    {
        "start": "557.44",
        "dur": "11.61",
        "text": "you do okay yeah so his his argument"
    },
    {
        "start": "563.889",
        "dur": "7.051",
        "text": "here is that everybody should have the"
    },
    {
        "start": "569.05",
        "dur": "3.719",
        "text": "access to the means of production right"
    },
    {
        "start": "570.94",
        "dur": "3.899",
        "text": "so in Locke's an together a state of"
    },
    {
        "start": "572.769",
        "dur": "3.75",
        "text": "nature only laziness could keep an"
    },
    {
        "start": "574.839",
        "dur": "3.18",
        "text": "able-bodied person poor because the"
    },
    {
        "start": "576.519",
        "dur": "2.671",
        "text": "means of production nature was just"
    },
    {
        "start": "578.019",
        "dur": "3.781",
        "text": "sitting there waiting for human labor to"
    },
    {
        "start": "579.19",
        "dur": "4.019",
        "text": "turned it into property today's economic"
    },
    {
        "start": "581.8",
        "dur": "3.51",
        "text": "environment is very different but our"
    },
    {
        "start": "583.209",
        "dur": "4.86",
        "text": "intuitions haven't kept up our anxiety"
    },
    {
        "start": "585.31",
        "dur": "4.68",
        "text": "today isn't that there won't be enough"
    },
    {
        "start": "588.069",
        "dur": "3.27",
        "text": "goods in the world and it isn't fear"
    },
    {
        "start": "589.99",
        "dur": "2.789",
        "text": "that our own laziness will prevent us"
    },
    {
        "start": "591.339",
        "dur": "3.93",
        "text": "from working to produce those goods our"
    },
    {
        "start": "592.779",
        "dur": "4.29",
        "text": "fear is that the onus of the means of"
    },
    {
        "start": "595.269",
        "dur": "3.541",
        "text": "production won't grant us access so we"
    },
    {
        "start": "597.069",
        "dur": "5.911",
        "text": "never have the opportunity to apply our"
    },
    {
        "start": "598.81",
        "dur": "5.79",
        "text": "labor okay so his argument is that"
    },
    {
        "start": "602.98",
        "dur": "2.969",
        "text": "everybody should have access to the"
    },
    {
        "start": "604.6",
        "dur": "3.03",
        "text": "means of production the means of"
    },
    {
        "start": "605.949",
        "dur": "3.45",
        "text": "production of course of capital goods"
    },
    {
        "start": "607.63",
        "dur": "3.149",
        "text": "capital machinery factories and so on so"
    },
    {
        "start": "609.399",
        "dur": "3.12",
        "text": "if you work in a factory you don't have"
    },
    {
        "start": "610.779",
        "dur": "7.11",
        "text": "a factory you don't have access to the"
    },
    {
        "start": "612.519",
        "dur": "8.07",
        "text": "means of production I mean to me that's"
    },
    {
        "start": "617.889",
        "dur": "4.56",
        "text": "very much taking a snapshot of the world"
    },
    {
        "start": "620.589",
        "dur": "2.641",
        "text": "and saying there's an injustice in it"
    },
    {
        "start": "622.449",
        "dur": "2.461",
        "text": "well where did the means of production"
    },
    {
        "start": "623.23",
        "dur": "3.06",
        "text": "come from well for a lot of people in"
    },
    {
        "start": "624.91",
        "dur": "3.21",
        "text": "the in the industrial revolution the"
    },
    {
        "start": "626.29",
        "dur": "3.419",
        "text": "means of production came from their own"
    },
    {
        "start": "628.12",
        "dur": "3.36",
        "text": "hard work from their own savings from"
    },
    {
        "start": "629.709",
        "dur": "4.711",
        "text": "their own entrepreneurial risk-taking"
    },
    {
        "start": "631.48",
        "dur": "7.109",
        "text": "and so on and that's how they got the"
    },
    {
        "start": "634.42",
        "dur": "5.58",
        "text": "means of production and so if other"
    },
    {
        "start": "638.589",
        "dur": "3.271",
        "text": "people want to compete with them that's"
    },
    {
        "start": "640",
        "dur": "3.36",
        "text": "great but lots of people don't want to"
    },
    {
        "start": "641.86",
        "dur": "3.24",
        "text": "be entrepreneurs and why should they"
    },
    {
        "start": "643.36",
        "dur": "3.63",
        "text": "have to be entrepreneurs a lot of people"
    },
    {
        "start": "645.1",
        "dur": "3.63",
        "text": "go to work 9:00 to 5:00 they they work"
    },
    {
        "start": "646.99",
        "dur": "2.64",
        "text": "to live they don't live to work and I"
    },
    {
        "start": "648.73",
        "dur": "2.19",
        "text": "don't think that there's anything wrong"
    },
    {
        "start": "649.63",
        "dur": "3.66",
        "text": "with that I don't think there's anything"
    },
    {
        "start": "650.92",
        "dur": "3.96",
        "text": "bad about that and of course you can"
    },
    {
        "start": "653.29",
        "dur": "2.789",
        "text": "easily have access to the means of"
    },
    {
        "start": "654.88",
        "dur": "2.43",
        "text": "production there's two ways that you can"
    },
    {
        "start": "656.079",
        "dur": "4.38",
        "text": "gain access to the means of production"
    },
    {
        "start": "657.31",
        "dur": "4.889",
        "text": "the first is that you use scrimp and you"
    },
    {
        "start": "660.459",
        "dur": "3.93",
        "text": "save and you take risks and you go into"
    },
    {
        "start": "662.199",
        "dur": "4.051",
        "text": "debt and you buy stuff and you you have"
    },
    {
        "start": "664.389",
        "dur": "3.121",
        "text": "a product idea and you use you see work"
    },
    {
        "start": "666.25",
        "dur": "4.44",
        "text": "80 hours a week four years"
    },
    {
        "start": "667.51",
        "dur": "4.05",
        "text": "to build enough resources to get a hold"
    },
    {
        "start": "670.69",
        "dur": "3.27",
        "text": "of the means of production whether"
    },
    {
        "start": "671.56",
        "dur": "5.34",
        "text": "that's a t-shirt printing press or a"
    },
    {
        "start": "673.96",
        "dur": "4.86",
        "text": "factory you know it's up to you that's"
    },
    {
        "start": "676.9",
        "dur": "3.21",
        "text": "what you can do so they are the other"
    },
    {
        "start": "678.82",
        "dur": "5.22",
        "text": "way of course that you get access to the"
    },
    {
        "start": "680.11",
        "dur": "8.76",
        "text": "means of production is you rent it from"
    },
    {
        "start": "684.04",
        "dur": "6.81",
        "text": "the capitalists and you accept more"
    },
    {
        "start": "688.87",
        "dur": "4.26",
        "text": "stable but reduced wages because you're"
    },
    {
        "start": "690.85",
        "dur": "3.48",
        "text": "taking fewer risks anybody who wants"
    },
    {
        "start": "693.13",
        "dur": "2.91",
        "text": "access to the means of production is"
    },
    {
        "start": "694.33",
        "dur": "3.51",
        "text": "automatically taking a significant risk"
    },
    {
        "start": "696.04",
        "dur": "4.65",
        "text": "because business failures are huge and"
    },
    {
        "start": "697.84",
        "dur": "5.07",
        "text": "and numerous and almost endless whereas"
    },
    {
        "start": "700.69",
        "dur": "3.78",
        "text": "if you say well I don't want to buy a"
    },
    {
        "start": "702.91",
        "dur": "3.21",
        "text": "printing press I just want to make"
    },
    {
        "start": "704.47",
        "dur": "3.48",
        "text": "t-shirts then you can take your wages"
    },
    {
        "start": "706.12",
        "dur": "4.98",
        "text": "and you get access to the means of"
    },
    {
        "start": "707.95",
        "dur": "4.92",
        "text": "production by accepting wages and giving"
    },
    {
        "start": "711.1",
        "dur": "3.3",
        "text": "a certain portion of those wages is"
    },
    {
        "start": "712.87",
        "dur": "3.68",
        "text": "overhead to the person who's actually"
    },
    {
        "start": "714.4",
        "dur": "4.02",
        "text": "bought the means of production so"
    },
    {
        "start": "716.55",
        "dur": "3.01",
        "text": "everybody has access to the means of"
    },
    {
        "start": "718.42",
        "dur": "3.18",
        "text": "production if they want because the"
    },
    {
        "start": "719.56",
        "dur": "4.11",
        "text": "means of production for the most part of"
    },
    {
        "start": "721.6",
        "dur": "3.78",
        "text": "pretty useless without people wandering"
    },
    {
        "start": "723.67",
        "dur": "3.69",
        "text": "access to them I guess robots to some"
    },
    {
        "start": "725.38",
        "dur": "3.3",
        "text": "degree but people have to you know if"
    },
    {
        "start": "727.36",
        "dur": "2.7",
        "text": "you have a factory some people at least"
    },
    {
        "start": "728.68",
        "dur": "2.76",
        "text": "have to be in there who have access to"
    },
    {
        "start": "730.06",
        "dur": "4.2",
        "text": "the means of production so that your"
    },
    {
        "start": "731.44",
        "dur": "4.92",
        "text": "factory can actually make stuff so again"
    },
    {
        "start": "734.26",
        "dur": "3.36",
        "text": "I mean there's nothing here about the"
    },
    {
        "start": "736.36",
        "dur": "3.3",
        "text": "non-aggression principle there's nothing"
    },
    {
        "start": "737.62",
        "dur": "7.26",
        "text": "here that is philosophical but I"
    },
    {
        "start": "739.66",
        "dur": "7.68",
        "text": "certainly do accept that that a problem"
    },
    {
        "start": "744.88",
        "dur": "4.17",
        "text": "that is I think misidentified and it's"
    },
    {
        "start": "747.34",
        "dur": "4.77",
        "text": "consistently misidentified in these sort"
    },
    {
        "start": "749.05",
        "dur": "5.91",
        "text": "of Marxist analyses self of the free"
    },
    {
        "start": "752.11",
        "dur": "4.38",
        "text": "market is that ok so the means of"
    },
    {
        "start": "754.96",
        "dur": "3",
        "text": "production let's say that that it is"
    },
    {
        "start": "756.49",
        "dur": "4.14",
        "text": "exclusive in it is a form of economic"
    },
    {
        "start": "757.96",
        "dur": "4.44",
        "text": "power and it is a form of domination and"
    },
    {
        "start": "760.63",
        "dur": "3.51",
        "text": "so on well ok great"
    },
    {
        "start": "762.4",
        "dur": "5.16",
        "text": "that's let's accept that as an argument"
    },
    {
        "start": "764.14",
        "dur": "5.9",
        "text": "and say that those aspects or those"
    },
    {
        "start": "767.56",
        "dur": "5.55",
        "text": "hierarchies which contain within them a"
    },
    {
        "start": "770.04",
        "dur": "5.86",
        "text": "domination and unjust power are bad I"
    },
    {
        "start": "773.11",
        "dur": "5.13",
        "text": "don't see how we solve owning a factory"
    },
    {
        "start": "775.9",
        "dur": "3.72",
        "text": "by creating a very powerful government"
    },
    {
        "start": "778.24",
        "dur": "3.6",
        "text": "because it's not a very powerful"
    },
    {
        "start": "779.62",
        "dur": "4.26",
        "text": "government much worse than somebody"
    },
    {
        "start": "781.84",
        "dur": "5.61",
        "text": "owning a factory in terms of its ability"
    },
    {
        "start": "783.88",
        "dur": "5.97",
        "text": "to impose power and control on those"
    },
    {
        "start": "787.45",
        "dur": "4.35",
        "text": "below it I don't think that we solved"
    },
    {
        "start": "789.85",
        "dur": "4.74",
        "text": "the problem of injustice and an"
    },
    {
        "start": "791.8",
        "dur": "5.64",
        "text": "imbalance of merely economic power by"
    },
    {
        "start": "794.59",
        "dur": "4.68",
        "text": "creating a monolithic Leviathan state"
    },
    {
        "start": "797.44",
        "dur": "3.839",
        "text": "with the ability to start up its own"
    },
    {
        "start": "799.27",
        "dur": "3.45",
        "text": "laws initiate force it will probably"
    },
    {
        "start": "801.279",
        "dur": "4.081",
        "text": "print its own money I'm sure he would be"
    },
    {
        "start": "802.72",
        "dur": "5.25",
        "text": "keen on that as a liberal and to"
    },
    {
        "start": "805.36",
        "dur": "4.589",
        "text": "imprison at a whim I don't really think"
    },
    {
        "start": "807.97",
        "dur": "3.349",
        "text": "that that solves the problem of summon"
    },
    {
        "start": "809.949",
        "dur": "3.271",
        "text": "homes a factory and somebody doesn't"
    },
    {
        "start": "811.319",
        "dur": "3.46",
        "text": "because that's considered to be an"
    },
    {
        "start": "813.22",
        "dur": "3.419",
        "text": "unjust hierarchical and exploitive"
    },
    {
        "start": "814.779",
        "dur": "4.831",
        "text": "situation creating a monolithic"
    },
    {
        "start": "816.639",
        "dur": "5.64",
        "text": "government doesn't does not solve that"
    },
    {
        "start": "819.61",
        "dur": "4.709",
        "text": "problem at all because as he rightly"
    },
    {
        "start": "822.279",
        "dur": "5.04",
        "text": "points out the state benefits the rich"
    },
    {
        "start": "824.319",
        "dur": "4.83",
        "text": "so of course the best way to have a"
    },
    {
        "start": "827.319",
        "dur": "3.421",
        "text": "churn to have a turnover in the classes"
    },
    {
        "start": "829.149",
        "dur": "5.401",
        "text": "is to have a smaller government as"
    },
    {
        "start": "830.74",
        "dur": "5.519",
        "text": "possible because big corporations will"
    },
    {
        "start": "834.55",
        "dur": "3.81",
        "text": "always overtake the government and use"
    },
    {
        "start": "836.259",
        "dur": "4.8",
        "text": "it for its own ends whereas if there's"
    },
    {
        "start": "838.36",
        "dur": "4.589",
        "text": "no government then corporations are"
    },
    {
        "start": "841.059",
        "dur": "3.39",
        "text": "going to rise and fall based upon the"
    },
    {
        "start": "842.949",
        "dur": "3.601",
        "text": "whims and preferences of the customers"
    },
    {
        "start": "844.449",
        "dur": "4.86",
        "text": "and of the employees which to me is a"
    },
    {
        "start": "846.55",
        "dur": "4.259",
        "text": "much more stable situation so again I'll"
    },
    {
        "start": "849.309",
        "dur": "3.51",
        "text": "put a link to this in the video and on"
    },
    {
        "start": "850.809",
        "dur": "6.09",
        "text": "the on the sunday show now it's but not"
    },
    {
        "start": "852.819",
        "dur": "5.58",
        "text": "a very good article not very well"
    },
    {
        "start": "856.899",
        "dur": "3.721",
        "text": "thought out but you know it's always"
    },
    {
        "start": "858.399",
        "dur": "3.42",
        "text": "interesting to read so let's let's get"
    },
    {
        "start": "860.62",
        "dur": "3.469",
        "text": "on to the callers and thank you for your"
    },
    {
        "start": "861.819",
        "dur": "2.27",
        "text": "patience"
    }
]