{
  "Title": "The Truth About Freedom - 300 Million Souls Escape Poverty!",
  "Id": "8B1CUJtXPgU",
  "Transcript": [
    {
      "text": "hi everybody it's stefan molyneux from",
      "start": 0,
      "duration": 4.77
    },
    {
      "text": "freedomain radio this is facts about",
      "start": 2.49,
      "duration": 3.57
    },
    {
      "text": "freedom it's a short presentation of",
      "start": 4.77,
      "duration": 2.549
    },
    {
      "text": "some essential facts that you need to",
      "start": 6.06,
      "duration": 3.329
    },
    {
      "text": "know about freedom and buy freedom here",
      "start": 7.319,
      "duration": 3.391
    },
    {
      "text": "I mean the non initiation of force",
      "start": 9.389,
      "duration": 4.591
    },
    {
      "text": "against peaceful traders the respect for",
      "start": 10.71,
      "duration": 5.819
    },
    {
      "text": "property rights eliminating poverty this",
      "start": 13.98,
      "duration": 4.35
    },
    {
      "text": "is a graphic it asked about all the time",
      "start": 16.529,
      "duration": 3.5
    },
    {
      "text": "so let's talk about it a bit",
      "start": 18.33,
      "duration": 4.529
    },
    {
      "text": "we're so close and yet so far to",
      "start": 20.029,
      "duration": 5.26
    },
    {
      "text": "eliminating poverty because of a central",
      "start": 22.859,
      "duration": 4.651
    },
    {
      "text": "tragedy in the way that people think so",
      "start": 25.289,
      "duration": 3.75
    },
    {
      "text": "some basic facts are in the 1950s",
      "start": 27.51,
      "duration": 3.21
    },
    {
      "text": "through the late 1960s the United States",
      "start": 29.039,
      "duration": 7.551
    },
    {
      "text": "kept poverty by 50% from over 22% to 11%",
      "start": 30.72,
      "duration": 10.62
    },
    {
      "text": "cut poverty by 50% in 10-15 years this",
      "start": 36.59,
      "duration": 7.989
    },
    {
      "text": "is before the welfare state as we know",
      "start": 41.34,
      "duration": 5.76
    },
    {
      "text": "it this is before teachers couldn't be",
      "start": 44.579,
      "duration": 6.451
    },
    {
      "text": "fired this is before poverty programs",
      "start": 47.1,
      "duration": 6.27
    },
    {
      "text": "for the poor to help them with costs of",
      "start": 51.03,
      "duration": 5.04
    },
    {
      "text": "every kind so poverty was being",
      "start": 53.37,
      "duration": 4.5
    },
    {
      "text": "eliminated before the welfare state came",
      "start": 56.07,
      "duration": 3.45
    },
    {
      "text": "in when the welfare state comes in the",
      "start": 57.87,
      "duration": 3.36
    },
    {
      "text": "war on poverty the born illiteracy that",
      "start": 59.52,
      "duration": 3.24
    },
    {
      "text": "were on drugs and whatever you all these",
      "start": 61.23,
      "duration": 2.94
    },
    {
      "text": "wars declared by the government to solve",
      "start": 62.76,
      "duration": 3.45
    },
    {
      "text": "all these social problems these problems",
      "start": 64.17,
      "duration": 4.739
    },
    {
      "text": "were being solved through peaceful trade",
      "start": 66.21,
      "duration": 4.229
    },
    {
      "text": "and as you can see here from the blue",
      "start": 68.909,
      "duration": 2.82
    },
    {
      "text": "line in the graph a growth in income",
      "start": 70.439,
      "duration": 3.241
    },
    {
      "text": "people were becoming less poor because",
      "start": 71.729,
      "duration": 3.18
    },
    {
      "text": "their income was growing their incomes",
      "start": 73.68,
      "duration": 3.9
    },
    {
      "text": "were growing because the economy was",
      "start": 74.909,
      "duration": 4.111
    },
    {
      "text": "growing the economy was growing because",
      "start": 77.58,
      "duration": 3.75
    },
    {
      "text": "the government wasn't initiating force",
      "start": 79.02,
      "duration": 4.02
    },
    {
      "text": "against peaceful producers and so they",
      "start": 81.33,
      "duration": 3.539
    },
    {
      "text": "were free to trade and grow and make",
      "start": 83.04,
      "duration": 4.95
    },
    {
      "text": "profits and increase the general wealth",
      "start": 84.869,
      "duration": 6.871
    },
    {
      "text": "of society which kept poverty what",
      "start": 87.99,
      "duration": 5.96
    },
    {
      "text": "changed well of course in the mid-1960s",
      "start": 91.74,
      "duration": 4.44
    },
    {
      "text": "you get all these social programs coming",
      "start": 93.95,
      "duration": 4.51
    },
    {
      "text": "in which shovels a huge amount of money",
      "start": 96.18,
      "duration": 4.11
    },
    {
      "text": "at the poor and if you pay people to",
      "start": 98.46,
      "duration": 4.5
    },
    {
      "text": "stay poor they will by golly state",
      "start": 100.29,
      "duration": 4.92
    },
    {
      "text": "boards hugely tragic it's a limitation",
      "start": 102.96,
      "duration": 4.049
    },
    {
      "text": "of thinking a limitation limitation of",
      "start": 105.21,
      "duration": 3.36
    },
    {
      "text": "imagination and beyond it's easy to",
      "start": 107.009,
      "duration": 3.331
    },
    {
      "text": "understand we've all seen these pictures",
      "start": 108.57,
      "duration": 4.159
    },
    {
      "text": "like there's some big skyscraper and",
      "start": 110.34,
      "duration": 5.58
    },
    {
      "text": "city line of lights and airplanes and",
      "start": 112.729,
      "duration": 5.041
    },
    {
      "text": "then there's some in front there's some",
      "start": 115.92,
      "duration": 4.559
    },
    {
      "text": "bearded wild haired guy living in a box",
      "start": 117.77,
      "duration": 4.51
    },
    {
      "text": "and we say ah we're just gotta take a",
      "start": 120.479,
      "duration": 3.091
    },
    {
      "text": "little bit of money a little bit of",
      "start": 122.28,
      "duration": 2.339
    },
    {
      "text": "money from this immense wealth of the",
      "start": 123.57,
      "duration": 3.119
    },
    {
      "text": "city and devote it to these this poor",
      "start": 124.619,
      "duration": 3.271
    },
    {
      "text": "guy living in a box and we'll get rid of",
      "start": 126.689,
      "duration": 3.391
    },
    {
      "text": "a great evil and social injustice and",
      "start": 127.89,
      "duration": 5.44
    },
    {
      "text": "all that it's a really tempting idea and",
      "start": 130.08,
      "duration": 7.33
    },
    {
      "text": "and it is false it is wrong it's immoral",
      "start": 133.33,
      "duration": 5.43
    },
    {
      "text": "of course the initiation of force to",
      "start": 137.41,
      "duration": 3.48
    },
    {
      "text": "redistribute income is is immoral and",
      "start": 138.76,
      "duration": 3.69
    },
    {
      "text": "it's counterproductive in the long run",
      "start": 140.89,
      "duration": 3.15
    },
    {
      "text": "for sure however much it may satisfy",
      "start": 142.45,
      "duration": 4.26
    },
    {
      "text": "people's moral crusade urges in the",
      "start": 144.04,
      "duration": 4.98
    },
    {
      "text": "short run it does not conform with the",
      "start": 146.71,
      "duration": 3.99
    },
    {
      "text": "facts it changes the very structure of",
      "start": 149.02,
      "duration": 5.46
    },
    {
      "text": "society and here we see that it probably",
      "start": 150.7,
      "duration": 7.59
    },
    {
      "text": "was being eliminated anyway but in order",
      "start": 154.48,
      "duration": 5.01
    },
    {
      "text": "to accelerate that process what's",
      "start": 158.29,
      "duration": 3.75
    },
    {
      "text": "happened is a permanent underclass and",
      "start": 159.49,
      "duration": 4.05
    },
    {
      "text": "permanent and ever-growing underclass",
      "start": 162.04,
      "duration": 4.14
    },
    {
      "text": "that poor people has creaming created in",
      "start": 163.54,
      "duration": 6.27
    },
    {
      "text": "the United States tragic let's look at",
      "start": 166.18,
      "duration": 5.43
    },
    {
      "text": "India suppose I said there was a program",
      "start": 169.81,
      "duration": 7.05
    },
    {
      "text": "that could bring 300 million people out",
      "start": 171.61,
      "duration": 7.77
    },
    {
      "text": "of poverty in 20 years the entire",
      "start": 176.86,
      "duration": 3.72
    },
    {
      "text": "population of the US whom do you think",
      "start": 179.38,
      "duration": 3.09
    },
    {
      "text": "that's possible what program would it be",
      "start": 180.58,
      "duration": 3.54
    },
    {
      "text": "and I said well it's doing nothing it's",
      "start": 182.47,
      "duration": 2.73
    },
    {
      "text": "doing less it's getting rid of",
      "start": 184.12,
      "duration": 2.91
    },
    {
      "text": "government well you might be skeptical I",
      "start": 185.2,
      "duration": 2.94
    },
    {
      "text": "can understand that but these are the",
      "start": 187.03,
      "duration": 3.51
    },
    {
      "text": "facts let's look at this graph this is",
      "start": 188.14,
      "duration": 4.41
    },
    {
      "text": "China India and Brazil percentage of",
      "start": 190.54,
      "duration": 3.66
    },
    {
      "text": "population living below a dollar 25 a",
      "start": 192.55,
      "duration": 3.83
    },
    {
      "text": "day at two thousand and five dollars",
      "start": 194.2,
      "duration": 4.52
    },
    {
      "text": "China a completely astounding",
      "start": 196.38,
      "duration": 4.12
    },
    {
      "text": "mind-blowing we'll get to that in a sec",
      "start": 198.72,
      "duration": 3.13
    },
    {
      "text": "but India look in India here so because",
      "start": 200.5,
      "duration": 3.6
    },
    {
      "text": "over 40 percent to just over 20 percent",
      "start": 201.85,
      "duration": 4.169
    },
    {
      "text": "then it's even better now because these",
      "start": 204.1,
      "duration": 3.48
    },
    {
      "text": "economies have continued to grow unlike",
      "start": 206.019,
      "duration": 4.291
    },
    {
      "text": "the West which is dying under state",
      "start": 207.58,
      "duration": 6.09
    },
    {
      "text": "coercion and so what happened well in",
      "start": 210.31,
      "duration": 6.09
    },
    {
      "text": "1991 India opened itself up for",
      "start": 213.67,
      "duration": 4.11
    },
    {
      "text": "international trade and investment it",
      "start": 216.4,
      "duration": 2.88
    },
    {
      "text": "deregulated which means it stopped",
      "start": 217.78,
      "duration": 2.64
    },
    {
      "text": "initiating force against peaceful",
      "start": 219.28,
      "duration": 5.19
    },
    {
      "text": "traders it privatized state industries",
      "start": 220.42,
      "duration": 6.09
    },
    {
      "text": "tax reforms and inflation controlling",
      "start": 224.47,
      "duration": 3.03
    },
    {
      "text": "measures in other words it stopped",
      "start": 226.51,
      "duration": 2.49
    },
    {
      "text": "printing money so badly to bribe its",
      "start": 227.5,
      "duration": 4.29
    },
    {
      "text": "constituents this is after many decades",
      "start": 229,
      "duration": 5.37
    },
    {
      "text": "of niro inspired socialism which was",
      "start": 231.79,
      "duration": 4.979
    },
    {
      "text": "derived from the British academic",
      "start": 234.37,
      "duration": 5.28
    },
    {
      "text": "socialism of the pre and post war period",
      "start": 236.769,
      "duration": 5.901
    },
    {
      "text": "just tragic so what's happened well as",
      "start": 239.65,
      "duration": 6.119
    },
    {
      "text": "of 2009 about 300 million people have",
      "start": 242.67,
      "duration": 4.75
    },
    {
      "text": "escaped extreme poverty this is the",
      "start": 245.769,
      "duration": 3.381
    },
    {
      "text": "entire population of the United States",
      "start": 247.42,
      "duration": 3.93
    },
    {
      "text": "anybody who's at all seriously",
      "start": 249.15,
      "duration": 5.2
    },
    {
      "text": "interested in helping poor people needs",
      "start": 251.35,
      "duration": 4.41
    },
    {
      "text": "to look at this and look at what",
      "start": 254.35,
      "duration": 4.05
    },
    {
      "text": "happened and re-examine what they",
      "start": 255.76,
      "duration": 5.76
    },
    {
      "text": "propose to deal with poverty in the real",
      "start": 258.4,
      "duration": 8.23
    },
    {
      "text": "world in the future it's like a China",
      "start": 261.52,
      "duration": 8.3
    },
    {
      "text": "million people per month escaping",
      "start": 266.63,
      "duration": 4.65
    },
    {
      "text": "poverty a million people per month",
      "start": 269.82,
      "duration": 4.2
    },
    {
      "text": "China's astounding almost 80% of people",
      "start": 271.28,
      "duration": 5.77
    },
    {
      "text": "in 1980 lived below a dollar 25 a day",
      "start": 274.02,
      "duration": 6.42
    },
    {
      "text": "now 15 percent 10 percent it's even",
      "start": 277.05,
      "duration": 4.589
    },
    {
      "text": "better this graph when it goes up to two",
      "start": 280.44,
      "duration": 4.289
    },
    {
      "text": "thousand five well what happened in the",
      "start": 281.639,
      "duration": 4.56
    },
    {
      "text": "beginning of this period the D",
      "start": 284.729,
      "duration": 2.91
    },
    {
      "text": "collectivized agriculture which means",
      "start": 286.199,
      "duration": 3.241
    },
    {
      "text": "don't initiate the use of force against",
      "start": 287.639,
      "duration": 3.511
    },
    {
      "text": "peaceful traders respect their property",
      "start": 289.44,
      "duration": 3.84
    },
    {
      "text": "rights opened up China to foreign",
      "start": 291.15,
      "duration": 3.78
    },
    {
      "text": "investment they actually allowed",
      "start": 293.28,
      "duration": 3.29
    },
    {
      "text": "entrepreneurs to start up businesses",
      "start": 294.93,
      "duration": 5.07
    },
    {
      "text": "amazing and this was after decades of",
      "start": 296.57,
      "duration": 5.55
    },
    {
      "text": "the most brutal socialistic",
      "start": 300,
      "duration": 4.11
    },
    {
      "text": "experimentation and communistic",
      "start": 302.12,
      "duration": 5.019
    },
    {
      "text": "destruction that can be imagined there",
      "start": 304.11,
      "duration": 4.529
    },
    {
      "text": "was another phase in the late 1980s they",
      "start": 307.139,
      "duration": 3.75
    },
    {
      "text": "privatized contracted out much of the",
      "start": 308.639,
      "duration": 4.201
    },
    {
      "text": "state-owned industries lifting price",
      "start": 310.889,
      "duration": 4.681
    },
    {
      "text": "controls which always cost shortages got",
      "start": 312.84,
      "duration": 4.109
    },
    {
      "text": "rid of protectionist policies and",
      "start": 315.57,
      "duration": 2.969
    },
    {
      "text": "regulations and allowed people to freely",
      "start": 316.949,
      "duration": 5.551
    },
    {
      "text": "trade the private sector as a result",
      "start": 318.539,
      "duration": 5.581
    },
    {
      "text": "group remarkably accounting for as much",
      "start": 322.5,
      "duration": 5.25
    },
    {
      "text": "as 70% of China's GDP by 2005 this is",
      "start": 324.12,
      "duration": 5.549
    },
    {
      "text": "larger in comparison to many Western",
      "start": 327.75,
      "duration": 5.49
    },
    {
      "text": "nations the British government controls",
      "start": 329.669,
      "duration": 5.851
    },
    {
      "text": "more of the British economy than the",
      "start": 333.24,
      "duration": 4.59
    },
    {
      "text": "Communist Chinese government controls of",
      "start": 335.52,
      "duration": 5.25
    },
    {
      "text": "the Chinese economy which is sad well of",
      "start": 337.83,
      "duration": 4.32
    },
    {
      "text": "course when you think of how many people",
      "start": 340.77,
      "duration": 2.61
    },
    {
      "text": "died in the second world war fighting",
      "start": 342.15,
      "duration": 4.259
    },
    {
      "text": "socialism but this is a a way forward",
      "start": 343.38,
      "duration": 4.74
    },
    {
      "text": "this is a fascinating thing to look at",
      "start": 346.409,
      "duration": 4.561
    },
    {
      "text": "this is the largest poverty reduction",
      "start": 348.12,
      "duration": 5.34
    },
    {
      "text": "program if you can call it a program",
      "start": 350.97,
      "duration": 3.6
    },
    {
      "text": "that has ever occurred in the history of",
      "start": 353.46,
      "duration": 3
    },
    {
      "text": "the planet in the history of the planet",
      "start": 354.57,
      "duration": 3.599
    },
    {
      "text": "and it's been 20 to 25 years",
      "start": 356.46,
      "duration": 7.26
    },
    {
      "text": "that's all from 1978 to 2010 the Chinese",
      "start": 358.169,
      "duration": 7.731
    },
    {
      "text": "economy increased by 9.5 percent a year",
      "start": 363.72,
      "duration": 5.1
    },
    {
      "text": "9.5 percent a year now people will say",
      "start": 365.9,
      "duration": 4.36
    },
    {
      "text": "yes but the environmental problems are",
      "start": 368.82,
      "duration": 3.18
    },
    {
      "text": "come with that and so on well that's",
      "start": 370.26,
      "duration": 3.45
    },
    {
      "text": "nonsense I mean that it's complete",
      "start": 372,
      "duration": 2.639
    },
    {
      "text": "nonsense and it's embarrassing",
      "start": 373.71,
      "duration": 2.97
    },
    {
      "text": "embarrassing argument to hear for a",
      "start": 374.639,
      "duration": 3.03
    },
    {
      "text": "number of reasons first of all of course",
      "start": 376.68,
      "duration": 3.299
    },
    {
      "text": "we went through our filthy black-suited",
      "start": 377.669,
      "duration": 4.5
    },
    {
      "text": "Industrial Revolution and now we can say",
      "start": 379.979,
      "duration": 3.421
    },
    {
      "text": "are we really going to say to other",
      "start": 382.169,
      "duration": 2.851
    },
    {
      "text": "people you can't of course not",
      "start": 383.4,
      "duration": 4.85
    },
    {
      "text": "secondly I've never ever heard anybody",
      "start": 385.02,
      "duration": 7.44
    },
    {
      "text": "argue that we should keep Americans or",
      "start": 388.25,
      "duration": 5.68
    },
    {
      "text": "Canadians or British people in poverty",
      "start": 392.46,
      "duration": 2.91
    },
    {
      "text": "so that they don't consume more",
      "start": 393.93,
      "duration": 3.45
    },
    {
      "text": "resources I've never heard that argument",
      "start": 395.37,
      "duration": 3.06
    },
    {
      "text": "made",
      "start": 397.38,
      "duration": 2.46
    },
    {
      "text": "at all and of course the way that you",
      "start": 398.43,
      "duration": 3.42
    },
    {
      "text": "get to a better environment is through",
      "start": 399.84,
      "duration": 5.04
    },
    {
      "text": "increased wealth so that you can afford",
      "start": 401.85,
      "duration": 6.48
    },
    {
      "text": "scrubbers for your factory chimneys so",
      "start": 404.88,
      "duration": 4.95
    },
    {
      "text": "you can give people Kindles instead of",
      "start": 408.33,
      "duration": 2.76
    },
    {
      "text": "bringing down all these trees so that",
      "start": 409.83,
      "duration": 3.33
    },
    {
      "text": "you can actually help the environment",
      "start": 411.09,
      "duration": 3.72
    },
    {
      "text": "through wealth it's the creation of",
      "start": 413.16,
      "duration": 2.97
    },
    {
      "text": "wealth that helps the environment the",
      "start": 414.81,
      "duration": 3.06
    },
    {
      "text": "most and reduces population of course",
      "start": 416.13,
      "duration": 2.82
    },
    {
      "text": "the best contraception is",
      "start": 417.87,
      "duration": 3.9
    },
    {
      "text": "industrialization here's another example",
      "start": 418.95,
      "duration": 4.53
    },
    {
      "text": "global free trade particularly in",
      "start": 421.77,
      "duration": 3.69
    },
    {
      "text": "agriculture according to some",
      "start": 423.48,
      "duration": 4.98
    },
    {
      "text": "significantly intense research free",
      "start": 425.46,
      "duration": 4.68
    },
    {
      "text": "trade global free trade is just getting",
      "start": 428.46,
      "duration": 3.03
    },
    {
      "text": "rid of protectionist barriers getting",
      "start": 430.14,
      "duration": 4.23
    },
    {
      "text": "rid of the dumping of agricultural crops",
      "start": 431.49,
      "duration": 4.62
    },
    {
      "text": "from Western countries into third world",
      "start": 434.37,
      "duration": 3.33
    },
    {
      "text": "countries which is wretched and",
      "start": 436.11,
      "duration": 3.48
    },
    {
      "text": "reprehensible for the local agriculture",
      "start": 437.7,
      "duration": 4.29
    },
    {
      "text": "just free trade Leung estimated to lift",
      "start": 439.59,
      "duration": 3.78
    },
    {
      "text": "another five hundred and forty million",
      "start": 441.99,
      "duration": 3.48
    },
    {
      "text": "people out of poverty in ten to fifteen",
      "start": 443.37,
      "duration": 2.52
    },
    {
      "text": "years",
      "start": 445.47,
      "duration": 3.69
    },
    {
      "text": "amazing liberalisation of agriculture",
      "start": 445.89,
      "duration": 4.56
    },
    {
      "text": "would account for about half of the",
      "start": 449.16,
      "duration": 2.61
    },
    {
      "text": "total gains for both developing and",
      "start": 450.45,
      "duration": 4.56
    },
    {
      "text": "industrial countries it would be worth",
      "start": 451.77,
      "duration": 4.47
    },
    {
      "text": "two hundred billion dollars a year to",
      "start": 455.01,
      "duration": 4.2
    },
    {
      "text": "developing nations compared to the fifty",
      "start": 456.24,
      "duration": 4.95
    },
    {
      "text": "billion or so that they get in foreign",
      "start": 459.21,
      "duration": 3.84
    },
    {
      "text": "aid at the moment which mostly goes to",
      "start": 461.19,
      "duration": 4.2
    },
    {
      "text": "dictators so that they can buy weapons",
      "start": 463.05,
      "duration": 6.8
    },
    {
      "text": "and pay their military getting rid of",
      "start": 465.39,
      "duration": 6.54
    },
    {
      "text": "agricultural subsidies it's been done",
      "start": 469.85,
      "duration": 4.33
    },
    {
      "text": "before New Zealand in the 90s I think",
      "start": 471.93,
      "duration": 3.57
    },
    {
      "text": "got rid of almost all their agricultural",
      "start": 474.18,
      "duration": 3.66
    },
    {
      "text": "subsidies did not fall into the sea or",
      "start": 475.5,
      "duration": 3.93
    },
    {
      "text": "blow up like Krakatoa but people just",
      "start": 477.84,
      "duration": 3.45
    },
    {
      "text": "adjusted it's difficult but it's it's",
      "start": 479.43,
      "duration": 4.23
    },
    {
      "text": "possible so these are just some basic",
      "start": 481.29,
      "duration": 4.68
    },
    {
      "text": "facts really urge you to look into the",
      "start": 483.66,
      "duration": 5.19
    },
    {
      "text": "astounding poverty reduction situations",
      "start": 485.97,
      "duration": 4.23
    },
    {
      "text": "or systems that are in place around the",
      "start": 488.85,
      "duration": 3.48
    },
    {
      "text": "world that is creating an absolute",
      "start": 490.2,
      "duration": 4.82
    },
    {
      "text": "explosion unprecedented explosion of",
      "start": 492.33,
      "duration": 5.31
    },
    {
      "text": "human potential human possibility human",
      "start": 495.02,
      "duration": 5.11
    },
    {
      "text": "wealth creation really strongly urge you",
      "start": 497.64,
      "duration": 3.99
    },
    {
      "text": "to look into that throw aside your",
      "start": 500.13,
      "duration": 3.15
    },
    {
      "text": "ideology or preconceptions about how to",
      "start": 501.63,
      "duration": 3.72
    },
    {
      "text": "help the poor it's kind of paternalistic",
      "start": 503.28,
      "duration": 3.24
    },
    {
      "text": "you know kind of condescending to say",
      "start": 505.35,
      "duration": 4.44
    },
    {
      "text": "let's help the poor I say just stay out",
      "start": 506.52,
      "duration": 5.55
    },
    {
      "text": "of their way just stay out of the poor",
      "start": 509.79,
      "duration": 3.96
    },
    {
      "text": "people's way don't initiate force",
      "start": 512.07,
      "duration": 2.97
    },
    {
      "text": "against peaceful traders respect to",
      "start": 513.75,
      "duration": 3.66
    },
    {
      "text": "property rights and the world's problems",
      "start": 515.04,
      "duration": 4.89
    },
    {
      "text": "are solved thereby I hope you've enjoyed",
      "start": 517.41,
      "duration": 3.69
    },
    {
      "text": "the presentation please drop by",
      "start": 519.93,
      "duration": 2.27
    },
    {
      "text": "freedomainradio.com",
      "start": 521.1,
      "duration": 3.27
    },
    {
      "text": "been around for a couple of years we've",
      "start": 522.2,
      "duration": 3.52
    },
    {
      "text": "been named one of the top 100 most",
      "start": 524.37,
      "duration": 2.94
    },
    {
      "text": "inspiring an innovative blocks for",
      "start": 525.72,
      "duration": 3.84
    },
    {
      "text": "educators freedomain radio is a top ten",
      "start": 527.31,
      "duration": 4.89
    },
    {
      "text": "finalists in the Oh 8 oh 9 ones",
      "start": 529.56,
      "duration": 5.13
    },
    {
      "text": "Podcast awards in 2010 it was the",
      "start": 532.2,
      "duration": 3.87
    },
    {
      "text": "education in People's Choice categories",
      "start": 534.69,
      "duration": 3.93
    },
    {
      "text": "we've had over 25 million show downloads",
      "start": 536.07,
      "duration": 3.81
    },
    {
      "text": "and views so thank you so much for",
      "start": 538.62,
      "duration": 3.3
    },
    {
      "text": "watching I look forward to your feedback",
      "start": 539.88,
      "duration": 4.23
    },
    {
      "text": "references are below I will talk to you",
      "start": 541.92,
      "duration": 4.25
    },
    {
      "text": "soon",
      "start": 544.11,
      "duration": 2.06
    }
  ],
  "Errors": null,
  "TranscriptStderr": null
}