{
  "Title": "Political Stockholm Syndrome | Rev. C.L. Bryant and Stefan Molyneux",
  "Id": "8EDqJygrtww",
  "Transcript": [
    {
      "text": "hi everybody stefan molyneux from",
      "start": 0.03,
      "duration": 3.659
    },
    {
      "text": "freedomain radio here with the reference",
      "start": 1.68,
      "duration": 4.53
    },
    {
      "text": "CL bryant he is the host of the CL brian",
      "start": 3.689,
      "duration": 4.62
    },
    {
      "text": "shell founding member of the american",
      "start": 6.21,
      "duration": 5.639
    },
    {
      "text": "voice PA c senior fellow at freedom",
      "start": 8.309,
      "duration": 4.62
    },
    {
      "text": "works in the hosts of the powerful",
      "start": 11.849,
      "duration": 3.301
    },
    {
      "text": "documentary runaway slave from tyranny",
      "start": 12.929,
      "duration": 4.11
    },
    {
      "text": "to liberty you can check him out at the",
      "start": 15.15,
      "duration": 5.57
    },
    {
      "text": "CL bryant b ry a NT show calm and",
      "start": 17.039,
      "duration": 8.971
    },
    {
      "text": "twitter comm /r EV CL brian CL thank you",
      "start": 20.72,
      "duration": 7.899
    },
    {
      "text": "so much for taking the time today I'm",
      "start": 26.01,
      "duration": 4.56
    },
    {
      "text": "really glad to be on with you and thank",
      "start": 28.619,
      "duration": 4.53
    },
    {
      "text": "you so much for having me now you seem",
      "start": 30.57,
      "duration": 4.11
    },
    {
      "text": "to have missed the memo and I don't mean",
      "start": 33.149,
      "duration": 2.971
    },
    {
      "text": "of course to tell you about the black",
      "start": 34.68,
      "duration": 3.059
    },
    {
      "text": "experience in America but you seem to",
      "start": 36.12,
      "duration": 2.88
    },
    {
      "text": "have missed the memo that come for the",
      "start": 37.739,
      "duration": 2.761
    },
    {
      "text": "Democrats and the memo runs something",
      "start": 39,
      "duration": 4.86
    },
    {
      "text": "like this it's all racism all the time",
      "start": 40.5,
      "duration": 5.55
    },
    {
      "text": "that is the only problem faced by blacks",
      "start": 43.86,
      "duration": 4.08
    },
    {
      "text": "they apparently seem help us to fix",
      "start": 46.05,
      "duration": 3.989
    },
    {
      "text": "their own situation without the outside",
      "start": 47.94,
      "duration": 5.34
    },
    {
      "text": "Democrats riding in to save the day did",
      "start": 50.039,
      "duration": 4.801
    },
    {
      "text": "you see that memo do you disagree with",
      "start": 53.28,
      "duration": 4.86
    },
    {
      "text": "that memo what's your perspective I saw",
      "start": 54.84,
      "duration": 5.73
    },
    {
      "text": "that memo most of my life I grew up in",
      "start": 58.14,
      "duration": 5.099
    },
    {
      "text": "the segregated south I am the former",
      "start": 60.57,
      "duration": 5.07
    },
    {
      "text": "president of the n-double a-c-p Garland",
      "start": 63.239,
      "duration": 6.301
    },
    {
      "text": "Texas 25 years ago and that memo was one",
      "start": 65.64,
      "duration": 7.29
    },
    {
      "text": "that of course for 60 years black people",
      "start": 69.54,
      "duration": 7.71
    },
    {
      "text": "did in fact hear from the Democrat Party",
      "start": 72.93,
      "duration": 7.29
    },
    {
      "text": "and so I have seen both sides of this",
      "start": 77.25,
      "duration": 5.1
    },
    {
      "text": "street like a person who's eaten",
      "start": 80.22,
      "duration": 3.87
    },
    {
      "text": "hamburger and he was eaten feeling in",
      "start": 82.35,
      "duration": 4.98
    },
    {
      "text": "y'all if you are a certain taste you",
      "start": 84.09,
      "duration": 5.73
    },
    {
      "text": "know the filet mignon is better and so",
      "start": 87.33,
      "duration": 5.31
    },
    {
      "text": "at least for me and so conservatism and",
      "start": 89.82,
      "duration": 4.29
    },
    {
      "text": "the conservative principles of this",
      "start": 92.64,
      "duration": 3.93
    },
    {
      "text": "country when I have eaten of a liberal",
      "start": 94.11,
      "duration": 5.04
    },
    {
      "text": "experience I found that the conservative",
      "start": 96.57,
      "duration": 5.85
    },
    {
      "text": "agenda was much better for who I was as",
      "start": 99.15,
      "duration": 6.539
    },
    {
      "text": "a black man in this country now it seems",
      "start": 102.42,
      "duration": 5.159
    },
    {
      "text": "to me that the black community should",
      "start": 105.689,
      "duration": 3.771
    },
    {
      "text": "have some reasonable affinity with",
      "start": 107.579,
      "duration": 4.5
    },
    {
      "text": "conservatism because of course having",
      "start": 109.46,
      "duration": 4.33
    },
    {
      "text": "seen the family shattered under slavery",
      "start": 112.079,
      "duration": 3.89
    },
    {
      "text": "having seen you know Jim Crow and",
      "start": 113.79,
      "duration": 4.38
    },
    {
      "text": "segregation and so on the need for",
      "start": 115.969,
      "duration": 4.781
    },
    {
      "text": "community and of course Christianity",
      "start": 118.17,
      "duration": 4.739
    },
    {
      "text": "which is quite a conservative friendly",
      "start": 120.75,
      "duration": 4.68
    },
    {
      "text": "if not conservative centered religious",
      "start": 122.909,
      "duration": 4.471
    },
    {
      "text": "approach where do you think the",
      "start": 125.43,
      "duration": 4.859
    },
    {
      "text": "deviation has occurred in the black",
      "start": 127.38,
      "duration": 4.53
    },
    {
      "text": "community leading the more towards the",
      "start": 130.289,
      "duration": 3.28
    },
    {
      "text": "left leaving the more towards Democrats",
      "start": 131.91,
      "duration": 3.79
    },
    {
      "text": "away from community family and Christian",
      "start": 133.569,
      "duration": 6.75
    },
    {
      "text": "roots it was the idea that we're all the",
      "start": 135.7,
      "duration": 9.09
    },
    {
      "text": "same back in the sixties there was a",
      "start": 140.319,
      "duration": 8.82
    },
    {
      "text": "move toward us getting an equal share a",
      "start": 144.79,
      "duration": 7.38
    },
    {
      "text": "level playing field and equal outcome",
      "start": 149.139,
      "duration": 6
    },
    {
      "text": "and all of that type of thing was indeed",
      "start": 152.17,
      "duration": 5.429
    },
    {
      "text": "the message to the black community and",
      "start": 155.139,
      "duration": 4.921
    },
    {
      "text": "when you start thinking that you're the",
      "start": 157.599,
      "duration": 5.191
    },
    {
      "text": "same as the person next to you and quite",
      "start": 160.06,
      "duration": 5.28
    },
    {
      "text": "frankly the experience for quite some",
      "start": 162.79,
      "duration": 5.309
    },
    {
      "text": "time was the same most black people were",
      "start": 165.34,
      "duration": 5.849
    },
    {
      "text": "financially in the same boat but all",
      "start": 168.099,
      "duration": 5.161
    },
    {
      "text": "people regardless of color of your skin",
      "start": 171.189,
      "duration": 4.77
    },
    {
      "text": "are different they're they're diverse",
      "start": 173.26,
      "duration": 6.119
    },
    {
      "text": "families are different but once you",
      "start": 175.959,
      "duration": 7.081
    },
    {
      "text": "start marching to the sound and acting",
      "start": 179.379,
      "duration": 6.39
    },
    {
      "text": "to the actions or reacting to the same",
      "start": 183.04,
      "duration": 5.52
    },
    {
      "text": "actions of the same drummer then you are",
      "start": 185.769,
      "duration": 6.93
    },
    {
      "text": "able to create a monolith and our vote",
      "start": 188.56,
      "duration": 7.709
    },
    {
      "text": "became monolithic and because of that it",
      "start": 192.699,
      "duration": 6.99
    },
    {
      "text": "was not optimal for us at all the",
      "start": 196.269,
      "duration": 5.791
    },
    {
      "text": "Democrats took us for granted and the",
      "start": 199.689,
      "duration": 6.3
    },
    {
      "text": "Republicans didn't care and so that is",
      "start": 202.06,
      "duration": 7.829
    },
    {
      "text": "where we got off where our core black",
      "start": 205.989,
      "duration": 6.42
    },
    {
      "text": "people are conservative black people",
      "start": 209.889,
      "duration": 6.32
    },
    {
      "text": "love Jesus just too yes they do say that",
      "start": 212.409,
      "duration": 7.32
    },
    {
      "text": "we are Christians and there are certain",
      "start": 216.209,
      "duration": 8.291
    },
    {
      "text": "social values now that our grandparents",
      "start": 219.729,
      "duration": 7.65
    },
    {
      "text": "see us embracing or if they were alive",
      "start": 224.5,
      "duration": 5.22
    },
    {
      "text": "could see us embracing that they would",
      "start": 227.379,
      "duration": 6.6
    },
    {
      "text": "certainly wonder why this is a trend",
      "start": 229.72,
      "duration": 8.159
    },
    {
      "text": "that we have gone to instead of the type",
      "start": 233.979,
      "duration": 8.07
    },
    {
      "text": "of ideals and moral codes that they",
      "start": 237.879,
      "duration": 7.08
    },
    {
      "text": "themselves adhere to this is one of the",
      "start": 242.049,
      "duration": 5.25
    },
    {
      "text": "great frustrations of course of people",
      "start": 244.959,
      "duration": 4.53
    },
    {
      "text": "who look at various groups within",
      "start": 247.299,
      "duration": 4.14
    },
    {
      "text": "America and say okay well then the post",
      "start": 249.489,
      "duration": 2.881
    },
    {
      "text": "Second World War period",
      "start": 251.439,
      "duration": 2.401
    },
    {
      "text": "you know blacks fought in Second World",
      "start": 252.37,
      "duration": 3.479
    },
    {
      "text": "War you got the GI Bill which got a lot",
      "start": 253.84,
      "duration": 4.019
    },
    {
      "text": "of Education there was a renaissance",
      "start": 255.849,
      "duration": 4.051
    },
    {
      "text": "there was more blacks moving into the",
      "start": 257.859,
      "duration": 3.69
    },
    {
      "text": "middle class that at anytime before in",
      "start": 259.9,
      "duration": 3.69
    },
    {
      "text": "American history and this upward",
      "start": 261.549,
      "duration": 3.431
    },
    {
      "text": "progress does Drive",
      "start": 263.59,
      "duration": 4.78
    },
    {
      "text": "towards greater equality and equity it",
      "start": 264.98,
      "duration": 5.19
    },
    {
      "text": "seems to me kind of like the sixties",
      "start": 268.37,
      "duration": 3.33
    },
    {
      "text": "turned that around it kind of plowed it",
      "start": 270.17,
      "duration": 3.39
    },
    {
      "text": "under whether it was the welfare state",
      "start": 271.7,
      "duration": 3.75
    },
    {
      "text": "whether I don't know whether these sort",
      "start": 273.56,
      "duration": 4.38
    },
    {
      "text": "of increasing co-opting of black causes",
      "start": 275.45,
      "duration": 4.26
    },
    {
      "text": "by leftist I don't know exactly what it",
      "start": 277.94,
      "duration": 3.39
    },
    {
      "text": "was I'm sure you have some insights but",
      "start": 279.71,
      "duration": 4.77
    },
    {
      "text": "it seems like things were for once",
      "start": 281.33,
      "duration": 4.95
    },
    {
      "text": "heading in the right direction and it",
      "start": 284.48,
      "duration": 3.51
    },
    {
      "text": "didn't seem to last more than 10 or 15",
      "start": 286.28,
      "duration": 6.12
    },
    {
      "text": "years before things turn back to a",
      "start": 287.99,
      "duration": 7.65
    },
    {
      "text": "negative direction let me share this",
      "start": 292.4,
      "duration": 5.25
    },
    {
      "text": "with you I speak across this country i",
      "start": 295.64,
      "duration": 4.02
    },
    {
      "text": "criss cross this nation once a month",
      "start": 297.65,
      "duration": 4.29
    },
    {
      "text": "almost every month speaking at various",
      "start": 299.66,
      "duration": 4.56
    },
    {
      "text": "events throughout the nation and there's",
      "start": 301.94,
      "duration": 5.48
    },
    {
      "text": "a something that I include in my",
      "start": 304.22,
      "duration": 5.19
    },
    {
      "text": "presentation that I want to share with",
      "start": 307.42,
      "duration": 5.47
    },
    {
      "text": "your audience and that is this during",
      "start": 309.41,
      "duration": 6.51
    },
    {
      "text": "the early 70s there came a movement to",
      "start": 312.89,
      "duration": 6.03
    },
    {
      "text": "make them laugh make America laugh and",
      "start": 315.92,
      "duration": 4.98
    },
    {
      "text": "they created certain characters and",
      "start": 318.92,
      "duration": 5.22
    },
    {
      "text": "shows that were designed to do that but",
      "start": 320.9,
      "duration": 5.13
    },
    {
      "text": "in a way it was diabolical and I'll give",
      "start": 324.14,
      "duration": 3.24
    },
    {
      "text": "you an idea of what happened you",
      "start": 326.03,
      "duration": 4.08
    },
    {
      "text": "remember all in the family the good",
      "start": 327.38,
      "duration": 5.43
    },
    {
      "text": "times with JJ dine a kid dynamite Walker",
      "start": 330.11,
      "duration": 4.2
    },
    {
      "text": "the Jeffersons",
      "start": 332.81,
      "duration": 4.32
    },
    {
      "text": "hiko and the man and those types of",
      "start": 334.31,
      "duration": 6.24
    },
    {
      "text": "shows all been more good and as far as",
      "start": 337.13,
      "duration": 5.19
    },
    {
      "text": "entertainment was concerned but there",
      "start": 340.55,
      "duration": 4.92
    },
    {
      "text": "was a message to black America and to",
      "start": 342.32,
      "duration": 7.17
    },
    {
      "text": "America itself in those shows I'll take",
      "start": 345.47,
      "duration": 5.97
    },
    {
      "text": "the Jeffersons for instance there you",
      "start": 349.49,
      "duration": 4.26
    },
    {
      "text": "had George Jefferson an upwardly mobile",
      "start": 351.44,
      "duration": 5.79
    },
    {
      "text": "black man worked his way out of the",
      "start": 353.75,
      "duration": 5.52
    },
    {
      "text": "ghetto and he moved on up to the east",
      "start": 357.23,
      "duration": 5.12
    },
    {
      "text": "side to that d-lux apartment in the sky",
      "start": 359.27,
      "duration": 5.88
    },
    {
      "text": "don't don't put that song in my head man",
      "start": 362.35,
      "duration": 5.2
    },
    {
      "text": "I saw it growing up I get that song in",
      "start": 365.15,
      "duration": 3.57
    },
    {
      "text": "my head I won't be able to concentrate",
      "start": 367.55,
      "duration": 2.52
    },
    {
      "text": "anything else for the rest of the",
      "start": 368.72,
      "duration": 4.05
    },
    {
      "text": "conversation if I go ahead and so there",
      "start": 370.07,
      "duration": 7.59
    },
    {
      "text": "he was in the he was still angry",
      "start": 372.77,
      "duration": 8.43
    },
    {
      "text": "who is he angry with he was angry at the",
      "start": 377.66,
      "duration": 6.98
    },
    {
      "text": "stereotype that we were painting of",
      "start": 381.2,
      "duration": 7.26
    },
    {
      "text": "Archie Bunker and the names that he was",
      "start": 384.64,
      "duration": 4.39
    },
    {
      "text": "calling",
      "start": 388.46,
      "duration": 2.85
    },
    {
      "text": "Archie indicated that he was still angry",
      "start": 389.03,
      "duration": 5.31
    },
    {
      "text": "at him even though he",
      "start": 391.31,
      "duration": 5.7
    },
    {
      "text": "managed by the sweat of his brow and the",
      "start": 394.34,
      "duration": 6.47
    },
    {
      "text": "work of his hand to pull himself out of",
      "start": 397.01,
      "duration": 7.77
    },
    {
      "text": "type of situation now on the other hand",
      "start": 400.81,
      "duration": 8.17
    },
    {
      "text": "you have JJ Walker a happy-go-lucky kid",
      "start": 404.78,
      "duration": 7.88
    },
    {
      "text": "in the inner city of Chicago black kids",
      "start": 408.98,
      "duration": 7.65
    },
    {
      "text": "began to emulate that all of them should",
      "start": 412.66,
      "duration": 8.62
    },
    {
      "text": "have but I so know that JJ Walker had",
      "start": 416.63,
      "duration": 8.67
    },
    {
      "text": "and even black men who have made it were",
      "start": 421.28,
      "duration": 6.15
    },
    {
      "text": "being programmed to think that they",
      "start": 425.3,
      "duration": 5.06
    },
    {
      "text": "should still be angry at the white man",
      "start": 427.43,
      "duration": 7.53
    },
    {
      "text": "because George Jefferson was he had an",
      "start": 430.36,
      "duration": 7.47
    },
    {
      "text": "opportunity right after dr. King's death",
      "start": 434.96,
      "duration": 6.9
    },
    {
      "text": "to as you were saying break out of that",
      "start": 437.83,
      "duration": 6.43
    },
    {
      "text": "type of thinking we had an opportunity",
      "start": 441.86,
      "duration": 5.43
    },
    {
      "text": "become like the Irishman to become like",
      "start": 444.26,
      "duration": 6.21
    },
    {
      "text": "the Italian we had that opportunity but",
      "start": 447.29,
      "duration": 7.68
    },
    {
      "text": "we were herded into a Corral and we were",
      "start": 450.47,
      "duration": 8.51
    },
    {
      "text": "fantasy that if we all do this together",
      "start": 454.97,
      "duration": 8.31
    },
    {
      "text": "if we don't all succeed pepper then",
      "start": 458.98,
      "duration": 6.31
    },
    {
      "text": "we're not going to succeed at all and",
      "start": 463.28,
      "duration": 5.34
    },
    {
      "text": "that has been the mantra of the Democrat",
      "start": 465.29,
      "duration": 5.76
    },
    {
      "text": "Party that you become our mascots",
      "start": 468.62,
      "duration": 4.65
    },
    {
      "text": "and we'll make sure that all of your",
      "start": 471.05,
      "duration": 5.79
    },
    {
      "text": "boats rise together that is a diabolical",
      "start": 473.27,
      "duration": 6.84
    },
    {
      "text": "plot that they have played on black",
      "start": 476.84,
      "duration": 5.19
    },
    {
      "text": "people been and they're still playing it",
      "start": 480.11,
      "duration": 4.17
    },
    {
      "text": "on them now and it's a funny thing to",
      "start": 482.03,
      "duration": 4.44
    },
    {
      "text": "see how because when I grew up the black",
      "start": 484.28,
      "duration": 4.17
    },
    {
      "text": "friends that I had they were pretty",
      "start": 486.47,
      "duration": 4.2
    },
    {
      "text": "conservative I mean more conservative",
      "start": 488.45,
      "duration": 4.23
    },
    {
      "text": "than I was in my youth they came sort of",
      "start": 490.67,
      "duration": 3.96
    },
    {
      "text": "stable two-parent households there their",
      "start": 492.68,
      "duration": 3.45
    },
    {
      "text": "parents were professionals that nice",
      "start": 494.63,
      "duration": 3.3
    },
    {
      "text": "houses they you know one of them was",
      "start": 496.13,
      "duration": 4.59
    },
    {
      "text": "like the the head saxophone player in",
      "start": 497.93,
      "duration": 5.01
    },
    {
      "text": "the school band and great and one of the",
      "start": 500.72,
      "duration": 5.34
    },
    {
      "text": "most popular kids in my school and it's",
      "start": 502.94,
      "duration": 5.66
    },
    {
      "text": "funny because my initial experience of",
      "start": 506.06,
      "duration": 4.65
    },
    {
      "text": "hanging out with black friends was that",
      "start": 508.6,
      "duration": 3.16
    },
    {
      "text": "they were pretty conservative and",
      "start": 510.71,
      "duration": 3
    },
    {
      "text": "religious and solid and stable",
      "start": 511.76,
      "duration": 4.26
    },
    {
      "text": "middle-class values and so on I didn't",
      "start": 513.71,
      "duration": 4.02
    },
    {
      "text": "get this sort of seething anger stuff we",
      "start": 516.02,
      "duration": 2.97
    },
    {
      "text": "would talk about race from time to time",
      "start": 517.73,
      "duration": 2.64
    },
    {
      "text": "but it was sort of an int more",
      "start": 518.99,
      "duration": 4.53
    },
    {
      "text": "incidental subject and then when I got",
      "start": 520.37,
      "duration": 4.98
    },
    {
      "text": "older the Black Voices that come in",
      "start": 523.52,
      "duration": 3.81
    },
    {
      "text": "through the mainstream media seemed to",
      "start": 525.35,
      "duration": 2.55
    },
    {
      "text": "almost",
      "start": 527.33,
      "duration": 4.14
    },
    {
      "text": "Epis fully exclude those kinds of voices",
      "start": 527.9,
      "duration": 6.27
    },
    {
      "text": "as what not radical enough not angry",
      "start": 531.47,
      "duration": 5.01
    },
    {
      "text": "enough not divisive enough not whatever",
      "start": 534.17,
      "duration": 5.4
    },
    {
      "text": "but there is a great deal of silence a",
      "start": 536.48,
      "duration": 5.13
    },
    {
      "text": "sort of blackout silence so to speak",
      "start": 539.57,
      "duration": 3.69
    },
    {
      "text": "from conservative black voices in the",
      "start": 541.61,
      "duration": 3.06
    },
    {
      "text": "media which is really frustrating",
      "start": 543.26,
      "duration": 4.08
    },
    {
      "text": "because yeah there and they've got",
      "start": 544.67,
      "duration": 4.55
    },
    {
      "text": "wonderful things to say like yourself",
      "start": 547.34,
      "duration": 4.62
    },
    {
      "text": "the reason you don't hear the story of",
      "start": 549.22,
      "duration": 5.23
    },
    {
      "text": "Frederick Douglass the reason you don't",
      "start": 551.96,
      "duration": 6.69
    },
    {
      "text": "see a big movie about Frederick Douglass",
      "start": 554.45,
      "duration": 6.33
    },
    {
      "text": "is because he's not black enough for",
      "start": 558.65,
      "duration": 5.58
    },
    {
      "text": "this particular experience that we live",
      "start": 560.78,
      "duration": 7.02
    },
    {
      "text": "in America today and black people for",
      "start": 564.23,
      "duration": 6.66
    },
    {
      "text": "whatever reason don't realize that",
      "start": 567.8,
      "duration": 6.57
    },
    {
      "text": "there's large portions successful",
      "start": 570.89,
      "duration": 6.78
    },
    {
      "text": "portions of our past history that are",
      "start": 574.37,
      "duration": 5.25
    },
    {
      "text": "not recognized by the progressive",
      "start": 577.67,
      "duration": 4.35
    },
    {
      "text": "liberal media and Frederick Douglass is",
      "start": 579.62,
      "duration": 5.37
    },
    {
      "text": "one of them he was an escaped slave of",
      "start": 582.02,
      "duration": 5.22
    },
    {
      "text": "course he died what by today's standard",
      "start": 584.99,
      "duration": 4.98
    },
    {
      "text": "would be a multi-millionaire and most",
      "start": 587.24,
      "duration": 5.04
    },
    {
      "text": "people don't realize that but they don't",
      "start": 589.97,
      "duration": 5.61
    },
    {
      "text": "ever address the fact that we never talk",
      "start": 592.28,
      "duration": 5.72
    },
    {
      "text": "about Douglass we never talk about Fred",
      "start": 595.58,
      "duration": 6.02
    },
    {
      "text": "Van Turner yeah",
      "start": 598,
      "duration": 3.6
    },
    {
      "text": "well that's that's to divide in in some",
      "start": 602.12,
      "duration": 4.47
    },
    {
      "text": "of the black intellectuals which is",
      "start": 604.61,
      "duration": 5.37
    },
    {
      "text": "around are we going to try and fix our",
      "start": 606.59,
      "duration": 5.85
    },
    {
      "text": "own communities and and sort of arise by",
      "start": 609.98,
      "duration": 5.16
    },
    {
      "text": "by hard effort hard work you know we",
      "start": 612.44,
      "duration": 4.14
    },
    {
      "text": "start from a disadvantage well that just",
      "start": 615.14,
      "duration": 2.76
    },
    {
      "text": "means we have to work harder and be",
      "start": 616.58,
      "duration": 3.21
    },
    {
      "text": "better and and so on that's sort of the",
      "start": 617.9,
      "duration": 3.99
    },
    {
      "text": "one example and the other is you know",
      "start": 619.79,
      "duration": 3.45
    },
    {
      "text": "are you gonna get your resources from",
      "start": 621.89,
      "duration": 2.67
    },
    {
      "text": "trading in the free market from",
      "start": 623.24,
      "duration": 3.06
    },
    {
      "text": "developing your human capital from being",
      "start": 624.56,
      "duration": 3.87
    },
    {
      "text": "an entrepreneur or are you going to get",
      "start": 626.3,
      "duration": 4.29
    },
    {
      "text": "your resources from creating this",
      "start": 628.43,
      "duration": 4.31
    },
    {
      "text": "edifice of white racism and then",
      "start": 630.59,
      "duration": 4.35
    },
    {
      "text": "demanding that the government give you",
      "start": 632.74,
      "duration": 4.3
    },
    {
      "text": "resources as compensation and I think",
      "start": 634.94,
      "duration": 4.83
    },
    {
      "text": "these two divides are really creating",
      "start": 637.04,
      "duration": 4.77
    },
    {
      "text": "big splits not just within the black",
      "start": 639.77,
      "duration": 3.36
    },
    {
      "text": "community but within American",
      "start": 641.81,
      "duration": 4.53
    },
    {
      "text": "communities as a whole one of the things",
      "start": 643.13,
      "duration": 5.67
    },
    {
      "text": "and and you you definitely alluded to it",
      "start": 646.34,
      "duration": 5.49
    },
    {
      "text": "right then one of the things that we",
      "start": 648.8,
      "duration": 6.03
    },
    {
      "text": "forget also my grandfather was an",
      "start": 651.83,
      "duration": 5.37
    },
    {
      "text": "illiterate man he would not have been",
      "start": 654.83,
      "duration": 4.89
    },
    {
      "text": "able to read his name on the mark my",
      "start": 657.2,
      "duration": 4.32
    },
    {
      "text": "name on the back of this wall",
      "start": 659.72,
      "duration": 5.91
    },
    {
      "text": "if if he was still alive in fact he was",
      "start": 661.52,
      "duration": 7.68
    },
    {
      "text": "the first CL and that comes from him not",
      "start": 665.63,
      "duration": 5.91
    },
    {
      "text": "being able to spell so he gave all the",
      "start": 669.2,
      "duration": 5.16
    },
    {
      "text": "boy children initials for names and it's",
      "start": 671.54,
      "duration": 5.18
    },
    {
      "text": "a great story behind that but but anyway",
      "start": 674.36,
      "duration": 6.21
    },
    {
      "text": "there was no affirmative action for this",
      "start": 676.72,
      "duration": 7.54
    },
    {
      "text": "illiterate man but he used his skills as",
      "start": 680.57,
      "duration": 8.4
    },
    {
      "text": "a woodcutter to start a pup wood cutting",
      "start": 684.26,
      "duration": 7.38
    },
    {
      "text": "business and that's for the paper mill",
      "start": 688.97,
      "duration": 5.22
    },
    {
      "text": "he was able to buy trucks three of them",
      "start": 691.64,
      "duration": 6.42
    },
    {
      "text": "he hired 15 men now all of this was back",
      "start": 694.19,
      "duration": 7.23
    },
    {
      "text": "in the days before affirmative action",
      "start": 698.06,
      "duration": 6.75
    },
    {
      "text": "all of this was back when if it didn't",
      "start": 701.42,
      "duration": 5.76
    },
    {
      "text": "rain the crops were not going to come in",
      "start": 704.81,
      "duration": 5.16
    },
    {
      "text": "and if you didn't were a card you were",
      "start": 707.18,
      "duration": 5.4
    },
    {
      "text": "not going to eat what I think black",
      "start": 709.97,
      "duration": 4.8
    },
    {
      "text": "people have forgotten is that we are the",
      "start": 712.58,
      "duration": 5.94
    },
    {
      "text": "people who have survived slavery we were",
      "start": 714.77,
      "duration": 4.83
    },
    {
      "text": "not victims",
      "start": 718.52,
      "duration": 4.59
    },
    {
      "text": "we are victors but progressive liberals",
      "start": 719.6,
      "duration": 7.62
    },
    {
      "text": "have actually made victims of people who",
      "start": 723.11,
      "duration": 7.59
    },
    {
      "text": "have as a legacy of their existence in",
      "start": 727.22,
      "duration": 6.09
    },
    {
      "text": "this country victorious",
      "start": 730.7,
      "duration": 5.07
    },
    {
      "text": "stories and we don't tell those stories",
      "start": 733.31,
      "duration": 6.24
    },
    {
      "text": "we just want to dwell and roll around in",
      "start": 735.77,
      "duration": 8.85
    },
    {
      "text": "the ideas of what they did what not in",
      "start": 739.55,
      "duration": 9.12
    },
    {
      "text": "the ideas of how we overcame all of that",
      "start": 744.62,
      "duration": 6.96
    },
    {
      "text": "through hard work and perseverance just",
      "start": 748.67,
      "duration": 5.31
    },
    {
      "text": "like the Irish that's like the Italians",
      "start": 751.58,
      "duration": 5.1
    },
    {
      "text": "is that anyone else in this country we",
      "start": 753.98,
      "duration": 3.69
    },
    {
      "text": "have survived it",
      "start": 756.68,
      "duration": 4.17
    },
    {
      "text": "but we all tell that story well that",
      "start": 757.67,
      "duration": 4.83
    },
    {
      "text": "would give of course a kind of pride in",
      "start": 760.85,
      "duration": 4.02
    },
    {
      "text": "a resilience that would make dependence",
      "start": 762.5,
      "duration": 4.5
    },
    {
      "text": "on government programs a violation of",
      "start": 764.87,
      "duration": 4.8
    },
    {
      "text": "that very pride and resilience and that",
      "start": 767,
      "duration": 4.89
    },
    {
      "text": "dangling of free stuff in the face of",
      "start": 769.67,
      "duration": 3.99
    },
    {
      "text": "not just blacks but various communities",
      "start": 771.89,
      "duration": 3.54
    },
    {
      "text": "you know here give us your vote we'll",
      "start": 773.66,
      "duration": 3.72
    },
    {
      "text": "give you free stuff I mean that decays",
      "start": 775.43,
      "duration": 4.29
    },
    {
      "text": "families that decays neighborhoods that",
      "start": 777.38,
      "duration": 4.92
    },
    {
      "text": "decays the work ethic and I think",
      "start": 779.72,
      "duration": 5.85
    },
    {
      "text": "triggers women to choose less productive",
      "start": 782.3,
      "duration": 5.13
    },
    {
      "text": "and honorable men to be the fathers of",
      "start": 785.57,
      "duration": 2.7
    },
    {
      "text": "their children because they're",
      "start": 787.43,
      "duration": 2.58
    },
    {
      "text": "guaranteed resources from the state so",
      "start": 788.27,
      "duration": 5.76
    },
    {
      "text": "they can I guess they can indulge in",
      "start": 790.01,
      "duration": 5.7
    },
    {
      "text": "shallow last rather than looking for",
      "start": 794.03,
      "duration": 3.6
    },
    {
      "text": "quality of character for a provider for",
      "start": 795.71,
      "duration": 4.59
    },
    {
      "text": "their children and it leads to a form of",
      "start": 797.63,
      "duration": 5.16
    },
    {
      "text": "slavery and what progressive liberals",
      "start": 800.3,
      "duration": 5.25
    },
    {
      "text": "have found is that the slave does not",
      "start": 802.79,
      "duration": 6.06
    },
    {
      "text": "necessarily seek freedom the slave seeks",
      "start": 805.55,
      "duration": 7.47
    },
    {
      "text": "comfort a softer bed to lay on more food",
      "start": 808.85,
      "duration": 7.43
    },
    {
      "text": "in its bowl a roof that doesn't leak an",
      "start": 813.02,
      "duration": 10.01
    },
    {
      "text": "Obama phone if in fact you provide the",
      "start": 816.28,
      "duration": 10.54
    },
    {
      "text": "comfort a slave sometimes is very much",
      "start": 823.03,
      "duration": 6.85
    },
    {
      "text": "content with remaining in the slavery if",
      "start": 826.82,
      "duration": 4.71
    },
    {
      "text": "you just make it easier for him to be a",
      "start": 829.88,
      "duration": 3.84
    },
    {
      "text": "slave and that's what progressive",
      "start": 831.53,
      "duration": 4.89
    },
    {
      "text": "liberalism has done as you have",
      "start": 833.72,
      "duration": 5.31
    },
    {
      "text": "described with the black woman and the",
      "start": 836.42,
      "duration": 5.93
    },
    {
      "text": "black man in in modern-day America",
      "start": 839.03,
      "duration": 5.91
    },
    {
      "text": "America doesn't realize that there was a",
      "start": 842.35,
      "duration": 5.89
    },
    {
      "text": "time with the additives that our",
      "start": 844.94,
      "duration": 6.8
    },
    {
      "text": "grandparents and great-grandparents they",
      "start": 848.24,
      "duration": 6.63
    },
    {
      "text": "actually had moments when the black",
      "start": 851.74,
      "duration": 6.97
    },
    {
      "text": "marriage rate was higher then the white",
      "start": 854.87,
      "duration": 6.93
    },
    {
      "text": "marriage rate there was a time when it",
      "start": 858.71,
      "duration": 7.2
    },
    {
      "text": "was an absolute disgrace or your child",
      "start": 861.8,
      "duration": 6.96
    },
    {
      "text": "as a black family could go to jail or be",
      "start": 865.91,
      "duration": 5.31
    },
    {
      "text": "found to be a drug addict that was an",
      "start": 868.76,
      "duration": 5.67
    },
    {
      "text": "absolute disgrace why because you were",
      "start": 871.22,
      "duration": 6.63
    },
    {
      "text": "not being a credit to the race that was",
      "start": 874.43,
      "duration": 7.14
    },
    {
      "text": "actually a living breathing statement",
      "start": 877.85,
      "duration": 5.37
    },
    {
      "text": "when I was growing up in segregated",
      "start": 881.57,
      "duration": 3.96
    },
    {
      "text": "schools we want you to become a credit",
      "start": 883.22,
      "duration": 4.23
    },
    {
      "text": "to the race you don't even hear that",
      "start": 885.53,
      "duration": 3.69
    },
    {
      "text": "anymore in fact that may actually be",
      "start": 887.45,
      "duration": 5.19
    },
    {
      "text": "insulting there's some who might hear",
      "start": 889.22,
      "duration": 6.54
    },
    {
      "text": "that and then the word colored we were",
      "start": 892.64,
      "duration": 5.16
    },
    {
      "text": "we're very happy with being called",
      "start": 895.76,
      "duration": 4.44
    },
    {
      "text": "people of color but we don't want to",
      "start": 897.8,
      "duration": 5.46
    },
    {
      "text": "hear the word colored that is actually",
      "start": 900.2,
      "duration": 6.139
    },
    {
      "text": "something that is absolutely insane and",
      "start": 903.26,
      "duration": 6.03
    },
    {
      "text": "reading these stories of how black",
      "start": 906.339,
      "duration": 5.021
    },
    {
      "text": "communities used to function in 20s 30s",
      "start": 909.29,
      "duration": 4.32
    },
    {
      "text": "and 40s when of course the racism was",
      "start": 911.36,
      "duration": 4.2
    },
    {
      "text": "more of a potent force in society there",
      "start": 913.61,
      "duration": 4.11
    },
    {
      "text": "was certainly less pushback against it",
      "start": 915.56,
      "duration": 4.529
    },
    {
      "text": "reading dr. Sam with Thomas soles last",
      "start": 917.72,
      "duration": 4.68
    },
    {
      "text": "column before he retired where he was",
      "start": 920.089,
      "duration": 3.391
    },
    {
      "text": "talking about you know he went to",
      "start": 922.4,
      "duration": 3.45
    },
    {
      "text": "visited a Harlem School not too long ago",
      "start": 923.48,
      "duration": 4.17
    },
    {
      "text": "and you know there's metal detectors",
      "start": 925.85,
      "duration": 3.78
    },
    {
      "text": "bars on the windows and so on and he",
      "start": 927.65,
      "duration": 3.57
    },
    {
      "text": "says oh yeah you know it's really hot we",
      "start": 929.63,
      "duration": 3.12
    },
    {
      "text": "used to sleep out on her balconies we",
      "start": 931.22,
      "duration": 3.03
    },
    {
      "text": "used to sleep out on our front porch we",
      "start": 932.75,
      "duration": 2.88
    },
    {
      "text": "used to sleep out on the roof and it was",
      "start": 934.25,
      "duration": 2.88
    },
    {
      "text": "really hot and people are like what are",
      "start": 935.63,
      "duration": 3.66
    },
    {
      "text": "you crazy and he was he was talking",
      "start": 937.13,
      "duration": 4.11
    },
    {
      "text": "about oh yeah that Park that Park over",
      "start": 939.29,
      "duration": 3.54
    },
    {
      "text": "there that's where I used to play when I",
      "start": 941.24,
      "duration": 3.27
    },
    {
      "text": "was a kid and the kids were like play",
      "start": 942.83,
      "duration": 3.03
    },
    {
      "text": "when you were a kid you go over there",
      "start": 944.51,
      "duration": 2.64
    },
    {
      "text": "you get stabbed in the eyeball by a",
      "start": 945.86,
      "duration": 4.02
    },
    {
      "text": "junkie like how much and how rapidly and",
      "start": 947.15,
      "duration": 4.68
    },
    {
      "text": "how catastrophic Lee and it's not just",
      "start": 949.88,
      "duration": 3.84
    },
    {
      "text": "the black community lord knows the white",
      "start": 951.83,
      "duration": 3.54
    },
    {
      "text": "community is going the same way as far",
      "start": 953.72,
      "duration": 5.01
    },
    {
      "text": "as unwed motherhood goes but this decay",
      "start": 955.37,
      "duration": 6.57
    },
    {
      "text": "and and collapse formerly highly",
      "start": 958.73,
      "duration": 4.47
    },
    {
      "text": "functional as you point out more",
      "start": 961.94,
      "duration": 2.16
    },
    {
      "text": "functional than a lot of white",
      "start": 963.2,
      "duration": 2.13
    },
    {
      "text": "communities highly functional",
      "start": 964.1,
      "duration": 3.87
    },
    {
      "text": "communities in less than a century have",
      "start": 965.33,
      "duration": 6.87
    },
    {
      "text": "been reduced to these war zones it has",
      "start": 967.97,
      "duration": 8.67
    },
    {
      "text": "and the pride of ownership the pride of",
      "start": 972.2,
      "duration": 9.24
    },
    {
      "text": "community is no longer there I'm 61",
      "start": 976.64,
      "duration": 10.95
    },
    {
      "text": "years old and I was nine years old in 64",
      "start": 981.44,
      "duration": 10.32
    },
    {
      "text": "65 when the Civil Rights Acts were",
      "start": 987.59,
      "duration": 6.66
    },
    {
      "text": "legislation which was asked that's",
      "start": 991.76,
      "duration": 4.77
    },
    {
      "text": "actually drank from the colored and",
      "start": 994.25,
      "duration": 4.61
    },
    {
      "text": "white water fountains I got to tell you",
      "start": 996.53,
      "duration": 5.22
    },
    {
      "text": "the water in both of them is saying I",
      "start": 998.86,
      "duration": 4.63
    },
    {
      "text": "used to drink from the white water",
      "start": 1001.75,
      "duration": 3.84
    },
    {
      "text": "fountains purposely just to see what the",
      "start": 1003.49,
      "duration": 4.38
    },
    {
      "text": "big deal was and then what there is none",
      "start": 1005.59,
      "duration": 4.92
    },
    {
      "text": "there is no no big deal riding on the",
      "start": 1007.87,
      "duration": 5.88
    },
    {
      "text": "back of a bus I remember what that was",
      "start": 1010.51,
      "duration": 6.57
    },
    {
      "text": "about being called the n-word by people",
      "start": 1013.75,
      "duration": 6.78
    },
    {
      "text": "who know how to say it and the intent",
      "start": 1017.08,
      "duration": 7.77
    },
    {
      "text": "behind saying it in those times it was",
      "start": 1020.53,
      "duration": 7.559
    },
    {
      "text": "truly to be dehumanizing not out of",
      "start": 1024.85,
      "duration": 6.3
    },
    {
      "text": "anger but there was an intent behind it",
      "start": 1028.089,
      "duration": 5.37
    },
    {
      "text": "the same type of intent I might add that",
      "start": 1031.15,
      "duration": 4.65
    },
    {
      "text": "rappers gangster rappers",
      "start": 1033.459,
      "duration": 7.021
    },
    {
      "text": "use in their music today there is an",
      "start": 1035.8,
      "duration": 8.01
    },
    {
      "text": "intent behind what they are saying is",
      "start": 1040.48,
      "duration": 6.39
    },
    {
      "text": "very much the same intent that was used",
      "start": 1043.81,
      "duration": 6.92
    },
    {
      "text": "toward black people by white folks in",
      "start": 1046.87,
      "duration": 7.8
    },
    {
      "text": "the day it's being used by provide",
      "start": 1050.73,
      "duration": 6.91
    },
    {
      "text": "progressive liberals in that way now my",
      "start": 1054.67,
      "duration": 4.53
    },
    {
      "text": "whole point insane",
      "start": 1057.64,
      "duration": 5.73
    },
    {
      "text": "that is that there has been a design to",
      "start": 1059.2,
      "duration": 9.3
    },
    {
      "text": "actually diminish womanhood and the",
      "start": 1063.37,
      "duration": 8.72
    },
    {
      "text": "black male among the black male",
      "start": 1068.5,
      "duration": 6.33
    },
    {
      "text": "especially when you look at the evil in",
      "start": 1072.09,
      "duration": 6.04
    },
    {
      "text": "my view and in my discipline of abortion",
      "start": 1074.83,
      "duration": 6.089
    },
    {
      "text": "it diminishes life and if you cannot",
      "start": 1078.13,
      "duration": 6.179
    },
    {
      "text": "respect life inside the womb then life",
      "start": 1080.919,
      "duration": 5.461
    },
    {
      "text": "outside the womb walking down the",
      "start": 1084.309,
      "duration": 4.62
    },
    {
      "text": "streets of Chicago is absolutely",
      "start": 1086.38,
      "duration": 5.429
    },
    {
      "text": "meaningless as well and that is an",
      "start": 1088.929,
      "duration": 5.071
    },
    {
      "text": "astonishing fact Ciel that I remember",
      "start": 1091.809,
      "duration": 6
    },
    {
      "text": "reading that a black baby conceived in",
      "start": 1094,
      "duration": 6.83
    },
    {
      "text": "the womb in modern-day America this year",
      "start": 1097.809,
      "duration": 6.151
    },
    {
      "text": "2017 has only a 50/50 chance of being",
      "start": 1100.83,
      "duration": 6.219
    },
    {
      "text": "born there we got a 60% abortion rate",
      "start": 1103.96,
      "duration": 6.329
    },
    {
      "text": "50% killing unborn children in the womb",
      "start": 1107.049,
      "duration": 5.311
    },
    {
      "text": "now I don't care what your views are on",
      "start": 1110.289,
      "duration": 3.721
    },
    {
      "text": "abortion while I kind of do but the",
      "start": 1112.36,
      "duration": 4.38
    },
    {
      "text": "point is there is no sane person in the",
      "start": 1114.01,
      "duration": 4.409
    },
    {
      "text": "universe no matter what you views on",
      "start": 1116.74,
      "duration": 3.63
    },
    {
      "text": "abortion who thinks that is a good",
      "start": 1118.419,
      "duration": 4.201
    },
    {
      "text": "situation that is a fine place for a",
      "start": 1120.37,
      "duration": 4.76
    },
    {
      "text": "community to be and this callousness",
      "start": 1122.62,
      "duration": 5.1
    },
    {
      "text": "towards the unborn I mean we have it in",
      "start": 1125.13,
      "duration": 4.87
    },
    {
      "text": "general in society we burden everyone",
      "start": 1127.72,
      "duration": 3.75
    },
    {
      "text": "all the unborn with national debts",
      "start": 1130,
      "duration": 3.09
    },
    {
      "text": "because we're too greedy to pay the",
      "start": 1131.47,
      "duration": 3.12
    },
    {
      "text": "taxes for all the goodies we want to",
      "start": 1133.09,
      "duration": 4.38
    },
    {
      "text": "vote for but this visceral destruction",
      "start": 1134.59,
      "duration": 6.059
    },
    {
      "text": "of life in the womb 50% the chance that",
      "start": 1137.47,
      "duration": 5.4
    },
    {
      "text": "is truly astonishing and not much talked",
      "start": 1140.649,
      "duration": 5.431
    },
    {
      "text": "about let's take it a step further black",
      "start": 1142.87,
      "duration": 6.57
    },
    {
      "text": "folks through only 13% of the population",
      "start": 1146.08,
      "duration": 6.36
    },
    {
      "text": "well 12 point seven percent of the",
      "start": 1149.44,
      "duration": 6.449
    },
    {
      "text": "population in this country abortion of",
      "start": 1152.44,
      "duration": 7.89
    },
    {
      "text": "black babies is 43 percent in this",
      "start": 1155.889,
      "duration": 8.311
    },
    {
      "text": "country how is it possible that we're so",
      "start": 1160.33,
      "duration": 8.16
    },
    {
      "text": "upside down in that figure if there was",
      "start": 1164.2,
      "duration": 9.829
    },
    {
      "text": "not some type of design and that heinous",
      "start": 1168.49,
      "duration": 8.909
    },
    {
      "text": "practice how is it possible that black",
      "start": 1174.029,
      "duration": 8.471
    },
    {
      "text": "men were only 6.5 percent of the",
      "start": 1177.399,
      "duration": 9.63
    },
    {
      "text": "population in America account for nearly",
      "start": 1182.5,
      "duration": 8.34
    },
    {
      "text": "60% of all the violent crimes",
      "start": 1187.029,
      "duration": 7.111
    },
    {
      "text": "in this country what has happened here",
      "start": 1190.84,
      "duration": 5.82
    },
    {
      "text": "and how come we have football players",
      "start": 1194.14,
      "duration": 7.38
    },
    {
      "text": "kneeling and denigrating police officers",
      "start": 1196.66,
      "duration": 8.1
    },
    {
      "text": "who many times can't go into the black",
      "start": 1201.52,
      "duration": 6.98
    },
    {
      "text": "community and help out that poor black",
      "start": 1204.76,
      "duration": 7.92
    },
    {
      "text": "mother or grandparent who's trapped in a",
      "start": 1208.5,
      "duration": 6.82
    },
    {
      "text": "situation where they are held hostage to",
      "start": 1212.68,
      "duration": 4.89
    },
    {
      "text": "the black criminal in his own community",
      "start": 1215.32,
      "duration": 6.15
    },
    {
      "text": "how come we're not protesting that but",
      "start": 1217.57,
      "duration": 8.22
    },
    {
      "text": "we're protesting the the arbiters of law",
      "start": 1221.47,
      "duration": 7.53
    },
    {
      "text": "and order in those communities there is",
      "start": 1225.79,
      "duration": 7.43
    },
    {
      "text": "something that has been perpetrated a",
      "start": 1229,
      "duration": 6.51
    },
    {
      "text": "design that has been perpetrated upon",
      "start": 1233.22,
      "duration": 4.29
    },
    {
      "text": "the black community that they themselves",
      "start": 1235.51,
      "duration": 6.15
    },
    {
      "text": "have bought so deeply into it is like a",
      "start": 1237.51,
      "duration": 7.6
    },
    {
      "text": "Stockholm Syndrome victim that when the",
      "start": 1241.66,
      "duration": 5.52
    },
    {
      "text": "liberators come to take them away and",
      "start": 1245.11,
      "duration": 4.65
    },
    {
      "text": "you mention dr. Thomas ole he's in my",
      "start": 1247.18,
      "duration": 7.08
    },
    {
      "text": "film now he and Andrew Breitbart are are",
      "start": 1249.76,
      "duration": 8.24
    },
    {
      "text": "in my film when we come to liberate them",
      "start": 1254.26,
      "duration": 7.77
    },
    {
      "text": "we're actually the enemy because the",
      "start": 1258,
      "duration": 6.67
    },
    {
      "text": "identity now is not what the liberators",
      "start": 1262.03,
      "duration": 7.38
    },
    {
      "text": "is with the kappa hmm this issue I think",
      "start": 1264.67,
      "duration": 7.02
    },
    {
      "text": "is is something that is one of the great",
      "start": 1269.41,
      "duration": 4.05
    },
    {
      "text": "heartbreaking issues of the modern time",
      "start": 1271.69,
      "duration": 5.04
    },
    {
      "text": "which is that when you look at black",
      "start": 1273.46,
      "duration": 4.8
    },
    {
      "text": "crime rates and of course you know I",
      "start": 1276.73,
      "duration": 3.24
    },
    {
      "text": "mean if you're doing to talk about you",
      "start": 1278.26,
      "duration": 3.72
    },
    {
      "text": "know 50 60 % of the violent crime we're",
      "start": 1279.97,
      "duration": 3.36
    },
    {
      "text": "really talking about a subsection of",
      "start": 1281.98,
      "duration": 3.06
    },
    {
      "text": "young black men you know it's really 2",
      "start": 1283.33,
      "duration": 3.18
    },
    {
      "text": "or 3 percent of the population I mean",
      "start": 1285.04,
      "duration": 2.82
    },
    {
      "text": "it's not like people your age are doing",
      "start": 1286.51,
      "duration": 3.15
    },
    {
      "text": "a lot of that kind of stuff or my age",
      "start": 1287.86,
      "duration": 4.5
    },
    {
      "text": "for that matter and so this has become",
      "start": 1289.66,
      "duration": 4.74
    },
    {
      "text": "one of the great tragedies which is you",
      "start": 1292.36,
      "duration": 3.48
    },
    {
      "text": "know when I was growing up but you know",
      "start": 1294.4,
      "duration": 3.84
    },
    {
      "text": "I saw blacks and in ties going to work",
      "start": 1295.84,
      "duration": 4.32
    },
    {
      "text": "and having great conversations and being",
      "start": 1298.24,
      "duration": 3.3
    },
    {
      "text": "interested and just look at the music",
      "start": 1300.16,
      "duration": 3.09
    },
    {
      "text": "too I don't get up the music is a whole",
      "start": 1301.54,
      "duration": 3.15
    },
    {
      "text": "big deal one of my favorite singers the",
      "start": 1303.25,
      "duration": 3.75
    },
    {
      "text": "Sam Cooke the guy came from a gospel",
      "start": 1304.69,
      "duration": 4.02
    },
    {
      "text": "tradition Sam Cooke in the soul stirrers",
      "start": 1307,
      "duration": 4.2
    },
    {
      "text": "and so on and and and brought you know",
      "start": 1308.71,
      "duration": 4.68
    },
    {
      "text": "beauty and and grace and great powerful",
      "start": 1311.2,
      "duration": 4.05
    },
    {
      "text": "lyrics and uplifting messages and so on",
      "start": 1313.39,
      "duration": 4.41
    },
    {
      "text": "and this has kind of evolved now into",
      "start": 1315.25,
      "duration": 4.86
    },
    {
      "text": "you know you got you know 50 cent",
      "start": 1317.8,
      "duration": 4.29
    },
    {
      "text": "rapping about some god-awful thing and",
      "start": 1320.11,
      "duration": 3.42
    },
    {
      "text": "it really does kind of talk sissified",
      "start": 1322.09,
      "duration": 2.35
    },
    {
      "text": "the culture",
      "start": 1323.53,
      "duration": 3.94
    },
    {
      "text": "and now the black crime a young black",
      "start": 1324.44,
      "duration": 5.73
    },
    {
      "text": "male crime is to such degree in such an",
      "start": 1327.47,
      "duration": 4.61
    },
    {
      "text": "extent that people I think have",
      "start": 1330.17,
      "duration": 4.17
    },
    {
      "text": "statistically legitimate concerns",
      "start": 1332.08,
      "duration": 4.66
    },
    {
      "text": "legitimate fears and is now because if",
      "start": 1334.34,
      "duration": 3.63
    },
    {
      "text": "everyone's acting the same then",
      "start": 1336.74,
      "duration": 2.82
    },
    {
      "text": "prejudice of course is bigotry and",
      "start": 1337.97,
      "duration": 3.63
    },
    {
      "text": "racism but if you have a group of people",
      "start": 1339.56,
      "duration": 3.63
    },
    {
      "text": "who are acting significantly differently",
      "start": 1341.6,
      "duration": 3.18
    },
    {
      "text": "and more dangerously my concern is that",
      "start": 1343.19,
      "duration": 3.69
    },
    {
      "text": "reinforces people's fears and they say",
      "start": 1344.78,
      "duration": 3.72
    },
    {
      "text": "well statistically I have reason to fear",
      "start": 1346.88,
      "duration": 3.87
    },
    {
      "text": "what was it Jesse Jackson who said after",
      "start": 1348.5,
      "duration": 3.87
    },
    {
      "text": "twenty years of trying to heal race",
      "start": 1350.75,
      "duration": 3.45
    },
    {
      "text": "relations I hear footsteps behind me on",
      "start": 1352.37,
      "duration": 2.91
    },
    {
      "text": "the street I turn around and I'm",
      "start": 1354.2,
      "duration": 3.15
    },
    {
      "text": "relieved if it's white people if it's",
      "start": 1355.28,
      "duration": 4.98
    },
    {
      "text": "not black people that is now the data is",
      "start": 1357.35,
      "duration": 4.32
    },
    {
      "text": "coming in to the point where people can",
      "start": 1360.26,
      "duration": 3.9
    },
    {
      "text": "say well there's reason to be afraid and",
      "start": 1361.67,
      "duration": 4.86
    },
    {
      "text": "how tragic and how horrifying a missed",
      "start": 1364.16,
      "duration": 6.06
    },
    {
      "text": "opportunity is that sure it is I've been",
      "start": 1366.53,
      "duration": 5.91
    },
    {
      "text": "preaching the gospel now for 40 years",
      "start": 1370.22,
      "duration": 6.51
    },
    {
      "text": "and in this country came in on the heels",
      "start": 1372.44,
      "duration": 5.88
    },
    {
      "text": "of dr. King",
      "start": 1376.73,
      "duration": 4.86
    },
    {
      "text": "my parents were civil rights activists",
      "start": 1378.32,
      "duration": 5.37
    },
    {
      "text": "in Parkland when dr. King spoke at my",
      "start": 1381.59,
      "duration": 3.83
    },
    {
      "text": "home church here in Shreveport Louisiana",
      "start": 1383.69,
      "duration": 4.95
    },
    {
      "text": "Galilee Baptist Church back in 1959 I",
      "start": 1385.42,
      "duration": 5.71
    },
    {
      "text": "was only three four years old but I was",
      "start": 1388.64,
      "duration": 4.61
    },
    {
      "text": "there with my mother that night and",
      "start": 1391.13,
      "duration": 5.31
    },
    {
      "text": "don't remember it but I do remember the",
      "start": 1393.25,
      "duration": 6.7
    },
    {
      "text": "type of people that were there they were",
      "start": 1396.44,
      "duration": 7.71
    },
    {
      "text": "very serious people and every black",
      "start": 1399.95,
      "duration": 7.02
    },
    {
      "text": "person black male model in my life",
      "start": 1404.15,
      "duration": 5.76
    },
    {
      "text": "including my father they had some type",
      "start": 1406.97,
      "duration": 6.36
    },
    {
      "text": "of job they that was the example that I",
      "start": 1409.91,
      "duration": 6.99
    },
    {
      "text": "had even if it was being the Yard Man or",
      "start": 1413.33,
      "duration": 7.62
    },
    {
      "text": "whatever they had a job what I'm saying",
      "start": 1416.9,
      "duration": 9.39
    },
    {
      "text": "is there was a time when the gospel of",
      "start": 1420.95,
      "duration": 10.77
    },
    {
      "text": "the church and the gospel of America was",
      "start": 1426.29,
      "duration": 10.32
    },
    {
      "text": "very much in tune to one another dr.",
      "start": 1431.72,
      "duration": 9.18
    },
    {
      "text": "King was one who was able to carry both",
      "start": 1436.61,
      "duration": 9.63
    },
    {
      "text": "of those Gospels to a black community my",
      "start": 1440.9,
      "duration": 9.12
    },
    {
      "text": "very best who emulate his method when I",
      "start": 1446.24,
      "duration": 5.88
    },
    {
      "text": "am on the road and what I am speaking if",
      "start": 1450.02,
      "duration": 4.08
    },
    {
      "text": "you get in I just Google some of the",
      "start": 1452.12,
      "duration": 4.53
    },
    {
      "text": "speeches that I have done of course I",
      "start": 1454.1,
      "duration": 3.93
    },
    {
      "text": "mean that was",
      "start": 1456.65,
      "duration": 4.65
    },
    {
      "text": "the king was dr. King but the idea of",
      "start": 1458.03,
      "duration": 7.47
    },
    {
      "text": "letting folks know just how great not",
      "start": 1461.3,
      "duration": 7.95
    },
    {
      "text": "only your God is but how great a country",
      "start": 1465.5,
      "duration": 6.12
    },
    {
      "text": "your God has given you to take advantage",
      "start": 1469.25,
      "duration": 4.77
    },
    {
      "text": "of it's a very important thing that",
      "start": 1471.62,
      "duration": 5.64
    },
    {
      "text": "black people are missing in this",
      "start": 1474.02,
      "duration": 7.53
    },
    {
      "text": "relationship that we should have with",
      "start": 1477.26,
      "duration": 5.94
    },
    {
      "text": "the greatest nation on the face of the",
      "start": 1481.55,
      "duration": 3.9
    },
    {
      "text": "earth and the greatest success story the",
      "start": 1483.2,
      "duration": 4.62
    },
    {
      "text": "world has ever known not realizing that",
      "start": 1485.45,
      "duration": 6.84
    },
    {
      "text": "we have it by birthright this type of",
      "start": 1487.82,
      "duration": 6.45
    },
    {
      "text": "opportunity Jamaicans come here in a",
      "start": 1492.29,
      "duration": 6.81
    },
    {
      "text": "very Nigerians come here and are very",
      "start": 1494.27,
      "duration": 8.1
    },
    {
      "text": "prosperous how is it that those of us in",
      "start": 1499.1,
      "duration": 5.7
    },
    {
      "text": "my days who have been here since the",
      "start": 1502.37,
      "duration": 6.6
    },
    {
      "text": "1700s don't take the same advantage of",
      "start": 1504.8,
      "duration": 7.44
    },
    {
      "text": "people with the same skin color how is",
      "start": 1508.97,
      "duration": 7.65
    },
    {
      "text": "it that opinion like Barack Obama can",
      "start": 1512.24,
      "duration": 6.32
    },
    {
      "text": "become president of the United States",
      "start": 1516.62,
      "duration": 5.31
    },
    {
      "text": "but Jesse Jackson and Al Sharpton get it",
      "start": 1518.56,
      "duration": 6.16
    },
    {
      "text": "twisted how is it possible that that",
      "start": 1521.93,
      "duration": 5.7
    },
    {
      "text": "happened that is where we're off-track",
      "start": 1524.72,
      "duration": 4.76
    },
    {
      "text": "we don't understand the gospel of",
      "start": 1527.63,
      "duration": 6.72
    },
    {
      "text": "America when either a either as a group",
      "start": 1529.48,
      "duration": 6.82
    },
    {
      "text": "or as individuals when we have suffered",
      "start": 1534.35,
      "duration": 5.37
    },
    {
      "text": "under great wrong when that wrong is at",
      "start": 1536.3,
      "duration": 6
    },
    {
      "text": "least to some degree cured or addressed",
      "start": 1539.72,
      "duration": 5.67
    },
    {
      "text": "or ameliorated there is to me a fork in",
      "start": 1542.3,
      "duration": 4.35
    },
    {
      "text": "the road there's a great temptation if",
      "start": 1545.39,
      "duration": 3.15
    },
    {
      "text": "someone has done me great wrong and then",
      "start": 1546.65,
      "duration": 4.05
    },
    {
      "text": "works to ameliorate that wrong then I",
      "start": 1548.54,
      "duration": 4.56
    },
    {
      "text": "can look deep in the rearview at all of",
      "start": 1550.7,
      "duration": 4.65
    },
    {
      "text": "the black nasty ugly things that have",
      "start": 1553.1,
      "duration": 4.8
    },
    {
      "text": "happened in history and I can stare at",
      "start": 1555.35,
      "duration": 4.83
    },
    {
      "text": "that until my heart turns cold and my",
      "start": 1557.9,
      "duration": 4.44
    },
    {
      "text": "tongue turns bitter or I can say well",
      "start": 1560.18,
      "duration": 4.23
    },
    {
      "text": "this was a great evil I can either stare",
      "start": 1562.34,
      "duration": 4.02
    },
    {
      "text": "at it and be consumed by it or I can",
      "start": 1564.41,
      "duration": 4.14
    },
    {
      "text": "celebrate its reduction and move forward",
      "start": 1566.36,
      "duration": 3.66
    },
    {
      "text": "productively and positively into the",
      "start": 1568.55,
      "duration": 3.39
    },
    {
      "text": "future and we've all had them up my",
      "start": 1570.02,
      "duration": 4.41
    },
    {
      "text": "ancestor my ancestors were slay enslaved",
      "start": 1571.94,
      "duration": 3.75
    },
    {
      "text": "I'm half Irish they happen to be",
      "start": 1574.43,
      "duration": 4.17
    },
    {
      "text": "enslaved by Muslims now that ended up",
      "start": 1575.69,
      "duration": 4.59
    },
    {
      "text": "not being the case after a certain",
      "start": 1578.6,
      "duration": 3.18
    },
    {
      "text": "amount of time we can either celebrate",
      "start": 1580.28,
      "duration": 3.27
    },
    {
      "text": "the progress that we're all making or we",
      "start": 1581.78,
      "duration": 4.71
    },
    {
      "text": "can sit there and be consumed by staring",
      "start": 1583.55,
      "duration": 4.32
    },
    {
      "text": "into this black moor of history this",
      "start": 1586.49,
      "duration": 3.39
    },
    {
      "text": "this ugly side of history and say that's",
      "start": 1587.87,
      "duration": 2.52
    },
    {
      "text": "where we",
      "start": 1589.88,
      "duration": 2.25
    },
    {
      "text": "going to stay that's where we're going",
      "start": 1590.39,
      "duration": 4.32
    },
    {
      "text": "to focus and then you become in a sense",
      "start": 1592.13,
      "duration": 5.55
    },
    {
      "text": "consumed by the past instead of beating",
      "start": 1594.71,
      "duration": 6.09
    },
    {
      "text": "a clear path to the future what you have",
      "start": 1597.68,
      "duration": 5.52
    },
    {
      "text": "just shared with us is also something",
      "start": 1600.8,
      "duration": 5.4
    },
    {
      "text": "that I I want I do share across this",
      "start": 1603.2,
      "duration": 4.71
    },
    {
      "text": "nation and that is the history of",
      "start": 1606.2,
      "duration": 5.28
    },
    {
      "text": "mankind is a story of human tragedy",
      "start": 1607.91,
      "duration": 5.79
    },
    {
      "text": "there is no question about that",
      "start": 1611.48,
      "duration": 5.82
    },
    {
      "text": "regardless of what your skin color is",
      "start": 1613.7,
      "duration": 10.53
    },
    {
      "text": "and you are a part of and by the bryant",
      "start": 1617.3,
      "duration": 8.31
    },
    {
      "text": "is actually my name that's a whole",
      "start": 1624.23,
      "duration": 4.17
    },
    {
      "text": "nother story you know but I do and a",
      "start": 1625.61,
      "duration": 5.1
    },
    {
      "text": "quarter a little bit better maybe 1/3",
      "start": 1628.4,
      "duration": 6.03
    },
    {
      "text": "scots-irish myself and so when we look",
      "start": 1630.71,
      "duration": 7.41
    },
    {
      "text": "at the progress that the Irish made and",
      "start": 1634.43,
      "duration": 6.57
    },
    {
      "text": "I'm alluded to the Italians as well they",
      "start": 1638.12,
      "duration": 4.23
    },
    {
      "text": "didn't do it",
      "start": 1641,
      "duration": 3.3
    },
    {
      "text": "I wouldn't look at you know let's just",
      "start": 1642.35,
      "duration": 3.66
    },
    {
      "text": "say that you were a Democrat a",
      "start": 1644.3,
      "duration": 4.86
    },
    {
      "text": "repressive liberal don't rent and I was",
      "start": 1646.01,
      "duration": 5.67
    },
    {
      "text": "foolish myself I wouldn't call you an",
      "start": 1649.16,
      "duration": 5.16
    },
    {
      "text": "evil Irishman because you're a",
      "start": 1651.68,
      "duration": 5.43
    },
    {
      "text": "Republican well that is what happens in",
      "start": 1654.32,
      "duration": 4.98
    },
    {
      "text": "the Democrat Party or with the black up",
      "start": 1657.11,
      "duration": 5.01
    },
    {
      "text": "with the black rates black people think",
      "start": 1659.3,
      "duration": 5.73
    },
    {
      "text": "that I'm evil because I happen to be a",
      "start": 1662.12,
      "duration": 4.79
    },
    {
      "text": "black conservative or a black Republican",
      "start": 1665.03,
      "duration": 5.43
    },
    {
      "text": "not realizing that the diversity is the",
      "start": 1666.91,
      "duration": 6.46
    },
    {
      "text": "strength I think the Irish understand",
      "start": 1670.46,
      "duration": 5.58
    },
    {
      "text": "this the Italians understand this the",
      "start": 1673.37,
      "duration": 6.15
    },
    {
      "text": "diversity and the race is the strength",
      "start": 1676.04,
      "duration": 6.57
    },
    {
      "text": "but the monolith becomes something that",
      "start": 1679.52,
      "duration": 6.75
    },
    {
      "text": "can become very much disposed of I was",
      "start": 1682.61,
      "duration": 5.16
    },
    {
      "text": "really struck CL when you were talking",
      "start": 1686.27,
      "duration": 2.4
    },
    {
      "text": "about your father",
      "start": 1687.77,
      "duration": 3.18
    },
    {
      "text": "and I think we should spend a few",
      "start": 1688.67,
      "duration": 3.87
    },
    {
      "text": "minutes talking about fatherlessness",
      "start": 1690.95,
      "duration": 3.69
    },
    {
      "text": "again we can focus on the black",
      "start": 1692.54,
      "duration": 4.56
    },
    {
      "text": "community where we have north of 70% of",
      "start": 1694.64,
      "duration": 4.26
    },
    {
      "text": "kids being born out of wedlock the white",
      "start": 1697.1,
      "duration": 3.84
    },
    {
      "text": "community it's cooking up around 30% of",
      "start": 1698.9,
      "duration": 3.93
    },
    {
      "text": "course and then heading appetit in the",
      "start": 1700.94,
      "duration": 4.65
    },
    {
      "text": "Hispanic communities as well so it is",
      "start": 1702.83,
      "duration": 4.47
    },
    {
      "text": "not solely a black problem I myself grew",
      "start": 1705.59,
      "duration": 3.75
    },
    {
      "text": "up without a father and it takes a long",
      "start": 1707.3,
      "duration": 4.17
    },
    {
      "text": "time to find your feet if you grow up",
      "start": 1709.34,
      "duration": 4.32
    },
    {
      "text": "without a father as a man you need the",
      "start": 1711.47,
      "duration": 3.84
    },
    {
      "text": "role model you need the instruction you",
      "start": 1713.66,
      "duration": 4.53
    },
    {
      "text": "need a way for your natural aggressive",
      "start": 1715.31,
      "duration": 5.07
    },
    {
      "text": "enthusiasms as a boy to be channeled",
      "start": 1718.19,
      "duration": 4.49
    },
    {
      "text": "into productive outlets",
      "start": 1720.38,
      "duration": 3.83
    },
    {
      "text": "so that you are not violent you are",
      "start": 1722.68,
      "duration": 3.69
    },
    {
      "text": "rather energetic and committed to some",
      "start": 1724.21,
      "duration": 5.67
    },
    {
      "text": "humane or civilized course what is going",
      "start": 1726.37,
      "duration": 6.15
    },
    {
      "text": "on with in your travels in talking to",
      "start": 1729.88,
      "duration": 4.2
    },
    {
      "text": "various communities what is going on",
      "start": 1732.52,
      "duration": 3.21
    },
    {
      "text": "with this fatherlessness stuff is it",
      "start": 1734.08,
      "duration": 4.86
    },
    {
      "text": "really recognized as powerful as",
      "start": 1735.73,
      "duration": 4.74
    },
    {
      "text": "powerful an influence as it is I mean",
      "start": 1738.94,
      "duration": 3.39
    },
    {
      "text": "one of the big statistics that really",
      "start": 1740.47,
      "duration": 4.38
    },
    {
      "text": "struck me was that if you normalize for",
      "start": 1742.33,
      "duration": 4.53
    },
    {
      "text": "single motherhood in other words if you",
      "start": 1744.85,
      "duration": 3.48
    },
    {
      "text": "if you take that into account when",
      "start": 1746.86,
      "duration": 3.3
    },
    {
      "text": "you're looking at statistics the",
      "start": 1748.33,
      "duration": 3.51
    },
    {
      "text": "black/white disparity and crime almost",
      "start": 1750.16,
      "duration": 3.18
    },
    {
      "text": "disappears now whether that's",
      "start": 1751.84,
      "duration": 3.33
    },
    {
      "text": "coincidental or causal is complicated",
      "start": 1753.34,
      "duration": 3.99
    },
    {
      "text": "but to me it is one of the greatest",
      "start": 1755.17,
      "duration": 4.11
    },
    {
      "text": "tragedies and one of the very hardest to",
      "start": 1757.33,
      "duration": 8.7
    },
    {
      "text": "reverse when you are surrounded by as a",
      "start": 1759.28,
      "duration": 9.54
    },
    {
      "text": "male and and there were too much",
      "start": 1766.03,
      "duration": 5.96
    },
    {
      "text": "estrogen and not enough testosterone",
      "start": 1768.82,
      "duration": 7.32
    },
    {
      "text": "there is an imbalance that that happens",
      "start": 1771.99,
      "duration": 6.79
    },
    {
      "text": "there that's what's happening throughout",
      "start": 1776.14,
      "duration": 3.81
    },
    {
      "text": "America",
      "start": 1778.78,
      "duration": 6.27
    },
    {
      "text": "I applaud every single mother who raised",
      "start": 1779.95,
      "duration": 9.3
    },
    {
      "text": "her child without that man being there",
      "start": 1785.05,
      "duration": 8.13
    },
    {
      "text": "and I applaud every man who stepped up",
      "start": 1789.25,
      "duration": 7.83
    },
    {
      "text": "to the plate and became a father to a",
      "start": 1793.18,
      "duration": 7.55
    },
    {
      "text": "child that was not his by natural earth",
      "start": 1797.08,
      "duration": 6.66
    },
    {
      "text": "but this is the thing that and I think",
      "start": 1800.73,
      "duration": 6.43
    },
    {
      "text": "it is a part of the what is it the",
      "start": 1803.74,
      "duration": 6.6
    },
    {
      "text": "blending of the genders and the story",
      "start": 1807.16,
      "duration": 5.64
    },
    {
      "text": "that's being being told of the unisex",
      "start": 1810.34,
      "duration": 8.25
    },
    {
      "text": "move in this country we must understand",
      "start": 1812.8,
      "duration": 9.66
    },
    {
      "text": "that there is a certain design that was",
      "start": 1818.59,
      "duration": 6.6
    },
    {
      "text": "given as I believed by the creator of",
      "start": 1822.46,
      "duration": 6.57
    },
    {
      "text": "the universe that there are roles none",
      "start": 1825.19,
      "duration": 7.17
    },
    {
      "text": "subservient to the other but roles that",
      "start": 1829.03,
      "duration": 6.78
    },
    {
      "text": "are important to the other and when we",
      "start": 1832.36,
      "duration": 7.47
    },
    {
      "text": "forget the purpose of someone or",
      "start": 1835.81,
      "duration": 7.92
    },
    {
      "text": "something then abuse of that someone or",
      "start": 1839.83,
      "duration": 7.65
    },
    {
      "text": "something is inevitable and so we are",
      "start": 1843.73,
      "duration": 7.2
    },
    {
      "text": "now witnessing the forgotten purpose of",
      "start": 1847.48,
      "duration": 9.09
    },
    {
      "text": "why we have different genders why we do",
      "start": 1850.93,
      "duration": 9.45
    },
    {
      "text": "have them to promote the the race of",
      "start": 1856.57,
      "duration": 7.23
    },
    {
      "text": "humanity and we have forgotten that",
      "start": 1860.38,
      "duration": 8.18
    },
    {
      "text": "there are in fact consequences or",
      "start": 1863.8,
      "duration": 8.13
    },
    {
      "text": "forgetting the purpose of who we are and",
      "start": 1868.56,
      "duration": 7.41
    },
    {
      "text": "what we are as male and female",
      "start": 1871.93,
      "duration": 8.07
    },
    {
      "text": "regardless of your politics on it the",
      "start": 1875.97,
      "duration": 7.18
    },
    {
      "text": "common sense in it is that there must be",
      "start": 1880,
      "duration": 5.97
    },
    {
      "text": "some type of let's just say cosmic",
      "start": 1883.15,
      "duration": 6.27
    },
    {
      "text": "design if not spiritual in there being",
      "start": 1885.97,
      "duration": 6.87
    },
    {
      "text": "male and female one without the other",
      "start": 1889.42,
      "duration": 8.25
    },
    {
      "text": "does not produce a healthy society so",
      "start": 1892.84,
      "duration": 6.42
    },
    {
      "text": "let's talk about some of the",
      "start": 1897.67,
      "duration": 4.17
    },
    {
      "text": "perspectives or ideas or approaches that",
      "start": 1899.26,
      "duration": 4.83
    },
    {
      "text": "people can start to think about in terms",
      "start": 1901.84,
      "duration": 4.41
    },
    {
      "text": "of trying to turn some of this stuff",
      "start": 1904.09,
      "duration": 3.75
    },
    {
      "text": "around repairing communities repairing",
      "start": 1906.25,
      "duration": 3.69
    },
    {
      "text": "families repairing race relations",
      "start": 1907.84,
      "duration": 4.11
    },
    {
      "text": "because you know you bring up the irises",
      "start": 1909.94,
      "duration": 3.3
    },
    {
      "text": "a great point you know I've talked on",
      "start": 1911.95,
      "duration": 2.7
    },
    {
      "text": "this show but IQ differences between",
      "start": 1913.24,
      "duration": 3.03
    },
    {
      "text": "blacks and whites they were of course IQ",
      "start": 1914.65,
      "duration": 4.08
    },
    {
      "text": "differences between Irish and not Irish",
      "start": 1916.27,
      "duration": 4.08
    },
    {
      "text": "way back in the day they're found to be",
      "start": 1918.73,
      "duration": 3.33
    },
    {
      "text": "ways to to close that through better",
      "start": 1920.35,
      "duration": 3.3
    },
    {
      "text": "education through you know better",
      "start": 1922.06,
      "duration": 4.41
    },
    {
      "text": "families and so on so what is it that",
      "start": 1923.65,
      "duration": 5.37
    },
    {
      "text": "when you go around and I can't recommend",
      "start": 1926.47,
      "duration": 4.08
    },
    {
      "text": "your speech is highly enough man the",
      "start": 1929.02,
      "duration": 2.73
    },
    {
      "text": "fact that you're not rhyming is just",
      "start": 1930.55,
      "duration": 2.61
    },
    {
      "text": "killing me it's killing me it's killing",
      "start": 1931.75,
      "duration": 4.83
    },
    {
      "text": "me man I'm robbed forever but it's",
      "start": 1933.16,
      "duration": 5.19
    },
    {
      "text": "fantastic that the passion and the",
      "start": 1936.58,
      "duration": 3.15
    },
    {
      "text": "clarity that you bring to your speeches",
      "start": 1938.35,
      "duration": 3.96
    },
    {
      "text": "I can only Envy and perhaps someday hope",
      "start": 1939.73,
      "duration": 6.33
    },
    {
      "text": "to emulate but what is it that people",
      "start": 1942.31,
      "duration": 6.24
    },
    {
      "text": "can start to think of in terms of the",
      "start": 1946.06,
      "duration": 4.11
    },
    {
      "text": "way forward to try and deal with some of",
      "start": 1948.55,
      "duration": 6.45
    },
    {
      "text": "these issues telling the truth about the",
      "start": 1950.17,
      "duration": 9.87
    },
    {
      "text": "story and then studying Americans in",
      "start": 1955,
      "duration": 7.02
    },
    {
      "text": "particular white black all of us are",
      "start": 1960.04,
      "duration": 6.54
    },
    {
      "text": "very ignorant as far as what we consume",
      "start": 1962.02,
      "duration": 6.78
    },
    {
      "text": "we're and that's not to be condescending",
      "start": 1966.58,
      "duration": 4.29
    },
    {
      "text": "to anyone it's just a fact if you want",
      "start": 1968.8,
      "duration": 5.13
    },
    {
      "text": "to if you want to hide money put it in a",
      "start": 1970.87,
      "duration": 5.94
    },
    {
      "text": "book nobody opens books anymore you'll",
      "start": 1973.93,
      "duration": 7.23
    },
    {
      "text": "Google you know you google it and then",
      "start": 1976.81,
      "duration": 6.96
    },
    {
      "text": "kids have this instant access and I'm",
      "start": 1981.16,
      "duration": 4.95
    },
    {
      "text": "not saying that I I'm against I mean of",
      "start": 1983.77,
      "duration": 3.87
    },
    {
      "text": "course I have all this stuff here I",
      "start": 1986.11,
      "duration": 2.789
    },
    {
      "text": "showed you the other day that",
      "start": 1987.64,
      "duration": 3.119
    },
    {
      "text": "type of setups that I have here my home",
      "start": 1988.899,
      "duration": 3.45
    },
    {
      "text": "could even figure out how to talk you",
      "start": 1990.759,
      "duration": 3.39
    },
    {
      "text": "the other day you know as far as that",
      "start": 1992.349,
      "duration": 3.69
    },
    {
      "text": "was concerned I have all these gadgets",
      "start": 1994.149,
      "duration": 4.5
    },
    {
      "text": "and we're governed by that but the fact",
      "start": 1996.039,
      "duration": 4.921
    },
    {
      "text": "of the matter is when you actually crack",
      "start": 1998.649,
      "duration": 4.74
    },
    {
      "text": "open a book you have to take the time to",
      "start": 2000.96,
      "duration": 4.259
    },
    {
      "text": "actually turn that over",
      "start": 2003.389,
      "duration": 5.28
    },
    {
      "text": "once you're reading in your mind I think",
      "start": 2005.219,
      "duration": 7.53
    },
    {
      "text": "we have a society now that is is fed a",
      "start": 2008.669,
      "duration": 7.411
    },
    {
      "text": "narrative purposely in some cases and",
      "start": 2012.749,
      "duration": 7.29
    },
    {
      "text": "without reading the the author for",
      "start": 2016.08,
      "duration": 6.929
    },
    {
      "text": "yourself the amazing thing is your mind",
      "start": 2020.039,
      "duration": 5.161
    },
    {
      "text": "your creative mind cannot paint that",
      "start": 2023.009,
      "duration": 5.04
    },
    {
      "text": "picture for you but when you google it",
      "start": 2025.2,
      "duration": 5.429
    },
    {
      "text": "when you look at it like that you have",
      "start": 2028.049,
      "duration": 6.87
    },
    {
      "text": "an instant note of how it is supposed to",
      "start": 2030.629,
      "duration": 6.54
    },
    {
      "text": "be or what they think you should think",
      "start": 2034.919,
      "duration": 4.89
    },
    {
      "text": "it is but when you hear radio when you",
      "start": 2037.169,
      "duration": 4.651
    },
    {
      "text": "listen to programs like we're on right",
      "start": 2039.809,
      "duration": 5.34
    },
    {
      "text": "now when you read a book the creative",
      "start": 2041.82,
      "duration": 8.519
    },
    {
      "text": "mind begins to tell the story tell true",
      "start": 2045.149,
      "duration": 6.9
    },
    {
      "text": "story the Republican Party doesn't tell",
      "start": 2050.339,
      "duration": 4.08
    },
    {
      "text": "their story most kids will think that",
      "start": 2052.049,
      "duration": 4.201
    },
    {
      "text": "Abraham Lincoln was a R it was a",
      "start": 2054.419,
      "duration": 4.5
    },
    {
      "text": "Democrat you know most kids said you",
      "start": 2056.25,
      "duration": 4.379
    },
    {
      "text": "know that he would have to be couldn't",
      "start": 2058.919,
      "duration": 3.93
    },
    {
      "text": "possibly have been a Republican and",
      "start": 2060.629,
      "duration": 3.3
    },
    {
      "text": "freed the slaves",
      "start": 2062.849,
      "duration": 3.631
    },
    {
      "text": "there's just no way they don't know that",
      "start": 2063.929,
      "duration": 4.5
    },
    {
      "text": "the first congressman and black",
      "start": 2066.48,
      "duration": 5.25
    },
    {
      "text": "congressmen and Senators who both houses",
      "start": 2068.429,
      "duration": 6.331
    },
    {
      "text": "were black work there were black were",
      "start": 2071.73,
      "duration": 5.52
    },
    {
      "text": "Republicans they don't know that carol",
      "start": 2074.76,
      "duration": 4.74
    },
    {
      "text": "moseley-braun was the first Democrat",
      "start": 2077.25,
      "duration": 5.399
    },
    {
      "text": "senator elected in the Democrat Party",
      "start": 2079.5,
      "duration": 5.339
    },
    {
      "text": "and the second one that the Democrat",
      "start": 2082.649,
      "duration": 5.071
    },
    {
      "text": "Party ever elected was Barack Obama they",
      "start": 2084.839,
      "duration": 5.73
    },
    {
      "text": "don't know that and so and then so",
      "start": 2087.72,
      "duration": 6.27
    },
    {
      "text": "Republicans are the evil ones Democrats",
      "start": 2090.569,
      "duration": 7.77
    },
    {
      "text": "for the one with the history that is the",
      "start": 2093.99,
      "duration": 6.69
    },
    {
      "text": "absolute yeah people still think that",
      "start": 2098.339,
      "duration": 4.051
    },
    {
      "text": "the KKK has something to do with the",
      "start": 2100.68,
      "duration": 3
    },
    {
      "text": "Republican Party when it was the",
      "start": 2102.39,
      "duration": 4.409
    },
    {
      "text": "terrorist arm of the Democrats and it is",
      "start": 2103.68,
      "duration": 6.27
    },
    {
      "text": "this rewriting or misquoting of history",
      "start": 2106.799,
      "duration": 6.27
    },
    {
      "text": "you know we are not you know sovereign",
      "start": 2109.95,
      "duration": 5.19
    },
    {
      "text": "independent entities that somehow have a",
      "start": 2113.069,
      "duration": 3.601
    },
    {
      "text": "connection to perfect knowledge we are",
      "start": 2115.14,
      "duration": 3.449
    },
    {
      "text": "shaped by the narratives we are fed our",
      "start": 2116.67,
      "duration": 3.96
    },
    {
      "text": "beliefs and therefore our emotions and",
      "start": 2118.589,
      "duration": 3.871
    },
    {
      "text": "our passions are very much dependent",
      "start": 2120.63,
      "duration": 3.57
    },
    {
      "text": "on the changing winds of the stories",
      "start": 2122.46,
      "duration": 3.36
    },
    {
      "text": "that we hear and if the stories are lies",
      "start": 2124.2,
      "duration": 4.74
    },
    {
      "text": "you know we built our our church so to",
      "start": 2125.82,
      "duration": 5.91
    },
    {
      "text": "speak on sand rather than rock and the",
      "start": 2128.94,
      "duration": 5.429
    },
    {
      "text": "communication of truth is essential to",
      "start": 2131.73,
      "duration": 4.29
    },
    {
      "text": "the reduction of tensions if we can meet",
      "start": 2134.369,
      "duration": 3.871
    },
    {
      "text": "in reality if we can meet in truth then",
      "start": 2136.02,
      "duration": 3.51
    },
    {
      "text": "we can celebrate",
      "start": 2138.24,
      "duration": 4.23
    },
    {
      "text": "where we are rather than use stories and",
      "start": 2139.53,
      "duration": 5.16
    },
    {
      "text": "narratives as weapons to cut each other",
      "start": 2142.47,
      "duration": 5.04
    },
    {
      "text": "down to divide to antagonize the end of",
      "start": 2144.69,
      "duration": 5.52
    },
    {
      "text": "which I scarcely shudder to to look at",
      "start": 2147.51,
      "duration": 4.56
    },
    {
      "text": "the paths that that could take America",
      "start": 2150.21,
      "duration": 5.19
    },
    {
      "text": "and the world as a whole when Thomas",
      "start": 2152.07,
      "duration": 6.39
    },
    {
      "text": "Jefferson told us in our founding",
      "start": 2155.4,
      "duration": 4.56
    },
    {
      "text": "document the Declaration of Ben the",
      "start": 2158.46,
      "duration": 4.74
    },
    {
      "text": "Declaration of Independence that we are",
      "start": 2159.96,
      "duration": 6.51
    },
    {
      "text": "endowed with certain unalienable rights",
      "start": 2163.2,
      "duration": 6.409
    },
    {
      "text": "given to us by our Creator I don't know",
      "start": 2166.47,
      "duration": 7.47
    },
    {
      "text": "whose face what color that face was that",
      "start": 2169.609,
      "duration": 7.121
    },
    {
      "text": "he may have had in his mind when he",
      "start": 2173.94,
      "duration": 5.7
    },
    {
      "text": "pinned those words but I can tell you",
      "start": 2176.73,
      "duration": 5.91
    },
    {
      "text": "this the day that he pinned at those",
      "start": 2179.64,
      "duration": 6.87
    },
    {
      "text": "words he guaranteed that the day would",
      "start": 2182.64,
      "duration": 7.469
    },
    {
      "text": "come when the son of Irish immigrants",
      "start": 2186.51,
      "duration": 7.2
    },
    {
      "text": "and the son of former slaves would be",
      "start": 2190.109,
      "duration": 6.691
    },
    {
      "text": "having this conversation in a free",
      "start": 2193.71,
      "duration": 7.639
    },
    {
      "text": "America he guaranteed that old white man",
      "start": 2196.8,
      "duration": 7.41
    },
    {
      "text": "guaranteed that that day would come and",
      "start": 2201.349,
      "duration": 7.301
    },
    {
      "text": "let us celebrate that let us tell the",
      "start": 2204.21,
      "duration": 9.36
    },
    {
      "text": "story of how we evolved from that to",
      "start": 2208.65,
      "duration": 10.5
    },
    {
      "text": "where we are we can always unscathed x'",
      "start": 2213.57,
      "duration": 8.039
    },
    {
      "text": "that are trying to heal in this nation",
      "start": 2219.15,
      "duration": 3.66
    },
    {
      "text": "and that's exactly what we're doing",
      "start": 2221.609,
      "duration": 5.49
    },
    {
      "text": "we're unscathed that are trying to heal",
      "start": 2222.81,
      "duration": 7.74
    },
    {
      "text": "and that's for a purpose as well because",
      "start": 2227.099,
      "duration": 7.531
    },
    {
      "text": "as long as we are having to put salve on",
      "start": 2230.55,
      "duration": 6.96
    },
    {
      "text": "that and the progressive liberals are",
      "start": 2234.63,
      "duration": 6.03
    },
    {
      "text": "the ones administering that salve then",
      "start": 2237.51,
      "duration": 7.23
    },
    {
      "text": "they keep the slave as I told you in a",
      "start": 2240.66,
      "duration": 7.49
    },
    {
      "text": "state of looking to them for comfort",
      "start": 2244.74,
      "duration": 6.26
    },
    {
      "text": "slave does not necessarily seek freedom",
      "start": 2248.15,
      "duration": 6.959
    },
    {
      "text": "slaves seeks comfort from its pain",
      "start": 2251,
      "duration": 7.319
    },
    {
      "text": "perhaps even its humiliation and that's",
      "start": 2255.109,
      "duration": 4.92
    },
    {
      "text": "that's where we should be that's what we",
      "start": 2258.319,
      "duration": 3.45
    },
    {
      "text": "should be headed but unfortunately I",
      "start": 2260.029,
      "duration": 4.351
    },
    {
      "text": "think we're headed towards civil war in",
      "start": 2261.769,
      "duration": 5.34
    },
    {
      "text": "this Nathan well of course I hope that",
      "start": 2264.38,
      "duration": 5.639
    },
    {
      "text": "conversations like this can do our level",
      "start": 2267.109,
      "duration": 4.92
    },
    {
      "text": "best to attempt to reduce tensions I",
      "start": 2270.019,
      "duration": 3.84
    },
    {
      "text": "really really want to thank you Reverend",
      "start": 2272.029,
      "duration": 3.901
    },
    {
      "text": "Bryant today please everybody check out",
      "start": 2273.859,
      "duration": 5.071
    },
    {
      "text": "the website the Cl Bryant that's B rya",
      "start": 2275.93,
      "duration": 6.059
    },
    {
      "text": "NT CL Bryant show calm we'll put the",
      "start": 2278.93,
      "duration": 4.079
    },
    {
      "text": "links to all of this below you can",
      "start": 2281.989,
      "duration": 2.85
    },
    {
      "text": "follow the good Reverend on Twitter com",
      "start": 2283.009,
      "duration": 4.26
    },
    {
      "text": "forward slash Reverend sorry rev CL",
      "start": 2284.839,
      "duration": 4.47
    },
    {
      "text": "Bryant thank you so much CL it was a",
      "start": 2287.269,
      "duration": 3.631
    },
    {
      "text": "great pleasure to chat today I hope we",
      "start": 2289.309,
      "duration": 4.02
    },
    {
      "text": "can do it again god bless you and keep",
      "start": 2290.9,
      "duration": 5.899
    },
    {
      "text": "y'all have you on my show soon",
      "start": 2293.329,
      "duration": 3.47
    },
    {
      "text": "you",
      "start": 2302.71,
      "duration": 2.06
    }
  ],
  "Errors": null,
  "TranscriptStderr": null
}