{
  "Title": "Stefan Molyneux hosting the Peter Schiff Radio Show!",
  "Id": "99tF5uXo2gg",
  "Transcript": [
    {
      "text": "hello hello it's defend molyneux from",
      "start": 0,
      "duration": 4.83
    },
    {
      "text": "freedomain radio so let me tell you",
      "start": 1.829,
      "duration": 7.741
    },
    {
      "text": "tomorrow the 11th of april 2012 from ten",
      "start": 4.83,
      "duration": 6.99
    },
    {
      "text": "a.m. to noon eastern standard time i",
      "start": 9.57,
      "duration": 4.56
    },
    {
      "text": "will be guest hosting the peter schiff",
      "start": 11.82,
      "duration": 4.709
    },
    {
      "text": "radio show which you can listen to at",
      "start": 14.13,
      "duration": 6.899
    },
    {
      "text": "schiff radio.com that's SCH iff",
      "start": 16.529,
      "duration": 8.25
    },
    {
      "text": "radio.com my guest for the first hour is",
      "start": 21.029,
      "duration": 5.221
    },
    {
      "text": "going to be the excellent chris",
      "start": 24.779,
      "duration": 3.721
    },
    {
      "text": "Martenson who is author of the crash",
      "start": 26.25,
      "duration": 4.26
    },
    {
      "text": "course and an expert in some of the",
      "start": 28.5,
      "duration": 3.84
    },
    {
      "text": "financial challenges that I think we're",
      "start": 30.51,
      "duration": 4.049
    },
    {
      "text": "all going to be facing a pretty much",
      "start": 32.34,
      "duration": 3.87
    },
    {
      "text": "sooner rather than later so I hope you",
      "start": 34.559,
      "duration": 3.361
    },
    {
      "text": "will check that out if you would like to",
      "start": 36.21,
      "duration": 3.39
    },
    {
      "text": "call in for the second hour I will be",
      "start": 37.92,
      "duration": 5.729
    },
    {
      "text": "taking callers 855 for ship please call",
      "start": 39.6,
      "duration": 5.7
    },
    {
      "text": "in a challenge and question and critique",
      "start": 43.649,
      "duration": 3.721
    },
    {
      "text": "I would really really enjoy the",
      "start": 45.3,
      "duration": 3.63
    },
    {
      "text": "conversation so please check it out",
      "start": 47.37,
      "duration": 3.59
    },
    {
      "text": "tomorrow ten a.m. to noon at shift",
      "start": 48.93,
      "duration": 5.03
    },
    {
      "text": "radio.com",
      "start": 50.96,
      "duration": 3
    }
  ],
  "Errors": null,
  "TranscriptStderr": null
}