{
  "Title": "Health Care is Actually Really Cheap!",
  "Id": "_Zdqp22G_K4",
  "Transcript": [
    {
      "text": "hi everybody its defend molyneux from",
      "start": 0.35,
      "duration": 3.82
    },
    {
      "text": "freedomain radio hope you doing very",
      "start": 2.79,
      "duration": 1.56
    },
    {
      "text": "well",
      "start": 4.17,
      "duration": 2.07
    },
    {
      "text": "I'm here with dr. Keith Smith from the",
      "start": 4.35,
      "duration": 3.569
    },
    {
      "text": "surgery center of Oklahoma and I'm sure",
      "start": 6.24,
      "duration": 3.75
    },
    {
      "text": "other affiliated institutions and I've",
      "start": 7.919,
      "duration": 5.34
    },
    {
      "text": "never actually felt degree Envy until I",
      "start": 9.99,
      "duration": 4.649
    },
    {
      "text": "saw the backdrop so in post-production",
      "start": 13.259,
      "duration": 4.501
    },
    {
      "text": "we're gonna put in a 9 dimensional",
      "start": 14.639,
      "duration": 5.041
    },
    {
      "text": "matrix of pseudo degrees behind me",
      "start": 17.76,
      "duration": 3.599
    },
    {
      "text": "though I'm sure yours are all real thank",
      "start": 19.68,
      "duration": 3.5
    },
    {
      "text": "you so much for taking the time today",
      "start": 21.359,
      "duration": 4.16
    },
    {
      "text": "thanks for having me",
      "start": 23.18,
      "duration": 6.7
    },
    {
      "text": "now just to be clear the the this is",
      "start": 25.519,
      "duration": 6.611
    },
    {
      "text": "where I went for two to have something",
      "start": 29.88,
      "duration": 4.44
    },
    {
      "text": "removed from my neck it was supposed to",
      "start": 32.13,
      "duration": 3.54
    },
    {
      "text": "be hubris but they couldn't find any of",
      "start": 34.32,
      "duration": 2.79
    },
    {
      "text": "that then they look for vanity couldn't",
      "start": 35.67,
      "duration": 2.909
    },
    {
      "text": "find any of that anybody took something",
      "start": 37.11,
      "duration": 4.83
    },
    {
      "text": "out and so I thought this is a hearty",
      "start": 38.579,
      "duration": 5.581
    },
    {
      "text": "endorsement of this entire approach that",
      "start": 41.94,
      "duration": 3.599
    },
    {
      "text": "the surgical team was fantastic the",
      "start": 44.16,
      "duration": 3.39
    },
    {
      "text": "facility was fantastic and having grown",
      "start": 45.539,
      "duration": 3.601
    },
    {
      "text": "up in Canada in the u.s. and gone",
      "start": 47.55,
      "duration": 3.15
    },
    {
      "text": "through the grinder of socialized",
      "start": 49.14,
      "duration": 4.23
    },
    {
      "text": "medicine having what I would consider",
      "start": 50.7,
      "duration": 4.769
    },
    {
      "text": "real patient care for the first time in",
      "start": 53.37,
      "duration": 3.779
    },
    {
      "text": "my life was fantastic so this is a huge",
      "start": 55.469,
      "duration": 4.02
    },
    {
      "text": "endorsement for for this group with the",
      "start": 57.149,
      "duration": 4.201
    },
    {
      "text": "caveat that if my head actually falls",
      "start": 59.489,
      "duration": 4.261
    },
    {
      "text": "off during the show that might put a bit",
      "start": 61.35,
      "duration": 5.04
    },
    {
      "text": "of a hiccup in the actual endorsement",
      "start": 63.75,
      "duration": 3.9
    },
    {
      "text": "but other than that and let's the head",
      "start": 66.39,
      "duration": 3.78
    },
    {
      "text": "actually detaches from my body so so",
      "start": 67.65,
      "duration": 3.899
    },
    {
      "text": "thanks so much for taking the time I",
      "start": 70.17,
      "duration": 3.42
    },
    {
      "text": "wanted to start off by talking a little",
      "start": 71.549,
      "duration": 4.351
    },
    {
      "text": "bit about there's this kind of",
      "start": 73.59,
      "duration": 5.4
    },
    {
      "text": "conception that the u.s. suffers from an",
      "start": 75.9,
      "duration": 5.85
    },
    {
      "text": "excess of Liberty in medicine and this",
      "start": 78.99,
      "duration": 4.23
    },
    {
      "text": "is why you know costs are so high and",
      "start": 81.75,
      "duration": 3.57
    },
    {
      "text": "and for in the US for instance per",
      "start": 83.22,
      "duration": 4.38
    },
    {
      "text": "capita cost can be one point five to two",
      "start": 85.32,
      "duration": 4.38
    },
    {
      "text": "or even more times that of socialized",
      "start": 87.6,
      "duration": 4.71
    },
    {
      "text": "medicine as far as I understand it you",
      "start": 89.7,
      "duration": 4.26
    },
    {
      "text": "guys don't share this particular opinion",
      "start": 92.31,
      "duration": 3
    },
    {
      "text": "that the u.s. is suffering from an",
      "start": 93.96,
      "duration": 3.089
    },
    {
      "text": "excess of Liberty in the field of",
      "start": 95.31,
      "duration": 3.18
    },
    {
      "text": "medicine so where do you see the",
      "start": 97.049,
      "duration": 2.671
    },
    {
      "text": "constrictions occurring that are driving",
      "start": 98.49,
      "duration": 2.449
    },
    {
      "text": "up costs",
      "start": 99.72,
      "duration": 4.62
    },
    {
      "text": "well competition as you know in every",
      "start": 100.939,
      "duration": 6.64
    },
    {
      "text": "industry causes quality to soar and",
      "start": 104.34,
      "duration": 5.43
    },
    {
      "text": "prices to fall and that's all you have",
      "start": 107.579,
      "duration": 4.32
    },
    {
      "text": "to know to really know that what the",
      "start": 109.77,
      "duration": 5.01
    },
    {
      "text": "United States has is a mixed system it's",
      "start": 111.899,
      "duration": 6
    },
    {
      "text": "a it's more of a corporatist model",
      "start": 114.78,
      "duration": 5.46
    },
    {
      "text": "there's very little of the free market",
      "start": 117.899,
      "duration": 5.04
    },
    {
      "text": "in medicine in the United States but",
      "start": 120.24,
      "duration": 5.309
    },
    {
      "text": "where you do find it you find that",
      "start": 122.939,
      "duration": 4.921
    },
    {
      "text": "quality is very high prices are",
      "start": 125.549,
      "duration": 4.38
    },
    {
      "text": "reasonable and patients have great",
      "start": 127.86,
      "duration": 5.34
    },
    {
      "text": "access the the two most calm",
      "start": 129.929,
      "duration": 6.151
    },
    {
      "text": "examples are plastic surgery and lasik",
      "start": 133.2,
      "duration": 5.789
    },
    {
      "text": "surgery where the the market really is",
      "start": 136.08,
      "duration": 5.07
    },
    {
      "text": "at work people receiving the care the",
      "start": 138.989,
      "duration": 5.131
    },
    {
      "text": "ones paying for it we we've just decided",
      "start": 141.15,
      "duration": 5.07
    },
    {
      "text": "that we were going to emulate that on a",
      "start": 144.12,
      "duration": 5.479
    },
    {
      "text": "larger scale for surgical procedures",
      "start": 146.22,
      "duration": 6.36
    },
    {
      "text": "keeping in mind that lots of private",
      "start": 149.599,
      "duration": 4.961
    },
    {
      "text": "practice family practice internal",
      "start": 152.58,
      "duration": 4.05
    },
    {
      "text": "medicine pediatric doctors are doing the",
      "start": 154.56,
      "duration": 3.69
    },
    {
      "text": "same thing we decided to do it for",
      "start": 156.63,
      "duration": 5.28
    },
    {
      "text": "surgical procedures and it the free",
      "start": 158.25,
      "duration": 6.299
    },
    {
      "text": "market is it's working people are having",
      "start": 161.91,
      "duration": 5.63
    },
    {
      "text": "to respond to our prices even in remote",
      "start": 164.549,
      "duration": 6.121
    },
    {
      "text": "remote locations far away from Oklahoma",
      "start": 167.54,
      "duration": 5.59
    },
    {
      "text": "City because they're they're finding",
      "start": 170.67,
      "duration": 4.8
    },
    {
      "text": "patients leaving on an airplane like you",
      "start": 173.13,
      "duration": 5.28
    },
    {
      "text": "did and so they they either have to",
      "start": 175.47,
      "duration": 5.22
    },
    {
      "text": "respond to that or perish from the",
      "start": 178.41,
      "duration": 5.37
    },
    {
      "text": "competition and this okay this is a",
      "start": 180.69,
      "duration": 5.01
    },
    {
      "text": "strange thing right so if you go to buy",
      "start": 183.78,
      "duration": 3.42
    },
    {
      "text": "a car one of the first things you're",
      "start": 185.7,
      "duration": 3.27
    },
    {
      "text": "gonna see is the price and there's a",
      "start": 187.2,
      "duration": 3.36
    },
    {
      "text": "big-ticket items usually more than what",
      "start": 188.97,
      "duration": 3.57
    },
    {
      "text": "people are gonna spend in any decade on",
      "start": 190.56,
      "duration": 4.83
    },
    {
      "text": "any kind of surgical procedure why is it",
      "start": 192.54,
      "duration": 5.729
    },
    {
      "text": "such a Byzantine confusing foggy mask to",
      "start": 195.39,
      "duration": 4.74
    },
    {
      "text": "try and get prices out of a healthcare",
      "start": 198.269,
      "duration": 3.571
    },
    {
      "text": "system it seems it means if it's so free",
      "start": 200.13,
      "duration": 2.97
    },
    {
      "text": "market shouldn't be priced and",
      "start": 201.84,
      "duration": 3.72
    },
    {
      "text": "negotiation be be upfront why is it so",
      "start": 203.1,
      "duration": 5.85
    },
    {
      "text": "opaque well it is Byzantine and opaque",
      "start": 205.56,
      "duration": 5.64
    },
    {
      "text": "because there are a lot of layers and a",
      "start": 208.95,
      "duration": 4.47
    },
    {
      "text": "lot of people that benefit from that",
      "start": 211.2,
      "duration": 5.819
    },
    {
      "text": "opacity and the free market is not at",
      "start": 213.42,
      "duration": 6.42
    },
    {
      "text": "work and the people who run what I call",
      "start": 217.019,
      "duration": 5.94
    },
    {
      "text": "the healthcare industrial complex or the",
      "start": 219.84,
      "duration": 5.459
    },
    {
      "text": "healthcare cartel in the United States",
      "start": 222.959,
      "duration": 5.84
    },
    {
      "text": "they want no part of price transparency",
      "start": 225.299,
      "duration": 6.81
    },
    {
      "text": "because then all of the layers of people",
      "start": 228.799,
      "duration": 6.131
    },
    {
      "text": "who make money skimming off of patients",
      "start": 232.109,
      "duration": 4.71
    },
    {
      "text": "that don't deliver any care at all they",
      "start": 234.93,
      "duration": 5.04
    },
    {
      "text": "all go away keep in mind that Professor",
      "start": 236.819,
      "duration": 5.67
    },
    {
      "text": "Robert Higgs the author of crisis and",
      "start": 239.97,
      "duration": 5.91
    },
    {
      "text": "Leviathan very clearly and in balm uses",
      "start": 242.489,
      "duration": 6.87
    },
    {
      "text": "to very clearly stated that without",
      "start": 245.88,
      "duration": 6.479
    },
    {
      "text": "prices without transparent and rational",
      "start": 249.359,
      "duration": 5.19
    },
    {
      "text": "prices there can be no market there can",
      "start": 252.359,
      "duration": 4.47
    },
    {
      "text": "be no market of any comment and that",
      "start": 254.549,
      "duration": 5.641
    },
    {
      "text": "basically is basically describes the",
      "start": 256.829,
      "duration": 4.981
    },
    {
      "text": "health care system in the United States",
      "start": 260.19,
      "duration": 5.039
    },
    {
      "text": "and I would imagine a lot of that has to",
      "start": 261.81,
      "duration": 5.23
    },
    {
      "text": "do with the fact that consumers",
      "start": 265.229,
      "duration": 4.871
    },
    {
      "text": "kinda far removed from from prices",
      "start": 267.04,
      "duration": 4.8
    },
    {
      "text": "themselves very few people pay directly",
      "start": 270.1,
      "duration": 3.6
    },
    {
      "text": "out-of-pocket even for relatively minor",
      "start": 271.84,
      "duration": 4.35
    },
    {
      "text": "stuff I mean as I think many libertarian",
      "start": 273.7,
      "duration": 3.87
    },
    {
      "text": "theorists have pointed out it's sort of",
      "start": 276.19,
      "duration": 3.93
    },
    {
      "text": "like getting car insurance for an oil",
      "start": 277.57,
      "duration": 3.75
    },
    {
      "text": "change you know stuff that you know",
      "start": 280.12,
      "duration": 3.45
    },
    {
      "text": "needs to be done and so on so what are",
      "start": 281.32,
      "duration": 3.57
    },
    {
      "text": "the layers that are keeping people from",
      "start": 283.57,
      "duration": 3.6
    },
    {
      "text": "accurately viewing and negotiating",
      "start": 284.89,
      "duration": 4.58
    },
    {
      "text": "prices in this central area",
      "start": 287.17,
      "duration": 5.76
    },
    {
      "text": "well the giant corporate hospitals are",
      "start": 289.47,
      "duration": 6.67
    },
    {
      "text": "part of the problem they they don't want",
      "start": 292.93,
      "duration": 5.67
    },
    {
      "text": "anybody to know that the truth is that",
      "start": 296.14,
      "duration": 4.88
    },
    {
      "text": "it health care doesn't cost that much",
      "start": 298.6,
      "duration": 6.3
    },
    {
      "text": "well what the hospitals charge sorry I'm",
      "start": 301.02,
      "duration": 5.77
    },
    {
      "text": "just a take a moment for the for the",
      "start": 304.9,
      "duration": 3.63
    },
    {
      "text": "internet to collectively have some sort",
      "start": 306.79,
      "duration": 3.99
    },
    {
      "text": "of aneurysm at that stage because for",
      "start": 308.53,
      "duration": 3.93
    },
    {
      "text": "most people the idea that health care",
      "start": 310.78,
      "duration": 4.02
    },
    {
      "text": "doesn't cost that much it sounds like",
      "start": 312.46,
      "duration": 3.72
    },
    {
      "text": "you should be opening up and selling",
      "start": 314.8,
      "duration": 2.88
    },
    {
      "text": "some snake oil from your left jacket",
      "start": 316.18,
      "duration": 2.94
    },
    {
      "text": "pocket or something like that cuz that's",
      "start": 317.68,
      "duration": 2.91
    },
    {
      "text": "a surprising statement for most people",
      "start": 319.12,
      "duration": 4.17
    },
    {
      "text": "it doesn't cost that much but what the",
      "start": 320.59,
      "duration": 4.47
    },
    {
      "text": "hospitals charge for it is another",
      "start": 323.29,
      "duration": 7.35
    },
    {
      "text": "matter all-together I run a facility I",
      "start": 325.06,
      "duration": 7.17
    },
    {
      "text": "mean I run an outpatient surgical",
      "start": 330.64,
      "duration": 4.23
    },
    {
      "text": "facility as you know and so I'm an",
      "start": 332.23,
      "duration": 5.1
    },
    {
      "text": "insider and I know what it costs and I",
      "start": 334.87,
      "duration": 4.92
    },
    {
      "text": "know what the supplies cost and when we",
      "start": 337.33,
      "duration": 4.77
    },
    {
      "text": "put our prices online which which was a",
      "start": 339.79,
      "duration": 5.46
    },
    {
      "text": "radical move it's still very unique we",
      "start": 342.1,
      "duration": 6.54
    },
    {
      "text": "started at one-tenth of what the",
      "start": 345.25,
      "duration": 5.37
    },
    {
      "text": "so-called not-for-profit hospitals",
      "start": 348.64,
      "duration": 4.14
    },
    {
      "text": "across town charged we thought that was",
      "start": 350.62,
      "duration": 5.01
    },
    {
      "text": "a good starting spot but we really don't",
      "start": 352.78,
      "duration": 5.55
    },
    {
      "text": "know if that is the market clearing",
      "start": 355.63,
      "duration": 5.04
    },
    {
      "text": "price or not until someone really starts",
      "start": 358.33,
      "duration": 4.89
    },
    {
      "text": "to compete with us but the answer to",
      "start": 360.67,
      "duration": 5.69
    },
    {
      "text": "your question is the big hospitals they",
      "start": 363.22,
      "duration": 5.25
    },
    {
      "text": "represent a layer the insurance",
      "start": 366.36,
      "duration": 3.79
    },
    {
      "text": "companies represent a layer there are",
      "start": 368.47,
      "duration": 4.44
    },
    {
      "text": "lots of vendors that engage in all sorts",
      "start": 370.15,
      "duration": 6.15
    },
    {
      "text": "of schemes to take giant hospital bills",
      "start": 372.91,
      "duration": 6.42
    },
    {
      "text": "and reduce those bills supposedly for",
      "start": 376.3,
      "duration": 5.73
    },
    {
      "text": "the sake of the buyer and everybody",
      "start": 379.33,
      "duration": 5.28
    },
    {
      "text": "takes a percentage and a skim all along",
      "start": 382.03,
      "duration": 5.94
    },
    {
      "text": "the way we just decided that we would we",
      "start": 384.61,
      "duration": 5.34
    },
    {
      "text": "would just put prices on things and tell",
      "start": 387.97,
      "duration": 4.65
    },
    {
      "text": "the whole world and say here's what well",
      "start": 389.95,
      "duration": 3.78
    },
    {
      "text": "here's what we do",
      "start": 392.62,
      "duration": 3.6
    },
    {
      "text": "and here's what we'll do it for and that",
      "start": 393.73,
      "duration": 4.65
    },
    {
      "text": "that's pretty scary too all of these",
      "start": 396.22,
      "duration": 4.56
    },
    {
      "text": "layers that are just skimming billions",
      "start": 398.38,
      "duration": 4.35
    },
    {
      "text": "hundreds of billions of dollars off of",
      "start": 400.78,
      "duration": 3.96
    },
    {
      "text": "the healthcare consumers in the United",
      "start": 402.73,
      "duration": 5.85
    },
    {
      "text": "States and I think I remember hearing a",
      "start": 404.74,
      "duration": 5.34
    },
    {
      "text": "story just before I went into surgery",
      "start": 408.58,
      "duration": 3.99
    },
    {
      "text": "about the degree to which your open",
      "start": 410.08,
      "duration": 4.589
    },
    {
      "text": "price transparency has actually affected",
      "start": 412.57,
      "duration": 4.349
    },
    {
      "text": "other service providers elsewhere where",
      "start": 414.669,
      "duration": 3.451
    },
    {
      "text": "people are coming in waiving stuff",
      "start": 416.919,
      "duration": 3
    },
    {
      "text": "saying you know how come you guys have",
      "start": 418.12,
      "duration": 3.95
    },
    {
      "text": "charged me five or ten times this amount",
      "start": 419.919,
      "duration": 6.241
    },
    {
      "text": "yes I get several emails a week from",
      "start": 422.07,
      "duration": 7
    },
    {
      "text": "people who who go into the hospital and",
      "start": 426.16,
      "duration": 5.1
    },
    {
      "text": "hey they have a plane ticket in one hand",
      "start": 429.07,
      "duration": 4.92
    },
    {
      "text": "and our prices printed out in the other",
      "start": 431.26,
      "duration": 4.86
    },
    {
      "text": "hand and they tell the hospital are you",
      "start": 433.99,
      "duration": 4.35
    },
    {
      "text": "are you going to step up or am i flying",
      "start": 436.12,
      "duration": 5.01
    },
    {
      "text": "to Oklahoma City and that's happening",
      "start": 438.34,
      "duration": 5.16
    },
    {
      "text": "outside of Oklahoma City so we're",
      "start": 441.13,
      "duration": 4.98
    },
    {
      "text": "actually saving saving people money when",
      "start": 443.5,
      "duration": 4.26
    },
    {
      "text": "we're not even doing the surgeries many",
      "start": 446.11,
      "duration": 4.68
    },
    {
      "text": "times but locally in Oklahoma City we've",
      "start": 447.76,
      "duration": 5.94
    },
    {
      "text": "had a tremendous deflationary effect on",
      "start": 450.79,
      "duration": 5.189
    },
    {
      "text": "the price of healthcare services in this",
      "start": 453.7,
      "duration": 5.719
    },
    {
      "text": "area it's it's truly been remarkable and",
      "start": 455.979,
      "duration": 6.961
    },
    {
      "text": "just as a sidebar that is the nightmare",
      "start": 459.419,
      "duration": 6.821
    },
    {
      "text": "that is a nightmare that the Obamacare",
      "start": 462.94,
      "duration": 7.2
    },
    {
      "text": "bureaucrats never never anticipated is",
      "start": 466.24,
      "duration": 6.72
    },
    {
      "text": "that the insanity of this legislation",
      "start": 470.14,
      "duration": 6.63
    },
    {
      "text": "would create true market consumers and",
      "start": 472.96,
      "duration": 6.05
    },
    {
      "text": "competition and would drive prices down",
      "start": 476.77,
      "duration": 5.91
    },
    {
      "text": "because that defeats their effort to get",
      "start": 479.01,
      "duration": 5.95
    },
    {
      "text": "single-payer in this country which is",
      "start": 482.68,
      "duration": 5.34
    },
    {
      "text": "their goal that's that's very",
      "start": 484.96,
      "duration": 4.32
    },
    {
      "text": "interesting and I never thought of that",
      "start": 488.02,
      "duration": 2.43
    },
    {
      "text": "but I think I understand what you're",
      "start": 489.28,
      "duration": 3.72
    },
    {
      "text": "saying so as the hundreds of thousands",
      "start": 490.45,
      "duration": 4.2
    },
    {
      "text": "of pages of regulations at the endless",
      "start": 493,
      "duration": 3.87
    },
    {
      "text": "complexity and actually was just reading",
      "start": 494.65,
      "duration": 3.78
    },
    {
      "text": "the other day that the the public sector",
      "start": 496.87,
      "duration": 3.24
    },
    {
      "text": "unions are turning against Obamacare",
      "start": 498.43,
      "duration": 3.72
    },
    {
      "text": "because they're undercutting what the",
      "start": 500.11,
      "duration": 3.66
    },
    {
      "text": "public sector unions can provide in",
      "start": 502.15,
      "duration": 3.329
    },
    {
      "text": "terms of health care that it may",
      "start": 503.77,
      "duration": 3.6
    },
    {
      "text": "actually provoke people to look at more",
      "start": 505.479,
      "duration": 3.69
    },
    {
      "text": "direct relationships rather than you",
      "start": 507.37,
      "duration": 3.419
    },
    {
      "text": "know wonder into this you know Brazil",
      "start": 509.169,
      "duration": 4.291
    },
    {
      "text": "style bureaucratic maze it's very",
      "start": 510.789,
      "duration": 6.481
    },
    {
      "text": "paradoxical but I believe the intent of",
      "start": 513.46,
      "duration": 6.18
    },
    {
      "text": "the unaffordable Care Act as I like to",
      "start": 517.27,
      "duration": 5.399
    },
    {
      "text": "call it was to introduce chaos into the",
      "start": 519.64,
      "duration": 5.49
    },
    {
      "text": "marketplace and intentionally drives the",
      "start": 522.669,
      "duration": 4.831
    },
    {
      "text": "price of care and insurance so high that",
      "start": 525.13,
      "duration": 4.68
    },
    {
      "text": "people would beg for the sequel and they",
      "start": 527.5,
      "duration": 4.62
    },
    {
      "text": "would beg for single-payer what's",
      "start": 529.81,
      "duration": 4.77
    },
    {
      "text": "happened though is its created shoppers",
      "start": 532.12,
      "duration": 5.25
    },
    {
      "text": "it's created shoppers out of American",
      "start": 534.58,
      "duration": 4.59
    },
    {
      "text": "healthcare consumers and now they have",
      "start": 537.37,
      "duration": 4.17
    },
    {
      "text": "that sticker shock that Jim Epstein from",
      "start": 539.17,
      "duration": 6.42
    },
    {
      "text": "Reason magazine said is mostly absent so",
      "start": 541.54,
      "duration": 5.67
    },
    {
      "text": "they're looking when they're looking",
      "start": 545.59,
      "duration": 3.96
    },
    {
      "text": "online and they're saying well wait a",
      "start": 547.21,
      "duration": 4.56
    },
    {
      "text": "minute I can have my knee arthroscopy",
      "start": 549.55,
      "duration": 5.43
    },
    {
      "text": "done for half of what my deductible is",
      "start": 551.77,
      "duration": 5.4
    },
    {
      "text": "on my insurance policy if I go service",
      "start": 554.98,
      "duration": 5.07
    },
    {
      "text": "Arab Oklahoma so they're asking for",
      "start": 557.17,
      "duration": 5.28
    },
    {
      "text": "prices they're demanding prices because",
      "start": 560.05,
      "duration": 4.68
    },
    {
      "text": "people with health savings accounts high",
      "start": 562.45,
      "duration": 4.91
    },
    {
      "text": "deductibles people that are part of",
      "start": 564.73,
      "duration": 6.17
    },
    {
      "text": "self-funded businesses that paid for the",
      "start": 567.36,
      "duration": 5.77
    },
    {
      "text": "employees care out of operational",
      "start": 570.9,
      "duration": 4.87
    },
    {
      "text": "revenue they're shopping and that is a",
      "start": 573.13,
      "duration": 5.13
    },
    {
      "text": "nightmare for the bureaucrats in",
      "start": 575.77,
      "duration": 5.31
    },
    {
      "text": "Washington DC that want all of the",
      "start": 578.26,
      "duration": 5.16
    },
    {
      "text": "layers and want all of the price opacity",
      "start": 581.08,
      "duration": 7.35
    },
    {
      "text": "so that their cronies can clean up right",
      "start": 583.42,
      "duration": 6.87
    },
    {
      "text": "right now I mean of course there's",
      "start": 588.43,
      "duration": 4.38
    },
    {
      "text": "several things that are interfering with",
      "start": 590.29,
      "duration": 4.47
    },
    {
      "text": "free market operation one of course is",
      "start": 592.81,
      "duration": 4.59
    },
    {
      "text": "the tax deductibility of the usually",
      "start": 594.76,
      "duration": 5.16
    },
    {
      "text": "employer deductibility of the insurance",
      "start": 597.4,
      "duration": 4.11
    },
    {
      "text": "plans right which comes out of the",
      "start": 599.92,
      "duration": 3.06
    },
    {
      "text": "Second World War when you couldn't give",
      "start": 601.51,
      "duration": 3.09
    },
    {
      "text": "people raises and instead you had to",
      "start": 602.98,
      "duration": 2.94
    },
    {
      "text": "give them some other benefit and what",
      "start": 604.6,
      "duration": 2.37
    },
    {
      "text": "they did was said okay we'll pay your",
      "start": 605.92,
      "duration": 2.34
    },
    {
      "text": "health care which is you know I mean",
      "start": 606.97,
      "duration": 2.43
    },
    {
      "text": "don't pay your life insurance then I",
      "start": 608.26,
      "duration": 2.22
    },
    {
      "text": "make car insurance but health care",
      "start": 609.4,
      "duration": 3.27
    },
    {
      "text": "becomes one of these things and it seems",
      "start": 610.48,
      "duration": 3.45
    },
    {
      "text": "to me like of all the things you'd want",
      "start": 612.67,
      "duration": 3.51
    },
    {
      "text": "in human life to really feel like you",
      "start": 613.93,
      "duration": 3.63
    },
    {
      "text": "had visceral connection and control over",
      "start": 616.18,
      "duration": 3.42
    },
    {
      "text": "health care is one of those things and",
      "start": 617.56,
      "duration": 4.11
    },
    {
      "text": "yet it seems that people seem almost",
      "start": 619.6,
      "duration": 4.89
    },
    {
      "text": "desperate to find some way of",
      "start": 621.67,
      "duration": 4.8
    },
    {
      "text": "abstracting themselves from direct price",
      "start": 624.49,
      "duration": 4.23
    },
    {
      "text": "consequences direct negotiations and",
      "start": 626.47,
      "duration": 4.29
    },
    {
      "text": "that seems kind of strange to me I don't",
      "start": 628.72,
      "duration": 3.24
    },
    {
      "text": "know if that's the result of all these",
      "start": 630.76,
      "duration": 3.27
    },
    {
      "text": "regulations or if that desire is driving",
      "start": 631.96,
      "duration": 4.17
    },
    {
      "text": "the regulations bad boy it seems to be I",
      "start": 634.03,
      "duration": 3.9
    },
    {
      "text": "mean the degree of control that I felt",
      "start": 636.13,
      "duration": 3.15
    },
    {
      "text": "over my own health care when I could",
      "start": 637.93,
      "duration": 3.84
    },
    {
      "text": "simply go and pay something and get",
      "start": 639.28,
      "duration": 4.71
    },
    {
      "text": "something done was a huge relief I mean",
      "start": 641.77,
      "duration": 3.78
    },
    {
      "text": "I think the anxiety that people face",
      "start": 643.99,
      "duration": 3.21
    },
    {
      "text": "with all these layers and bureaucracies",
      "start": 645.55,
      "duration": 3.45
    },
    {
      "text": "and crossing their fingers I hope this",
      "start": 647.2,
      "duration": 3.54
    },
    {
      "text": "is covered this is rejected and so on it",
      "start": 649,
      "duration": 3.93
    },
    {
      "text": "distracts people from I think taking",
      "start": 650.74,
      "duration": 3.75
    },
    {
      "text": "more control over their own health care",
      "start": 652.93,
      "duration": 4.23
    },
    {
      "text": "and feeling like they're a player in",
      "start": 654.49,
      "duration": 4.14
    },
    {
      "text": "really the most important market which",
      "start": 657.16,
      "duration": 4.05
    },
    {
      "text": "is your own health yeah I would agree",
      "start": 658.63,
      "duration": 4.14
    },
    {
      "text": "and you pointed out something very",
      "start": 661.21,
      "duration": 3.62
    },
    {
      "text": "important you would think that",
      "start": 662.77,
      "duration": 3.26
    },
    {
      "text": "you would think that providing",
      "start": 664.83,
      "duration": 3.21
    },
    {
      "text": "healthcare for yourself or your family",
      "start": 666.03,
      "duration": 5.81
    },
    {
      "text": "would be top priority when in fact",
      "start": 668.04,
      "duration": 6.36
    },
    {
      "text": "contributing to your pension that's held",
      "start": 671.84,
      "duration": 5.43
    },
    {
      "text": "by Wall Street is a tax-deductible",
      "start": 674.4,
      "duration": 5.46
    },
    {
      "text": "activity when your health care is not so",
      "start": 677.27,
      "duration": 5.32
    },
    {
      "text": "that gives you that gives you an idea of",
      "start": 679.86,
      "duration": 5.19
    },
    {
      "text": "the power of the health insurance lobby",
      "start": 682.59,
      "duration": 4.74
    },
    {
      "text": "that they've prevented that the health",
      "start": 685.05,
      "duration": 4.86
    },
    {
      "text": "insurance lobby does not want the tax",
      "start": 687.33,
      "duration": 4.95
    },
    {
      "text": "deductibility of purchase of health",
      "start": 689.91,
      "duration": 5.01
    },
    {
      "text": "insurance because right now with",
      "start": 692.28,
      "duration": 5.07
    },
    {
      "text": "employers in charge of purchasing health",
      "start": 694.92,
      "duration": 4.41
    },
    {
      "text": "care they can write one policy that",
      "start": 697.35,
      "duration": 6.42
    },
    {
      "text": "covers thousands if the tax treatment of",
      "start": 699.33,
      "duration": 6.36
    },
    {
      "text": "health care purchases is equal between",
      "start": 703.77,
      "duration": 4.86
    },
    {
      "text": "employers employees the insurance",
      "start": 705.69,
      "duration": 5.19
    },
    {
      "text": "brokerages have to write thousands of",
      "start": 708.63,
      "duration": 4.98
    },
    {
      "text": "policies to cover thousands of people so",
      "start": 710.88,
      "duration": 4.68
    },
    {
      "text": "their overhead goes way up it's much",
      "start": 713.61,
      "duration": 4.86
    },
    {
      "text": "more difficult people cannot be herded",
      "start": 715.56,
      "duration": 6.63
    },
    {
      "text": "and controlled into these cartelized PPO",
      "start": 718.47,
      "duration": 5.85
    },
    {
      "text": "networks so that they can funnel",
      "start": 722.19,
      "duration": 4.83
    },
    {
      "text": "business to their pals and it becomes a",
      "start": 724.32,
      "duration": 6.72
    },
    {
      "text": "much much different game well and that's",
      "start": 727.02,
      "duration": 5.67
    },
    {
      "text": "I think a terrible thing that occurs in",
      "start": 731.04,
      "duration": 3.36
    },
    {
      "text": "the American Lobby process with regards",
      "start": 732.69,
      "duration": 3.27
    },
    {
      "text": "to health care which everybody wants",
      "start": 734.4,
      "duration": 3.06
    },
    {
      "text": "their pet illness you know and I say",
      "start": 735.96,
      "duration": 2.93
    },
    {
      "text": "that with a degree of sensitivity",
      "start": 737.46,
      "duration": 3.6
    },
    {
      "text": "everybody wants their pet illness to be",
      "start": 738.89,
      "duration": 4.15
    },
    {
      "text": "covered by everyone so that they don't",
      "start": 741.06,
      "duration": 3.72
    },
    {
      "text": "have to pay for the costs themselves and",
      "start": 743.04,
      "duration": 3.51
    },
    {
      "text": "this is why you get some very obscure",
      "start": 744.78,
      "duration": 3.06
    },
    {
      "text": "things trying to be written into",
      "start": 746.55,
      "duration": 2.82
    },
    {
      "text": "everyone's policy which is a purely",
      "start": 747.84,
      "duration": 3.27
    },
    {
      "text": "political process would not be supported",
      "start": 749.37,
      "duration": 3.57
    },
    {
      "text": "by the free market at all and this is",
      "start": 751.11,
      "duration": 3.45
    },
    {
      "text": "why you end up with these monster things",
      "start": 752.94,
      "duration": 4.59
    },
    {
      "text": "where you know 20 year old guys have to",
      "start": 754.56,
      "duration": 5.22
    },
    {
      "text": "buy fertility insurance you know for",
      "start": 757.53,
      "duration": 3.57
    },
    {
      "text": "infertility issues and so on which",
      "start": 759.78,
      "duration": 2.55
    },
    {
      "text": "they'd never in a million years want to",
      "start": 761.1,
      "duration": 3.24
    },
    {
      "text": "buy but because everyone's piling on",
      "start": 762.33,
      "duration": 3.84
    },
    {
      "text": "using the government to try and get",
      "start": 764.34,
      "duration": 5.31
    },
    {
      "text": "their pet peeve pet cause pet illness on",
      "start": 766.17,
      "duration": 5.04
    },
    {
      "text": "everybody's insurance I think that's",
      "start": 769.65,
      "duration": 2.82
    },
    {
      "text": "another thing that drives things up and",
      "start": 771.21,
      "duration": 3.09
    },
    {
      "text": "reduces choice that would be much more",
      "start": 772.47,
      "duration": 3.18
    },
    {
      "text": "carefully tailored to people's actual",
      "start": 774.3,
      "duration": 4.26
    },
    {
      "text": "needs Wow while the insurance companies",
      "start": 775.65,
      "duration": 5.37
    },
    {
      "text": "complain many times about these mandates",
      "start": 778.56,
      "duration": 4.86
    },
    {
      "text": "that like you say caused mega",
      "start": 781.02,
      "duration": 5.25
    },
    {
      "text": "twenty-year-old by fertility insurance",
      "start": 783.42,
      "duration": 5.7
    },
    {
      "text": "they actually profit from that wildly",
      "start": 786.27,
      "duration": 5.97
    },
    {
      "text": "because the risk-benefit proposition of",
      "start": 789.12,
      "duration": 6.35
    },
    {
      "text": "a 20 year old having to buy pregnancy",
      "start": 792.24,
      "duration": 5.94
    },
    {
      "text": "insurance it's very likely",
      "start": 795.47,
      "duration": 4.39
    },
    {
      "text": "that the insurance company is not going",
      "start": 798.18,
      "duration": 3.96
    },
    {
      "text": "to have to pay out a claim on that so",
      "start": 799.86,
      "duration": 5.19
    },
    {
      "text": "they actually like that arrangement keep",
      "start": 802.14,
      "duration": 5.22
    },
    {
      "text": "in mind too that the presence of",
      "start": 805.05,
      "duration": 4.71
    },
    {
      "text": "insurance in the presence of third party",
      "start": 807.36,
      "duration": 5.25
    },
    {
      "text": "payment the somebody else is paying for",
      "start": 809.76,
      "duration": 6.09
    },
    {
      "text": "this kind of effect is a huge part of",
      "start": 812.61,
      "duration": 4.979
    },
    {
      "text": "why health care is so expensive in the",
      "start": 815.85,
      "duration": 4.56
    },
    {
      "text": "United States it where insurance is",
      "start": 817.589,
      "duration": 6.151
    },
    {
      "text": "absent for instance in LASIK and plastic",
      "start": 820.41,
      "duration": 5.28
    },
    {
      "text": "surgery like I said before you find",
      "start": 823.74,
      "duration": 4.89
    },
    {
      "text": "prices very reasonable and our surgery",
      "start": 825.69,
      "duration": 6.57
    },
    {
      "text": "center where we wear insurance is absent",
      "start": 828.63,
      "duration": 6.48
    },
    {
      "text": "you see prices like you saw when you",
      "start": 832.26,
      "duration": 6.06
    },
    {
      "text": "came to our facility and the the care is",
      "start": 835.11,
      "duration": 5.849
    },
    {
      "text": "affordable because that that's one of",
      "start": 838.32,
      "duration": 4.74
    },
    {
      "text": "the great myths it doesn't cost that",
      "start": 840.959,
      "duration": 4.231
    },
    {
      "text": "much but once you introduce these third",
      "start": 843.06,
      "duration": 5.85
    },
    {
      "text": "parties the go go get an estimate to get",
      "start": 845.19,
      "duration": 5.519
    },
    {
      "text": "your roof replaced and tell the guy",
      "start": 848.91,
      "duration": 4.02
    },
    {
      "text": "you're gonna pay cash and you'll get a",
      "start": 850.709,
      "duration": 4.771
    },
    {
      "text": "much better price than if he has to deal",
      "start": 852.93,
      "duration": 6.21
    },
    {
      "text": "with your insurance company well and I",
      "start": 855.48,
      "duration": 5.01
    },
    {
      "text": "mean one of the visceral things was that",
      "start": 859.14,
      "duration": 3.15
    },
    {
      "text": "was when the biopsy was taken from my",
      "start": 860.49,
      "duration": 3.87
    },
    {
      "text": "neck the first bills that came back was",
      "start": 862.29,
      "duration": 4.919
    },
    {
      "text": "crazy high and then they said oh no no",
      "start": 864.36,
      "duration": 4.349
    },
    {
      "text": "he's not covered by insurance he's",
      "start": 867.209,
      "duration": 3.361
    },
    {
      "text": "paying and they're like oh okay well",
      "start": 868.709,
      "duration": 3.961
    },
    {
      "text": "then it's you know X amount laughs and",
      "start": 870.57,
      "duration": 3.84
    },
    {
      "text": "and this is another thing you just don't",
      "start": 872.67,
      "duration": 3.27
    },
    {
      "text": "haggle for price I mean I was thinking",
      "start": 874.41,
      "duration": 3.21
    },
    {
      "text": "about that after the fact and I thought",
      "start": 875.94,
      "duration": 3
    },
    {
      "text": "you know well if I've been covered by",
      "start": 877.62,
      "duration": 3
    },
    {
      "text": "insurance would I really have gone to",
      "start": 878.94,
      "duration": 4.019
    },
    {
      "text": "the wall to fight that price and to ask",
      "start": 880.62,
      "duration": 3.51
    },
    {
      "text": "for some you know something more",
      "start": 882.959,
      "duration": 2.701
    },
    {
      "text": "reasonable and of course no I would have",
      "start": 884.13,
      "duration": 2.55
    },
    {
      "text": "just sent it off to the insurance",
      "start": 885.66,
      "duration": 2.369
    },
    {
      "text": "company and it would have gone into the",
      "start": 886.68,
      "duration": 3.57
    },
    {
      "text": "great glom of bureaucratic payments but",
      "start": 888.029,
      "duration": 3.781
    },
    {
      "text": "I thought well because it's coming to my",
      "start": 890.25,
      "duration": 4.44
    },
    {
      "text": "bank account or my visa statement that's",
      "start": 891.81,
      "duration": 4.35
    },
    {
      "text": "something that I'm gonna push back on",
      "start": 894.69,
      "duration": 2.76
    },
    {
      "text": "and I think that's not something that",
      "start": 896.16,
      "duration": 2.64
    },
    {
      "text": "happens and of course the people who are",
      "start": 897.45,
      "duration": 2.79
    },
    {
      "text": "making bills love to deal with insurance",
      "start": 898.8,
      "duration": 3.6
    },
    {
      "text": "companies because there's much there's",
      "start": 900.24,
      "duration": 4.02
    },
    {
      "text": "much more bureaucracy and procedural",
      "start": 902.4,
      "duration": 3.21
    },
    {
      "text": "they just ticked their boxes they don't",
      "start": 904.26,
      "duration": 2.64
    },
    {
      "text": "fight for price in the way that",
      "start": 905.61,
      "duration": 3.87
    },
    {
      "text": "individual consumers do that's right",
      "start": 906.9,
      "duration": 4.71
    },
    {
      "text": "keep in mind too there there are a",
      "start": 909.48,
      "duration": 4.32
    },
    {
      "text": "couple of scams and scandals in the",
      "start": 911.61,
      "duration": 4.169
    },
    {
      "text": "United States where people have figured",
      "start": 913.8,
      "duration": 5.7
    },
    {
      "text": "out a way to make money from the fact",
      "start": 915.779,
      "duration": 6.451
    },
    {
      "text": "that the bills are gigantic there's a",
      "start": 919.5,
      "duration": 6.39
    },
    {
      "text": "whole army of people who reduce medical",
      "start": 922.23,
      "duration": 6.479
    },
    {
      "text": "bills and charge a person charge of",
      "start": 925.89,
      "duration": 4.68
    },
    {
      "text": "percentage the extent to which they",
      "start": 928.709,
      "duration": 3.051
    },
    {
      "text": "reduced it",
      "start": 930.57,
      "duration": 3.65
    },
    {
      "text": "and many of those people are inside of",
      "start": 931.76,
      "duration": 5.28
    },
    {
      "text": "the big insurance carriers so the",
      "start": 934.22,
      "duration": 5.7
    },
    {
      "text": "insurance carriers are paradoxically",
      "start": 937.04,
      "duration": 5.31
    },
    {
      "text": "incentivized to seek out the highest",
      "start": 939.92,
      "duration": 4.349
    },
    {
      "text": "bills in order to maximize that",
      "start": 942.35,
      "duration": 5.429
    },
    {
      "text": "repricing revenue the other scam the",
      "start": 944.269,
      "duration": 6.301
    },
    {
      "text": "hospitals the particularly the",
      "start": 947.779,
      "duration": 6.12
    },
    {
      "text": "not-for-profit hospitals they they claim",
      "start": 950.57,
      "duration": 7.34
    },
    {
      "text": "that what they don't collect was a loss",
      "start": 953.899,
      "duration": 7.651
    },
    {
      "text": "so they are incentivized to charge $100",
      "start": 957.91,
      "duration": 5.44
    },
    {
      "text": "for an aspirin because then when they",
      "start": 961.55,
      "duration": 3.899
    },
    {
      "text": "only collect five dollars they claim",
      "start": 963.35,
      "duration": 5.25
    },
    {
      "text": "they lost 95 that allows them to",
      "start": 965.449,
      "duration": 4.741
    },
    {
      "text": "maintain the fiction of their",
      "start": 968.6,
      "duration": 5.01
    },
    {
      "text": "not-for-profit status but they also then",
      "start": 970.19,
      "duration": 6.18
    },
    {
      "text": "throw that ninety-five dollar loss at",
      "start": 973.61,
      "duration": 5.13
    },
    {
      "text": "the federal government and receive a",
      "start": 976.37,
      "duration": 5.55
    },
    {
      "text": "kickback the next year for having done",
      "start": 978.74,
      "duration": 6.24
    },
    {
      "text": "so so there are so many scams where the",
      "start": 981.92,
      "duration": 6.12
    },
    {
      "text": "federal government is is really enabled",
      "start": 984.98,
      "duration": 6.63
    },
    {
      "text": "this mass rain right now there's",
      "start": 988.04,
      "duration": 5.01
    },
    {
      "text": "something else this is something I feel",
      "start": 991.61,
      "duration": 3.93
    },
    {
      "text": "delicate talking about because nobody",
      "start": 993.05,
      "duration": 3.96
    },
    {
      "text": "wants I've but nobody wants people to",
      "start": 995.54,
      "duration": 2.13
    },
    {
      "text": "suffer and die",
      "start": 997.01,
      "duration": 2.16
    },
    {
      "text": "of course right I means I think that's",
      "start": 997.67,
      "duration": 3.06
    },
    {
      "text": "just a natural human instinct to take",
      "start": 999.17,
      "duration": 3.24
    },
    {
      "text": "care of your fellow man but there's",
      "start": 1000.73,
      "duration": 3.87
    },
    {
      "text": "something that I find fundamentally",
      "start": 1002.41,
      "duration": 5.489
    },
    {
      "text": "troubling about pre-existing conditions",
      "start": 1004.6,
      "duration": 5.91
    },
    {
      "text": "and insurance I mean I think that",
      "start": 1007.899,
      "duration": 4.56
    },
    {
      "text": "insurance is a fine thing to buy for",
      "start": 1010.51,
      "duration": 3.269
    },
    {
      "text": "those weird things that happen",
      "start": 1012.459,
      "duration": 3.151
    },
    {
      "text": "out of nowhere you can't anticipate or",
      "start": 1013.779,
      "duration": 3.24
    },
    {
      "text": "whatever I think that's that's fine and",
      "start": 1015.61,
      "duration": 2.76
    },
    {
      "text": "we do that for cars we do that for",
      "start": 1017.019,
      "duration": 2.971
    },
    {
      "text": "accidents and so on do that for health",
      "start": 1018.37,
      "duration": 4.44
    },
    {
      "text": "care the problem it seems to me and this",
      "start": 1019.99,
      "duration": 4.14
    },
    {
      "text": "is what Obamacare is to some degree",
      "start": 1022.81,
      "duration": 3.81
    },
    {
      "text": "about is you can't disqualify just",
      "start": 1024.13,
      "duration": 3.539
    },
    {
      "text": "qualify people for pre-existing",
      "start": 1026.62,
      "duration": 2.929
    },
    {
      "text": "conditions when they apply for insurance",
      "start": 1027.669,
      "duration": 4.92
    },
    {
      "text": "now again I know actuary lists and",
      "start": 1029.549,
      "duration": 5.26
    },
    {
      "text": "certainly no mathematician but it seems",
      "start": 1032.589,
      "duration": 3.901
    },
    {
      "text": "to me that that's the entire opposite of",
      "start": 1034.809,
      "duration": 3.481
    },
    {
      "text": "what insurance should be because if you",
      "start": 1036.49,
      "duration": 3.54
    },
    {
      "text": "can't be disqualified for a prior",
      "start": 1038.29,
      "duration": 3.779
    },
    {
      "text": "condition why not just wait until you",
      "start": 1040.03,
      "duration": 3.539
    },
    {
      "text": "get sick and then apply for insurance",
      "start": 1042.069,
      "duration": 2.88
    },
    {
      "text": "which is like applying for life",
      "start": 1043.569,
      "duration": 3.451
    },
    {
      "text": "insurance after somebody has died it",
      "start": 1044.949,
      "duration": 4.35
    },
    {
      "text": "seems to me that that everybody is just",
      "start": 1047.02,
      "duration": 3.81
    },
    {
      "text": "going to make in time like people who",
      "start": 1049.299,
      "duration": 2.941
    },
    {
      "text": "don't buy insurance and get hit with",
      "start": 1050.83,
      "duration": 3.06
    },
    {
      "text": "hard bills I think there should be",
      "start": 1052.24,
      "duration": 3.059
    },
    {
      "text": "charities I would contribute I have",
      "start": 1053.89,
      "duration": 2.85
    },
    {
      "text": "contributed to help people out in those",
      "start": 1055.299,
      "duration": 4.531
    },
    {
      "text": "situations but I think if you make it so",
      "start": 1056.74,
      "duration": 5.189
    },
    {
      "text": "easy to get your health care covered",
      "start": 1059.83,
      "duration": 4.2
    },
    {
      "text": "even if you've not prepared for it it",
      "start": 1061.929,
      "duration": 3.63
    },
    {
      "text": "really pushes the costs on",
      "start": 1064.03,
      "duration": 2.849
    },
    {
      "text": "conscientious people who gonna buy",
      "start": 1065.559,
      "duration": 3.36
    },
    {
      "text": "insurance and not wait and do the kind",
      "start": 1066.879,
      "duration": 3.87
    },
    {
      "text": "of slippery move of just apply after you",
      "start": 1068.919,
      "duration": 4.021
    },
    {
      "text": "get sick and it seems to me that's just",
      "start": 1070.749,
      "duration": 3.871
    },
    {
      "text": "gonna drive prices through the roof and",
      "start": 1072.94,
      "duration": 3.15
    },
    {
      "text": "therefore be another way of saying well",
      "start": 1074.62,
      "duration": 2.73
    },
    {
      "text": "we tried the free market we tried",
      "start": 1076.09,
      "duration": 2.73
    },
    {
      "text": "reforming the free market we're just",
      "start": 1077.35,
      "duration": 3
    },
    {
      "text": "gonna go socialist because blah blah",
      "start": 1078.82,
      "duration": 3.3
    },
    {
      "text": "blah blah it seems like that's just",
      "start": 1080.35,
      "duration": 3.209
    },
    {
      "text": "another step in that direction of",
      "start": 1082.12,
      "duration": 2.73
    },
    {
      "text": "driving prices up",
      "start": 1083.559,
      "duration": 4.051
    },
    {
      "text": "that's exactly right it's like it's like",
      "start": 1084.85,
      "duration": 6.569
    },
    {
      "text": "someone calling an insurance agent to",
      "start": 1087.61,
      "duration": 6.689
    },
    {
      "text": "buy insurance on their home while it's",
      "start": 1091.419,
      "duration": 3.75
    },
    {
      "text": "on fire",
      "start": 1094.299,
      "duration": 5.041
    },
    {
      "text": "and there definitely are people that are",
      "start": 1095.169,
      "duration": 7.08
    },
    {
      "text": "in line that need heart lung transplants",
      "start": 1099.34,
      "duration": 5.01
    },
    {
      "text": "and all kinds of procedures like that",
      "start": 1102.249,
      "duration": 4.77
    },
    {
      "text": "that are just waiting for this law to be",
      "start": 1104.35,
      "duration": 4.74
    },
    {
      "text": "implemented and what they're going to",
      "start": 1107.019,
      "duration": 3.841
    },
    {
      "text": "find is that they're going to have a",
      "start": 1109.09,
      "duration": 4.949
    },
    {
      "text": "card in their wallet that's going to say",
      "start": 1110.86,
      "duration": 6.509
    },
    {
      "text": "that they have they have Obamacare and",
      "start": 1114.039,
      "duration": 5.25
    },
    {
      "text": "what they're going to find is there's",
      "start": 1117.369,
      "duration": 3.9
    },
    {
      "text": "not going to be anyone there to see them",
      "start": 1119.289,
      "duration": 4.14
    },
    {
      "text": "for a couple of reasons",
      "start": 1121.269,
      "duration": 5.52
    },
    {
      "text": "one is that the demand will overwhelm",
      "start": 1123.429,
      "duration": 5.761
    },
    {
      "text": "the supply because that's what happens",
      "start": 1126.789,
      "duration": 5.52
    },
    {
      "text": "when stuff is free the second reason is",
      "start": 1129.19,
      "duration": 7.17
    },
    {
      "text": "is that the government anticipated this",
      "start": 1132.309,
      "duration": 5.881
    },
    {
      "text": "and the Obamacare bureaucrats",
      "start": 1136.36,
      "duration": 4.13
    },
    {
      "text": "anticipated this and they have this tool",
      "start": 1138.19,
      "duration": 5.16
    },
    {
      "text": "called the Independent Payment Advisory",
      "start": 1140.49,
      "duration": 5.799
    },
    {
      "text": "Board the purpose of which is to lower",
      "start": 1143.35,
      "duration": 6.75
    },
    {
      "text": "the price that physicians and facilities",
      "start": 1146.289,
      "duration": 6.14
    },
    {
      "text": "are paid below the market clearing price",
      "start": 1150.1,
      "duration": 5.64
    },
    {
      "text": "so they will use that price control",
      "start": 1152.429,
      "duration": 6.431
    },
    {
      "text": "mechanism as a rationing tool so that",
      "start": 1155.74,
      "duration": 6.12
    },
    {
      "text": "the lines will be very very long and",
      "start": 1158.86,
      "duration": 5.279
    },
    {
      "text": "yeah there will be people that will have",
      "start": 1161.86,
      "duration": 4.23
    },
    {
      "text": "all kinds of pre-existing conditions",
      "start": 1164.139,
      "duration": 4.65
    },
    {
      "text": "that's that we'll be celebrating and",
      "start": 1166.09,
      "duration": 4.829
    },
    {
      "text": "dancing in the streets because tomorrow",
      "start": 1168.789,
      "duration": 5.37
    },
    {
      "text": "I can have my whatever operation only to",
      "start": 1170.919,
      "duration": 6.031
    },
    {
      "text": "find themselves as many Canadians are in",
      "start": 1174.159,
      "duration": 5.22
    },
    {
      "text": "long lines and no one to take care of",
      "start": 1176.95,
      "duration": 5.099
    },
    {
      "text": "them and a pretty certainly pretty",
      "start": 1179.379,
      "duration": 4.5
    },
    {
      "text": "certainly person on the other end that",
      "start": 1182.049,
      "duration": 4.23
    },
    {
      "text": "does take care of them who is probably",
      "start": 1183.879,
      "duration": 4.951
    },
    {
      "text": "doing so at gunpoint not some mutually",
      "start": 1186.279,
      "duration": 6.15
    },
    {
      "text": "beneficial arrangement oh yeah no I",
      "start": 1188.83,
      "duration": 6.12
    },
    {
      "text": "think Iran pointed that out that you",
      "start": 1192.429,
      "duration": 3.6
    },
    {
      "text": "know one of the most terrifying things",
      "start": 1194.95,
      "duration": 2.64
    },
    {
      "text": "is a healthcare provider that you're",
      "start": 1196.029,
      "duration": 3.271
    },
    {
      "text": "that you're not financially help",
      "start": 1197.59,
      "duration": 3.21
    },
    {
      "text": "out in a mutually beneficial arrangement",
      "start": 1199.3,
      "duration": 3.12
    },
    {
      "text": "because then they're just there for some",
      "start": 1200.8,
      "duration": 2.64
    },
    {
      "text": "other reasons it's usually not that",
      "start": 1202.42,
      "duration": 2.91
    },
    {
      "text": "great and this is another thing too like",
      "start": 1203.44,
      "duration": 3.24
    },
    {
      "text": "they're talking about putting tens of",
      "start": 1205.33,
      "duration": 2.49
    },
    {
      "text": "millions of more people into the",
      "start": 1206.68,
      "duration": 4.32
    },
    {
      "text": "healthcare system again I mean you just",
      "start": 1207.82,
      "duration": 5.55
    },
    {
      "text": "wish people had had you know II can econ",
      "start": 1211,
      "duration": 4.62
    },
    {
      "text": "101 in grade 7 would cover this you know",
      "start": 1213.37,
      "duration": 3.57
    },
    {
      "text": "which is that if you starting to jam",
      "start": 1215.62,
      "duration": 2.64
    },
    {
      "text": "tens more people into a healthcare",
      "start": 1216.94,
      "duration": 3.15
    },
    {
      "text": "system without a concomitant or",
      "start": 1218.26,
      "duration": 3.33
    },
    {
      "text": "simultaneous increase in the number of",
      "start": 1220.09,
      "duration": 3.84
    },
    {
      "text": "doctors what are people that think gonna",
      "start": 1221.59,
      "duration": 3.81
    },
    {
      "text": "happen to waiting lines I mean that the",
      "start": 1223.93,
      "duration": 2.91
    },
    {
      "text": "number of doctors has calibrated at",
      "start": 1225.4,
      "duration": 3.15
    },
    {
      "text": "least roughly in some vague free-market",
      "start": 1226.84,
      "duration": 3
    },
    {
      "text": "sense what's left of it",
      "start": 1228.55,
      "duration": 2.97
    },
    {
      "text": "to the demand but if you're gonna",
      "start": 1229.84,
      "duration": 3.93
    },
    {
      "text": "suddenly increase the demand without",
      "start": 1231.52,
      "duration": 4.56
    },
    {
      "text": "increasing the supply of doctors and you",
      "start": 1233.77,
      "duration": 3.72
    },
    {
      "text": "can't increase the price because it's",
      "start": 1236.08,
      "duration": 4.02
    },
    {
      "text": "legislated I mean it's not brain surgery",
      "start": 1237.49,
      "duration": 4.32
    },
    {
      "text": "to figure out what will happen from",
      "start": 1240.1,
      "duration": 3.06
    },
    {
      "text": "there but people don't seem to even they",
      "start": 1241.81,
      "duration": 2.7
    },
    {
      "text": "just think this is gonna be magic what",
      "start": 1243.16,
      "duration": 2.73
    },
    {
      "text": "you had clone doctors and just have",
      "start": 1244.51,
      "duration": 2.43
    },
    {
      "text": "everyone in your living or it doesn't",
      "start": 1245.89,
      "duration": 2.7
    },
    {
      "text": "make any sense people are expecting",
      "start": 1246.94,
      "duration": 3.15
    },
    {
      "text": "things that simply in reality can't",
      "start": 1248.59,
      "duration": 4.11
    },
    {
      "text": "happen well then I believe that it's all",
      "start": 1250.09,
      "duration": 5.46
    },
    {
      "text": "intentional because you can look you can",
      "start": 1252.7,
      "duration": 5.07
    },
    {
      "text": "look at this unaffordable Care Act and",
      "start": 1255.55,
      "duration": 5.01
    },
    {
      "text": "you can pick it apart with a thousand",
      "start": 1257.77,
      "duration": 5.58
    },
    {
      "text": "points like what you just made and",
      "start": 1260.56,
      "duration": 5.25
    },
    {
      "text": "there's no doubt in my mind that it's",
      "start": 1263.35,
      "duration": 6.21
    },
    {
      "text": "it's created intentionally to to create",
      "start": 1265.81,
      "duration": 5.55
    },
    {
      "text": "chaos so people will beg for a",
      "start": 1269.56,
      "duration": 3.12
    },
    {
      "text": "single-payer and then then the",
      "start": 1271.36,
      "duration": 2.67
    },
    {
      "text": "government will have complete control",
      "start": 1272.68,
      "duration": 5.58
    },
    {
      "text": "which is their goal well and one of the",
      "start": 1274.03,
      "duration": 6.3
    },
    {
      "text": "things about health care too is that you",
      "start": 1278.26,
      "duration": 4.56
    },
    {
      "text": "don't generally get for very politically",
      "start": 1280.33,
      "duration": 3.96
    },
    {
      "text": "active in health care if you're healthy",
      "start": 1282.82,
      "duration": 3.51
    },
    {
      "text": "because you're living your life and then",
      "start": 1284.29,
      "duration": 3.72
    },
    {
      "text": "when you get sick you kind of focus on",
      "start": 1286.33,
      "duration": 3.3
    },
    {
      "text": "getting better and so it is one of these",
      "start": 1288.01,
      "duration": 3.18
    },
    {
      "text": "things where government can really grow",
      "start": 1289.63,
      "duration": 3.39
    },
    {
      "text": "you know the gun rights stuff I mean",
      "start": 1291.19,
      "duration": 3.09
    },
    {
      "text": "people really fight tooth and nail for",
      "start": 1293.02,
      "duration": 2.79
    },
    {
      "text": "that stuff but health care is kind of a",
      "start": 1294.28,
      "duration": 2.28
    },
    {
      "text": "different thing you're not that",
      "start": 1295.81,
      "duration": 1.95
    },
    {
      "text": "interested until you're too vulnerable",
      "start": 1296.56,
      "duration": 2.94
    },
    {
      "text": "to find it and then you really are",
      "start": 1297.76,
      "duration": 3.33
    },
    {
      "text": "dependent on a system and if it doesn't",
      "start": 1299.5,
      "duration": 3.15
    },
    {
      "text": "work I mean I had the opportunity to",
      "start": 1301.09,
      "duration": 2.82
    },
    {
      "text": "leave the country and where I was told",
      "start": 1302.65,
      "duration": 3.75
    },
    {
      "text": "it would be months wait even to get any",
      "start": 1303.91,
      "duration": 4.44
    },
    {
      "text": "kind of surgical attention and I had",
      "start": 1306.4,
      "duration": 3.72
    },
    {
      "text": "that opportunity lots of people don't",
      "start": 1308.35,
      "duration": 4.56
    },
    {
      "text": "have that that freedom and that I think",
      "start": 1310.12,
      "duration": 4.05
    },
    {
      "text": "is one of the most dangerous things",
      "start": 1312.91,
      "duration": 2.61
    },
    {
      "text": "about a growth in health care is it",
      "start": 1314.17,
      "duration": 2.52
    },
    {
      "text": "really is one of the areas where",
      "start": 1315.52,
      "duration": 2.94
    },
    {
      "text": "government can grow so much and very",
      "start": 1316.69,
      "duration": 4.53
    },
    {
      "text": "quickly it becomes in people's minds you",
      "start": 1318.46,
      "duration": 4.62
    },
    {
      "text": "know there's this logical fallacy you",
      "start": 1321.22,
      "duration": 3.42
    },
    {
      "text": "know the government provides X well if",
      "start": 1323.08,
      "duration": 3.18
    },
    {
      "text": "the government doesn't provide X then X",
      "start": 1324.64,
      "duration": 3.12
    },
    {
      "text": "won't be provided you know they did the",
      "start": 1326.26,
      "duration": 3.06
    },
    {
      "text": "government suddenly owns the whole",
      "start": 1327.76,
      "duration": 3.51
    },
    {
      "text": "healthcare thing and then you face that",
      "start": 1329.32,
      "duration": 3.21
    },
    {
      "text": "horrible argument which is always",
      "start": 1331.27,
      "duration": 1.83
    },
    {
      "text": "happening",
      "start": 1332.53,
      "duration": 2.04
    },
    {
      "text": "Canada where you say you know we should",
      "start": 1333.1,
      "duration": 3.12
    },
    {
      "text": "have voluntary private charity",
      "start": 1334.57,
      "duration": 4.08
    },
    {
      "text": "free-market stuff oh well then you want",
      "start": 1336.22,
      "duration": 4.74
    },
    {
      "text": "all these people to die in the streets",
      "start": 1338.65,
      "duration": 4.26
    },
    {
      "text": "usual cliched arguments that you hear",
      "start": 1340.96,
      "duration": 3.81
    },
    {
      "text": "but the reality of course is that in",
      "start": 1342.91,
      "duration": 3.269
    },
    {
      "text": "Canada there are a million people on",
      "start": 1344.77,
      "duration": 2.909
    },
    {
      "text": "waiting lists for some pretty essential",
      "start": 1346.179,
      "duration": 3.421
    },
    {
      "text": "surgeries and a lot of them are dying",
      "start": 1347.679,
      "duration": 3.99
    },
    {
      "text": "this idea that you've waived this magic",
      "start": 1349.6,
      "duration": 3.87
    },
    {
      "text": "wand called the state gun and you've",
      "start": 1351.669,
      "duration": 3.151
    },
    {
      "text": "just magically solved all of these",
      "start": 1353.47,
      "duration": 4.05
    },
    {
      "text": "problems system it's so delusional that",
      "start": 1354.82,
      "duration": 4.349
    },
    {
      "text": "and it's so common but once it gets in",
      "start": 1357.52,
      "duration": 2.55
    },
    {
      "text": "health care it seems especially",
      "start": 1359.169,
      "duration": 4.861
    },
    {
      "text": "difficult to uproot yeah I you know I",
      "start": 1360.07,
      "duration": 6.239
    },
    {
      "text": "live in Oklahoma City and the",
      "start": 1364.03,
      "duration": 4.769
    },
    {
      "text": "surrounding area has been devastated by",
      "start": 1366.309,
      "duration": 6.36
    },
    {
      "text": "tornadoes and one of the most one of the",
      "start": 1368.799,
      "duration": 5.851
    },
    {
      "text": "things that fascinates me whenever we",
      "start": 1372.669,
      "duration": 5.101
    },
    {
      "text": "have an natural disaster like this in",
      "start": 1374.65,
      "duration": 6.09
    },
    {
      "text": "Oklahoma anyway is the amount of",
      "start": 1377.77,
      "duration": 5.49
    },
    {
      "text": "charitable giving the amount of help",
      "start": 1380.74,
      "duration": 5.309
    },
    {
      "text": "that happens completely voluntarily and",
      "start": 1383.26,
      "duration": 5.789
    },
    {
      "text": "one energy company in Oklahoma City",
      "start": 1386.049,
      "duration": 5.551
    },
    {
      "text": "and one professional basketball player",
      "start": 1389.049,
      "duration": 5.851
    },
    {
      "text": "Kevin Durant gave more money within 24",
      "start": 1391.6,
      "duration": 5.73
    },
    {
      "text": "hours than the federal government of the",
      "start": 1394.9,
      "duration": 4.29
    },
    {
      "text": "United States pledged through the",
      "start": 1397.33,
      "duration": 3.089
    },
    {
      "text": "Federal Emergency Management",
      "start": 1399.19,
      "duration": 4.92
    },
    {
      "text": "administration pledged hasn't delivered",
      "start": 1400.419,
      "duration": 7.081
    },
    {
      "text": "but just pledged and so there are",
      "start": 1404.11,
      "duration": 5.58
    },
    {
      "text": "millions and millions of dollars that",
      "start": 1407.5,
      "duration": 5.429
    },
    {
      "text": "that became available really within 24",
      "start": 1409.69,
      "duration": 5.34
    },
    {
      "text": "hours to the poor victims of this",
      "start": 1412.929,
      "duration": 4.98
    },
    {
      "text": "natural disaster and I think that if you",
      "start": 1415.03,
      "duration": 4.95
    },
    {
      "text": "just didn't tax people to death you",
      "start": 1417.909,
      "duration": 4.921
    },
    {
      "text": "would see the very same kind of",
      "start": 1419.98,
      "duration": 5.46
    },
    {
      "text": "charitable activity and we in health",
      "start": 1422.83,
      "duration": 5.67
    },
    {
      "text": "care as a as a physician I'm happy to",
      "start": 1425.44,
      "duration": 6.359
    },
    {
      "text": "give away my service and the surgeons I",
      "start": 1428.5,
      "duration": 4.95
    },
    {
      "text": "know are happy to give away their",
      "start": 1431.799,
      "duration": 5.281
    },
    {
      "text": "service and as a facility I'm telling",
      "start": 1433.45,
      "duration": 5.82
    },
    {
      "text": "you right now it doesn't health care it",
      "start": 1437.08,
      "duration": 4.079
    },
    {
      "text": "really doesn't cost that much yeah there",
      "start": 1439.27,
      "duration": 3.96
    },
    {
      "text": "are things like stem cell transplants",
      "start": 1441.159,
      "duration": 4.321
    },
    {
      "text": "and there are some very and you know",
      "start": 1443.23,
      "duration": 3.809
    },
    {
      "text": "liver transplants there are some things",
      "start": 1445.48,
      "duration": 3.12
    },
    {
      "text": "like that that are very very expensive",
      "start": 1447.039,
      "duration": 4.5
    },
    {
      "text": "but that's what insurance is for it's",
      "start": 1448.6,
      "duration": 5.49
    },
    {
      "text": "for those rare catastrophic events where",
      "start": 1451.539,
      "duration": 5.971
    },
    {
      "text": "a large pool of people pay in and the in",
      "start": 1454.09,
      "duration": 7.17
    },
    {
      "text": "the events are very unlikely but I think",
      "start": 1457.51,
      "duration": 5.63
    },
    {
      "text": "you're right I think that",
      "start": 1461.26,
      "duration": 3.77
    },
    {
      "text": "the whole if we don't have the",
      "start": 1463.14,
      "duration": 4.47
    },
    {
      "text": "government as a safety net people will",
      "start": 1465.03,
      "duration": 4.32
    },
    {
      "text": "be dying in the streets I think about",
      "start": 1467.61,
      "duration": 4.41
    },
    {
      "text": "what the old congressman senator Phil",
      "start": 1469.35,
      "duration": 4.77
    },
    {
      "text": "Gramm from Texas used to say he said",
      "start": 1472.02,
      "duration": 4.68
    },
    {
      "text": "show me a government safety net that",
      "start": 1474.12,
      "duration": 7.98
    },
    {
      "text": "hasn't become a hammock yeah a noose now",
      "start": 1476.7,
      "duration": 7.17
    },
    {
      "text": "I'm just curious that last question",
      "start": 1482.1,
      "duration": 3.329
    },
    {
      "text": "really wanted to ask you an hour of a",
      "start": 1483.87,
      "duration": 3.12
    },
    {
      "text": "please make sure that you get your vital",
      "start": 1485.429,
      "duration": 3.151
    },
    {
      "text": "statistics the website the name and all",
      "start": 1486.99,
      "duration": 3.33
    },
    {
      "text": "that for people again I heartily",
      "start": 1488.58,
      "duration": 3.69
    },
    {
      "text": "recommend what you guys do it was",
      "start": 1490.32,
      "duration": 5.43
    },
    {
      "text": "fantastic experience for me are you like",
      "start": 1492.27,
      "duration": 5.399
    },
    {
      "text": "that what is it for for other doctors",
      "start": 1495.75,
      "duration": 3.21
    },
    {
      "text": "when you talk about this stuff the",
      "start": 1497.669,
      "duration": 3.451
    },
    {
      "text": "doctors who are sort of you know I heard",
      "start": 1498.96,
      "duration": 3.9
    },
    {
      "text": "statistic it between a quarter and a",
      "start": 1501.12,
      "duration": 3.24
    },
    {
      "text": "third of doctors time is spent on",
      "start": 1502.86,
      "duration": 3.449
    },
    {
      "text": "paperwork I mean god that's so",
      "start": 1504.36,
      "duration": 3.36
    },
    {
      "text": "frustrating to think of the skills that",
      "start": 1506.309,
      "duration": 3.951
    },
    {
      "text": "are being wasted on typing and writing",
      "start": 1507.72,
      "duration": 5.25
    },
    {
      "text": "when you talk about your approach and",
      "start": 1510.26,
      "duration": 4.659
    },
    {
      "text": "and your indirect relationship with the",
      "start": 1512.97,
      "duration": 3.72
    },
    {
      "text": "with the customers and the efficiency",
      "start": 1514.919,
      "duration": 3.301
    },
    {
      "text": "and the fact that you can really help a",
      "start": 1516.69,
      "duration": 3.96
    },
    {
      "text": "lot more people are you like the freedom",
      "start": 1518.22,
      "duration": 4.77
    },
    {
      "text": "crack dealer for your local for your",
      "start": 1520.65,
      "duration": 4.23
    },
    {
      "text": "local hospital the local doctors and so",
      "start": 1522.99,
      "duration": 3.9
    },
    {
      "text": "on are they're like oh you know show me",
      "start": 1524.88,
      "duration": 3.36
    },
    {
      "text": "a little bit more leg and maybe I'll get",
      "start": 1526.89,
      "duration": 3.21
    },
    {
      "text": "in that car are they tempted how do they",
      "start": 1528.24,
      "duration": 3.15
    },
    {
      "text": "respond to it when you when you talk",
      "start": 1530.1,
      "duration": 2.42
    },
    {
      "text": "about your approach with other doctors",
      "start": 1531.39,
      "duration": 3.96
    },
    {
      "text": "yeah almost every physician that I",
      "start": 1532.52,
      "duration": 5.38
    },
    {
      "text": "talked to wishes that they were in the",
      "start": 1535.35,
      "duration": 4.74
    },
    {
      "text": "same situation or in created the same",
      "start": 1537.9,
      "duration": 5.24
    },
    {
      "text": "situation that we have we basically just",
      "start": 1540.09,
      "duration": 5.49
    },
    {
      "text": "identified all of the things that we",
      "start": 1543.14,
      "duration": 4.6
    },
    {
      "text": "think are nightmares for our patients",
      "start": 1545.58,
      "duration": 4.32
    },
    {
      "text": "and all the things that we think are",
      "start": 1547.74,
      "duration": 4.83
    },
    {
      "text": "nightmares for our ability to practice",
      "start": 1549.9,
      "duration": 5.07
    },
    {
      "text": "and we've systematically eliminated",
      "start": 1552.57,
      "duration": 4.95
    },
    {
      "text": "those things one of which was dealing",
      "start": 1554.97,
      "duration": 4.14
    },
    {
      "text": "with the federal government we haven't",
      "start": 1557.52,
      "duration": 3.659
    },
    {
      "text": "taken a dime of federal money since we",
      "start": 1559.11,
      "duration": 6.689
    },
    {
      "text": "opened in 1997 so the reception that",
      "start": 1561.179,
      "duration": 6.511
    },
    {
      "text": "I've had and I'm speaking all over the",
      "start": 1565.799,
      "duration": 4.441
    },
    {
      "text": "country the reception that I've had has",
      "start": 1567.69,
      "duration": 4.95
    },
    {
      "text": "been very warm and physicians want to",
      "start": 1570.24,
      "duration": 4.2
    },
    {
      "text": "know how did you do this what are the",
      "start": 1572.64,
      "duration": 4.11
    },
    {
      "text": "logistics they're very very interested",
      "start": 1574.44,
      "duration": 5.34
    },
    {
      "text": "large businesses are very interested in",
      "start": 1576.75,
      "duration": 4.23
    },
    {
      "text": "what we're doing and they're flying",
      "start": 1579.78,
      "duration": 3.18
    },
    {
      "text": "people to Oklahoma City from all over",
      "start": 1580.98,
      "duration": 4.41
    },
    {
      "text": "the country and the people that hate",
      "start": 1582.96,
      "duration": 4.98
    },
    {
      "text": "what we're doing are the people who",
      "start": 1585.39,
      "duration": 5.82
    },
    {
      "text": "benefit from the price opacity and you",
      "start": 1587.94,
      "duration": 4.8
    },
    {
      "text": "know it's the big corporate hospitals",
      "start": 1591.21,
      "duration": 3.93
    },
    {
      "text": "and and the big insurance carriers they",
      "start": 1592.74,
      "duration": 3.35
    },
    {
      "text": "don't they don't like the",
      "start": 1595.14,
      "duration": 4.43
    },
    {
      "text": "one day well the price of virtue is",
      "start": 1596.09,
      "duration": 5.67
    },
    {
      "text": "always the hatred of the greedy so I",
      "start": 1599.57,
      "duration": 4.349
    },
    {
      "text": "want to make sure that we get we get",
      "start": 1601.76,
      "duration": 3.659
    },
    {
      "text": "your vital statistics it's the Oklahoma",
      "start": 1603.919,
      "duration": 3.031
    },
    {
      "text": "Surgery Center you guys have a website",
      "start": 1605.419,
      "duration": 4.14
    },
    {
      "text": "and if people want to contact you to to",
      "start": 1606.95,
      "duration": 3.99
    },
    {
      "text": "arrange for you to come and speak or",
      "start": 1609.559,
      "duration": 2.85
    },
    {
      "text": "interview and so on how would they get",
      "start": 1610.94,
      "duration": 2.76
    },
    {
      "text": "in touch with you and how can people",
      "start": 1612.409,
      "duration": 4.051
    },
    {
      "text": "find you it's a it's actually called the",
      "start": 1613.7,
      "duration": 5.07
    },
    {
      "text": "surgery center of Oklahoma and our",
      "start": 1616.46,
      "duration": 5.31
    },
    {
      "text": "website website is surgery center ok",
      "start": 1618.77,
      "duration": 6.84
    },
    {
      "text": "dot-com and there is a link to my blog",
      "start": 1621.77,
      "duration": 4.62
    },
    {
      "text": "there",
      "start": 1625.61,
      "duration": 3.24
    },
    {
      "text": "we're on Facebook we're on Twitter I can",
      "start": 1626.39,
      "duration": 5.46
    },
    {
      "text": "be contacted on Facebook or Twitter",
      "start": 1628.85,
      "duration": 6.209
    },
    {
      "text": "there is an internet hotline that's four",
      "start": 1631.85,
      "duration": 6.15
    },
    {
      "text": "seven five or four oh five four seven",
      "start": 1635.059,
      "duration": 5.881
    },
    {
      "text": "five zero six seven eight and a real",
      "start": 1638,
      "duration": 5.399
    },
    {
      "text": "person answers that in business hours so",
      "start": 1640.94,
      "duration": 4.83
    },
    {
      "text": "if somebody has a question and they",
      "start": 1643.399,
      "duration": 4.171
    },
    {
      "text": "think they might need surgery",
      "start": 1645.77,
      "duration": 4.379
    },
    {
      "text": "the callback that they get will be from",
      "start": 1647.57,
      "duration": 4.739
    },
    {
      "text": "a surgeon and they can talk things over",
      "start": 1650.149,
      "duration": 3.9
    },
    {
      "text": "you know the drill that's that's what",
      "start": 1652.309,
      "duration": 5.1
    },
    {
      "text": "happened with you I think that we're a",
      "start": 1654.049,
      "duration": 5.37
    },
    {
      "text": "yeah and and just wanted to really",
      "start": 1657.409,
      "duration": 3.571
    },
    {
      "text": "reiterate I mean there's a degree of",
      "start": 1659.419,
      "duration": 3.87
    },
    {
      "text": "customer care was staggeringly great and",
      "start": 1660.98,
      "duration": 4.02
    },
    {
      "text": "staggering not because the free market",
      "start": 1663.289,
      "duration": 2.971
    },
    {
      "text": "didn't provide it but just because I've",
      "start": 1665,
      "duration": 3.659
    },
    {
      "text": "crawled out of a socialist rat hole so I",
      "start": 1666.26,
      "duration": 4.62
    },
    {
      "text": "mean the the the contact was was",
      "start": 1668.659,
      "duration": 3.691
    },
    {
      "text": "consistent and and comforting and",
      "start": 1670.88,
      "duration": 3.39
    },
    {
      "text": "helpful and you guys made it as easy as",
      "start": 1672.35,
      "duration": 3.299
    },
    {
      "text": "possible to go through a challenging",
      "start": 1674.27,
      "duration": 3.539
    },
    {
      "text": "ailment and so you know I really thank",
      "start": 1675.649,
      "duration": 3.691
    },
    {
      "text": "you for that and again hottie hottie",
      "start": 1677.809,
      "duration": 4.59
    },
    {
      "text": "recommendation thank you I'm glad you're",
      "start": 1679.34,
      "duration": 5.73
    },
    {
      "text": "doing well we I appreciate being on the",
      "start": 1682.399,
      "duration": 5.431
    },
    {
      "text": "show and I'm again I'm kind of on the",
      "start": 1685.07,
      "duration": 4.979
    },
    {
      "text": "tour speaking all over the place because",
      "start": 1687.83,
      "duration": 4.05
    },
    {
      "text": "people are thirsty for this message",
      "start": 1690.049,
      "duration": 4.38
    },
    {
      "text": "because it's good news you know the free",
      "start": 1691.88,
      "duration": 4.14
    },
    {
      "text": "market is not supposed to apply to",
      "start": 1694.429,
      "duration": 3.511
    },
    {
      "text": "health care and so this is really good",
      "start": 1696.02,
      "duration": 4.409
    },
    {
      "text": "news and I I appreciate your helping us",
      "start": 1697.94,
      "duration": 5.31
    },
    {
      "text": "spread the word well it's my pleasure",
      "start": 1700.429,
      "duration": 4.11
    },
    {
      "text": "and thanks again so much for your time",
      "start": 1703.25,
      "duration": 3.149
    },
    {
      "text": "and I'll keep you guys posted thanks",
      "start": 1704.539,
      "duration": 2.401
    },
    {
      "text": "Stefan",
      "start": 1706.399,
      "duration": 3.981
    },
    {
      "text": "see ya take it",
      "start": 1706.94,
      "duration": 3.44
    }
  ],
  "Errors": null,
  "TranscriptStderr": null
}