{
  "Title": "The Truth Behind World War Z",
  "Id": "a0oRoRWbpTk",
  "Transcript": [
    {
      "text": "hello hello everybody is the fan",
      "start": 0.179,
      "duration": 2.49
    },
    {
      "text": "molyneux from freedomain radio hope you",
      "start": 1.589,
      "duration": 2.611
    },
    {
      "text": "doing well I know I am finished my last",
      "start": 2.669,
      "duration": 3.63
    },
    {
      "text": "round of cancer fighting chemo yesterday",
      "start": 4.2,
      "duration": 5.31
    },
    {
      "text": "it all appears to be gone yay for life",
      "start": 6.299,
      "duration": 6.651
    },
    {
      "text": "so this is a review of World War Z",
      "start": 9.51,
      "duration": 6.48
    },
    {
      "text": "zombie slash Zionism of course it's a",
      "start": 12.95,
      "duration": 5.079
    },
    {
      "text": "very pro-israel piece of propaganda lots",
      "start": 15.99,
      "duration": 4.14
    },
    {
      "text": "of people have mentioned that and you",
      "start": 18.029,
      "duration": 3.151
    },
    {
      "text": "can do a search for that not really",
      "start": 20.13,
      "duration": 4.08
    },
    {
      "text": "focus on that portrays the Jews as",
      "start": 21.18,
      "duration": 5.64
    },
    {
      "text": "always always on the receiving end of",
      "start": 24.21,
      "duration": 4.68
    },
    {
      "text": "calamities and always being defensive",
      "start": 26.82,
      "duration": 4.619
    },
    {
      "text": "the fact that Jews largely contributed",
      "start": 28.89,
      "duration": 4.74
    },
    {
      "text": "to the 20th century plague of communism",
      "start": 31.439,
      "duration": 4.62
    },
    {
      "text": "and Jewish leadership largely Jewish",
      "start": 33.63,
      "duration": 4.8
    },
    {
      "text": "leadership in Russia caused the deaths",
      "start": 36.059,
      "duration": 4.68
    },
    {
      "text": "of millions of Christian cool acts yeah",
      "start": 38.43,
      "duration": 3.539
    },
    {
      "text": "you can't talk about any of that stuff",
      "start": 40.739,
      "duration": 2.881
    },
    {
      "text": "of course but I'll leave that for",
      "start": 41.969,
      "duration": 2.811
    },
    {
      "text": "another time",
      "start": 43.62,
      "duration": 3.3
    },
    {
      "text": "but I do think it was very interesting",
      "start": 44.78,
      "duration": 4.81
    },
    {
      "text": "an interesting film worth having a look",
      "start": 46.92,
      "duration": 5.01
    },
    {
      "text": "at so what are the zombies why do they",
      "start": 49.59,
      "duration": 5.73
    },
    {
      "text": "have such interest to us well of course",
      "start": 51.93,
      "duration": 8.25
    },
    {
      "text": "zombies are ravenous and anti rattling",
      "start": 55.32,
      "duration": 6.21
    },
    {
      "text": "you can't reason with them they're just",
      "start": 60.18,
      "duration": 3.719
    },
    {
      "text": "going to come and eat your brains and as",
      "start": 61.53,
      "duration": 5.82
    },
    {
      "text": "such they represent in my view the anti",
      "start": 63.899,
      "duration": 6.241
    },
    {
      "text": "rational parasitical aspects of humanity",
      "start": 67.35,
      "duration": 6.15
    },
    {
      "text": "or groups of humanity and there are lots",
      "start": 70.14,
      "duration": 5.31
    },
    {
      "text": "of these you know one of the things that",
      "start": 73.5,
      "duration": 7.56
    },
    {
      "text": "struck me was in our unconscious the",
      "start": 75.45,
      "duration": 7.02
    },
    {
      "text": "human brain is really good at doing",
      "start": 81.06,
      "duration": 3.57
    },
    {
      "text": "social fairness math have been tons of",
      "start": 82.47,
      "duration": 3.42
    },
    {
      "text": "experiments about it with people who",
      "start": 84.63,
      "duration": 3.48
    },
    {
      "text": "can't do any kind of calculus or",
      "start": 85.89,
      "duration": 3.99
    },
    {
      "text": "functions and relations but they can do",
      "start": 88.11,
      "duration": 3.93
    },
    {
      "text": "advanced calculations when it comes to",
      "start": 89.88,
      "duration": 3.72
    },
    {
      "text": "social fairness you know this person",
      "start": 92.04,
      "duration": 3.09
    },
    {
      "text": "drank that or a that who should pay for",
      "start": 93.6,
      "duration": 3.33
    },
    {
      "text": "what and so on so we have a very",
      "start": 95.13,
      "duration": 3.75
    },
    {
      "text": "instinctive sense of fairness and",
      "start": 96.93,
      "duration": 3.72
    },
    {
      "text": "sustainability you know if we're not",
      "start": 98.88,
      "duration": 3.84
    },
    {
      "text": "able to calculate sustainability",
      "start": 100.65,
      "duration": 4.32
    },
    {
      "text": "unconsciously we can't keep enough seed",
      "start": 102.72,
      "duration": 3.96
    },
    {
      "text": "crop through the winter to plant in the",
      "start": 104.97,
      "duration": 3.63
    },
    {
      "text": "spring and so on so sustainability is",
      "start": 106.68,
      "duration": 3.84
    },
    {
      "text": "all really important just think about",
      "start": 108.6,
      "duration": 3.36
    },
    {
      "text": "your relationship with the battery life",
      "start": 110.52,
      "duration": 3.45
    },
    {
      "text": "on your iPad or your cell phone and you",
      "start": 111.96,
      "duration": 3.75
    },
    {
      "text": "know Kenneth where it's at and you know",
      "start": 113.97,
      "duration": 3.21
    },
    {
      "text": "even if you don't know the exact",
      "start": 115.71,
      "duration": 2.82
    },
    {
      "text": "calculation you kind of know where it's",
      "start": 117.18,
      "duration": 3.57
    },
    {
      "text": "at one of the things I think that's",
      "start": 118.53,
      "duration": 5.01
    },
    {
      "text": "happening in Western civilization why",
      "start": 120.75,
      "duration": 4.32
    },
    {
      "text": "we're getting so many dystopian future",
      "start": 123.54,
      "duration": 2.969
    },
    {
      "text": "fantasies is that it's not really a",
      "start": 125.07,
      "duration": 4.139
    },
    {
      "text": "fantasy we all know that our existing",
      "start": 126.509,
      "duration": 4.441
    },
    {
      "text": "system is completely and utterly",
      "start": 129.209,
      "duration": 4.691
    },
    {
      "text": "unsustainable largely because of the",
      "start": 130.95,
      "duration": 4.239
    },
    {
      "text": "literally hundreds of trillions of",
      "start": 133.9,
      "duration": 3.03
    },
    {
      "text": "dollars of unfunded liabilities that",
      "start": 135.189,
      "duration": 3.66
    },
    {
      "text": "politicians have promised to various",
      "start": 136.93,
      "duration": 3.75
    },
    {
      "text": "special interest groups all the way from",
      "start": 138.849,
      "duration": 3.48
    },
    {
      "text": "the military-industrial complex through",
      "start": 140.68,
      "duration": 4.08
    },
    {
      "text": "to retirement plans and government",
      "start": 142.329,
      "duration": 3.841
    },
    {
      "text": "worker pensions and so on I did a video",
      "start": 144.76,
      "duration": 2.819
    },
    {
      "text": "a couple years ago you can find it on",
      "start": 146.17,
      "duration": 2.73
    },
    {
      "text": "YouTube called government workers will",
      "start": 147.579,
      "duration": 3.511
    },
    {
      "text": "eat us all which is I think a kind of",
      "start": 148.9,
      "duration": 5.699
    },
    {
      "text": "zombie manifesto and we have this deep",
      "start": 151.09,
      "duration": 5.64
    },
    {
      "text": "down uneasy anxiety provoking feeling",
      "start": 154.599,
      "duration": 3.36
    },
    {
      "text": "that our current system is unsustainable",
      "start": 156.73,
      "duration": 4.92
    },
    {
      "text": "and sort of reminds me of an old far",
      "start": 157.959,
      "duration": 6.331
    },
    {
      "text": "side cartoon where one caveman is",
      "start": 161.65,
      "duration": 4.02
    },
    {
      "text": "looking at another there's this giant",
      "start": 164.29,
      "duration": 3.059
    },
    {
      "text": "wall of ice like three inches from their",
      "start": 165.67,
      "duration": 3.14
    },
    {
      "text": "hat and he says hey sag",
      "start": 167.349,
      "duration": 5.521
    },
    {
      "text": "what about closer today well yes that",
      "start": 168.81,
      "duration": 5.079
    },
    {
      "text": "which is mathematically unsustainable",
      "start": 172.87,
      "duration": 4.8
    },
    {
      "text": "will be shockingly unsustainable and so",
      "start": 173.889,
      "duration": 6.93
    },
    {
      "text": "this idea that there is this group this",
      "start": 177.67,
      "duration": 6
    },
    {
      "text": "horde of irrational parasitical",
      "start": 180.819,
      "duration": 6.271
    },
    {
      "text": "brain-eating zombies out there is I",
      "start": 183.67,
      "duration": 5.55
    },
    {
      "text": "think has something to do with people on",
      "start": 187.09,
      "duration": 3.33
    },
    {
      "text": "the other side of government power",
      "start": 189.22,
      "duration": 2.4
    },
    {
      "text": "people on the other side of the",
      "start": 190.42,
      "duration": 2.7
    },
    {
      "text": "government gun people who are",
      "start": 191.62,
      "duration": 2.789
    },
    {
      "text": "anticipating receiving government",
      "start": 193.12,
      "duration": 3.42
    },
    {
      "text": "benefits that are going to be taken by",
      "start": 194.409,
      "duration": 4.2
    },
    {
      "text": "force generally from the young and",
      "start": 196.54,
      "duration": 4.02
    },
    {
      "text": "productive to the the old and the",
      "start": 198.609,
      "duration": 4.081
    },
    {
      "text": "unproductive of course as a massive",
      "start": 200.56,
      "duration": 3.45
    },
    {
      "text": "amount of injustice in this the baby",
      "start": 202.69,
      "duration": 3.21
    },
    {
      "text": "boomers are the richest generation that",
      "start": 204.01,
      "duration": 4.05
    },
    {
      "text": "has ever lived they grew up in low",
      "start": 205.9,
      "duration": 4.89
    },
    {
      "text": "taxation high job opportunities cheap",
      "start": 208.06,
      "duration": 5.429
    },
    {
      "text": "housing and so on and now they are going",
      "start": 210.79,
      "duration": 4.619
    },
    {
      "text": "to be using the government to literally",
      "start": 213.489,
      "duration": 3.9
    },
    {
      "text": "rip the dollars out of the hide of the",
      "start": 215.409,
      "duration": 4.531
    },
    {
      "text": "most indebted generation in a long time",
      "start": 217.389,
      "duration": 3.96
    },
    {
      "text": "and the generation that has the least",
      "start": 219.94,
      "duration": 3.509
    },
    {
      "text": "job opportunities and have put mobility",
      "start": 221.349,
      "duration": 3.48
    },
    {
      "text": "and so on and higher taxes more",
      "start": 223.449,
      "duration": 3.35
    },
    {
      "text": "regulations and higher debts and so on",
      "start": 224.829,
      "duration": 4.111
    },
    {
      "text": "so I think that there is a certain",
      "start": 226.799,
      "duration": 3.791
    },
    {
      "text": "aspect of the zombie horde that's going",
      "start": 228.94,
      "duration": 4.199
    },
    {
      "text": "to eat humanity and I'm not saying of",
      "start": 230.59,
      "duration": 4.41
    },
    {
      "text": "course that retirees or zombies I'm just",
      "start": 233.139,
      "duration": 3.75
    },
    {
      "text": "saying that their incentives are such",
      "start": 235,
      "duration": 4.829
    },
    {
      "text": "that they can't talk rationally about",
      "start": 236.889,
      "duration": 4.41
    },
    {
      "text": "how to solve these problems in the same",
      "start": 239.829,
      "duration": 3.12
    },
    {
      "text": "way you can't talk rationally with",
      "start": 241.299,
      "duration": 3.03
    },
    {
      "text": "public sector workers about how to solve",
      "start": 242.949,
      "duration": 5.15
    },
    {
      "text": "the problems of this kind of stuff so in",
      "start": 244.329,
      "duration": 6.391
    },
    {
      "text": "general it's it's the anti rational as",
      "start": 248.099,
      "duration": 4.211
    },
    {
      "text": "well zombies eat brains they're not",
      "start": 250.72,
      "duration": 4.049
    },
    {
      "text": "irrational irrational is just random you",
      "start": 252.31,
      "duration": 4.38
    },
    {
      "text": "know you suck Ruxin bark at the moon as",
      "start": 254.769,
      "duration": 4.951
    },
    {
      "text": "dr. Phil says and but anti rational is",
      "start": 256.69,
      "duration": 5.37
    },
    {
      "text": "whenever you bring limitations or",
      "start": 259.72,
      "duration": 4.259
    },
    {
      "text": "boundaries or reason to people they",
      "start": 262.06,
      "duration": 4.79
    },
    {
      "text": "explode with rage go on strikes",
      "start": 263.979,
      "duration": 5.121
    },
    {
      "text": "burn effigies kill people and so on has",
      "start": 266.85,
      "duration": 4.8
    },
    {
      "text": "happened I think people died in governor",
      "start": 269.1,
      "duration": 4.44
    },
    {
      "text": "Walker's attempt to claw back some of",
      "start": 271.65,
      "duration": 3.3
    },
    {
      "text": "the massive benefits of hip hop his",
      "start": 273.54,
      "duration": 3.84
    },
    {
      "text": "public sector workers in Wisconsin so",
      "start": 274.95,
      "duration": 4.56
    },
    {
      "text": "it's the anti rational any breeze into",
      "start": 277.38,
      "duration": 4.85
    },
    {
      "text": "people and they lacerated tack and",
      "start": 279.51,
      "duration": 6.06
    },
    {
      "text": "slander and libel and heap every kinds",
      "start": 282.23,
      "duration": 5.05
    },
    {
      "text": "of irrational Killam calumny on your",
      "start": 285.57,
      "duration": 3.93
    },
    {
      "text": "shoulders I think those who represent",
      "start": 287.28,
      "duration": 4.8
    },
    {
      "text": "the zombies as well now I thought it was",
      "start": 289.5,
      "duration": 4.14
    },
    {
      "text": "interesting as well Brad Pitt is quite a",
      "start": 292.08,
      "duration": 3
    },
    {
      "text": "fascinating actor I think is a very good",
      "start": 293.64,
      "duration": 2.85
    },
    {
      "text": "actor he will always have won my heart",
      "start": 295.08,
      "duration": 3.6
    },
    {
      "text": "for Fight Club which was a truly",
      "start": 296.49,
      "duration": 5.58
    },
    {
      "text": "spectacular film but he is interesting",
      "start": 298.68,
      "duration": 6.45
    },
    {
      "text": "because he's kind of a mixture of the",
      "start": 302.07,
      "duration": 5.46
    },
    {
      "text": "the alpha male and the Zeta male I think",
      "start": 305.13,
      "duration": 3.87
    },
    {
      "text": "that's really interesting and this is",
      "start": 307.53,
      "duration": 3.75
    },
    {
      "text": "why he's such catnip for women he's got",
      "start": 309,
      "duration": 4.59
    },
    {
      "text": "the eyes of a poet and the face of a",
      "start": 311.28,
      "duration": 4.41
    },
    {
      "text": "bouncer and you know of course he always",
      "start": 313.59,
      "duration": 3.57
    },
    {
      "text": "makes me want to do more sit-ups endure",
      "start": 315.69,
      "duration": 3.3
    },
    {
      "text": "lather on a little bit more conditioner",
      "start": 317.16,
      "duration": 3.15
    },
    {
      "text": "for a man who goes through hell and back",
      "start": 318.99,
      "duration": 3.03
    },
    {
      "text": "he really does keep on his perfect",
      "start": 320.31,
      "duration": 5.85
    },
    {
      "text": "helmet here but sorry there will be some",
      "start": 322.02,
      "duration": 5.85
    },
    {
      "text": "spoilers here I apologize for that",
      "start": 326.16,
      "duration": 3.15
    },
    {
      "text": "turn it off if you haven't seen the",
      "start": 327.87,
      "duration": 5.22
    },
    {
      "text": "movie yet but no he you know he blows",
      "start": 329.31,
      "duration": 4.35
    },
    {
      "text": "people away",
      "start": 333.09,
      "duration": 3.48
    },
    {
      "text": "he leaves families to die when they",
      "start": 333.66,
      "duration": 5.22
    },
    {
      "text": "won't come with him and he hacks off the",
      "start": 336.57,
      "duration": 3.78
    },
    {
      "text": "hand of a woman who's been bitten in the",
      "start": 338.88,
      "duration": 3.51
    },
    {
      "text": "hand by a zombie and then dresses her",
      "start": 340.35,
      "duration": 4.71
    },
    {
      "text": "wound and then has a nap because I'm in",
      "start": 342.39,
      "duration": 4.26
    },
    {
      "text": "this completely sociopathic behavior I",
      "start": 345.06,
      "duration": 2.73
    },
    {
      "text": "mean the amount of trauma that he goes",
      "start": 346.65,
      "duration": 2.22
    },
    {
      "text": "through the amount of risk that he goes",
      "start": 347.79,
      "duration": 3.06
    },
    {
      "text": "through the amount of fear that he goes",
      "start": 348.87,
      "duration": 4.65
    },
    {
      "text": "through and it has no negative effect on",
      "start": 350.85,
      "duration": 4.05
    },
    {
      "text": "him whatsoever which means that he's",
      "start": 353.52,
      "duration": 3.18
    },
    {
      "text": "completely disconnected from his",
      "start": 354.9,
      "duration": 4.17
    },
    {
      "text": "emotional mechanisms and so on so he is",
      "start": 356.7,
      "duration": 4.2
    },
    {
      "text": "the alpha male who saves the world as a",
      "start": 359.07,
      "duration": 4.08
    },
    {
      "text": "result of having no connection to his",
      "start": 360.9,
      "duration": 4.32
    },
    {
      "text": "feelings whatsoever I mean I can't",
      "start": 363.15,
      "duration": 3.21
    },
    {
      "text": "imagine what it'd be like to hack up",
      "start": 365.22,
      "duration": 2.67
    },
    {
      "text": "someone's hand address their wound while",
      "start": 366.36,
      "duration": 2.73
    },
    {
      "text": "they're screaming in agony and then",
      "start": 367.89,
      "duration": 3.69
    },
    {
      "text": "being a huge plane crash and have red",
      "start": 369.09,
      "duration": 4.68
    },
    {
      "text": "hot engine casing stuck through my",
      "start": 371.58,
      "duration": 3.72
    },
    {
      "text": "innards and then you know basically",
      "start": 373.77,
      "duration": 4.43
    },
    {
      "text": "three days later go on a big zombie",
      "start": 375.3,
      "duration": 5.4
    },
    {
      "text": "bashing fight and so on but no almost no",
      "start": 378.2,
      "duration": 4.21
    },
    {
      "text": "particular ill effects well that's quite",
      "start": 380.7,
      "duration": 3.9
    },
    {
      "text": "quite a remarkable set of achievements",
      "start": 382.41,
      "duration": 4.56
    },
    {
      "text": "and and this is why his character is so",
      "start": 384.6,
      "duration": 3.93
    },
    {
      "text": "wouldn't and unbelievable because he's a",
      "start": 386.97,
      "duration": 4.41
    },
    {
      "text": "complete sociopath and so the woman he's",
      "start": 388.53,
      "duration": 4.59
    },
    {
      "text": "the hero and this is one of the things",
      "start": 391.38,
      "duration": 2.91
    },
    {
      "text": "that women have a great deal of",
      "start": 393.12,
      "duration": 4.859
    },
    {
      "text": "difficulty with it's um like I just",
      "start": 394.29,
      "duration": 5.61
    },
    {
      "text": "posted on Facebook this great Rosie",
      "start": 397.979,
      "duration": 2.731
    },
    {
      "text": "O'Donnell speech",
      "start": 399.9,
      "duration": 3.9
    },
    {
      "text": "says if you get big boobs for a woman",
      "start": 400.71,
      "duration": 4.5
    },
    {
      "text": "you're going to have a big butt for a",
      "start": 403.8,
      "duration": 3.06
    },
    {
      "text": "woman as well and if you have a small",
      "start": 405.21,
      "duration": 2.91
    },
    {
      "text": "back you can have small boobs a pretty",
      "start": 406.86,
      "duration": 4.53
    },
    {
      "text": "funny speech but what women so often",
      "start": 408.12,
      "duration": 5.7
    },
    {
      "text": "want is they want the alpha male who is",
      "start": 411.39,
      "duration": 4.68
    },
    {
      "text": "cold and dominating and calculating and",
      "start": 413.82,
      "duration": 4.71
    },
    {
      "text": "resource-rich and able to dominate other",
      "start": 416.07,
      "duration": 5.07
    },
    {
      "text": "men but then they want you know all the",
      "start": 418.53,
      "duration": 4.17
    },
    {
      "text": "soft gooey emotional intimacy",
      "start": 421.14,
      "duration": 3.41
    },
    {
      "text": "vulnerability that goes with being",
      "start": 422.7,
      "duration": 3.81
    },
    {
      "text": "emotionally available and a great dad",
      "start": 424.55,
      "duration": 3.82
    },
    {
      "text": "and so on and Brad Pitt has that in the",
      "start": 426.51,
      "duration": 3.51
    },
    {
      "text": "movie he's a great dad he's calm he's",
      "start": 428.37,
      "duration": 3.63
    },
    {
      "text": "passionate he's reasonable he's good at",
      "start": 430.02,
      "duration": 3.6
    },
    {
      "text": "soothing people he's very empathetic and",
      "start": 432,
      "duration": 3.18
    },
    {
      "text": "then he goes and hacks people's hands",
      "start": 433.62,
      "duration": 2.91
    },
    {
      "text": "off her you know walks away from plane",
      "start": 435.18,
      "duration": 2.67
    },
    {
      "text": "crashes with half the plane and his",
      "start": 436.53,
      "duration": 3.33
    },
    {
      "text": "intestines and has no particular ill",
      "start": 437.85,
      "duration": 3.27
    },
    {
      "text": "effects I mean there's a complete",
      "start": 439.86,
      "duration": 3.39
    },
    {
      "text": "fantasy it's a very dangerous fantasy as",
      "start": 441.12,
      "duration": 3.54
    },
    {
      "text": "well I mean Warren Farrell has pointed",
      "start": 443.25,
      "duration": 3.03
    },
    {
      "text": "this out as well then you know the woman",
      "start": 444.66,
      "duration": 4.17
    },
    {
      "text": "who wants the Alpha dominant man is not",
      "start": 446.28,
      "duration": 4.02
    },
    {
      "text": "going to get the emotionally available",
      "start": 448.83,
      "duration": 3.6
    },
    {
      "text": "man at the same time so if she wants",
      "start": 450.3,
      "duration": 3.96
    },
    {
      "text": "some lawyer who's dominating other",
      "start": 452.43,
      "duration": 3.09
    },
    {
      "text": "people in the courtroom he's going to",
      "start": 454.26,
      "duration": 2.61
    },
    {
      "text": "have a win-lose paradigm and the",
      "start": 455.52,
      "duration": 2.97
    },
    {
      "text": "vulnerability and working things out and",
      "start": 456.87,
      "duration": 3.21
    },
    {
      "text": "someone is not going to be there on the",
      "start": 458.49,
      "duration": 3.36
    },
    {
      "text": "other hand if she wants someone who's",
      "start": 460.08,
      "duration": 3.27
    },
    {
      "text": "emotionally available and a great dad",
      "start": 461.85,
      "duration": 3.39
    },
    {
      "text": "he's less likely to be a dominant alpha",
      "start": 463.35,
      "duration": 3.99
    },
    {
      "text": "male and so I was just this paradox then",
      "start": 465.24,
      "duration": 4.26
    },
    {
      "text": "this is plays out and the movie I think",
      "start": 467.34,
      "duration": 4.62
    },
    {
      "text": "quite well now the other thing I wanted",
      "start": 469.5,
      "duration": 5.52
    },
    {
      "text": "to mention about World War Z was again",
      "start": 471.96,
      "duration": 5.79
    },
    {
      "text": "spoiler alert there the cure or rather",
      "start": 475.02,
      "duration": 5.01
    },
    {
      "text": "the way to to move invisibly through the",
      "start": 477.75,
      "duration": 5.01
    },
    {
      "text": "zombie horde is to infect yourself with",
      "start": 480.03,
      "duration": 4.53
    },
    {
      "text": "a life-threatening illness which means",
      "start": 482.76,
      "duration": 2.82
    },
    {
      "text": "they don't want to eat your brains",
      "start": 484.56,
      "duration": 2.97
    },
    {
      "text": "because apparently they can sniff that",
      "start": 485.58,
      "duration": 3.69
    },
    {
      "text": "you're infected with some dire ailment",
      "start": 487.53,
      "duration": 4.14
    },
    {
      "text": "and this is how you can move through the",
      "start": 489.27,
      "duration": 3.21
    },
    {
      "text": "zombie horde",
      "start": 491.67,
      "duration": 4.98
    },
    {
      "text": "you know without being attacked and I",
      "start": 492.48,
      "duration": 5.31
    },
    {
      "text": "think that's that's a pretty good",
      "start": 496.65,
      "duration": 2.7
    },
    {
      "text": "metaphor for what it's like to be",
      "start": 497.79,
      "duration": 3.84
    },
    {
      "text": "rational in this world which is you do",
      "start": 499.35,
      "duration": 3.71
    },
    {
      "text": "have to sometimes hide your light under",
      "start": 501.63,
      "duration": 4.41
    },
    {
      "text": "a bushel you do have to have to",
      "start": 503.06,
      "duration": 5.02
    },
    {
      "text": "sometimes not speak your mind as fully",
      "start": 506.04,
      "duration": 3.6
    },
    {
      "text": "as you would like to because you're",
      "start": 508.08,
      "duration": 3.72
    },
    {
      "text": "surrounded by you know pretty nutty and",
      "start": 509.64,
      "duration": 4.14
    },
    {
      "text": "irrational people at least most of us",
      "start": 511.8,
      "duration": 5.49
    },
    {
      "text": "are and I think that's a very good a",
      "start": 513.78,
      "duration": 5.7
    },
    {
      "text": "very good metaphor for that that if",
      "start": 517.29,
      "duration": 4.11
    },
    {
      "text": "you're surrounded by zombies if you're",
      "start": 519.48,
      "duration": 3.84
    },
    {
      "text": "surrounded by anti rational people then",
      "start": 521.4,
      "duration": 4.2
    },
    {
      "text": "showing the light of reason is quite",
      "start": 523.32,
      "duration": 3.99
    },
    {
      "text": "interesting it's sort of like you know",
      "start": 525.6,
      "duration": 3.48
    },
    {
      "text": "turning on a flashlight when you're",
      "start": 527.31,
      "duration": 3.93
    },
    {
      "text": "surrounded my Amazon primitives with",
      "start": 529.08,
      "duration": 3.48
    },
    {
      "text": "blow darts they're going to get kind of",
      "start": 531.24,
      "duration": 2.55
    },
    {
      "text": "freaked out and tempted",
      "start": 532.56,
      "duration": 2.67
    },
    {
      "text": "the line down with their poisoned darts",
      "start": 533.79,
      "duration": 3.18
    },
    {
      "text": "so sometimes you just have to keep that",
      "start": 535.23,
      "duration": 3.12
    },
    {
      "text": "light off so it's not to startle them",
      "start": 536.97,
      "duration": 3.9
    },
    {
      "text": "with too much energy and too much",
      "start": 538.35,
      "duration": 3.99
    },
    {
      "text": "information and too much enlightenment",
      "start": 540.87,
      "duration": 3.42
    },
    {
      "text": "so I thought that was a very interesting",
      "start": 542.34,
      "duration": 5.46
    },
    {
      "text": "metaphor and I think quite true with",
      "start": 544.29,
      "duration": 5.67
    },
    {
      "text": "regards to what it is like to be",
      "start": 547.8,
      "duration": 4.41
    },
    {
      "text": "rational in not just an irrational world",
      "start": 549.96,
      "duration": 4.47
    },
    {
      "text": "but an anti rational world so it's an",
      "start": 552.21,
      "duration": 3.57
    },
    {
      "text": "interesting movie I think it's worth",
      "start": 554.43,
      "duration": 3.45
    },
    {
      "text": "watching it's got some good scary bits",
      "start": 555.78,
      "duration": 6.69
    },
    {
      "text": "and if you can get over the silliness in",
      "start": 557.88,
      "duration": 7.02
    },
    {
      "text": "some ways of the film it is quite quite",
      "start": 562.47,
      "duration": 4.5
    },
    {
      "text": "gripping and if you can ignore some of",
      "start": 564.9,
      "duration": 4.38
    },
    {
      "text": "the nonsense propaganda I think that's",
      "start": 566.97,
      "duration": 4.35
    },
    {
      "text": "also interesting as well of course they",
      "start": 569.28,
      "duration": 3.42
    },
    {
      "text": "set themselves up for a sequel which is",
      "start": 571.32,
      "duration": 3.87
    },
    {
      "text": "fine but yeah I think it's it's worth",
      "start": 572.7,
      "duration": 4.05
    },
    {
      "text": "worth having a look just keep your wits",
      "start": 575.19,
      "duration": 2.85
    },
    {
      "text": "about you and you can get some good",
      "start": 576.75,
      "duration": 3.33
    },
    {
      "text": "metaphors at a some of the logical mass",
      "start": 578.04,
      "duration": 3.84
    },
    {
      "text": "of the film and I think there's some",
      "start": 580.08,
      "duration": 3.66
    },
    {
      "text": "quite interesting emotional truths in",
      "start": 581.88,
      "duration": 4.47
    },
    {
      "text": "there about how to survive with a brain",
      "start": 583.74,
      "duration": 4.68
    },
    {
      "text": "in a world that so often wants to",
      "start": 586.35,
      "duration": 3.9
    },
    {
      "text": "imagine it stefan molyneux Friedman",
      "start": 588.42,
      "duration": 4.79
    },
    {
      "text": "radio thank you so much for watching",
      "start": 590.25,
      "duration": 2.96
    },
    {
      "text": "you",
      "start": 620.339,
      "duration": 2.06
    }
  ],
  "Errors": null,
  "TranscriptStderr": null
}