{
  "Title": "The Coming War in Korea? | True News",
  "Id": "aW73j5Dxd1o",
  "Transcript": [
    {
      "text": "hi everybody it's defend money from",
      "start": 0,
      "duration": 5.839
    },
    {
      "text": "freedomain radio it is the 28th of",
      "start": 2.01,
      "duration": 7.44
    },
    {
      "text": "November 2010 and remember people I urge",
      "start": 5.839,
      "duration": 5.441
    },
    {
      "text": "you to come down to the freedom summit",
      "start": 9.45,
      "duration": 4.95
    },
    {
      "text": "at freedom summit calm that's in Phoenix",
      "start": 11.28,
      "duration": 5.85
    },
    {
      "text": "Arizona to chat with some superstars of",
      "start": 14.4,
      "duration": 5.16
    },
    {
      "text": "the freedom movement and I will be I",
      "start": 17.13,
      "duration": 4.89
    },
    {
      "text": "think parking cars and handling coats so",
      "start": 19.56,
      "duration": 4.32
    },
    {
      "text": "we might get a chance to chat in between",
      "start": 22.02,
      "duration": 3.839
    },
    {
      "text": "the taking of the coats the packing of",
      "start": 23.88,
      "duration": 3.6
    },
    {
      "text": "the car and the massive tips that I'm",
      "start": 25.859,
      "duration": 2.971
    },
    {
      "text": "going down there for so I hope that you",
      "start": 27.48,
      "duration": 3.27
    },
    {
      "text": "be able to come down a couple of",
      "start": 28.83,
      "duration": 4.71
    },
    {
      "text": "clarifications one people are saying to",
      "start": 30.75,
      "duration": 5.34
    },
    {
      "text": "me that the GSA scandal the sort of",
      "start": 33.54,
      "duration": 5.73
    },
    {
      "text": "lactating booby handling scandal is good",
      "start": 36.09,
      "duration": 5.82
    },
    {
      "text": "because it wakens people up to what's",
      "start": 39.27,
      "duration": 4.5
    },
    {
      "text": "going on with the state and maybe that's",
      "start": 41.91,
      "duration": 3.3
    },
    {
      "text": "true maybe it's not I didn't mean that",
      "start": 43.77,
      "duration": 3.33
    },
    {
      "text": "the outrage of the average citizen with",
      "start": 45.21,
      "duration": 3.509
    },
    {
      "text": "regards to the state was crazy and",
      "start": 47.1,
      "duration": 4.65
    },
    {
      "text": "unjustified what I meant was that it was",
      "start": 48.719,
      "duration": 5.641
    },
    {
      "text": "crazy and unjustified for libertarians",
      "start": 51.75,
      "duration": 4.05
    },
    {
      "text": "to be upset about this because we all",
      "start": 54.36,
      "duration": 3.6
    },
    {
      "text": "know I mean if they kill 100,000 Iraqis",
      "start": 55.8,
      "duration": 5.22
    },
    {
      "text": "it's not like you know grow groping down",
      "start": 57.96,
      "duration": 4.32
    },
    {
      "text": "the odd preggers is going to be beyond",
      "start": 61.02,
      "duration": 3.48
    },
    {
      "text": "their moral standard just sort of wanted",
      "start": 62.28,
      "duration": 3.99
    },
    {
      "text": "to point that out that that's that's",
      "start": 64.5,
      "duration": 3.27
    },
    {
      "text": "sort of what I meant so I'm sorry if I",
      "start": 66.27,
      "duration": 2.82
    },
    {
      "text": "was unclear about that which I obviously",
      "start": 67.77,
      "duration": 5.9
    },
    {
      "text": "was I'm sorry about that number two this",
      "start": 69.09,
      "duration": 6.959
    },
    {
      "text": "people have asked me what my opinion is",
      "start": 73.67,
      "duration": 5.1
    },
    {
      "text": "about the war posturing that is going on",
      "start": 76.049,
      "duration": 5.521
    },
    {
      "text": "around the North and South Korean",
      "start": 78.77,
      "duration": 4.93
    },
    {
      "text": "conflict in the u.s. steaming all the",
      "start": 81.57,
      "duration": 4.11
    },
    {
      "text": "way down well it's not complicated it's",
      "start": 83.7,
      "duration": 4.919
    },
    {
      "text": "very very easy to understand there are",
      "start": 85.68,
      "duration": 4.92
    },
    {
      "text": "internal difficulties with in both",
      "start": 88.619,
      "duration": 4.621
    },
    {
      "text": "countries in North Korea there's a",
      "start": 90.6,
      "duration": 4.17
    },
    {
      "text": "succession problem as king jong-il and",
      "start": 93.24,
      "duration": 3.78
    },
    {
      "text": "his son are handing over power whenever",
      "start": 94.77,
      "duration": 4.169
    },
    {
      "text": "there's a transition of power there is",
      "start": 97.02,
      "duration": 3.36
    },
    {
      "text": "the problem that you might have an",
      "start": 98.939,
      "duration": 3.831
    },
    {
      "text": "outsider come in or that the nepotistic",
      "start": 100.38,
      "duration": 4.349
    },
    {
      "text": "totalitarianism of the regime becomes",
      "start": 102.77,
      "duration": 4.69
    },
    {
      "text": "clear and that's not good room for the",
      "start": 104.729,
      "duration": 5.491
    },
    {
      "text": "citizens because the the tyranny is more",
      "start": 107.46,
      "duration": 6.26
    },
    {
      "text": "obvious and so during times of",
      "start": 110.22,
      "duration": 6.109
    },
    {
      "text": "nepotistic transition in a dictatorship",
      "start": 113.72,
      "duration": 4.899
    },
    {
      "text": "during the time of any major change in",
      "start": 116.329,
      "duration": 3.761
    },
    {
      "text": "power is when you're very likely to have",
      "start": 118.619,
      "duration": 3.36
    },
    {
      "text": "the Prophet provocation of an external",
      "start": 120.09,
      "duration": 5.22
    },
    {
      "text": "conflict so that people people were",
      "start": 121.979,
      "duration": 5.731
    },
    {
      "text": "distracted by that and then the the",
      "start": 125.31,
      "duration": 3.869
    },
    {
      "text": "powers that be can change hands with",
      "start": 127.71,
      "duration": 3.389
    },
    {
      "text": "fewer people focusing on that of course",
      "start": 129.179,
      "duration": 4.17
    },
    {
      "text": "the u.s. problem is very clear the war",
      "start": 131.099,
      "duration": 2.551
    },
    {
      "text": "is a",
      "start": 133.349,
      "duration": 2.821
    },
    {
      "text": "disaster the economy is a disaster its",
      "start": 133.65,
      "duration": 4.229
    },
    {
      "text": "last what ten million jobs over the past",
      "start": 136.17,
      "duration": 3.72
    },
    {
      "text": "couple of years the recovery is not",
      "start": 137.879,
      "duration": 3.571
    },
    {
      "text": "going to happen unemployment remains",
      "start": 139.89,
      "duration": 4.379
    },
    {
      "text": "stock 42 million Americans are on food",
      "start": 141.45,
      "duration": 5.099
    },
    {
      "text": "stamps up from about 20 million a couple",
      "start": 144.269,
      "duration": 5.28
    },
    {
      "text": "of years ago it is slipping into well",
      "start": 146.549,
      "duration": 5.16
    },
    {
      "text": "it's slipping out of first world country",
      "start": 149.549,
      "duration": 4.44
    },
    {
      "text": "status so it has every incentive in the",
      "start": 151.709,
      "duration": 6.14
    },
    {
      "text": "world to to go and start poking its",
      "start": 153.989,
      "duration": 7.291
    },
    {
      "text": "fingers in the hornet's nest in in Asia",
      "start": 157.849,
      "duration": 5.53
    },
    {
      "text": "so that's basically all that's going on",
      "start": 161.28,
      "duration": 3.41
    },
    {
      "text": "I don't think it's going to go to war",
      "start": 163.379,
      "duration": 3.631
    },
    {
      "text": "America recognizes that it has no",
      "start": 164.69,
      "duration": 5.049
    },
    {
      "text": "resources available it needs to borrow I",
      "start": 167.01,
      "duration": 4.02
    },
    {
      "text": "mean this is the ironic thing is that it",
      "start": 169.739,
      "duration": 2.791
    },
    {
      "text": "needs to borrow from China to go to war",
      "start": 171.03,
      "duration": 3.87
    },
    {
      "text": "in Asia so it does not go to be able to",
      "start": 172.53,
      "duration": 4.53
    },
    {
      "text": "do that China has slowed if not stopped",
      "start": 174.9,
      "duration": 4.259
    },
    {
      "text": "its purchasing of us treasuries which is",
      "start": 177.06,
      "duration": 4.53
    },
    {
      "text": "why the fed is stepping into to buy them",
      "start": 179.159,
      "duration": 5.791
    },
    {
      "text": "and basically the man heavily in debt",
      "start": 181.59,
      "duration": 5.039
    },
    {
      "text": "loaning money to himself in order to",
      "start": 184.95,
      "duration": 4.259
    },
    {
      "text": "borrow more money it's completely insane",
      "start": 186.629,
      "duration": 5.19
    },
    {
      "text": "but that's fine there's a huge amount of",
      "start": 189.209,
      "duration": 5.37
    },
    {
      "text": "a popular rhetoric and intellectuals who",
      "start": 191.819,
      "duration": 4.651
    },
    {
      "text": "are making sure that nobody understands",
      "start": 194.579,
      "duration": 3.75
    },
    {
      "text": "just how insane the situation is so that",
      "start": 196.47,
      "duration": 3.81
    },
    {
      "text": "they can act all shocked and surprised",
      "start": 198.329,
      "duration": 3.511
    },
    {
      "text": "when it all goes to hell in a handbasket",
      "start": 200.28,
      "duration": 3.989
    },
    {
      "text": "out at high velocity so it's just the",
      "start": 201.84,
      "duration": 3.929
    },
    {
      "text": "countries are in trouble the leadership",
      "start": 204.269,
      "duration": 2.671
    },
    {
      "text": "is in trouble the economics of the",
      "start": 205.769,
      "duration": 2.701
    },
    {
      "text": "country are in trouble the population is",
      "start": 206.94,
      "duration": 3.719
    },
    {
      "text": "getting restless and so what you want to",
      "start": 208.47,
      "duration": 3.75
    },
    {
      "text": "do in those situations if you are an",
      "start": 210.659,
      "duration": 3.66
    },
    {
      "text": "evil a moral political scumbag is you",
      "start": 212.22,
      "duration": 3.329
    },
    {
      "text": "want to go and provoke some external",
      "start": 214.319,
      "duration": 3.39
    },
    {
      "text": "conflicts it's more posturing than",
      "start": 215.549,
      "duration": 4.381
    },
    {
      "text": "reality though North Korea barely has",
      "start": 217.709,
      "duration": 3.87
    },
    {
      "text": "any resources to go to war America",
      "start": 219.93,
      "duration": 3.059
    },
    {
      "text": "barely has any resources to go to war",
      "start": 221.579,
      "duration": 3.421
    },
    {
      "text": "left and so it's just going to be a",
      "start": 222.989,
      "duration": 3.42
    },
    {
      "text": "bunch of posturing designed to unite the",
      "start": 225,
      "duration": 2.79
    },
    {
      "text": "country for another month or two and",
      "start": 226.409,
      "duration": 3.991
    },
    {
      "text": "give the talking heads on TV right they",
      "start": 227.79,
      "duration": 3.96
    },
    {
      "text": "have you have to ship it you have to",
      "start": 230.4,
      "duration": 3.059
    },
    {
      "text": "shake something shiny over there so that",
      "start": 231.75,
      "duration": 3.87
    },
    {
      "text": "those empty-headed bubble brains are",
      "start": 233.459,
      "duration": 3.571
    },
    {
      "text": "going to go swarming all over there and",
      "start": 235.62,
      "duration": 3.63
    },
    {
      "text": "talk about that the constant invention",
      "start": 237.03,
      "duration": 4.109
    },
    {
      "text": "of distractions is fundamental to the",
      "start": 239.25,
      "duration": 3.329
    },
    {
      "text": "maintenance of any hierarchical",
      "start": 241.139,
      "duration": 4.201
    },
    {
      "text": "dictatorship and so they have to invent",
      "start": 242.579,
      "duration": 4.53
    },
    {
      "text": "these conflicts in order to unify the",
      "start": 245.34,
      "duration": 3.45
    },
    {
      "text": "population and to give the talking head",
      "start": 247.109,
      "duration": 3.75
    },
    {
      "text": "something to talk about other than the",
      "start": 248.79,
      "duration": 4.89
    },
    {
      "text": "actual problems facing the American",
      "start": 250.859,
      "duration": 4.74
    },
    {
      "text": "people or the Western people as a whole",
      "start": 253.68,
      "duration": 4.109
    },
    {
      "text": "the American people really bothered that",
      "start": 255.599,
      "duration": 5.79
    },
    {
      "text": "tooth South Koreans got killed does it",
      "start": 257.789,
      "duration": 4.711
    },
    {
      "text": "really affect their standard of living",
      "start": 261.389,
      "duration": 3.421
    },
    {
      "text": "them in you may be upset in an abstract",
      "start": 262.5,
      "duration": 4.139
    },
    {
      "text": "moral standpoint that any kind of death",
      "start": 264.81,
      "duration": 2.37
    },
    {
      "text": "is there",
      "start": 266.639,
      "duration": 3.451
    },
    {
      "text": "but far more people were murdered within",
      "start": 267.18,
      "duration": 5.91
    },
    {
      "text": "the time it took for to South Koreans to",
      "start": 270.09,
      "duration": 4.74
    },
    {
      "text": "get killed by bombardment from North",
      "start": 273.09,
      "duration": 3.12
    },
    {
      "text": "Korea many more people were murdered in",
      "start": 274.83,
      "duration": 3.66
    },
    {
      "text": "the US and many more people were jailed",
      "start": 276.21,
      "duration": 4.97
    },
    {
      "text": "in the US during that time period and so",
      "start": 278.49,
      "duration": 4.799
    },
    {
      "text": "it's got nothing to do with American",
      "start": 281.18,
      "duration": 4.329
    },
    {
      "text": "safety and security but it does give the",
      "start": 283.289,
      "duration": 3.63
    },
    {
      "text": "talking had something to talk about and",
      "start": 285.509,
      "duration": 3.451
    },
    {
      "text": "it does distract people from their",
      "start": 286.919,
      "duration": 3.331
    },
    {
      "text": "immediate problems in the moment so",
      "start": 288.96,
      "duration": 3.209
    },
    {
      "text": "that's all that's going on with that",
      "start": 290.25,
      "duration": 3.389
    },
    {
      "text": "nothing particularly interesting or",
      "start": 292.169,
      "duration": 4.62
    },
    {
      "text": "amusing it's about his up to nine word",
      "start": 293.639,
      "duration": 4.891
    },
    {
      "text": "sentences it's just amazing and today",
      "start": 296.789,
      "duration": 6.06
    },
    {
      "text": "she actually put on her shoes herself",
      "start": 298.53,
      "duration": 7.62
    },
    {
      "text": "she put on her shoes herself that to me",
      "start": 302.849,
      "duration": 4.831
    },
    {
      "text": "but mine she's not she's 23 months it",
      "start": 306.15,
      "duration": 3.6
    },
    {
      "text": "just blows my mind and she's just a",
      "start": 307.68,
      "duration": 5.459
    },
    {
      "text": "fantastic joy and a delight so just",
      "start": 309.75,
      "duration": 5.22
    },
    {
      "text": "giving you a quick update on that the",
      "start": 313.139,
      "duration": 3.481
    },
    {
      "text": "way she uses language now is really",
      "start": 314.97,
      "duration": 2.879
    },
    {
      "text": "really interesting and sometimes",
      "start": 316.62,
      "duration": 3.75
    },
    {
      "text": "startling to me so we were at a play",
      "start": 317.849,
      "duration": 3.811
    },
    {
      "text": "center I took her to a place entered the",
      "start": 320.37,
      "duration": 3.51
    },
    {
      "text": "other day and we were rolling around and",
      "start": 321.66,
      "duration": 4.47
    },
    {
      "text": "she came across a little book and the",
      "start": 323.88,
      "duration": 4.71
    },
    {
      "text": "book had a picture of a turtle playin",
      "start": 326.13,
      "duration": 5.49
    },
    {
      "text": "the flute and Isabella said turtle",
      "start": 328.59,
      "duration": 6.06
    },
    {
      "text": "eating music which i think is you know",
      "start": 331.62,
      "duration": 5.37
    },
    {
      "text": "you can't argue with that kind of poetic",
      "start": 334.65,
      "duration": 5.07
    },
    {
      "text": "creativity you just can't argue with it",
      "start": 336.99,
      "duration": 4.59
    },
    {
      "text": "shoe updates she did in fact put her",
      "start": 339.72,
      "duration": 3.93
    },
    {
      "text": "shoes on the wrong feet but the fact",
      "start": 341.58,
      "duration": 3.839
    },
    {
      "text": "that they were on feet rather than what",
      "start": 343.65,
      "duration": 3.36
    },
    {
      "text": "daddy often does is confuse himself and",
      "start": 345.419,
      "duration": 3.271
    },
    {
      "text": "put them on his hands or elbows I think",
      "start": 347.01,
      "duration": 3.81
    },
    {
      "text": "is a huge step forward so she's just",
      "start": 348.69,
      "duration": 4.199
    },
    {
      "text": "doing fantastically we're really",
      "start": 350.82,
      "duration": 3.659
    },
    {
      "text": "enjoying looking forward to having fun",
      "start": 352.889,
      "duration": 5.431
    },
    {
      "text": "in Arizona it's a cold as which is elbow",
      "start": 354.479,
      "duration": 5.611
    },
    {
      "text": "up here so it'll be nice to get to",
      "start": 358.32,
      "duration": 2.969
    },
    {
      "text": "someplace a little bit warmer and I'm",
      "start": 360.09,
      "duration": 2.91
    },
    {
      "text": "certainly looking forward to having the",
      "start": 361.289,
      "duration": 5.19
    },
    {
      "text": "chance to chat with with everyone who",
      "start": 363,
      "duration": 5.49
    },
    {
      "text": "comes who's down there another minor",
      "start": 366.479,
      "duration": 4.53
    },
    {
      "text": "update there is I've been asked to go",
      "start": 368.49,
      "duration": 4.83
    },
    {
      "text": "back to liberto pio next year and to",
      "start": 371.009,
      "duration": 4.5
    },
    {
      "text": "emcee the event so I'm looking forward",
      "start": 373.32,
      "duration": 3.21
    },
    {
      "text": "to doing that I've already started",
      "start": 375.509,
      "duration": 3.72
    },
    {
      "text": "working on all of the landslide of bad",
      "start": 376.53,
      "duration": 5.699
    },
    {
      "text": "jokes that I am I guess known for if not",
      "start": 379.229,
      "duration": 4.951
    },
    {
      "text": "infamous for so I hope that you'll be",
      "start": 382.229,
      "duration": 4.41
    },
    {
      "text": "able to join us in liberto Pia next year",
      "start": 384.18,
      "duration": 4.65
    },
    {
      "text": "it's in October and I will publish more",
      "start": 386.639,
      "duration": 4.201
    },
    {
      "text": "details on the website I know it's a",
      "start": 388.83,
      "duration": 4.38
    },
    {
      "text": "long way away but you can't be too",
      "start": 390.84,
      "duration": 5.1
    },
    {
      "text": "prepared because I was in the Boy Scouts",
      "start": 393.21,
      "duration": 4.98
    },
    {
      "text": "other than that I don't think there's",
      "start": 395.94,
      "duration": 4.38
    },
    {
      "text": "anything particularly new to to update",
      "start": 398.19,
      "duration": 2.92
    },
    {
      "text": "don't forget to check",
      "start": 400.32,
      "duration": 2.98
    },
    {
      "text": "out the new freedomain radio book",
      "start": 401.11,
      "duration": 4.14
    },
    {
      "text": "against the gods i also just published",
      "start": 403.3,
      "duration": 3.75
    },
    {
      "text": "which I guess you've heard or maybe you",
      "start": 405.25,
      "duration": 3.39
    },
    {
      "text": "haven't if you're just watching this on",
      "start": 407.05,
      "duration": 3.72
    },
    {
      "text": "video the an interview with William",
      "start": 408.64,
      "duration": 4.65
    },
    {
      "text": "Gardner who has written an interesting",
      "start": 410.77,
      "duration": 3.93
    },
    {
      "text": "book called the trouble with Canada",
      "start": 413.29,
      "duration": 4.11
    },
    {
      "text": "still it was my first in home interview",
      "start": 414.7,
      "duration": 4.95
    },
    {
      "text": "he said I would like to come by to your",
      "start": 417.4,
      "duration": 4.53
    },
    {
      "text": "in-home studio for an interview and I",
      "start": 419.65,
      "duration": 4.71
    },
    {
      "text": "said well studio maybe a slight",
      "start": 421.93,
      "duration": 4.65
    },
    {
      "text": "exaggeration but I can pretend that I'm",
      "start": 424.36,
      "duration": 3.3
    },
    {
      "text": "interrogating you with some bright",
      "start": 426.58,
      "duration": 2.52
    },
    {
      "text": "lights and we can sit in a room that's",
      "start": 427.66,
      "duration": 3.3
    },
    {
      "text": "as far as i can probably take it but it",
      "start": 429.1,
      "duration": 3.48
    },
    {
      "text": "was a very enjoyable conversation I very",
      "start": 430.96,
      "duration": 4.26
    },
    {
      "text": "learned an arrow died man and I hope",
      "start": 432.58,
      "duration": 4.98
    },
    {
      "text": "that people come back on the show so",
      "start": 435.22,
      "duration": 4.65
    },
    {
      "text": "that's it for the intro we will get on",
      "start": 437.56,
      "duration": 4.32
    },
    {
      "text": "with the show now so if you have",
      "start": 439.87,
      "duration": 5.54
    },
    {
      "text": "questions please please let me know",
      "start": 441.88,
      "duration": 3.53
    }
  ],
  "Errors": null,
  "TranscriptStderr": null
}