[
    {
        "start": "0",
        "dur": "7.35",
        "text": "a fiat money inflation in france part 3"
    },
    {
        "start": "4.759",
        "dur": "6.01",
        "text": "the first new expedient of the directory"
    },
    {
        "start": "7.35",
        "dur": "4.86",
        "text": "was to secure a forced loan of 600"
    },
    {
        "start": "10.769",
        "dur": "5.961",
        "text": "million francs from the wealthier"
    },
    {
        "start": "12.21",
        "dur": "7.26",
        "text": "classes but this was found fruitless"
    },
    {
        "start": "16.73",
        "dur": "5.35",
        "text": "ominous Syd wires when persons compelled"
    },
    {
        "start": "19.47",
        "dur": "8.12",
        "text": "to take this loan found for an Aston yet"
    },
    {
        "start": "22.08",
        "dur": "8.64",
        "text": "of 100 francs only one franc was allowed"
    },
    {
        "start": "27.59",
        "dur": "4.719",
        "text": "next a national bank was proposed but"
    },
    {
        "start": "30.72",
        "dur": "3.749",
        "text": "capitalists were loath to embark in"
    },
    {
        "start": "32.309",
        "dur": "3.571",
        "text": "banking while the howls of the marb"
    },
    {
        "start": "34.469",
        "dur": "5.481",
        "text": "against all who had anything especially"
    },
    {
        "start": "35.88",
        "dur": "6.42",
        "text": "to do with money resounded in every city"
    },
    {
        "start": "39.95",
        "dur": "6.01",
        "text": "the last the directory bethought"
    },
    {
        "start": "42.3",
        "dur": "5.34",
        "text": "themselves of another expedient this was"
    },
    {
        "start": "45.96",
        "dur": "3.869",
        "text": "by no means knew it had been fully tried"
    },
    {
        "start": "47.64",
        "dur": "4.829",
        "text": "on our continent twice before that time"
    },
    {
        "start": "49.829",
        "dur": "5.131",
        "text": "and once since first in our colonial"
    },
    {
        "start": "52.469",
        "dur": "5.93",
        "text": "period next during our Confederation"
    },
    {
        "start": "54.96",
        "dur": "9.93",
        "text": "lastly by the Southern Confederacy and"
    },
    {
        "start": "58.399",
        "dur": "8.981",
        "text": "here as elsewhere always in vain but"
    },
    {
        "start": "64.89",
        "dur": "5.21",
        "text": "experience yielded to theory playing"
    },
    {
        "start": "67.38",
        "dur": "5.84",
        "text": "business sense to financial metaphysics"
    },
    {
        "start": "70.1",
        "dur": "6.76",
        "text": "it was determined to issue a new paper"
    },
    {
        "start": "73.22",
        "dur": "7.06",
        "text": "which should be fully secured and as"
    },
    {
        "start": "76.86",
        "dur": "6.149",
        "text": "good as gold first human to this"
    },
    {
        "start": "80.28",
        "dur": "5.04",
        "text": "decision it was decreed that a new paper"
    },
    {
        "start": "83.009",
        "dur": "6.11",
        "text": "money fully secured and as good as gold"
    },
    {
        "start": "85.32",
        "dur": "6.36",
        "text": "be issued under the name of a man deaths"
    },
    {
        "start": "89.119",
        "dur": "5.351",
        "text": "in order that these new notes should be"
    },
    {
        "start": "91.68",
        "dur": "4.47",
        "text": "fully secured choice public real estate"
    },
    {
        "start": "94.47",
        "dur": "4.43",
        "text": "was set apart to an amount fully equal"
    },
    {
        "start": "96.15",
        "dur": "5.16",
        "text": "to the nominal value of the issue and"
    },
    {
        "start": "98.9",
        "dur": "4.63",
        "text": "anyone offering any amount of the man"
    },
    {
        "start": "101.31",
        "dur": "4.68",
        "text": "thats could at once take possession of"
    },
    {
        "start": "103.53",
        "dur": "4.35",
        "text": "government lands the price of the lands"
    },
    {
        "start": "105.99",
        "dur": "3.21",
        "text": "to be determined by two experts one"
    },
    {
        "start": "107.88",
        "dur": "4.019",
        "text": "named by the government and one by the"
    },
    {
        "start": "109.2",
        "dur": "5.459",
        "text": "buyer and without the formalities and"
    },
    {
        "start": "111.899",
        "dur": "5.841",
        "text": "delays previously established in regard"
    },
    {
        "start": "114.659",
        "dur": "5.131",
        "text": "to the purchase of lands with a senior's"
    },
    {
        "start": "117.74",
        "dur": "3.28",
        "text": "perhaps the most whimsical thing in the"
    },
    {
        "start": "119.79",
        "dur": "3.84",
        "text": "whole situation was the fact that the"
    },
    {
        "start": "121.02",
        "dur": "4.68",
        "text": "government pressed as it was by demands"
    },
    {
        "start": "123.63",
        "dur": "4.199",
        "text": "of all sorts continued to issue the"
    },
    {
        "start": "125.7",
        "dur": "4.259",
        "text": "oldest in yachts at the same time that"
    },
    {
        "start": "127.829",
        "dur": "5.071",
        "text": "it was discrediting them by issuing the"
    },
    {
        "start": "129.959",
        "dur": "3.931",
        "text": "new man thats and yet in order to make"
    },
    {
        "start": "132.9",
        "dur": "4.02",
        "text": "the mandates"
    },
    {
        "start": "133.89",
        "dur": "4.62",
        "text": "as good as gold it was planned by forced"
    },
    {
        "start": "136.92",
        "dur": "2.64",
        "text": "loans and other means to reduce the"
    },
    {
        "start": "138.51",
        "dur": "3.36",
        "text": "quantity of a scene yachts in"
    },
    {
        "start": "139.56",
        "dur": "3.72",
        "text": "circulation so that the value of each"
    },
    {
        "start": "141.87",
        "dur": "4.29",
        "text": "has an ad should be raised to 1"
    },
    {
        "start": "143.28",
        "dur": "5.28",
        "text": "thirtieth of the value of gold then to"
    },
    {
        "start": "146.16",
        "dur": "3.96",
        "text": "make mandas legal tender and to"
    },
    {
        "start": "148.56",
        "dur": "4.71",
        "text": "substitute them for a scene yet at the"
    },
    {
        "start": "150.12",
        "dur": "5.67",
        "text": "rate of one for 30 never were great"
    },
    {
        "start": "153.27",
        "dur": "5.25",
        "text": "expectations mock truly disappointed"
    },
    {
        "start": "155.79",
        "dur": "4.71",
        "text": "even before the mandates could be issued"
    },
    {
        "start": "158.52",
        "dur": "4.53",
        "text": "from the press they fell to thirty five"
    },
    {
        "start": "160.5",
        "dur": "5.43",
        "text": "percent of their nominal value from this"
    },
    {
        "start": "163.05",
        "dur": "7.2",
        "text": "they speedily fell to fifteen percent"
    },
    {
        "start": "165.93",
        "dur": "6.96",
        "text": "and soon after 25 percent and finally in"
    },
    {
        "start": "170.25",
        "dur": "7.01",
        "text": "August 1796 six months from their first"
    },
    {
        "start": "172.89",
        "dur": "6.99",
        "text": "issue to three percent this plan failed"
    },
    {
        "start": "177.26",
        "dur": "5.5",
        "text": "just as it had failed in New England in"
    },
    {
        "start": "179.88",
        "dur": "6.51",
        "text": "1737 just as it failed under our own"
    },
    {
        "start": "182.76",
        "dur": "5.22",
        "text": "Confederation in 1781 just as it fails"
    },
    {
        "start": "186.39",
        "dur": "6.36",
        "text": "under the Southern Confederacy during"
    },
    {
        "start": "187.98",
        "dur": "7.65",
        "text": "our Civil War this is just F jumping in"
    },
    {
        "start": "192.75",
        "dur": "4.38",
        "text": "to mention that one way that you know"
    },
    {
        "start": "195.63",
        "dur": "3.18",
        "text": "the fair the plan is going to fail is"
    },
    {
        "start": "197.13",
        "dur": "4.23",
        "text": "that they have an independent expert"
    },
    {
        "start": "198.81",
        "dur": "4.44",
        "text": "assigning the value of the price of land"
    },
    {
        "start": "201.36",
        "dur": "5.129",
        "text": "rather than supply and demand of the"
    },
    {
        "start": "203.25",
        "dur": "4.709",
        "text": "free market to continue to sustain this"
    },
    {
        "start": "206.489",
        "dur": "4.25",
        "text": "new currency the government resorted to"
    },
    {
        "start": "207.959",
        "dur": "4.831",
        "text": "every method that ingenuity could devise"
    },
    {
        "start": "210.739",
        "dur": "4.151",
        "text": "pamphlets suited people of every"
    },
    {
        "start": "212.79",
        "dur": "5.37",
        "text": "capacity were published explaining its"
    },
    {
        "start": "214.89",
        "dur": "6.92",
        "text": "advantages never was there more skillful"
    },
    {
        "start": "218.16",
        "dur": "7.169",
        "text": "puffing a pamphlet signed mahjong and"
    },
    {
        "start": "221.81",
        "dur": "6.22",
        "text": "dedicated to people of good faith was"
    },
    {
        "start": "225.329",
        "dur": "4.5",
        "text": "widely circulated in which Marsha took"
    },
    {
        "start": "228.03",
        "dur": "3.92",
        "text": "pains to show the great advantage of the"
    },
    {
        "start": "229.829",
        "dur": "4.231",
        "text": "man dat's as compared to the SNES"
    },
    {
        "start": "231.95",
        "dur": "5.2",
        "text": "Howland could be more easily acquired"
    },
    {
        "start": "234.06",
        "dur": "5.429",
        "text": "with them how their security was better"
    },
    {
        "start": "237.15",
        "dur": "5.19",
        "text": "than with assonance how they could not"
    },
    {
        "start": "239.489",
        "dur": "5.371",
        "text": "buy any possibilities sink in values as"
    },
    {
        "start": "242.34",
        "dur": "5.13",
        "text": "the athenians had done but even before"
    },
    {
        "start": "244.86",
        "dur": "4.74",
        "text": "the pamphlet was dry from the press the"
    },
    {
        "start": "247.47",
        "dur": "6.42",
        "text": "depreciation of the man deaths had"
    },
    {
        "start": "249.6",
        "dur": "8.25",
        "text": "refuted his entire argument the old plan"
    },
    {
        "start": "253.89",
        "dur": "6.45",
        "text": "of penal measures was again pressed mano"
    },
    {
        "start": "257.85",
        "dur": "4.199",
        "text": "led off by pressing penalties against"
    },
    {
        "start": "260.34",
        "dur": "4.71",
        "text": "those who shall speak publicly against"
    },
    {
        "start": "262.049",
        "dur": "5.311",
        "text": "the man dat's Telo thought the penalties"
    },
    {
        "start": "265.05",
        "dur": "4.769",
        "text": "ought to be made especially severe and"
    },
    {
        "start": "267.36",
        "dur": "5.1",
        "text": "finally it was enacted that any person's"
    },
    {
        "start": "269.819",
        "dur": "4.111",
        "text": "quote who by their discourse or writing"
    },
    {
        "start": "272.46",
        "dur": "3.12",
        "text": "shall decry the man death shall be"
    },
    {
        "start": "273.93",
        "dur": "5.19",
        "text": "condemned to a fine of not less than"
    },
    {
        "start": "275.58",
        "dur": "5.22",
        "text": "1,000 francs or more than 10,000 and in"
    },
    {
        "start": "279.12",
        "dur": "5.519",
        "text": "the case of a repetition of the offense"
    },
    {
        "start": "280.8",
        "dur": "5.82",
        "text": "to four years in irons it was also"
    },
    {
        "start": "284.639",
        "dur": "3.571",
        "text": "decreed that those who refuse to receive"
    },
    {
        "start": "286.62",
        "dur": "4.59",
        "text": "them and that should be find the first"
    },
    {
        "start": "288.21",
        "dur": "4.56",
        "text": "time the exact sum which they refuse the"
    },
    {
        "start": "291.21",
        "dur": "4.169",
        "text": "second time ten times as much and the"
    },
    {
        "start": "292.77",
        "dur": "6.81",
        "text": "third time punished with two years in"
    },
    {
        "start": "295.379",
        "dur": "5.91",
        "text": "prison but here two came in the action"
    },
    {
        "start": "299.58",
        "dur": "5.16",
        "text": "of those natural laws which are alike"
    },
    {
        "start": "301.289",
        "dur": "7.231",
        "text": "inexorable in all countries this attempt"
    },
    {
        "start": "304.74",
        "dur": "5.609",
        "text": "proved futile in France just as it had"
    },
    {
        "start": "308.52",
        "dur": "5.519",
        "text": "proved futile less than 20 years before"
    },
    {
        "start": "310.349",
        "dur": "5.04",
        "text": "in America now enactments could stop the"
    },
    {
        "start": "314.039",
        "dur": "5.31",
        "text": "downward tendency of this new paper"
    },
    {
        "start": "315.389",
        "dur": "6.571",
        "text": "fully secured as good as gold the laws"
    },
    {
        "start": "319.349",
        "dur": "6.271",
        "text": "that finally govern finance are not made"
    },
    {
        "start": "321.96",
        "dur": "7.919",
        "text": "in conventions or Congress's amen to"
    },
    {
        "start": "325.62",
        "dur": "6.15",
        "text": "that from time to time various new"
    },
    {
        "start": "329.879",
        "dur": "5.311",
        "text": "financial juggles were tried some of"
    },
    {
        "start": "331.77",
        "dur": "5.609",
        "text": "them ingenious most of them drastic it"
    },
    {
        "start": "335.19",
        "dur": "4.14",
        "text": "was decreed that all assets above the"
    },
    {
        "start": "337.379",
        "dur": "3.741",
        "text": "value of 100 francs should cease to"
    },
    {
        "start": "339.33",
        "dur": "5.639",
        "text": "circulate after the beginning of June"
    },
    {
        "start": "341.12",
        "dur": "5.259",
        "text": "1796 but this only served to destroy the"
    },
    {
        "start": "344.969",
        "dur": "5.82",
        "text": "last vestige of confidence in government"
    },
    {
        "start": "346.379",
        "dur": "5.82",
        "text": "notes of any kind another expedient was"
    },
    {
        "start": "350.789",
        "dur": "2.701",
        "text": "seen in the decree that paper money"
    },
    {
        "start": "352.199",
        "dur": "3.09",
        "text": "should be made to accord with the"
    },
    {
        "start": "353.49",
        "dur": "3.899",
        "text": "natural and immutable standard of value"
    },
    {
        "start": "355.289",
        "dur": "4.701",
        "text": "and that one franc and paper should"
    },
    {
        "start": "357.389",
        "dur": "8.101",
        "text": "thence forth be worth 10 pounds of wheat"
    },
    {
        "start": "359.99",
        "dur": "7.51",
        "text": "this also failed on July sixteenth"
    },
    {
        "start": "365.49",
        "dur": "3.63",
        "text": "another decree seemed to show that the"
    },
    {
        "start": "367.5",
        "dur": "3.75",
        "text": "authorities despaired of regulating the"
    },
    {
        "start": "369.12",
        "dur": "4.53",
        "text": "existing currency and it was decreed"
    },
    {
        "start": "371.25",
        "dur": "4.56",
        "text": "that all paper whether it man that soros"
    },
    {
        "start": "373.65",
        "dur": "4.379",
        "text": "on yachts should be taken at its real"
    },
    {
        "start": "375.81",
        "dur": "6.06",
        "text": "value and that bargains might be made in"
    },
    {
        "start": "378.029",
        "dur": "6.091",
        "text": "whatever currency people chose the real"
    },
    {
        "start": "381.87",
        "dur": "4.349",
        "text": "value of the man debts speedily sank to"
    },
    {
        "start": "384.12",
        "dur": "4.109",
        "text": "about two percent of their nominal value"
    },
    {
        "start": "386.219",
        "dur": "3.81",
        "text": "and the only effect of this legislation"
    },
    {
        "start": "388.229",
        "dur": "7.351",
        "text": "seemed to be that both ahsan yachts and"
    },
    {
        "start": "390.029",
        "dur": "7.98",
        "text": "man debts went still lower I must say by"
    },
    {
        "start": "395.58",
        "dur": "5.4",
        "text": "the by that the idea that you can"
    },
    {
        "start": "398.009",
        "dur": "5.191",
        "text": "threaten bully and use violence to"
    },
    {
        "start": "400.98",
        "dur": "4.13",
        "text": "be a value in people he is something"
    },
    {
        "start": "403.2",
        "dur": "4.35",
        "text": "there's a lie that is as old as mankind"
    },
    {
        "start": "405.11",
        "dur": "4.48",
        "text": "parents do it to children pre stewart"
    },
    {
        "start": "407.55",
        "dur": "3.99",
        "text": "children teachers do its children adults"
    },
    {
        "start": "409.59",
        "dur": "4.38",
        "text": "do it to adults and adults do it to the"
    },
    {
        "start": "411.54",
        "dur": "4.77",
        "text": "elderly the idea that if the initiation"
    },
    {
        "start": "413.97",
        "dur": "7.29",
        "text": "of force can somehow create value is"
    },
    {
        "start": "416.31",
        "dur": "7.65",
        "text": "exactly what is going on here then farm"
    },
    {
        "start": "421.26",
        "dur": "5.22",
        "text": "febri fourth of every fourteen 1797 came"
    },
    {
        "start": "423.96",
        "dur": "3.78",
        "text": "decrees and orders that the engraving"
    },
    {
        "start": "426.48",
        "dur": "4.23",
        "text": "apparatus for the man death should be"
    },
    {
        "start": "427.74",
        "dur": "5.34",
        "text": "destroyed as that for the Athenians had"
    },
    {
        "start": "430.71",
        "dur": "4.56",
        "text": "been and that neither a sunyata Norman"
    },
    {
        "start": "433.08",
        "dur": "4.92",
        "text": "dots should any longer be a legal tender"
    },
    {
        "start": "435.27",
        "dur": "4.71",
        "text": "and that old debts to the state might be"
    },
    {
        "start": "438",
        "dur": "3.27",
        "text": "paid for time with government paper at"
    },
    {
        "start": "439.98",
        "dur": "5.01",
        "text": "the rate of one percent of their face"
    },
    {
        "start": "441.27",
        "dur": "5.82",
        "text": "value then less than three months later"
    },
    {
        "start": "444.99",
        "dur": "4.26",
        "text": "it was decreed that the 21 billions of"
    },
    {
        "start": "447.09",
        "dur": "5.73",
        "text": "asanas still in circulation should be"
    },
    {
        "start": "449.25",
        "dur": "5.85",
        "text": "annulled finally on sep tember the"
    },
    {
        "start": "452.82",
        "dur": "4.11",
        "text": "thirtieth 1797 as the combination of"
    },
    {
        "start": "455.1",
        "dur": "3.9",
        "text": "these and various other experiments and"
    },
    {
        "start": "456.93",
        "dur": "3.42",
        "text": "expedience came an order of the"
    },
    {
        "start": "459",
        "dur": "3.3",
        "text": "directory that the national debt should"
    },
    {
        "start": "460.35",
        "dur": "3.6",
        "text": "be paid two-thirds in bonds which might"
    },
    {
        "start": "462.3",
        "dur": "4.53",
        "text": "be used in purchasing confiscated real"
    },
    {
        "start": "463.95",
        "dur": "5.1",
        "text": "estate and the remaining consolidated"
    },
    {
        "start": "466.83",
        "dur": "4.59",
        "text": "third as it was called was to be placed"
    },
    {
        "start": "469.05",
        "dur": "4.44",
        "text": "on the great book of the national debt"
    },
    {
        "start": "471.42",
        "dur": "7.11",
        "text": "to be paid thence forth as the"
    },
    {
        "start": "473.49",
        "dur": "6.75",
        "text": "government should think best and again"
    },
    {
        "start": "478.53",
        "dur": "4.38",
        "text": "just to note a currency in this case"
    },
    {
        "start": "480.24",
        "dur": "7.17",
        "text": "this currency founded upon a theft of"
    },
    {
        "start": "482.91",
        "dur": "7.44",
        "text": "the state cannot create value either to"
    },
    {
        "start": "487.41",
        "dur": "4.59",
        "text": "continue as to the bonds which the"
    },
    {
        "start": "490.35",
        "dur": "4.29",
        "text": "creditors of the nation were thus forced"
    },
    {
        "start": "492",
        "dur": "4.41",
        "text": "to take they sank rapidly as the ass in"
    },
    {
        "start": "494.64",
        "dur": "4.65",
        "text": "yachts and men deaths had done even to"
    },
    {
        "start": "496.41",
        "dur": "5.76",
        "text": "three percent of their value as to the"
    },
    {
        "start": "499.29",
        "dur": "4.77",
        "text": "consolidated third that was largely paid"
    },
    {
        "start": "502.17",
        "dur": "4.11",
        "text": "until the coming of Bonaparte in paper"
    },
    {
        "start": "504.06",
        "dur": "6.11",
        "text": "money which sank gradually to about six"
    },
    {
        "start": "506.28",
        "dur": "6.389",
        "text": "percent of its faith value since May"
    },
    {
        "start": "510.17",
        "dur": "5.89",
        "text": "1797 both a senior Sandman deaths have"
    },
    {
        "start": "512.669",
        "dur": "6.631",
        "text": "been virtually worth nothing and we find"
    },
    {
        "start": "516.06",
        "dur": "7.8",
        "text": "a five percent value shocking five"
    },
    {
        "start": "519.3",
        "dur": "6.81",
        "text": "percent value as shocking but that's all"
    },
    {
        "start": "523.86",
        "dur": "7.38",
        "text": "that's left at the US dollar from about"
    },
    {
        "start": "526.11",
        "dur": "8.67",
        "text": "1913 so shocking but we've seen it well"
    },
    {
        "start": "531.24",
        "dur": "7.3",
        "text": "fixing the tail end of it to continue"
    },
    {
        "start": "534.78",
        "dur": "8.47",
        "text": "so ended the reign of paper money in"
    },
    {
        "start": "538.54",
        "dur": "7.5",
        "text": "France the 2,500 millions of man thats"
    },
    {
        "start": "543.25",
        "dur": "5.07",
        "text": "went into the common heap of refuse with"
    },
    {
        "start": "546.04",
        "dur": "6.27",
        "text": "the previous 45,000 billions of assen"
    },
    {
        "start": "548.32",
        "dur": "7.65",
        "text": "yachts the nation in general rich and"
    },
    {
        "start": "552.31",
        "dur": "9.36",
        "text": "poor alike was plunged into financial"
    },
    {
        "start": "555.97",
        "dur": "7.5",
        "text": "ruin from one end to the other on the"
    },
    {
        "start": "561.67",
        "dur": "3.96",
        "text": "prices charged for articles of ordinary"
    },
    {
        "start": "563.47",
        "dur": "5.79",
        "text": "use light is thrown by extracts from a"
    },
    {
        "start": "565.63",
        "dur": "7.7",
        "text": "table published in 1795 reduced to"
    },
    {
        "start": "569.26",
        "dur": "13.26",
        "text": "American coinage for a bushel of flour"
    },
    {
        "start": "573.33",
        "dur": "11.98",
        "text": "1790 40 cents 1795 $45 Bush lovats 18"
    },
    {
        "start": "582.52",
        "dur": "5.54",
        "text": "cents to ten dollars cat load of wood"
    },
    {
        "start": "585.31",
        "dur": "5.04",
        "text": "four dollars to five hundred dollars"
    },
    {
        "start": "588.06",
        "dur": "4.57",
        "text": "bushel of coal seven cents to two"
    },
    {
        "start": "590.35",
        "dur": "4.59",
        "text": "dollars pound of sugar 18 cents to 12"
    },
    {
        "start": "592.63",
        "dur": "4.73",
        "text": "and a half dollars pound of soap 18"
    },
    {
        "start": "594.94",
        "dur": "5.04",
        "text": "cents to eight dollars a pound of canvas"
    },
    {
        "start": "597.36",
        "dur": "5.2",
        "text": "18 cents to eight dollars for one"
    },
    {
        "start": "599.98",
        "dur": "5.82",
        "text": "cabbage eight cents to five and a half"
    },
    {
        "start": "602.56",
        "dur": "8.52",
        "text": "dollars pair of shoes one dollar to"
    },
    {
        "start": "605.8",
        "dur": "9.51",
        "text": "forty dollars for 25 x 24 cents to five"
    },
    {
        "start": "611.08",
        "dur": "6.63",
        "text": "dollars but these prices about the"
    },
    {
        "start": "615.31",
        "dur": "4.17",
        "text": "middle of 1795 were moderate compared"
    },
    {
        "start": "617.71",
        "dur": "3.3",
        "text": "with those which were reached before the"
    },
    {
        "start": "619.48",
        "dur": "4.44",
        "text": "clothes of that year and during the year"
    },
    {
        "start": "621.01",
        "dur": "5.85",
        "text": "following perfectly authentic examples"
    },
    {
        "start": "623.92",
        "dur": "6.63",
        "text": "were such as the following the pound of"
    },
    {
        "start": "626.86",
        "dur": "7.23",
        "text": "bread nine dollars bushel of potatoes"
    },
    {
        "start": "630.55",
        "dur": "5.52",
        "text": "$40 pound of candles forty dollars a"
    },
    {
        "start": "634.09",
        "dur": "6.69",
        "text": "cartload of wood two hundred and fifty"
    },
    {
        "start": "636.07",
        "dur": "8.66",
        "text": "dollars so a pound of candles 1790"
    },
    {
        "start": "640.78",
        "dur": "8.82",
        "text": "eighteen cents 1795 eight dollars"
    },
    {
        "start": "644.73",
        "dur": "6.97",
        "text": "following year forty dollars so much for"
    },
    {
        "start": "649.6",
        "dur": "3.96",
        "text": "the poorer people typical of those"
    },
    {
        "start": "651.7",
        "dur": "3.33",
        "text": "esteemed wealthy may be mentioned a"
    },
    {
        "start": "653.56",
        "dur": "6.05",
        "text": "manufacturer of hardware who having"
    },
    {
        "start": "655.03",
        "dur": "8.75",
        "text": "retired from business in 1790 with"
    },
    {
        "start": "659.61",
        "dur": "9.6",
        "text": "321,000 leafless found his property in"
    },
    {
        "start": "663.78",
        "dur": "5.43",
        "text": "1796 worth fourteen thousand francs"
    },
    {
        "start": "669.33",
        "dur": "3.79",
        "text": "for this general distress the rising"
    },
    {
        "start": "671.77",
        "dur": "3.15",
        "text": "from the development and collapse of"
    },
    {
        "start": "673.12",
        "dur": "7.38",
        "text": "fiat money in france there was indeed"
    },
    {
        "start": "674.92",
        "dur": "8.82",
        "text": "one exception in paris and a few of the"
    },
    {
        "start": "680.5",
        "dur": "7.31",
        "text": "other great cities men like kelly anne"
    },
    {
        "start": "683.74",
        "dur": "8.4",
        "text": "of the heartless debauched luxurious"
    },
    {
        "start": "687.81",
        "dur": "7.54",
        "text": "speculator contractor and stock gambler"
    },
    {
        "start": "692.14",
        "dur": "7.65",
        "text": "class had risen above the ruins of the"
    },
    {
        "start": "695.35",
        "dur": "6.9",
        "text": "multitudes of smaller fortunes talia one"
    },
    {
        "start": "699.79",
        "dur": "3.9",
        "text": "of the worst demagogue reformers and a"
    },
    {
        "start": "702.25",
        "dur": "3.47",
        "text": "certain number of men like him had been"
    },
    {
        "start": "703.69",
        "dur": "4.59",
        "text": "skillful enough to become millionaires"
    },
    {
        "start": "705.72",
        "dur": "7.83",
        "text": "while their dupes who had clamored for"
    },
    {
        "start": "708.28",
        "dur": "5.27",
        "text": "issues of paper money had become paupers"
    },
    {
        "start": "713.73",
        "dur": "4.72",
        "text": "the luxury and extravagance of the"
    },
    {
        "start": "716.02",
        "dur": "3.6",
        "text": "currency gamblers and their families"
    },
    {
        "start": "718.45",
        "dur": "2.64",
        "text": "form one of the most significant"
    },
    {
        "start": "719.62",
        "dur": "5.07",
        "text": "features in any picture of the social"
    },
    {
        "start": "721.09",
        "dur": "5.25",
        "text": "condition of that period a few years"
    },
    {
        "start": "724.69",
        "dur": "3.93",
        "text": "before this the leading woman in French"
    },
    {
        "start": "726.34",
        "dur": "3.96",
        "text": "society showed an ability of character"
    },
    {
        "start": "728.62",
        "dur": "5.55",
        "text": "in a simplicity in dress worthy of Roman"
    },
    {
        "start": "730.3",
        "dur": "7.08",
        "text": "matrons of these were madam holla and"
    },
    {
        "start": "734.17",
        "dur": "6.18",
        "text": "Madame and Demi long but now all was"
    },
    {
        "start": "737.38",
        "dur": "6.57",
        "text": "changed at the head of society stood"
    },
    {
        "start": "740.35",
        "dur": "5.49",
        "text": "Madame Talia and others like her wild in"
    },
    {
        "start": "743.95",
        "dur": "4.5",
        "text": "extravagance daily seeking new"
    },
    {
        "start": "745.84",
        "dur": "4.32",
        "text": "refinements in luxury and demanding of"
    },
    {
        "start": "748.45",
        "dur": "5.61",
        "text": "their husbands and lovers vast sums to"
    },
    {
        "start": "750.16",
        "dur": "7.02",
        "text": "array them and feed their whims if such"
    },
    {
        "start": "754.06",
        "dur": "7.71",
        "text": "sums could not be had honestly then they"
    },
    {
        "start": "757.18",
        "dur": "6.24",
        "text": "must be gotten dishonestly the more"
    },
    {
        "start": "761.77",
        "dur": "3.84",
        "text": "closely one examines that period the"
    },
    {
        "start": "763.42",
        "dur": "4.38",
        "text": "more clearly he sees that the pictures"
    },
    {
        "start": "765.61",
        "dur": "9.12",
        "text": "given by Thibodeaux and Shalimar"
    },
    {
        "start": "767.8",
        "dur": "9.06",
        "text": "deegaanka and not at all exaggerated the"
    },
    {
        "start": "774.73",
        "dur": "4.41",
        "text": "contrast between these gay preachers of"
    },
    {
        "start": "776.86",
        "dur": "4.74",
        "text": "the directory period and the people at"
    },
    {
        "start": "779.14",
        "dur": "3.6",
        "text": "large was striking indeed much as the"
    },
    {
        "start": "781.6",
        "dur": "3",
        "text": "vast majority of the wealthy classes"
    },
    {
        "start": "782.74",
        "dur": "4.32",
        "text": "suffered from impoverishment the"
    },
    {
        "start": "784.6",
        "dur": "4.23",
        "text": "labouring classes salaried employees of"
    },
    {
        "start": "787.06",
        "dur": "3.78",
        "text": "all sorts and people to fixed income"
    },
    {
        "start": "788.83",
        "dur": "6.53",
        "text": "enough small means especially in the"
    },
    {
        "start": "790.84",
        "dur": "7.05",
        "text": "cities and to end yet greater distress"
    },
    {
        "start": "795.36",
        "dur": "4.45",
        "text": "these were found as a rule to subsist"
    },
    {
        "start": "797.89",
        "dur": "3.569",
        "text": "mainly on daily government rations of"
    },
    {
        "start": "799.81",
        "dur": "5.249",
        "text": "bread the rate of one pound"
    },
    {
        "start": "801.459",
        "dur": "5.31",
        "text": "person this was frequently unfit for"
    },
    {
        "start": "805.059",
        "dur": "4.59",
        "text": "food and was distributed to long lines"
    },
    {
        "start": "806.769",
        "dur": "5.01",
        "text": "of people men women and children who"
    },
    {
        "start": "809.649",
        "dur": "6.36",
        "text": "were at times obliged to wait their turn"
    },
    {
        "start": "811.779",
        "dur": "6.211",
        "text": "even from dawn till dusk the very rich"
    },
    {
        "start": "816.009",
        "dur": "4.651",
        "text": "could by various means especially by"
    },
    {
        "start": "817.99",
        "dur": "7.98",
        "text": "bribery obtain better bread but only at"
    },
    {
        "start": "820.66",
        "dur": "8.419",
        "text": "enormous cost in May 1796 the market"
    },
    {
        "start": "825.97",
        "dur": "7.049",
        "text": "price of good bread was in paper eighty"
    },
    {
        "start": "829.079",
        "dur": "6.49",
        "text": "francs sixteen dollars per pound and a"
    },
    {
        "start": "833.019",
        "dur": "7.701",
        "text": "little later of provisions could not be"
    },
    {
        "start": "835.569",
        "dur": "7.14",
        "text": "bought for paper money at any price and"
    },
    {
        "start": "840.72",
        "dur": "4.179",
        "text": "here it may be worth mentioning that"
    },
    {
        "start": "842.709",
        "dur": "6.12",
        "text": "there was another financial trouble"
    },
    {
        "start": "844.899",
        "dur": "6.42",
        "text": "especially vexatious while as we have"
    },
    {
        "start": "848.829",
        "dur": "4.86",
        "text": "seen such enormous sums rising from 20"
    },
    {
        "start": "851.319",
        "dur": "4.471",
        "text": "to 40 thousands millions of francs and"
    },
    {
        "start": "853.689",
        "dur": "4.49",
        "text": "paper were put in circulation by the"
    },
    {
        "start": "855.79",
        "dur": "4.95",
        "text": "successive governments of the revolution"
    },
    {
        "start": "858.179",
        "dur": "4.63",
        "text": "enormous sums had been set a floating"
    },
    {
        "start": "860.74",
        "dur": "5.459",
        "text": "counterfeits by criminals and by the"
    },
    {
        "start": "862.809",
        "dur": "4.65",
        "text": "enemies of France these came not only"
    },
    {
        "start": "866.199",
        "dur": "3.031",
        "text": "from various parts of the French"
    },
    {
        "start": "867.459",
        "dur": "3.62",
        "text": "Republic but from nearly all the"
    },
    {
        "start": "869.23",
        "dur": "7.589",
        "text": "surrounding nations the main source"
    },
    {
        "start": "871.079",
        "dur": "8.68",
        "text": "being London then said was that count is"
    },
    {
        "start": "876.819",
        "dur": "4.77",
        "text": "yosef the busway sent off cargoes of"
    },
    {
        "start": "879.759",
        "dur": "3.57",
        "text": "false paper excellently engraved and"
    },
    {
        "start": "881.589",
        "dur": "5.19",
        "text": "printed through ports and Brittany and"
    },
    {
        "start": "883.329",
        "dur": "6.54",
        "text": "other disaffected parts of France one"
    },
    {
        "start": "886.779",
        "dur": "6.3",
        "text": "seizure by General Huff was declared by"
    },
    {
        "start": "889.869",
        "dur": "6.81",
        "text": "him to exceed in nominal value 10,000"
    },
    {
        "start": "893.079",
        "dur": "6.48",
        "text": "millions of francs with the exceptions"
    },
    {
        "start": "896.679",
        "dur": "4.47",
        "text": "of a few of these issues detection was"
    },
    {
        "start": "899.559",
        "dur": "3.87",
        "text": "exceedingly difficult even for experts"
    },
    {
        "start": "901.149",
        "dur": "8.49",
        "text": "for the vast majority of the people it"
    },
    {
        "start": "903.429",
        "dur": "8.97",
        "text": "was impossible nor was this all in"
    },
    {
        "start": "909.639",
        "dur": "5.37",
        "text": "various times the insurgent royalists in"
    },
    {
        "start": "912.399",
        "dur": "5.25",
        "text": "levante and elsewhere put their press is"
    },
    {
        "start": "915.009",
        "dur": "5.25",
        "text": "also an operation issuing now it's"
    },
    {
        "start": "917.649",
        "dur": "4.891",
        "text": "bearing the Borbon arms the flu of the"
    },
    {
        "start": "920.259",
        "dur": "6.18",
        "text": "lis the port tripped of the dolphin is"
    },
    {
        "start": "922.54",
        "dur": "6.93",
        "text": "louis the 17th with the magic legend de"
    },
    {
        "start": "926.439",
        "dur": "5.58",
        "text": "parte de voix and large bodies of the"
    },
    {
        "start": "929.47",
        "dur": "5.4",
        "text": "population in the insurgent districts"
    },
    {
        "start": "932.019",
        "dur": "7.131",
        "text": "were forced to take these even as"
    },
    {
        "start": "934.87",
        "dur": "7.71",
        "text": "to 1799 these notes continued to appear"
    },
    {
        "start": "939.15",
        "dur": "5.95",
        "text": "the financial agony was prolonged"
    },
    {
        "start": "942.58",
        "dur": "4.92",
        "text": "somewhat by attempts to secure funds by"
    },
    {
        "start": "945.1",
        "dur": "5.01",
        "text": "still another forced loan and other"
    },
    {
        "start": "947.5",
        "dur": "6.39",
        "text": "discredited measures but when all was"
    },
    {
        "start": "950.11",
        "dur": "6.919",
        "text": "over with paper money specie gold and"
    },
    {
        "start": "953.89",
        "dur": "5.88",
        "text": "silver and copper coins began to repair"
    },
    {
        "start": "957.029",
        "dur": "4.241",
        "text": "first insufficient sums to do the small"
    },
    {
        "start": "959.77",
        "dur": "4.65",
        "text": "amount of business which remained after"
    },
    {
        "start": "961.27",
        "dur": "5.13",
        "text": "the collapse then as the business demand"
    },
    {
        "start": "964.42",
        "dur": "3.66",
        "text": "increased the amount of specie flowed in"
    },
    {
        "start": "966.4",
        "dur": "4.08",
        "text": "from the world at large to meet it and"
    },
    {
        "start": "968.08",
        "dur": "8.42",
        "text": "the nation gradually recovered from that"
    },
    {
        "start": "970.48",
        "dur": "8.4",
        "text": "long paper money de Bourgh CH thibodaux"
    },
    {
        "start": "976.5",
        "dur": "5.05",
        "text": "very thoughtful observer tells us in his"
    },
    {
        "start": "978.88",
        "dur": "4.26",
        "text": "memoirs that great fears were felt as to"
    },
    {
        "start": "981.55",
        "dur": "3.24",
        "text": "a want of circulating medium between the"
    },
    {
        "start": "983.14",
        "dur": "4.35",
        "text": "time when paper should go out and coin"
    },
    {
        "start": "984.79",
        "dur": "4.92",
        "text": "should come in but that no such want was"
    },
    {
        "start": "987.49",
        "dur": "6.9",
        "text": "severely felt that coin came in"
    },
    {
        "start": "989.71",
        "dur": "6.33",
        "text": "gradually as it was wanted just wanted"
    },
    {
        "start": "994.39",
        "dur": "3.75",
        "text": "to mention that this is what happens"
    },
    {
        "start": "996.04",
        "dur": "3.57",
        "text": "when you stop using force right the"
    },
    {
        "start": "998.14",
        "dur": "4.59",
        "text": "market supply even of money which is"
    },
    {
        "start": "999.61",
        "dur": "4.65",
        "text": "just a good in a service fills in the"
    },
    {
        "start": "1002.73",
        "dur": "3.15",
        "text": "gap as is necessary and this would also"
    },
    {
        "start": "1004.26",
        "dur": "5.43",
        "text": "be the case of course if public schools"
    },
    {
        "start": "1005.88",
        "dur": "7.74",
        "text": "were shut down or anything else to"
    },
    {
        "start": "1009.69",
        "dur": "6.6",
        "text": "continue nothing could better exemplify"
    },
    {
        "start": "1013.62",
        "dur": "5.01",
        "text": "the saying of one of the most shrewd of"
    },
    {
        "start": "1016.29",
        "dur": "8.19",
        "text": "modern statesmen that there will always"
    },
    {
        "start": "1018.63",
        "dur": "8.069",
        "text": "be money but though there soon came a"
    },
    {
        "start": "1024.48",
        "dur": "4.55",
        "text": "degree of prosperity as compared with"
    },
    {
        "start": "1026.699",
        "dur": "7.98",
        "text": "the distress during the paper money orgy"
    },
    {
        "start": "1029.03",
        "dur": "7.059",
        "text": "convalescence was slow the acute"
    },
    {
        "start": "1034.679",
        "dur": "4.111",
        "text": "suffering from the wreck and ruin"
    },
    {
        "start": "1036.089",
        "dur": "4.771",
        "text": "brought by a senate's man debts and"
    },
    {
        "start": "1038.79",
        "dur": "6.96",
        "text": "other paper currency in process of"
    },
    {
        "start": "1040.86",
        "dur": "6.63",
        "text": "repudiation lasted nearly 10 years but"
    },
    {
        "start": "1045.75",
        "dur": "5.55",
        "text": "the period of recovery lasted longer"
    },
    {
        "start": "1047.49",
        "dur": "8.22",
        "text": "than the generation which followed it"
    },
    {
        "start": "1051.3",
        "dur": "6.72",
        "text": "required fully 40 years to bring capital"
    },
    {
        "start": "1055.71",
        "dur": "4.64",
        "text": "industry commerce and credit after their"
    },
    {
        "start": "1058.02",
        "dur": "6.15",
        "text": "condition when the revolution began and"
    },
    {
        "start": "1060.35",
        "dur": "6.73",
        "text": "demanded a man on horseback this is"
    },
    {
        "start": "1064.17",
        "dur": "4.53",
        "text": "reference to Napoleon who established"
    },
    {
        "start": "1067.08",
        "dur": "3.6",
        "text": "monarchy on"
    },
    {
        "start": "1068.7",
        "dur": "4.05",
        "text": "the ruins of the Republic and threw away"
    },
    {
        "start": "1070.68",
        "dur": "4.41",
        "text": "millions of lives for the Empire to be"
    },
    {
        "start": "1072.75",
        "dur": "7.37",
        "text": "added to the millions which had been"
    },
    {
        "start": "1075.09",
        "dur": "7.32",
        "text": "sacrificed by the revolution such"
    },
    {
        "start": "1080.12",
        "dur": "4.12",
        "text": "briefly sketched in its leading features"
    },
    {
        "start": "1082.41",
        "dur": "3.96",
        "text": "is the history of the most skillful"
    },
    {
        "start": "1084.24",
        "dur": "5.01",
        "text": "vigorous and persistent attempt ever"
    },
    {
        "start": "1086.37",
        "dur": "4.98",
        "text": "made to substitute for natural laws and"
    },
    {
        "start": "1089.25",
        "dur": "4.29",
        "text": "finance the ability of legislative"
    },
    {
        "start": "1091.35",
        "dur": "3.36",
        "text": "bodies and for a standard of value"
    },
    {
        "start": "1093.54",
        "dur": "3.12",
        "text": "recognized throughout the world a"
    },
    {
        "start": "1094.71",
        "dur": "6.98",
        "text": "national standard devised by theorists"
    },
    {
        "start": "1096.66",
        "dur": "8.43",
        "text": "and manipulated by schemers every other"
    },
    {
        "start": "1101.69",
        "dur": "6.4",
        "text": "attempt of the same kind in human"
    },
    {
        "start": "1105.09",
        "dur": "5.37",
        "text": "history under whatever circumstances has"
    },
    {
        "start": "1108.09",
        "dur": "4.98",
        "text": "reached similar results in kind if not"
    },
    {
        "start": "1110.46",
        "dur": "4.44",
        "text": "in degree all of them show the existence"
    },
    {
        "start": "1113.07",
        "dur": "4.08",
        "text": "of financial laws is real in their"
    },
    {
        "start": "1114.9",
        "dur": "7.89",
        "text": "operation as those which holds the"
    },
    {
        "start": "1117.15",
        "dur": "7.5",
        "text": "planets in their causes for examples of"
    },
    {
        "start": "1122.79",
        "dur": "4.77",
        "text": "similar effects in Russia Austria in"
    },
    {
        "start": "1124.65",
        "dur": "4.92",
        "text": "Denmark see storch economic politique"
    },
    {
        "start": "1127.56",
        "dur": "4.41",
        "text": "volume 44 similar effects in the u.s."
    },
    {
        "start": "1129.57",
        "dur": "4.29",
        "text": "see gooje paper money and banking in the"
    },
    {
        "start": "1131.97",
        "dur": "4.98",
        "text": "United States also summon our history of"
    },
    {
        "start": "1133.86",
        "dur": "4.62",
        "text": "American currency for working out of the"
    },
    {
        "start": "1136.95",
        "dur": "3.24",
        "text": "same principles in England depicted in a"
    },
    {
        "start": "1138.48",
        "dur": "4.58",
        "text": "masterly way I see Macaulay history of"
    },
    {
        "start": "1140.19",
        "dur": "5.07",
        "text": "England chapter 21 and four curious"
    },
    {
        "start": "1143.06",
        "dur": "4.63",
        "text": "exhibition of the same causes producing"
    },
    {
        "start": "1145.26",
        "dur": "4.08",
        "text": "the same results in ancient Greece see"
    },
    {
        "start": "1147.69",
        "dur": "6.33",
        "text": "you're curious quotation by Macaulay in"
    },
    {
        "start": "1149.34",
        "dur": "7.44",
        "text": "the same chapter i have now presented"
    },
    {
        "start": "1154.02",
        "dur": "5.22",
        "text": "this history in its chronological order"
    },
    {
        "start": "1156.78",
        "dur": "4.2",
        "text": "the order of events let me in conclusion"
    },
    {
        "start": "1159.24",
        "dur": "6.92",
        "text": "some of that briefly in its logical"
    },
    {
        "start": "1160.98",
        "dur": "10.47",
        "text": "order the order of cause and effect and"
    },
    {
        "start": "1166.16",
        "dur": "7.3",
        "text": "first in the economic department from"
    },
    {
        "start": "1171.45",
        "dur": "3.72",
        "text": "the early reluctance and careful issues"
    },
    {
        "start": "1173.46",
        "dur": "4.19",
        "text": "of paper we saw as an immediate result"
    },
    {
        "start": "1175.17",
        "dur": "5.16",
        "text": "improvement and activity in business"
    },
    {
        "start": "1177.65",
        "dur": "5.74",
        "text": "then arouse the clamor for more paper"
    },
    {
        "start": "1180.33",
        "dur": "5.25",
        "text": "money at first new issues were made with"
    },
    {
        "start": "1183.39",
        "dur": "4.32",
        "text": "great difficulty but the dike once"
    },
    {
        "start": "1185.58",
        "dur": "4.83",
        "text": "broken the current of irredeemable"
    },
    {
        "start": "1187.71",
        "dur": "4.68",
        "text": "currency poured through and the breach"
    },
    {
        "start": "1190.41",
        "dur": "5.88",
        "text": "thus enlarging this currency was soon"
    },
    {
        "start": "1192.39",
        "dur": "6.2",
        "text": "swollen beyond control it was urged on"
    },
    {
        "start": "1196.29",
        "dur": "4.74",
        "text": "by speculators for a rise in values by"
    },
    {
        "start": "1198.59",
        "dur": "3.65",
        "text": "demagogues who persuaded the mob that a"
    },
    {
        "start": "1201.03",
        "dur": "3.13",
        "text": "nation buys its sim"
    },
    {
        "start": "1202.24",
        "dur": "6",
        "text": "fiat could stamp real value to any"
    },
    {
        "start": "1204.16",
        "dur": "6.66",
        "text": "amount upon valueless objects there's a"
    },
    {
        "start": "1208.24",
        "dur": "5.13",
        "text": "natural consequence a great debtor class"
    },
    {
        "start": "1210.82",
        "dur": "4.59",
        "text": "grew rapidly in this class gave its"
    },
    {
        "start": "1213.37",
        "dur": "4.32",
        "text": "influences to depreciate more and more"
    },
    {
        "start": "1215.41",
        "dur": "5.94",
        "text": "the currency in which its debts were to"
    },
    {
        "start": "1217.69",
        "dur": "6.239",
        "text": "be paid the government now began and"
    },
    {
        "start": "1221.35",
        "dur": "4.95",
        "text": "continued by spasms to grind out still"
    },
    {
        "start": "1223.929",
        "dur": "4.441",
        "text": "more paper commerce was that first"
    },
    {
        "start": "1226.3",
        "dur": "3.54",
        "text": "stimulated by the difference in exchange"
    },
    {
        "start": "1228.37",
        "dur": "4.559",
        "text": "but this cause soon ceased to operate"
    },
    {
        "start": "1229.84",
        "dur": "7.589",
        "text": "and commerce having been stimulated and"
    },
    {
        "start": "1232.929",
        "dur": "7.921",
        "text": "healthily wasted away we may want to"
    },
    {
        "start": "1237.429",
        "dur": "5.491",
        "text": "recall the tech commodity and real"
    },
    {
        "start": "1240.85",
        "dur": "6.3",
        "text": "estate booms of the past decade hit or"
    },
    {
        "start": "1242.92",
        "dur": "6.72",
        "text": "so to continue manufacturers at first"
    },
    {
        "start": "1247.15",
        "dur": "4.5",
        "text": "received the great impulse but ere long"
    },
    {
        "start": "1249.64",
        "dur": "5.419",
        "text": "this overproduction and over stimulus"
    },
    {
        "start": "1251.65",
        "dur": "7.13",
        "text": "proved as fatal to them as to commerce"
    },
    {
        "start": "1255.059",
        "dur": "7.541",
        "text": "from time to time there was a revival of"
    },
    {
        "start": "1258.78",
        "dur": "5.38",
        "text": "hope caused by an apparent revival of"
    },
    {
        "start": "1262.6",
        "dur": "3.87",
        "text": "business but this revival of business"
    },
    {
        "start": "1264.16",
        "dur": "3.87",
        "text": "was at last seen to be caused more and"
    },
    {
        "start": "1266.47",
        "dur": "4.11",
        "text": "more by the desire of far-seeing and"
    },
    {
        "start": "1268.03",
        "dur": "4.61",
        "text": "cunning man of affairs to exchange paper"
    },
    {
        "start": "1270.58",
        "dur": "4.32",
        "text": "money for objects of permanent value"
    },
    {
        "start": "1272.64",
        "dur": "4",
        "text": "what it means here is that people bought"
    },
    {
        "start": "1274.9",
        "dur": "2.909",
        "text": "factories and businesses not because"
    },
    {
        "start": "1276.64",
        "dur": "2.85",
        "text": "they wanted to revive them but because"
    },
    {
        "start": "1277.809",
        "dur": "4.201",
        "text": "they recognize that their money was"
    },
    {
        "start": "1279.49",
        "dur": "5.88",
        "text": "heading the way of toilet paper to"
    },
    {
        "start": "1282.01",
        "dur": "4.98",
        "text": "continue after the people enlarged the"
    },
    {
        "start": "1285.37",
        "dur": "3.87",
        "text": "class is living on fixed incomes and"
    },
    {
        "start": "1286.99",
        "dur": "3.9",
        "text": "small salaries felt the pressure first"
    },
    {
        "start": "1289.24",
        "dur": "5.58",
        "text": "as soon as the purchasing power of their"
    },
    {
        "start": "1290.89",
        "dur": "6.6",
        "text": "fixed income were reduced soon the great"
    },
    {
        "start": "1294.82",
        "dur": "7.85",
        "text": "class living on wages felt it even more"
    },
    {
        "start": "1297.49",
        "dur": "7.68",
        "text": "sadly prices of the necessities of life"
    },
    {
        "start": "1302.67",
        "dur": "3.97",
        "text": "increased merchants were obliged to"
    },
    {
        "start": "1305.17",
        "dur": "3.18",
        "text": "increase them not only to cover"
    },
    {
        "start": "1306.64",
        "dur": "3.27",
        "text": "depreciation of their merchandise but"
    },
    {
        "start": "1308.35",
        "dur": "4.5",
        "text": "also to cover their risk of last from"
    },
    {
        "start": "1309.91",
        "dur": "5.55",
        "text": "fluctuation and while the prices of"
    },
    {
        "start": "1312.85",
        "dur": "4.829",
        "text": "products thus rose wages which had had"
    },
    {
        "start": "1315.46",
        "dur": "6.84",
        "text": "first gone up under the general stimulus"
    },
    {
        "start": "1317.679",
        "dur": "7.161",
        "text": "lagged behind under the universal doubt"
    },
    {
        "start": "1322.3",
        "dur": "6.83",
        "text": "and discouragement commerce and"
    },
    {
        "start": "1324.84",
        "dur": "6.52",
        "text": "manufacturers were checked or destroyed"
    },
    {
        "start": "1329.13",
        "dur": "4.15",
        "text": "as a consequence the demand for labor"
    },
    {
        "start": "1331.36",
        "dur": "3.21",
        "text": "was diminished laboring men were thrown"
    },
    {
        "start": "1333.28",
        "dur": "2.55",
        "text": "out of employment and under the"
    },
    {
        "start": "1334.57",
        "dur": "2.78",
        "text": "operation of the simplest law"
    },
    {
        "start": "1335.83",
        "dur": "3.78",
        "text": "supply and demand to the price of Labor"
    },
    {
        "start": "1337.35",
        "dur": "4.51",
        "text": "the daily wages of the laboring class"
    },
    {
        "start": "1339.61",
        "dur": "4.35",
        "text": "went down until at a time when prices of"
    },
    {
        "start": "1341.86",
        "dur": "5.039",
        "text": "food clothing and various articles of"
    },
    {
        "start": "1343.96",
        "dur": "5.04",
        "text": "consumption were enormous wages were"
    },
    {
        "start": "1346.899",
        "dur": "7.071",
        "text": "nearly as low as at the time preceding"
    },
    {
        "start": "1349",
        "dur": "4.97",
        "text": "the first issue of irredeemable currency"
    },
    {
        "start": "1354.57",
        "dur": "4",
        "text": "the mercantile classes at first thought"
    },
    {
        "start": "1357.159",
        "dur": "3.481",
        "text": "themselves exempt from the general"
    },
    {
        "start": "1358.57",
        "dur": "4.17",
        "text": "misfortune they were delighted at the"
    },
    {
        "start": "1360.64",
        "dur": "4.83",
        "text": "apparent advance in the value of the"
    },
    {
        "start": "1362.74",
        "dur": "4.98",
        "text": "goods upon their shelves but they soon"
    },
    {
        "start": "1365.47",
        "dur": "3.689",
        "text": "found that as they increased prices to"
    },
    {
        "start": "1367.72",
        "dur": "3.77",
        "text": "cover the inflation of currency in the"
    },
    {
        "start": "1369.159",
        "dur": "4.441",
        "text": "risk from fluctuation and uncertainty"
    },
    {
        "start": "1371.49",
        "dur": "5.01",
        "text": "purchases became less in a mountain"
    },
    {
        "start": "1373.6",
        "dur": "6.5",
        "text": "payments less sure a feeling of"
    },
    {
        "start": "1376.5",
        "dur": "7.269",
        "text": "insecurity spread throughout the country"
    },
    {
        "start": "1380.1",
        "dur": "8.59",
        "text": "enterprise was deadened and stagnation"
    },
    {
        "start": "1383.769",
        "dur": "7.471",
        "text": "followed new issues of paper were then"
    },
    {
        "start": "1388.69",
        "dur": "5.91",
        "text": "clamored for as more drams are demanded"
    },
    {
        "start": "1391.24",
        "dur": "6.45",
        "text": "by a drunkard new issues not only"
    },
    {
        "start": "1394.6",
        "dur": "4.679",
        "text": "increased the evil capitalists were all"
    },
    {
        "start": "1397.69",
        "dur": "5.31",
        "text": "the more reluctant to embark their money"
    },
    {
        "start": "1399.279",
        "dur": "5.64",
        "text": "on such a sea of doubt workmen of all"
    },
    {
        "start": "1403",
        "dur": "5.669",
        "text": "sorts were more and more thrown out of"
    },
    {
        "start": "1404.919",
        "dur": "7.081",
        "text": "employment issue after issue of currency"
    },
    {
        "start": "1408.669",
        "dur": "5.73",
        "text": "came but no relief resulted save a"
    },
    {
        "start": "1412",
        "dur": "6.179",
        "text": "momentary stimulus which aggravated the"
    },
    {
        "start": "1414.399",
        "dur": "5.88",
        "text": "disease the most ingenious evasions of"
    },
    {
        "start": "1418.179",
        "dur": "4.071",
        "text": "clause in finance which the most subtle"
    },
    {
        "start": "1420.279",
        "dur": "6.24",
        "text": "theories could contrive were tried all"
    },
    {
        "start": "1422.25",
        "dur": "5.61",
        "text": "in vain the most brilliant substitutes"
    },
    {
        "start": "1426.519",
        "dur": "4.051",
        "text": "for those laws were tried"
    },
    {
        "start": "1427.86",
        "dur": "7.96",
        "text": "self-regulating schemes interconverting"
    },
    {
        "start": "1430.57",
        "dur": "11.37",
        "text": "schemes all equally vain all thoughtful"
    },
    {
        "start": "1435.82",
        "dur": "9.959",
        "text": "men had lust confidence all men were"
    },
    {
        "start": "1441.94",
        "dur": "9.05",
        "text": "waiting the stagnation became worse and"
    },
    {
        "start": "1445.779",
        "dur": "9.721",
        "text": "worse the last came the collapse and"
    },
    {
        "start": "1450.99",
        "dur": "5.649",
        "text": "then a return by a fearful shock to a"
    },
    {
        "start": "1455.5",
        "dur": "4.049",
        "text": "state of things which presented"
    },
    {
        "start": "1456.639",
        "dur": "7.231",
        "text": "something like certainty of renew maury"
    },
    {
        "start": "1459.549",
        "dur": "6.48",
        "text": "shinto capital and labour then and not"
    },
    {
        "start": "1463.87",
        "dur": "5.029",
        "text": "till then came the beginning of a new"
    },
    {
        "start": "1466.029",
        "dur": "2.87",
        "text": "era of prosperity"
    },
    {
        "start": "1470.37",
        "dur": "8.02",
        "text": "just as dependent on the law of cause"
    },
    {
        "start": "1473.32",
        "dur": "7.47",
        "text": "and effect was the moral development out"
    },
    {
        "start": "1478.39",
        "dur": "6",
        "text": "of the inflation of prices grew his"
    },
    {
        "start": "1480.79",
        "dur": "5.13",
        "text": "speculating class and in the complete"
    },
    {
        "start": "1484.39",
        "dur": "4.77",
        "text": "uncertainty as to the future all"
    },
    {
        "start": "1485.92",
        "dur": "8.31",
        "text": "business became a game of chance and all"
    },
    {
        "start": "1489.16",
        "dur": "7.23",
        "text": "businessmen gamblers in city centres"
    },
    {
        "start": "1494.23",
        "dur": "5.16",
        "text": "came a quick growth of stuck jabbers and"
    },
    {
        "start": "1496.39",
        "dur": "4.86",
        "text": "speculators and these set a debasing"
    },
    {
        "start": "1499.39",
        "dur": "5.61",
        "text": "fashion in business which spread to the"
    },
    {
        "start": "1501.25",
        "dur": "5.7",
        "text": "remotest parts of the country instead of"
    },
    {
        "start": "1505",
        "dur": "4.82",
        "text": "satisfaction with legitimate profits"
    },
    {
        "start": "1506.95",
        "dur": "6.41",
        "text": "came a passion for inordinate gains"
    },
    {
        "start": "1509.82",
        "dur": "6.37",
        "text": "think CEO salaries in the modern world"
    },
    {
        "start": "1513.36",
        "dur": "5.35",
        "text": "then to as values became more and more"
    },
    {
        "start": "1516.19",
        "dur": "4.35",
        "text": "uncertain there was no longer any motive"
    },
    {
        "start": "1518.71",
        "dur": "3.75",
        "text": "for care or economy with every motive"
    },
    {
        "start": "1520.54",
        "dur": "5.519",
        "text": "for immediate expenditure and present"
    },
    {
        "start": "1522.46",
        "dur": "8.28",
        "text": "enjoyment so came upon the nation the"
    },
    {
        "start": "1526.059",
        "dur": "6.24",
        "text": "obliteration of thrift in this mania for"
    },
    {
        "start": "1530.74",
        "dur": "3.96",
        "text": "yielding to present enjoyment rather"
    },
    {
        "start": "1532.299",
        "dur": "5.061",
        "text": "than providing for future comfort were"
    },
    {
        "start": "1534.7",
        "dur": "6.979",
        "text": "the seeds of new growths of wretchedness"
    },
    {
        "start": "1537.36",
        "dur": "8.949",
        "text": "luxury senseless and extravagant set in"
    },
    {
        "start": "1541.679",
        "dur": "6.791",
        "text": "this to spread as a fashion to feed it"
    },
    {
        "start": "1546.309",
        "dur": "3.87",
        "text": "there came chetori in the nation at"
    },
    {
        "start": "1548.47",
        "dur": "5.579",
        "text": "large and corruption among officials and"
    },
    {
        "start": "1550.179",
        "dur": "5.791",
        "text": "persons holding trusts while men set"
    },
    {
        "start": "1554.049",
        "dur": "3.931",
        "text": "sucks fashions in private and official"
    },
    {
        "start": "1555.97",
        "dur": "3.6",
        "text": "business women set fashions of"
    },
    {
        "start": "1557.98",
        "dur": "4.55",
        "text": "extravagance in dress and living that"
    },
    {
        "start": "1559.57",
        "dur": "6.51",
        "text": "added to the incentives to corruption"
    },
    {
        "start": "1562.53",
        "dur": "6.34",
        "text": "faith in moral considerations or even in"
    },
    {
        "start": "1566.08",
        "dur": "8.089",
        "text": "good impulses yielded to general"
    },
    {
        "start": "1568.87",
        "dur": "9.08",
        "text": "mistrust national honor was thought a"
    },
    {
        "start": "1574.169",
        "dur": "9.031",
        "text": "fiction cherished only by Hippocrates"
    },
    {
        "start": "1577.95",
        "dur": "8.229",
        "text": "patriotism was eaten out by cynicism and"
    },
    {
        "start": "1583.2",
        "dur": "4.93",
        "text": "here just by the by we can see the same"
    },
    {
        "start": "1586.179",
        "dur": "3.24",
        "text": "trends in postmodern philosophy with the"
    },
    {
        "start": "1588.13",
        "dur": "7.23",
        "text": "depreciation of currencies around the"
    },
    {
        "start": "1589.419",
        "dur": "7.411",
        "text": "world to continue thus was the history"
    },
    {
        "start": "1595.36",
        "dur": "4.11",
        "text": "of France logically developed in"
    },
    {
        "start": "1596.83",
        "dur": "5.01",
        "text": "obedient to natural laws such as to a"
    },
    {
        "start": "1599.47",
        "dur": "4.05",
        "text": "greater or lesser degree always"
    },
    {
        "start": "1601.84",
        "dur": "3.089",
        "text": "been the result of irredeemable paper"
    },
    {
        "start": "1603.52",
        "dur": "3.36",
        "text": "created according to the whim or"
    },
    {
        "start": "1604.929",
        "dur": "4.141",
        "text": "interest of legislative assemblies"
    },
    {
        "start": "1606.88",
        "dur": "4.59",
        "text": "rather than based upon standards a value"
    },
    {
        "start": "1609.07",
        "dur": "6.33",
        "text": "permanent in their nature and agreed"
    },
    {
        "start": "1611.47",
        "dur": "5.4",
        "text": "upon throughout the entire world such we"
    },
    {
        "start": "1615.4",
        "dur": "3.3",
        "text": "might fairly expect will always be the"
    },
    {
        "start": "1616.87",
        "dur": "3.27",
        "text": "result of them until the Fiat of the"
    },
    {
        "start": "1618.7",
        "dur": "2.849",
        "text": "almighty shall evolve laws in the"
    },
    {
        "start": "1620.14",
        "dur": "6.96",
        "text": "universe radically different from those"
    },
    {
        "start": "1621.549",
        "dur": "7.26",
        "text": "which had present obtained and finally"
    },
    {
        "start": "1627.1",
        "dur": "3.72",
        "text": "as to the general development of theory"
    },
    {
        "start": "1628.809",
        "dur": "6.12",
        "text": "and practice to which all this history"
    },
    {
        "start": "1630.82",
        "dur": "6.9",
        "text": "records my subject has been fiat money"
    },
    {
        "start": "1634.929",
        "dur": "7.411",
        "text": "in france how it came what had brought"
    },
    {
        "start": "1637.72",
        "dur": "8.04",
        "text": "and how it ended it came by seeking a"
    },
    {
        "start": "1642.34",
        "dur": "5.689",
        "text": "remedy for a comparatively small evil in"
    },
    {
        "start": "1645.76",
        "dur": "4.56",
        "text": "an evil infinitely more dangerous to"
    },
    {
        "start": "1648.029",
        "dur": "4.601",
        "text": "cure a disease temporary in its"
    },
    {
        "start": "1650.32",
        "dur": "4.89",
        "text": "character a corrosive poison was"
    },
    {
        "start": "1652.63",
        "dur": "7.26",
        "text": "administered which ate out the vitals of"
    },
    {
        "start": "1655.21",
        "dur": "6.689",
        "text": "french prosperity it progressed"
    },
    {
        "start": "1659.89",
        "dur": "3.81",
        "text": "according to a law in social physics"
    },
    {
        "start": "1661.899",
        "dur": "6.63",
        "text": "which we may call the law of"
    },
    {
        "start": "1663.7",
        "dur": "7.17",
        "text": "accelerating issue and depreciation it"
    },
    {
        "start": "1668.529",
        "dur": "5.551",
        "text": "was comparatively easy to refrain from"
    },
    {
        "start": "1670.87",
        "dur": "6.15",
        "text": "the first issue it was exceedingly"
    },
    {
        "start": "1674.08",
        "dur": "4.199",
        "text": "difficult to refrain from the second to"
    },
    {
        "start": "1677.02",
        "dur": "6.06",
        "text": "refrain from the third and those"
    },
    {
        "start": "1678.279",
        "dur": "7.591",
        "text": "following was practically impossible it"
    },
    {
        "start": "1683.08",
        "dur": "4.979",
        "text": "brought as we have seen commerce and"
    },
    {
        "start": "1685.87",
        "dur": "6.049",
        "text": "manufacturers the mercantile interests"
    },
    {
        "start": "1688.059",
        "dur": "6.391",
        "text": "the agricultural interest to ruin it"
    },
    {
        "start": "1691.919",
        "dur": "4.541",
        "text": "brought on these the same destruction"
    },
    {
        "start": "1694.45",
        "dur": "3.42",
        "text": "which would come to a Hollander opening"
    },
    {
        "start": "1696.46",
        "dur": "7.17",
        "text": "the dikes of the sea to irrigate his"
    },
    {
        "start": "1697.87",
        "dur": "9.409",
        "text": "garden in a dry summer it ended in the"
    },
    {
        "start": "1703.63",
        "dur": "8.64",
        "text": "complete financial moral and political"
    },
    {
        "start": "1707.279",
        "dur": "8.671",
        "text": "prostration of France a prostration from"
    },
    {
        "start": "1712.27",
        "dur": "6.6",
        "text": "which only a Napoleon could raise it or"
    },
    {
        "start": "1715.95",
        "dur": "8.44",
        "text": "we may say any kind of modern militarism"
    },
    {
        "start": "1718.87",
        "dur": "6.75",
        "text": "like bush or Blair to continue but this"
    },
    {
        "start": "1724.39",
        "dur": "3.149",
        "text": "history would be incomplete without a"
    },
    {
        "start": "1725.62",
        "dur": "5.87",
        "text": "brief sequel showing how that great"
    },
    {
        "start": "1727.539",
        "dur": "6.361",
        "text": "genius profited by all his experience"
    },
    {
        "start": "1731.49",
        "dur": "4.24",
        "text": "when Bonaparte"
    },
    {
        "start": "1733.9",
        "dur": "4.41",
        "text": "took the consulship the condition our"
    },
    {
        "start": "1735.73",
        "dur": "4.26",
        "text": "fiscal affairs was appalling the"
    },
    {
        "start": "1738.31",
        "dur": "4.98",
        "text": "government was bankrupt an immense debt"
    },
    {
        "start": "1739.99",
        "dur": "5.52",
        "text": "was unpaid the further collection of"
    },
    {
        "start": "1743.29",
        "dur": "5.31",
        "text": "taxes seemed impossible the assessments"
    },
    {
        "start": "1745.51",
        "dur": "5.52",
        "text": "were in hopeless confusion war was going"
    },
    {
        "start": "1748.6",
        "dur": "7.35",
        "text": "on in the east on the Rhine and in Italy"
    },
    {
        "start": "1751.03",
        "dur": "6.84",
        "text": "and civil war in levante all the armies"
    },
    {
        "start": "1755.95",
        "dur": "3.12",
        "text": "had long been unpaid and the largest"
    },
    {
        "start": "1757.87",
        "dur": "2.82",
        "text": "loan that could for the moment be"
    },
    {
        "start": "1759.07",
        "dur": "2.91",
        "text": "affected was for a sum hardly meeting"
    },
    {
        "start": "1760.69",
        "dur": "5.7",
        "text": "the expenses of the government for a"
    },
    {
        "start": "1761.98",
        "dur": "5.73",
        "text": "single day at the first cabinet council"
    },
    {
        "start": "1766.39",
        "dur": "5.97",
        "text": "Bonaparte was asked what he intended to"
    },
    {
        "start": "1767.71",
        "dur": "8.19",
        "text": "do he replied I will pay cash or pay"
    },
    {
        "start": "1772.36",
        "dur": "5.97",
        "text": "nothing from this time he conducted all"
    },
    {
        "start": "1775.9",
        "dur": "3.99",
        "text": "his operations on this basis he arranged"
    },
    {
        "start": "1778.33",
        "dur": "4.11",
        "text": "the assessments funded the debt and made"
    },
    {
        "start": "1779.89",
        "dur": "4.5",
        "text": "payments in cash and from this time"
    },
    {
        "start": "1782.44",
        "dur": "6.06",
        "text": "during all the campaigns in marengo"
    },
    {
        "start": "1784.39",
        "dur": "5.73",
        "text": "austral its yenna hi laughs redland down"
    },
    {
        "start": "1788.5",
        "dur": "3.99",
        "text": "to the piece of Tilsit it ain't a note 7"
    },
    {
        "start": "1790.12",
        "dur": "5.96",
        "text": "there was but one suspension of specie"
    },
    {
        "start": "1792.49",
        "dur": "6.03",
        "text": "payment and this only for a few days"
    },
    {
        "start": "1796.08",
        "dur": "4.06",
        "text": "when the first great European coalition"
    },
    {
        "start": "1798.52",
        "dur": "3.99",
        "text": "was formed against the Empire Napoleon"
    },
    {
        "start": "1800.14",
        "dur": "5.13",
        "text": "was hard-pressed financially and it was"
    },
    {
        "start": "1802.51",
        "dur": "5.91",
        "text": "proposed to resort to pay for money but"
    },
    {
        "start": "1805.27",
        "dur": "7.64",
        "text": "he wrote to his minister while I live I"
    },
    {
        "start": "1808.42",
        "dur": "8.22",
        "text": "will never resort to irredeemable paper"
    },
    {
        "start": "1812.91",
        "dur": "6.16",
        "text": "he never did in France under this"
    },
    {
        "start": "1816.64",
        "dur": "5.64",
        "text": "determination commanded all the gold she"
    },
    {
        "start": "1819.07",
        "dur": "4.89",
        "text": "needed when Waterloo came with the"
    },
    {
        "start": "1822.28",
        "dur": "4.02",
        "text": "invasion of the Allies with war on her"
    },
    {
        "start": "1823.96",
        "dur": "3.6",
        "text": "own soil with a change of dynasty and"
    },
    {
        "start": "1826.3",
        "dur": "5.48",
        "text": "with heavy expenses for Warren"
    },
    {
        "start": "1827.56",
        "dur": "9.32",
        "text": "indemnities france on a specie basis"
    },
    {
        "start": "1831.78",
        "dur": "7.51",
        "text": "experienced no severe financial distress"
    },
    {
        "start": "1836.88",
        "dur": "4.36",
        "text": "if we glance at the financial history of"
    },
    {
        "start": "1839.29",
        "dur": "3.33",
        "text": "France during the franco-prussian war"
    },
    {
        "start": "1841.24",
        "dur": "3.06",
        "text": "and the Communist struggle in which a"
    },
    {
        "start": "1842.62",
        "dur": "4.08",
        "text": "far more serious pressure was brought"
    },
    {
        "start": "1844.3",
        "dur": "4.37",
        "text": "upon French finances than her own recent"
    },
    {
        "start": "1846.7",
        "dur": "4.26",
        "text": "civil war put upon American Finance and"
    },
    {
        "start": "1848.67",
        "dur": "3.97",
        "text": "yet with no national stagnation or"
    },
    {
        "start": "1850.96",
        "dur": "4.56",
        "text": "distressed but with a steady progress in"
    },
    {
        "start": "1852.64",
        "dur": "4.83",
        "text": "prosperity we shall see still more"
    },
    {
        "start": "1855.52",
        "dur": "3.48",
        "text": "clearly the advantage of meeting a"
    },
    {
        "start": "1857.47",
        "dur": "3.54",
        "text": "financial crisis in an honest and"
    },
    {
        "start": "1859",
        "dur": "3.51",
        "text": "straightforward way and by methods"
    },
    {
        "start": "1861.01",
        "dur": "4.92",
        "text": "sanctioned by the world's most costly"
    },
    {
        "start": "1862.51",
        "dur": "5.31",
        "text": "experience rather than by yielding to"
    },
    {
        "start": "1865.93",
        "dur": "4.92",
        "text": "dreamers theorists"
    },
    {
        "start": "1867.82",
        "dur": "6.84",
        "text": "phrase mongers de claimers schemers"
    },
    {
        "start": "1870.85",
        "dur": "9.84",
        "text": "speculators or that sort of reform which"
    },
    {
        "start": "1874.66",
        "dur": "10.14",
        "text": "is the last refuge of a scoundrel there"
    },
    {
        "start": "1880.69",
        "dur": "9.41",
        "text": "is a lesson in all this which it"
    },
    {
        "start": "1884.8",
        "dur": "5.3",
        "text": "behooves every thinking man to ponder"
    },
    {
        "start": "1890.28",
        "dur": "5.85",
        "text": "this is stefan molyneux from freedomain"
    },
    {
        "start": "1892.3",
        "dur": "3.83",
        "text": "radio thank you so much for listening"
    }
]