[
    {
        "start": "3.39",
        "dur": "3.879",
        "text": "hi everybody it's defend molyneux from"
    },
    {
        "start": "5.59",
        "dur": "3.03",
        "text": "freedomain radio I hope that you are"
    },
    {
        "start": "7.269",
        "dur": "3.771",
        "text": "doing well I just have one thing to say"
    },
    {
        "start": "8.62",
        "dur": "5.72",
        "text": "before we start which is"
    },
    {
        "start": "11.04",
        "dur": "6.92",
        "text": "I have done it my brothers and sisters I"
    },
    {
        "start": "14.34",
        "dur": "6.24",
        "text": "have finished the book the book"
    },
    {
        "start": "17.96",
        "dur": "8.13",
        "text": "universally preferable behavior a"
    },
    {
        "start": "20.58",
        "dur": "7.609",
        "text": "rational proof of secular ethics it is a"
    },
    {
        "start": "26.09",
        "dur": "5.279",
        "text": "magnificent work if I do say so myself"
    },
    {
        "start": "28.189",
        "dur": "6.341",
        "text": "we have nice tables there's a full index"
    },
    {
        "start": "31.369",
        "dur": "4.96",
        "text": "we have a nice table of contents so that"
    },
    {
        "start": "34.53",
        "dur": "4.65",
        "text": "you can find what it is that you're"
    },
    {
        "start": "36.329",
        "dur": "4.881",
        "text": "looking for it's nicely laid out and it"
    },
    {
        "start": "39.18",
        "dur": "4.29",
        "text": "is available now from freedomain radio"
    },
    {
        "start": "41.21",
        "dur": "4.72",
        "text": "dot-com I just go to the home page"
    },
    {
        "start": "43.47",
        "dur": "6.21",
        "text": "there's a nice big graphic wherein you"
    },
    {
        "start": "45.93",
        "dur": "7.16",
        "text": "can pick up the book and I strongly urge"
    },
    {
        "start": "49.68",
        "dur": "6.39",
        "text": "you to get this book for a coupla bucks"
    },
    {
        "start": "53.09",
        "dur": "6.04",
        "text": "wouldn't it be fantastic to know that we"
    },
    {
        "start": "56.07",
        "dur": "6.72",
        "text": "can be both moral and rational and that"
    },
    {
        "start": "59.13",
        "dur": "6.09",
        "text": "we can have morality without God's or"
    },
    {
        "start": "62.79",
        "dur": "4.439",
        "text": "governments ah it is the holy grail of"
    },
    {
        "start": "65.22",
        "dur": "4.469",
        "text": "philosophy at it's been sought since the"
    },
    {
        "start": "67.229",
        "dur": "4.861",
        "text": "time of Socrates I believe I have done"
    },
    {
        "start": "69.689",
        "dur": "4.411",
        "text": "it but it's important for of course for"
    },
    {
        "start": "72.09",
        "dur": "3.63",
        "text": "you to review that and I promise you one"
    },
    {
        "start": "74.1",
        "dur": "3.99",
        "text": "thing either i have done it in which"
    },
    {
        "start": "75.72",
        "dur": "3.9",
        "text": "case this is I guess quite revolutionary"
    },
    {
        "start": "78.09",
        "dur": "4.41",
        "text": "and something you'll definitely want to"
    },
    {
        "start": "79.62",
        "dur": "4.859",
        "text": "be a part of or I have failed in which"
    },
    {
        "start": "82.5",
        "dur": "4.049",
        "text": "case I promise you this i have failed"
    },
    {
        "start": "84.479",
        "dur": "4.291",
        "text": "not i haven't sort of leaned up against"
    },
    {
        "start": "86.549",
        "dur": "3.631",
        "text": "the wall i have basically taken a scud"
    },
    {
        "start": "88.77",
        "dur": "4.65",
        "text": "missile and written it at about mark"
    },
    {
        "start": "90.18",
        "dur": "5.28",
        "text": "1200 into the wall so it's going to be"
    },
    {
        "start": "93.42",
        "dur": "5.73",
        "text": "entertaining and edifying if I failed"
    },
    {
        "start": "95.46",
        "dur": "5.13",
        "text": "which I don't think that I have so I'm"
    },
    {
        "start": "99.15",
        "dur": "3.899",
        "text": "going to do whatever it takes to get"
    },
    {
        "start": "100.59",
        "dur": "6.75",
        "text": "this book into your hands it's cheap"
    },
    {
        "start": "103.049",
        "dur": "5.641",
        "text": "it's 20 21 bucks for the softcover from"
    },
    {
        "start": "107.34",
        "dur": "5.61",
        "text": "Lulu you can get it again through"
    },
    {
        "start": "108.69",
        "dur": "7.05",
        "text": "freedomain radio com it's 14 bucks I"
    },
    {
        "start": "112.95",
        "dur": "6.84",
        "text": "think or 15 bucks for the PDF 16 bucks"
    },
    {
        "start": "115.74",
        "dur": "5.34",
        "text": "for the mp3 audio book and if you don't"
    },
    {
        "start": "119.79",
        "dur": "2.97",
        "text": "like it like if you order did you don't"
    },
    {
        "start": "121.08",
        "dur": "3.359",
        "text": "like it I will absolutely give you your"
    },
    {
        "start": "122.76",
        "dur": "3.45",
        "text": "money back if you don't think it's a"
    },
    {
        "start": "124.439",
        "dur": "3.63",
        "text": "very good piece of work that it's a"
    },
    {
        "start": "126.21",
        "dur": "7.199",
        "text": "revolutionary I will absolutely give you"
    },
    {
        "start": "128.069",
        "dur": "6.571",
        "text": "your money back and if you if you feel"
    },
    {
        "start": "133.409",
        "dur": "2.701",
        "text": "that you've wasted your time I will"
    },
    {
        "start": "134.64",
        "dur": "3.54",
        "text": "absolutely personally apologize to you"
    },
    {
        "start": "136.11",
        "dur": "3.599",
        "text": "and if you can't afford it for whatever"
    },
    {
        "start": "138.18",
        "dur": "3.539",
        "text": "reason I don't have access to a credit"
    },
    {
        "start": "139.709",
        "dur": "3.29",
        "text": "card you can mail me a check just send"
    },
    {
        "start": "141.719",
        "dur": "3.241",
        "text": "me an email i send you my address"
    },
    {
        "start": "142.999",
        "dur": "3.971",
        "text": "failing all of that I will just"
    },
    {
        "start": "144.96",
        "dur": "3.75",
        "text": "send you a free copy and you can pay me"
    },
    {
        "start": "146.97",
        "dur": "3.63",
        "text": "whenever you like whatever it takes to"
    },
    {
        "start": "148.71",
        "dur": "4.5",
        "text": "get this book into your hands this is"
    },
    {
        "start": "150.6",
        "dur": "5.25",
        "text": "the the new world I believe this is the"
    },
    {
        "start": "153.21",
        "dur": "4.83",
        "text": "world that we have been waiting for to"
    },
    {
        "start": "155.85",
        "dur": "4.41",
        "text": "arrive so that we can get past all of"
    },
    {
        "start": "158.04",
        "dur": "3.96",
        "text": "this subjectivist muck about morality"
    },
    {
        "start": "160.26",
        "dur": "4.98",
        "text": "and define it as a rational and"
    },
    {
        "start": "162",
        "dur": "5.16",
        "text": "objective science so without further ado"
    },
    {
        "start": "165.24",
        "dur": "3.78",
        "text": "I've got to read you the first couple of"
    },
    {
        "start": "167.16",
        "dur": "5.7",
        "text": "pages this was a draft copy which I"
    },
    {
        "start": "169.02",
        "dur": "6.03",
        "text": "edited like mad and I will read you the"
    },
    {
        "start": "172.86",
        "dur": "6.36",
        "text": "first couple of pages and hopefully this"
    },
    {
        "start": "175.05",
        "dur": "7.2",
        "text": "will snare you in universally preferable"
    },
    {
        "start": "179.22",
        "dur": "6.38",
        "text": "behavior a rational proof of secular"
    },
    {
        "start": "182.25",
        "dur": "3.35",
        "text": "ethics forward"
    },
    {
        "start": "185.67",
        "dur": "5.73",
        "text": "in many fairy tales there lives a"
    },
    {
        "start": "188.52",
        "dur": "6.48",
        "text": "terrible beast of stupendous power"
    },
    {
        "start": "191.4",
        "dur": "6.66",
        "text": "dragon or basilisk which terrorizes the"
    },
    {
        "start": "195",
        "dur": "5.19",
        "text": "surrounding lands the local villagers"
    },
    {
        "start": "198.06",
        "dur": "5.19",
        "text": "tremble before this monster they"
    },
    {
        "start": "200.19",
        "dur": "4.92",
        "text": "sacrifice their animals pay money and"
    },
    {
        "start": "203.25",
        "dur": "4.58",
        "text": "blood in the hopes of appeasing its"
    },
    {
        "start": "205.11",
        "dur": "5.66",
        "text": "murderous impulses"
    },
    {
        "start": "207.83",
        "dur": "5.78",
        "text": "most people cower under the shadow of"
    },
    {
        "start": "210.77",
        "dur": "6.99",
        "text": "this beast calling their fear prudence"
    },
    {
        "start": "213.61",
        "dur": "8.41",
        "text": "but a few drunk perhaps on courage or"
    },
    {
        "start": "217.76",
        "dur": "7.32",
        "text": "foolhardiness decides to fight year"
    },
    {
        "start": "222.02",
        "dur": "5.88",
        "text": "after year decade after decade wave"
    },
    {
        "start": "225.08",
        "dur": "5.64",
        "text": "after wave of hopeful champions try to"
    },
    {
        "start": "227.9",
        "dur": "7.22",
        "text": "match their strength virtue and cunning"
    },
    {
        "start": "230.72",
        "dur": "7.4",
        "text": "against this terrible tyrant try and"
    },
    {
        "start": "235.12",
        "dur": "3",
        "text": "fail"
    },
    {
        "start": "238.62",
        "dur": "4.86",
        "text": "the Beast is always immortal so the"
    },
    {
        "start": "241.319",
        "dur": "4.411",
        "text": "villagers cannot hope for time to rid"
    },
    {
        "start": "243.48",
        "dur": "5.58",
        "text": "them of their death spot the Beast is"
    },
    {
        "start": "245.73",
        "dur": "5.399",
        "text": "never rational and has no desire to"
    },
    {
        "start": "249.06",
        "dur": "4.47",
        "text": "trade and so no negotiations are"
    },
    {
        "start": "251.129",
        "dur": "5.191",
        "text": "possible"
    },
    {
        "start": "253.53",
        "dur": "8.15",
        "text": "the desperate villagers only hope is for"
    },
    {
        "start": "256.32",
        "dur": "5.36",
        "text": "a man to appear who can defeat the beast"
    },
    {
        "start": "261.73",
        "dur": "4.2",
        "text": "inevitably a man steps forward who"
    },
    {
        "start": "263.77",
        "dur": "5.79",
        "text": "strikes everyone is utterly incongruous"
    },
    {
        "start": "265.93",
        "dur": "6.45",
        "text": "he's a stable boy or a shoemakers son a"
    },
    {
        "start": "269.56",
        "dur": "5.04",
        "text": "baker's apprentice or sometimes just a"
    },
    {
        "start": "272.38",
        "dur": "6.69",
        "text": "vagabond"
    },
    {
        "start": "274.6",
        "dur": "8.72",
        "text": "this book is the story of my personal"
    },
    {
        "start": "279.07",
        "dur": "4.25",
        "text": "assault on just such a beast"
    },
    {
        "start": "284.06",
        "dur": "4.829",
        "text": "the Beast is the belief that it is"
    },
    {
        "start": "286.88",
        "dur": "6.18",
        "text": "impossible to define an objective"
    },
    {
        "start": "288.889",
        "dur": "8.731",
        "text": "rational secular and scientific ethical"
    },
    {
        "start": "293.06",
        "dur": "7.17",
        "text": "system this beast is the illusion that"
    },
    {
        "start": "297.62",
        "dur": "4.26",
        "text": "morality must forever be lost in the"
    },
    {
        "start": "300.23",
        "dur": "3.62",
        "text": "irrational swamps of gods and"
    },
    {
        "start": "301.88",
        "dur": "4.8",
        "text": "governments enforced for merely"
    },
    {
        "start": "303.85",
        "dur": "5.28",
        "text": "pragmatic reasons but forever lacking"
    },
    {
        "start": "306.68",
        "dur": "4.82",
        "text": "logical justification and clear"
    },
    {
        "start": "309.13",
        "dur": "6.12",
        "text": "definition"
    },
    {
        "start": "311.5",
        "dur": "7.73",
        "text": "this beast is the fantasy that virtue"
    },
    {
        "start": "315.25",
        "dur": "7.38",
        "text": "our greatest joy our deepest happiness"
    },
    {
        "start": "319.23",
        "dur": "7.24",
        "text": "must be cast aside by secular grown-ups"
    },
    {
        "start": "322.63",
        "dur": "6.75",
        "text": "and left in the dust to be poured at"
    },
    {
        "start": "326.47",
        "dur": "8.43",
        "text": "paraded and exploited by politicians and"
    },
    {
        "start": "329.38",
        "dur": "7.47",
        "text": "priests and parents this beast is the"
    },
    {
        "start": "334.9",
        "dur": "3.96",
        "text": "superstition that without the tirades of"
    },
    {
        "start": "336.85",
        "dur": "4.5",
        "text": "parents the bullying of gods or the guns"
    },
    {
        "start": "338.86",
        "dur": "6.71",
        "text": "of governments we cannot be both"
    },
    {
        "start": "341.35",
        "dur": "4.22",
        "text": "rational and good"
    },
    {
        "start": "346.54",
        "dur": "6.05",
        "text": "this beast has brought down many great"
    },
    {
        "start": "349.9",
        "dur": "7.28",
        "text": "heroes from Socrates to Plato to"
    },
    {
        "start": "352.59",
        "dur": "10.699",
        "text": "Augustine to hume to Kent to rant"
    },
    {
        "start": "357.18",
        "dur": "6.109",
        "text": "the cost to mankind has been enormous"
    },
    {
        "start": "363.43",
        "dur": "4.22",
        "text": "since we have remained unable to define"
    },
    {
        "start": "365.86",
        "dur": "4.77",
        "text": "a rational system of universal morality"
    },
    {
        "start": "367.65",
        "dur": "5.98",
        "text": "we have been forced to inflict religious"
    },
    {
        "start": "370.63",
        "dur": "6.15",
        "text": "horror stories on our children or give"
    },
    {
        "start": "373.63",
        "dur": "5.49",
        "text": "guns prisons and armies to a small"
    },
    {
        "start": "376.78",
        "dur": "6.44",
        "text": "monopoly of soulless controllers who"
    },
    {
        "start": "379.12",
        "dur": "4.1",
        "text": "call themselves the state"
    },
    {
        "start": "383.889",
        "dur": "8.761",
        "text": "since what we call ethics remains"
    },
    {
        "start": "387.87",
        "dur": "7.379",
        "text": "subjective and merely cultural we"
    },
    {
        "start": "392.65",
        "dur": "5.729",
        "text": "inevitably end up relying on bullying"
    },
    {
        "start": "395.249",
        "dur": "6.88",
        "text": "fear and violence to enforce social"
    },
    {
        "start": "398.379",
        "dur": "6.051",
        "text": "rules since ethics lack the rational"
    },
    {
        "start": "402.129",
        "dur": "5.91",
        "text": "basis of the scientific method quote"
    },
    {
        "start": "404.43",
        "dur": "6.459",
        "text": "morality remains mired in a tribal war"
    },
    {
        "start": "408.039",
        "dur": "5.011",
        "text": "of bloody mythologies each gang fighting"
    },
    {
        "start": "410.889",
        "dur": "6.08",
        "text": "tooth and nail for control over people's"
    },
    {
        "start": "413.05",
        "dur": "3.919",
        "text": "allegiance to virtue"
    },
    {
        "start": "417.67",
        "dur": "8.55",
        "text": "we cannot live without morality but we"
    },
    {
        "start": "422.62",
        "dur": "7.65",
        "text": "cannot define morality objectively thus"
    },
    {
        "start": "426.22",
        "dur": "7.44",
        "text": "we remained eternally condemned to empty"
    },
    {
        "start": "430.27",
        "dur": "8.15",
        "text": "lives of pompous hypocrisy cynical"
    },
    {
        "start": "433.66",
        "dur": "4.76",
        "text": "dominance or pious slavery"
    },
    {
        "start": "439.76",
        "dur": "5.08",
        "text": "intellectually there are no higher"
    },
    {
        "start": "441.84",
        "dur": "5.49",
        "text": "stakes in the world our failure to"
    },
    {
        "start": "444.84",
        "dur": "5.16",
        "text": "define objective and rational moral"
    },
    {
        "start": "447.33",
        "dur": "5.82",
        "text": "rules has cost hundreds of millions of"
    },
    {
        "start": "450",
        "dur": "8.25",
        "text": "human lives in the wars of religions and"
    },
    {
        "start": "453.15",
        "dur": "7.76",
        "text": "states in many ways the stakes are"
    },
    {
        "start": "458.25",
        "dur": "4.46",
        "text": "getting even higher"
    },
    {
        "start": "460.91",
        "dur": "3.96",
        "text": "the increased information flow of the"
    },
    {
        "start": "462.71",
        "dur": "3.62",
        "text": "internet has raised the suspicions of a"
    },
    {
        "start": "464.87",
        "dur": "7.47",
        "text": "new generation that what is called"
    },
    {
        "start": "466.33",
        "dur": "7.96",
        "text": "virtue is nothing more or less than the"
    },
    {
        "start": "472.34",
        "dur": "5.64",
        "text": "self-serving fairy tales of their"
    },
    {
        "start": "474.29",
        "dur": "5.91",
        "text": "hypocritical elders the pious lies told"
    },
    {
        "start": "477.98",
        "dur": "4.71",
        "text": "by those in authority and the complicity"
    },
    {
        "start": "480.2",
        "dur": "5.51",
        "text": "of those who worship them are clearer"
    },
    {
        "start": "482.69",
        "dur": "6.61",
        "text": "now than ever before"
    },
    {
        "start": "485.71",
        "dur": "8.94",
        "text": "truth has been exposed as manipulation"
    },
    {
        "start": "489.3",
        "dur": "8.47",
        "text": "virtue as control loyalty it's slavery"
    },
    {
        "start": "494.65",
        "dur": "5.07",
        "text": "and what is called morality has been"
    },
    {
        "start": "497.77",
        "dur": "4.2",
        "text": "revealed as a ridiculous puppet show"
    },
    {
        "start": "499.72",
        "dur": "6.5",
        "text": "designed to trick weak and fearful"
    },
    {
        "start": "501.97",
        "dur": "4.25",
        "text": "people into enslaving themselves"
    },
    {
        "start": "508.03",
        "dur": "4.35",
        "text": "this realization has given birth to a"
    },
    {
        "start": "510.49",
        "dur": "4.94",
        "text": "new generation of nihilists just as it"
    },
    {
        "start": "512.38",
        "dur": "5.52",
        "text": "did in 19th century Germany these"
    },
    {
        "start": "515.43",
        "dur": "4.24",
        "text": "extreme relativists reserved their most"
    },
    {
        "start": "517.9",
        "dur": "5",
        "text": "vitriolic attacks for anyone who claims"
    },
    {
        "start": "519.67",
        "dur": "3.23",
        "text": "any form of certainty"
    },
    {
        "start": "523.05",
        "dur": "4.86",
        "text": "this post modern generation has outgrown"
    },
    {
        "start": "525.72",
        "dur": "4.26",
        "text": "the cultural bigotries of their"
    },
    {
        "start": "527.91",
        "dur": "6.33",
        "text": "collective histories but now view all"
    },
    {
        "start": "529.98",
        "dur": "6.93",
        "text": "truth as me a prejudicial assertion like"
    },
    {
        "start": "534.24",
        "dur": "5.46",
        "text": "wide-eyed children who have been scarred"
    },
    {
        "start": "536.91",
        "dur": "5.28",
        "text": "into cynical wisdom they view all"
    },
    {
        "start": "539.7",
        "dur": "5.97",
        "text": "communication as advertising all claims"
    },
    {
        "start": "542.19",
        "dur": "7.399",
        "text": "as propaganda and all moral exhortation"
    },
    {
        "start": "545.67",
        "dur": "3.919",
        "text": "as hypocritical thievery"
    },
    {
        "start": "551.49",
        "dur": "4.95",
        "text": "since we have no agreement on a cohesive"
    },
    {
        "start": "554.43",
        "dur": "4.61",
        "text": "objective and rational framework for"
    },
    {
        "start": "556.44",
        "dur": "6.39",
        "text": "evaluating moral propositions morality"
    },
    {
        "start": "559.04",
        "dur": "7.34",
        "text": "remains mired in mysticism and its"
    },
    {
        "start": "562.83",
        "dur": "6.16",
        "text": "inevitable corollary of violence"
    },
    {
        "start": "566.38",
        "dur": "4.83",
        "text": "just as prior to the Enlightenment"
    },
    {
        "start": "568.99",
        "dur": "3.69",
        "text": "religious sects ward endlessly for"
    },
    {
        "start": "571.21",
        "dur": "4.2",
        "text": "control over the blades of the"
    },
    {
        "start": "572.68",
        "dur": "4.47",
        "text": "aristocracy so now to complete competing"
    },
    {
        "start": "575.41",
        "dur": "3.84",
        "text": "moral mythologies war for control over"
    },
    {
        "start": "577.15",
        "dur": "4.7",
        "text": "the state and all its machinery of"
    },
    {
        "start": "579.25",
        "dur": "2.6",
        "text": "coercion"
    },
    {
        "start": "582.13",
        "dur": "5.28",
        "text": "thus morality remains relative to modern"
    },
    {
        "start": "584.86",
        "dur": "4.8",
        "text": "science just as medieval quote astronomy"
    },
    {
        "start": "587.41",
        "dur": "4.83",
        "text": "did to modern astronomy a realm of"
    },
    {
        "start": "589.66",
        "dur": "5.94",
        "text": "imaginary mythology enforced through"
    },
    {
        "start": "592.24",
        "dur": "6.15",
        "text": "storytelling threats compulsion and"
    },
    {
        "start": "595.6",
        "dur": "6.5",
        "text": "exploitation which actively bars any"
    },
    {
        "start": "598.39",
        "dur": "3.71",
        "text": "real progress towards the truth"
    },
    {
        "start": "602.47",
        "dur": "6.8",
        "text": "this beast of relativistic ethics looms"
    },
    {
        "start": "606.07",
        "dur": "5.76",
        "text": "above us preying on us justifying"
    },
    {
        "start": "609.27",
        "dur": "5.71",
        "text": "taxation imprisonment censorship and"
    },
    {
        "start": "611.83",
        "dur": "6.06",
        "text": "wars it enslaves the young in state"
    },
    {
        "start": "614.98",
        "dur": "5.7",
        "text": "schools and Sunday pues it ensnares the"
    },
    {
        "start": "617.89",
        "dur": "5.85",
        "text": "poor in the soft gulags of welfare it"
    },
    {
        "start": "620.68",
        "dur": "7.37",
        "text": "enslaves even the unborn in the"
    },
    {
        "start": "623.74",
        "dur": "4.31",
        "text": "bottomless well of national debts"
    },
    {
        "start": "629.75",
        "dur": "4.71",
        "text": "as I wrote in my previous book on truth"
    },
    {
        "start": "632.33",
        "dur": "4.08",
        "text": "the tyranny of illusion the most"
    },
    {
        "start": "634.46",
        "dur": "5.22",
        "text": "fundamental lie at the center of"
    },
    {
        "start": "636.41",
        "dur": "4.98",
        "text": "unproven ethical theories is that such"
    },
    {
        "start": "639.68",
        "dur": "3.87",
        "text": "theories are always presented to"
    },
    {
        "start": "641.39",
        "dur": "4.5",
        "text": "children as objective and"
    },
    {
        "start": "643.55",
        "dur": "8.01",
        "text": "incontrovertible facts when in truth"
    },
    {
        "start": "645.89",
        "dur": "7.8",
        "text": "they are mere cultural bigotries the"
    },
    {
        "start": "651.56",
        "dur": "3.42",
        "text": "reason that scientists do not need a"
    },
    {
        "start": "653.69",
        "dur": "3.33",
        "text": "government or a Vatican is that"
    },
    {
        "start": "654.98",
        "dur": "4.68",
        "text": "scientists have an objective methodology"
    },
    {
        "start": "657.02",
        "dur": "6.06",
        "text": "for resolving disputes the scientific"
    },
    {
        "start": "659.66",
        "dur": "5.22",
        "text": "method the reason that language does not"
    },
    {
        "start": "663.08",
        "dur": "3.84",
        "text": "need a central authority to guide its"
    },
    {
        "start": "664.88",
        "dur": "4.65",
        "text": "evolution is that it relies on the quote"
    },
    {
        "start": "666.92",
        "dur": "6.53",
        "text": "free market of accumulated individual"
    },
    {
        "start": "669.53",
        "dur": "3.92",
        "text": "preferences for style and utility"
    },
    {
        "start": "674.63",
        "dur": "4.41",
        "text": "the reason that"
    },
    {
        "start": "676.55",
        "dur": "5.55",
        "text": "modern morality and morality throughout"
    },
    {
        "start": "679.04",
        "dur": "4.38",
        "text": "history has always had to rely first on"
    },
    {
        "start": "682.1",
        "dur": "3.54",
        "text": "the bullying of children and then on a"
    },
    {
        "start": "683.42",
        "dur": "5.13",
        "text": "threatening of adults is that it is a"
    },
    {
        "start": "685.64",
        "dur": "5.63",
        "text": "manipulative lie masquerading as a"
    },
    {
        "start": "688.55",
        "dur": "7.07",
        "text": "virtuous truth"
    },
    {
        "start": "691.27",
        "dur": "8.88",
        "text": "the truth is that we need morality the"
    },
    {
        "start": "695.62",
        "dur": "10.16",
        "text": "lie is that God's or governments can"
    },
    {
        "start": "700.15",
        "dur": "5.63",
        "text": "rationally define or justly enforce it"
    },
    {
        "start": "707.4",
        "dur": "5.88",
        "text": "my goal in this book is to define a"
    },
    {
        "start": "710.61",
        "dur": "8.57",
        "text": "methodology for validating moral"
    },
    {
        "start": "713.28",
        "dur": "14.21",
        "text": "theories that is objective consistent"
    },
    {
        "start": "719.18",
        "dur": "8.31",
        "text": "clear rational empirical and true"
    },
    {
        "start": "728.47",
        "dur": "4.26",
        "text": "I'm fully aware that at the moment you"
    },
    {
        "start": "730.57",
        "dur": "4.56",
        "text": "will very likely be feeling a rising"
    },
    {
        "start": "732.73",
        "dur": "5.43",
        "text": "wave of skepticism I fully understand"
    },
    {
        "start": "735.13",
        "dur": "4.47",
        "text": "that the arch that some guy out here on"
    },
    {
        "start": "738.16",
        "dur": "3.3",
        "text": "the internet the home world of crazies"
    },
    {
        "start": "739.6",
        "dur": "3.75",
        "text": "has somehow solved the philosophical"
    },
    {
        "start": "741.46",
        "dur": "4.35",
        "text": "problem of the ages are not particularly"
    },
    {
        "start": "743.35",
        "dur": "4.37",
        "text": "high in fact they would be so close to"
    },
    {
        "start": "745.81",
        "dur": "6.17",
        "text": "zero as to be virtually"
    },
    {
        "start": "747.72",
        "dur": "8.42",
        "text": "indistinguishable from it still"
    },
    {
        "start": "751.98",
        "dur": "4.16",
        "text": "not quite zero"
    },
    {
        "start": "757.24",
        "dur": "5.55",
        "text": "ground rules extraordinary claims"
    },
    {
        "start": "760.18",
        "dur": "4.529",
        "text": "require extraordinary proof in taking on"
    },
    {
        "start": "762.79",
        "dur": "4.38",
        "text": "this mammoth task particularly in such a"
    },
    {
        "start": "764.709",
        "dur": "4.081",
        "text": "short book I have set myself some basic"
    },
    {
        "start": "767.17",
        "dur": "3.75",
        "text": "ground rules which are worth going over"
    },
    {
        "start": "768.79",
        "dur": "3.21",
        "text": "here most of these will be discussed in"
    },
    {
        "start": "770.92",
        "dur": "2.38",
        "text": "more detail throughout the course of"
    },
    {
        "start": "772",
        "dur": "4.87",
        "text": "this book"
    },
    {
        "start": "773.3",
        "dur": "6.33",
        "text": "one I fully accept the human distinction"
    },
    {
        "start": "776.87",
        "dur": "5.01",
        "text": "between is and ought valid moral rules"
    },
    {
        "start": "779.63",
        "dur": "4.8",
        "text": "cannot be directly derived from the"
    },
    {
        "start": "781.88",
        "dur": "4.35",
        "text": "existence of anything in reality the"
    },
    {
        "start": "784.43",
        "dur": "4.62",
        "text": "fact that human beings in general prefer"
    },
    {
        "start": "786.23",
        "dur": "5.76",
        "text": "to live and must successfully interact"
    },
    {
        "start": "789.05",
        "dur": "5.19",
        "text": "with reality in order to do so cannot be"
    },
    {
        "start": "791.99",
        "dur": "4.83",
        "text": "the basis for any valid theory of ethics"
    },
    {
        "start": "794.24",
        "dur": "5.52",
        "text": "some people clearly do not prefer to"
    },
    {
        "start": "796.82",
        "dur": "4.67",
        "text": "live and steadfastly reject reality so"
    },
    {
        "start": "799.76",
        "dur": "5.07",
        "text": "this definition of ethics remains"
    },
    {
        "start": "801.49",
        "dur": "7.63",
        "text": "subjective and conditional"
    },
    {
        "start": "804.83",
        "dur": "6.63",
        "text": "to ethics cannot objectively be defined"
    },
    {
        "start": "809.12",
        "dur": "4.98",
        "text": "as quote that which is good for man's"
    },
    {
        "start": "811.46",
        "dur": "5.01",
        "text": "survival certain individuals can survive"
    },
    {
        "start": "814.1",
        "dur": "3.78",
        "text": "very well by preying on others so this"
    },
    {
        "start": "816.47",
        "dur": "4.76",
        "text": "definition of ethics does not overcome"
    },
    {
        "start": "817.88",
        "dur": "5.79",
        "text": "the problem of subjectivism in"
    },
    {
        "start": "821.23",
        "dur": "4.51",
        "text": "biological terms this would be analogous"
    },
    {
        "start": "823.67",
        "dur": "4.11",
        "text": "to describing evolutionary tendencies as"
    },
    {
        "start": "825.74",
        "dur": "5.52",
        "text": "quote that which is good for life's"
    },
    {
        "start": "827.78",
        "dur": "5.07",
        "text": "survival this would make no sense human"
    },
    {
        "start": "831.26",
        "dur": "3.63",
        "text": "society is an ecosystem of competing"
    },
    {
        "start": "832.85",
        "dur": "5.55",
        "text": "interests just as the rainforest is and"
    },
    {
        "start": "834.89",
        "dur": "6.51",
        "text": "what is quote good for one man so often"
    },
    {
        "start": "838.4",
        "dur": "7.77",
        "text": "comes at the expense of another"
    },
    {
        "start": "841.4",
        "dur": "8.94",
        "text": "three I do not believe in any higher"
    },
    {
        "start": "846.17",
        "dur": "6.18",
        "text": "realm of ideal forms morality cannot be"
    },
    {
        "start": "850.34",
        "dur": "4.65",
        "text": "conceived of as existing in any other"
    },
    {
        "start": "852.35",
        "dur": "6.18",
        "text": "universe either material or immaterial"
    },
    {
        "start": "854.99",
        "dur": "5.73",
        "text": "if morality exists in some other realm"
    },
    {
        "start": "858.53",
        "dur": "4.53",
        "text": "it cannot then be subjected to a"
    },
    {
        "start": "860.72",
        "dur": "5.13",
        "text": "rigorous rational or empirical analysis"
    },
    {
        "start": "863.06",
        "dur": "5.55",
        "text": "and as Plato himself noted in the"
    },
    {
        "start": "865.85",
        "dur": "4.92",
        "text": "Republic society would thus require an"
    },
    {
        "start": "868.61",
        "dur": "5.72",
        "text": "elite cadre of philosopher Kings to"
    },
    {
        "start": "870.77",
        "dur": "6.18",
        "text": "communicate or more accurately enforce"
    },
    {
        "start": "874.33",
        "dur": "5.65",
        "text": "the incomprehensible edicts of this"
    },
    {
        "start": "876.95",
        "dur": "5.28",
        "text": "other realm upon everyone else"
    },
    {
        "start": "879.98",
        "dur": "3.99",
        "text": "this also does not solve the problem of"
    },
    {
        "start": "882.23",
        "dur": "4.44",
        "text": "subjectivism since that which is"
    },
    {
        "start": "883.97",
        "dur": "6.98",
        "text": "inaccessible to reason and evidence is"
    },
    {
        "start": "886.67",
        "dur": "4.28",
        "text": "by definition subjective"
    },
    {
        "start": "891.939",
        "dur": "5.19",
        "text": "for I do not believe that morality can"
    },
    {
        "start": "895.539",
        "dur": "5.28",
        "text": "be defined or determined with reference"
    },
    {
        "start": "897.129",
        "dur": "6.03",
        "text": "to quote arguments from effect or the"
    },
    {
        "start": "900.819",
        "dur": "4.92",
        "text": "predicted consequences of ethical"
    },
    {
        "start": "903.159",
        "dur": "3.63",
        "text": "propositions utilitarianism or the"
    },
    {
        "start": "905.739",
        "dur": "2.75",
        "text": "greatest good for the greatest number"
    },
    {
        "start": "906.789",
        "dur": "5.01",
        "text": "does not solve the problem of"
    },
    {
        "start": "908.489",
        "dur": "4.99",
        "text": "subjectivism since the odds of any"
    },
    {
        "start": "911.799",
        "dur": "3.57",
        "text": "central planner knowing what is"
    },
    {
        "start": "913.479",
        "dur": "3.51",
        "text": "objectively good for everyone else are"
    },
    {
        "start": "915.369",
        "dur": "3.81",
        "text": "about the same as any central economic"
    },
    {
        "start": "916.989",
        "dur": "4.35",
        "text": "planner knowing how to efficiently"
    },
    {
        "start": "919.179",
        "dur": "5.94",
        "text": "allocate resources in the absence of"
    },
    {
        "start": "921.339",
        "dur": "5.31",
        "text": "price effectively zero also that which"
    },
    {
        "start": "925.119",
        "dur": "3.24",
        "text": "is considered the greatest good for the"
    },
    {
        "start": "926.649",
        "dur": "4.47",
        "text": "greatest number changes according to"
    },
    {
        "start": "928.359",
        "dur": "5.22",
        "text": "culture knowledge time and circumstances"
    },
    {
        "start": "931.119",
        "dur": "5.4",
        "text": "which also fails to overcome the problem"
    },
    {
        "start": "933.579",
        "dur": "4.68",
        "text": "of subjectivism we do not judge the"
    },
    {
        "start": "936.519",
        "dur": "3.57",
        "text": "value of scientific experiments"
    },
    {
        "start": "938.259",
        "dur": "4.44",
        "text": "according to some Platonic higher realm"
    },
    {
        "start": "940.089",
        "dur": "3.99",
        "text": "or some utilitarian optimization they"
    },
    {
        "start": "942.699",
        "dur": "4.05",
        "text": "are judged in accordance with the"
    },
    {
        "start": "944.079",
        "dur": "5.391",
        "text": "scientific method I will take the same"
    },
    {
        "start": "946.749",
        "dur": "5.991",
        "text": "approach in this book"
    },
    {
        "start": "949.47",
        "dur": "6.6",
        "text": "I also refuse to define ethics as a"
    },
    {
        "start": "952.74",
        "dur": "4.92",
        "text": "positive law doctrine although it is"
    },
    {
        "start": "956.07",
        "dur": "5.01",
        "text": "generally accepted that legal systems"
    },
    {
        "start": "957.66",
        "dur": "5.4",
        "text": "are founded upon systems of ethics no"
    },
    {
        "start": "961.08",
        "dur": "3.66",
        "text": "one could argue that every law within"
    },
    {
        "start": "963.06",
        "dur": "4.05",
        "text": "every legal system is a perfect"
    },
    {
        "start": "964.74",
        "dur": "4.32",
        "text": "reflection of an ideal morality"
    },
    {
        "start": "967.11",
        "dur": "3.539",
        "text": "laws cannot directly mirror any"
    },
    {
        "start": "969.06",
        "dur": "3.2",
        "text": "objective theory of ethics since laws"
    },
    {
        "start": "970.649",
        "dur": "4.261",
        "text": "are in a continual state of flux"
    },
    {
        "start": "972.26",
        "dur": "5.44",
        "text": "constantly being overturned abandoned"
    },
    {
        "start": "974.91",
        "dur": "4.53",
        "text": "and invented and legal systems the world"
    },
    {
        "start": "977.7",
        "dur": "3.48",
        "text": "over are often in direct opposition to"
    },
    {
        "start": "979.44",
        "dur": "5.19",
        "text": "one another even at the theoretical"
    },
    {
        "start": "981.18",
        "dur": "5.31",
        "text": "level Sharia law is often directly"
    },
    {
        "start": "984.63",
        "dur": "4.769",
        "text": "opposed to anglo-saxon common law and"
    },
    {
        "start": "986.49",
        "dur": "5.099",
        "text": "the modern democratic mob rule process"
    },
    {
        "start": "989.399",
        "dur": "4.801",
        "text": "often seems more akin to a mafia"
    },
    {
        "start": "991.589",
        "dur": "5.361",
        "text": "shootout than a sober implementation of"
    },
    {
        "start": "994.2",
        "dur": "2.75",
        "text": "ethical ideals"
    },
    {
        "start": "997.48",
        "dur": "5.109",
        "text": "sixth I am fully open to the proposition"
    },
    {
        "start": "1000.07",
        "dur": "4.56",
        "text": "that there is no such thing as ethics at"
    },
    {
        "start": "1002.589",
        "dur": "4.591",
        "text": "all and that all systems of quote"
    },
    {
        "start": "1004.63",
        "dur": "4.8",
        "text": "morality are mere instruments of control"
    },
    {
        "start": "1007.18",
        "dur": "4.14",
        "text": "as Nietzsche argued so insistently in"
    },
    {
        "start": "1009.43",
        "dur": "3.45",
        "text": "this book I start from the assumption"
    },
    {
        "start": "1011.32",
        "dur": "5.31",
        "text": "that there is no such thing as ethics"
    },
    {
        "start": "1012.88",
        "dur": "6.29",
        "text": "and build a framework from there"
    },
    {
        "start": "1016.63",
        "dur": "6.079",
        "text": "seven"
    },
    {
        "start": "1019.17",
        "dur": "6.6",
        "text": "I do have great respect for the Ethical"
    },
    {
        "start": "1022.709",
        "dur": "6.09",
        "text": "instincts of mankind the near-universal"
    },
    {
        "start": "1025.77",
        "dur": "5.85",
        "text": "social prohibitions on murder rape"
    },
    {
        "start": "1028.799",
        "dur": "6.951",
        "text": "assault and theft are facts that any"
    },
    {
        "start": "1031.62",
        "dur": "6.23",
        "text": "rational ethicist discards at his peril"
    },
    {
        "start": "1035.75",
        "dur": "3.75",
        "text": "Aristotle argued that any ethical theory"
    },
    {
        "start": "1037.85",
        "dur": "4.14",
        "text": "that can be used to prove that rape is"
    },
    {
        "start": "1039.5",
        "dur": "5.25",
        "text": "moral must have something wrong with it"
    },
    {
        "start": "1041.99",
        "dur": "4.38",
        "text": "to say the least thus after I have"
    },
    {
        "start": "1044.75",
        "dur": "3.51",
        "text": "developed a framework for validating"
    },
    {
        "start": "1046.37",
        "dur": "3.48",
        "text": "ethical theories I've run these"
    },
    {
        "start": "1048.26",
        "dur": "3.81",
        "text": "generally accepted morrow premises"
    },
    {
        "start": "1049.85",
        "dur": "5.09",
        "text": "through that framework to see whether or"
    },
    {
        "start": "1052.07",
        "dur": "2.87",
        "text": "not they hold true"
    },
    {
        "start": "1055.08",
        "dur": "6.06",
        "text": "eight I respect your intelligence enough"
    },
    {
        "start": "1059.61",
        "dur": "4.289",
        "text": "to refrain from defining words like"
    },
    {
        "start": "1061.14",
        "dur": "4.23",
        "text": "reality reason integrity and so on we"
    },
    {
        "start": "1063.899",
        "dur": "4.13",
        "text": "have enough work to do without having to"
    },
    {
        "start": "1065.37",
        "dur": "2.659",
        "text": "reinvent the wheel"
    },
    {
        "start": "1068.67",
        "dur": "4.67",
        "text": "finally"
    },
    {
        "start": "1070.94",
        "dur": "3.9",
        "text": "I believe that any theory especially one"
    },
    {
        "start": "1073.34",
        "dur": "4.77",
        "text": "is fundamental as a theory of ethics"
    },
    {
        "start": "1074.84",
        "dur": "5.55",
        "text": "does little good if it merely confirms"
    },
    {
        "start": "1078.11",
        "dur": "5.97",
        "text": "what everybody already knows"
    },
    {
        "start": "1080.39",
        "dur": "5.61",
        "text": "instinctively I have not spent years of"
    },
    {
        "start": "1084.08",
        "dur": "3.81",
        "text": "my life working on a theory of ethics in"
    },
    {
        "start": "1086",
        "dur": "4.65",
        "text": "order to run around proving that who"
    },
    {
        "start": "1087.89",
        "dur": "3.93",
        "text": "murder is wrong in my view the best"
    },
    {
        "start": "1090.65",
        "dur": "2.16",
        "text": "theories of those which verify the"
    },
    {
        "start": "1091.82",
        "dur": "4.08",
        "text": "truths that we all intuitively"
    },
    {
        "start": "1092.81",
        "dur": "6.27",
        "text": "understand and then use those principles"
    },
    {
        "start": "1095.9",
        "dur": "6.62",
        "text": "to reveal new truths that may be"
    },
    {
        "start": "1099.08",
        "dur": "3.44",
        "text": "completely counterintuitive"
    },
    {
        "start": "1104.25",
        "dur": "4.53",
        "text": "having spent the last few years of my"
    },
    {
        "start": "1106.23",
        "dur": "5.46",
        "text": "life preparing training and then"
    },
    {
        "start": "1108.78",
        "dur": "5.07",
        "text": "combating this beast I hope I have"
    },
    {
        "start": "1111.69",
        "dur": "5.19",
        "text": "acquitted myself with some measure of"
    },
    {
        "start": "1113.85",
        "dur": "6.24",
        "text": "Honor I believe that I have emerged"
    },
    {
        "start": "1116.88",
        "dur": "5.37",
        "text": "victorious though not entirely unscathed"
    },
    {
        "start": "1120.09",
        "dur": "4.92",
        "text": "and I look forward to seeing who shares"
    },
    {
        "start": "1122.25",
        "dur": "4.86",
        "text": "this view of course if I have failed I"
    },
    {
        "start": "1125.01",
        "dur": "4.29",
        "text": "have at least failed spectacularly which"
    },
    {
        "start": "1127.11",
        "dur": "5.13",
        "text": "itself can be both edifying and"
    },
    {
        "start": "1129.3",
        "dur": "5.01",
        "text": "entertaining I studied the history"
    },
    {
        "start": "1132.24",
        "dur": "4.71",
        "text": "philosophy in graduate school and hold a"
    },
    {
        "start": "1134.31",
        "dur": "5.61",
        "text": "master's degree but I do not have a PhD"
    },
    {
        "start": "1136.95",
        "dur": "5.73",
        "text": "in philosophy I am far from a publicly"
    },
    {
        "start": "1139.92",
        "dur": "5.82",
        "text": "recognized intellectual while I may not"
    },
    {
        "start": "1142.68",
        "dur": "5.989",
        "text": "be the most unlikely champion I am also"
    },
    {
        "start": "1145.74",
        "dur": "6.379",
        "text": "far from the most likely"
    },
    {
        "start": "1148.669",
        "dur": "5.251",
        "text": "whether I have succeeded or not it's not"
    },
    {
        "start": "1152.119",
        "dur": "6.691",
        "text": "up to you"
    },
    {
        "start": "1153.92",
        "dur": "10.79",
        "text": "and it is not up to me if the reasoning"
    },
    {
        "start": "1158.81",
        "dur": "5.9",
        "text": "holds the greatest beast is down"
    },
    {
        "start": "1166.21",
        "dur": "4.03",
        "text": "so I hope that you will come by"
    },
    {
        "start": "1167.98",
        "dur": "5.89",
        "text": "freedomain radio com"
    },
    {
        "start": "1170.24",
        "dur": "4.83",
        "text": "pick up a copy of this book read through"
    },
    {
        "start": "1173.87",
        "dur": "4.2",
        "text": "it it shouldn't take you more than a day"
    },
    {
        "start": "1175.07",
        "dur": "4.38",
        "text": "or two and help me fill in the cracks if"
    },
    {
        "start": "1178.07",
        "dur": "3.15",
        "text": "there are any help me correct it if"
    },
    {
        "start": "1179.45",
        "dur": "4.8",
        "text": "there is anything wrong which I'm sure"
    },
    {
        "start": "1181.22",
        "dur": "4.32",
        "text": "there is but I think this is a great"
    },
    {
        "start": "1184.25",
        "dur": "3.36",
        "text": "leap forward in the realm of thought I"
    },
    {
        "start": "1185.54",
        "dur": "3.12",
        "text": "think it would be great for you to be in"
    },
    {
        "start": "1187.61",
        "dur": "2.91",
        "text": "there at the beginning I promise the"
    },
    {
        "start": "1188.66",
        "dur": "3.81",
        "text": "book will increase in value over time"
    },
    {
        "start": "1190.52",
        "dur": "3.69",
        "text": "whatever it is that I have to do to get"
    },
    {
        "start": "1192.47",
        "dur": "2.82",
        "text": "this book into your hands you just email"
    },
    {
        "start": "1194.21",
        "dur": "5",
        "text": "me and you let me know what the"
    },
    {
        "start": "1195.29",
        "dur": "3.92",
        "text": "conditions are and I will get you a copy"
    },
    {
        "start": "1199.5",
        "dur": "3.38",
        "text": "thank you so much for watching"
    },
    {
        "start": "1206.97",
        "dur": "2.06",
        "text": "you"
    }
]