[
    {
        "start": "0",
        "dur": "7.049",
        "text": "I around the edge of me Max Keiser let's"
    },
    {
        "start": "4.98",
        "dur": "5.1",
        "text": "go to Ontario Canada and talk with"
    },
    {
        "start": "7.049",
        "dur": "6.331",
        "text": "stefan molyneux a free domain radio"
    },
    {
        "start": "10.08",
        "dur": "4.92",
        "text": "stefan welcome to on the edge thank you"
    },
    {
        "start": "13.38",
        "dur": "3.84",
        "text": "max it's great to be here all right"
    },
    {
        "start": "15",
        "dur": "4.47",
        "text": "Stefan you believe in an economy based"
    },
    {
        "start": "17.22",
        "dur": "5.37",
        "text": "on volunteerism and I want to get into"
    },
    {
        "start": "19.47",
        "dur": "6.899",
        "text": "what volunteerism is but first let me"
    },
    {
        "start": "22.59",
        "dur": "7.32",
        "text": "just insert a little side note here when"
    },
    {
        "start": "26.369",
        "dur": "7.681",
        "text": "I see volunteerism I think such things"
    },
    {
        "start": "29.91",
        "dur": "6.87",
        "text": "as wikileaks.org which of course is a"
    },
    {
        "start": "34.05",
        "dur": "4.71",
        "text": "bunch of volunteers volunteering"
    },
    {
        "start": "36.78",
        "dur": "4.77",
        "text": "information to a central repository and"
    },
    {
        "start": "38.76",
        "dur": "5.91",
        "text": "has had an enormous impact in redefining"
    },
    {
        "start": "41.55",
        "dur": "4.829",
        "text": "the debate in Washington and around the"
    },
    {
        "start": "44.67",
        "dur": "4.26",
        "text": "world in terms of America's foreign"
    },
    {
        "start": "46.379",
        "dur": "4.5",
        "text": "policy or Wikipedia which are a bunch of"
    },
    {
        "start": "48.93",
        "dur": "4.969",
        "text": "volunteers adding submissions to a"
    },
    {
        "start": "50.879",
        "dur": "6.901",
        "text": "central repository that is basically"
    },
    {
        "start": "53.899",
        "dur": "6.761",
        "text": "maintained and upgraded by volunteers"
    },
    {
        "start": "57.78",
        "dur": "7.379",
        "text": "and so there's something in the economy"
    },
    {
        "start": "60.66",
        "dur": "6.93",
        "text": "that allows now for voluntary input in a"
    },
    {
        "start": "65.159",
        "dur": "6.661",
        "text": "way that we couldn't see before the"
    },
    {
        "start": "67.59",
        "dur": "6",
        "text": "digital age came upon us so is this kind"
    },
    {
        "start": "71.82",
        "dur": "4.619",
        "text": "of what I tell us a little about"
    },
    {
        "start": "73.59",
        "dur": "4.44",
        "text": "volunteerism if I am i near base in"
    },
    {
        "start": "76.439",
        "dur": "3.601",
        "text": "terms of my thoughts about it it was"
    },
    {
        "start": "78.03",
        "dur": "4.11",
        "text": "just a variation on the theme tell us"
    },
    {
        "start": "80.04",
        "dur": "3.899",
        "text": "about what volunteerism is you're"
    },
    {
        "start": "82.14",
        "dur": "3.81",
        "text": "describing one effect of volunteerism"
    },
    {
        "start": "83.939",
        "dur": "3.511",
        "text": "and the way that I would describe it"
    },
    {
        "start": "85.95",
        "dur": "4.14",
        "text": "which i think is pretty common coinage"
    },
    {
        "start": "87.45",
        "dur": "4.47",
        "text": "is to say that if we are going to"
    },
    {
        "start": "90.09",
        "dur": "3.66",
        "text": "organize society which we need to do in"
    },
    {
        "start": "91.92",
        "dur": "3.69",
        "text": "some way we need to organize it"
    },
    {
        "start": "93.75",
        "dur": "3.869",
        "text": "according to principles according to"
    },
    {
        "start": "95.61",
        "dur": "3.78",
        "text": "philosophical moral principles not just"
    },
    {
        "start": "97.619",
        "dur": "3.691",
        "text": "randomly not just based on the inertia"
    },
    {
        "start": "99.39",
        "dur": "3.57",
        "text": "of history but according to some real"
    },
    {
        "start": "101.31",
        "dur": "3.96",
        "text": "basic principles now one of the most"
    },
    {
        "start": "102.96",
        "dur": "3.689",
        "text": "basic principles in any rational moral"
    },
    {
        "start": "105.27",
        "dur": "3.12",
        "text": "philosophy is the non-aggression"
    },
    {
        "start": "106.649",
        "dur": "4.621",
        "text": "principle which means you don't have the"
    },
    {
        "start": "108.39",
        "dur": "4.83",
        "text": "right to initiate force against other"
    },
    {
        "start": "111.27",
        "dur": "3.36",
        "text": "people you can respond to force in terms"
    },
    {
        "start": "113.22",
        "dur": "3.78",
        "text": "of self-defense but you don't have the"
    },
    {
        "start": "114.63",
        "dur": "4.919",
        "text": "right to initiate force when you move"
    },
    {
        "start": "117",
        "dur": "4.649",
        "text": "that principle to the center of society"
    },
    {
        "start": "119.549",
        "dur": "4.621",
        "text": "you end up with a very different looking"
    },
    {
        "start": "121.649",
        "dur": "4.141",
        "text": "society than we have now in the same way"
    },
    {
        "start": "124.17",
        "dur": "3.239",
        "text": "that when you move to the Equality of"
    },
    {
        "start": "125.79",
        "dur": "2.999",
        "text": "human beings to the center of our"
    },
    {
        "start": "127.409",
        "dur": "3.21",
        "text": "thinking we got rid of things like"
    },
    {
        "start": "128.789",
        "dur": "4.351",
        "text": "slavery and the subjugation of women we"
    },
    {
        "start": "130.619",
        "dur": "4.2",
        "text": "got more rights for children and so on"
    },
    {
        "start": "133.14",
        "dur": "3.54",
        "text": "so when you look at society and you say"
    },
    {
        "start": "134.819",
        "dur": "3.541",
        "text": "let's organize it according to a moral"
    },
    {
        "start": "136.68",
        "dur": "5.49",
        "text": "principle called the non initiation of"
    },
    {
        "start": "138.36",
        "dur": "5.4",
        "text": "force then you eliminate government as a"
    },
    {
        "start": "142.17",
        "dur": "3.6",
        "text": "morally justified institution because"
    },
    {
        "start": "143.76",
        "dur": "4.68",
        "text": "the government rests upon the initiation"
    },
    {
        "start": "145.77",
        "dur": "4.68",
        "text": "of force in terms of Taxation and hyper"
    },
    {
        "start": "148.44",
        "dur": "3.69",
        "text": "regulation and various controls over"
    },
    {
        "start": "150.45",
        "dur": "4.11",
        "text": "individuals the government is a group of"
    },
    {
        "start": "152.13",
        "dur": "4.5",
        "text": "individuals which has the moral right to"
    },
    {
        "start": "154.56",
        "dur": "4.38",
        "text": "initiate force in a given geographical"
    },
    {
        "start": "156.63",
        "dur": "5.34",
        "text": "area volunteerism or the non initiation"
    },
    {
        "start": "158.94",
        "dur": "6.72",
        "text": "of force undermines that whole way of"
    },
    {
        "start": "161.97",
        "dur": "7.22",
        "text": "thinking okay so move this idea of"
    },
    {
        "start": "165.66",
        "dur": "7.34",
        "text": "aggression away from the center of"
    },
    {
        "start": "169.19",
        "dur": "6.79",
        "text": "government and you create a something"
    },
    {
        "start": "173",
        "dur": "5.08",
        "text": "society in a philosophy that's markedly"
    },
    {
        "start": "175.98",
        "dur": "5.729",
        "text": "different now in the case of the United"
    },
    {
        "start": "178.08",
        "dur": "6.24",
        "text": "States yes it's true they now have a"
    },
    {
        "start": "181.709",
        "dur": "5.881",
        "text": "government that's completely centered on"
    },
    {
        "start": "184.32",
        "dur": "6.24",
        "text": "aggression and war profiteering but"
    },
    {
        "start": "187.59",
        "dur": "5.52",
        "text": "that's because the folks who go into"
    },
    {
        "start": "190.56",
        "dur": "5.1",
        "text": "countries like Afghanistan or Iraq they"
    },
    {
        "start": "193.11",
        "dur": "4.439",
        "text": "don't actually participate in the way"
    },
    {
        "start": "195.66",
        "dur": "3.359",
        "text": "that the Constitution designs that they"
    },
    {
        "start": "197.549",
        "dur": "3.391",
        "text": "have to consult with the Congress for"
    },
    {
        "start": "199.019",
        "dur": "4.021",
        "text": "example before going to work there's"
    },
    {
        "start": "200.94",
        "dur": "4.74",
        "text": "checks and balances in place to prevent"
    },
    {
        "start": "203.04",
        "dur": "4.77",
        "text": "the aggression war of aggression from"
    },
    {
        "start": "205.68",
        "dur": "3.75",
        "text": "occurring so in the u.s. they have"
    },
    {
        "start": "207.81",
        "dur": "3.69",
        "text": "obliterated that whole checks and"
    },
    {
        "start": "209.43",
        "dur": "5.01",
        "text": "balances in the u.s. is just getting"
    },
    {
        "start": "211.5",
        "dur": "6.36",
        "text": "right back into the game of committing"
    },
    {
        "start": "214.44",
        "dur": "6.329",
        "text": "aggressive acts to impose their empire"
    },
    {
        "start": "217.86",
        "dur": "5.34",
        "text": "but isn't it possible though in the case"
    },
    {
        "start": "220.769",
        "dur": "5.071",
        "text": "of the US Constitution if it were adhere"
    },
    {
        "start": "223.2",
        "dur": "4.349",
        "text": "to as it was originally iterated isn't"
    },
    {
        "start": "225.84",
        "dur": "4.56",
        "text": "this wasn't this an attempt to get away"
    },
    {
        "start": "227.549",
        "dur": "5.25",
        "text": "from a government centered purely on"
    },
    {
        "start": "230.4",
        "dur": "4.29",
        "text": "aggression I absolutely agree with you"
    },
    {
        "start": "232.799",
        "dur": "3.061",
        "text": "and I absolutely disagree with you so"
    },
    {
        "start": "234.69",
        "dur": "2.67",
        "text": "let me tell you where i agree with you"
    },
    {
        "start": "235.86",
        "dur": "2.969",
        "text": "first it's true that that's the"
    },
    {
        "start": "237.36",
        "dur": "2.909",
        "text": "Constitution and the Bill of Rights and"
    },
    {
        "start": "238.829",
        "dur": "3.69",
        "text": "the Declaration of Independence even was"
    },
    {
        "start": "240.269",
        "dur": "4.081",
        "text": "written that this was an attempt that"
    },
    {
        "start": "242.519",
        "dur": "5.641",
        "text": "comes out of enlightenment rationalism"
    },
    {
        "start": "244.35",
        "dur": "5.699",
        "text": "this was an attempt to put reigns on the"
    },
    {
        "start": "248.16",
        "dur": "3.93",
        "text": "on the government to bind down the"
    },
    {
        "start": "250.049",
        "dur": "4.741",
        "text": "government in the chains of of legalese"
    },
    {
        "start": "252.09",
        "dur": "5.1",
        "text": "of language so there was that attempt"
    },
    {
        "start": "254.79",
        "dur": "4.71",
        "text": "but if you look at the practicalities of"
    },
    {
        "start": "257.19",
        "dur": "3.99",
        "text": "how America was founded of course there"
    },
    {
        "start": "259.5",
        "dur": "3.18",
        "text": "was genocide against the Native American"
    },
    {
        "start": "261.18",
        "dur": "5.16",
        "text": "population there was wars of aggression"
    },
    {
        "start": "262.68",
        "dur": "4.65",
        "text": "to expand its territory there was a this"
    },
    {
        "start": "266.34",
        "dur": "2.579",
        "text": "is my annoying"
    },
    {
        "start": "267.33",
        "dur": "3",
        "text": "got a graduate degree in history and I"
    },
    {
        "start": "268.919",
        "dur": "4.77",
        "text": "really feel I need to use it from time"
    },
    {
        "start": "270.33",
        "dur": "5.28",
        "text": "to time so Jefferson actually bypassed"
    },
    {
        "start": "273.689",
        "dur": "4.2",
        "text": "Congress to declare war against Middle"
    },
    {
        "start": "275.61",
        "dur": "4.47",
        "text": "Eastern pirates very early on you had"
    },
    {
        "start": "277.889",
        "dur": "3.96",
        "text": "Washington riding at the head of an army"
    },
    {
        "start": "280.08",
        "dur": "3.51",
        "text": "down in Pennsylvania to collect a"
    },
    {
        "start": "281.849",
        "dur": "3.361",
        "text": "whiskey tax that was even higher than"
    },
    {
        "start": "283.59",
        "dur": "3.18",
        "text": "the tax that the British had put on"
    },
    {
        "start": "285.21",
        "dur": "3.9",
        "text": "originally that was the the trigger for"
    },
    {
        "start": "286.77",
        "dur": "3.57",
        "text": "the revolution so while on paper it's"
    },
    {
        "start": "289.11",
        "dur": "3.54",
        "text": "really important not to look at what's"
    },
    {
        "start": "290.34",
        "dur": "4.47",
        "text": "written but what is done in the same way"
    },
    {
        "start": "292.65",
        "dur": "4.319",
        "text": "that we judge a man by his actions not"
    },
    {
        "start": "294.81",
        "dur": "3.93",
        "text": "by his words the Constitution was"
    },
    {
        "start": "296.969",
        "dur": "2.82",
        "text": "imposed without consultation from the"
    },
    {
        "start": "298.74",
        "dur": "2.7",
        "text": "people that was supposed to be all this"
    },
    {
        "start": "299.789",
        "dur": "3.481",
        "text": "big consultation and it didn't happen it"
    },
    {
        "start": "301.44",
        "dur": "4.14",
        "text": "was it was a secret meeting that imposed"
    },
    {
        "start": "303.27",
        "dur": "4.679",
        "text": "the Constitution right afterwards you"
    },
    {
        "start": "305.58",
        "dur": "4.41",
        "text": "had a president bypassing war to declare"
    },
    {
        "start": "307.949",
        "dur": "4.231",
        "text": "sorry bypassing Congress to declare a"
    },
    {
        "start": "309.99",
        "dur": "4.41",
        "text": "war in the Middle East you had a tax"
    },
    {
        "start": "312.18",
        "dur": "4.019",
        "text": "collection going far and above what had"
    },
    {
        "start": "314.4",
        "dur": "3.09",
        "text": "occurred under the British so I think"
    },
    {
        "start": "316.199",
        "dur": "3.601",
        "text": "it's really important to recognize that"
    },
    {
        "start": "317.49",
        "dur": "4.62",
        "text": "the American experiment not just"
    },
    {
        "start": "319.8",
        "dur": "4.109",
        "text": "stumbled but almost consumed itself in"
    },
    {
        "start": "322.11",
        "dur": "4.29",
        "text": "contradictions right out of the gate it"
    },
    {
        "start": "323.909",
        "dur": "4.44",
        "text": "was never able to achieve this restraint"
    },
    {
        "start": "326.4",
        "dur": "3.6",
        "text": "upon power the only reason that the"
    },
    {
        "start": "328.349",
        "dur": "4.47",
        "text": "American government was small in its"
    },
    {
        "start": "330",
        "dur": "4.529",
        "text": "inception was that the rebels were very"
    },
    {
        "start": "332.819",
        "dur": "3.451",
        "text": "weak and they didn't have the kind of"
    },
    {
        "start": "334.529",
        "dur": "3.54",
        "text": "power that they have now government will"
    },
    {
        "start": "336.27",
        "dur": "3.619",
        "text": "always have the maximum power that it"
    },
    {
        "start": "338.069",
        "dur": "3.84",
        "text": "possibly can in any given situation"
    },
    {
        "start": "339.889",
        "dur": "4.631",
        "text": "during the Revolution and shortly"
    },
    {
        "start": "341.909",
        "dur": "4.711",
        "text": "thereafter words the the population was"
    },
    {
        "start": "344.52",
        "dur": "3.75",
        "text": "scattered the the army was heavily in"
    },
    {
        "start": "346.62",
        "dur": "3.299",
        "text": "debt and they just didn't have that much"
    },
    {
        "start": "348.27",
        "dur": "3.48",
        "text": "power so they said hey let's make not"
    },
    {
        "start": "349.919",
        "dur": "3.601",
        "text": "having power of principle but the moment"
    },
    {
        "start": "351.75",
        "dur": "2.879",
        "text": "they could get more power they took it"
    },
    {
        "start": "353.52",
        "dur": "4.41",
        "text": "and that I think is the fundamental"
    },
    {
        "start": "354.629",
        "dur": "5.01",
        "text": "problem of statism okay so in the case"
    },
    {
        "start": "357.93",
        "dur": "5.699",
        "text": "of the u.s. there was an attempt to"
    },
    {
        "start": "359.639",
        "dur": "6.421",
        "text": "outlaw aggression effectively and a"
    },
    {
        "start": "363.629",
        "dur": "5.72",
        "text": "gratuitous aggression but that has"
    },
    {
        "start": "366.06",
        "dur": "7.139",
        "text": "failed and what you're saying is that"
    },
    {
        "start": "369.349",
        "dur": "6.461",
        "text": "laws or any institution is incapable of"
    },
    {
        "start": "373.199",
        "dur": "5.671",
        "text": "dealing with this issue there has to be"
    },
    {
        "start": "375.81",
        "dur": "5.639",
        "text": "a philosophical core of non-aggression"
    },
    {
        "start": "378.87",
        "dur": "6.09",
        "text": "and that philosophical core has to take"
    },
    {
        "start": "381.449",
        "dur": "7.321",
        "text": "precedence over any attempt to make"
    },
    {
        "start": "384.96",
        "dur": "8.75",
        "text": "illegal aggression aggressive acts now"
    },
    {
        "start": "388.77",
        "dur": "7.949",
        "text": "how does one how does one let's say"
    },
    {
        "start": "393.71",
        "dur": "4.449",
        "text": "spread the philosophy in a society how"
    },
    {
        "start": "396.719",
        "dur": "4.551",
        "text": "does one make the philosophy of"
    },
    {
        "start": "398.159",
        "dur": "5.73",
        "text": "non-aggression the core principle of us"
    },
    {
        "start": "401.27",
        "dur": "4.69",
        "text": "well my solution to spreading it has"
    },
    {
        "start": "403.889",
        "dur": "4.53",
        "text": "been to try and be an entertaining"
    },
    {
        "start": "405.96",
        "dur": "4.739",
        "text": "philosophical idiot that has been my my"
    },
    {
        "start": "408.419",
        "dur": "6.03",
        "text": "particular plan is doing a fantastic job"
    },
    {
        "start": "410.699",
        "dur": "5.701",
        "text": "at that it's a it really is my goal and"
    },
    {
        "start": "414.449",
        "dur": "4.381",
        "text": "I feel that I achieve it in spades so i"
    },
    {
        "start": "416.4",
        "dur": "4.65",
        "text": "will make i will make jokes I will make"
    },
    {
        "start": "418.83",
        "dur": "3.989",
        "text": "ridiculous videos I will try to be as"
    },
    {
        "start": "421.05",
        "dur": "3.72",
        "text": "entertaining as possible while"
    },
    {
        "start": "422.819",
        "dur": "4.561",
        "text": "continually hammering home the point"
    },
    {
        "start": "424.77",
        "dur": "4.89",
        "text": "that a society that is not based on"
    },
    {
        "start": "427.38",
        "dur": "5.039",
        "text": "moral principles is going to fail any"
    },
    {
        "start": "429.66",
        "dur": "4.47",
        "text": "system that you can think of that has at"
    },
    {
        "start": "432.419",
        "dur": "3.78",
        "text": "its core a fundamental error like you"
    },
    {
        "start": "434.13",
        "dur": "3.9",
        "text": "know when in the past they believe the"
    },
    {
        "start": "436.199",
        "dur": "3.271",
        "text": "Sun was the the earth was the center of"
    },
    {
        "start": "438.03",
        "dur": "3.359",
        "text": "the solar system of the Sun orbited the"
    },
    {
        "start": "439.47",
        "dur": "3.72",
        "text": "earth the calculations to figure out"
    },
    {
        "start": "441.389",
        "dur": "3.241",
        "text": "where the planets and the Sun were were"
    },
    {
        "start": "443.19",
        "dur": "3.33",
        "text": "ridiculously complicated because they"
    },
    {
        "start": "444.63",
        "dur": "3.599",
        "text": "made a mistake at the very core of"
    },
    {
        "start": "446.52",
        "dur": "3.66",
        "text": "things when people thought the world was"
    },
    {
        "start": "448.229",
        "dur": "3.93",
        "text": "flat they could not navigate the oceans"
    },
    {
        "start": "450.18",
        "dur": "3.81",
        "text": "because you couldn't take into account"
    },
    {
        "start": "452.159",
        "dur": "3.961",
        "text": "the curvature of the earth in the same"
    },
    {
        "start": "453.99",
        "dur": "3.78",
        "text": "way we look at society at the moment and"
    },
    {
        "start": "456.12",
        "dur": "3.479",
        "text": "this is true of societies all over the"
    },
    {
        "start": "457.77",
        "dur": "3.6",
        "text": "world things are getting worse and worse"
    },
    {
        "start": "459.599",
        "dur": "4.07",
        "text": "laws are multiplying debts and"
    },
    {
        "start": "461.37",
        "dur": "4.68",
        "text": "multiplying unemployment is skyrocketing"
    },
    {
        "start": "463.669",
        "dur": "5.05",
        "text": "everything is underfunded pension"
    },
    {
        "start": "466.05",
        "dur": "4.41",
        "text": "schemes unemployment anything as schools"
    },
    {
        "start": "468.719",
        "dur": "3.781",
        "text": "everything is underfunded and the debt"
    },
    {
        "start": "470.46",
        "dur": "4.11",
        "text": "is massive the reason that all of this"
    },
    {
        "start": "472.5",
        "dur": "4.68",
        "text": "escalating complication confusion and"
    },
    {
        "start": "474.57",
        "dur": "4.409",
        "text": "mess is occurring is because there's a"
    },
    {
        "start": "477.18",
        "dur": "4.079",
        "text": "fundamental flaw at the center of our"
    },
    {
        "start": "478.979",
        "dur": "4.231",
        "text": "thinking about society which is that we"
    },
    {
        "start": "481.259",
        "dur": "3.72",
        "text": "believe we need a little gang of people"
    },
    {
        "start": "483.21",
        "dur": "3.9",
        "text": "with a lot of weapons to make things"
    },
    {
        "start": "484.979",
        "dur": "3.511",
        "text": "right and that just doesn't work it just"
    },
    {
        "start": "487.11",
        "dur": "3.029",
        "text": "makes everything worse and worse in the"
    },
    {
        "start": "488.49",
        "dur": "4.01",
        "text": "long run and that's what we're dealing"
    },
    {
        "start": "490.139",
        "dur": "4.5",
        "text": "with now okay so the idea that a"
    },
    {
        "start": "492.5",
        "dur": "4.96",
        "text": "government like the US which is"
    },
    {
        "start": "494.639",
        "dur": "5.761",
        "text": "enormously aggressive and some would"
    },
    {
        "start": "497.46",
        "dur": "5.69",
        "text": "argue committing societal genocide"
    },
    {
        "start": "500.4",
        "dur": "6.239",
        "text": "because they've expanded their empire"
    },
    {
        "start": "503.15",
        "dur": "4.72",
        "text": "2222 like the Roman Empire did to the"
    },
    {
        "start": "506.639",
        "dur": "3",
        "text": "point where they can no longer sustain"
    },
    {
        "start": "507.87",
        "dur": "4.859",
        "text": "it and now you're seeing that Empire"
    },
    {
        "start": "509.639",
        "dur": "6.351",
        "text": "collapses every Empire history has and"
    },
    {
        "start": "512.729",
        "dur": "6.24",
        "text": "that at the core of the US experiment"
    },
    {
        "start": "515.99",
        "dur": "4.45",
        "text": "were some would argue there there were"
    },
    {
        "start": "518.969",
        "dur": "3.211",
        "text": "moral principles there was the"
    },
    {
        "start": "520.44",
        "dur": "3.45",
        "text": "Constitution there was the Bill of"
    },
    {
        "start": "522.18",
        "dur": "4.59",
        "text": "Rights the Declaration of Independence"
    },
    {
        "start": "523.89",
        "dur": "4.199",
        "text": "they tried to outlaw or the kind of"
    },
    {
        "start": "526.77",
        "dur": "3.15",
        "text": "thing that you're talking about"
    },
    {
        "start": "528.089",
        "dur": "4.231",
        "text": "gratuitous aggression wants an"
    },
    {
        "start": "529.92",
        "dur": "4.289",
        "text": "aggression but that didn't work it has"
    },
    {
        "start": "532.32",
        "dur": "4.319",
        "text": "failed obviously the US xpress"
    },
    {
        "start": "534.209",
        "dur": "5.011",
        "text": "has been a failure now we can say with"
    },
    {
        "start": "536.639",
        "dur": "4.92",
        "text": "some certainty but where does one find"
    },
    {
        "start": "539.22",
        "dur": "4.649",
        "text": "these moral principles I understand you"
    },
    {
        "start": "541.559",
        "dur": "7.111",
        "text": "have some moral principles are they"
    },
    {
        "start": "543.869",
        "dur": "6.361",
        "text": "codified in any text or belief system"
    },
    {
        "start": "548.67",
        "dur": "3.3",
        "text": "currently in your opinion obviously"
    },
    {
        "start": "550.23",
        "dur": "4.32",
        "text": "people living in the United States would"
    },
    {
        "start": "551.97",
        "dur": "5.279",
        "text": "say they draw tremendous moral guidance"
    },
    {
        "start": "554.55",
        "dur": "5.699",
        "text": "from the Bible is the bible does this"
    },
    {
        "start": "557.249",
        "dur": "6.69",
        "text": "offer principles that you can build a"
    },
    {
        "start": "560.249",
        "dur": "6.81",
        "text": "country around I think that the Bible"
    },
    {
        "start": "563.939",
        "dur": "4.291",
        "text": "offers some rules that I would agree"
    },
    {
        "start": "567.059",
        "dur": "4.171",
        "text": "with and I'm sure you would agree with"
    },
    {
        "start": "568.23",
        "dur": "4.649",
        "text": "don't don't steal don't murder and so on"
    },
    {
        "start": "571.23",
        "dur": "3.359",
        "text": "it's a religious text so it doesn't"
    },
    {
        "start": "572.879",
        "dur": "3.12",
        "text": "offer rigorous philosophical reasoning"
    },
    {
        "start": "574.589",
        "dur": "3.06",
        "text": "from first principles so this is not a"
    },
    {
        "start": "575.999",
        "dur": "3.87",
        "text": "plug because the book is free but on my"
    },
    {
        "start": "577.649",
        "dur": "3.841",
        "text": "website at freedomain radio com I've"
    },
    {
        "start": "579.869",
        "dur": "3.421",
        "text": "written a book called universally"
    },
    {
        "start": "581.49",
        "dur": "4.379",
        "text": "preferable behavior a rational proof and"
    },
    {
        "start": "583.29",
        "dur": "4.019",
        "text": "secular ethics which attempts to prove"
    },
    {
        "start": "585.869",
        "dur": "3.03",
        "text": "and I think successfully it's been out"
    },
    {
        "start": "587.309",
        "dur": "4.89",
        "text": "for a couple of years now and stands"
    },
    {
        "start": "588.899",
        "dur": "4.771",
        "text": "unchallenged it's a it it proves two"
    },
    {
        "start": "592.199",
        "dur": "3.36",
        "text": "fundamental axioms that we need to have"
    },
    {
        "start": "593.67",
        "dur": "4.079",
        "text": "a civilized society the first is that"
    },
    {
        "start": "595.559",
        "dur": "4.051",
        "text": "the non-aggression principle is the only"
    },
    {
        "start": "597.749",
        "dur": "3.78",
        "text": "morally consistent approach to"
    },
    {
        "start": "599.61",
        "dur": "3.93",
        "text": "organizing society and human relations"
    },
    {
        "start": "601.529",
        "dur": "4.141",
        "text": "and the second is that property rights"
    },
    {
        "start": "603.54",
        "dur": "3.63",
        "text": "are inherent and implicit within human"
    },
    {
        "start": "605.67",
        "dur": "3.089",
        "text": "interaction so you get property rights"
    },
    {
        "start": "607.17",
        "dur": "3.87",
        "text": "together with the non-aggression"
    },
    {
        "start": "608.759",
        "dur": "4.05",
        "text": "principle and what we find is we end up"
    },
    {
        "start": "611.04",
        "dur": "4.5",
        "text": "with a society that looks very much like"
    },
    {
        "start": "612.809",
        "dur": "5.19",
        "text": "how you and I run arrives I mean if I"
    },
    {
        "start": "615.54",
        "dur": "3.93",
        "text": "want something from the store I don't"
    },
    {
        "start": "617.999",
        "dur": "4.38",
        "text": "drive my car through the plate-glass"
    },
    {
        "start": "619.47",
        "dur": "5.7",
        "text": "window come out with an Uzi and grab it"
    },
    {
        "start": "622.379",
        "dur": "4.71",
        "text": "at least not recently and so you and I"
    },
    {
        "start": "625.17",
        "dur": "5.49",
        "text": "we will do things peacefully and"
    },
    {
        "start": "627.089",
        "dur": "5.61",
        "text": "voluntarily and so when we organize our"
    },
    {
        "start": "630.66",
        "dur": "3.719",
        "text": "lives as you and I do voluntarily and"
    },
    {
        "start": "632.699",
        "dur": "3.69",
        "text": "peacefully where if we want something we"
    },
    {
        "start": "634.379",
        "dur": "4.411",
        "text": "will negotiate for it we will earn it we"
    },
    {
        "start": "636.389",
        "dur": "4.98",
        "text": "will trade for it everything works out"
    },
    {
        "start": "638.79",
        "dur": "3.989",
        "text": "great if you and I turn to a crime spree"
    },
    {
        "start": "641.369",
        "dur": "3.63",
        "text": "then things aren't going to go very well"
    },
    {
        "start": "642.779",
        "dur": "4.381",
        "text": "for us the same thing is true in society"
    },
    {
        "start": "644.999",
        "dur": "4.56",
        "text": "the way that we need to organize society"
    },
    {
        "start": "647.16",
        "dur": "4.019",
        "text": "is exactly the same as the way that we"
    },
    {
        "start": "649.559",
        "dur": "3.33",
        "text": "organize our personal lives Adam Smith"
    },
    {
        "start": "651.179",
        "dur": "2.97",
        "text": "said it about economics he said that the"
    },
    {
        "start": "652.889",
        "dur": "2.64",
        "text": "affairs of a great nation are"
    },
    {
        "start": "654.149",
        "dur": "3.42",
        "text": "fundamentally no different than the"
    },
    {
        "start": "655.529",
        "dur": "4.081",
        "text": "affairs of a household debt is not"
    },
    {
        "start": "657.569",
        "dur": "4.05",
        "text": "wealth in your own eyes household debt"
    },
    {
        "start": "659.61",
        "dur": "3.959",
        "text": "is not wealth and coercion doesn't work"
    },
    {
        "start": "661.619",
        "dur": "3.69",
        "text": "and the same thing is true in society so"
    },
    {
        "start": "663.569",
        "dur": "3.661",
        "text": "this is nothing new this is simply"
    },
    {
        "start": "665.309",
        "dur": "2.721",
        "text": "expanding the way that people already"
    },
    {
        "start": "667.23",
        "dur": "2.99",
        "text": "live"
    },
    {
        "start": "668.03",
        "dur": "3.57",
        "text": "two larger principles and if it works in"
    },
    {
        "start": "670.22",
        "dur": "2.76",
        "text": "our personal lives it's going to work in"
    },
    {
        "start": "671.6",
        "dur": "3.57",
        "text": "society as a whole because society is"
    },
    {
        "start": "672.98",
        "dur": "5.99",
        "text": "just a group of people let's talk about"
    },
    {
        "start": "675.17",
        "dur": "6.47",
        "text": "the apparent mutual exclusivity of"
    },
    {
        "start": "678.97",
        "dur": "5.65",
        "text": "property rights private property rights"
    },
    {
        "start": "681.64",
        "dur": "5.17",
        "text": "versus this idea of non-aggression the"
    },
    {
        "start": "684.62",
        "dur": "5.25",
        "text": "reason I say they appear to be mutually"
    },
    {
        "start": "686.81",
        "dur": "5.46",
        "text": "exclusive is that the idea of private"
    },
    {
        "start": "689.87",
        "dur": "4.86",
        "text": "property rights seems to be at the core"
    },
    {
        "start": "692.27",
        "dur": "3.72",
        "text": "of most aggression take the United"
    },
    {
        "start": "694.73",
        "dur": "3.75",
        "text": "States for example they believe they"
    },
    {
        "start": "695.99",
        "dur": "4.2",
        "text": "have a right to the oil and resources in"
    },
    {
        "start": "698.48",
        "dur": "4.77",
        "text": "Iraq therefore they're going to invade"
    },
    {
        "start": "700.19",
        "dur": "5.37",
        "text": "Iraq and some according to Lancet report"
    },
    {
        "start": "703.25",
        "dur": "4.17",
        "text": "in the UK they have killed a million"
    },
    {
        "start": "705.56",
        "dur": "3.45",
        "text": "innocent civilians I mean this was all"
    },
    {
        "start": "707.42",
        "dur": "3.72",
        "text": "the name of property rights that they"
    },
    {
        "start": "709.01",
        "dur": "3.96",
        "text": "believe that they're entitled to now"
    },
    {
        "start": "711.14",
        "dur": "3.63",
        "text": "that's that the basis of their"
    },
    {
        "start": "712.97",
        "dur": "4.26",
        "text": "aggression how do you balance private"
    },
    {
        "start": "714.77",
        "dur": "5.79",
        "text": "property rights with non aggression and"
    },
    {
        "start": "717.23",
        "dur": "6.03",
        "text": "is it isn't it true Stefan that there is"
    },
    {
        "start": "720.56",
        "dur": "4.47",
        "text": "an alternative model to private property"
    },
    {
        "start": "723.26",
        "dur": "4.68",
        "text": "rights and have you fully discounted"
    },
    {
        "start": "725.03",
        "dur": "3.96",
        "text": "that in your philosophical model okay"
    },
    {
        "start": "727.94",
        "dur": "2.49",
        "text": "there's a lot to chew on there let me"
    },
    {
        "start": "728.99",
        "dur": "3.15",
        "text": "try and take off some swallow bubble"
    },
    {
        "start": "730.43",
        "dur": "4.56",
        "text": "bites and start at the beginning I would"
    },
    {
        "start": "732.14",
        "dur": "5.13",
        "text": "argue max that the invasion occupation"
    },
    {
        "start": "734.99",
        "dur": "4.41",
        "text": "and frankly genocide genocidal"
    },
    {
        "start": "737.27",
        "dur": "3.66",
        "text": "activities in Iraq this is not the"
    },
    {
        "start": "739.4",
        "dur": "2.73",
        "text": "result of the exercising of property"
    },
    {
        "start": "740.93",
        "dur": "3.63",
        "text": "rights this is the result of the"
    },
    {
        "start": "742.13",
        "dur": "5.13",
        "text": "violation of property rights so for"
    },
    {
        "start": "744.56",
        "dur": "5.34",
        "text": "instance if Cheney and Rumsfeld and all"
    },
    {
        "start": "747.26",
        "dur": "4.44",
        "text": "these other thugs had been presented"
    },
    {
        "start": "749.9",
        "dur": "3.66",
        "text": "with a bill for the war to their own"
    },
    {
        "start": "751.7",
        "dur": "3.06",
        "text": "personal bank accounts there's no way"
    },
    {
        "start": "753.56",
        "dur": "3.03",
        "text": "that they ever would have declared that"
    },
    {
        "start": "754.76",
        "dur": "3.39",
        "text": "war the only reason that the United"
    },
    {
        "start": "756.59",
        "dur": "3.48",
        "text": "States is in Iraq is because they get to"
    },
    {
        "start": "758.15",
        "dur": "3.69",
        "text": "initiate force the government gets to"
    },
    {
        "start": "760.07",
        "dur": "4.56",
        "text": "initiate force against the American"
    },
    {
        "start": "761.84",
        "dur": "4.56",
        "text": "taxpayers largely unborn given the"
    },
    {
        "start": "764.63",
        "dur": "3.51",
        "text": "national debt it gets to initiate force"
    },
    {
        "start": "766.4",
        "dur": "4.29",
        "text": "against American taxpayers in order to"
    },
    {
        "start": "768.14",
        "dur": "4.5",
        "text": "fund the war so it's not so much the"
    },
    {
        "start": "770.69",
        "dur": "4.26",
        "text": "effect of the war which is tragic and"
    },
    {
        "start": "772.64",
        "dur": "4.83",
        "text": "gruesome beyond words but the cause of"
    },
    {
        "start": "774.95",
        "dur": "4.14",
        "text": "war is the initiation against the"
    },
    {
        "start": "777.47",
        "dur": "3.42",
        "text": "civilians in order to pay for it there's"
    },
    {
        "start": "779.09",
        "dur": "4.26",
        "text": "no way that war could ever be profitable"
    },
    {
        "start": "780.89",
        "dur": "4.98",
        "text": "unless you could offload the costs onto"
    },
    {
        "start": "783.35",
        "dur": "4.59",
        "text": "innocent civilians and even those"
    },
    {
        "start": "785.87",
        "dur": "3.66",
        "text": "Americans who are for the war would find"
    },
    {
        "start": "787.94",
        "dur": "3.99",
        "text": "themselves very quickly against the war"
    },
    {
        "start": "789.53",
        "dur": "4.59",
        "text": "were they to be sent a bill personally"
    },
    {
        "start": "791.93",
        "dur": "3.96",
        "text": "to their bank account for the costs of"
    },
    {
        "start": "794.12",
        "dur": "4.11",
        "text": "the war you'd find people fleeing that a"
    },
    {
        "start": "795.89",
        "dur": "4.62",
        "text": "money pit like crazy so with the"
    },
    {
        "start": "798.23",
        "dur": "3.21",
        "text": "initiation of force against citizens to"
    },
    {
        "start": "800.51",
        "dur": "3.57",
        "text": "pay for the war is"
    },
    {
        "start": "801.44",
        "dur": "3.81",
        "text": "results in the aggression against Iraq"
    },
    {
        "start": "804.08",
        "dur": "4.86",
        "text": "and that's where I would say the"
    },
    {
        "start": "805.25",
        "dur": "5.4",
        "text": "violation of of property rights is"
    },
    {
        "start": "808.94",
        "dur": "3.81",
        "text": "occurring is among the citizens from the"
    },
    {
        "start": "810.65",
        "dur": "4.29",
        "text": "population so that's that's the first"
    },
    {
        "start": "812.75",
        "dur": "4.25",
        "text": "issue that I would talk about as far as"
    },
    {
        "start": "814.94",
        "dur": "3.75",
        "text": "alternatives to property rights go"
    },
    {
        "start": "817",
        "dur": "4.09",
        "text": "philosophically it just doesn't work"
    },
    {
        "start": "818.69",
        "dur": "4.71",
        "text": "that the very brief argument is that it"
    },
    {
        "start": "821.09",
        "dur": "4.13",
        "text": "is impossible to argue against property"
    },
    {
        "start": "823.4",
        "dur": "4.41",
        "text": "rights property rights are designed our"
    },
    {
        "start": "825.22",
        "dur": "4.6",
        "text": "did they evolve from self-ownership so"
    },
    {
        "start": "827.81",
        "dur": "3.57",
        "text": "you and I own ourselves and we are"
    },
    {
        "start": "829.82",
        "dur": "3.51",
        "text": "responsible for our own actions we are"
    },
    {
        "start": "831.38",
        "dur": "3.6",
        "text": "also responsible for the effects of our"
    },
    {
        "start": "833.33",
        "dur": "3.84",
        "text": "actions if i go and strangle some cat"
    },
    {
        "start": "834.98",
        "dur": "3.66",
        "text": "then i am responsible for the death of"
    },
    {
        "start": "837.17",
        "dur": "3.36",
        "text": "that cat i'm responsible for the effects"
    },
    {
        "start": "838.64",
        "dur": "3.54",
        "text": "of my actions property is just the"
    },
    {
        "start": "840.53",
        "dur": "2.91",
        "text": "result of particular actions like you"
    },
    {
        "start": "842.18",
        "dur": "2.43",
        "text": "and i are waffling around on the"
    },
    {
        "start": "843.44",
        "dur": "2.28",
        "text": "internet at the moment and hopefully"
    },
    {
        "start": "844.61",
        "dur": "3.12",
        "text": "we're going to get some coin from it at"
    },
    {
        "start": "845.72",
        "dur": "3.96",
        "text": "some point so those are the effects of"
    },
    {
        "start": "847.73",
        "dur": "3.54",
        "text": "our actions we own the results of our"
    },
    {
        "start": "849.68",
        "dur": "3.81",
        "text": "actions no one can argue against that"
    },
    {
        "start": "851.27",
        "dur": "3.9",
        "text": "because if you argue against it you are"
    },
    {
        "start": "853.49",
        "dur": "3.96",
        "text": "using your own body to make the argument"
    },
    {
        "start": "855.17",
        "dur": "4.68",
        "text": "so you are exercising self-ownership to"
    },
    {
        "start": "857.45",
        "dur": "4.35",
        "text": "argue against self-ownership that just"
    },
    {
        "start": "859.85",
        "dur": "3.81",
        "text": "doesn't work logically so sorry to be"
    },
    {
        "start": "861.8",
        "dur": "3.21",
        "text": "mildly technical but that's that's the"
    },
    {
        "start": "863.66",
        "dur": "3.09",
        "text": "approach that I think irrational"
    },
    {
        "start": "865.01",
        "dur": "4.8",
        "text": "philosophy takes about property rights"
    },
    {
        "start": "866.75",
        "dur": "6.54",
        "text": "what you're describing here is that this"
    },
    {
        "start": "869.81",
        "dur": "5.36",
        "text": "is not a function of market economics"
    },
    {
        "start": "873.29",
        "dur": "4.62",
        "text": "this is a function of market failure"
    },
    {
        "start": "875.17",
        "dur": "6.16",
        "text": "economics in other words the price"
    },
    {
        "start": "877.91",
        "dur": "7.26",
        "text": "mechanism in terms of costing the true"
    },
    {
        "start": "881.33",
        "dur": "6.51",
        "text": "cost of the actions of those neo-cons to"
    },
    {
        "start": "885.17",
        "dur": "4.74",
        "text": "go into a foreign country and steal"
    },
    {
        "start": "887.84",
        "dur": "3.45",
        "text": "assets if the costs were adequately"
    },
    {
        "start": "889.91",
        "dur": "3.84",
        "text": "represented to the people that they"
    },
    {
        "start": "891.29",
        "dur": "4.41",
        "text": "represent the Americans that would never"
    },
    {
        "start": "893.75",
        "dur": "5.16",
        "text": "happen so it's a it's a failure to"
    },
    {
        "start": "895.7",
        "dur": "5.55",
        "text": "communicate actual pricing the price"
    },
    {
        "start": "898.91",
        "dur": "5.09",
        "text": "mechanism the price discovery mechanism"
    },
    {
        "start": "901.25",
        "dur": "6.6",
        "text": "to use in economics term is completely"
    },
    {
        "start": "904",
        "dur": "7.089",
        "text": "has run it is a failure in terms of"
    },
    {
        "start": "907.85",
        "dur": "5.22",
        "text": "adjudicating and creating policy both"
    },
    {
        "start": "911.089",
        "dur": "3.931",
        "text": "domestic and foreign policy because in"
    },
    {
        "start": "913.07",
        "dur": "4.32",
        "text": "the u.s. of course the total price"
    },
    {
        "start": "915.02",
        "dur": "6.45",
        "text": "discovery failures at the heart of the"
    },
    {
        "start": "917.39",
        "dur": "9.12",
        "text": "real estate collapse as well so on this"
    },
    {
        "start": "921.47",
        "dur": "7.83",
        "text": "subject of costing out economics in a"
    },
    {
        "start": "926.51",
        "dur": "5.52",
        "text": "true manner that would give people a"
    },
    {
        "start": "929.3",
        "dur": "5.85",
        "text": "true cost benefit analysis for their"
    },
    {
        "start": "932.03",
        "dur": "6.27",
        "text": "actions these self real"
    },
    {
        "start": "935.15",
        "dur": "6.87",
        "text": "individuals that you're speaking of do"
    },
    {
        "start": "938.3",
        "dur": "6.69",
        "text": "you include ecological resources in that"
    },
    {
        "start": "942.02",
        "dur": "6.93",
        "text": "equation for example in Canada it's now"
    },
    {
        "start": "944.99",
        "dur": "7.05",
        "text": "the home of the you know Alberta tar"
    },
    {
        "start": "948.95",
        "dur": "6.72",
        "text": "sands some would consider it an enormous"
    },
    {
        "start": "952.04",
        "dur": "6.63",
        "text": "ecological disaster but those prices are"
    },
    {
        "start": "955.67",
        "dur": "6.24",
        "text": "not adequately reflected in the economy"
    },
    {
        "start": "958.67",
        "dur": "6.48",
        "text": "as reflected in turn to the liabilities"
    },
    {
        "start": "961.91",
        "dur": "4.71",
        "text": "of all Canadians can you speak about"
    },
    {
        "start": "965.15",
        "dur": "3.18",
        "text": "this a little bit yeah absolutely i"
    },
    {
        "start": "966.62",
        "dur": "3.75",
        "text": "think that the protection of the"
    },
    {
        "start": "968.33",
        "dur": "4.14",
        "text": "environment is obviously fundamental to"
    },
    {
        "start": "970.37",
        "dur": "4.2",
        "text": "the healthy working of any civilized"
    },
    {
        "start": "972.47",
        "dur": "4.2",
        "text": "society with the understanding that we"
    },
    {
        "start": "974.57",
        "dur": "4.35",
        "text": "need to use stuff and and eat stuff and"
    },
    {
        "start": "976.67",
        "dur": "3.54",
        "text": "drink stuff and have energy we also need"
    },
    {
        "start": "978.92",
        "dur": "2.88",
        "text": "to recognize that the long-term"
    },
    {
        "start": "980.21",
        "dur": "4.47",
        "text": "sustainability of environmental efforts"
    },
    {
        "start": "981.8",
        "dur": "4.2",
        "text": "is absolutely essential it's interesting"
    },
    {
        "start": "984.68",
        "dur": "3.42",
        "text": "that not many people know the history"
    },
    {
        "start": "986",
        "dur": "4.35",
        "text": "and why would you but in the 19th"
    },
    {
        "start": "988.1",
        "dur": "4.38",
        "text": "century in England when the satanic"
    },
    {
        "start": "990.35",
        "dur": "4.8",
        "text": "mills the factories first started"
    },
    {
        "start": "992.48",
        "dur": "5.49",
        "text": "pumping out their vile smog all over the"
    },
    {
        "start": "995.15",
        "dur": "4.35",
        "text": "countryside what happened was in in in"
    },
    {
        "start": "997.97",
        "dur": "3.66",
        "text": "London they put these factories up and"
    },
    {
        "start": "999.5",
        "dur": "3.63",
        "text": "there were these apple farmers all in"
    },
    {
        "start": "1001.63",
        "dur": "2.88",
        "text": "and around London which is impossible to"
    },
    {
        "start": "1003.13",
        "dur": "3.63",
        "text": "imagine these days but it was the case"
    },
    {
        "start": "1004.51",
        "dur": "4.35",
        "text": "in the 19th century and all of this smog"
    },
    {
        "start": "1006.76",
        "dur": "4.92",
        "text": "began rolling down and coating their"
    },
    {
        "start": "1008.86",
        "dur": "5.1",
        "text": "apples in just dick & goo and making"
    },
    {
        "start": "1011.68",
        "dur": "4.38",
        "text": "them unsaleable so the farmers went to"
    },
    {
        "start": "1013.96",
        "dur": "4.02",
        "text": "the courts and said this these dudes are"
    },
    {
        "start": "1016.06",
        "dur": "3.87",
        "text": "damaging my property so I want"
    },
    {
        "start": "1017.98",
        "dur": "3.06",
        "text": "restitution I need a restraint on what"
    },
    {
        "start": "1019.93",
        "dur": "3",
        "text": "they're doing you need to get these"
    },
    {
        "start": "1021.04",
        "dur": "3.69",
        "text": "smokestacks moved or or cleaned or"
    },
    {
        "start": "1022.93",
        "dur": "4.17",
        "text": "something like that and the British"
    },
    {
        "start": "1024.73",
        "dur": "3.99",
        "text": "courts at the time basically said the"
    },
    {
        "start": "1027.1",
        "dur": "3.75",
        "text": "social good of society as a whole"
    },
    {
        "start": "1028.72",
        "dur": "4.02",
        "text": "requires that these factories be allowed"
    },
    {
        "start": "1030.85",
        "dur": "3.87",
        "text": "to do what they're doing your petition"
    },
    {
        "start": "1032.74",
        "dur": "3.21",
        "text": "your plea is rejected and the reason of"
    },
    {
        "start": "1034.72",
        "dur": "2.67",
        "text": "course that the government's did that"
    },
    {
        "start": "1035.95",
        "dur": "3.72",
        "text": "was because they were getting much more"
    },
    {
        "start": "1037.39",
        "dur": "3.93",
        "text": "tax money from the industrialist than"
    },
    {
        "start": "1039.67",
        "dur": "3.15",
        "text": "they were from the small apple farmers"
    },
    {
        "start": "1041.32",
        "dur": "3.09",
        "text": "so I think it's really important to"
    },
    {
        "start": "1042.82",
        "dur": "3.15",
        "text": "understand that when you put the"
    },
    {
        "start": "1044.41",
        "dur": "3.6",
        "text": "government in charge of environmental"
    },
    {
        "start": "1045.97",
        "dur": "4.59",
        "text": "policy that government will inevitably"
    },
    {
        "start": "1048.01",
        "dur": "4.35",
        "text": "bow to those who can give it the most"
    },
    {
        "start": "1050.56",
        "dur": "3.45",
        "text": "goodies in terms of votes or in terms of"
    },
    {
        "start": "1052.36",
        "dur": "2.7",
        "text": "donations and that is a fundamental"
    },
    {
        "start": "1054.01",
        "dur": "3.54",
        "text": "problem it's a conflict of interest"
    },
    {
        "start": "1055.06",
        "dur": "4.44",
        "text": "there are so many ways of solving"
    },
    {
        "start": "1057.55",
        "dur": "3.66",
        "text": "environmental problems using the free"
    },
    {
        "start": "1059.5",
        "dur": "4.65",
        "text": "market and fundamentally what it has to"
    },
    {
        "start": "1061.21",
        "dur": "5.82",
        "text": "do is with ownership so in the cod"
    },
    {
        "start": "1064.15",
        "dur": "4.62",
        "text": "industry add in Newfoundland in Canada"
    },
    {
        "start": "1067.03",
        "dur": "3.63",
        "text": "they they fished car"
    },
    {
        "start": "1068.77",
        "dur": "3.33",
        "text": "for 400 years until the government took"
    },
    {
        "start": "1070.66",
        "dur": "3.3",
        "text": "over the quota system and then within a"
    },
    {
        "start": "1072.1",
        "dur": "3.42",
        "text": "generation of it's entirely stripped"
    },
    {
        "start": "1073.96",
        "dur": "3.33",
        "text": "clean because the government didn't want"
    },
    {
        "start": "1075.52",
        "dur": "3.3",
        "text": "to impose restrictions on the fishermen"
    },
    {
        "start": "1077.29",
        "dur": "2.73",
        "text": "because that would cost them votes"
    },
    {
        "start": "1078.82",
        "dur": "2.25",
        "text": "because the fishermen wanted all this"
    },
    {
        "start": "1080.02",
        "dur": "2.25",
        "text": "money and they just assumed the"
    },
    {
        "start": "1081.07",
        "dur": "3.12",
        "text": "government was going to take care of it"
    },
    {
        "start": "1082.27",
        "dur": "4.29",
        "text": "the government does not solve problems"
    },
    {
        "start": "1084.19",
        "dur": "4.65",
        "text": "the government uses force cells off the"
    },
    {
        "start": "1086.56",
        "dur": "4.2",
        "text": "unborn to foreign creditors and throws"
    },
    {
        "start": "1088.84",
        "dur": "3.48",
        "text": "people in jail for carrying around bits"
    },
    {
        "start": "1090.76",
        "dur": "2.67",
        "text": "of innocuous vegetation that's what the"
    },
    {
        "start": "1092.32",
        "dur": "3.18",
        "text": "government does the government miss"
    },
    {
        "start": "1093.43",
        "dur": "4.14",
        "text": "educates the children runs up debt and"
    },
    {
        "start": "1095.5",
        "dur": "3.18",
        "text": "eventually takes the old age people off"
    },
    {
        "start": "1097.57",
        "dur": "2.97",
        "text": "pensions because they've run out of"
    },
    {
        "start": "1098.68",
        "dur": "3.78",
        "text": "money it doesn't solve problems it's a"
    },
    {
        "start": "1100.54",
        "dur": "3.6",
        "text": "fantasy to think that they do we need to"
    },
    {
        "start": "1102.46",
        "dur": "2.85",
        "text": "start looking at volunteering peaceful"
    },
    {
        "start": "1104.14",
        "dur": "3.36",
        "text": "ways of solving problems like"
    },
    {
        "start": "1105.31",
        "dur": "4.5",
        "text": "environmentalism by having things be"
    },
    {
        "start": "1107.5",
        "dur": "3.45",
        "text": "more owned not less owned now people say"
    },
    {
        "start": "1109.81",
        "dur": "2.46",
        "text": "well we need the government because of"
    },
    {
        "start": "1110.95",
        "dur": "3.39",
        "text": "the problem of the comments right like"
    },
    {
        "start": "1112.27",
        "dur": "4.43",
        "text": "if everyone lets their sheep graze in a"
    },
    {
        "start": "1114.34",
        "dur": "4.59",
        "text": "common area it's a huge problem because"
    },
    {
        "start": "1116.7",
        "dur": "4.81",
        "text": "everybody has an incentive to that sheep"
    },
    {
        "start": "1118.93",
        "dur": "4.11",
        "text": "graze more but using the government as a"
    },
    {
        "start": "1121.51",
        "dur": "4.11",
        "text": "solution to the problem of the Commons"
    },
    {
        "start": "1123.04",
        "dur": "4.92",
        "text": "is beyond insane because the government"
    },
    {
        "start": "1125.62",
        "dur": "3.99",
        "text": "is the social agency that is most"
    },
    {
        "start": "1127.96",
        "dur": "3.51",
        "text": "subject to the problem of the Commons"
    },
    {
        "start": "1129.61",
        "dur": "2.97",
        "text": "because you've got taxation you've got"
    },
    {
        "start": "1131.47",
        "dur": "2.79",
        "text": "money flowing in and out and you have"
    },
    {
        "start": "1132.58",
        "dur": "3.93",
        "text": "people who have temporary custodianship"
    },
    {
        "start": "1134.26",
        "dur": "3.99",
        "text": "of the government through democracy so"
    },
    {
        "start": "1136.51",
        "dur": "3.6",
        "text": "their incentive is to pillage as much"
    },
    {
        "start": "1138.25",
        "dur": "3.39",
        "text": "money to pass as many laws to provide as"
    },
    {
        "start": "1140.11",
        "dur": "3.3",
        "text": "many favours to their friends and punish"
    },
    {
        "start": "1141.64",
        "dur": "4.38",
        "text": "their enemies with as much punitive"
    },
    {
        "start": "1143.41",
        "dur": "4.05",
        "text": "legislation as they can before moving on"
    },
    {
        "start": "1146.02",
        "dur": "3.3",
        "text": "somewhere else the government does not"
    },
    {
        "start": "1147.46",
        "dur": "3.75",
        "text": "solve the problem of the Commons which"
    },
    {
        "start": "1149.32",
        "dur": "3.42",
        "text": "is fundamental to environmentalism the"
    },
    {
        "start": "1151.21",
        "dur": "2.97",
        "text": "government is incredibly subject to the"
    },
    {
        "start": "1152.74",
        "dur": "4.02",
        "text": "problem of the Commons which is what we"
    },
    {
        "start": "1154.18",
        "dur": "5.94",
        "text": "see with national debts okay imagine the"
    },
    {
        "start": "1156.76",
        "dur": "5.52",
        "text": "tragedy of the Commons and this will"
    },
    {
        "start": "1160.12",
        "dur": "4.29",
        "text": "bring me back to the second part of the"
    },
    {
        "start": "1162.28",
        "dur": "4.59",
        "text": "previous question when we were really"
    },
    {
        "start": "1164.41",
        "dur": "5.73",
        "text": "discussing about the property rights"
    },
    {
        "start": "1166.87",
        "dur": "6.54",
        "text": "individual private property rights now"
    },
    {
        "start": "1170.14",
        "dur": "4.89",
        "text": "it seems as though there's a bit of a"
    },
    {
        "start": "1173.41",
        "dur": "4.23",
        "text": "conflict in what you're saying and let"
    },
    {
        "start": "1175.03",
        "dur": "7.56",
        "text": "me describe what I mean here if you take"
    },
    {
        "start": "1177.64",
        "dur": "6.99",
        "text": "an example of a group of programmers who"
    },
    {
        "start": "1182.59",
        "dur": "5.75",
        "text": "are interacting on the internet every"
    },
    {
        "start": "1184.63",
        "dur": "6.45",
        "text": "day who are forced to deal with"
    },
    {
        "start": "1188.34",
        "dur": "4.99",
        "text": "Microsoft products deciding that you"
    },
    {
        "start": "1191.08",
        "dur": "4.77",
        "text": "know what these products are really"
    },
    {
        "start": "1193.33",
        "dur": "4.35",
        "text": "horrible we're going to break off we're"
    },
    {
        "start": "1195.85",
        "dur": "3.87",
        "text": "going to use the UNIX code we're going"
    },
    {
        "start": "1197.68",
        "dur": "4.71",
        "text": "to create our own software it's going to"
    },
    {
        "start": "1199.72",
        "dur": "5.75",
        "text": "call Linux and it's going"
    },
    {
        "start": "1202.39",
        "dur": "6.24",
        "text": "be voluntary contribution to this code"
    },
    {
        "start": "1205.47",
        "dur": "4.78",
        "text": "nobody is compensated nobody owns it"
    },
    {
        "start": "1208.63",
        "dur": "5.01",
        "text": "there's no private property at all"
    },
    {
        "start": "1210.25",
        "dur": "5.28",
        "text": "involved the net result is a superior"
    },
    {
        "start": "1213.64",
        "dur": "3",
        "text": "product that defeated the private"
    },
    {
        "start": "1215.53",
        "dur": "3.09",
        "text": "property ownership interests of"
    },
    {
        "start": "1216.64",
        "dur": "4.32",
        "text": "Microsoft in many ways the internet runs"
    },
    {
        "start": "1218.62",
        "dur": "5.13",
        "text": "on open source as it's called open"
    },
    {
        "start": "1220.96",
        "dur": "5.94",
        "text": "source open ownership it's not privately"
    },
    {
        "start": "1223.75",
        "dur": "5.91",
        "text": "owned now in the digital world which is"
    },
    {
        "start": "1226.9",
        "dur": "5.37",
        "text": "relatively new didn't exist during the"
    },
    {
        "start": "1229.66",
        "dur": "4.92",
        "text": "period of the satanic Mills during the"
    },
    {
        "start": "1232.27",
        "dur": "4.41",
        "text": "period of manufacturing in the"
    },
    {
        "start": "1234.58",
        "dur": "4.08",
        "text": "Industrial Revolution when gravity and"
    },
    {
        "start": "1236.68",
        "dur": "3.72",
        "text": "friction had to be overcome in the"
    },
    {
        "start": "1238.66",
        "dur": "5.54",
        "text": "digital world we don't have those"
    },
    {
        "start": "1240.4",
        "dur": "6.3",
        "text": "constraints and it's in new models of"
    },
    {
        "start": "1244.2",
        "dur": "5.05",
        "text": "Commonwealth common ownership isn't"
    },
    {
        "start": "1246.7",
        "dur": "5.76",
        "text": "there some what of a conflict there"
    },
    {
        "start": "1249.25",
        "dur": "7.38",
        "text": "because you you seem to allude to the"
    },
    {
        "start": "1252.46",
        "dur": "6.06",
        "text": "benefits of being on the internet let's"
    },
    {
        "start": "1256.63",
        "dur": "5.28",
        "text": "say but the very foundation of the"
    },
    {
        "start": "1258.52",
        "dur": "5.28",
        "text": "internet is born out of individuals who"
    },
    {
        "start": "1261.91",
        "dur": "4.59",
        "text": "are working in in the public interest"
    },
    {
        "start": "1263.8",
        "dur": "4.44",
        "text": "not in private property interests that"
    },
    {
        "start": "1266.5",
        "dur": "3.09",
        "text": "is an excellent point at a guy to tell"
    },
    {
        "start": "1268.24",
        "dur": "2.73",
        "text": "you max you are a real pleasure to"
    },
    {
        "start": "1269.59",
        "dur": "3.48",
        "text": "listen to that's a fine mind you have"
    },
    {
        "start": "1270.97",
        "dur": "3.84",
        "text": "sitting above your shoulders but the"
    },
    {
        "start": "1273.07",
        "dur": "3.51",
        "text": "thing about property rights is that you"
    },
    {
        "start": "1274.81",
        "dur": "4.53",
        "text": "don't have to exercise them you don't"
    },
    {
        "start": "1276.58",
        "dur": "4.35",
        "text": "rights I can choose to take my beloved"
    },
    {
        "start": "1279.34",
        "dur": "3.03",
        "text": "computer and put it out on my front lawn"
    },
    {
        "start": "1280.93",
        "dur": "3.78",
        "text": "and let people walk off with it if I"
    },
    {
        "start": "1282.37",
        "dur": "3.84",
        "text": "want I can choose as I do to hand out"
    },
    {
        "start": "1284.71",
        "dur": "4.41",
        "text": "all of my books podcasts and other"
    },
    {
        "start": "1286.21",
        "dur": "4.83",
        "text": "materials completely for free that's"
    },
    {
        "start": "1289.12",
        "dur": "4.08",
        "text": "perfectly fine there's nothing that"
    },
    {
        "start": "1291.04",
        "dur": "3.66",
        "text": "violates the non initiation of force"
    },
    {
        "start": "1293.2",
        "dur": "2.91",
        "text": "there's nothing that violates the"
    },
    {
        "start": "1294.7",
        "dur": "3.42",
        "text": "non-aggression principle if people"
    },
    {
        "start": "1296.11",
        "dur": "4.77",
        "text": "choose to work in a collaborative"
    },
    {
        "start": "1298.12",
        "dur": "5.22",
        "text": "voluntary non-property manner as long as"
    },
    {
        "start": "1300.88",
        "dur": "4.56",
        "text": "they do so peacefully that's perfectly"
    },
    {
        "start": "1303.34",
        "dur": "3.51",
        "text": "fine if you choose to exercise property"
    },
    {
        "start": "1305.44",
        "dur": "3.27",
        "text": "rights that's great if you want to live"
    },
    {
        "start": "1306.85",
        "dur": "4.59",
        "text": "in some hippie commune and then share"
    },
    {
        "start": "1308.71",
        "dur": "4.26",
        "text": "soap and Lord knows what then you can do"
    },
    {
        "start": "1311.44",
        "dur": "3.03",
        "text": "that as long as you're not initiating"
    },
    {
        "start": "1312.97",
        "dur": "3.45",
        "text": "force and i think that there's a lot"
    },
    {
        "start": "1314.47",
        "dur": "4.41",
        "text": "that can come out of this kind of"
    },
    {
        "start": "1316.42",
        "dur": "3.99",
        "text": "voluntary non-property cooperation that"
    },
    {
        "start": "1318.88",
        "dur": "3.81",
        "text": "i think is incredibly valuable as you"
    },
    {
        "start": "1320.41",
        "dur": "3.87",
        "text": "said wikipedia and linux and all other"
    },
    {
        "start": "1322.69",
        "dur": "3.81",
        "text": "kinds of great stuff comes out of that"
    },
    {
        "start": "1324.28",
        "dur": "4.98",
        "text": "but nobody's initiating force so"
    },
    {
        "start": "1326.5",
        "dur": "4.53",
        "text": "property rights are not enforceable in"
    },
    {
        "start": "1329.26",
        "dur": "3.78",
        "text": "that you have to exercise them at all"
    },
    {
        "start": "1331.03",
        "dur": "3.42",
        "text": "times they're optional and some great"
    },
    {
        "start": "1333.04",
        "dur": "2.65",
        "text": "stuff can come out of relinquishing"
    },
    {
        "start": "1334.45",
        "dur": "2.559",
        "text": "property rights"
    },
    {
        "start": "1335.69",
        "dur": "3.39",
        "text": "as long as you're not initiating force"
    },
    {
        "start": "1337.009",
        "dur": "3.841",
        "text": "you are ok with the non-aggression"
    },
    {
        "start": "1339.08",
        "dur": "3.479",
        "text": "principle all right stefan molyneux"
    },
    {
        "start": "1340.85",
        "dur": "4.679",
        "text": "thanks so much for being on the edge"
    },
    {
        "start": "1342.559",
        "dur": "4.261",
        "text": "thank you max it was great fun alrighty"
    },
    {
        "start": "1345.529",
        "dur": "3.12",
        "text": "that's going to do it for this edition"
    },
    {
        "start": "1346.82",
        "dur": "4.02",
        "text": "of on the edge I want to thank my guests"
    },
    {
        "start": "1348.649",
        "dur": "4.41",
        "text": "stefan molyneux and if you want to send"
    },
    {
        "start": "1350.84",
        "dur": "5.189",
        "text": "me an email please do so at on the edge"
    },
    {
        "start": "1353.059",
        "dur": "6.2",
        "text": "at press tv.com until next time this is"
    },
    {
        "start": "1356.029",
        "dur": "3.23",
        "text": "max keiser saying bye"
    }
]