{
  "Title": "MAN OF STEEL REVIEW",
  "Id": "bMuDDCKuhbY",
  "Transcript": [
    {
      "text": "I did go and see Superman Man of Steel",
      "start": 0,
      "duration": 11.49
    },
    {
      "text": "and it's loud and I would not want to be",
      "start": 5.85,
      "duration": 8.579
    },
    {
      "text": "of chunk of concrete in that movie uh uh",
      "start": 11.49,
      "duration": 3.899
    },
    {
      "text": "what else",
      "start": 14.429,
      "duration": 5.641
    },
    {
      "text": "loud he mentioned that yeah okay we get",
      "start": 15.389,
      "duration": 8.041
    },
    {
      "text": "it he's Jesus he's he's 33 he's a virgin",
      "start": 20.07,
      "duration": 6.66
    },
    {
      "text": "his father sent him from heaven to earth",
      "start": 23.43,
      "duration": 5.339
    },
    {
      "text": "to save humanity and he keeps showing up",
      "start": 26.73,
      "duration": 6
    },
    {
      "text": "as a ghost and and he's Jesus he does",
      "start": 28.769,
      "duration": 8.281
    },
    {
      "text": "this a lot and I mean he's debuff Jesus",
      "start": 32.73,
      "duration": 6.89
    },
    {
      "text": "with laser eyes and he heals people and",
      "start": 37.05,
      "duration": 4.919
    },
    {
      "text": "you sure can't take a punch from a",
      "start": 39.62,
      "duration": 8.11
    },
    {
      "text": "spaceship America still has PTSD about",
      "start": 41.969,
      "duration": 12.09
    },
    {
      "text": "falling buildings what else it's loud",
      "start": 47.73,
      "duration": 12.27
    },
    {
      "text": "and his hair doesn't change the whole",
      "start": 54.059,
      "duration": 8.401
    },
    {
      "text": "movie because I guess there's no",
      "start": 60,
      "duration": 7.619
    },
    {
      "text": "kryptonite hair gel I think that's about",
      "start": 62.46,
      "duration": 8.88
    },
    {
      "text": "it I can see an ear doctor I think I may",
      "start": 67.619,
      "duration": 6.471
    },
    {
      "text": "have mentioned as loud",
      "start": 71.34,
      "duration": 2.75
    },
    {
      "text": "you",
      "start": 104.87,
      "duration": 2.06
    }
  ],
  "Errors": null,
  "TranscriptStderr": null
}