{
  "Title": "The Money That Is Sold Abroad Is You!",
  "Id": "Cd-SLRyuRq0",
  "Transcript": [
    {
      "text": "Debt Crisis",
      "start": 4.78,
      "duration": 1
    },
    {
      "text": "(the state of the Union is not good)",
      "start": 5.88,
      "duration": 1.913
    },
    {
      "text": "IN THE NEXT 24 HOURS",
      "start": 7.893,
      "duration": 1.533
    },
    {
      "text": "(our trade deficit is too large)",
      "start": 9.526,
      "duration": 1.792
    },
    {
      "text": "(we must not go back to unwise spending)",
      "start": 11.457,
      "duration": 2.273
    },
    {
      "text": "OUR NATIONAL DEBT\nWILL INCREASE",
      "start": 14.07,
      "duration": 1.32
    },
    {
      "text": "1.4 BILLION DOLLARS",
      "start": 16.18,
      "duration": 1.17
    },
    {
      "text": "THE U.S. IS GOING BROKE",
      "start": 18.96,
      "duration": 1.31
    },
    {
      "text": "George Orwell once wrote that,",
      "start": 36.21,
      "duration": 1.5
    },
    {
      "text": "“The great enemy of\nclear language is insincerity.",
      "start": 38.09,
      "duration": 3.62
    },
    {
      "text": "When there is a gap between one’s real\nand one’s declared aims,",
      "start": 42.6,
      "duration": 3.26
    },
    {
      "text": "one turns as it were instinctively\nto long words and exhausted idioms,",
      "start": 46.64,
      "duration": 5.198
    },
    {
      "text": "like a cuttlefish spurting out ink.”",
      "start": 52.19,
      "duration": 3.04
    },
    {
      "text": "You have probably heard\nconfusing phrases like",
      "start": 55.928,
      "duration": 2.254
    },
    {
      "text": "the trade deficit, the falling dollar,\nthe national debt, unfunded liabilities and so on,",
      "start": 58.525,
      "duration": 6.135
    },
    {
      "text": "which all sound vague and actuarial\nand vaguely - well, “not me.”",
      "start": 65.258,
      "duration": 6.712
    },
    {
      "text": "The reality behind these accounting\nphrases is perfectly monstrous.",
      "start": 72.95,
      "duration": 5.01
    },
    {
      "text": "When someone\n-- a foreigner, say --",
      "start": 79.689,
      "duration": 2.261
    },
    {
      "text": "loans money to the\nAmerican government,",
      "start": 82.26,
      "duration": 1.74
    },
    {
      "text": "what are they getting in return?",
      "start": 84.261,
      "duration": 2.609
    },
    {
      "text": "Well, they are getting promises\nof interest payments,",
      "start": 87.77,
      "duration": 2.26
    },
    {
      "text": "and eventual repayment of the principal.",
      "start": 90.2,
      "duration": 2.11
    },
    {
      "text": "Where does your government\nget this money?",
      "start": 93.35,
      "duration": 2.8
    },
    {
      "text": "The government is not a business;",
      "start": 96.99,
      "duration": 1.387
    },
    {
      "text": "it does not generate profits\nin the free market,",
      "start": 98.702,
      "duration": 2.028
    },
    {
      "text": "so where does it get the money\nto repay its creditors?",
      "start": 101.52,
      "duration": 3.75
    },
    {
      "text": "Are you beginning to understand that it is\nnot dollars that are being sold,",
      "start": 106.48,
      "duration": 3.87
    },
    {
      "text": "or bonds, or agency debt, or treasuries,\nor anything like that.",
      "start": 110.95,
      "duration": 4.57
    },
    {
      "text": "Where is your government going to get\nthe money to pay off its creditors?",
      "start": 116.73,
      "duration": 4.76
    },
    {
      "text": "It is not pieces of paper or contracts or\ncomputer bits that are being sold.",
      "start": 122.51,
      "duration": 4.78
    },
    {
      "text": "There is only one thing that the\ngovernment has to sell.",
      "start": 128.54,
      "duration": 5.05
    },
    {
      "text": "Governments have only one asset that\nthey can use as collateral.",
      "start": 134.43,
      "duration": 4.51
    },
    {
      "text": "Your leaders are selling you.",
      "start": 140.02,
      "duration": 4.702
    },
    {
      "text": "When China lends $800 billion to your\ngovernment, what they get in return",
      "start": 145.167,
      "duration": 3.783
    },
    {
      "text": "is a guarantee that $10,000 dollars\n-- plus interest --",
      "start": 149.07,
      "duration": 3.59
    },
    {
      "text": "will be taken from your family at\ngunpoint and shipped overseas.",
      "start": 153.48,
      "duration": 4.99
    },
    {
      "text": "When a farmer gets a loan from a bank,\nhe uses his livestock as collateral.",
      "start": 159.47,
      "duration": 3.65
    },
    {
      "text": "It is the milk and meat\nhis cows will produce in the future",
      "start": 163.53,
      "duration": 2.64
    },
    {
      "text": "that he will use to pay off his loan.",
      "start": 166.72,
      "duration": 1.55
    },
    {
      "text": "The bank is buying a share in his cows.",
      "start": 169.42,
      "duration": 3.03
    },
    {
      "text": "You are the livestock that your leaders\nuse as collateral.",
      "start": 173.44,
      "duration": 4.64
    },
    {
      "text": "The leaders that you cheer for\nand throw parades for",
      "start": 179.17,
      "duration": 3.12
    },
    {
      "text": "and drop balloons behind\nand donate money to",
      "start": 182.4,
      "duration": 2.09
    },
    {
      "text": "are selling you\nto Chinese rulers,",
      "start": 184.66,
      "duration": 3.448
    },
    {
      "text": "to the Japanese, to the Nigerians,",
      "start": 188.943,
      "duration": 2.328
    },
    {
      "text": "to South American drug lords with\naccounts in the Caribbean banking centers,",
      "start": 191.428,
      "duration": 4.682
    },
    {
      "text": "to Russia, to Korea,\nto Egypt, to Colombia,",
      "start": 196.23,
      "duration": 3.52
    },
    {
      "text": "to Chile, to the Philippines,\nto Malaysia",
      "start": 200.08,
      "duration": 3.35
    },
    {
      "text": "and anyone else who is willing\nto give them a few dollars",
      "start": 204.03,
      "duration": 2.43
    },
    {
      "text": "in return for the blood, sweat\nand toil of your future.",
      "start": 206.78,
      "duration": 4.34
    },
    {
      "text": "The flag that you praise\nand the anthems that you sing",
      "start": 212.43,
      "duration": 3.09
    },
    {
      "text": "and the rulers that you\nweep and kneel before",
      "start": 215.62,
      "duration": 2.23
    },
    {
      "text": "have as much loyalty to you",
      "start": 218.06,
      "duration": 1.44
    },
    {
      "text": "as a plantation owner\nhad to his slaves.",
      "start": 219.71,
      "duration": 2.82
    },
    {
      "text": "And sadly, plantation slaves\nhad more pride than we do.",
      "start": 223.81,
      "duration": 5.58
    },
    {
      "text": "Plantation slaves did not generally praise\ntheir masters for selling them off,",
      "start": 230.76,
      "duration": 4.17
    },
    {
      "text": "for auctioning off the lives, hopes, dreams\nand futures of their own little children.",
      "start": 235.47,
      "duration": 5.44
    },
    {
      "text": "We can understand that cattle\nmay lick the hand of the farmer",
      "start": 242.29,
      "duration": 3.42
    },
    {
      "text": "who lowers an axe to its neck,",
      "start": 245.86,
      "duration": 2
    },
    {
      "text": "because cattle are dumb beast\nthat cannot comprehend",
      "start": 248.3,
      "duration": 2.54
    },
    {
      "text": "their real relationship with the farmer,",
      "start": 251.04,
      "duration": 1.9
    },
    {
      "text": "and his imminent plans for them.",
      "start": 253.7,
      "duration": 1.73
    },
    {
      "text": "What is our excuse?",
      "start": 257.03,
      "duration": 1.7
    },
    {
      "text": "When we chant “USA” “USA” “USA,”",
      "start": 259.438,
      "duration": 3.692
    },
    {
      "text": "when we cheer and bow\nand beg and scrape and sing",
      "start": 263.95,
      "duration": 3.55
    },
    {
      "text": "and weep with joy that some\nnew farmer now presides",
      "start": 267.85,
      "duration": 3.4
    },
    {
      "text": "over the wholesale dismantling and sale\nof our family’s future,",
      "start": 271.37,
      "duration": 3.51
    },
    {
      "text": "when we love with obsessive\nemptiness the leaders",
      "start": 275.65,
      "duration": 2.18
    },
    {
      "text": "who laugh while they auction us off\nto every tin pot dictator",
      "start": 277.95,
      "duration": 3.25
    },
    {
      "text": "and stockbroker\nthe world over,",
      "start": 281.41,
      "duration": 1.83
    },
    {
      "text": "what is our excuse?",
      "start": 283.43,
      "duration": 1.921
    },
    {
      "text": "Has our pride been so broken\nthat we lunge with pathetic joy",
      "start": 286.59,
      "duration": 4.63
    },
    {
      "text": "at every new silver\ntongued demagogue",
      "start": 291.51,
      "duration": 2.26
    },
    {
      "text": "who pretends to care for us,\neven a tiny little bit?",
      "start": 293.82,
      "duration": 3.4
    },
    {
      "text": "In the future,\nour children will",
      "start": 298.68,
      "duration": 2.82
    },
    {
      "text": "demand to know why\nwe knelt and cheered",
      "start": 302.03,
      "duration": 4.16
    },
    {
      "text": "as they were sold off\non the auctioneer’s block.",
      "start": 306.6,
      "duration": 3.5
    },
    {
      "text": "This video\n- and my life’s work -",
      "start": 310.874,
      "duration": 2.634
    },
    {
      "text": "is my answer to my child.",
      "start": 314.4,
      "duration": 2.11
    },
    {
      "text": "What’s yours?",
      "start": 317.533,
      "duration": 1.828
    }
  ],
  "Errors": null,
  "TranscriptStderr": null
}