{
  "Title": "Congress \"Throuple\" Hell!",
  "Id": "Cjt0hPLwShI",
  "Transcript": [
    {
      "text": "all right I can I hate to inflict this",
      "start": 0.03,
      "duration": 4.019
    },
    {
      "text": "on you my friends but I'm not suffering",
      "start": 2.73,
      "duration": 3.629
    },
    {
      "text": "through this kind of image on my own so",
      "start": 4.049,
      "duration": 3.661
    },
    {
      "text": "let's not move over a little here and",
      "start": 6.359,
      "duration": 6.03
    },
    {
      "text": "let's huh what in the fresh laced bowels",
      "start": 7.71,
      "duration": 6.87
    },
    {
      "text": "of Satan bottom scraping of den T's",
      "start": 12.389,
      "duration": 5.161
    },
    {
      "text": "Inferno hellscape as this well as you",
      "start": 14.58,
      "duration": 6.57
    },
    {
      "text": "can see this is a picture of a woman in",
      "start": 17.55,
      "duration": 7.83
    },
    {
      "text": "her 30s grooming combing the hair of a",
      "start": 21.15,
      "duration": 6.15
    },
    {
      "text": "young woman the aforementioned woman in",
      "start": 25.38,
      "duration": 5.85
    },
    {
      "text": "her 30s is naked and is pressing her",
      "start": 27.3,
      "duration": 6.89
    },
    {
      "text": "baby exit parts right up against the",
      "start": 31.23,
      "duration": 5.73
    },
    {
      "text": "godforsaken hellscape of whatever germs",
      "start": 34.19,
      "duration": 5.08
    },
    {
      "text": "happen to be inhabiting the fabric of",
      "start": 36.96,
      "duration": 5.64
    },
    {
      "text": "what looks like a hotel chair it's like",
      "start": 39.27,
      "duration": 5.76
    },
    {
      "text": "this woman has never seen or heard of",
      "start": 42.6,
      "duration": 4.049
    },
    {
      "text": "any of those blue light Expos aides of",
      "start": 45.03,
      "duration": 3.24
    },
    {
      "text": "hotel and motel rooms where basically it",
      "start": 46.649,
      "duration": 3.211
    },
    {
      "text": "looks like that the procedure for",
      "start": 48.27,
      "duration": 3.78
    },
    {
      "text": "cleaning the room is to take every body",
      "start": 49.86,
      "duration": 4.56
    },
    {
      "text": "fluid known to man gotten devil stuff it",
      "start": 52.05,
      "duration": 4.439
    },
    {
      "text": "in a cadaver stick cherry bombs up its",
      "start": 54.42,
      "duration": 3.659
    },
    {
      "text": "butt and blast it onto any surface it",
      "start": 56.489,
      "duration": 2.91
    },
    {
      "text": "could possibly come in contact with",
      "start": 58.079,
      "duration": 5.36
    },
    {
      "text": "human skin yeah all right so let's let's",
      "start": 59.399,
      "duration": 6.951
    },
    {
      "text": "let's put that aside and and let the",
      "start": 63.439,
      "duration": 5.821
    },
    {
      "text": "hopefully 1984 style memory hole",
      "start": 66.35,
      "duration": 5.05
    },
    {
      "text": "dissolve that image in our brain so who",
      "start": 69.26,
      "duration": 4.51
    },
    {
      "text": "is who was that woman in the woman who's",
      "start": 71.4,
      "duration": 5.81
    },
    {
      "text": "that woman in the photo the woman is",
      "start": 73.77,
      "duration": 6.27
    },
    {
      "text": "California Democrat boy you put those",
      "start": 77.21,
      "duration": 4.659
    },
    {
      "text": "two things together you know that you're",
      "start": 80.04,
      "duration": 4.35
    },
    {
      "text": "just going someplace unholy California",
      "start": 81.869,
      "duration": 6.811
    },
    {
      "text": "Democratic Representative Katie Hill now",
      "start": 84.39,
      "duration": 5.7
    },
    {
      "text": "this is from bread State this is all",
      "start": 88.68,
      "duration": 3.03
    },
    {
      "text": "allegedly but as you can see the photos",
      "start": 90.09,
      "duration": 2.819
    },
    {
      "text": "don't seem to lie there are text",
      "start": 91.71,
      "duration": 3.24
    },
    {
      "text": "messages on all of this the article I'll",
      "start": 92.909,
      "duration": 4.621
    },
    {
      "text": "link below California representative",
      "start": 94.95,
      "duration": 5.76
    },
    {
      "text": "Katie Hill allegedly evolved involved",
      "start": 97.53,
      "duration": 5.4
    },
    {
      "text": "female staffer in two-year-old away -",
      "start": 100.71,
      "duration": 4.14
    },
    {
      "text": "are you ready this is the word least",
      "start": 102.93,
      "duration": 2.939
    },
    {
      "text": "likely to show up in Reader's Digest",
      "start": 104.85,
      "duration": 3.809
    },
    {
      "text": "welcome to new words section involve",
      "start": 105.869,
      "duration": 5.661
    },
    {
      "text": "female staffer in a two-year throuple",
      "start": 108.659,
      "duration": 5.971
    },
    {
      "text": "relationship now what is a throuple does",
      "start": 111.53,
      "duration": 4.299
    },
    {
      "text": "it sound like something you would take",
      "start": 114.63,
      "duration": 4.349
    },
    {
      "text": "for strep throat yes also it is not a",
      "start": 115.829,
      "duration": 4.83
    },
    {
      "text": "threesome for sexual purposes although",
      "start": 118.979,
      "duration": 3.21
    },
    {
      "text": "I'm sure threesomes for sexual purposes",
      "start": 120.659,
      "duration": 3.511
    },
    {
      "text": "are involved it is a three-way",
      "start": 122.189,
      "duration": 4.29
    },
    {
      "text": "polyamorous relationship that is",
      "start": 124.17,
      "duration": 5.729
    },
    {
      "text": "supposed to last right so from the",
      "start": 126.479,
      "duration": 5.81
    },
    {
      "text": "article",
      "start": 129.899,
      "duration": 2.39
    },
    {
      "text": "photographs and text messages obtained",
      "start": 133.19,
      "duration": 4.21
    },
    {
      "text": "by red states show the representative",
      "start": 135.45,
      "duration": 3.3
    },
    {
      "text": "Hill was involved in long-term such a",
      "start": 137.4,
      "duration": 2.76
    },
    {
      "text": "relationship with a female campaign",
      "start": 138.75,
      "duration": 3.66
    },
    {
      "text": "staffer the woman whose name is not",
      "start": 140.16,
      "duration": 5.88
    },
    {
      "text": "being released was hired by Hill in late",
      "start": 142.41,
      "duration": 5.55
    },
    {
      "text": "2017 and quickly became involved in a",
      "start": 146.04,
      "duration": 4.11
    },
    {
      "text": "throuple relationship with Hill and her",
      "start": 147.96,
      "duration": 5.79
    },
    {
      "text": "estranged husband oh boy you know",
      "start": 150.15,
      "duration": 5.1
    },
    {
      "text": "there's some words that just bring our",
      "start": 153.75,
      "duration": 3.72
    },
    {
      "text": "particular images you know there's an",
      "start": 155.25,
      "duration": 3.69
    },
    {
      "text": "old joke which says if you want to see",
      "start": 157.47,
      "duration": 3.15
    },
    {
      "text": "the definition of such-and-such look at",
      "start": 158.94,
      "duration": 3.69
    },
    {
      "text": "the dictionary there's a picture of you",
      "start": 160.62,
      "duration": 3.36
    },
    {
      "text": "or something you want definition of",
      "start": 162.63,
      "duration": 4.02
    },
    {
      "text": "hypocrite right so I want you to tell me",
      "start": 163.98,
      "duration": 5.04
    },
    {
      "text": "if this sounds like a chant name or a",
      "start": 166.65,
      "duration": 6.81
    },
    {
      "text": "cat named Kenny has leopard Nene his lip",
      "start": 169.02,
      "duration": 6.15
    },
    {
      "text": "I like to watch from the corner Kenny",
      "start": 173.46,
      "duration": 3.84
    },
    {
      "text": "has left so Kenny has left was the",
      "start": 175.17,
      "duration": 3.99
    },
    {
      "text": "husband I guess maybe he enjoyed",
      "start": 177.3,
      "duration": 3.5
    },
    {
      "text": "watching his wife with this other woman",
      "start": 179.16,
      "duration": 4.38
    },
    {
      "text": "God knows why anyway well probably God",
      "start": 180.8,
      "duration": 4.33
    },
    {
      "text": "would even hesitate and as far as that",
      "start": 183.54,
      "duration": 3.6
    },
    {
      "text": "goes right so heads up in the staff",
      "start": 185.13,
      "duration": 4.11
    },
    {
      "text": "recording two text messages believed the",
      "start": 187.14,
      "duration": 3.39
    },
    {
      "text": "polyamorous arrangement to be a",
      "start": 189.24,
      "duration": 2.73
    },
    {
      "text": "long-term committed relationship the",
      "start": 190.53,
      "duration": 3
    },
    {
      "text": "tria took multiple vacations together",
      "start": 191.97,
      "duration": 4.77
    },
    {
      "text": "including to Alaska where this",
      "start": 193.53,
      "duration": 4.71
    },
    {
      "text": "photograph was taken I don't know maybe",
      "start": 196.74,
      "duration": 3.75
    },
    {
      "text": "that was in commemoration of how the",
      "start": 198.24,
      "duration": 3.84
    },
    {
      "text": "relationship started hey should we have",
      "start": 200.49,
      "duration": 2.94
    },
    {
      "text": "a throuple relationship but that's not",
      "start": 202.08,
      "duration": 3.27
    },
    {
      "text": "for I don't know I'll ask it alright dad",
      "start": 203.43,
      "duration": 5.31
    },
    {
      "text": "Joe complete red-state was also provided",
      "start": 205.35,
      "duration": 5.13
    },
    {
      "text": "with intimate photographs of the women",
      "start": 208.74,
      "duration": 4.64
    },
    {
      "text": "which we have chosen not to publish",
      "start": 210.48,
      "duration": 4.59
    },
    {
      "text": "according to a source close to the",
      "start": 213.38,
      "duration": 3.37
    },
    {
      "text": "staffer the throuple agreed to continue",
      "start": 215.07,
      "duration": 3.21
    },
    {
      "text": "their committed relationship when Hill",
      "start": 216.75,
      "duration": 3.99
    },
    {
      "text": "moved to Washington DC on January 2019",
      "start": 218.28,
      "duration": 4.44
    },
    {
      "text": "but that has slepen the staffer quickly",
      "start": 220.74,
      "duration": 3.68
    },
    {
      "text": "noticed the difference in Hills demeanor",
      "start": 222.72,
      "duration": 3.69
    },
    {
      "text": "by late May Hill broke off a",
      "start": 224.42,
      "duration": 3.94
    },
    {
      "text": "relationship with both s left and the",
      "start": 226.41,
      "duration": 3.48
    },
    {
      "text": "staffer claiming she wanted to focus on",
      "start": 228.36,
      "duration": 3.72
    },
    {
      "text": "his important work and that it wasn't",
      "start": 229.89,
      "duration": 3.72
    },
    {
      "text": "fair to be involved in a relationship",
      "start": 232.08,
      "duration": 4.23
    },
    {
      "text": "the staffer as the text messages show",
      "start": 233.61,
      "duration": 3.9
    },
    {
      "text": "was distraught and trying to figure out",
      "start": 236.31,
      "duration": 5.91
    },
    {
      "text": "how to move on with her life and it's",
      "start": 237.51,
      "duration": 6.449
    },
    {
      "text": "all you know 20s drama and all that kind",
      "start": 242.22,
      "duration": 3.3
    },
    {
      "text": "of stuff which I still understand but",
      "start": 243.959,
      "duration": 6.901
    },
    {
      "text": "all right so according to the text",
      "start": 245.52,
      "duration": 6.93
    },
    {
      "text": "messages reviewed after Hill left the",
      "start": 250.86,
      "duration": 3.39
    },
    {
      "text": "throuple Heslop was told by numerous",
      "start": 252.45,
      "duration": 4.289
    },
    {
      "text": "sources that Hill had been involved in a",
      "start": 254.25,
      "duration": 4.14
    },
    {
      "text": "sexual relationship for a year",
      "start": 256.739,
      "duration": 3.451
    },
    {
      "text": "with her then finance director now",
      "start": 258.39,
      "duration": 5.04
    },
    {
      "text": "legislative director Graham Kelly in a",
      "start": 260.19,
      "duration": 5.01
    },
    {
      "text": "post on his now deleted Facebook account",
      "start": 263.43,
      "duration": 3.51
    },
    {
      "text": "a slit posted a screenshot of a text",
      "start": 265.2,
      "duration": 3.3
    },
    {
      "text": "between himself and a friend of the",
      "start": 266.94,
      "duration": 2.94
    },
    {
      "text": "couple in which the friend admits that",
      "start": 268.5,
      "duration": 4.29
    },
    {
      "text": "he now knows about the hill Kelly affair",
      "start": 269.88,
      "duration": 6.12
    },
    {
      "text": "right so apparently Heth net was really",
      "start": 272.79,
      "duration": 6.84
    },
    {
      "text": "really upset when he was when his his",
      "start": 276,
      "duration": 6.02
    },
    {
      "text": "wife was being involved in a",
      "start": 279.63,
      "duration": 4.56
    },
    {
      "text": "relationship or an affair outside the",
      "start": 282.02,
      "duration": 3.85
    },
    {
      "text": "marriage which wasn't something that he",
      "start": 284.19,
      "duration": 4.23
    },
    {
      "text": "was part of or privy to or whatever",
      "start": 285.87,
      "duration": 6.39
    },
    {
      "text": "right god what can you even say",
      "start": 288.42,
      "duration": 5.37
    },
    {
      "text": "so after Hester found out about the",
      "start": 292.26,
      "duration": 2.88
    },
    {
      "text": "alleged affair between Hill and Kelly he",
      "start": 293.79,
      "duration": 7.53
    },
    {
      "text": "filed for divorce so he's on the market",
      "start": 295.14,
      "duration": 9.86
    },
    {
      "text": "soon ladies and gentlemen and I guess",
      "start": 301.32,
      "duration": 10.02
    },
    {
      "text": "everything else so basically the woman",
      "start": 305,
      "duration": 8.47
    },
    {
      "text": "that the young woman that the old woman",
      "start": 311.34,
      "duration": 4.23
    },
    {
      "text": "sitting on the chair was grooming was a",
      "start": 313.47,
      "duration": 4.26
    },
    {
      "text": "staffer first paid in November 2017 her",
      "start": 315.57,
      "duration": 3.75
    },
    {
      "text": "payment was classified a salary which",
      "start": 317.73,
      "duration": 4.32
    },
    {
      "text": "makes her an employee so from the",
      "start": 319.32,
      "duration": 4.32
    },
    {
      "text": "article California law doesn't expressly",
      "start": 322.05,
      "duration": 3.48
    },
    {
      "text": "prohibit consensual sexual relationships",
      "start": 323.64,
      "duration": 3.51
    },
    {
      "text": "between an employer and a direct report",
      "start": 325.53,
      "duration": 3.09
    },
    {
      "text": "but it's certainly a murky legal and",
      "start": 327.15,
      "duration": 5.07
    },
    {
      "text": "ethical area some legal pundits contend",
      "start": 328.62,
      "duration": 5.67
    },
    {
      "text": "that an employee can't really consent to",
      "start": 332.22,
      "duration": 3.66
    },
    {
      "text": "a sexual relationship but the person who",
      "start": 334.29,
      "duration": 4.31
    },
    {
      "text": "signs their paycheck",
      "start": 335.88,
      "duration": 5.31
    },
    {
      "text": "nice job you have there be a shame if",
      "start": 338.6,
      "duration": 3.94
    },
    {
      "text": "something happened to it if you didn't",
      "start": 341.19,
      "duration": 5.9
    },
    {
      "text": "join us in the murky green hot tub I",
      "start": 342.54,
      "duration": 6.72
    },
    {
      "text": "wonder if a woman can get a porn stache",
      "start": 347.09,
      "duration": 6.46
    },
    {
      "text": "we'll see now also concern is the",
      "start": 349.26,
      "duration": 5.82
    },
    {
      "text": "alleged throuple in the alleged throuple",
      "start": 353.55,
      "duration": 3.03
    },
    {
      "text": "relationship as the age differential",
      "start": 355.08,
      "duration": 3.42
    },
    {
      "text": "between Hill hath flip and the staffer",
      "start": 356.58,
      "duration": 3.9
    },
    {
      "text": "the staffer was 22 in a new to college",
      "start": 358.5,
      "duration": 3.419
    },
    {
      "text": "graduate when the relationship started",
      "start": 360.48,
      "duration": 3.21
    },
    {
      "text": "Hill and has slept were in their 30s",
      "start": 361.919,
      "duration": 3.811
    },
    {
      "text": "right so what they got a good 15 years",
      "start": 363.69,
      "duration": 5.28
    },
    {
      "text": "on her the the congresswoman I guess at",
      "start": 365.73,
      "duration": 4.92
    },
    {
      "text": "that time not congresswoman we're",
      "start": 368.97,
      "duration": 3.84
    },
    {
      "text": "signing her paycheck and does she really",
      "start": 370.65,
      "duration": 3.66
    },
    {
      "text": "have as much free choice you know",
      "start": 372.81,
      "duration": 2.94
    },
    {
      "text": "everyone's an adult I get all of that",
      "start": 374.31,
      "duration": 4.59
    },
    {
      "text": "but more importantly is the questions of",
      "start": 375.75,
      "duration": 4.74
    },
    {
      "text": "national security",
      "start": 378.9,
      "duration": 3.54
    },
    {
      "text": "boy Democrats and questions of national",
      "start": 380.49,
      "duration": 5.31
    },
    {
      "text": "security if I had a dollar they don't",
      "start": 382.44,
      "duration": 4.71
    },
    {
      "text": "forget you can help me at it free",
      "start": 385.8,
      "duration": 3.18
    },
    {
      "text": "domain.com forward slash tonight thanks",
      "start": 387.15,
      "duration": 3.66
    },
    {
      "text": "thanks so much of course for all of your",
      "start": 388.98,
      "duration": 5.46
    },
    {
      "text": "help so this congresswoman Hill serves",
      "start": 390.81,
      "duration": 5.76
    },
    {
      "text": "on two influential committees oversight",
      "start": 394.44,
      "duration": 6.18
    },
    {
      "text": "and reform and armed service",
      "start": 396.57,
      "duration": 5.49
    },
    {
      "text": "she has access to extremely sensitive",
      "start": 400.62,
      "duration": 3.42
    },
    {
      "text": "national security information if people",
      "start": 402.06,
      "duration": 3.329
    },
    {
      "text": "who don't have our nation's best",
      "start": 404.04,
      "duration": 3.15
    },
    {
      "text": "interests at heart had access to the",
      "start": 405.389,
      "duration": 3.241
    },
    {
      "text": "photographs text messages and other",
      "start": 407.19,
      "duration": 2.96
    },
    {
      "text": "information provided a red state",
      "start": 408.63,
      "duration": 3.39
    },
    {
      "text": "representative hill would be an easy",
      "start": 410.15,
      "duration": 4.62
    },
    {
      "text": "blackmail target well no freaking",
      "start": 412.02,
      "duration": 10.38
    },
    {
      "text": "kidding and this bothered me in a very",
      "start": 414.77,
      "duration": 10.59
    },
    {
      "text": "deep way and also to tell you why",
      "start": 422.4,
      "duration": 5.46
    },
    {
      "text": "marriage like what is marriage for words",
      "start": 425.36,
      "duration": 3.82
    },
    {
      "text": "many people think that marriage is about",
      "start": 427.86,
      "duration": 3.089
    },
    {
      "text": "the adults and it's not it's not what",
      "start": 429.18,
      "duration": 6.84
    },
    {
      "text": "marriage is about marriage serves as a",
      "start": 430.949,
      "duration": 7.44
    },
    {
      "text": "personal and social and community",
      "start": 436.02,
      "duration": 3.959
    },
    {
      "text": "commitment to create a stable",
      "start": 438.389,
      "duration": 3.081
    },
    {
      "text": "environment in which to raise children",
      "start": 439.979,
      "duration": 4.47
    },
    {
      "text": "right in order to keep children safe you",
      "start": 441.47,
      "duration": 6.04
    },
    {
      "text": "need pair-bonded mother and father",
      "start": 444.449,
      "duration": 5.791
    },
    {
      "text": "ideally with genetic relationships to",
      "start": 447.51,
      "duration": 4.35
    },
    {
      "text": "the kids not perfect not not absolutely",
      "start": 450.24,
      "duration": 3.72
    },
    {
      "text": "necessary but ideally right that's how",
      "start": 451.86,
      "duration": 5.91
    },
    {
      "text": "you keep children safe right so children",
      "start": 453.96,
      "duration": 8.34
    },
    {
      "text": "who have a non-related adult male living",
      "start": 457.77,
      "duration": 6.36
    },
    {
      "text": "with them are 30 times 30 times more",
      "start": 462.3,
      "duration": 3.96
    },
    {
      "text": "likely to be abused right genetic",
      "start": 464.13,
      "duration": 3.57
    },
    {
      "text": "relationships or at least being with the",
      "start": 466.26,
      "duration": 3.12
    },
    {
      "text": "child if it's dobbed it from sort of",
      "start": 467.7,
      "duration": 3.75
    },
    {
      "text": "early age onwards is the best protection",
      "start": 469.38,
      "duration": 3.57
    },
    {
      "text": "for the children so how do you protect",
      "start": 471.45,
      "duration": 4.23
    },
    {
      "text": "children you get couples to commit to",
      "start": 472.95,
      "duration": 4.08
    },
    {
      "text": "lifelong commitments to each other",
      "start": 475.68,
      "duration": 3.09
    },
    {
      "text": "before they get married that's how",
      "start": 477.03,
      "duration": 3.27
    },
    {
      "text": "children are protected that's how",
      "start": 478.77,
      "duration": 3.869
    },
    {
      "text": "culture is transmitted that's how values",
      "start": 480.3,
      "duration": 4.89
    },
    {
      "text": "are transmitted that's how all of the",
      "start": 482.639,
      "duration": 5.041
    },
    {
      "text": "hard-won achievements moral and economic",
      "start": 485.19,
      "duration": 5.34
    },
    {
      "text": "and political that were fought for and",
      "start": 487.68,
      "duration": 4.35
    },
    {
      "text": "bled for and died for by our ancestors",
      "start": 490.53,
      "duration": 2.46
    },
    {
      "text": "gets passed from generation to",
      "start": 492.03,
      "duration": 2.639
    },
    {
      "text": "generation which is why if you want to",
      "start": 492.99,
      "duration": 3.2
    },
    {
      "text": "destroy culture you must first destroy",
      "start": 494.669,
      "duration": 4.141
    },
    {
      "text": "the family right and and so that's",
      "start": 496.19,
      "duration": 5.53
    },
    {
      "text": "really really important so why do you",
      "start": 498.81,
      "duration": 5.43
    },
    {
      "text": "get together and announce publicly that",
      "start": 501.72,
      "duration": 3.479
    },
    {
      "text": "you're going to stay together forever",
      "start": 504.24,
      "duration": 3.899
    },
    {
      "text": "well it's a signal to your family to",
      "start": 505.199,
      "duration": 5.28
    },
    {
      "text": "your friends to your community that if",
      "start": 508.139,
      "duration": 3.75
    },
    {
      "text": "you run into trouble they are to help",
      "start": 510.479,
      "duration": 3.781
    },
    {
      "text": "you stay together right you break up",
      "start": 511.889,
      "duration": 3.661
    },
    {
      "text": "with some woman you've been dating for a",
      "start": 514.26,
      "duration": 2.88
    },
    {
      "text": "couple of months or some man your",
      "start": 515.55,
      "duration": 2.789
    },
    {
      "text": "friends are like oh that's a drag but",
      "start": 517.14,
      "duration": 3
    },
    {
      "text": "you know move on kind of thing right but",
      "start": 518.339,
      "duration": 3.151
    },
    {
      "text": "if you publicly stated you're gonna stay",
      "start": 520.14,
      "duration": 2.73
    },
    {
      "text": "together forever than if you run into",
      "start": 521.49,
      "duration": 2.64
    },
    {
      "text": "trouble your friends and your family is",
      "start": 522.87,
      "duration": 3.96
    },
    {
      "text": "supposed to help you repair those bonds",
      "start": 524.13,
      "duration": 3.959
    },
    {
      "text": "right I mean in that scene from",
      "start": 526.83,
      "duration": 2.79
    },
    {
      "text": "Goodfellas although it's a gross movie",
      "start": 528.089,
      "duration": 3.151
    },
    {
      "text": "that scene sort of where they try and",
      "start": 529.62,
      "duration": 4.42
    },
    {
      "text": "repair the the marriage and so on that's",
      "start": 531.24,
      "duration": 4.72
    },
    {
      "text": "important right that's that's important",
      "start": 534.04,
      "duration": 4.5
    },
    {
      "text": "and so that's what marriage is for",
      "start": 535.96,
      "duration": 4.68
    },
    {
      "text": "marriage is for creating a stable base",
      "start": 538.54,
      "duration": 3.54
    },
    {
      "text": "for the raising of children the",
      "start": 540.64,
      "duration": 2.85
    },
    {
      "text": "transmission of culture and the",
      "start": 542.08,
      "duration": 3.48
    },
    {
      "text": "protection of children that's what",
      "start": 543.49,
      "duration": 3.78
    },
    {
      "text": "marriage is for now of course then",
      "start": 545.56,
      "duration": 3.6
    },
    {
      "text": "everyone says to me oh well what about",
      "start": 547.27,
      "duration": 3.36
    },
    {
      "text": "children well sorry what about people",
      "start": 549.16,
      "duration": 3.03
    },
    {
      "text": "who can't have kids whatever people",
      "start": 550.63,
      "duration": 3.36
    },
    {
      "text": "people who were too old to have kids",
      "start": 552.19,
      "duration": 3.36
    },
    {
      "text": "what about people who don't want kids",
      "start": 553.99,
      "duration": 2.76
    },
    {
      "text": "can they still get married it's like",
      "start": 555.55,
      "duration": 3.69
    },
    {
      "text": "sure yeah William go for it I mean I'm",
      "start": 556.75,
      "duration": 3.93
    },
    {
      "text": "not a big one for banning people on",
      "start": 559.24,
      "duration": 2.79
    },
    {
      "text": "anything other than violations to the",
      "start": 560.68,
      "duration": 3.39
    },
    {
      "text": "non-aggression principle go ahead and",
      "start": 562.03,
      "duration": 3.54
    },
    {
      "text": "get married but just recognize that",
      "start": 564.07,
      "duration": 4.29
    },
    {
      "text": "marriage is there for kids and if you're",
      "start": 565.57,
      "duration": 4.32
    },
    {
      "text": "not in a situation or you ordered to",
      "start": 568.36,
      "duration": 2.58
    },
    {
      "text": "have kids you don't want to have kids",
      "start": 569.89,
      "duration": 2.91
    },
    {
      "text": "fine go ahead and get married but then",
      "start": 570.94,
      "duration": 3.42
    },
    {
      "text": "you're like a bicyclist who's biking on",
      "start": 572.8,
      "duration": 4.77
    },
    {
      "text": "the route right so if I say roads are",
      "start": 574.36,
      "duration": 5.85
    },
    {
      "text": "built for cars and then people say oh I",
      "start": 577.57,
      "duration": 3.93
    },
    {
      "text": "can't cross the road I can't ride my",
      "start": 580.21,
      "duration": 3.09
    },
    {
      "text": "bike on a road yeah I get it I biked all",
      "start": 581.5,
      "duration": 3.09
    },
    {
      "text": "throughout my 20s to get place didn't",
      "start": 583.3,
      "duration": 2.82
    },
    {
      "text": "even get a car till I was in my 30s my",
      "start": 584.59,
      "duration": 5.31
    },
    {
      "text": "first car ever so yeah you can use a",
      "start": 586.12,
      "duration": 6.33
    },
    {
      "text": "road if you're a bicyclist but just",
      "start": 589.9,
      "duration": 3.9
    },
    {
      "text": "recognize that if there weren't cars",
      "start": 592.45,
      "duration": 3.06
    },
    {
      "text": "there'd be no roads for you to use and",
      "start": 593.8,
      "duration": 4.14
    },
    {
      "text": "so you can get married if you want to",
      "start": 595.51,
      "duration": 3.6
    },
    {
      "text": "have nothing to do with kids or can't",
      "start": 597.94,
      "duration": 2.79
    },
    {
      "text": "have kids sure but just recognize the",
      "start": 599.11,
      "duration": 3.06
    },
    {
      "text": "institution is there for the protection",
      "start": 600.73,
      "duration": 3.51
    },
    {
      "text": "and of children that's what it's for and",
      "start": 602.17,
      "duration": 4.44
    },
    {
      "text": "so people who take this sacred",
      "start": 604.24,
      "duration": 4.83
    },
    {
      "text": "institution designed for the protection",
      "start": 606.61,
      "duration": 3.78
    },
    {
      "text": "of children than the maintenance of",
      "start": 609.07,
      "duration": 3.72
    },
    {
      "text": "culture and then just use it to serve",
      "start": 610.39,
      "duration": 6.81
    },
    {
      "text": "their own base of the brain are selected",
      "start": 612.79,
      "duration": 6.9
    },
    {
      "text": "endorphin pursuing mammals humping every",
      "start": 617.2,
      "duration": 5.58
    },
    {
      "text": "hole kind of bass last okay were you",
      "start": 619.69,
      "duration": 4.8
    },
    {
      "text": "just hijacking it for your own selfish",
      "start": 622.78,
      "duration": 3.42
    },
    {
      "text": "pleasures and purposes and you are to",
      "start": 624.49,
      "duration": 3.03
    },
    {
      "text": "some degree destabilizing the",
      "start": 626.2,
      "duration": 4.17
    },
    {
      "text": "institution as a whole and therefore you",
      "start": 627.52,
      "duration": 5.55
    },
    {
      "text": "are feeding the continuance of a great",
      "start": 630.37,
      "duration": 5.4
    },
    {
      "text": "culture into the wood chipper of your",
      "start": 633.07,
      "duration": 6.54
    },
    {
      "text": "own bottomless lust and that is a gross",
      "start": 635.77,
      "duration": 6.09
    },
    {
      "text": "thing to see it's a gross thing to see",
      "start": 639.61,
      "duration": 5.43
    },
    {
      "text": "in an individual in a group it's a",
      "start": 641.86,
      "duration": 4.65
    },
    {
      "text": "really gross thing to see in a lawmaker",
      "start": 645.04,
      "duration": 3.45
    },
    {
      "text": "and it's a hideous and repulsive thing",
      "start": 646.51,
      "duration": 3.66
    },
    {
      "text": "to see though still not quite as hideous",
      "start": 648.49,
      "duration": 3.9
    },
    {
      "text": "and repulsive as seeing a woman sitting",
      "start": 650.17,
      "duration": 5.87
    },
    {
      "text": "naked on a hotel chair",
      "start": 652.39,
      "duration": 3.65
    }
  ],
  "Errors": null,
  "TranscriptStderr": null
}