{
  "Title": "The Truth About The Paris Terrorist Attack",
  "Id": "cjvPj7WAX7A",
  "Transcript": [
    {
      "text": "hi everybody stefan molyneux from",
      "start": 0,
      "duration": 3.33
    },
    {
      "text": "freedomain radio with an update on the",
      "start": 1.8,
      "duration": 2.49
    },
    {
      "text": "Paris",
      "start": 3.33,
      "duration": 2.94
    },
    {
      "text": "radical Islamic terrorist attacks",
      "start": 4.29,
      "duration": 6.69
    },
    {
      "text": "reports show 129 people are dead 352",
      "start": 6.27,
      "duration": 6.72
    },
    {
      "text": "injured and 99 if the injured are in",
      "start": 10.98,
      "duration": 3.989
    },
    {
      "text": "critical condition after the terrorist",
      "start": 12.99,
      "duration": 3.83
    },
    {
      "text": "attacks in Paris France on Friday",
      "start": 14.969,
      "duration": 8.131
    },
    {
      "text": "November the 13th 2015 three coordinated",
      "start": 16.82,
      "duration": 8.35
    },
    {
      "text": "attack teams of Islamic terrorists some",
      "start": 23.1,
      "duration": 4.83
    },
    {
      "text": "with ak-47s some acting as suicide",
      "start": 25.17,
      "duration": 5.22
    },
    {
      "text": "bombers attacked seven sites throughout",
      "start": 27.93,
      "duration": 3.599
    },
    {
      "text": "the French capital with the worst",
      "start": 30.39,
      "duration": 3.24
    },
    {
      "text": "carnage occurring at the batterer Klan",
      "start": 31.529,
      "duration": 6.381
    },
    {
      "text": "concert hall with at least 89 murdered",
      "start": 33.63,
      "duration": 7.74
    },
    {
      "text": "eight terrorists died during the attacks",
      "start": 37.91,
      "duration": 5.44
    },
    {
      "text": "with seven killing themselves in suicide",
      "start": 41.37,
      "duration": 5.3
    },
    {
      "text": "blasts in the last being shot by police",
      "start": 43.35,
      "duration": 5.729
    },
    {
      "text": "it's reported that the Paris attackers",
      "start": 46.67,
      "duration": 5.049
    },
    {
      "text": "shouted it's for Syria and Allahu Akbar",
      "start": 49.079,
      "duration": 5.401
    },
    {
      "text": "but many pundits and politicians and",
      "start": 51.719,
      "duration": 4.41
    },
    {
      "text": "usual suspects are of course warning",
      "start": 54.48,
      "duration": 3.899
    },
    {
      "text": "that we shouldn't speculate about the",
      "start": 56.129,
      "duration": 3.811
    },
    {
      "text": "allegiance of the attackers could be",
      "start": 58.379,
      "duration": 5.52
    },
    {
      "text": "Scottish one of the attackers was a",
      "start": 59.94,
      "duration": 6.12
    },
    {
      "text": "young Frenchman known to the authorities",
      "start": 63.899,
      "duration": 4.171
    },
    {
      "text": "but a Syrian passport was found near the",
      "start": 66.06,
      "duration": 3.87
    },
    {
      "text": "body of another attacker identifying the",
      "start": 68.07,
      "duration": 4.29
    },
    {
      "text": "man as a Syrian refugee who entered the",
      "start": 69.93,
      "duration": 7.22
    },
    {
      "text": "European Union through Greece last month",
      "start": 72.36,
      "duration": 6.75
    },
    {
      "text": "another of the terrorists was in",
      "start": 77.15,
      "duration": 3.579
    },
    {
      "text": "possession of an Egyptian passport and",
      "start": 79.11,
      "duration": 3.54
    },
    {
      "text": "three suspects are believed to have",
      "start": 80.729,
      "duration": 4.441
    },
    {
      "text": "originated from Brussels one of the",
      "start": 82.65,
      "duration": 4.079
    },
    {
      "text": "attackers who died at the study de",
      "start": 85.17,
      "duration": 3.239
    },
    {
      "text": "France Stadium is believed to have been",
      "start": 86.729,
      "duration": 6.811
    },
    {
      "text": "as young as 15 years old France of",
      "start": 88.409,
      "duration": 6.871
    },
    {
      "text": "course has been on edge since January",
      "start": 93.54,
      "duration": 3.09
    },
    {
      "text": "when Islamic terrorists attacked the",
      "start": 95.28,
      "duration": 2.82
    },
    {
      "text": "satirical newspaper Charlie Hebdo",
      "start": 96.63,
      "duration": 3.809
    },
    {
      "text": "leaving 20 people dead including three",
      "start": 98.1,
      "duration": 5.909
    },
    {
      "text": "of the shooters Isis released a",
      "start": 100.439,
      "duration": 5.311
    },
    {
      "text": "statement on Saturday November 14th",
      "start": 104.009,
      "duration": 4.411
    },
    {
      "text": "claiming responsibility for the attacks",
      "start": 105.75,
      "duration": 6.149
    },
    {
      "text": "quote a group of believers from the",
      "start": 108.42,
      "duration": 5.22
    },
    {
      "text": "soldiers of the Caliphate may Allah",
      "start": 111.899,
      "duration": 3.18
    },
    {
      "text": "strengthened and supported set out",
      "start": 113.64,
      "duration": 3.18
    },
    {
      "text": "targeting the capital of prostitution",
      "start": 115.079,
      "duration": 6.991
    },
    {
      "text": "and vice Paris Paris was thereby shaken",
      "start": 116.82,
      "duration": 6.57
    },
    {
      "text": "beneath the Crusaders feet who were",
      "start": 122.07,
      "duration": 4.17
    },
    {
      "text": "constricted by its streets let France",
      "start": 123.39,
      "duration": 5.13
    },
    {
      "text": "and all nations following its path know",
      "start": 126.24,
      "duration": 3.9
    },
    {
      "text": "that they will continue to be at the top",
      "start": 128.52,
      "duration": 3.39
    },
    {
      "text": "of the target list for the Islamic state",
      "start": 130.14,
      "duration": 3.54
    },
    {
      "text": "and the descent of death",
      "start": 131.91,
      "duration": 3.57
    },
    {
      "text": "will not leave their nostrils as long as",
      "start": 133.68,
      "duration": 6.139
    },
    {
      "text": "they partake in the Crusader campaign",
      "start": 135.48,
      "duration": 4.339
    },
    {
      "text": "indeed they said this is just the",
      "start": 139.849,
      "duration": 6.39
    },
    {
      "text": "beginning",
      "start": 143.909,
      "duration": 5.791
    },
    {
      "text": "Isis has also added the American blood",
      "start": 146.239,
      "duration": 8.821
    },
    {
      "text": "is best and we will taste it soon",
      "start": 149.7,
      "duration": 7.95
    },
    {
      "text": "French president Francois Hollande has",
      "start": 155.06,
      "duration": 3.7
    },
    {
      "text": "closed the borders due to the",
      "start": 157.65,
      "duration": 2.729
    },
    {
      "text": "unprecedented terror attacks as they've",
      "start": 158.76,
      "duration": 2.879
    },
    {
      "text": "been called and has vowed that France",
      "start": 160.379,
      "duration": 4.371
    },
    {
      "text": "will wage merciless war on Isis in",
      "start": 161.639,
      "duration": 8.43
    },
    {
      "text": "response France remains under a",
      "start": 164.75,
      "duration": 8.2
    },
    {
      "text": "nationwide state of emergency at the",
      "start": 170.069,
      "duration": 6.931
    },
    {
      "text": "moment what preceded these attacks well",
      "start": 172.95,
      "duration": 5.55
    },
    {
      "text": "on Sunday November the 8th France",
      "start": 177,
      "duration": 3.389
    },
    {
      "text": "conducted an airstrike on Syria's oil",
      "start": 178.5,
      "duration": 3.989
    },
    {
      "text": "infrastructure which was the latest in a",
      "start": 180.389,
      "duration": 4.83
    },
    {
      "text": "series of military measures president",
      "start": 182.489,
      "duration": 4.381
    },
    {
      "text": "Arland claimed that an Isis training",
      "start": 185.219,
      "duration": 4.231
    },
    {
      "text": "camp in eastern Syria posed a threat to",
      "start": 186.87,
      "duration": 4.349
    },
    {
      "text": "French security and ordered it destroyed",
      "start": 189.45,
      "duration": 4.019
    },
    {
      "text": "accomplishing the task as he claimed",
      "start": 191.219,
      "duration": 5.181
    },
    {
      "text": "without sufficient civilian casualties",
      "start": 193.469,
      "duration": 5.67
    },
    {
      "text": "France of course has been involved in",
      "start": 196.4,
      "duration": 4.72
    },
    {
      "text": "airstrikes in Iraq as part of the us-led",
      "start": 199.139,
      "duration": 5.731
    },
    {
      "text": "coalition since 2014 but has previously",
      "start": 201.12,
      "duration": 5.429
    },
    {
      "text": "restrained from attacks in Syria in",
      "start": 204.87,
      "duration": 3.359
    },
    {
      "text": "order to avoid strengthening President",
      "start": 206.549,
      "duration": 4.171
    },
    {
      "text": "Bashar al Assad aligned strategy",
      "start": 208.229,
      "duration": 4.081
    },
    {
      "text": "reportedly changed because of growing",
      "start": 210.72,
      "duration": 5.78
    },
    {
      "text": "concerns about the Syrian refugee crisis",
      "start": 212.31,
      "duration": 6.359
    },
    {
      "text": "alternatively you could just not let the",
      "start": 216.5,
      "duration": 4.449
    },
    {
      "text": "refugees into your country instead of",
      "start": 218.669,
      "duration": 5.551
    },
    {
      "text": "bombing it in February 2015 Isis",
      "start": 220.949,
      "duration": 4.951
    },
    {
      "text": "released a french-language video warning",
      "start": 224.22,
      "duration": 4.349
    },
    {
      "text": "France not to participate in United",
      "start": 225.9,
      "duration": 5.19
    },
    {
      "text": "states-led attacks in Syria claiming",
      "start": 228.569,
      "duration": 4.62
    },
    {
      "text": "that operatives were already within",
      "start": 231.09,
      "duration": 3.95
    },
    {
      "text": "France awaiting instructions",
      "start": 233.189,
      "duration": 6.54
    },
    {
      "text": "for attack quote Islamic state fighters",
      "start": 235.04,
      "duration": 6.309
    },
    {
      "text": "are deployed everywhere and your",
      "start": 239.729,
      "duration": 4.41
    },
    {
      "text": "nightmare begins now along with the real",
      "start": 241.349,
      "duration": 7.831
    },
    {
      "text": "war French military action occurred",
      "start": 244.139,
      "duration": 8.1
    },
    {
      "text": "despite a parliamentary vote against any",
      "start": 249.18,
      "duration": 5.13
    },
    {
      "text": "such actions and national polling",
      "start": 252.239,
      "duration": 5.21
    },
    {
      "text": "showing the 64% of the French population",
      "start": 254.31,
      "duration": 7.25
    },
    {
      "text": "opposed military intervention",
      "start": 257.449,
      "duration": 8.101
    },
    {
      "text": "good job democracy",
      "start": 261.56,
      "duration": 3.99
    },
    {
      "text": "what is the bigger picture what is",
      "start": 266.129,
      "duration": 3.581
    },
    {
      "text": "happening to the demographics of France",
      "start": 268,
      "duration": 4.919
    },
    {
      "text": "although French law prohibits the",
      "start": 269.71,
      "duration": 6.359
    },
    {
      "text": "collection of official statistics",
      "start": 272.919,
      "duration": 4.71
    },
    {
      "text": "statistics about the race or religion of",
      "start": 276.069,
      "duration": 5.581
    },
    {
      "text": "its citizens it is estimated that nine",
      "start": 277.629,
      "duration": 6.241
    },
    {
      "text": "point eight four percent of the French",
      "start": 281.65,
      "duration": 4.199
    },
    {
      "text": "population is Muslim almost ten percent",
      "start": 283.87,
      "duration": 3.93
    },
    {
      "text": "of the French population is Muslim here",
      "start": 285.849,
      "duration": 3.931
    },
    {
      "text": "you can see a little over 66 million",
      "start": 287.8,
      "duration": 3.75
    },
    {
      "text": "people in France as a whole six point",
      "start": 289.78,
      "duration": 9.169
    },
    {
      "text": "five million Muslims from 2000 to 2014",
      "start": 291.55,
      "duration": 11.13
    },
    {
      "text": "asylum applications by country you can",
      "start": 298.949,
      "duration": 7.481
    },
    {
      "text": "see here in Germany the roller coaster",
      "start": 302.68,
      "duration": 6.9
    },
    {
      "text": "possibly to hell itself and the other",
      "start": 306.43,
      "duration": 4.739
    },
    {
      "text": "countries are bumping around Spain at",
      "start": 309.58,
      "duration": 5.25
    },
    {
      "text": "the bottom followed by Sweden and the",
      "start": 311.169,
      "duration": 4.641
    },
    {
      "text": "United Kingdom",
      "start": 314.83,
      "duration": 5.339
    },
    {
      "text": "this is of the 14 15 year period 2000",
      "start": 315.81,
      "duration": 9.28
    },
    {
      "text": "2014 asylum applications by country this",
      "start": 320.169,
      "duration": 6.571
    },
    {
      "text": "is the number of asylum applications",
      "start": 325.09,
      "duration": 4.949
    },
    {
      "text": "from 1985 to 2014 Germany almost 3.3",
      "start": 326.74,
      "duration": 7.019
    },
    {
      "text": "million France 1.2 3 million",
      "start": 330.039,
      "duration": 6.18
    },
    {
      "text": "United Kingdom almost 1.1 million Sweden",
      "start": 333.759,
      "duration": 8.671
    },
    {
      "text": "830 8000 Spain 176,000 and change and if",
      "start": 336.219,
      "duration": 10.38
    },
    {
      "text": "we zoom in just to 2014 asylum",
      "start": 342.43,
      "duration": 9.269
    },
    {
      "text": "applications Germany two hundred and two",
      "start": 346.599,
      "duration": 6.63
    },
    {
      "text": "thousand eight hundred and fifteen",
      "start": 351.699,
      "duration": 5.58
    },
    {
      "text": "Sweden 80 1325 France sixty-four",
      "start": 353.229,
      "duration": 6.15
    },
    {
      "text": "thousand three hundred and ten United",
      "start": 357.279,
      "duration": 9.301
    },
    {
      "text": "Kingdom 30 1945 Spain 5615 I think a few",
      "start": 359.379,
      "duration": 9.9
    },
    {
      "text": "people tried to get into Japan and Japan",
      "start": 366.58,
      "duration": 8.19
    },
    {
      "text": "said no these demographic changes in",
      "start": 369.279,
      "duration": 6.871
    },
    {
      "text": "France have been occurring for some",
      "start": 374.77,
      "duration": 4.91
    },
    {
      "text": "generations they are partly a legacy of",
      "start": 376.15,
      "duration": 5.639
    },
    {
      "text": "colonization that occurred particularly",
      "start": 379.68,
      "duration": 5.829
    },
    {
      "text": "in the Angi Algeria what are some of the",
      "start": 381.789,
      "duration": 7.5
    },
    {
      "text": "drivers behind it in a 1974 speech to",
      "start": 385.509,
      "duration": 5.791
    },
    {
      "text": "the United Nations General Assembly the",
      "start": 389.289,
      "duration": 4.831
    },
    {
      "text": "second president of algea stated one day",
      "start": 391.3,
      "duration": 4.95
    },
    {
      "text": "millions of men will leave the southern",
      "start": 394.12,
      "duration": 3.68
    },
    {
      "text": "hemisphere to go to the northern",
      "start": 396.25,
      "duration": 4.19
    },
    {
      "text": "fear and they will not go there as",
      "start": 397.8,
      "duration": 7.739
    },
    {
      "text": "friends because they will go there to",
      "start": 400.44,
      "duration": 7.74
    },
    {
      "text": "conquer it and they will conquer it with",
      "start": 405.539,
      "duration": 5.97
    },
    {
      "text": "their sons the wounds of our women will",
      "start": 408.18,
      "duration": 7.889
    },
    {
      "text": "give us victory his words were prophetic",
      "start": 411.509,
      "duration": 6.09
    },
    {
      "text": "in fact the majority of Muslims in",
      "start": 416.069,
      "duration": 4.771
    },
    {
      "text": "France are of Algerian descent now",
      "start": 417.599,
      "duration": 4.861
    },
    {
      "text": "outbreeding what are called the infidels",
      "start": 420.84,
      "duration": 4.41
    },
    {
      "text": "is a rather popular idea amongst Muslim",
      "start": 422.46,
      "duration": 5.82
    },
    {
      "text": "religious leaders here is a quote from a",
      "start": 425.25,
      "duration": 6
    },
    {
      "text": "leading Norwegian Imam in 2006 we are",
      "start": 428.28,
      "duration": 5.069
    },
    {
      "text": "the ones who will change you just look",
      "start": 431.25,
      "duration": 3.599
    },
    {
      "text": "at the development within Europe where",
      "start": 433.349,
      "duration": 3.091
    },
    {
      "text": "the number of Muslims is expanding like",
      "start": 434.849,
      "duration": 5.31
    },
    {
      "text": "mosquitoes every Western woman in the EU",
      "start": 436.44,
      "duration": 6.89
    },
    {
      "text": "is producing an average of 1.4 children",
      "start": 440.159,
      "duration": 5.73
    },
    {
      "text": "every Muslim woman in the same countries",
      "start": 443.33,
      "duration": 5.26
    },
    {
      "text": "is producing 3.5 children our way of",
      "start": 445.889,
      "duration": 5.46
    },
    {
      "text": "thinking will prove more powerful than",
      "start": 448.59,
      "duration": 8.43
    },
    {
      "text": "yours more recently a tappa mom told",
      "start": 451.349,
      "duration": 7.62
    },
    {
      "text": "Muslim migrants to breed with Europeans",
      "start": 457.02,
      "duration": 7.86
    },
    {
      "text": "to quote conquer their countries he said",
      "start": 458.969,
      "duration": 7.95
    },
    {
      "text": "Europe has become old and decrepit and",
      "start": 464.88,
      "duration": 4.23
    },
    {
      "text": "needs human reinforcement they are not",
      "start": 466.919,
      "duration": 4.081
    },
    {
      "text": "motivated by compassion for the Levant",
      "start": 469.11,
      "duration": 3.839
    },
    {
      "text": "its people and its refugees he stated",
      "start": 471,
      "duration": 3.9
    },
    {
      "text": "soon we will trample them under foot",
      "start": 472.949,
      "duration": 7.351
    },
    {
      "text": "Allah willing throughout Europe all the",
      "start": 474.9,
      "duration": 7.079
    },
    {
      "text": "hearts are enthused with hatred toward",
      "start": 480.3,
      "duration": 3.78
    },
    {
      "text": "Muslims they wish that we were dead but",
      "start": 481.979,
      "duration": 3.961
    },
    {
      "text": "they have lost their fertility so they",
      "start": 484.08,
      "duration": 5.309
    },
    {
      "text": "look for fertility in our midst we will",
      "start": 485.94,
      "duration": 5.49
    },
    {
      "text": "give them fertility we will breed",
      "start": 489.389,
      "duration": 4.171
    },
    {
      "text": "children with them because we shall",
      "start": 491.43,
      "duration": 7.38
    },
    {
      "text": "conquer their countries migrating to",
      "start": 493.56,
      "duration": 6.719
    },
    {
      "text": "spread Islam to foreign countries is",
      "start": 498.81,
      "duration": 3.75
    },
    {
      "text": "considered a praiseworthy act among",
      "start": 500.279,
      "duration": 9.061
    },
    {
      "text": "Muslims despite making up only 9.8 4",
      "start": 502.56,
      "duration": 8.639
    },
    {
      "text": "percent of the population Muslims",
      "start": 509.34,
      "duration": 4.759
    },
    {
      "text": "account for 70 percent of inmates in",
      "start": 511.199,
      "duration": 6.2
    },
    {
      "text": "Frances prisons and again to legal under",
      "start": 514.099,
      "duration": 5.35
    },
    {
      "text": "Frances strict laws to count the number",
      "start": 517.399,
      "duration": 3.82
    },
    {
      "text": "of Muslim prisoners but experts agree",
      "start": 519.449,
      "duration": 3.351
    },
    {
      "text": "that these figures are accurate",
      "start": 521.219,
      "duration": 4.321
    },
    {
      "text": "estimates and there are some prisons",
      "start": 522.8,
      "duration": 5.11
    },
    {
      "text": "like those near Paris and Marseille",
      "start": 525.54,
      "duration": 5.37
    },
    {
      "text": "seeing even higher percentage did the",
      "start": 527.91,
      "duration": 3.53
    },
    {
      "text": "total",
      "start": 530.91,
      "duration": 4.58
    },
    {
      "text": "number of prisoners in France 67,500",
      "start": 531.44,
      "duration": 6.24
    },
    {
      "text": "muslim prisoners 47 thousand two hundred",
      "start": 535.49,
      "duration": 3.959
    },
    {
      "text": "and fifty other prisoners twenty",
      "start": 537.68,
      "duration": 9.269
    },
    {
      "text": "thousand two hundred and fifty francis",
      "start": 539.449,
      "duration": 11.87
    },
    {
      "text": "incarceration rate per 100,000",
      "start": 546.949,
      "duration": 6.661
    },
    {
      "text": "non-muslims are incarcerated in france",
      "start": 551.319,
      "duration": 5.291
    },
    {
      "text": "at a rate of thirty four per 100,000 the",
      "start": 553.61,
      "duration": 4.8
    },
    {
      "text": "Muslim population in France is",
      "start": 556.61,
      "duration": 4.589
    },
    {
      "text": "incarcerated at a rate of seven hundred",
      "start": 558.41,
      "duration": 6.21
    },
    {
      "text": "and twenty seven point two thirty four",
      "start": 561.199,
      "duration": 5.88
    },
    {
      "text": "point zero seven hundred and twenty",
      "start": 564.62,
      "duration": 8.519
    },
    {
      "text": "seven point two yay diversity in other",
      "start": 567.079,
      "duration": 7.38
    },
    {
      "text": "words the incarceration rate among",
      "start": 573.139,
      "duration": 3.75
    },
    {
      "text": "Muslims is more than twenty-one times",
      "start": 574.459,
      "duration": 6.411
    },
    {
      "text": "higher than the non Muslim population",
      "start": 576.889,
      "duration": 3.981
    },
    {
      "text": "European Union terrorist attacks",
      "start": 582.25,
      "duration": 4.86
    },
    {
      "text": "according to Europe all report in 2013",
      "start": 584.3,
      "duration": 4.769
    },
    {
      "text": "total of one hundred and fifty two",
      "start": 587.11,
      "duration": 3.49
    },
    {
      "text": "terrorist attacks occurred in the five",
      "start": 589.069,
      "duration": 5.19
    },
    {
      "text": "EU in five year Member States the",
      "start": 590.6,
      "duration": 5.82
    },
    {
      "text": "majority took place in France you can",
      "start": 594.259,
      "duration": 4.14
    },
    {
      "text": "see here on the right at 63 thirty five",
      "start": 596.42,
      "duration": 3.51
    },
    {
      "text": "in the United Kingdom thirty three in",
      "start": 598.399,
      "duration": 5.99
    },
    {
      "text": "Spain fourteen in Greece seven in Italy",
      "start": 599.93,
      "duration": 7.769
    },
    {
      "text": "attacks using firearms for the most",
      "start": 604.389,
      "duration": 5.831
    },
    {
      "text": "common form of attacks despite and then",
      "start": 607.699,
      "duration": 3.87
    },
    {
      "text": "of course the most frequent in France",
      "start": 610.22,
      "duration": 3.21
    },
    {
      "text": "most of the terrorist attacks occurred",
      "start": 611.569,
      "duration": 4.2
    },
    {
      "text": "in France using firearms despite the",
      "start": 613.43,
      "duration": 3.75
    },
    {
      "text": "fact that it's a sense essentially a",
      "start": 615.769,
      "duration": 4.231
    },
    {
      "text": "massive gun free zone but only for the",
      "start": 617.18,
      "duration": 5.759
    },
    {
      "text": "victims so good job gang control been",
      "start": 620,
      "duration": 4.17
    },
    {
      "text": "disarming people for the last two",
      "start": 622.939,
      "duration": 6.27
    },
    {
      "text": "hundred years about in Europe this is",
      "start": 624.17,
      "duration": 7.8
    },
    {
      "text": "European Union terrorism related arrests",
      "start": 629.209,
      "duration": 5.281
    },
    {
      "text": "from the Europe all report again and",
      "start": 631.97,
      "duration": 3.809
    },
    {
      "text": "again the sources for all of this would",
      "start": 634.49,
      "duration": 4.92
    },
    {
      "text": "below the video in 2013 five hundred and",
      "start": 635.779,
      "duration": 5.49
    },
    {
      "text": "thirty five individuals were arrested",
      "start": 639.41,
      "duration": 5.19
    },
    {
      "text": "for offenses relating to terrorism most",
      "start": 641.269,
      "duration": 4.711
    },
    {
      "text": "of the arrests occurred in France you",
      "start": 644.6,
      "duration": 4.979
    },
    {
      "text": "can see here at 225 in Spain at ninety",
      "start": 645.98,
      "duration": 8.87
    },
    {
      "text": "in the UK at seventy seven terrorism",
      "start": 649.579,
      "duration": 7.651
    },
    {
      "text": "related arrests in France amounted to",
      "start": 654.85,
      "duration": 5.32
    },
    {
      "text": "42% of all terrorism related arrests in",
      "start": 657.23,
      "duration": 5.7
    },
    {
      "text": "the European Union a continuous increase",
      "start": 660.17,
      "duration": 4.77
    },
    {
      "text": "in the number of arrests",
      "start": 662.93,
      "duration": 4.02
    },
    {
      "text": "for religiously inspired terrorism has",
      "start": 664.94,
      "duration": 7.95
    },
    {
      "text": "been observed since 2011 France is the",
      "start": 666.95,
      "duration": 7.8
    },
    {
      "text": "country in Europe which is also seeing",
      "start": 672.89,
      "duration": 4.2
    },
    {
      "text": "the highest number of people estimated",
      "start": 674.75,
      "duration": 4.65
    },
    {
      "text": "by the Brookings Institute addo ver 900",
      "start": 677.09,
      "duration": 6.39
    },
    {
      "text": "per month traveling to Syria to join the",
      "start": 679.4,
      "duration": 6.84
    },
    {
      "text": "Islamic state al but don't worry they're",
      "start": 683.48,
      "duration": 8.82
    },
    {
      "text": "probably going to be back positive",
      "start": 686.24,
      "duration": 9.69
    },
    {
      "text": "attitude towards Isis this was a survey",
      "start": 692.3,
      "duration": 8.58
    },
    {
      "text": "conducted how do people feel about Isis",
      "start": 695.93,
      "duration": 9.09
    },
    {
      "text": "well in France 27 percent of the",
      "start": 700.88,
      "duration": 7.62
    },
    {
      "text": "population of France from the age of 18",
      "start": 705.02,
      "duration": 6.75
    },
    {
      "text": "to 24 27 percent have a positive view",
      "start": 708.5,
      "duration": 5.76
    },
    {
      "text": "towards Isis now you may notice that",
      "start": 711.77,
      "duration": 3.75
    },
    {
      "text": "this is quite a bit higher than the nine",
      "start": 714.26,
      "duration": 2.96
    },
    {
      "text": "point eight four percentage point of",
      "start": 715.52,
      "duration": 4.89
    },
    {
      "text": "Muslims in France which either means of",
      "start": 717.22,
      "duration": 4.66
    },
    {
      "text": "course that a lot of non-muslims have a",
      "start": 720.41,
      "duration": 3.57
    },
    {
      "text": "positive view of Isis or another",
      "start": 721.88,
      "duration": 5.34
    },
    {
      "text": "possibility is that there are a lot more",
      "start": 723.98,
      "duration": 5.73
    },
    {
      "text": "Muslims in France than people think",
      "start": 727.22,
      "duration": 4.23
    },
    {
      "text": "cause you can't keep these statistics",
      "start": 729.71,
      "duration": 7.1
    },
    {
      "text": "because apparently numbers of racists",
      "start": 731.45,
      "duration": 5.36
    },
    {
      "text": "among ages 25 to 34 in France 22% have",
      "start": 738.34,
      "duration": 6.49
    },
    {
      "text": "positive attitudes towards Isis age 35",
      "start": 742.58,
      "duration": 5.13
    },
    {
      "text": "to 44 20% see weird and only one out of",
      "start": 744.83,
      "duration": 4.23
    },
    {
      "text": "five people in France who have a",
      "start": 747.71,
      "duration": 2.79
    },
    {
      "text": "positive view of Isis the numbers of",
      "start": 749.06,
      "duration": 4.44
    },
    {
      "text": "course much lower in Germany 3/4 and 3%",
      "start": 750.5,
      "duration": 6.11
    },
    {
      "text": "for the age ranges and for six and 11%",
      "start": 753.5,
      "duration": 9.99
    },
    {
      "text": "for the United Kingdom so 15% of the",
      "start": 756.61,
      "duration": 9.64
    },
    {
      "text": "French population as a whole say that",
      "start": 763.49,
      "duration": 4.59
    },
    {
      "text": "they have a positive view of Isis that",
      "start": 766.25,
      "duration": 4.71
    },
    {
      "text": "works out to a little over nine point",
      "start": 768.08,
      "duration": 9.24
    },
    {
      "text": "nine million people in France this is",
      "start": 770.96,
      "duration": 8.61
    },
    {
      "text": "compared to seven percent in the United",
      "start": 777.32,
      "duration": 5.85
    },
    {
      "text": "Kingdom and two percent in Germany the",
      "start": 779.57,
      "duration": 5.16
    },
    {
      "text": "share of Isis supporters is largest",
      "start": 783.17,
      "duration": 3.51
    },
    {
      "text": "among Frances younger generation as we",
      "start": 784.73,
      "duration": 4.32
    },
    {
      "text": "see here 27 percent have us have a",
      "start": 786.68,
      "duration": 5.46
    },
    {
      "text": "positive attitude towards Isis and the",
      "start": 789.05,
      "duration": 4.92
    },
    {
      "text": "survey was among a thousand people aged",
      "start": 792.14,
      "duration": 4.629
    },
    {
      "text": "over 15 years and over 18 in Britain in",
      "start": 793.97,
      "duration": 4.899
    },
    {
      "text": "country the poll was conducted by ICM",
      "start": 796.769,
      "duration": 4.04
    },
    {
      "text": "research for the Russian news agency",
      "start": 798.869,
      "duration": 6.57
    },
    {
      "text": "Razia say good near here's a pretty good",
      "start": 800.809,
      "duration": 7.09
    },
    {
      "text": "test for say cultural compatibility with",
      "start": 805.439,
      "duration": 4.8
    },
    {
      "text": "a relatively free and open society what",
      "start": 807.899,
      "duration": 3.54
    },
    {
      "text": "are your thoughts and opinions on",
      "start": 810.239,
      "duration": 2.91
    },
    {
      "text": "suicide bombing well these questions",
      "start": 811.439,
      "duration": 3.661
    },
    {
      "text": "have been asked and answered",
      "start": 813.149,
      "duration": 3.81
    },
    {
      "text": "what is the Muslim support for suicide",
      "start": 815.1,
      "duration": 4.469
    },
    {
      "text": "bombing by country in Europe let's find",
      "start": 816.959,
      "duration": 3.24
    },
    {
      "text": "out shall we",
      "start": 819.569,
      "duration": 4.471
    },
    {
      "text": "ah here we go so in France 35% of all",
      "start": 820.199,
      "duration": 6.57
    },
    {
      "text": "Muslims support suicide bombing among 18",
      "start": 824.04,
      "duration": 5.389
    },
    {
      "text": "to 29 year olds that number goes up to",
      "start": 826.769,
      "duration": 7.92
    },
    {
      "text": "42% so if we just go with the official",
      "start": 829.429,
      "duration": 7.361
    },
    {
      "text": "or unofficial semi official estimate",
      "start": 834.689,
      "duration": 4.08
    },
    {
      "text": "that there are 6.5 million Muslims in",
      "start": 836.79,
      "duration": 5.639
    },
    {
      "text": "France that means two million two",
      "start": 838.769,
      "duration": 5.641
    },
    {
      "text": "hundred and seventy five thousand",
      "start": 842.429,
      "duration": 4.08
    },
    {
      "text": "Muslims in France supports suicide",
      "start": 844.41,
      "duration": 4.019
    },
    {
      "text": "bombing let's say that again shall we",
      "start": 846.509,
      "duration": 3.661
    },
    {
      "text": "just in case you didn't get it the first",
      "start": 848.429,
      "duration": 4.671
    },
    {
      "text": "time 6.5 million Muslims in France",
      "start": 850.17,
      "duration": 6.089
    },
    {
      "text": "according to these numbers two million",
      "start": 853.1,
      "duration": 4.989
    },
    {
      "text": "two hundred and seventy five thousand of",
      "start": 856.259,
      "duration": 5.13
    },
    {
      "text": "those supports suicide bombing can you",
      "start": 858.089,
      "duration": 5.16
    },
    {
      "text": "feel the cultural enrichment I bet you",
      "start": 861.389,
      "duration": 4.851
    },
    {
      "text": "can come in right through your forehead",
      "start": 863.249,
      "duration": 5.041
    },
    {
      "text": "now since we're looking at Paul's of",
      "start": 866.24,
      "duration": 5.709
    },
    {
      "text": "January 21st 2014 survey found that 66%",
      "start": 868.29,
      "duration": 6.389
    },
    {
      "text": "of the French population believe there",
      "start": 871.949,
      "duration": 6.36
    },
    {
      "text": "are too many foreigners in France 59%",
      "start": 874.679,
      "duration": 5.82
    },
    {
      "text": "believe quote immigrants do not try hard",
      "start": 878.309,
      "duration": 4.95
    },
    {
      "text": "enough to integrate and 63% of French",
      "start": 880.499,
      "duration": 4.83
    },
    {
      "text": "people think that Islam is not",
      "start": 883.259,
      "duration": 5.04
    },
    {
      "text": "compatible with French values but",
      "start": 885.329,
      "duration": 5.641
    },
    {
      "text": "because it's a democracy they're ignored",
      "start": 888.299,
      "duration": 4.111
    },
    {
      "text": "just like they're ignored when they",
      "start": 890.97,
      "duration": 3.179
    },
    {
      "text": "don't want their government to go and",
      "start": 892.41,
      "duration": 5.7
    },
    {
      "text": "bomb Syria in Spain 25% of the Muslims",
      "start": 894.149,
      "duration": 6.48
    },
    {
      "text": "support suicide bombing 29% of the 18 to",
      "start": 898.11,
      "duration": 5.13
    },
    {
      "text": "29 s in Great Britain just under a",
      "start": 900.629,
      "duration": 4.56
    },
    {
      "text": "quarter of the Muslims support suicide",
      "start": 903.24,
      "duration": 5.089
    },
    {
      "text": "bombing 35% of those 18 to 29 in Germany",
      "start": 905.189,
      "duration": 7.02
    },
    {
      "text": "13% to 22% in the United States 13% of",
      "start": 908.329,
      "duration": 5.41
    },
    {
      "text": "the Muslim population supports suicide",
      "start": 912.209,
      "duration": 5.82
    },
    {
      "text": "bombing but 26% of those 18 to 29 not",
      "start": 913.739,
      "duration": 7.171
    },
    {
      "text": "counting those who just came to New",
      "start": 918.029,
      "duration": 3.62
    },
    {
      "text": "Orleans",
      "start": 920.91,
      "duration": 5.159
    },
    {
      "text": "of course the wrongs don't ever occur on",
      "start": 921.649,
      "duration": 6.821
    },
    {
      "text": "only one side of a conflict let's look",
      "start": 926.069,
      "duration": 4.411
    },
    {
      "text": "at the top five arms",
      "start": 928.47,
      "duration": 4.35
    },
    {
      "text": "exporting countries in the world from",
      "start": 930.48,
      "duration": 9.419
    },
    {
      "text": "2000 to 2014 oh look that's a lot of",
      "start": 932.82,
      "duration": 8.91
    },
    {
      "text": "white people and a lot of white",
      "start": 939.899,
      "duration": 4.951
    },
    {
      "text": "countries not good my friends not good",
      "start": 941.73,
      "duration": 4.59
    },
    {
      "text": "the United States of course the top",
      "start": 944.85,
      "duration": 3.75
    },
    {
      "text": "exporting death merchants on the planet",
      "start": 946.32,
      "duration": 5.129
    },
    {
      "text": "followed by Russia Germany of course",
      "start": 948.6,
      "duration": 7.109
    },
    {
      "text": "vies with France for three and four",
      "start": 951.449,
      "duration": 6.301
    },
    {
      "text": "the United Kingdom sits at the bottom",
      "start": 955.709,
      "duration": 3.24
    },
    {
      "text": "now we're going to talk about this per",
      "start": 957.75,
      "duration": 3.829
    },
    {
      "text": "capita in a moment these are all in",
      "start": 958.949,
      "duration": 5.401
    },
    {
      "text": "millions of US dollars in constant 1990",
      "start": 961.579,
      "duration": 4.81
    },
    {
      "text": "prices again the sources below since the",
      "start": 964.35,
      "duration": 3.15
    },
    {
      "text": "year 2000",
      "start": 966.389,
      "duration": 4.171
    },
    {
      "text": "France has exported 25 point 1 billion",
      "start": 967.5,
      "duration": 5.91
    },
    {
      "text": "dollars worth of arms and weaponry",
      "start": 970.56,
      "duration": 5.519
    },
    {
      "text": "throughout the world do you feel like",
      "start": 973.41,
      "duration": 3.989
    },
    {
      "text": "it's your government's job to keep you",
      "start": 976.079,
      "duration": 3.661
    },
    {
      "text": "somewhat safe I guess that's the common",
      "start": 977.399,
      "duration": 3.841
    },
    {
      "text": "narrative how's that working out you",
      "start": 979.74,
      "duration": 3.719
    },
    {
      "text": "know one way not to keep a population",
      "start": 981.24,
      "duration": 3.659
    },
    {
      "text": "safe in fact to expose it to huge",
      "start": 983.459,
      "duration": 4.231
    },
    {
      "text": "amounts of danger is to export all of",
      "start": 984.899,
      "duration": 4.711
    },
    {
      "text": "the face shredding weaponry that you can",
      "start": 987.69,
      "duration": 4.74
    },
    {
      "text": "cram into trucks all around and sell it",
      "start": 989.61,
      "duration": 5.19
    },
    {
      "text": "to dictatorial hellholes around the",
      "start": 992.43,
      "duration": 4.08
    },
    {
      "text": "world because that's never ever going to",
      "start": 994.8,
      "duration": 8.159
    },
    {
      "text": "bounce back on you right top ten arms",
      "start": 996.51,
      "duration": 9.75
    },
    {
      "text": "exporting countries total 2000 2014 and",
      "start": 1002.959,
      "duration": 4.771
    },
    {
      "text": "millions of US dollars constant",
      "start": 1006.26,
      "duration": 5.879
    },
    {
      "text": "consistent 1990 prices the United States",
      "start": 1007.73,
      "duration": 7.77
    },
    {
      "text": "sold 110 billion dollars of weaponry",
      "start": 1012.139,
      "duration": 7.021
    },
    {
      "text": "Russia 92 billion Germany 27 billion",
      "start": 1015.5,
      "duration": 7.13
    },
    {
      "text": "France at 25 billion UK 17 billion China",
      "start": 1019.16,
      "duration": 5.97
    },
    {
      "text": "remember it's a dictatorship so that's",
      "start": 1022.63,
      "duration": 5.949
    },
    {
      "text": "really bad oh boy just a little over 10",
      "start": 1025.13,
      "duration": 5.88
    },
    {
      "text": "percent of what the United States sold",
      "start": 1028.579,
      "duration": 4.771
    },
    {
      "text": "around the world China 13 billion Italy",
      "start": 1031.01,
      "duration": 4.23
    },
    {
      "text": "at nine billion dollars Israel at eight",
      "start": 1033.35,
      "duration": 4.14
    },
    {
      "text": "billion dollars Netherlands at eight",
      "start": 1035.24,
      "duration": 4.559
    },
    {
      "text": "billion dollars and the Ukraine at eight",
      "start": 1037.49,
      "duration": 5.79
    },
    {
      "text": "billion dollar see they tax you in order",
      "start": 1039.799,
      "duration": 6.241
    },
    {
      "text": "to create weapons to sell to foreigners",
      "start": 1043.28,
      "duration": 7.47
    },
    {
      "text": "who can attack you in a great game per",
      "start": 1046.04,
      "duration": 8.639
    },
    {
      "text": "capita it's even worse in 2014 alone",
      "start": 1050.75,
      "duration": 6.21
    },
    {
      "text": "France sold nearly two billion dollars",
      "start": 1054.679,
      "duration": 4.62
    },
    {
      "text": "worth of arms and was the world's third",
      "start": 1056.96,
      "duration": 5.52
    },
    {
      "text": "largest arms selling country but by per",
      "start": 1059.299,
      "duration": 4.731
    },
    {
      "text": "capita",
      "start": 1062.48,
      "duration": 4.29
    },
    {
      "text": "France three hundred and seventy eight",
      "start": 1064.03,
      "duration": 4.87
    },
    {
      "text": "point three dollars per capita of arms",
      "start": 1066.77,
      "duration": 4.14
    },
    {
      "text": "sales that's even more than the United",
      "start": 1068.9,
      "duration": 3.48
    },
    {
      "text": "States at three hundred and forty two",
      "start": 1070.91,
      "duration": 2.73
    },
    {
      "text": "point three Russia coming in at the",
      "start": 1072.38,
      "duration": 3.12
    },
    {
      "text": "number one six hundred thirty seven",
      "start": 1073.64,
      "duration": 4.41
    },
    {
      "text": "dollars and change per capita so France",
      "start": 1075.5,
      "duration": 5.61
    },
    {
      "text": "is the second biggest arms dealer in the",
      "start": 1078.05,
      "duration": 7.77
    },
    {
      "text": "world by population how's that working",
      "start": 1081.11,
      "duration": 7.949
    },
    {
      "text": "out for you French people are you pissed",
      "start": 1085.82,
      "duration": 8.25
    },
    {
      "text": "yet if you're not just start again until",
      "start": 1089.059,
      "duration": 12.151
    },
    {
      "text": "you are where is France selling its",
      "start": 1094.07,
      "duration": 11.16
    },
    {
      "text": "weaponry to top finds five arms sale",
      "start": 1101.21,
      "duration": 8.58
    },
    {
      "text": "customers two thousand 2014 United Arab",
      "start": 1105.23,
      "duration": 7.47
    },
    {
      "text": "Emirates it number one look they're",
      "start": 1109.79,
      "duration": 5.28
    },
    {
      "text": "selling to dictatorial Communist China",
      "start": 1112.7,
      "duration": 4.109
    },
    {
      "text": "two point nine billion dollars and a",
      "start": 1115.07,
      "duration": 3.75
    },
    {
      "text": "Singapore one point nine billion dollars",
      "start": 1116.809,
      "duration": 5.971
    },
    {
      "text": "and a Saudi Arabia bastion of separating",
      "start": 1118.82,
      "duration": 6.27
    },
    {
      "text": "atheists from their heads at one point",
      "start": 1122.78,
      "duration": 4.83
    },
    {
      "text": "seven billion dollars and Morocco one",
      "start": 1125.09,
      "duration": 5.13
    },
    {
      "text": "point five billion dollars you",
      "start": 1127.61,
      "duration": 4.41
    },
    {
      "text": "understand that the sociopaths in charge",
      "start": 1130.22,
      "duration": 5.18
    },
    {
      "text": "have no care or concern for your life",
      "start": 1132.02,
      "duration": 6.6
    },
    {
      "text": "you matter about as much to them as a",
      "start": 1135.4,
      "duration": 5.77
    },
    {
      "text": "sociopath thinks about a pawn in a chess",
      "start": 1138.62,
      "duration": 4.02
    },
    {
      "text": "game being played on the other side of",
      "start": 1141.17,
      "duration": 3.06
    },
    {
      "text": "the world a thousand years ago you are",
      "start": 1142.64,
      "duration": 3.84
    },
    {
      "text": "merely livestock for them to extract",
      "start": 1144.23,
      "duration": 4.35
    },
    {
      "text": "taxes from so that they can make money",
      "start": 1146.48,
      "duration": 4.71
    },
    {
      "text": "selling death weapons to death merchants",
      "start": 1148.58,
      "duration": 5.97
    },
    {
      "text": "around the world of course the United",
      "start": 1151.19,
      "duration": 6.72
    },
    {
      "text": "Arab Emirates number one in arms sales",
      "start": 1154.55,
      "duration": 5.28
    },
    {
      "text": "from France has been criticized for the",
      "start": 1157.91,
      "duration": 4.05
    },
    {
      "text": "human rights record or lack thereof",
      "start": 1159.83,
      "duration": 3.87
    },
    {
      "text": "including the role of Sharia law and",
      "start": 1161.96,
      "duration": 5.55
    },
    {
      "text": "it's the legal system there is no",
      "start": 1163.7,
      "duration": 8.88
    },
    {
      "text": "principles for these people so clearly",
      "start": 1167.51,
      "duration": 7.169
    },
    {
      "text": "the French government has no problems",
      "start": 1172.58,
      "duration": 4.77
    },
    {
      "text": "whatsoever selling tens of billions of",
      "start": 1174.679,
      "duration": 4.531
    },
    {
      "text": "dollars of advanced weaponry to foreign",
      "start": 1177.35,
      "duration": 4.47
    },
    {
      "text": "dictatorships because you see foreign",
      "start": 1179.21,
      "duration": 4.83
    },
    {
      "text": "dictatorships can have weapons but as a",
      "start": 1181.82,
      "duration": 5.19
    },
    {
      "text": "French citizen no no no no not even a",
      "start": 1184.04,
      "duration": 5.58
    },
    {
      "text": "little bit uh for you and a French gun",
      "start": 1187.01,
      "duration": 4.2
    },
    {
      "text": "control laws handguns are almost",
      "start": 1189.62,
      "duration": 3.15
    },
    {
      "text": "universally banned except for very",
      "start": 1191.21,
      "duration": 4.32
    },
    {
      "text": "narrow exceptions and quote ownership a",
      "start": 1192.77,
      "duration": 3.93
    },
    {
      "text": "fully automatic fire",
      "start": 1195.53,
      "duration": 4.349
    },
    {
      "text": "is prohibited for civilians because that",
      "start": 1196.7,
      "duration": 5.28
    },
    {
      "text": "way terrorists will never get a hold of",
      "start": 1199.879,
      "duration": 4.62
    },
    {
      "text": "them when it comes to semi-automatic",
      "start": 1201.98,
      "duration": 4.379
    },
    {
      "text": "firearms to get a permit an individual",
      "start": 1204.499,
      "duration": 3.8
    },
    {
      "text": "in France must go through extensive",
      "start": 1206.359,
      "duration": 4.89
    },
    {
      "text": "background checks must maintain quote",
      "start": 1208.299,
      "duration": 5.2
    },
    {
      "text": "and active shooting club membership and",
      "start": 1211.249,
      "duration": 3.81
    },
    {
      "text": "must go to the shooting range at least",
      "start": 1213.499,
      "duration": 2.79
    },
    {
      "text": "three times a year",
      "start": 1215.059,
      "duration": 3.6
    },
    {
      "text": "permits also involve quotes seeing a",
      "start": 1216.289,
      "duration": 3.691
    },
    {
      "text": "doctor every year to declare the",
      "start": 1218.659,
      "duration": 2.37
    },
    {
      "text": "applicant physically and mentally",
      "start": 1219.98,
      "duration": 3.24
    },
    {
      "text": "capable of owning a firearm and much",
      "start": 1221.029,
      "duration": 3.87
    },
    {
      "text": "more not sure that these standards apply",
      "start": 1223.22,
      "duration": 4.799
    },
    {
      "text": "to say Saudi Arabia or Morocco or the",
      "start": 1224.899,
      "duration": 5.52
    },
    {
      "text": "United Arab Emirates I guess we can look",
      "start": 1228.019,
      "duration": 4.47
    },
    {
      "text": "it up and see oh I looked it up they",
      "start": 1230.419,
      "duration": 6.811
    },
    {
      "text": "don't this is much more strict than",
      "start": 1232.489,
      "duration": 8.01
    },
    {
      "text": "anything that goes on in America the",
      "start": 1237.23,
      "duration": 5.34
    },
    {
      "text": "French government even limits the number",
      "start": 1240.499,
      "duration": 3.99
    },
    {
      "text": "of guns owned by an individual and even",
      "start": 1242.57,
      "duration": 3.449
    },
    {
      "text": "the total number of cartridges one can",
      "start": 1244.489,
      "duration": 4.92
    },
    {
      "text": "purchase annually shockingly despite",
      "start": 1246.019,
      "duration": 5.73
    },
    {
      "text": "these strict regulations French",
      "start": 1249.409,
      "duration": 3.72
    },
    {
      "text": "authorities have utterly failed to keep",
      "start": 1251.749,
      "duration": 3.601
    },
    {
      "text": "firearms away from criminals so",
      "start": 1253.129,
      "duration": 3.721
    },
    {
      "text": "predictable in fact the number of",
      "start": 1255.35,
      "duration": 2.819
    },
    {
      "text": "illegal weapons in the country has",
      "start": 1256.85,
      "duration": 3.809
    },
    {
      "text": "increased by double digits in percentage",
      "start": 1258.169,
      "duration": 4.11
    },
    {
      "text": "point four years according to a state",
      "start": 1260.659,
      "duration": 5.61
    },
    {
      "text": "monitoring agency ak-47s were used in",
      "start": 1262.279,
      "duration": 6.571
    },
    {
      "text": "the Paris terrorist attack and the",
      "start": 1266.269,
      "duration": 5.79
    },
    {
      "text": "Charlie Hebdo attacks in January the",
      "start": 1268.85,
      "duration": 4.919
    },
    {
      "text": "number of registered guns in France is",
      "start": 1272.059,
      "duration": 4.771
    },
    {
      "text": "just a little bit over 2.8 million the",
      "start": 1273.769,
      "duration": 5.1
    },
    {
      "text": "number of total guns both registered and",
      "start": 1276.83,
      "duration": 5.52
    },
    {
      "text": "illegal in France by civilians held by",
      "start": 1278.869,
      "duration": 7.221
    },
    {
      "text": "civilians is estimated at 19 million C",
      "start": 1282.35,
      "duration": 8.209
    },
    {
      "text": "2.8 registered 19 million in total",
      "start": 1286.09,
      "duration": 7.87
    },
    {
      "text": "seems like a discrepancy oh well I'm",
      "start": 1290.559,
      "duration": 5.921
    },
    {
      "text": "sure one more regulation and that",
      "start": 1293.96,
      "duration": 6.089
    },
    {
      "text": "discrepancy will vanish in a shower of",
      "start": 1296.48,
      "duration": 8.789
    },
    {
      "text": "blood in a gun-free zone the French",
      "start": 1300.049,
      "duration": 6.81
    },
    {
      "text": "black market for weapons has been",
      "start": 1305.269,
      "duration": 3.27
    },
    {
      "text": "inundated with Eastern European War",
      "start": 1306.859,
      "duration": 3.63
    },
    {
      "text": "artillery and arms no to the head of a",
      "start": 1308.539,
      "duration": 3.99
    },
    {
      "text": "French police union they are everywhere",
      "start": 1310.489,
      "duration": 5.461
    },
    {
      "text": "in France ak-47s sell for about a",
      "start": 1312.529,
      "duration": 6.181
    },
    {
      "text": "thousand to 1,500 euros on the black",
      "start": 1315.95,
      "duration": 9.78
    },
    {
      "text": "market so if you want a free society if",
      "start": 1318.71,
      "duration": 10.349
    },
    {
      "text": "you want an open society you need some",
      "start": 1325.73,
      "duration": 4.71
    },
    {
      "text": "level of cultural homogeneous",
      "start": 1329.059,
      "duration": 3.72
    },
    {
      "text": "this has been proven again and again and",
      "start": 1330.44,
      "duration": 5.64
    },
    {
      "text": "again throughout history you can have a",
      "start": 1332.779,
      "duration": 6.091
    },
    {
      "text": "free country or you can have a country",
      "start": 1336.08,
      "duration": 4.199
    },
    {
      "text": "whose government is involved in selling",
      "start": 1338.87,
      "duration": 3.509
    },
    {
      "text": "tens of billions of dollars worth of",
      "start": 1340.279,
      "duration": 4.77
    },
    {
      "text": "arms to foreign governments see if",
      "start": 1342.379,
      "duration": 4.89
    },
    {
      "text": "you're an arms dealer to a foreign",
      "start": 1345.049,
      "duration": 5.34
    },
    {
      "text": "government said population being ground",
      "start": 1347.269,
      "duration": 5.61
    },
    {
      "text": "into a fine totalitarian dust by that",
      "start": 1350.389,
      "duration": 4.801
    },
    {
      "text": "foreign government not big fans of your",
      "start": 1352.879,
      "duration": 4.89
    },
    {
      "text": "government or you see like it or not",
      "start": 1355.19,
      "duration": 4.68
    },
    {
      "text": "people outside a democracy look at what",
      "start": 1357.769,
      "duration": 4.29
    },
    {
      "text": "a democracy does and sees a whole bunch",
      "start": 1359.87,
      "duration": 4.889
    },
    {
      "text": "of voters did the people who illegally",
      "start": 1362.059,
      "duration": 5.99
    },
    {
      "text": "declared war on Islamic countries in",
      "start": 1364.759,
      "duration": 8.071
    },
    {
      "text": "2003 with Iraq and in Syria and in Libya",
      "start": 1368.049,
      "duration": 6.821
    },
    {
      "text": "and other countries in the Middle East",
      "start": 1372.83,
      "duration": 3.839
    },
    {
      "text": "any of those leaders ever been",
      "start": 1374.87,
      "duration": 3.539
    },
    {
      "text": "prosecuted by war crimes now they're out",
      "start": 1376.669,
      "duration": 3.48
    },
    {
      "text": "there peddling their members memoirs and",
      "start": 1378.409,
      "duration": 6.031
    },
    {
      "text": "saying oops this is how you were judged",
      "start": 1380.149,
      "duration": 6.091
    },
    {
      "text": "you were in a democracy you are judged",
      "start": 1384.44,
      "duration": 3.479
    },
    {
      "text": "as responsible for the policies of your",
      "start": 1386.24,
      "duration": 4.11
    },
    {
      "text": "government so get off your goddamn asses",
      "start": 1387.919,
      "duration": 4.23
    },
    {
      "text": "and start to do something about this",
      "start": 1390.35,
      "duration": 4.59
    },
    {
      "text": "stuff because your inaction speaks",
      "start": 1392.149,
      "duration": 6.811
    },
    {
      "text": "volumes to everyone you can have a free",
      "start": 1394.94,
      "duration": 5.43
    },
    {
      "text": "country or you can have a country whose",
      "start": 1398.96,
      "duration": 2.969
    },
    {
      "text": "government is really into selling arms",
      "start": 1400.37,
      "duration": 3.659
    },
    {
      "text": "around the world you can have a free",
      "start": 1401.929,
      "duration": 6.36
    },
    {
      "text": "open society or you can have a society",
      "start": 1404.029,
      "duration": 6.811
    },
    {
      "text": "whose government goes around mucking up",
      "start": 1408.289,
      "duration": 4.171
    },
    {
      "text": "foreign countries all over the place",
      "start": 1410.84,
      "duration": 3.6
    },
    {
      "text": "you have a very interventionist foreign",
      "start": 1412.46,
      "duration": 4.049
    },
    {
      "text": "policy you can go and install",
      "start": 1414.44,
      "duration": 3.75
    },
    {
      "text": "governments you can go and armed people",
      "start": 1416.509,
      "duration": 3.66
    },
    {
      "text": "sell weapons and get involved in every",
      "start": 1418.19,
      "duration": 5.339
    },
    {
      "text": "hysterical internecine sectarian",
      "start": 1420.169,
      "duration": 5.97
    },
    {
      "text": "religious madcap conflict all over the",
      "start": 1423.529,
      "duration": 3.9
    },
    {
      "text": "planet go in there and start pushing",
      "start": 1426.139,
      "duration": 2.76
    },
    {
      "text": "things around and mucking up the rules",
      "start": 1427.429,
      "duration": 3.24
    },
    {
      "text": "and selling weaponry or you can have a",
      "start": 1428.899,
      "duration": 4.321
    },
    {
      "text": "free society you cannot have both",
      "start": 1430.669,
      "duration": 6.531
    },
    {
      "text": "make a choice west come home stay home",
      "start": 1433.22,
      "duration": 9.87
    },
    {
      "text": "or the war as a boomerang that comes",
      "start": 1437.2,
      "duration": 7.78
    },
    {
      "text": "back and beheads your children that is",
      "start": 1443.09,
      "duration": 3.99
    },
    {
      "text": "your choice come home stay home",
      "start": 1444.98,
      "duration": 5.399
    },
    {
      "text": "everybody back to their corners you over",
      "start": 1447.08,
      "duration": 8.13
    },
    {
      "text": "there you over there stay apart you can",
      "start": 1450.379,
      "duration": 8.071
    },
    {
      "text": "be trading with everyone trade is a",
      "start": 1455.21,
      "duration": 4.589
    },
    {
      "text": "win-win situation",
      "start": 1458.45,
      "duration": 3.449
    },
    {
      "text": "people are happy about it or you can go",
      "start": 1459.799,
      "duration": 4.051
    },
    {
      "text": "about poking Hornets nests all over the",
      "start": 1461.899,
      "duration": 2.811
    },
    {
      "text": "world",
      "start": 1463.85,
      "duration": 2.85
    },
    {
      "text": "while you're in a bee suit and your",
      "start": 1464.71,
      "duration": 4.12
    },
    {
      "text": "population dies of bee allergy alert",
      "start": 1466.7,
      "duration": 4.17
    },
    {
      "text": "allergy reactions that is the reality",
      "start": 1468.83,
      "duration": 4.26
    },
    {
      "text": "you have a free society or you have an",
      "start": 1470.87,
      "duration": 3.42
    },
    {
      "text": "interventionist government you have a",
      "start": 1473.09,
      "duration": 3.03
    },
    {
      "text": "free society or you have a government",
      "start": 1474.29,
      "duration": 5.72
    },
    {
      "text": "that sells weaponry you cannot have both",
      "start": 1476.12,
      "duration": 3.89
    },
    {
      "text": "you can have a free society or you can",
      "start": 1480.22,
      "duration": 5.37
    },
    {
      "text": "have a society with a welfare state",
      "start": 1483.17,
      "duration": 5.01
    },
    {
      "text": "because some credible estimates are that",
      "start": 1485.59,
      "duration": 6.28
    },
    {
      "text": "the significant majority of Muslim",
      "start": 1488.18,
      "duration": 7.32
    },
    {
      "text": "immigrants are on welfare which means",
      "start": 1491.87,
      "duration": 6.66
    },
    {
      "text": "that they can create these isolated",
      "start": 1495.5,
      "duration": 5.97
    },
    {
      "text": "no-go zones societies where they don't",
      "start": 1498.53,
      "duration": 5.94
    },
    {
      "text": "have to integrate if you don't have a",
      "start": 1501.47,
      "duration": 5.3
    },
    {
      "text": "welfare state people can only come by",
      "start": 1504.47,
      "duration": 4.35
    },
    {
      "text": "participating in the economic life of a",
      "start": 1506.77,
      "duration": 3.49
    },
    {
      "text": "nation when you have a welfare state you",
      "start": 1508.82,
      "duration": 3.24
    },
    {
      "text": "create this walled off enclosure this",
      "start": 1510.26,
      "duration": 5.1
    },
    {
      "text": "bio dome of ancient history that can",
      "start": 1512.06,
      "duration": 6.63
    },
    {
      "text": "seal itself up and drain the public",
      "start": 1515.36,
      "duration": 4.83
    },
    {
      "text": "purse of the taxpayers while plotting",
      "start": 1518.69,
      "duration": 5.28
    },
    {
      "text": "attacks against them you can have a free",
      "start": 1520.19,
      "duration": 6
    },
    {
      "text": "society in an open society or you can",
      "start": 1523.97,
      "duration": 4.26
    },
    {
      "text": "have a welfare state you cannot have",
      "start": 1526.19,
      "duration": 7.62
    },
    {
      "text": "both everybody's asking me what should",
      "start": 1528.23,
      "duration": 8.49
    },
    {
      "text": "we do I'm not going to answer that I am",
      "start": 1533.81,
      "duration": 5.49
    },
    {
      "text": "a philosopher I don't do policy but we",
      "start": 1536.72,
      "duration": 4.8
    },
    {
      "text": "do need to have honest conversations and",
      "start": 1539.3,
      "duration": 3.51
    },
    {
      "text": "we need to begin examining the very",
      "start": 1541.52,
      "duration": 3.45
    },
    {
      "text": "bedrock and foundations of our society",
      "start": 1542.81,
      "duration": 4.95
    },
    {
      "text": "we all know deep down in her heart and",
      "start": 1544.97,
      "duration": 6.84
    },
    {
      "text": "spleen and bones and balls that we have",
      "start": 1547.76,
      "duration": 6.39
    },
    {
      "text": "gone seriously off the rails in the West",
      "start": 1551.81,
      "duration": 4.29
    },
    {
      "text": "our societies are careening out of",
      "start": 1554.15,
      "duration": 4.8
    },
    {
      "text": "control we have our fingers our bloody",
      "start": 1556.1,
      "duration": 6.6
    },
    {
      "text": "fingers in all of the hot baking violent",
      "start": 1558.95,
      "duration": 4.65
    },
    {
      "text": "pies in the world",
      "start": 1562.7,
      "duration": 5.04
    },
    {
      "text": "we are selling weaponry we are dowsing",
      "start": 1563.6,
      "duration": 6.47
    },
    {
      "text": "and deluging and drowning people and",
      "start": 1567.74,
      "duration": 5.19
    },
    {
      "text": "slowly solidifying them into amber like",
      "start": 1570.07,
      "duration": 4.57
    },
    {
      "text": "in activity through the welfare state",
      "start": 1572.93,
      "duration": 3.51
    },
    {
      "text": "we have crumbling infrastructure we have",
      "start": 1574.64,
      "duration": 4.59
    },
    {
      "text": "terrible government schools and we have",
      "start": 1576.44,
      "duration": 6.03
    },
    {
      "text": "a society that is falling apart we have",
      "start": 1579.23,
      "duration": 4.74
    },
    {
      "text": "gone astray and we've left the",
      "start": 1582.47,
      "duration": 4.26
    },
    {
      "text": "principles behind that made Europe and",
      "start": 1583.97,
      "duration": 4.73
    },
    {
      "text": "the West great to begin with small",
      "start": 1586.73,
      "duration": 4.74
    },
    {
      "text": "controlled limited government human",
      "start": 1588.7,
      "duration": 4.83
    },
    {
      "text": "liberty the right to not associate",
      "start": 1591.47,
      "duration": 4.89
    },
    {
      "text": "forced Association is a violation of",
      "start": 1593.53,
      "duration": 4.42
    },
    {
      "text": "freedom of association and for",
      "start": 1596.36,
      "duration": 4.5
    },
    {
      "text": "welfare is a violation of freedom of",
      "start": 1597.95,
      "duration": 7.17
    },
    {
      "text": "association if you don't have the right",
      "start": 1600.86,
      "duration": 6.87
    },
    {
      "text": "to discriminate you don't really have",
      "start": 1605.12,
      "duration": 5.1
    },
    {
      "text": "any rights at all so have honest",
      "start": 1607.73,
      "duration": 5.19
    },
    {
      "text": "conversations people have honest",
      "start": 1610.22,
      "duration": 4.95
    },
    {
      "text": "conversations with the facts and with",
      "start": 1612.92,
      "duration": 6.45
    },
    {
      "text": "principles because things are either",
      "start": 1615.17,
      "duration": 6.72
    },
    {
      "text": "going to get worse or they're going to",
      "start": 1619.37,
      "duration": 5.25
    },
    {
      "text": "get better the only way it's going to",
      "start": 1621.89,
      "duration": 6.17
    },
    {
      "text": "get better is if we tell the truth",
      "start": 1624.62,
      "duration": 7.61
    },
    {
      "text": "despite the cost that it may have for us",
      "start": 1628.06,
      "duration": 7.72
    },
    {
      "text": "for without the truth there is no future",
      "start": 1632.23,
      "duration": 10.89
    },
    {
      "text": "at all thank you so much for watching",
      "start": 1635.78,
      "duration": 7.34
    }
  ],
  "Errors": null,
  "TranscriptStderr": null
}