{
  "Title": "What Pisses Me Off About The Telford Grooming Scandal",
  "Id": "cREIck1n9os",
  "Transcript": [
    {
      "text": "there are as many euphemisms it seems in",
      "start": 0.199,
      "duration": 5.741
    },
    {
      "text": "the world if there are people with the",
      "start": 4.65,
      "duration": 4.29
    },
    {
      "text": "guilty conscience and what is referred",
      "start": 5.94,
      "duration": 6.81
    },
    {
      "text": "to as the grooming scandal in the UK has",
      "start": 8.94,
      "duration": 7.05
    },
    {
      "text": "many euphemisms and very little accuracy",
      "start": 12.75,
      "duration": 4.23
    },
    {
      "text": "of course in the mainstream media",
      "start": 15.99,
      "duration": 3.9
    },
    {
      "text": "reporting that either comes from a",
      "start": 16.98,
      "duration": 5.01
    },
    {
      "text": "desire to have it keep happening or a",
      "start": 19.89,
      "duration": 3.69
    },
    {
      "text": "guilty conscience about the",
      "start": 21.99,
      "duration": 4.76
    },
    {
      "text": "circumstances that have resulted in",
      "start": 23.58,
      "duration": 5.72
    },
    {
      "text": "estimates are hundreds of thousands of",
      "start": 26.75,
      "duration": 8.38
    },
    {
      "text": "young white Christian girls being",
      "start": 29.3,
      "duration": 9.97
    },
    {
      "text": "targeted groomed exploited drugged raped",
      "start": 35.13,
      "duration": 7.98
    },
    {
      "text": "tortured and murdered and handed around",
      "start": 39.27,
      "duration": 8.28
    },
    {
      "text": "as sex slaves and so on the perpetrators",
      "start": 43.11,
      "duration": 6.75
    },
    {
      "text": "are overwhelmingly Muslim and the",
      "start": 47.55,
      "duration": 4.38
    },
    {
      "text": "perpetrators are overwhelmingly from",
      "start": 49.86,
      "duration": 8.37
    },
    {
      "text": "places like Pakistan and Bangladesh the",
      "start": 51.93,
      "duration": 10.14
    },
    {
      "text": "victims are significantly white",
      "start": 58.23,
      "duration": 5.179
    },
    {
      "text": "Christian girls",
      "start": 62.07,
      "duration": 3.659
    },
    {
      "text": "although the Sikhs have been targeted as",
      "start": 63.409,
      "duration": 3.371
    },
    {
      "text": "they have been targeted in other",
      "start": 65.729,
      "duration": 4.051
    },
    {
      "text": "countries as well in the Sikhs have been",
      "start": 66.78,
      "duration": 7.25
    },
    {
      "text": "able to fight back more effectively I",
      "start": 69.78,
      "duration": 4.25
    },
    {
      "text": "grew up in neighborhoods not dissimilar",
      "start": 74.06,
      "duration": 4.18
    },
    {
      "text": "from some of the neighborhoods that are",
      "start": 76.71,
      "duration": 6.29
    },
    {
      "text": "being targeted for these white girls and",
      "start": 78.24,
      "duration": 10.53
    },
    {
      "text": "I wonder so many things about this whole",
      "start": 83,
      "duration": 10.09
    },
    {
      "text": "question and it is such a fatal step",
      "start": 88.77,
      "duration": 6.51
    },
    {
      "text": "into the heart of England and of British",
      "start": 93.09,
      "duration": 5.48
    },
    {
      "text": "culture a culture that fails to protect",
      "start": 95.28,
      "duration": 6.87
    },
    {
      "text": "its children that enables in many ways",
      "start": 98.57,
      "duration": 6.22
    },
    {
      "text": "and almost encourages through turning a",
      "start": 102.15,
      "duration": 4.52
    },
    {
      "text": "blind eye to this kind of predation a",
      "start": 104.79,
      "duration": 6.6
    },
    {
      "text": "culture that fails to protect its",
      "start": 106.67,
      "duration": 8.37
    },
    {
      "text": "children from being destroyed physically",
      "start": 111.39,
      "duration": 6.659
    },
    {
      "text": "emotionally and sometimes even in terms",
      "start": 115.04,
      "duration": 6.789
    },
    {
      "text": "of their life that fails to protect its",
      "start": 118.049,
      "duration": 5.581
    },
    {
      "text": "children from being raped to the point",
      "start": 121.829,
      "duration": 4.32
    },
    {
      "text": "of becoming infertile and of course if",
      "start": 123.63,
      "duration": 4.769
    },
    {
      "text": "you are exposed to that kind of evil",
      "start": 126.149,
      "duration": 4.86
    },
    {
      "text": "that kind of predation as a child what",
      "start": 128.399,
      "duration": 4.111
    },
    {
      "text": "is your relationship to your society",
      "start": 131.009,
      "duration": 3.06
    },
    {
      "text": "what is your relationship",
      "start": 132.51,
      "duration": 5.08
    },
    {
      "text": "- growing up - having a boyfriend -",
      "start": 134.069,
      "duration": 5.051
    },
    {
      "text": "getting engaged - getting married -",
      "start": 137.59,
      "duration": 4.07
    },
    {
      "text": "having children it is a way of",
      "start": 139.12,
      "duration": 6.33
    },
    {
      "text": "preventing the reproduction of your",
      "start": 141.66,
      "duration": 6.189
    },
    {
      "text": "victims to attack and assault them in",
      "start": 145.45,
      "duration": 6.869
    },
    {
      "text": "this kind of manner in this case there's",
      "start": 147.849,
      "duration": 7.17
    },
    {
      "text": "an old feminist argument I think holds",
      "start": 152.319,
      "duration": 5.851
    },
    {
      "text": "fairly true in this that this kind of",
      "start": 155.019,
      "duration": 4.8
    },
    {
      "text": "predation is not about sex it's about",
      "start": 158.17,
      "duration": 3.48
    },
    {
      "text": "power it's about dominance is about -",
      "start": 159.819,
      "duration": 4.67
    },
    {
      "text": "control and given the scale and",
      "start": 161.65,
      "duration": 6.51
    },
    {
      "text": "demographics in my view is easily",
      "start": 164.489,
      "duration": 9.131
    },
    {
      "text": "viewable as an active warrant and sexual",
      "start": 168.16,
      "duration": 7.829
    },
    {
      "text": "assault as an act of war has long an",
      "start": 173.62,
      "duration": 4.44
    },
    {
      "text": "ignoble history throughout human history",
      "start": 175.989,
      "duration": 7.401
    },
    {
      "text": "and I would put that in this category",
      "start": 178.06,
      "duration": 5.33
    },
    {
      "text": "the one thing that I keep thinking about",
      "start": 184.38,
      "duration": 11.32
    },
    {
      "text": "about this situation is those who have",
      "start": 187.86,
      "duration": 12.31
    },
    {
      "text": "been very keen on untested third world",
      "start": 195.7,
      "duration": 8.819
    },
    {
      "text": "immigration it's a theory and it goes",
      "start": 200.17,
      "duration": 7.67
    },
    {
      "text": "against of course a lot of human history",
      "start": 204.519,
      "duration": 5.581
    },
    {
      "text": "there was a theory that was put forward",
      "start": 207.84,
      "duration": 3.97
    },
    {
      "text": "that this was all going to be wonderful",
      "start": 210.1,
      "duration": 3.09
    },
    {
      "text": "that this stuff ersity was great",
      "start": 211.81,
      "duration": 2.7
    },
    {
      "text": "multiculturalism was going to be",
      "start": 213.19,
      "duration": 2.73
    },
    {
      "text": "enriching and everyone was going to end",
      "start": 214.51,
      "duration": 5.36
    },
    {
      "text": "up better off than they were before so",
      "start": 215.92,
      "duration": 7.26
    },
    {
      "text": "that was a theory now normally if you",
      "start": 219.87,
      "duration": 4.869
    },
    {
      "text": "have a radical departure from human",
      "start": 223.18,
      "duration": 4.29
    },
    {
      "text": "history where there were countries and",
      "start": 224.739,
      "duration": 8.761
    },
    {
      "text": "there were borders then if you are",
      "start": 227.47,
      "duration": 9.15
    },
    {
      "text": "honorable and you have a theory a",
      "start": 233.5,
      "duration": 4.829
    },
    {
      "text": "conjecture a hypothesis and then what",
      "start": 236.62,
      "duration": 2.88
    },
    {
      "text": "you should do of course is you should",
      "start": 238.329,
      "duration": 5
    },
    {
      "text": "test it out you should try a little bit",
      "start": 239.5,
      "duration": 6
    },
    {
      "text": "for a generation or two and see what",
      "start": 243.329,
      "duration": 3.91
    },
    {
      "text": "happens but this sort of massive opening",
      "start": 245.5,
      "duration": 4.56
    },
    {
      "text": "of the gates and letting everybody flood",
      "start": 247.239,
      "duration": 10.53
    },
    {
      "text": "in that is a massive experiment and the",
      "start": 250.06,
      "duration": 11.82
    },
    {
      "text": "costs and benefits are very challenging",
      "start": 257.769,
      "duration": 6.061
    },
    {
      "text": "and and this is what I keep thinking",
      "start": 261.88,
      "duration": 5.43
    },
    {
      "text": "about is would you if you are",
      "start": 263.83,
      "duration": 5.67
    },
    {
      "text": "proponent of open borders of masterbuilt",
      "start": 267.31,
      "duration": 4.2
    },
    {
      "text": "immigration and so on which has directly",
      "start": 269.5,
      "duration": 6.03
    },
    {
      "text": "resulted you understand in the rape and",
      "start": 271.51,
      "duration": 7.379
    },
    {
      "text": "torture and murder of hundreds of",
      "start": 275.53,
      "duration": 9.15
    },
    {
      "text": "thousands of British girls I guess my",
      "start": 278.889,
      "duration": 9.541
    },
    {
      "text": "question is do you consider badda worth",
      "start": 284.68,
      "duration": 7.95
    },
    {
      "text": "it do you consider that worth it would",
      "start": 288.43,
      "duration": 6.42
    },
    {
      "text": "you be willing to sit down with these",
      "start": 292.63,
      "duration": 5.46
    },
    {
      "text": "survivors of these racist paedophile",
      "start": 294.85,
      "duration": 5.7
    },
    {
      "text": "gangs would you be willing to sit down",
      "start": 298.09,
      "duration": 5.99
    },
    {
      "text": "with them let's say one a day to explain",
      "start": 300.55,
      "duration": 6.21
    },
    {
      "text": "why what happened to them",
      "start": 304.08,
      "duration": 5.86
    },
    {
      "text": "was worth it for diversity for",
      "start": 306.76,
      "duration": 5.85
    },
    {
      "text": "multiculturalism for whatever I guess",
      "start": 309.94,
      "duration": 4.62
    },
    {
      "text": "for votes for labour for votes for the",
      "start": 312.61,
      "duration": 4.619
    },
    {
      "text": "left would you be willing to sit down",
      "start": 314.56,
      "duration": 4.89
    },
    {
      "text": "day after day with victim after victim",
      "start": 317.229,
      "duration": 5.041
    },
    {
      "text": "and spend a day with them explaining why",
      "start": 319.45,
      "duration": 5.01
    },
    {
      "text": "what happened to them how they were",
      "start": 322.27,
      "duration": 4.23
    },
    {
      "text": "tortured and raped how they were doused",
      "start": 324.46,
      "duration": 3.48
    },
    {
      "text": "in gasoline and threatened to be set on",
      "start": 326.5,
      "duration": 3.27
    },
    {
      "text": "fire how guns were pressed their temples",
      "start": 327.94,
      "duration": 3.979
    },
    {
      "text": "how they were handed round as",
      "start": 329.77,
      "duration": 5.519
    },
    {
      "text": "receptacles would you be willing to sit",
      "start": 331.919,
      "duration": 7.06
    },
    {
      "text": "down and explain to them why it was",
      "start": 335.289,
      "duration": 7.831
    },
    {
      "text": "worth it why what happened to them was a",
      "start": 338.979,
      "duration": 9
    },
    {
      "text": "good for society as a whole now you can",
      "start": 343.12,
      "duration": 8.34
    },
    {
      "text": "do this with some groups if there is an",
      "start": 347.979,
      "duration": 6.69
    },
    {
      "text": "invasion of a very destructive group an",
      "start": 351.46,
      "duration": 8.64
    },
    {
      "text": "army a literal army and young men are",
      "start": 354.669,
      "duration": 9.921
    },
    {
      "text": "called to fight to defend the country",
      "start": 360.1,
      "duration": 8.31
    },
    {
      "text": "let's say Nazis are coming in well then",
      "start": 364.59,
      "duration": 5.5
    },
    {
      "text": "there's going to be a lot of death and",
      "start": 368.41,
      "duration": 3.33
    },
    {
      "text": "maiming and wounding and horrors and so",
      "start": 370.09,
      "duration": 5.07
    },
    {
      "text": "on and you may of course be able to sit",
      "start": 371.74,
      "duration": 5.61
    },
    {
      "text": "down with the young man and say what you",
      "start": 375.16,
      "duration": 5.55
    },
    {
      "text": "suffered was worth it for society as a",
      "start": 377.35,
      "duration": 5.4
    },
    {
      "text": "whole because of this now you are",
      "start": 380.71,
      "duration": 5.85
    },
    {
      "text": "honored your sacrifice is respected you",
      "start": 382.75,
      "duration": 5.789
    },
    {
      "text": "get to get a parades you get pensions",
      "start": 386.56,
      "duration": 5.97
    },
    {
      "text": "you get medals you get honor young men",
      "start": 388.539,
      "duration": 7.141
    },
    {
      "text": "who fought against a desperately",
      "start": 392.53,
      "duration": 6.46
    },
    {
      "text": "destructive enemy it was worth it",
      "start": 395.68,
      "duration": 4.96
    },
    {
      "text": "and we're sorry that you had to do it",
      "start": 398.99,
      "duration": 4.56
    },
    {
      "text": "but the end result was the salvation of",
      "start": 400.64,
      "duration": 6.12
    },
    {
      "text": "the country and the repulsion of the",
      "start": 403.55,
      "duration": 6.75
    },
    {
      "text": "invaders but we give you all honor your",
      "start": 406.76,
      "duration": 6.78
    },
    {
      "text": "widows get pensions your children can",
      "start": 410.3,
      "duration": 5.28
    },
    {
      "text": "handle your medals and look back when in",
      "start": 413.54,
      "duration": 4.23
    },
    {
      "text": "pride at what you did to save the",
      "start": 415.58,
      "duration": 9.51
    },
    {
      "text": "country but surely we don't draft the",
      "start": 417.77,
      "duration": 12.54
    },
    {
      "text": "vaginas and anuses of little girls to be",
      "start": 425.09,
      "duration": 8.1
    },
    {
      "text": "sacrificed to the altar of political",
      "start": 430.31,
      "duration": 7.05
    },
    {
      "text": "correctness we don't do that as a",
      "start": 433.19,
      "duration": 6.84
    },
    {
      "text": "society do we we wouldn't draft little",
      "start": 437.36,
      "duration": 5.04
    },
    {
      "text": "girls to fight do we draft to their",
      "start": 440.03,
      "duration": 7.35
    },
    {
      "text": "orifices to fight I can't see how any",
      "start": 442.4,
      "duration": 7.35
    },
    {
      "text": "even remotely reasonable moral theory",
      "start": 447.38,
      "duration": 4.59
    },
    {
      "text": "could ever justify that so if you are",
      "start": 449.75,
      "duration": 7.82
    },
    {
      "text": "for open borders if you are for mass",
      "start": 451.97,
      "duration": 5.6
    },
    {
      "text": "emigration is one thing but when you pay",
      "start": 457.75,
      "duration": 4.69
    },
    {
      "text": "people to come to your country a",
      "start": 460.52,
      "duration": 4.08
    },
    {
      "text": "significant proportion of whom end up",
      "start": 462.44,
      "duration": 6.29
    },
    {
      "text": "raping your children and then you pay",
      "start": 464.6,
      "duration": 7.14
    },
    {
      "text": "for them to continue to do so through",
      "start": 468.73,
      "duration": 4.21
    },
    {
      "text": "the welfare state through free health",
      "start": 471.74,
      "duration": 3.57
    },
    {
      "text": "care through other forms of subsidies",
      "start": 472.94,
      "duration": 5.49
    },
    {
      "text": "everything from education to pensions do",
      "start": 475.31,
      "duration": 10.71
    },
    {
      "text": "you name it can you explain to them why",
      "start": 478.43,
      "duration": 10.86
    },
    {
      "text": "what they suffered was worth it what",
      "start": 486.02,
      "duration": 6.33
    },
    {
      "text": "greater good their innocence their body",
      "start": 489.29,
      "duration": 7.08
    },
    {
      "text": "integrity their reproductive capacity",
      "start": 492.35,
      "duration": 6.98
    },
    {
      "text": "sometimes their lives",
      "start": 496.37,
      "duration": 7.83
    },
    {
      "text": "can you explain to them why it's worth",
      "start": 499.33,
      "duration": 7.96
    },
    {
      "text": "it why what they suffered was worth it",
      "start": 504.2,
      "duration": 6.36
    },
    {
      "text": "for your theory and I think this",
      "start": 507.29,
      "duration": 4.98
    },
    {
      "text": "fundamental question is what is driving",
      "start": 510.56,
      "duration": 5.52
    },
    {
      "text": "this aversion to talk about it because",
      "start": 512.27,
      "duration": 5.37
    },
    {
      "text": "there are people who don't want to look",
      "start": 516.08,
      "duration": 6.71
    },
    {
      "text": "at the actual results of the theory I",
      "start": 517.64,
      "duration": 5.15
    },
    {
      "text": "also wonder the Sikh community was quite",
      "start": 523.09,
      "duration": 7.99
    },
    {
      "text": "assertive / aggressive in trying to deal",
      "start": 527.9,
      "duration": 4.65
    },
    {
      "text": "with this problem they had from history",
      "start": 531.08,
      "duration": 2.879
    },
    {
      "text": "experience with it i massively",
      "start": 532.55,
      "duration": 5.88
    },
    {
      "text": "sympathize of course and i wonder will",
      "start": 533.959,
      "duration": 6.331
    },
    {
      "text": "probably will never know but i do wonder",
      "start": 538.43,
      "duration": 5.07
    },
    {
      "text": "how many of the children who were",
      "start": 540.29,
      "duration": 5.91
    },
    {
      "text": "drugged and abducted and groomed and",
      "start": 543.5,
      "duration": 7.38
    },
    {
      "text": "raped and tortured and murdered how many",
      "start": 546.2,
      "duration": 7.22
    },
    {
      "text": "of them came from fatherless homes",
      "start": 550.88,
      "duration": 5.699
    },
    {
      "text": "because it's hard for me to imagine how",
      "start": 553.42,
      "duration": 6.7
    },
    {
      "text": "fathers could I don't know bleed to the",
      "start": 556.579,
      "duration": 9.69
    },
    {
      "text": "police who do nothing and then not find",
      "start": 560.12,
      "duration": 9.05
    },
    {
      "text": "other ways of dealing with the problem",
      "start": 566.269,
      "duration": 4.281
    },
    {
      "text": "move away",
      "start": 569.17,
      "duration": 10.93
    },
    {
      "text": "find some solution raise a fuss have a",
      "start": 570.55,
      "duration": 15.37
    },
    {
      "text": "March I could even though I don't",
      "start": 580.1,
      "duration": 7.41
    },
    {
      "text": "condone it in some ways I even",
      "start": 585.92,
      "duration": 2.88
    },
    {
      "text": "understand how they could take matters",
      "start": 587.51,
      "duration": 6.35
    },
    {
      "text": "into their own hands in other ways but",
      "start": 588.8,
      "duration": 9.14
    },
    {
      "text": "some of the earliest examples of these",
      "start": 593.86,
      "duration": 8.8
    },
    {
      "text": "sexual assaults rapes upon children",
      "start": 597.94,
      "duration": 6.82
    },
    {
      "text": "occurred in the mid-1970s",
      "start": 602.66,
      "duration": 4.38
    },
    {
      "text": "and what recently came to light in",
      "start": 604.76,
      "duration": 4.139
    },
    {
      "text": "Telford has been going on since the",
      "start": 607.04,
      "duration": 6.06
    },
    {
      "text": "1980s since decade after decade of the",
      "start": 608.899,
      "duration": 5.851
    },
    {
      "text": "enabling of just this kind of predation",
      "start": 613.1,
      "duration": 9.45
    },
    {
      "text": "and those who are vile pedophiles have",
      "start": 614.75,
      "duration": 9.75
    },
    {
      "text": "joined with these gangs even if they",
      "start": 622.55,
      "duration": 3.57
    },
    {
      "text": "have different religions even if they",
      "start": 624.5,
      "duration": 3.839
    },
    {
      "text": "have different demographics because",
      "start": 626.12,
      "duration": 4.32
    },
    {
      "text": "these gangs have been given carte",
      "start": 628.339,
      "duration": 7.471
    },
    {
      "text": "blanche to rape and torture and murder",
      "start": 630.44,
      "duration": 7.97
    },
    {
      "text": "of children",
      "start": 635.81,
      "duration": 2.6
    },
    {
      "text": "now the media of course has a lot to do",
      "start": 639.82,
      "duration": 5.55
    },
    {
      "text": "with this and there have been some",
      "start": 644.35,
      "duration": 2.85
    },
    {
      "text": "elements of the UK media that have been",
      "start": 645.37,
      "duration": 4.59
    },
    {
      "text": "trying to bring this to light but as a",
      "start": 647.2,
      "duration": 5.91
    },
    {
      "text": "whole it's not what happens it's the",
      "start": 649.96,
      "duration": 5.4
    },
    {
      "text": "story about what happens I don't go as",
      "start": 653.11,
      "duration": 3.78
    },
    {
      "text": "far as Hamlet saying there's nothing",
      "start": 655.36,
      "duration": 3.18
    },
    {
      "text": "good or bad but thinking makes it so",
      "start": 656.89,
      "duration": 3.96
    },
    {
      "text": "but how the media frames these kinds of",
      "start": 658.54,
      "duration": 3.96
    },
    {
      "text": "innocent incidents has a lot to do with",
      "start": 660.85,
      "duration": 5.1
    },
    {
      "text": "society's power to deal with them in an",
      "start": 662.5,
      "duration": 7.74
    },
    {
      "text": "effective manner and the media of course",
      "start": 665.95,
      "duration": 7.17
    },
    {
      "text": "a lot of times will put the spin on",
      "start": 670.24,
      "duration": 6.15
    },
    {
      "text": "well if arrests of a particular",
      "start": 673.12,
      "duration": 5.07
    },
    {
      "text": "demographic or religion are very high",
      "start": 676.39,
      "duration": 3.75
    },
    {
      "text": "then this must be evidence of prejudice",
      "start": 678.19,
      "duration": 4.08
    },
    {
      "text": "and racism the fact that it's almost",
      "start": 680.14,
      "duration": 5.22
    },
    {
      "text": "exclusively Pakistani Muslim men who",
      "start": 682.27,
      "duration": 4.83
    },
    {
      "text": "were almost exclusively targeting young",
      "start": 685.36,
      "duration": 3.09
    },
    {
      "text": "white British girls you think would be",
      "start": 687.1,
      "duration": 5.27
    },
    {
      "text": "evidence of patriarchy sexism racism",
      "start": 688.45,
      "duration": 6.12
    },
    {
      "text": "fear of the other rape of the other",
      "start": 692.37,
      "duration": 4.36
    },
    {
      "text": "killing of the other that would be of",
      "start": 694.57,
      "duration": 4.2
    },
    {
      "text": "course a logical consequence of leftist",
      "start": 696.73,
      "duration": 3.21
    },
    {
      "text": "theory but leftist theories are not",
      "start": 698.77,
      "duration": 4.74
    },
    {
      "text": "designed for logical consequences but",
      "start": 699.94,
      "duration": 6.21
    },
    {
      "text": "rather of firing up the jet pack that",
      "start": 703.51,
      "duration": 3.18
    },
    {
      "text": "burns",
      "start": 706.15,
      "duration": 3
    },
    {
      "text": "the future of the young in order to rise",
      "start": 706.69,
      "duration": 6.51
    },
    {
      "text": "someone to a position of power and the",
      "start": 709.15,
      "duration": 8.19
    },
    {
      "text": "media would do what if these gangs were",
      "start": 713.2,
      "duration": 6.42
    },
    {
      "text": "exposed if these gangs were exposed and",
      "start": 717.34,
      "duration": 4.56
    },
    {
      "text": "had been exposed from early on it might",
      "start": 719.62,
      "duration": 5.66
    },
    {
      "text": "have had see that the real third world",
      "start": 721.9,
      "duration": 5.76
    },
    {
      "text": "opening of the floodgates did not occur",
      "start": 725.28,
      "duration": 4.54
    },
    {
      "text": "as strongly until the 90s",
      "start": 727.66,
      "duration": 5.51
    },
    {
      "text": "now if since the seventies and into 80s",
      "start": 729.82,
      "duration": 6.33
    },
    {
      "text": "if the media had been exposing and",
      "start": 733.17,
      "duration": 4.78
    },
    {
      "text": "talking about this then there could have",
      "start": 736.15,
      "duration": 7.71
    },
    {
      "text": "been a pause put on immigration from",
      "start": 737.95,
      "duration": 7.83
    },
    {
      "text": "everywhere from something could have",
      "start": 743.86,
      "duration": 3.56
    },
    {
      "text": "been done there could have been a",
      "start": 745.78,
      "duration": 4.08
    },
    {
      "text": "earlier Brax if they could have been an",
      "start": 747.42,
      "duration": 6.49
    },
    {
      "text": "earlier desire or capacity to change",
      "start": 749.86,
      "duration": 6.78
    },
    {
      "text": "refugee laws to change immigration laws",
      "start": 753.91,
      "duration": 5.88
    },
    {
      "text": "if this had occurred and the fact that",
      "start": 756.64,
      "duration": 5.31
    },
    {
      "text": "this did not occur it can't have been",
      "start": 759.79,
      "duration": 4.05
    },
    {
      "text": "because the parents didn't care and it",
      "start": 761.95,
      "duration": 3.12
    },
    {
      "text": "kind of been because the children didn't",
      "start": 763.84,
      "duration": 2.75
    },
    {
      "text": "care and it kind of been because",
      "start": 765.07,
      "duration": 3.6
    },
    {
      "text": "societies as a whole communities as a",
      "start": 766.59,
      "duration": 4.8
    },
    {
      "text": "whole didn't care",
      "start": 768.67,
      "duration": 2.72
    },
    {
      "text": "and so this didn't occur because",
      "start": 772.49,
      "duration": 6
    },
    {
      "text": "everyone was afraid of the media and",
      "start": 774.1,
      "duration": 7.15
    },
    {
      "text": "calling them racist even though Islam is",
      "start": 778.49,
      "duration": 6.93
    },
    {
      "text": "not a race or I guess since the 90s when",
      "start": 781.25,
      "duration": 5.79
    },
    {
      "text": "the hate speech laws came in everybody",
      "start": 785.42,
      "duration": 6.24
    },
    {
      "text": "was afraid of going to jail for speaking",
      "start": 787.04,
      "duration": 10.169
    },
    {
      "text": "facts and demanding solutions but",
      "start": 791.66,
      "duration": 7.739
    },
    {
      "text": "because there was this cover-up from the",
      "start": 797.209,
      "duration": 7.411
    },
    {
      "text": "police to the government's to the media",
      "start": 799.399,
      "duration": 12.171
    },
    {
      "text": "to academia to everyone it seems then",
      "start": 804.62,
      "duration": 10.98
    },
    {
      "text": "there was no recognition of the need to",
      "start": 811.57,
      "duration": 6.54
    },
    {
      "text": "talk about third world immigration and",
      "start": 815.6,
      "duration": 4.739
    },
    {
      "text": "therefore more more people poured in and",
      "start": 818.11,
      "duration": 4.69
    },
    {
      "text": "therefore more and more children were",
      "start": 820.339,
      "duration": 5.281
    },
    {
      "text": "raped and tortured and murdered this is",
      "start": 822.8,
      "duration": 7.039
    },
    {
      "text": "directly causal this is directly causal",
      "start": 825.62,
      "duration": 8.219
    },
    {
      "text": "the perpetrators rossette represent less",
      "start": 829.839,
      "duration": 6.25
    },
    {
      "text": "than I would imagine but it's around 2%",
      "start": 833.839,
      "duration": 4.56
    },
    {
      "text": "as a whole but less than 2% of the",
      "start": 836.089,
      "duration": 4.74
    },
    {
      "text": "population of well north of 80 to 90% of",
      "start": 838.399,
      "duration": 7.981
    },
    {
      "text": "the perpetrators these children could",
      "start": 840.829,
      "duration": 7.441
    },
    {
      "text": "have been saved but these children were",
      "start": 846.38,
      "duration": 2.55
    },
    {
      "text": "sacrificed",
      "start": 848.27,
      "duration": 4.65
    },
    {
      "text": "these children were almost literally",
      "start": 848.93,
      "duration": 8.06
    },
    {
      "text": "handed over in exchange for votes in",
      "start": 852.92,
      "duration": 6.84
    },
    {
      "text": "exchange for those Muslim community",
      "start": 856.99,
      "duration": 9.58
    },
    {
      "text": "votes for the left in the West and so we",
      "start": 859.76,
      "duration": 9.019
    },
    {
      "text": "don't want to interfere with your votes",
      "start": 866.57,
      "duration": 7.92
    },
    {
      "text": "so please here are our children to do",
      "start": 868.779,
      "duration": 8.56
    },
    {
      "text": "with as you will as long as you vote for",
      "start": 874.49,
      "duration": 9
    },
    {
      "text": "the left and the silence in the cover-up",
      "start": 877.339,
      "duration": 9.841
    },
    {
      "text": "I can't imagine the police well maybe",
      "start": 883.49,
      "duration": 5.94
    },
    {
      "text": "now I mean the police now if we look",
      "start": 887.18,
      "duration": 8.58
    },
    {
      "text": "back at the mid 1970s to now more than",
      "start": 889.43,
      "duration": 9.029
    },
    {
      "text": "40 years which means you've had a whole",
      "start": 895.76,
      "duration": 4.47
    },
    {
      "text": "generation of police who come in and",
      "start": 898.459,
      "duration": 3.99
    },
    {
      "text": "know that this is going to be covered up",
      "start": 900.23,
      "duration": 3.33
    },
    {
      "text": "and know that they're going to be",
      "start": 902.449,
      "duration": 3.721
    },
    {
      "text": "largely ineffectual in trying to deal",
      "start": 903.56,
      "duration": 3.559
    },
    {
      "text": "with this issue",
      "start": 906.17,
      "duration": 2.909
    },
    {
      "text": "you're a court system that's been",
      "start": 907.119,
      "duration": 3.52
    },
    {
      "text": "corrupted politicians that have been",
      "start": 909.079,
      "duration": 5
    },
    {
      "text": "corrupted a media who's been corrupted",
      "start": 910.639,
      "duration": 5.91
    },
    {
      "text": "everybody now has a bad conscience and",
      "start": 914.079,
      "duration": 3.97
    },
    {
      "text": "when everybody has a bad conscience",
      "start": 916.549,
      "duration": 5.13
    },
    {
      "text": "things tend to continue because they",
      "start": 918.049,
      "duration": 6.48
    },
    {
      "text": "lash out extremely aggressively at",
      "start": 921.679,
      "duration": 4.291
    },
    {
      "text": "anybody who provokes their bad",
      "start": 924.529,
      "duration": 2.821
    },
    {
      "text": "conscience that is something I have",
      "start": 925.97,
      "duration": 6.5
    },
    {
      "text": "learned well for quite some time now and",
      "start": 927.35,
      "duration": 8.94
    },
    {
      "text": "what is this done to people's",
      "start": 932.47,
      "duration": 6.669
    },
    {
      "text": "relationships to their local police I",
      "start": 936.29,
      "duration": 4.109
    },
    {
      "text": "mean if you look at the relationship",
      "start": 939.139,
      "duration": 4.021
    },
    {
      "text": "between African Americans in America of",
      "start": 940.399,
      "duration": 7.28
    },
    {
      "text": "course and their policing",
      "start": 943.16,
      "duration": 7.409
    },
    {
      "text": "it's very fractious it's very very",
      "start": 947.679,
      "duration": 9.84
    },
    {
      "text": "concerning but the government isn't",
      "start": 950.569,
      "duration": 9.75
    },
    {
      "text": "inviting in paying for millions of",
      "start": 957.519,
      "duration": 5.771
    },
    {
      "text": "people to come in of whom a significant",
      "start": 960.319,
      "duration": 7.8
    },
    {
      "text": "proportion of the men end up raping and",
      "start": 963.29,
      "duration": 9.32
    },
    {
      "text": "torturing and murdering black children",
      "start": 968.119,
      "duration": 7.26
    },
    {
      "text": "but this is occurring of course in the",
      "start": 972.61,
      "duration": 5.769
    },
    {
      "text": "UK and in other countries as well what",
      "start": 975.379,
      "duration": 4.351
    },
    {
      "text": "is this done to people's relationships",
      "start": 978.379,
      "duration": 3.99
    },
    {
      "text": "to their state to the state to their",
      "start": 979.73,
      "duration": 9.779
    },
    {
      "text": "politicians to the police and what is it",
      "start": 982.369,
      "duration": 11.37
    },
    {
      "text": "shown to people when you have a small",
      "start": 989.509,
      "duration": 8.61
    },
    {
      "text": "minority of a population that I guess",
      "start": 993.739,
      "duration": 7.56
    },
    {
      "text": "people are scared of and therefore they",
      "start": 998.119,
      "duration": 5.97
    },
    {
      "text": "are now exempt from laws and not just",
      "start": 1001.299,
      "duration": 4.83
    },
    {
      "text": "exempt from laws but they continue to be",
      "start": 1004.089,
      "duration": 3.69
    },
    {
      "text": "paid by the very state that refuses to",
      "start": 1006.129,
      "duration": 6.29
    },
    {
      "text": "protect the children that they prey on",
      "start": 1007.779,
      "duration": 4.64
    },
    {
      "text": "well it tells you that a very small",
      "start": 1014.069,
      "duration": 6.791
    },
    {
      "text": "percentage of the population can't",
      "start": 1016.239,
      "duration": 6.18
    },
    {
      "text": "exclude themselves from the law and I'm",
      "start": 1020.86,
      "duration": 3.299
    },
    {
      "text": "not just talking about high-level",
      "start": 1022.419,
      "duration": 4.14
    },
    {
      "text": "Democrats in the US but a very small",
      "start": 1024.159,
      "duration": 3.721
    },
    {
      "text": "percentage of the population can",
      "start": 1026.559,
      "duration": 3.441
    },
    {
      "text": "effectively exempt themselves under law",
      "start": 1027.88,
      "duration": 6.139
    },
    {
      "text": "through a variety of threats both",
      "start": 1030,
      "duration": 9.169
    },
    {
      "text": "explicit and implicit threats of riots",
      "start": 1034.019,
      "duration": 9.79
    },
    {
      "text": "of calling people racist or whatever",
      "start": 1039.169,
      "duration": 9.541
    },
    {
      "text": "Slama phobic and that's a very powerful",
      "start": 1043.809,
      "duration": 7.901
    },
    {
      "text": "thing to see it doesn't take a lot of",
      "start": 1048.71,
      "duration": 9.709
    },
    {
      "text": "people to create no-go zones in the law",
      "start": 1051.71,
      "duration": 10.949
    },
    {
      "text": "to create pedophile playpens immune from",
      "start": 1058.419,
      "duration": 6.1
    },
    {
      "text": "legal consequence so largely immune from",
      "start": 1062.659,
      "duration": 4.59
    },
    {
      "text": "legal consequences and again I really",
      "start": 1064.519,
      "duration": 4.38
    },
    {
      "text": "want to stress it's not just immunity",
      "start": 1067.249,
      "duration": 4.17
    },
    {
      "text": "from legal consequences it's continuing",
      "start": 1068.899,
      "duration": 5.85
    },
    {
      "text": "to be paid to come and perform these",
      "start": 1071.419,
      "duration": 10.14
    },
    {
      "text": "actions in return for that in return for",
      "start": 1074.749,
      "duration": 11.851
    },
    {
      "text": "votes this same media went completely",
      "start": 1081.559,
      "duration": 7.2
    },
    {
      "text": "mental over someone like Margaret",
      "start": 1086.6,
      "duration": 10.139
    },
    {
      "text": "Thatcher Pink Floyd and this same media",
      "start": 1088.759,
      "duration": 10.201
    },
    {
      "text": "that went completely mental over a woman",
      "start": 1096.739,
      "duration": 4.77
    },
    {
      "text": "who wanted a small the government wanted",
      "start": 1098.96,
      "duration": 4.529
    },
    {
      "text": "a free a market wanted some national",
      "start": 1101.509,
      "duration": 5.4
    },
    {
      "text": "pride where she was their real enemy you",
      "start": 1103.489,
      "duration": 10.91
    },
    {
      "text": "see not these groups not these racist",
      "start": 1106.909,
      "duration": 10.73
    },
    {
      "text": "paedophile gangs",
      "start": 1114.399,
      "duration": 3.24
    },
    {
      "text": "now the last thing I wanted to mention",
      "start": 1118.26,
      "duration": 6.62
    },
    {
      "text": "was feminism feminism has of course been",
      "start": 1119.46,
      "duration": 8.63
    },
    {
      "text": "talking about rape culture and",
      "start": 1124.88,
      "duration": 7.09
    },
    {
      "text": "patriarchy and women and children and",
      "start": 1128.09,
      "duration": 6.43
    },
    {
      "text": "girls as victims for decades and decades",
      "start": 1131.97,
      "duration": 8.16
    },
    {
      "text": "and decades now and you can go to the",
      "start": 1134.52,
      "duration": 10.02
    },
    {
      "text": "leading feminist sites a Jezebel and and",
      "start": 1140.13,
      "duration": 5.61
    },
    {
      "text": "others and you can go to the leading",
      "start": 1144.54,
      "duration": 3.17
    },
    {
      "text": "feminist sites and you can type in the",
      "start": 1145.74,
      "duration": 4.71
    },
    {
      "text": "word Jezebel sorry you can type in the",
      "start": 1147.71,
      "duration": 6.4
    },
    {
      "text": "word Telford and if you type in the word",
      "start": 1150.45,
      "duration": 5.88
    },
    {
      "text": "Telford on these leading feminist sites",
      "start": 1154.11,
      "duration": 8.64
    },
    {
      "text": "you will get precisely zero hits it's",
      "start": 1156.33,
      "duration": 10.58
    },
    {
      "text": "like they are just leftist LARPers of",
      "start": 1162.75,
      "duration": 6.929
    },
    {
      "text": "the mayor ghosts and illusions of any",
      "start": 1166.91,
      "duration": 4.389
    },
    {
      "text": "kind of moral integrity this is what",
      "start": 1169.679,
      "duration": 3.571
    },
    {
      "text": "bothers me most is the lack of honor on",
      "start": 1171.299,
      "duration": 5.221
    },
    {
      "text": "the part of feminists and the contempt",
      "start": 1173.25,
      "duration": 5.1
    },
    {
      "text": "that I have the contempt that I have for",
      "start": 1176.52,
      "duration": 4.5
    },
    {
      "text": "feminists who constantly rail against",
      "start": 1178.35,
      "duration": 4.53
    },
    {
      "text": "rape culture and the exploitation of",
      "start": 1181.02,
      "duration": 5.159
    },
    {
      "text": "women and girls and who get really mad",
      "start": 1182.88,
      "duration": 6.27
    },
    {
      "text": "at mansplaining and manspreading and",
      "start": 1186.179,
      "duration": 6.511
    },
    {
      "text": "things like that and you have I think",
      "start": 1189.15,
      "duration": 8.06
    },
    {
      "text": "what could argue arguably called a",
      "start": 1192.69,
      "duration": 4.52
    },
    {
      "text": "patriarchal culture that is not immune",
      "start": 1197.24,
      "duration": 8.55
    },
    {
      "text": "from acting out rape of children and",
      "start": 1200.25,
      "duration": 9.14
    },
    {
      "text": "they say nothing",
      "start": 1205.79,
      "duration": 3.6
    },
    {
      "text": "well are they mere tools for leftist",
      "start": 1213.74,
      "duration": 6.78
    },
    {
      "text": "votes certain arguments that they are",
      "start": 1218.029,
      "duration": 8.431
    },
    {
      "text": "but if they are then they are set up to",
      "start": 1220.52,
      "duration": 8.22
    },
    {
      "text": "hate there are white males and",
      "start": 1226.46,
      "duration": 3.99
    },
    {
      "text": "Christians who generally don't vote for",
      "start": 1228.74,
      "duration": 5.52
    },
    {
      "text": "bigger government and the reason why",
      "start": 1230.45,
      "duration": 5.4
    },
    {
      "text": "they say nothing is that the",
      "start": 1234.26,
      "duration": 4.59
    },
    {
      "text": "perpetrators are the wrong race for them",
      "start": 1235.85,
      "duration": 4.65
    },
    {
      "text": "and the victims are the wrong race for",
      "start": 1238.85,
      "duration": 4.89
    },
    {
      "text": "them in other words feminism is simply",
      "start": 1240.5,
      "duration": 5.25
    },
    {
      "text": "anti-white racism and therefore when",
      "start": 1243.74,
      "duration": 3.39
    },
    {
      "text": "white girls are the victims they say",
      "start": 1245.75,
      "duration": 7.409
    },
    {
      "text": "nothing who is speaking out for the",
      "start": 1247.13,
      "duration": 10.76
    },
    {
      "text": "victims of a radical immigration policy",
      "start": 1253.159,
      "duration": 6.9
    },
    {
      "text": "that is entirely under the control of",
      "start": 1257.89,
      "duration": 4.12
    },
    {
      "text": "the government this is a social",
      "start": 1260.059,
      "duration": 3.75
    },
    {
      "text": "experiment entirely under the control of",
      "start": 1262.01,
      "duration": 3.24
    },
    {
      "text": "the government and ultimately the",
      "start": 1263.809,
      "duration": 6.631
    },
    {
      "text": "taxpayers and the voters and who is",
      "start": 1265.25,
      "duration": 7.59
    },
    {
      "text": "going to say to these girls the what",
      "start": 1270.44,
      "duration": 4.229
    },
    {
      "text": "happened to them was worth it for some",
      "start": 1272.84,
      "duration": 11.37
    },
    {
      "text": "larger social good what what satanic",
      "start": 1274.669,
      "duration": 14.811
    },
    {
      "text": "social theory do you have that requires",
      "start": 1284.21,
      "duration": 8.76
    },
    {
      "text": "the rape mutilation and torture of",
      "start": 1289.48,
      "duration": 8.02
    },
    {
      "text": "little girls does that not give you any",
      "start": 1292.97,
      "duration": 9.179
    },
    {
      "text": "pause regarding your theory well I like",
      "start": 1297.5,
      "duration": 6.809
    },
    {
      "text": "this immigration policy",
      "start": 1302.149,
      "duration": 4.111
    },
    {
      "text": "I like diversity I like multiculturalism",
      "start": 1304.309,
      "duration": 5.281
    },
    {
      "text": "and I'm gonna stare into the dead dolls",
      "start": 1306.26,
      "duration": 5.19
    },
    {
      "text": "eyes that these traumatized brutalized",
      "start": 1309.59,
      "duration": 4.05
    },
    {
      "text": "raped and have killed little girls and",
      "start": 1311.45,
      "duration": 6.15
    },
    {
      "text": "say hey you know you can't make an",
      "start": 1313.64,
      "duration": 5.93
    },
    {
      "text": "omelet without breaking a few eggs",
      "start": 1317.6,
      "duration": 4.14
    },
    {
      "text": "sometimes literally I assume in this",
      "start": 1319.57,
      "duration": 9.4
    },
    {
      "text": "case what if I'm going to say nothing no",
      "start": 1321.74,
      "duration": 10.5
    },
    {
      "text": "family to say nothing what are they what",
      "start": 1328.97,
      "duration": 4.38
    },
    {
      "text": "are they doing what are they where are",
      "start": 1332.24,
      "duration": 2.64
    },
    {
      "text": "their hearts we were there where's their",
      "start": 1333.35,
      "duration": 3.66
    },
    {
      "text": "compassion where's their empathy where's",
      "start": 1334.88,
      "duration": 3.6
    },
    {
      "text": "their morality where's their decency",
      "start": 1337.01,
      "duration": 4.46
    },
    {
      "text": "where's their honor",
      "start": 1338.48,
      "duration": 2.99
    },
    {
      "text": "SOLAS",
      "start": 1344.01,
      "duration": 2.96
    },
    {
      "text": "vicious and horrifying beyond words like",
      "start": 1349.419,
      "duration": 5.73
    },
    {
      "text": "it's one thing to be traumatized but",
      "start": 1350.979,
      "duration": 6.03
    },
    {
      "text": "it's another thing to be ignored by the",
      "start": 1355.149,
      "duration": 4.08
    },
    {
      "text": "police by the media and even when the",
      "start": 1357.009,
      "duration": 7.1
    },
    {
      "text": "facts come out to then be ignored I",
      "start": 1359.229,
      "duration": 4.88
    },
    {
      "text": "can't I can't I can't picture this",
      "start": 1366.779,
      "duration": 6.4
    },
    {
      "text": "mindset like I can I can't follow this",
      "start": 1368.919,
      "duration": 8.94
    },
    {
      "text": "line of thinking I can't not empathize",
      "start": 1373.179,
      "duration": 10.74
    },
    {
      "text": "with the little Sikh girls with the",
      "start": 1377.859,
      "duration": 12.66
    },
    {
      "text": "little Christian girls I used to ask",
      "start": 1383.919,
      "duration": 9.66
    },
    {
      "text": "myself what is wrong with these people",
      "start": 1390.519,
      "duration": 4.74
    },
    {
      "text": "what is wrong with these people",
      "start": 1393.579,
      "duration": 12.51
    },
    {
      "text": "like a genuine question and I have the",
      "start": 1395.259,
      "duration": 13.14
    },
    {
      "text": "answer of what is wrong with these",
      "start": 1406.089,
      "duration": 4.37
    },
    {
      "text": "people",
      "start": 1408.399,
      "duration": 2.06
    },
    {
      "text": "the world is at war between the makers",
      "start": 1414.85,
      "duration": 6.18
    },
    {
      "text": "and the takers those who produce and",
      "start": 1417.43,
      "duration": 5.1
    },
    {
      "text": "those who use the power of the state to",
      "start": 1421.03,
      "duration": 4.83
    },
    {
      "text": "strip that production to take for",
      "start": 1422.53,
      "duration": 8.43
    },
    {
      "text": "themselves being an addict parasite to",
      "start": 1425.86,
      "duration": 6.45
    },
    {
      "text": "other people's productivity means you",
      "start": 1430.96,
      "duration": 3.11
    },
    {
      "text": "must dehumanize the productive and",
      "start": 1432.31,
      "duration": 4.95
    },
    {
      "text": "there's a battle between those who get",
      "start": 1434.07,
      "duration": 4.6
    },
    {
      "text": "up and go to work every day and those",
      "start": 1437.26,
      "duration": 2.64
    },
    {
      "text": "who are raising their children and",
      "start": 1438.67,
      "duration": 3.33
    },
    {
      "text": "working hard and between those who have",
      "start": 1439.9,
      "duration": 4.02
    },
    {
      "text": "a lot of time on their hands to cause",
      "start": 1442,
      "duration": 4.83
    },
    {
      "text": "trouble to make waves to propagandize to",
      "start": 1443.92,
      "duration": 9.21
    },
    {
      "text": "protest and it's an unfair battle it's",
      "start": 1446.83,
      "duration": 8.46
    },
    {
      "text": "an unfair battle because those who have",
      "start": 1453.13,
      "duration": 6.36
    },
    {
      "text": "children and those who have jobs they're",
      "start": 1455.29,
      "duration": 5.73
    },
    {
      "text": "busy we're busy we're busy",
      "start": 1459.49,
      "duration": 3.06
    },
    {
      "text": "we're busy we're busy we have very",
      "start": 1461.02,
      "duration": 3.57
    },
    {
      "text": "little time to push back against the",
      "start": 1462.55,
      "duration": 5.64
    },
    {
      "text": "endless mosquito vampirism of those who",
      "start": 1464.59,
      "duration": 7.77
    },
    {
      "text": "prey upon our productivity of no time if",
      "start": 1468.19,
      "duration": 9.45
    },
    {
      "text": "a job you have kids you're very little",
      "start": 1472.36,
      "duration": 9.54
    },
    {
      "text": "time left over but if you're sitting",
      "start": 1477.64,
      "duration": 8.58
    },
    {
      "text": "around on government money you lost a",
      "start": 1481.9,
      "duration": 7.2
    },
    {
      "text": "time you're a student you're taking some",
      "start": 1486.22,
      "duration": 4.32
    },
    {
      "text": "useless degree funded by the state",
      "start": 1489.1,
      "duration": 3.9
    },
    {
      "text": "you've got lots of time lots of time and",
      "start": 1490.54,
      "duration": 4.32
    },
    {
      "text": "massive incentive in this combination of",
      "start": 1493,
      "duration": 5.31
    },
    {
      "text": "extra time and extra incentive is why",
      "start": 1494.86,
      "duration": 6.96
    },
    {
      "text": "things are falling apart why the center",
      "start": 1498.31,
      "duration": 5.81
    },
    {
      "text": "cannot hold",
      "start": 1501.82,
      "duration": 2.3
    },
    {
      "text": "it is a war",
      "start": 1504.63,
      "duration": 3.69
    },
    {
      "text": "and in any war that you wish to continue",
      "start": 1511.07,
      "duration": 7.41
    },
    {
      "text": "you must hide the casualties you",
      "start": 1516.5,
      "duration": 5.96
    },
    {
      "text": "understand I mean when the United States",
      "start": 1518.48,
      "duration": 8.25
    },
    {
      "text": "declared this horrifying evil war on",
      "start": 1522.46,
      "duration": 9.52
    },
    {
      "text": "Iraq and Afghanistan in the US papers",
      "start": 1526.73,
      "duration": 8.51
    },
    {
      "text": "you would see the pictures of the",
      "start": 1531.98,
      "duration": 6.5
    },
    {
      "text": "soldiers the American soldiers who died",
      "start": 1535.24,
      "duration": 7.289
    },
    {
      "text": "98 percent of the men because privilege",
      "start": 1538.48,
      "duration": 8.02
    },
    {
      "text": "you don't see the photos of the Iraqi",
      "start": 1542.529,
      "duration": 6.01
    },
    {
      "text": "victims not just the soldiers but the",
      "start": 1546.5,
      "duration": 4.139
    },
    {
      "text": "civilians of course when Barack Obama",
      "start": 1548.539,
      "duration": 4.531
    },
    {
      "text": "dropped a hundred thousand bombs largely",
      "start": 1550.639,
      "duration": 5.91
    },
    {
      "text": "on Muslims during his eight-year reign",
      "start": 1553.07,
      "duration": 6.41
    },
    {
      "text": "you did not see pictures of the victims",
      "start": 1556.549,
      "duration": 5.49
    },
    {
      "text": "because if you want the wars to continue",
      "start": 1559.48,
      "duration": 4.449
    },
    {
      "text": "if you want the victims bodies to",
      "start": 1562.039,
      "duration": 5.37
    },
    {
      "text": "continue to pile up you must hide the",
      "start": 1563.929,
      "duration": 5.37
    },
    {
      "text": "victims so that you do not shock the",
      "start": 1567.409,
      "duration": 4.22
    },
    {
      "text": "remaining moral sensibilities of the",
      "start": 1569.299,
      "duration": 8.431
    },
    {
      "text": "population and do we see this as well",
      "start": 1571.629,
      "duration": 9.93
    },
    {
      "text": "now victims of another war these poor",
      "start": 1577.73,
      "duration": 7.909
    },
    {
      "text": "brutalized British children these girls",
      "start": 1581.559,
      "duration": 9.641
    },
    {
      "text": "sacrificed on the altar of leftist power",
      "start": 1585.639,
      "duration": 11.861
    },
    {
      "text": "lust we cannot see their faces we cannot",
      "start": 1591.2,
      "duration": 11.599
    },
    {
      "text": "hear their voices because the war must",
      "start": 1597.5,
      "duration": 8.299
    },
    {
      "text": "continue",
      "start": 1602.799,
      "duration": 3
    }
  ],
  "Errors": null,
  "TranscriptStderr": null
}