{
  "Title": "The Secret Life of a Psychopath",
  "Id": "DKqv38QZ7yI",
  "Transcript": [
    {
      "text": "thanks so much for getting my call I am",
      "start": 0.38,
      "duration": 10.48
    },
    {
      "text": "a freshman at NYU and it's been sort of",
      "start": 4.77,
      "duration": 8.779
    },
    {
      "text": "crazy for me this this past year because",
      "start": 10.86,
      "duration": 6.36
    },
    {
      "text": "um I felt like I've kind of lived my",
      "start": 13.549,
      "duration": 7.421
    },
    {
      "text": "life in a bubble but I was sort of aware",
      "start": 17.22,
      "duration": 7.649
    },
    {
      "text": "of it I was in a private school around",
      "start": 20.97,
      "duration": 7.28
    },
    {
      "text": "people who were great or supportive um",
      "start": 24.869,
      "duration": 9.87
    },
    {
      "text": "and I'm now suddenly just being thrown",
      "start": 28.25,
      "duration": 9.309
    },
    {
      "text": "into this entirely different environment",
      "start": 34.739,
      "duration": 7.741
    },
    {
      "text": "where I went to public schools we went",
      "start": 37.559,
      "duration": 11.131
    },
    {
      "text": "to other private schools and the it I'm",
      "start": 42.48,
      "duration": 9.919
    },
    {
      "text": "almost at a point where I feel that",
      "start": 48.69,
      "duration": 6.27
    },
    {
      "text": "everything that I'm learning about from",
      "start": 52.399,
      "duration": 5.41
    },
    {
      "text": "EU about liberty and all this crazy",
      "start": 54.96,
      "duration": 6.419
    },
    {
      "text": "stuff is is just becoming entirely fused",
      "start": 57.809,
      "duration": 6.271
    },
    {
      "text": "with my my social my social climate and",
      "start": 61.379,
      "duration": 5.1
    },
    {
      "text": "it's it's it's becoming so confusing to",
      "start": 64.08,
      "duration": 6.48
    },
    {
      "text": "me that I'm all something but one of the",
      "start": 66.479,
      "duration": 6.411
    },
    {
      "text": "things that I have become the value",
      "start": 70.56,
      "duration": 5.58
    },
    {
      "text": "incredibly since finding you and other",
      "start": 72.89,
      "duration": 9.88
    },
    {
      "text": "people like you is how honesty and for",
      "start": 76.14,
      "duration": 8.519
    },
    {
      "text": "it I just want to see in general and",
      "start": 82.77,
      "duration": 3.93
    },
    {
      "text": "being true to yourself is so important",
      "start": 84.659,
      "duration": 5.07
    },
    {
      "text": "and I've never been in an environment",
      "start": 86.7,
      "duration": 6.3
    },
    {
      "text": "where I feel so many people say things",
      "start": 89.729,
      "duration": 7.53
    },
    {
      "text": "that they don't really believe",
      "start": 93,
      "duration": 6.799
    },
    {
      "text": "themselves to be true as in the",
      "start": 97.259,
      "duration": 5.101
    },
    {
      "text": "everybody's have been secure on an",
      "start": 99.799,
      "duration": 5.261
    },
    {
      "text": "intellectual level especially in college",
      "start": 102.36,
      "duration": 4.64
    },
    {
      "text": "because everybody is so frightened by",
      "start": 105.06,
      "duration": 5.75
    },
    {
      "text": "people who are far smarter than them and",
      "start": 107,
      "duration": 6.39
    },
    {
      "text": "it's just an incredibly competitive",
      "start": 110.81,
      "duration": 5.8
    },
    {
      "text": "atmosphere and everybody so you know",
      "start": 113.39,
      "duration": 4.75
    },
    {
      "text": "they're trying to measure themselves up",
      "start": 116.61,
      "duration": 3.42
    },
    {
      "text": "against each other and I I really do not",
      "start": 118.14,
      "duration": 6.42
    },
    {
      "text": "care for this paradigm and I've almost",
      "start": 120.03,
      "duration": 7.08
    },
    {
      "text": "get to the point where you know you",
      "start": 124.56,
      "duration": 4.619
    },
    {
      "text": "mentioned this when you talk to other",
      "start": 127.11,
      "duration": 5.31
    },
    {
      "text": "people who you're trying to convince",
      "start": 129.179,
      "duration": 7.381
    },
    {
      "text": "of uh this way thinking is you have that",
      "start": 132.42,
      "duration": 10.46
    },
    {
      "text": "intellectual triage you know yeah it",
      "start": 136.56,
      "duration": 11.04
    },
    {
      "text": "yeah then grab that for me I'd do that",
      "start": 142.88,
      "duration": 9.55
    },
    {
      "text": "triage so much quicker than it happens",
      "start": 147.6,
      "duration": 7.17
    },
    {
      "text": "instantaneously I I it's not I don't",
      "start": 152.43,
      "duration": 3.83
    },
    {
      "text": "even have to listen to them talk about",
      "start": 154.77,
      "duration": 4.5
    },
    {
      "text": "their political views just know that if",
      "start": 156.26,
      "duration": 5.38
    },
    {
      "text": "they're the kind of person who would",
      "start": 159.27,
      "duration": 4.77
    },
    {
      "text": "believe in something that they know",
      "start": 161.64,
      "duration": 3.87
    },
    {
      "text": "isn't true but they believe it in",
      "start": 164.04,
      "duration": 3.09
    },
    {
      "text": "anyways because everybody else believes",
      "start": 165.51,
      "duration": 3.99
    },
    {
      "text": "it to be true but I'm just not going to",
      "start": 167.13,
      "duration": 4.5
    },
    {
      "text": "waste my time with these people and I've",
      "start": 169.5,
      "duration": 4.47
    },
    {
      "text": "gotten to the point where I feel like",
      "start": 171.63,
      "duration": 7.28
    },
    {
      "text": "that is literally most people and I I'm",
      "start": 173.97,
      "duration": 7.95
    },
    {
      "text": "totally alone I can't relate to anybody",
      "start": 178.91,
      "duration": 4.39
    },
    {
      "text": "the only people I can relate to our",
      "start": 181.92,
      "duration": 5.18
    },
    {
      "text": "people who are my professors who are",
      "start": 183.3,
      "duration": 6.21
    },
    {
      "text": "intelligent you know the more the",
      "start": 187.1,
      "duration": 4.15
    },
    {
      "text": "reasonably more intelligent ones I can I",
      "start": 189.51,
      "duration": 4.65
    },
    {
      "text": "can't relate to the thing you some of",
      "start": 191.25,
      "duration": 5.519
    },
    {
      "text": "the even my younger professors who even",
      "start": 194.16,
      "duration": 6.69
    },
    {
      "text": "when they're teaching don't even I mean",
      "start": 196.769,
      "duration": 8.011
    },
    {
      "text": "I I my macroeconomics classes and my",
      "start": 200.85,
      "duration": 6.51
    },
    {
      "text": "philosophy class both of them and it's",
      "start": 204.78,
      "duration": 6
    },
    {
      "text": "just such a shame that you know finding",
      "start": 207.36,
      "duration": 4.86
    },
    {
      "text": "you that the subjects I become",
      "start": 210.78,
      "duration": 3.63
    },
    {
      "text": "interested in or economics and",
      "start": 212.22,
      "duration": 4.2
    },
    {
      "text": "philosophy but then they just get",
      "start": 214.41,
      "duration": 4.95
    },
    {
      "text": "totally shit on and it's it's it's told",
      "start": 216.42,
      "duration": 5.069
    },
    {
      "text": "they're not recognizable as a subjects",
      "start": 219.36,
      "duration": 6.5
    },
    {
      "text": "into college I can't I can't there's no",
      "start": 221.489,
      "duration": 7.021
    },
    {
      "text": "path for creativity it's just they're",
      "start": 225.86,
      "duration": 4.89
    },
    {
      "text": "only concerned about aptitude and",
      "start": 228.51,
      "duration": 6.6
    },
    {
      "text": "excellence what do you mean by",
      "start": 230.75,
      "duration": 10.209
    },
    {
      "text": "excellence it's you know I mean all my",
      "start": 235.11,
      "duration": 12.9
    },
    {
      "text": "life I've been trying to you know it try",
      "start": 240.959,
      "duration": 8.071
    },
    {
      "text": "to find an alternative education",
      "start": 248.01,
      "duration": 6.66
    },
    {
      "text": "something that I feel will cultivate the",
      "start": 249.03,
      "duration": 6.84
    },
    {
      "text": "parts of me that I feel need to be",
      "start": 254.67,
      "duration": 6.27
    },
    {
      "text": "cultivated because you know school you",
      "start": 255.87,
      "duration": 6.54
    },
    {
      "text": "know I I got good grades in school",
      "start": 260.94,
      "duration": 4.229
    },
    {
      "text": "because I cheated on all my tests but",
      "start": 262.41,
      "duration": 4.03
    },
    {
      "text": "that's not because",
      "start": 265.169,
      "duration": 3.821
    },
    {
      "text": "I was actually cheating I was cheating",
      "start": 266.44,
      "duration": 3.99
    },
    {
      "text": "because I had a good fucking memory I",
      "start": 268.99,
      "duration": 5.97
    },
    {
      "text": "had that's the reason why I got grades I",
      "start": 270.43,
      "duration": 6.66
    },
    {
      "text": "have a photographic memory whenever I'd",
      "start": 274.96,
      "duration": 4.23
    },
    {
      "text": "take a fucking test I just read the",
      "start": 277.09,
      "duration": 3.39
    },
    {
      "text": "thing off my head and I'll forget about",
      "start": 279.19,
      "duration": 3.3
    },
    {
      "text": "the day later they they don't they're",
      "start": 280.48,
      "duration": 4.38
    },
    {
      "text": "the only way I can internalize the",
      "start": 282.49,
      "duration": 4.2
    },
    {
      "text": "skills I learned in schools if I'm doing",
      "start": 284.86,
      "duration": 4.02
    },
    {
      "text": "something creative simultaneously and so",
      "start": 286.69,
      "duration": 4.17
    },
    {
      "text": "you know I've been taking semesters",
      "start": 288.88,
      "duration": 5.13
    },
    {
      "text": "abroad in high school you know I'm a I'm",
      "start": 290.86,
      "duration": 5.09
    },
    {
      "text": "just so fortunate that I haven't been",
      "start": 294.01,
      "duration": 4.08
    },
    {
      "text": "you know I'm not I don't live in the",
      "start": 295.95,
      "duration": 4.3
    },
    {
      "text": "underclass of society I don't depend on",
      "start": 298.09,
      "duration": 5.55
    },
    {
      "text": "the state for my well-being I have",
      "start": 300.25,
      "duration": 5.13
    },
    {
      "text": "parents area to provide for me I'm not",
      "start": 303.64,
      "duration": 5.39
    },
    {
      "text": "graduating with student debt but even",
      "start": 305.38,
      "duration": 7.77
    },
    {
      "text": "it's just the system is so rotten to the",
      "start": 309.03,
      "duration": 6.21
    },
    {
      "text": "core that even if you're entirely",
      "start": 313.15,
      "duration": 6.51
    },
    {
      "text": "financially afloat that you still can't",
      "start": 315.24,
      "duration": 7.15
    },
    {
      "text": "even get what you want what you need out",
      "start": 319.66,
      "duration": 5.49
    },
    {
      "text": "of it it's the only way I could is if",
      "start": 322.39,
      "duration": 4.95
    },
    {
      "text": "there is a paradigm shift and that if",
      "start": 325.15,
      "duration": 5.01
    },
    {
      "text": "everybody changes and you know I'm",
      "start": 327.34,
      "duration": 4.59
    },
    {
      "text": "calling you this morning it's just it's",
      "start": 330.16,
      "duration": 4.98
    },
    {
      "text": "you know 10 a.m. Sunday that's not the",
      "start": 331.93,
      "duration": 6.15
    },
    {
      "text": "time of the day that the college kid is",
      "start": 335.14,
      "duration": 9
    },
    {
      "text": "awake I'm just you know last night I",
      "start": 338.08,
      "duration": 8.7
    },
    {
      "text": "almost felt like I had some sort of",
      "start": 344.14,
      "duration": 4.86
    },
    {
      "text": "crisis because I'm trying to reach out",
      "start": 346.78,
      "duration": 4.62
    },
    {
      "text": "to people who feel the same way and it's",
      "start": 349,
      "duration": 4.86
    },
    {
      "text": "not they don't have to be inside the",
      "start": 351.4,
      "duration": 5.22
    },
    {
      "text": "liberty or freedom or anything it's just",
      "start": 353.86,
      "duration": 4.77
    },
    {
      "text": "it's a certain personality trait that",
      "start": 356.62,
      "duration": 3.72
    },
    {
      "text": "I'm looking for and I feel like the",
      "start": 358.63,
      "duration": 3.54
    },
    {
      "text": "people who have this certain personality",
      "start": 360.34,
      "duration": 5.61
    },
    {
      "text": "trait might be willing to accept this",
      "start": 362.17,
      "duration": 7.11
    },
    {
      "text": "way of thinking but um so my personal",
      "start": 365.95,
      "duration": 8
    },
    {
      "text": "issue is um I guess also being at NYU",
      "start": 369.28,
      "duration": 8.73
    },
    {
      "text": "there it's it's weird because there",
      "start": 373.95,
      "duration": 5.17
    },
    {
      "text": "there's so many women",
      "start": 378.01,
      "duration": 6.93
    },
    {
      "text": "it's like 65% to 35% guys I think and I",
      "start": 379.12,
      "duration": 7.64
    },
    {
      "text": "don't know it's funny",
      "start": 384.94,
      "duration": 4.68
    },
    {
      "text": "you're talking about your friend who who",
      "start": 386.76,
      "duration": 7.09
    },
    {
      "text": "plays squash also play squash and I also",
      "start": 389.62,
      "duration": 7.8
    },
    {
      "text": "uh I don't know my relationship towards",
      "start": 393.85,
      "duration": 5.58
    },
    {
      "text": "women is strange but",
      "start": 397.42,
      "duration": 8.12
    },
    {
      "text": "it's since it's so dense with women they",
      "start": 399.43,
      "duration": 9.45
    },
    {
      "text": "the generals almost begin to switch a",
      "start": 405.54,
      "duration": 5.95
    },
    {
      "text": "little you know I almost feel like I'm",
      "start": 408.88,
      "duration": 5.3
    },
    {
      "text": "the one being chased after you know I",
      "start": 411.49,
      "duration": 7.7
    },
    {
      "text": "it's it's kind of a strange dynamic how",
      "start": 414.18,
      "duration": 10.87
    },
    {
      "text": "being at a school where uh the genders",
      "start": 419.19,
      "duration": 8.65
    },
    {
      "text": "are mixed up like this people getting to",
      "start": 425.05,
      "duration": 4.589
    },
    {
      "text": "begin to think differently become more",
      "start": 427.84,
      "duration": 6.299
    },
    {
      "text": "jealous and so this is you know where",
      "start": 429.639,
      "duration": 7.891
    },
    {
      "text": "I'm at right now I'm just trying to you",
      "start": 434.139,
      "duration": 8.851
    },
    {
      "text": "know contact this girl I don't have you",
      "start": 437.53,
      "duration": 8.94
    },
    {
      "text": "know any particular motivation behind it",
      "start": 442.99,
      "duration": 5.549
    },
    {
      "text": "I don't really care if she rejects me",
      "start": 446.47,
      "duration": 5.22
    },
    {
      "text": "completely I'm just totally willing to",
      "start": 448.539,
      "duration": 5.31
    },
    {
      "text": "take whatever she is willing to allow to",
      "start": 451.69,
      "duration": 6
    },
    {
      "text": "me or if she I don't want to do anything",
      "start": 453.849,
      "duration": 6.211
    },
    {
      "text": "she doesn't want but like you know I",
      "start": 457.69,
      "duration": 6.15
    },
    {
      "text": "find that she's a person who has this",
      "start": 460.06,
      "duration": 7.859
    },
    {
      "text": "similar personality to me that will be",
      "start": 463.84,
      "duration": 11.42
    },
    {
      "text": "willing to accept my abrasiveness",
      "start": 467.919,
      "duration": 10.981
    },
    {
      "text": "because ever since I have embraced this",
      "start": 475.26,
      "duration": 7.839
    },
    {
      "text": "philosophy I can't talk to people",
      "start": 478.9,
      "duration": 7.82
    },
    {
      "text": "without coming off as being incredibly",
      "start": 483.099,
      "duration": 8.521
    },
    {
      "text": "you know cold or brutish in this the way",
      "start": 486.72,
      "duration": 7.449
    },
    {
      "text": "I only speak in arguments to do you feel",
      "start": 491.62,
      "duration": 5.039
    },
    {
      "text": "that I'm sure a lot of other people feel",
      "start": 494.169,
      "duration": 6.211
    },
    {
      "text": "the same way well I I mean I will speak",
      "start": 496.659,
      "duration": 5.63
    },
    {
      "text": "in questions usually for the most part",
      "start": 500.38,
      "duration": 4.86
    },
    {
      "text": "yeah I've added having sales and sales",
      "start": 502.289,
      "duration": 4.781
    },
    {
      "text": "about asking questions right before",
      "start": 505.24,
      "duration": 3.54
    },
    {
      "text": "providing solutions so he hit me",
      "start": 507.07,
      "duration": 2.969
    },
    {
      "text": "listener calls I spend like at least",
      "start": 508.78,
      "duration": 3.66
    },
    {
      "text": "half an hour usually if I can just",
      "start": 510.039,
      "duration": 3.81
    },
    {
      "text": "asking a bunch of questions so you were",
      "start": 512.44,
      "duration": 3.24
    },
    {
      "text": "saying that you were a warmer person but",
      "start": 513.849,
      "duration": 5.07
    },
    {
      "text": "philosophy has made you colder um I mean",
      "start": 515.68,
      "duration": 7.109
    },
    {
      "text": "I really felt that it sound believable",
      "start": 518.919,
      "duration": 7.86
    },
    {
      "text": "to me but I could be wrong sophie has it",
      "start": 522.789,
      "duration": 5.941
    },
    {
      "text": "was just a match made in heaven for my",
      "start": 526.779,
      "duration": 3.511
    },
    {
      "text": "personality I've always been this way",
      "start": 528.73,
      "duration": 3.37
    },
    {
      "text": "I've always",
      "start": 530.29,
      "duration": 3.159
    },
    {
      "text": "I don't know if you're familiar with",
      "start": 532.1,
      "duration": 6.539
    },
    {
      "text": "MBTI a lot of it's bullshit but um my",
      "start": 533.449,
      "duration": 9.901
    },
    {
      "text": "personal I type is int GA I think that",
      "start": 538.639,
      "duration": 6
    },
    {
      "text": "I'm white house I think that is your",
      "start": 543.35,
      "duration": 4.5
    },
    {
      "text": "personality type um",
      "start": 544.639,
      "duration": 6.241
    },
    {
      "text": "I mean I know there that I have taken",
      "start": 547.85,
      "duration": 5.4
    },
    {
      "text": "tests but you know the tests that they",
      "start": 550.88,
      "duration": 5.16
    },
    {
      "text": "have or again they ask a lot of",
      "start": 553.25,
      "duration": 3.959
    },
    {
      "text": "questions that are based off of",
      "start": 556.04,
      "duration": 4.5
    },
    {
      "text": "stereotypes but I feel um you know I've",
      "start": 557.209,
      "duration": 7.32
    },
    {
      "text": "done research and I've looked all that",
      "start": 560.54,
      "duration": 6.93
    },
    {
      "text": "up and sorry what I mean is do you think",
      "start": 564.529,
      "duration": 4.531
    },
    {
      "text": "that there were any childhood",
      "start": 567.47,
      "duration": 4.919
    },
    {
      "text": "experiences that may have congenic",
      "start": 569.06,
      "duration": 6.029
    },
    {
      "text": "that's the strangest thing is because I",
      "start": 572.389,
      "duration": 8.521
    },
    {
      "text": "had one of the most caring environments",
      "start": 575.089,
      "duration": 13.94
    },
    {
      "text": "as a child and you know whenever I hear",
      "start": 580.91,
      "duration": 11.94
    },
    {
      "text": "on YouTube I I do think a lot about my",
      "start": 589.029,
      "duration": 5.831
    },
    {
      "text": "parents and I'm very I'm so appreciative",
      "start": 592.85,
      "duration": 4.95
    },
    {
      "text": "of how the environment they they brought",
      "start": 594.86,
      "duration": 5.55
    },
    {
      "text": "me up in especially since even they've",
      "start": 597.8,
      "duration": 6.3
    },
    {
      "text": "each had their own um way of doing a",
      "start": 600.41,
      "duration": 9.479
    },
    {
      "text": "Kuehl that my mother you know she taught",
      "start": 604.1,
      "duration": 9.15
    },
    {
      "text": "me moral responsibility well my father",
      "start": 609.889,
      "duration": 5.281
    },
    {
      "text": "was more of taught me physical",
      "start": 613.25,
      "duration": 3.66
    },
    {
      "text": "responsibility hew really wanted to",
      "start": 615.17,
      "duration": 3.45
    },
    {
      "text": "raise me and sort of like a lord of",
      "start": 616.91,
      "duration": 4.02
    },
    {
      "text": "flies state of nature type environment",
      "start": 618.62,
      "duration": 5.069
    },
    {
      "text": "where I it's easy for me to get in",
      "start": 620.93,
      "duration": 6.57
    },
    {
      "text": "trouble and hurt myself so I I think I",
      "start": 623.689,
      "duration": 7.441
    },
    {
      "text": "grew up as a more responsible person in",
      "start": 627.5,
      "duration": 6.269
    },
    {
      "text": "that respect but you know I feel like",
      "start": 631.13,
      "duration": 5.28
    },
    {
      "text": "all the problems I have with my my",
      "start": 633.769,
      "duration": 7.201
    },
    {
      "text": "personality and uh relating with other",
      "start": 636.41,
      "duration": 6.929
    },
    {
      "text": "people is innate and I feel like it was",
      "start": 640.97,
      "duration": 4.65
    },
    {
      "text": "just I was born that way and one of the",
      "start": 643.339,
      "duration": 8.541
    },
    {
      "text": "the reasons why I came to Liberty was",
      "start": 645.62,
      "duration": 10.949
    },
    {
      "text": "because um I don't know I feel like I'm",
      "start": 651.88,
      "duration": 6.43
    },
    {
      "text": "a psychopath I know you talked about",
      "start": 656.569,
      "duration": 4.171
    },
    {
      "text": "sociopaths and Psychopaths all the time",
      "start": 658.31,
      "duration": 5.209
    },
    {
      "text": "and",
      "start": 660.74,
      "duration": 2.779
    },
    {
      "text": "it it's strange because you know all to",
      "start": 663.97,
      "duration": 7.5
    },
    {
      "text": "describe my condition I feel like I'm a",
      "start": 669.819,
      "duration": 4.741
    },
    {
      "text": "person who doesn't experience emotions",
      "start": 671.47,
      "duration": 7.26
    },
    {
      "text": "as sensations as in I can only",
      "start": 674.56,
      "duration": 6.41
    },
    {
      "text": "experience an emotion I can articulate",
      "start": 678.73,
      "duration": 4.669
    },
    {
      "text": "if does that make any sense to you",
      "start": 680.97,
      "duration": 4.84
    },
    {
      "text": "yeah no I think I get where you're",
      "start": 683.399,
      "duration": 4.99
    },
    {
      "text": "coming from there like so so you can",
      "start": 685.81,
      "duration": 5.969
    },
    {
      "text": "recognize an environment where some",
      "start": 688.389,
      "duration": 5.13
    },
    {
      "text": "emotional response would would be there",
      "start": 691.779,
      "duration": 3.271
    },
    {
      "text": "and you can say well this would be my",
      "start": 693.519,
      "duration": 2.701
    },
    {
      "text": "emotional response and maybe you can",
      "start": 695.05,
      "duration": 2.729
    },
    {
      "text": "feel it a bit there but is it my",
      "start": 696.22,
      "duration": 2.7
    },
    {
      "text": "understanding that it doesn't sort of",
      "start": 697.779,
      "duration": 2.91
    },
    {
      "text": "spontaneously arise within you and then",
      "start": 698.92,
      "duration": 5.669
    },
    {
      "text": "you manage it is that right yeah and you",
      "start": 700.689,
      "duration": 8.851
    },
    {
      "text": "know the times when I feel that I'm",
      "start": 704.589,
      "duration": 9.93
    },
    {
      "text": "supposed to feel certain way or even a a",
      "start": 709.54,
      "duration": 7.08
    },
    {
      "text": "lot of it even growing up to as well I",
      "start": 714.519,
      "duration": 3.75
    },
    {
      "text": "feel like there are a lot of things that",
      "start": 716.62,
      "duration": 4.529
    },
    {
      "text": "were programmed emotional responses that",
      "start": 718.269,
      "duration": 4.56
    },
    {
      "text": "I sort of unlearned and I was like well",
      "start": 721.149,
      "duration": 3.961
    },
    {
      "text": "that's weird I shouldn't be shouldn't be",
      "start": 722.829,
      "duration": 5.671
    },
    {
      "text": "jealous here that's not right or you",
      "start": 725.11,
      "duration": 5.49
    },
    {
      "text": "know I shouldn't feel sad in this",
      "start": 728.5,
      "duration": 4.23
    },
    {
      "text": "situation but you know and as I've grown",
      "start": 730.6,
      "duration": 4.169
    },
    {
      "text": "up but for you it's sorry to interrupt",
      "start": 732.73,
      "duration": 3.57
    },
    {
      "text": "but for you it's more like is it like",
      "start": 734.769,
      "duration": 3.091
    },
    {
      "text": "learning a foreign language well that's",
      "start": 736.3,
      "duration": 3.45
    },
    {
      "text": "not the word for cat in Spanish so I",
      "start": 737.86,
      "duration": 3.3
    },
    {
      "text": "should learn a different word for cat in",
      "start": 739.75,
      "duration": 3.439
    },
    {
      "text": "Spanish is it sort of like that",
      "start": 741.16,
      "duration": 5.52
    },
    {
      "text": "what's learning what well so when you",
      "start": 743.189,
      "duration": 4.811
    },
    {
      "text": "say like I shouldn't feel jealous in",
      "start": 746.68,
      "duration": 2.43
    },
    {
      "text": "this situation where I shouldn't feel",
      "start": 748,
      "duration": 2.759
    },
    {
      "text": "this in this situation is it more like",
      "start": 749.11,
      "duration": 3.599
    },
    {
      "text": "learning a language like so if I'm",
      "start": 750.759,
      "duration": 3.421
    },
    {
      "text": "trying to learn Spanish right and I'm",
      "start": 752.709,
      "duration": 3.511
    },
    {
      "text": "trying to find the grammar and the",
      "start": 754.18,
      "duration": 4.44
    },
    {
      "text": "syntax and so on it's not like a moral",
      "start": 756.22,
      "duration": 3.809
    },
    {
      "text": "thing it's just do - have I learned the",
      "start": 758.62,
      "duration": 3.48
    },
    {
      "text": "right response in Spanish for this",
      "start": 760.029,
      "duration": 4.53
    },
    {
      "text": "particular situation just like in terms",
      "start": 762.1,
      "duration": 5.459
    },
    {
      "text": "of how it does that make sense it's",
      "start": 764.559,
      "duration": 6.561
    },
    {
      "text": "spot-on especially everything is um",
      "start": 767.559,
      "duration": 5.34
    },
    {
      "text": "everything I learn everything that's",
      "start": 771.12,
      "duration": 5.17
    },
    {
      "text": "social it's all it's it's this it gets",
      "start": 772.899,
      "duration": 5.701
    },
    {
      "text": "processed by my brain the same way as if",
      "start": 776.29,
      "duration": 4.349
    },
    {
      "text": "I process anything I've been reading",
      "start": 778.6,
      "duration": 4.38
    },
    {
      "text": "from you it's it it all gets filtered",
      "start": 780.639,
      "duration": 7.92
    },
    {
      "text": "from the same super critical sceptical",
      "start": 782.98,
      "duration": 9.27
    },
    {
      "text": "lens and it's just this my brain is just",
      "start": 788.559,
      "duration": 7.14
    },
    {
      "text": "this you know this rational computer",
      "start": 792.25,
      "duration": 5.1
    },
    {
      "text": "thing that just",
      "start": 795.699,
      "duration": 3.781
    },
    {
      "text": "takes everything in from outside world",
      "start": 797.35,
      "duration": 5.7
    },
    {
      "text": "and tries to organize it and you know",
      "start": 799.48,
      "duration": 6.39
    },
    {
      "text": "learning things that's that there's no",
      "start": 803.05,
      "duration": 6.6
    },
    {
      "text": "different with social norms and emotions",
      "start": 805.87,
      "duration": 6.69
    },
    {
      "text": "with me Obed there are there are of",
      "start": 809.65,
      "duration": 5.1
    },
    {
      "text": "course some things I'm not totally void",
      "start": 812.56,
      "duration": 7.74
    },
    {
      "text": "and in crazy but you know I don't think",
      "start": 814.75,
      "duration": 7.65
    },
    {
      "text": "so and I I got lots of Corrections after",
      "start": 820.3,
      "duration": 3.69
    },
    {
      "text": "I did my series and sociopathy from",
      "start": 822.4,
      "duration": 3.6
    },
    {
      "text": "people who said I'm a sociopath that I'm",
      "start": 823.99,
      "duration": 3.39
    },
    {
      "text": "actually a nice guy or I'm a psychopath",
      "start": 826,
      "duration": 2.79
    },
    {
      "text": "I'm actually like I'm not an axe",
      "start": 827.38,
      "duration": 3.06
    },
    {
      "text": "murderer this is a stereotype and blah",
      "start": 828.79,
      "duration": 3.99
    },
    {
      "text": "blah blah so I mean I fully accept to be",
      "start": 830.44,
      "duration": 4.47
    },
    {
      "text": "corrected on on that instance as well so",
      "start": 832.78,
      "duration": 3.69
    },
    {
      "text": "I you know I don't think you crazy or",
      "start": 834.91,
      "duration": 3.24
    },
    {
      "text": "anything like that I fully accept what",
      "start": 836.47,
      "duration": 2.61
    },
    {
      "text": "it is that you're saying and I do",
      "start": 838.15,
      "duration": 2.37
    },
    {
      "text": "apologize to the people who I",
      "start": 839.08,
      "duration": 3.15
    },
    {
      "text": "mischaracterized in that way because",
      "start": 840.52,
      "duration": 3.54
    },
    {
      "text": "it's not fair of course right so but go",
      "start": 842.23,
      "duration": 8.31
    },
    {
      "text": "ahead yeah but oh I'm just looking for a",
      "start": 844.06,
      "duration": 12.39
    },
    {
      "text": "way for I don't know I just feel like I",
      "start": 850.54,
      "duration": 7.23
    },
    {
      "text": "don't speak the same language is there",
      "start": 856.45,
      "duration": 3.39
    },
    {
      "text": "but that's it really I had the only",
      "start": 857.77,
      "duration": 6.81
    },
    {
      "text": "people who I can understand our adults",
      "start": 859.84,
      "duration": 9.9
    },
    {
      "text": "um you know it's the thing I feel like I",
      "start": 864.58,
      "duration": 7.65
    },
    {
      "text": "carry the burden of everybody else's",
      "start": 869.74,
      "duration": 4.59
    },
    {
      "text": "insecurities that's what it feels like",
      "start": 872.23,
      "duration": 7.38
    },
    {
      "text": "to me you know any better you know it's",
      "start": 874.33,
      "duration": 10.68
    },
    {
      "text": "it's just weird because some it how kids",
      "start": 879.61,
      "duration": 10.59
    },
    {
      "text": "grow up you know they take other",
      "start": 885.01,
      "duration": 7.05
    },
    {
      "text": "people's judgments seriously and then",
      "start": 890.2,
      "duration": 5.4
    },
    {
      "text": "they incorporate that into their you",
      "start": 892.06,
      "duration": 6
    },
    {
      "text": "know who they think they are personally",
      "start": 895.6,
      "duration": 7.38
    },
    {
      "text": "and that's and they over time you know I",
      "start": 898.06,
      "duration": 9.93
    },
    {
      "text": "see kids who become insecure through",
      "start": 902.98,
      "duration": 8.07
    },
    {
      "text": "peer pressure and even you know a lot of",
      "start": 907.99,
      "duration": 4.5
    },
    {
      "text": "set of things that they might not even",
      "start": 911.05,
      "duration": 3.57
    },
    {
      "text": "know - and it's almost a lot of its",
      "start": 912.49,
      "duration": 5.25
    },
    {
      "text": "subconscious as well but you know when",
      "start": 914.62,
      "duration": 4.77
    },
    {
      "text": "you have a shield I am a staff right I",
      "start": 917.74,
      "duration": 5.61
    },
    {
      "text": "have a shield I'm it I'm totally I I'm",
      "start": 919.39,
      "duration": 8.43
    },
    {
      "text": "confident I'm not insecure I am yeah",
      "start": 923.35,
      "duration": 6.03
    },
    {
      "text": "because I mean other people's opinions",
      "start": 927.82,
      "duration": 3.389
    },
    {
      "text": "you will evaluate them right I mean",
      "start": 929.38,
      "duration": 3.869
    },
    {
      "text": "not like you don't hear them but your",
      "start": 931.209,
      "duration": 4.711
    },
    {
      "text": "evaluation is the gatekeeper right and",
      "start": 933.249,
      "duration": 5.041
    },
    {
      "text": "and it doesn't just flow into you like",
      "start": 935.92,
      "duration": 4.109
    },
    {
      "text": "you know if I if I spray a hose on you",
      "start": 938.29,
      "duration": 3.239
    },
    {
      "text": "you get wet but that's not the same with",
      "start": 940.029,
      "duration": 2.79
    },
    {
      "text": "my opinions right like you'll evaluate",
      "start": 941.529,
      "duration": 2.881
    },
    {
      "text": "them first and again I'm not trying to",
      "start": 942.819,
      "duration": 2.76
    },
    {
      "text": "tell you your experience I just is that",
      "start": 944.41,
      "duration": 5.13
    },
    {
      "text": "way it works for you so that again so",
      "start": 945.579,
      "duration": 7.44
    },
    {
      "text": "the start like what spring well so like",
      "start": 949.54,
      "duration": 5.849
    },
    {
      "text": "okay so like if I you know if I slap you",
      "start": 953.019,
      "duration": 4.62
    },
    {
      "text": "in the face then mmm your face is gonna",
      "start": 955.389,
      "duration": 3.75
    },
    {
      "text": "get red you don't have a choice about",
      "start": 957.639,
      "duration": 5.25
    },
    {
      "text": "that right right but if I say you're huh",
      "start": 959.139,
      "duration": 5.341
    },
    {
      "text": "whatever it is right you're a great guy",
      "start": 962.889,
      "duration": 3.211
    },
    {
      "text": "you're a bad guy you're whatever right",
      "start": 964.48,
      "duration": 3.659
    },
    {
      "text": "then you'll sort of evaluate that but it",
      "start": 966.1,
      "duration": 3.989
    },
    {
      "text": "doesn't sink in to you the way that it",
      "start": 968.139,
      "duration": 3.45
    },
    {
      "text": "seems to sink in to other people right",
      "start": 970.089,
      "duration": 2.79
    },
    {
      "text": "like to other people that hear a bunch",
      "start": 971.589,
      "duration": 2.49
    },
    {
      "text": "of opinions they're like oh man that's",
      "start": 972.879,
      "duration": 3.091
    },
    {
      "text": "the way I am and it's almost involuntary",
      "start": 974.079,
      "duration": 3.48
    },
    {
      "text": "but I think for you there's like a",
      "start": 975.97,
      "duration": 4.14
    },
    {
      "text": "gatekeeper for other people's opinions",
      "start": 977.559,
      "duration": 4.62
    },
    {
      "text": "which is the reasons why it's easier to",
      "start": 980.11,
      "duration": 3.599
    },
    {
      "text": "stay more secure because you don't just",
      "start": 982.179,
      "duration": 3.5
    },
    {
      "text": "absorb them like a sponge in the rain",
      "start": 983.709,
      "duration": 5.72
    },
    {
      "text": "yeah everybody's opinion has to be",
      "start": 985.679,
      "duration": 6.82
    },
    {
      "text": "matched up against reality of anything",
      "start": 989.429,
      "duration": 6.491
    },
    {
      "text": "somebody says to me you know I so sorry",
      "start": 992.499,
      "duration": 5.34
    },
    {
      "text": "sir and sergeant drop so so what's",
      "start": 995.92,
      "duration": 4.05
    },
    {
      "text": "missing and I don't know if this is good",
      "start": 997.839,
      "duration": 4.021
    },
    {
      "text": "or bad to be honest with you but I would",
      "start": 999.97,
      "duration": 5.07
    },
    {
      "text": "say to you that do you can you imagine",
      "start": 1001.86,
      "duration": 4.56
    },
    {
      "text": "having someone in your life whose",
      "start": 1005.04,
      "duration": 2.759
    },
    {
      "text": "opinion you would trust to the point",
      "start": 1006.42,
      "duration": 2.879
    },
    {
      "text": "where you wouldn't have to evaluate what",
      "start": 1007.799,
      "duration": 5.28
    },
    {
      "text": "they were saying no right so what's",
      "start": 1009.299,
      "duration": 5.941
    },
    {
      "text": "missing is vulnerability right and our",
      "start": 1013.079,
      "duration": 3.331
    },
    {
      "text": "vulnerability is a double-edged sword",
      "start": 1015.24,
      "duration": 2.699
    },
    {
      "text": "right because if you got bad people",
      "start": 1016.41,
      "duration": 2.94
    },
    {
      "text": "around you being vulnerable is like",
      "start": 1017.939,
      "duration": 3.18
    },
    {
      "text": "having people train you to punch",
      "start": 1019.35,
      "duration": 3.779
    },
    {
      "text": "yourself in the face every day right but",
      "start": 1021.119,
      "duration": 3.72
    },
    {
      "text": "if you could you know one of the things",
      "start": 1023.129,
      "duration": 3.361
    },
    {
      "text": "that's that the benefit of vulnerability",
      "start": 1024.839,
      "duration": 3.84
    },
    {
      "text": "is if you have people in your life that",
      "start": 1026.49,
      "duration": 4.169
    },
    {
      "text": "you trust the degree that you don't have",
      "start": 1028.679,
      "duration": 4.591
    },
    {
      "text": "to evaluate what they're saying it saves",
      "start": 1030.659,
      "duration": 3.961
    },
    {
      "text": "you a lot of processing right because I",
      "start": 1033.27,
      "duration": 2.549
    },
    {
      "text": "just can tell you the truth they could",
      "start": 1034.62,
      "duration": 2.189
    },
    {
      "text": "be close to you they're gonna have your",
      "start": 1035.819,
      "duration": 2.37
    },
    {
      "text": "best interest in oh yeah trust that",
      "start": 1036.809,
      "duration": 3.691
    },
    {
      "text": "right mm-hmm so so I just wanted you",
      "start": 1038.189,
      "duration": 4.71
    },
    {
      "text": "know vulnerability if you only focus on",
      "start": 1040.5,
      "duration": 3.959
    },
    {
      "text": "the strengths of that kind of distance",
      "start": 1042.899,
      "duration": 4.41
    },
    {
      "text": "which I admit I envy sometimes right so",
      "start": 1044.459,
      "duration": 4.861
    },
    {
      "text": "but if you don't focus on some of the",
      "start": 1047.309,
      "duration": 3.391
    },
    {
      "text": "things that you're missing then it's",
      "start": 1049.32,
      "duration": 2.729
    },
    {
      "text": "going to be hard to consider adjusting",
      "start": 1050.7,
      "duration": 4.79
    },
    {
      "text": "it does that make any sense yeah I I",
      "start": 1052.049,
      "duration": 5.451
    },
    {
      "text": "totally get what you're saying about",
      "start": 1055.49,
      "duration": 8.289
    },
    {
      "text": "vulnerability and it's weird because it",
      "start": 1057.5,
      "duration": 7.05
    },
    {
      "text": "would",
      "start": 1063.779,
      "duration": 2.781
    },
    {
      "text": "I think the worst thing about is that",
      "start": 1064.55,
      "duration": 4.71
    },
    {
      "text": "the one thing that usually does get me",
      "start": 1066.56,
      "duration": 5.82
    },
    {
      "text": "emotional is no emotional reactions and",
      "start": 1069.26,
      "duration": 5.19
    },
    {
      "text": "other people because you know I might",
      "start": 1072.38,
      "duration": 5.82
    },
    {
      "text": "not be able to reason how I feel but at",
      "start": 1074.45,
      "duration": 8.04
    },
    {
      "text": "least I can assume that what this other",
      "start": 1078.2,
      "duration": 7.41
    },
    {
      "text": "person is feeling is real and I can at",
      "start": 1082.49,
      "duration": 7.56
    },
    {
      "text": "least have that the point for me you",
      "start": 1085.61,
      "duration": 5.7
    },
    {
      "text": "know something as a point of reference",
      "start": 1090.05,
      "duration": 4.32
    },
    {
      "text": "so at least I have some cardinality for",
      "start": 1091.31,
      "duration": 5.49
    },
    {
      "text": "my emotional planning I don't know",
      "start": 1094.37,
      "duration": 4.5
    },
    {
      "text": "whatever you want to think of that but",
      "start": 1096.8,
      "duration": 3.99
    },
    {
      "text": "um but what you're saying about",
      "start": 1098.87,
      "duration": 4.68
    },
    {
      "text": "vulnerability is weird because when I'm",
      "start": 1100.79,
      "duration": 6.21
    },
    {
      "text": "around people who who feel tight you",
      "start": 1103.55,
      "duration": 5.19
    },
    {
      "text": "know everybody wants to impress me",
      "start": 1107,
      "duration": 4.53
    },
    {
      "text": "everybody wants to give me a compliment",
      "start": 1108.74,
      "duration": 4.14
    },
    {
      "text": "about something I don't really care I",
      "start": 1111.53,
      "duration": 3.54
    },
    {
      "text": "don't really want to be impressed or or",
      "start": 1112.88,
      "duration": 4.26
    },
    {
      "text": "anything I just want somebody to kiss me",
      "start": 1115.07,
      "duration": 5.13
    },
    {
      "text": "something of value obviously that's I'm",
      "start": 1117.14,
      "duration": 7.32
    },
    {
      "text": "with the capitalist but um uh I just",
      "start": 1120.2,
      "duration": 6.78
    },
    {
      "text": "have this urge to embarrass myself isn't",
      "start": 1124.46,
      "duration": 4.41
    },
    {
      "text": "that weird I just have the urge to make",
      "start": 1126.98,
      "duration": 5.96
    },
    {
      "text": "to do something so outrageous and crazy",
      "start": 1128.87,
      "duration": 6.75
    },
    {
      "text": "that they won't feel bad about being",
      "start": 1132.94,
      "duration": 4.15
    },
    {
      "text": "around me or they won't feel",
      "start": 1135.62,
      "duration": 4.05
    },
    {
      "text": "uncomfortable having feelings inside",
      "start": 1137.09,
      "duration": 4.5
    },
    {
      "text": "themselves that they don't feel",
      "start": 1139.67,
      "duration": 3.42
    },
    {
      "text": "comfortable expressing them because",
      "start": 1141.59,
      "duration": 5.25
    },
    {
      "text": "every person I'm around it I know that",
      "start": 1143.09,
      "duration": 5.04
    },
    {
      "text": "there's something that they want to say",
      "start": 1146.84,
      "duration": 2.82
    },
    {
      "text": "to me that they aren't singing and I",
      "start": 1148.13,
      "duration": 3.72
    },
    {
      "text": "know it's because I'm I mean either",
      "start": 1149.66,
      "duration": 4.41
    },
    {
      "text": "grumpy or cold looking or or",
      "start": 1151.85,
      "duration": 4.5
    },
    {
      "text": "intimidating and I know that's the",
      "start": 1154.07,
      "duration": 4.8
    },
    {
      "text": "reason why that they aren't but I just",
      "start": 1156.35,
      "duration": 6.9
    },
    {
      "text": "have this urge to well the other thing",
      "start": 1158.87,
      "duration": 7.17
    },
    {
      "text": "too is that like if you have a distant",
      "start": 1163.25,
      "duration": 5.67
    },
    {
      "text": "emotionally distant nature that's like a",
      "start": 1166.04,
      "duration": 5.28
    },
    {
      "text": "gravity well for some people you know if",
      "start": 1168.92,
      "duration": 3.75
    },
    {
      "text": "they had so for instance if they had",
      "start": 1171.32,
      "duration": 2.61
    },
    {
      "text": "distant parents that they was trying to",
      "start": 1172.67,
      "duration": 2.94
    },
    {
      "text": "reach so they they hook into you and",
      "start": 1173.93,
      "duration": 3.96
    },
    {
      "text": "they want something from you buts not to",
      "start": 1175.61,
      "duration": 3.63
    },
    {
      "text": "do with you in particulars just due to",
      "start": 1177.89,
      "duration": 4.17
    },
    {
      "text": "their own history right and so so if",
      "start": 1179.24,
      "duration": 5.55
    },
    {
      "text": "you're aloof then people some people",
      "start": 1182.06,
      "duration": 4.65
    },
    {
      "text": "will really be wanting to contact you",
      "start": 1184.79,
      "duration": 3.57
    },
    {
      "text": "they really wanna something from you",
      "start": 1186.71,
      "duration": 4.59
    },
    {
      "text": "right and it's like what do you what you",
      "start": 1188.36,
      "duration": 4.26
    },
    {
      "text": "bothering me with this stuff for I'm",
      "start": 1191.3,
      "duration": 2.7
    },
    {
      "text": "just I'm just being me I'm not trying to",
      "start": 1192.62,
      "duration": 3.36
    },
    {
      "text": "reject you or anything but that kind of",
      "start": 1194,
      "duration": 4.2
    },
    {
      "text": "stuff makes people can excel and some",
      "start": 1195.98,
      "duration": 2.52
    },
    {
      "text": "women",
      "start": 1198.2,
      "duration": 1.47
    },
    {
      "text": "in particular kind of kind of nutty",
      "start": 1198.5,
      "duration": 5.73
    },
    {
      "text": "right yeah yeah I mean I not it's weird",
      "start": 1199.67,
      "duration": 9.57
    },
    {
      "text": "because if you if people met me they I'm",
      "start": 1204.23,
      "duration": 9.26
    },
    {
      "text": "a variant reverted I'm very outgoing and",
      "start": 1209.24,
      "duration": 9.33
    },
    {
      "text": "crazy and fun loving and whatever it's",
      "start": 1213.49,
      "duration": 8.1
    },
    {
      "text": "it's like it's the classic it is it",
      "start": 1218.57,
      "duration": 5.94
    },
    {
      "text": "happens a lot with Psychopaths I've been",
      "start": 1221.59,
      "duration": 5.83
    },
    {
      "text": "reading and you know apparently a lot of",
      "start": 1224.51,
      "duration": 9.47
    },
    {
      "text": "people who have deal with their emotions",
      "start": 1227.42,
      "duration": 11.49
    },
    {
      "text": "can behave in a certain way that most",
      "start": 1233.98,
      "duration": 6.94
    },
    {
      "text": "people would find restrictive but we are",
      "start": 1238.91,
      "duration": 3.36
    },
    {
      "text": "restricted by it so we're very",
      "start": 1240.92,
      "duration": 2.31
    },
    {
      "text": "uninhibited",
      "start": 1242.27,
      "duration": 4.11
    },
    {
      "text": "I feel very uninhibited I ya know and",
      "start": 1243.23,
      "duration": 5.31
    },
    {
      "text": "fearless right like you would appear as",
      "start": 1246.38,
      "duration": 4.17
    },
    {
      "text": "to some people right because you know",
      "start": 1248.54,
      "duration": 4.23
    },
    {
      "text": "there's there's a lot about you know and",
      "start": 1250.55,
      "duration": 3.51
    },
    {
      "text": "I don't know you know you say you're a",
      "start": 1252.77,
      "duration": 2.79
    },
    {
      "text": "psychopath I have no idea what I mean",
      "start": 1254.06,
      "duration": 3.09
    },
    {
      "text": "I'm just going with your terminology",
      "start": 1255.56,
      "duration": 3.87
    },
    {
      "text": "right so there's people who like Jesus",
      "start": 1257.15,
      "duration": 3.63
    },
    {
      "text": "I'd love to be less concerned with what",
      "start": 1259.43,
      "duration": 3.78
    },
    {
      "text": "other people think like I'm I'm not too",
      "start": 1260.78,
      "duration": 3.81
    },
    {
      "text": "bad with that to be honest with you I'm",
      "start": 1263.21,
      "duration": 3.12
    },
    {
      "text": "like I'm fairly good with you know I I",
      "start": 1264.59,
      "duration": 3.54
    },
    {
      "text": "try to really focus on reason and",
      "start": 1266.33,
      "duration": 3.39
    },
    {
      "text": "evidence and you know some people think",
      "start": 1268.13,
      "duration": 3.39
    },
    {
      "text": "that's great some people don't I'd",
      "start": 1269.72,
      "duration": 3.27
    },
    {
      "text": "really don't get bothered too much by",
      "start": 1271.52,
      "duration": 2.79
    },
    {
      "text": "what other people think but that's",
      "start": 1272.99,
      "duration": 3.3
    },
    {
      "text": "something that I kind of grew into and",
      "start": 1274.31,
      "duration": 3.78
    },
    {
      "text": "it took you know 20,000 bucks therapy",
      "start": 1276.29,
      "duration": 4.05
    },
    {
      "text": "shit like that to make that happen so if",
      "start": 1278.09,
      "duration": 3.54
    },
    {
      "text": "you're kind of born with that then",
      "start": 1280.34,
      "duration": 4.31
    },
    {
      "text": "there's a kind of independence and",
      "start": 1281.63,
      "duration": 9.18
    },
    {
      "text": "autonomy and a freedom from the snares",
      "start": 1284.65,
      "duration": 8.53
    },
    {
      "text": "and hooks of other people who try to you",
      "start": 1290.81,
      "duration": 3.99
    },
    {
      "text": "know a lot of people will constantly try",
      "start": 1293.18,
      "duration": 3.45
    },
    {
      "text": "to control other people through positive",
      "start": 1294.8,
      "duration": 3.69
    },
    {
      "text": "and negative feedback and if you're kind",
      "start": 1296.63,
      "duration": 3.54
    },
    {
      "text": "of sailing above all of that you know if",
      "start": 1298.49,
      "duration": 3.99
    },
    {
      "text": "that's like waves against the sides that",
      "start": 1300.17,
      "duration": 3.99
    },
    {
      "text": "side of a battleship I think that for a",
      "start": 1302.48,
      "duration": 2.64
    },
    {
      "text": "lot of people that's kind of",
      "start": 1304.16,
      "duration": 2.37
    },
    {
      "text": "intoxicating like even that as a",
      "start": 1305.12,
      "duration": 4.41
    },
    {
      "text": "possibility is like wow I'd like me some",
      "start": 1306.53,
      "duration": 4.65
    },
    {
      "text": "of that but that's only because they're",
      "start": 1309.53,
      "duration": 3.45
    },
    {
      "text": "looking at the upside right not not the",
      "start": 1311.18,
      "duration": 3.78
    },
    {
      "text": "downside right which is that you know if",
      "start": 1312.98,
      "duration": 3.93
    },
    {
      "text": "you have a baby that wants to spend all",
      "start": 1314.96,
      "duration": 3.33
    },
    {
      "text": "day and you laugh you might get a little",
      "start": 1316.91,
      "duration": 2.49
    },
    {
      "text": "annoyed right there may be other",
      "start": 1318.29,
      "duration": 3.48
    },
    {
      "text": "downsides to it that that people aren't",
      "start": 1319.4,
      "duration": 3.9
    },
    {
      "text": "seeing as much right oh maybe you're not",
      "start": 1321.77,
      "duration": 5.19
    },
    {
      "text": "seeing as much it even if there was a",
      "start": 1323.3,
      "duration": 7.71
    },
    {
      "text": "Down and it I always think of this is on",
      "start": 1326.96,
      "duration": 5.459
    },
    {
      "text": "a case-by-case basis",
      "start": 1331.01,
      "duration": 4.259
    },
    {
      "text": "have trouble articulating all this in an",
      "start": 1332.419,
      "duration": 10.97
    },
    {
      "text": "abstract way but um I don't know it I I",
      "start": 1335.269,
      "duration": 12.48
    },
    {
      "text": "I do in that's kind of why I'm calling",
      "start": 1343.389,
      "duration": 7.931
    },
    {
      "text": "you but you write that I'm not ensnared",
      "start": 1347.749,
      "duration": 6.591
    },
    {
      "text": "by a lot of the bullshit",
      "start": 1351.32,
      "duration": 5.819
    },
    {
      "text": "but because I'm not trapped by all that",
      "start": 1354.34,
      "duration": 6.01
    },
    {
      "text": "bullshit I feel like I've just trapped",
      "start": 1357.139,
      "duration": 6.27
    },
    {
      "text": "myself with my own bullshit well you",
      "start": 1360.35,
      "duration": 5.639
    },
    {
      "text": "told me the downside already right and",
      "start": 1363.409,
      "duration": 4.291
    },
    {
      "text": "look we you know maybe another time we",
      "start": 1365.989,
      "duration": 2.971
    },
    {
      "text": "can talk more about your childhood I",
      "start": 1367.7,
      "duration": 2.76
    },
    {
      "text": "have some skepticism which might just",
      "start": 1368.96,
      "duration": 3.899
    },
    {
      "text": "may be a confirmation bias but but you",
      "start": 1370.46,
      "duration": 4.199
    },
    {
      "text": "already told me the downside I don't",
      "start": 1372.859,
      "duration": 3.44
    },
    {
      "text": "know if you heard yourself but you said",
      "start": 1374.659,
      "duration": 3.96
    },
    {
      "text": "yeah this is girl she wants something",
      "start": 1376.299,
      "duration": 3.791
    },
    {
      "text": "from me I don't care whether she gets it",
      "start": 1378.619,
      "duration": 2.76
    },
    {
      "text": "or not I don't care whether I get with",
      "start": 1380.09,
      "duration": 2.939
    },
    {
      "text": "her or not but that's your ba ba ba you",
      "start": 1381.379,
      "duration": 4.5
    },
    {
      "text": "had this little brief aside about a girl",
      "start": 1383.029,
      "duration": 4.441
    },
    {
      "text": "who was around a woman who was around",
      "start": 1385.879,
      "duration": 5.581
    },
    {
      "text": "and you were indifferent to the to the",
      "start": 1387.47,
      "duration": 8.189
    },
    {
      "text": "outcome yeah and you're touching on",
      "start": 1391.46,
      "duration": 6.39
    },
    {
      "text": "another thing that is another issue of",
      "start": 1395.659,
      "duration": 5.25
    },
    {
      "text": "mine is that I I it's it's also related",
      "start": 1397.85,
      "duration": 6.329
    },
    {
      "text": "to my emotional issue and is that I I",
      "start": 1400.909,
      "duration": 6.441
    },
    {
      "text": "have trouble finding what makes me happy",
      "start": 1404.179,
      "duration": 7.921
    },
    {
      "text": "you know when I if I'm unsure about",
      "start": 1407.35,
      "duration": 11.019
    },
    {
      "text": "something and I feel like I can't commit",
      "start": 1412.1,
      "duration": 12.449
    },
    {
      "text": "a hundred percent to it's it's hard",
      "start": 1418.369,
      "duration": 8.4
    },
    {
      "text": "because you know if if I'm an",
      "start": 1424.549,
      "duration": 4.71
    },
    {
      "text": "entrepreneur and I'm trying to start a",
      "start": 1426.769,
      "duration": 10.311
    },
    {
      "text": "company I I make sure that um you know I",
      "start": 1429.259,
      "duration": 11.1
    },
    {
      "text": "calculate my return of investment I look",
      "start": 1437.08,
      "duration": 7.74
    },
    {
      "text": "at what uh you know prices are is",
      "start": 1440.359,
      "duration": 7.231
    },
    {
      "text": "obviously is what helps l+ guide our art",
      "start": 1444.82,
      "duration": 6.849
    },
    {
      "text": "allocate resources and all these other",
      "start": 1447.59,
      "duration": 8.37
    },
    {
      "text": "things that guide you into making a good",
      "start": 1451.669,
      "duration": 9.72
    },
    {
      "text": "decision I feel that all these things I",
      "start": 1455.96,
      "duration": 6.899
    },
    {
      "text": "don't know where they I don't know what",
      "start": 1461.389,
      "duration": 3.24
    },
    {
      "text": "these things are for social interactions",
      "start": 1462.859,
      "duration": 3.211
    },
    {
      "text": "between people I don't",
      "start": 1464.629,
      "duration": 4.711
    },
    {
      "text": "trip it but that again that's not",
      "start": 1466.07,
      "duration": 5.13
    },
    {
      "text": "totally true because it's the reason why",
      "start": 1469.34,
      "duration": 6.2
    },
    {
      "text": "I'm calling her and specific because I",
      "start": 1471.2,
      "duration": 9.51
    },
    {
      "text": "feel that you know we might be able to",
      "start": 1475.54,
      "duration": 8.47
    },
    {
      "text": "relate on some levels I mean not",
      "start": 1480.71,
      "duration": 5.61
    },
    {
      "text": "entirely I mean I'm definitely my own",
      "start": 1484.01,
      "duration": 6.27
    },
    {
      "text": "case but you know I my intuition tells",
      "start": 1486.32,
      "duration": 6.12
    },
    {
      "text": "me that there are some issues that she",
      "start": 1490.28,
      "duration": 6.12
    },
    {
      "text": "might be dealing with that I might share",
      "start": 1492.44,
      "duration": 10.85
    },
    {
      "text": "and that you know that helps me but um I",
      "start": 1496.4,
      "duration": 9.75
    },
    {
      "text": "just it's it's strange I don't know why",
      "start": 1503.29,
      "duration": 9.4
    },
    {
      "text": "she would ignore me hmm right and I mean",
      "start": 1506.15,
      "duration": 10.59
    },
    {
      "text": "so again I really don't want to tell you",
      "start": 1512.69,
      "duration": 5.31
    },
    {
      "text": "your experience I'm just trying to make",
      "start": 1516.74,
      "duration": 3.06
    },
    {
      "text": "sure I sort of understand where it is",
      "start": 1518,
      "duration": 3.21
    },
    {
      "text": "that you're coming from it I think I I",
      "start": 1519.8,
      "duration": 3.81
    },
    {
      "text": "think I understand and I appreciate the",
      "start": 1521.21,
      "duration": 3.87
    },
    {
      "text": "strength that you have in this",
      "start": 1523.61,
      "duration": 4.14
    },
    {
      "text": "perspective and and that sort of goes",
      "start": 1525.08,
      "duration": 4.26
    },
    {
      "text": "without saying right I mean you you're",
      "start": 1527.75,
      "duration": 5.82
    },
    {
      "text": "aware of that too right but I think in",
      "start": 1529.34,
      "duration": 6.81
    },
    {
      "text": "vulnerability I think there's two areas",
      "start": 1533.57,
      "duration": 4.17
    },
    {
      "text": "that that you're going to be limited",
      "start": 1536.15,
      "duration": 3.93
    },
    {
      "text": "which if you wanted to start working on",
      "start": 1537.74,
      "duration": 4.8
    },
    {
      "text": "I would I would suggest the first is",
      "start": 1540.08,
      "duration": 6.9
    },
    {
      "text": "that vulnerability is is very is very",
      "start": 1542.54,
      "duration": 7.8
    },
    {
      "text": "important and you know I say this is a",
      "start": 1546.98,
      "duration": 7.05
    },
    {
      "text": "guy who's ill right I mean uh in the way",
      "start": 1550.34,
      "duration": 5.22
    },
    {
      "text": "that I've never actually been ill before",
      "start": 1554.03,
      "duration": 3.27
    },
    {
      "text": "like I've never spent a night in the",
      "start": 1555.56,
      "duration": 3.15
    },
    {
      "text": "hospital I never broken a bone I've",
      "start": 1557.3,
      "duration": 3.03
    },
    {
      "text": "never had an operation or anything like",
      "start": 1558.71,
      "duration": 4.23
    },
    {
      "text": "that I've been like a robot it's like me",
      "start": 1560.33,
      "duration": 5.1
    },
    {
      "text": "less strength robots so but there is",
      "start": 1562.94,
      "duration": 5.67
    },
    {
      "text": "vulnerability around you know getting",
      "start": 1565.43,
      "duration": 4.68
    },
    {
      "text": "sick this vulnerability around having",
      "start": 1568.61,
      "duration": 4.8
    },
    {
      "text": "kids and and so on and you just you need",
      "start": 1570.11,
      "duration": 5.19
    },
    {
      "text": "people you need resources you need you",
      "start": 1573.41,
      "duration": 3.54
    },
    {
      "text": "need love you need support and all that",
      "start": 1575.3,
      "duration": 3.69
    },
    {
      "text": "kind of stuff so you know for a young",
      "start": 1576.95,
      "duration": 5.34
    },
    {
      "text": "single guy this kind of mindset is not",
      "start": 1578.99,
      "duration": 4.77
    },
    {
      "text": "the end of the world so to speak I mean",
      "start": 1582.29,
      "duration": 2.43
    },
    {
      "text": "I think you're missing out on some stuff",
      "start": 1583.76,
      "duration": 2.34
    },
    {
      "text": "but you're also gaining some stuff too",
      "start": 1584.72,
      "duration": 4.38
    },
    {
      "text": "right so that's but but as you as you",
      "start": 1586.1,
      "duration": 4.44
    },
    {
      "text": "get older if you want to get married if",
      "start": 1589.1,
      "duration": 2.97
    },
    {
      "text": "you want to have kids and so on and",
      "start": 1590.54,
      "duration": 2.61
    },
    {
      "text": "eventually you're going to get old and",
      "start": 1592.07,
      "duration": 3.42
    },
    {
      "text": "sick and die right I mean so so",
      "start": 1593.15,
      "duration": 4.02
    },
    {
      "text": "vulnerability is not a bad thing to",
      "start": 1595.49,
      "duration": 3.57
    },
    {
      "text": "start exploring as a possibility and",
      "start": 1597.17,
      "duration": 2.52
    },
    {
      "text": "fall",
      "start": 1599.06,
      "duration": 3.06
    },
    {
      "text": "ability means deferring your judgement",
      "start": 1599.69,
      "duration": 3.66
    },
    {
      "text": "to someone else's which I know is kind",
      "start": 1602.12,
      "duration": 2.669
    },
    {
      "text": "of in comprehensible you're so smart",
      "start": 1603.35,
      "duration": 2.85
    },
    {
      "text": "you've got a photographic memory you",
      "start": 1604.789,
      "duration": 3.09
    },
    {
      "text": "know you you're obviously philosophical",
      "start": 1606.2,
      "duration": 3.75
    },
    {
      "text": "you're in you know you you're healthy",
      "start": 1607.879,
      "duration": 4.38
    },
    {
      "text": "attractive intelligent fit and all that",
      "start": 1609.95,
      "duration": 3.78
    },
    {
      "text": "kind of stuff so the idea of deferring",
      "start": 1612.259,
      "duration": 4.741
    },
    {
      "text": "your judgment to someone else is hard I",
      "start": 1613.73,
      "duration": 6.6
    },
    {
      "text": "think it to to understand but boy to",
      "start": 1617,
      "duration": 5.46
    },
    {
      "text": "offload processing is really important",
      "start": 1620.33,
      "duration": 4.74
    },
    {
      "text": "you know you know having a graphics card",
      "start": 1622.46,
      "duration": 3.929
    },
    {
      "text": "that can produce the movie rather than",
      "start": 1625.07,
      "duration": 3.329
    },
    {
      "text": "using up your whole CPU basically having",
      "start": 1626.389,
      "duration": 4.081
    },
    {
      "text": "a dual core a relationships like a dual",
      "start": 1628.399,
      "duration": 3.841
    },
    {
      "text": "core processor in fact multi core right",
      "start": 1630.47,
      "duration": 4.589
    },
    {
      "text": "so having the multi-threading of a",
      "start": 1632.24,
      "duration": 4.769
    },
    {
      "text": "relationship where you can offload your",
      "start": 1635.059,
      "duration": 4.35
    },
    {
      "text": "processing in other words you can say to",
      "start": 1637.009,
      "duration": 5.64
    },
    {
      "text": "your wife you let me know if I'm doing",
      "start": 1639.409,
      "duration": 4.681
    },
    {
      "text": "anything weird and then you just go do",
      "start": 1642.649,
      "duration": 2.4
    },
    {
      "text": "what you're doing you don't have to keep",
      "start": 1644.09,
      "duration": 2.52
    },
    {
      "text": "evaluating yourself because your wife is",
      "start": 1645.049,
      "duration": 2.58
    },
    {
      "text": "watching your back and you're watching",
      "start": 1646.61,
      "duration": 2.819
    },
    {
      "text": "her back and it is and because you can",
      "start": 1647.629,
      "duration": 3.42
    },
    {
      "text": "see other people a lot easier than you",
      "start": 1649.429,
      "duration": 3.48
    },
    {
      "text": "can see yourself it's much more",
      "start": 1651.049,
      "duration": 3.48
    },
    {
      "text": "efficient and much more effective way to",
      "start": 1652.909,
      "duration": 3.72
    },
    {
      "text": "sort of go through life and it gives you",
      "start": 1654.529,
      "duration": 3.961
    },
    {
      "text": "your mind chance to rest from some of",
      "start": 1656.629,
      "duration": 3.66
    },
    {
      "text": "the open-ended stuff it does in and out",
      "start": 1658.49,
      "duration": 4.439
    },
    {
      "text": "and analyzing so vulnerability I would",
      "start": 1660.289,
      "duration": 3.811
    },
    {
      "text": "sort of recommend it something worth",
      "start": 1662.929,
      "duration": 3.33
    },
    {
      "text": "exploring even but the second which is",
      "start": 1664.1,
      "duration": 3.48
    },
    {
      "text": "kind of related and perhaps even more",
      "start": 1666.259,
      "duration": 5.341
    },
    {
      "text": "important is is the is the honesty right",
      "start": 1667.58,
      "duration": 6.719
    },
    {
      "text": "I mean if you calling yourself a",
      "start": 1671.6,
      "duration": 5.459
    },
    {
      "text": "psychopath one of the problems you have",
      "start": 1674.299,
      "duration": 5.85
    },
    {
      "text": "is don't you have to kind of I don't",
      "start": 1677.059,
      "duration": 4.59
    },
    {
      "text": "know how do you put it don't you have to",
      "start": 1680.149,
      "duration": 5.13
    },
    {
      "text": "kind of pretty it up for the normal",
      "start": 1681.649,
      "duration": 6.27
    },
    {
      "text": "people right I mean so can you say right",
      "start": 1685.279,
      "duration": 3.931
    },
    {
      "text": "so can you do like when you interact",
      "start": 1687.919,
      "duration": 3.541
    },
    {
      "text": "with people you can't genuinely express",
      "start": 1689.21,
      "duration": 3.839
    },
    {
      "text": "your experience because you experiences",
      "start": 1691.46,
      "duration": 4.219
    },
    {
      "text": "a lot of boredom contempt indifference",
      "start": 1693.049,
      "duration": 6.811
    },
    {
      "text": "frustration confusion you know but you",
      "start": 1695.679,
      "duration": 6.941
    },
    {
      "text": "kind of have to speak the Hallmark cards",
      "start": 1699.86,
      "duration": 4.14
    },
    {
      "text": "you don't really feel and I think that",
      "start": 1702.62,
      "duration": 3.09
    },
    {
      "text": "may interfere with your ability to",
      "start": 1704,
      "duration": 7.25
    },
    {
      "text": "connect if that makes sense yeah then I",
      "start": 1705.71,
      "duration": 9.9
    },
    {
      "text": "almost want to get like something I'm",
      "start": 1711.25,
      "duration": 6.82
    },
    {
      "text": "the tattoo seems almost just like a",
      "start": 1715.61,
      "duration": 6.029
    },
    {
      "text": "metaphor but I just want some stamp on",
      "start": 1718.07,
      "duration": 6.569
    },
    {
      "text": "me that's so that when I meet someone",
      "start": 1721.639,
      "duration": 6.361
    },
    {
      "text": "that I don't have to do some sort of",
      "start": 1724.639,
      "duration": 6.65
    },
    {
      "text": "explaining it assign whatever attract",
      "start": 1728,
      "duration": 5.639
    },
    {
      "text": "empathy down for maintenance not",
      "start": 1731.289,
      "duration": 4.93
    },
    {
      "text": "sure when we'll be back up cuz I don't",
      "start": 1733.639,
      "duration": 5.64
    },
    {
      "text": "know provide an example this year when",
      "start": 1736.219,
      "duration": 5.79
    },
    {
      "text": "we're all introducing ourselves on the",
      "start": 1739.279,
      "duration": 6.15
    },
    {
      "text": "floor in our dorm the story I used to",
      "start": 1742.009,
      "duration": 4.441
    },
    {
      "text": "introduce myself",
      "start": 1745.429,
      "duration": 2.88
    },
    {
      "text": "I forget what question I was asked but I",
      "start": 1746.45,
      "duration": 4.439
    },
    {
      "text": "was talking about how I lit a school on",
      "start": 1748.309,
      "duration": 5.67
    },
    {
      "text": "fire when I was a kid classic psychopath",
      "start": 1750.889,
      "duration": 6.03
    },
    {
      "text": "story and it was funny everybody laughed",
      "start": 1753.979,
      "duration": 6.091
    },
    {
      "text": "you know I owes me prettying up my my",
      "start": 1756.919,
      "duration": 6.031
    },
    {
      "text": "identity that I really the thing that",
      "start": 1760.07,
      "duration": 4.859
    },
    {
      "text": "troubles me is that I put myself out",
      "start": 1762.95,
      "duration": 11.189
    },
    {
      "text": "there i I do try so hard to you know be",
      "start": 1764.929,
      "duration": 13.11
    },
    {
      "text": "an individual and show people who I am",
      "start": 1774.139,
      "duration": 6.12
    },
    {
      "text": "and everybody appreciates it too and I",
      "start": 1778.039,
      "duration": 4.74
    },
    {
      "text": "like I'm grateful for that but everybody",
      "start": 1780.259,
      "duration": 5.67
    },
    {
      "text": "just seems too afraid to to do anything",
      "start": 1782.779,
      "duration": 8.7
    },
    {
      "text": "left mad it's weird I can't well we'll",
      "start": 1785.929,
      "duration": 6.38
    },
    {
      "text": "see",
      "start": 1791.479,
      "duration": 3.36
    },
    {
      "text": "usually I finds you know they're they're",
      "start": 1792.309,
      "duration": 7.141
    },
    {
      "text": "a few exceptional individuals who I",
      "start": 1794.839,
      "duration": 4.611
    },
    {
      "text": "really enjoy spending my time with but",
      "start": 1799.629,
      "duration": 4.12
    },
    {
      "text": "other than that I feel like I can do",
      "start": 1802.159,
      "duration": 4.77
    },
    {
      "text": "okay by myself it's that's another",
      "start": 1803.749,
      "duration": 5.071
    },
    {
      "text": "problem is that when I get depressed and",
      "start": 1806.929,
      "duration": 5.37
    },
    {
      "text": "I push people away it's they get",
      "start": 1808.82,
      "duration": 5.699
    },
    {
      "text": "offended by it and it's like no no no I",
      "start": 1812.299,
      "duration": 4.71
    },
    {
      "text": "have to this is how I reprogram myself",
      "start": 1814.519,
      "duration": 9.15
    },
    {
      "text": "when I'm lonely I don't know no I",
      "start": 1817.009,
      "duration": 8.76
    },
    {
      "text": "understand that and I mean there is of",
      "start": 1823.669,
      "duration": 3.48
    },
    {
      "text": "course some of the isolation and some of",
      "start": 1825.769,
      "duration": 3.24
    },
    {
      "text": "the loneliness that does occur with that",
      "start": 1827.149,
      "duration": 3.9
    },
    {
      "text": "distance and the reality is I mean",
      "start": 1829.009,
      "duration": 2.941
    },
    {
      "text": "actually condemned you",
      "start": 1831.049,
      "duration": 3
    },
    {
      "text": "I can die sorry accept me to condemn you",
      "start": 1831.95,
      "duration": 4.609
    },
    {
      "text": "I can I praise you for your honesty",
      "start": 1834.049,
      "duration": 4.74
    },
    {
      "text": "which is that you are telling people",
      "start": 1836.559,
      "duration": 3.49
    },
    {
      "text": "that you let a squirrel on fire when",
      "start": 1838.789,
      "duration": 2.79
    },
    {
      "text": "you're a kid I mean that's that's almost",
      "start": 1840.049,
      "duration": 4.5
    },
    {
      "text": "like having a tattoo in terms of you",
      "start": 1841.579,
      "duration": 4.02
    },
    {
      "text": "know telling people the truth about",
      "start": 1844.549,
      "duration": 2.97
    },
    {
      "text": "about where you're you're coming from",
      "start": 1845.599,
      "duration": 3.69
    },
    {
      "text": "and it is tragic of course that not",
      "start": 1847.519,
      "duration": 3.75
    },
    {
      "text": "enough people see that as clearly and as",
      "start": 1849.289,
      "duration": 6.42
    },
    {
      "text": "consciously as they should but yeah so I",
      "start": 1851.269,
      "duration": 6.33
    },
    {
      "text": "again I'm sorry because I do actually",
      "start": 1855.709,
      "duration": 3.991
    },
    {
      "text": "I'm so hungry and she's not eating my",
      "start": 1857.599,
      "duration": 3.841
    },
    {
      "text": "own toes it just about any moment and I",
      "start": 1859.7,
      "duration": 4.619
    },
    {
      "text": "apologize a library yeah it's very",
      "start": 1861.44,
      "duration": 4.529
    },
    {
      "text": "interesting conversation and I really do",
      "start": 1864.319,
      "duration": 3.031
    },
    {
      "text": "want to appreciate",
      "start": 1865.969,
      "duration": 3.271
    },
    {
      "text": "calling in to talk about that I mean",
      "start": 1867.35,
      "duration": 4.02
    },
    {
      "text": "whether you know it or not I think what",
      "start": 1869.24,
      "duration": 3.45
    },
    {
      "text": "you just did is a huge deal",
      "start": 1871.37,
      "duration": 4.08
    },
    {
      "text": "it's a huge fucking deal and I'm really",
      "start": 1872.69,
      "duration": 5.43
    },
    {
      "text": "honored that you chose to talk to me",
      "start": 1875.45,
      "duration": 4.979
    },
    {
      "text": "about this stuff because it's something",
      "start": 1878.12,
      "duration": 3.78
    },
    {
      "text": "but I don't probably not a lot of places",
      "start": 1880.429,
      "duration": 3.601
    },
    {
      "text": "where you can get kind of feedback that",
      "start": 1881.9,
      "duration": 4.68
    },
    {
      "text": "is not gonna be weird and I think this",
      "start": 1884.03,
      "duration": 3.93
    },
    {
      "text": "show is one of them but sorry I",
      "start": 1886.58,
      "duration": 4.74
    },
    {
      "text": "interrupted you using your your praising",
      "start": 1887.96,
      "duration": 5.459
    },
    {
      "text": "for me but it's the same thing happening",
      "start": 1891.32,
      "duration": 3.87
    },
    {
      "text": "over again it's just something telling",
      "start": 1893.419,
      "duration": 4.981
    },
    {
      "text": "how I feel and I'm not there's no fear",
      "start": 1895.19,
      "duration": 6.119
    },
    {
      "text": "in it I appreciate you you know I really",
      "start": 1898.4,
      "duration": 4.889
    },
    {
      "text": "it's you know you're saying things that",
      "start": 1901.309,
      "duration": 4.74
    },
    {
      "text": "are important in a special that are",
      "start": 1903.289,
      "duration": 6.211
    },
    {
      "text": "special to me and I need that and it is",
      "start": 1906.049,
      "duration": 5.041
    },
    {
      "text": "you are a valuable source that is",
      "start": 1909.5,
      "duration": 2.88
    },
    {
      "text": "different from other people and I",
      "start": 1911.09,
      "duration": 3.18
    },
    {
      "text": "probably wouldn't get shit feedback but",
      "start": 1912.38,
      "duration": 6.75
    },
    {
      "text": "you know even know is the price for me",
      "start": 1914.27,
      "duration": 6.72
    },
    {
      "text": "know I get that this wasn't particularly",
      "start": 1919.13,
      "duration": 3.6
    },
    {
      "text": "terrifying for you to do and I get that",
      "start": 1920.99,
      "duration": 3.87
    },
    {
      "text": "but what I mean is that the praise of",
      "start": 1922.73,
      "duration": 4.17
    },
    {
      "text": "being open to the possibility that there",
      "start": 1924.86,
      "duration": 4.08
    },
    {
      "text": "may be a downside that looking in terms",
      "start": 1926.9,
      "duration": 4.409
    },
    {
      "text": "of vulnerability and honesty you know if",
      "start": 1928.94,
      "duration": 3.599
    },
    {
      "text": "you start to explore that stuff that's",
      "start": 1931.309,
      "duration": 2.941
    },
    {
      "text": "gonna be challenging and it's good you",
      "start": 1932.539,
      "duration": 2.551
    },
    {
      "text": "know because don't you need some",
      "start": 1934.25,
      "duration": 1.799
    },
    {
      "text": "challenges I mean",
      "start": 1935.09,
      "duration": 2.459
    },
    {
      "text": "having this kind of fluid intelligence",
      "start": 1936.049,
      "duration": 3.811
    },
    {
      "text": "having this lack of empathy it really",
      "start": 1937.549,
      "duration": 3.541
    },
    {
      "text": "does make things pretty fucking easy",
      "start": 1939.86,
      "duration": 2.52
    },
    {
      "text": "right as you say you sailed through",
      "start": 1941.09,
      "duration": 2.819
    },
    {
      "text": "school with a photographic memory and",
      "start": 1942.38,
      "duration": 2.61
    },
    {
      "text": "you've got your parents paying for",
      "start": 1943.909,
      "duration": 2.941
    },
    {
      "text": "everything you know don't you want",
      "start": 1944.99,
      "duration": 3.36
    },
    {
      "text": "something that you can really sink your",
      "start": 1946.85,
      "duration": 3.12
    },
    {
      "text": "teeth into like a real challenge it's",
      "start": 1948.35,
      "duration": 3.51
    },
    {
      "text": "gonna work you and make you sweat I mean",
      "start": 1949.97,
      "duration": 3.36
    },
    {
      "text": "that's great stuff right I mean you",
      "start": 1951.86,
      "duration": 2.79
    },
    {
      "text": "don't want to be the guy who keeps going",
      "start": 1953.33,
      "duration": 2.729
    },
    {
      "text": "to the weightlifting the five pound",
      "start": 1954.65,
      "duration": 3.54
    },
    {
      "text": "pink tassel Dwight sold all his career",
      "start": 1956.059,
      "duration": 3.99
    },
    {
      "text": "right you want to up those to the point",
      "start": 1958.19,
      "duration": 3.33
    },
    {
      "text": "where you're doing some sort of Klingon",
      "start": 1960.049,
      "duration": 4.591
    },
    {
      "text": "forehead vein pop and stuff right so so",
      "start": 1961.52,
      "duration": 4.74
    },
    {
      "text": "if you're interested in exploring sort",
      "start": 1964.64,
      "duration": 4.289
    },
    {
      "text": "of the vulnerability and the the the",
      "start": 1966.26,
      "duration": 5.01
    },
    {
      "text": "honesty stuff and maybe exploring ways",
      "start": 1968.929,
      "duration": 3.99
    },
    {
      "text": "in which you can tap it as Mempa the-- i",
      "start": 1971.27,
      "duration": 4.019
    },
    {
      "text": "mean you can talk to a psychologist a",
      "start": 1972.919,
      "duration": 3.841
    },
    {
      "text": "therapist at school i'm sure you get",
      "start": 1975.289,
      "duration": 3.421
    },
    {
      "text": "free stuff there if you need to that i",
      "start": 1976.76,
      "duration": 3.75
    },
    {
      "text": "think would be a very exciting challenge",
      "start": 1978.71,
      "duration": 3.9
    },
    {
      "text": "and i think would would be worth worth",
      "start": 1980.51,
      "duration": 3.419
    },
    {
      "text": "looking into for you again if i were in",
      "start": 1982.61,
      "duration": 2.79
    },
    {
      "text": "your shoes I didn't explore it just as a",
      "start": 1983.929,
      "duration": 3.451
    },
    {
      "text": "challenge that would be very interesting",
      "start": 1985.4,
      "duration": 2.85
    },
    {
      "text": "and different from what I've tried",
      "start": 1987.38,
      "duration": 5.039
    },
    {
      "text": "before thanks so much I'll I'll probably",
      "start": 1988.25,
      "duration": 7.26
    },
    {
      "text": "do that yeah all right and that's the",
      "start": 1992.419,
      "duration": 5.371
    },
    {
      "text": "thing I really yeah you go ahead you can",
      "start": 1995.51,
      "duration": 5.64
    },
    {
      "text": "go read a message though",
      "start": 1997.79,
      "duration": 7.35
    },
    {
      "text": "yeah oh you know I'll go to a counselor",
      "start": 2001.15,
      "duration": 6.06
    },
    {
      "text": "I'll I'll talk to them it's it's nice to",
      "start": 2005.14,
      "duration": 5.81
    },
    {
      "text": "get what's on the inside outside but um",
      "start": 2007.21,
      "duration": 9.71
    },
    {
      "text": "you know that I still have a drive to be",
      "start": 2010.95,
      "duration": 10.81
    },
    {
      "text": "counseled rice or I I'm in this being at",
      "start": 2016.92,
      "duration": 11.139
    },
    {
      "text": "a point where I feel it a you know alpha",
      "start": 2021.76,
      "duration": 8.81
    },
    {
      "text": "or above everybody else and not in uh",
      "start": 2028.059,
      "duration": 7.471
    },
    {
      "text": "I'm not trying to be egotistical or you",
      "start": 2030.57,
      "duration": 7.239
    },
    {
      "text": "know I prefer different but you know I",
      "start": 2035.53,
      "duration": 5.72
    },
    {
      "text": "just want to find somebody who I can be",
      "start": 2037.809,
      "duration": 6.601
    },
    {
      "text": "somewhat submissive to in a way but",
      "start": 2041.25,
      "duration": 5.62
    },
    {
      "text": "someone who I can look up to you know",
      "start": 2044.41,
      "duration": 4.019
    },
    {
      "text": "you again somebody definitely that",
      "start": 2046.87,
      "duration": 3.9
    },
    {
      "text": "figure you're you're one of them for me",
      "start": 2048.429,
      "duration": 6.301
    },
    {
      "text": "um you know and it's nice getting to",
      "start": 2050.77,
      "duration": 8.79
    },
    {
      "text": "talk to you in person too but um yeah",
      "start": 2054.73,
      "duration": 6.899
    },
    {
      "text": "even people who who learn intellectually",
      "start": 2059.56,
      "duration": 4.53
    },
    {
      "text": "on light on that level it can still have",
      "start": 2061.629,
      "duration": 5.731
    },
    {
      "text": "that that effect on me but outside it",
      "start": 2064.09,
      "duration": 7.319
    },
    {
      "text": "I'll do some of that counseling I'll try",
      "start": 2067.36,
      "duration": 7.95
    },
    {
      "text": "I'm gonna keep on bugging this girl you",
      "start": 2071.409,
      "duration": 7.051
    },
    {
      "text": "can tell me that right so I gotta like",
      "start": 2075.31,
      "duration": 6.69
    },
    {
      "text": "I'm hearing her but and yeah let me know",
      "start": 2078.46,
      "duration": 4.77
    },
    {
      "text": "how it goes drop me a line if you like",
      "start": 2082,
      "duration": 2.909
    },
    {
      "text": "everybody of course can always email",
      "start": 2083.23,
      "duration": 5.1
    },
    {
      "text": "operations at freedomain radio comm Mike",
      "start": 2084.909,
      "duration": 5.72
    },
    {
      "text": "is doing a fantastic job but really",
      "start": 2088.33,
      "duration": 4.53
    },
    {
      "text": "particularly now I mean adding massive",
      "start": 2090.629,
      "duration": 3.79
    },
    {
      "text": "value to the conversation I'm so",
      "start": 2092.86,
      "duration": 3.21
    },
    {
      "text": "incredibly grateful for his support and",
      "start": 2094.419,
      "duration": 4.291
    },
    {
      "text": "his friendship and his massive work I",
      "start": 2096.07,
      "duration": 4.35
    },
    {
      "text": "mean just when you emailed him remind",
      "start": 2098.71,
      "duration": 3.45
    },
    {
      "text": "him to take a break from his work",
      "start": 2100.42,
      "duration": 4.29
    },
    {
      "text": "because he's pedaling like a hamster on",
      "start": 2102.16,
      "duration": 4.59
    },
    {
      "text": "a triple espresso on a wheel that is",
      "start": 2104.71,
      "duration": 4.2
    },
    {
      "text": "rolling down a hill in a lightning storm",
      "start": 2106.75,
      "duration": 6.06
    },
    {
      "text": "at marked well so but yeah so drop drop",
      "start": 2108.91,
      "duration": 5.16
    },
    {
      "text": "his line let us know how it's going and",
      "start": 2112.81,
      "duration": 3.33
    },
    {
      "text": "you might want to talk about your self",
      "start": 2114.07,
      "duration": 3.66
    },
    {
      "text": "diagnosis and psych up at the awesome if",
      "start": 2116.14,
      "duration": 2.91
    },
    {
      "text": "they've had any experience with that or",
      "start": 2117.73,
      "duration": 2.43
    },
    {
      "text": "you know if they can refer to someone",
      "start": 2119.05,
      "duration": 3.69
    },
    {
      "text": "who does and even find out if it's true",
      "start": 2120.16,
      "duration": 3.96
    },
    {
      "text": "or valid I mean I don't know of course",
      "start": 2122.74,
      "duration": 3.87
    },
    {
      "text": "right yeah um yeah but yeah so I'm",
      "start": 2124.12,
      "duration": 4.32
    },
    {
      "text": "thinking posted if you can I think it's",
      "start": 2126.61,
      "duration": 2.76
    },
    {
      "text": "a very interesting thing that you're",
      "start": 2128.44,
      "duration": 2.31
    },
    {
      "text": "going to embark on and I I certainly",
      "start": 2129.37,
      "duration": 2.489
    },
    {
      "text": "wish you the best with it and I hope",
      "start": 2130.75,
      "duration": 3.75
    },
    {
      "text": "that it you know gives you a wider",
      "start": 2131.859,
      "duration": 4.651
    },
    {
      "text": "and a more spontaneous experience and",
      "start": 2134.5,
      "duration": 3.9
    },
    {
      "text": "the capacity for a little more know love",
      "start": 2136.51,
      "duration": 3.45
    },
    {
      "text": "and trust and vulnerability which can be",
      "start": 2138.4,
      "duration": 4.68
    },
    {
      "text": "a weird thing but very very important I",
      "start": 2139.96,
      "duration": 5.46
    },
    {
      "text": "think so and thanks James of course as",
      "start": 2143.08,
      "duration": 4.89
    },
    {
      "text": "always for running these shows oh my god",
      "start": 2145.42,
      "duration": 4.14
    },
    {
      "text": "I mean it's just fantastic compared to",
      "start": 2147.97,
      "duration": 3.24
    },
    {
      "text": "me having to sort of switch back and",
      "start": 2149.56,
      "duration": 4.11
    },
    {
      "text": "forth all the time it's great thanks",
      "start": 2151.21,
      "duration": 5.31
    },
    {
      "text": "again if you'd like to help out the show",
      "start": 2153.67,
      "duration": 4.95
    },
    {
      "text": "I'm of course going to have a somewhat",
      "start": 2156.52,
      "duration": 3.6
    },
    {
      "text": "diminished work capacity over the next",
      "start": 2158.62,
      "duration": 3.39
    },
    {
      "text": "couple of months but then I believe I",
      "start": 2160.12,
      "duration": 4.41
    },
    {
      "text": "love you back stronger leaner with a",
      "start": 2162.01,
      "duration": 5.52
    },
    {
      "text": "titanium chest and so if you'd like to",
      "start": 2164.53,
      "duration": 4.43
    },
    {
      "text": "help out you can go to",
      "start": 2167.53,
      "duration": 3.03
    },
    {
      "text": "freedomainradio.com",
      "start": 2168.96,
      "duration": 4.24
    },
    {
      "text": "of course there's a donate button we do",
      "start": 2170.56,
      "duration": 4.35
    },
    {
      "text": "take bitcoins I'm not going to read them",
      "start": 2173.2,
      "duration": 3.48
    },
    {
      "text": "out because really what is the point of",
      "start": 2174.91,
      "duration": 3.6
    },
    {
      "text": "that in fact you can help us out there",
      "start": 2176.68,
      "duration": 5.25
    },
    {
      "text": "and if you just want to go to FDR URL",
      "start": 2178.51,
      "duration": 6.39
    },
    {
      "text": "comm forward slash donate that gives you",
      "start": 2181.93,
      "duration": 4.56
    },
    {
      "text": "straight to the donation page it's",
      "start": 2184.9,
      "duration": 4.74
    },
    {
      "text": "hugely appreciated it's some stuff is",
      "start": 2186.49,
      "duration": 5.07
    },
    {
      "text": "covered some stuff is not against",
      "start": 2189.64,
      "duration": 4.82
    },
    {
      "text": "annoying patchwork socialism but I",
      "start": 2191.56,
      "duration": 5.19
    },
    {
      "text": "really appreciate everybody support and",
      "start": 2194.46,
      "duration": 4.63
    },
    {
      "text": "I will try and get the emails back to",
      "start": 2196.75,
      "duration": 3.39
    },
    {
      "text": "people who've emailed to me it might",
      "start": 2199.09,
      "duration": 3.12
    },
    {
      "text": "take me a little while but I've read",
      "start": 2200.14,
      "duration": 4.56
    },
    {
      "text": "them all and I usually hugely appreciate",
      "start": 2202.21,
      "duration": 4.89
    },
    {
      "text": "it and I would also like to thank the",
      "start": 2204.7,
      "duration": 4.71
    },
    {
      "text": "people who managed to down Bay down for",
      "start": 2207.1,
      "duration": 4.29
    },
    {
      "text": "my cancer announcement video that was",
      "start": 2209.41,
      "duration": 4.17
    },
    {
      "text": "just particularly delicious just in",
      "start": 2211.39,
      "duration": 3.48
    },
    {
      "text": "terms of people who are just going to be",
      "start": 2213.58,
      "duration": 2.94
    },
    {
      "text": "resolutely negative no matter what that",
      "start": 2214.87,
      "duration": 3.57
    },
    {
      "text": "is actually quite liberating for me so",
      "start": 2216.52,
      "duration": 3.87
    },
    {
      "text": "thank you everyone for those twelve or",
      "start": 2218.44,
      "duration": 4.2
    },
    {
      "text": "fourteen people who managed to to find",
      "start": 2220.39,
      "duration": 3.99
    },
    {
      "text": "themselves able to do that that really",
      "start": 2222.64,
      "duration": 4.59
    },
    {
      "text": "was quite quite impressive but have",
      "start": 2224.38,
      "duration": 4.14
    },
    {
      "text": "yourselves a wonderful week everyone I",
      "start": 2227.23,
      "duration": 2.34
    },
    {
      "text": "will talk to you soon",
      "start": 2228.52,
      "duration": 3.5
    },
    {
      "text": "all the best",
      "start": 2229.57,
      "duration": 2.45
    },
    {
      "text": "you",
      "start": 2259.15,
      "duration": 2.06
    }
  ],
  "Errors": null,
  "TranscriptStderr": null
}