[
    {
        "start": "0.74",
        "dur": "5.8",
        "text": "all right look it's time for us to cut"
    },
    {
        "start": "4.29",
        "dur": "6.15",
        "text": "through some of this crap around the"
    },
    {
        "start": "6.54",
        "dur": "5.55",
        "text": "u.s. and Muslim fear and paranoia I'm"
    },
    {
        "start": "10.44",
        "dur": "3.93",
        "text": "part of a mailing group with some very"
    },
    {
        "start": "12.09",
        "dur": "4.38",
        "text": "very intelligent people on it who"
    },
    {
        "start": "14.37",
        "dur": "3.87",
        "text": "continually talk about their fear of"
    },
    {
        "start": "16.47",
        "dur": "3.69",
        "text": "Muslims and how the Muslims want to kill"
    },
    {
        "start": "18.24",
        "dur": "5.369",
        "text": "the Americans and how there's just bad"
    },
    {
        "start": "20.16",
        "dur": "6.15",
        "text": "bad Muslim mojo all over the damn planet"
    },
    {
        "start": "23.609",
        "dur": "6.211",
        "text": "and I think that it's time that we just"
    },
    {
        "start": "26.31",
        "dur": "6.17",
        "text": "got a few of the facts down to try and"
    },
    {
        "start": "29.82",
        "dur": "6.87",
        "text": "quell some of this mob mentality around"
    },
    {
        "start": "32.48",
        "dur": "6.91",
        "text": "Muslims first of all I'm a philosopher"
    },
    {
        "start": "36.69",
        "dur": "3.18",
        "text": "which means that Islam is a complete"
    },
    {
        "start": "39.39",
        "dur": "2.91",
        "text": "nightmare"
    },
    {
        "start": "39.87",
        "dur": "4.709",
        "text": "it's a theological construct its"
    },
    {
        "start": "42.3",
        "dur": "5.759",
        "text": "destructive of human happiness of gender"
    },
    {
        "start": "44.579",
        "dur": "4.951",
        "text": "relations of pacifism it is a a religion"
    },
    {
        "start": "48.059",
        "dur": "3.57",
        "text": "that in its fundamentalism is"
    },
    {
        "start": "49.53",
        "dur": "5.13",
        "text": "fundamentally anti rational anti-life"
    },
    {
        "start": "51.629",
        "dur": "5.43",
        "text": "anti joy anti reality it messes with"
    },
    {
        "start": "54.66",
        "dur": "4.77",
        "text": "people's minds and it is just a wretched"
    },
    {
        "start": "57.059",
        "dur": "4.02",
        "text": "wretched belief system and I want to put"
    },
    {
        "start": "59.43",
        "dur": "3.539",
        "text": "that up front so nobody gets sort of"
    },
    {
        "start": "61.079",
        "dur": "4.911",
        "text": "confused about where at least I stand"
    },
    {
        "start": "62.969",
        "dur": "5.281",
        "text": "with regards to this Muslim stuff but"
    },
    {
        "start": "65.99",
        "dur": "5.02",
        "text": "let's look at some of the facts about"
    },
    {
        "start": "68.25",
        "dur": "5.1",
        "text": "the relationships just between the u.s."
    },
    {
        "start": "71.01",
        "dur": "4.59",
        "text": "and the Muslim countries so that we can"
    },
    {
        "start": "73.35",
        "dur": "4.949",
        "text": "at least start the discussion with some"
    },
    {
        "start": "75.6",
        "dur": "5.57",
        "text": "facts rather than a wild opinions"
    },
    {
        "start": "78.299",
        "dur": "8.43",
        "text": "speculation and some mob mentality"
    },
    {
        "start": "81.17",
        "dur": "7.93",
        "text": "first of all 9/11 in the United States"
    },
    {
        "start": "86.729",
        "dur": "4.861",
        "text": "killed upwards of 3,000 people relative"
    },
    {
        "start": "89.1",
        "dur": "4.08",
        "text": "to the u.s. population that's a small"
    },
    {
        "start": "91.59",
        "dur": "3.419",
        "text": "number it's a large number and there"
    },
    {
        "start": "93.18",
        "dur": "3.27",
        "text": "were all evil motors and no question"
    },
    {
        "start": "95.009",
        "dur": "2.941",
        "text": "about that but let's just look at the"
    },
    {
        "start": "96.45",
        "dur": "4.89",
        "text": "numbers here so we can get a sense of"
    },
    {
        "start": "97.95",
        "dur": "6.629",
        "text": "the statistical likelihood of who's"
    },
    {
        "start": "101.34",
        "dur": "6.18",
        "text": "going to kill who now Iraq has a"
    },
    {
        "start": "104.579",
        "dur": "4.29",
        "text": "population significantly smaller ten to"
    },
    {
        "start": "107.52",
        "dur": "2.849",
        "text": "twelve to fourteen times smaller"
    },
    {
        "start": "108.869",
        "dur": "3.03",
        "text": "depending on how many people have fled"
    },
    {
        "start": "110.369",
        "dur": "4.951",
        "text": "the country on every any given day"
    },
    {
        "start": "111.899",
        "dur": "5.851",
        "text": "smaller than the United States two to"
    },
    {
        "start": "115.32",
        "dur": "4.74",
        "text": "three hundred people have been killed in"
    },
    {
        "start": "117.75",
        "dur": "5.1",
        "text": "Iraq every single day for the last few"
    },
    {
        "start": "120.06",
        "dur": "4.739",
        "text": "years what that translates to when you"
    },
    {
        "start": "122.85",
        "dur": "5.689",
        "text": "look at the population of Iraq versus"
    },
    {
        "start": "124.799",
        "dur": "7.3",
        "text": "the population of America is a 911 every"
    },
    {
        "start": "128.539",
        "dur": "8.03",
        "text": "single day for Iraq for the PAS"
    },
    {
        "start": "132.099",
        "dur": "6.45",
        "text": "few years a 911 member how mad you were"
    },
    {
        "start": "136.569",
        "dur": "3.931",
        "text": "on 9/11 remember how much you wanted"
    },
    {
        "start": "138.549",
        "dur": "4.53",
        "text": "vengeance how much you wanted to kill"
    },
    {
        "start": "140.5",
        "dur": "7.319",
        "text": "and and maim an attack and imprison and"
    },
    {
        "start": "143.079",
        "dur": "7.44",
        "text": "try whoever did it one day in 300 years"
    },
    {
        "start": "147.819",
        "dur": "7.771",
        "text": "the u.s. gets attacked evil wrong no"
    },
    {
        "start": "150.519",
        "dur": "8.181",
        "text": "question but but Iraq has one of those"
    },
    {
        "start": "155.59",
        "dur": "6.09",
        "text": "every day every day"
    },
    {
        "start": "158.7",
        "dur": "8.909",
        "text": "the proportionally equivalent population"
    },
    {
        "start": "161.68",
        "dur": "8.88",
        "text": "to 911 dies in Iraq every single day so"
    },
    {
        "start": "167.609",
        "dur": "4.69",
        "text": "would you rather be an American facing"
    },
    {
        "start": "170.56",
        "dur": "3.48",
        "text": "possible suicide bombers and people"
    },
    {
        "start": "172.299",
        "dur": "3.541",
        "text": "flying planes into the building which so"
    },
    {
        "start": "174.04",
        "dur": "4.289",
        "text": "far has happened exactly once in 300"
    },
    {
        "start": "175.84",
        "dur": "6.929",
        "text": "years or would you rather be some"
    },
    {
        "start": "178.329",
        "dur": "7.38",
        "text": "helpless Iraq civilian stuck between the"
    },
    {
        "start": "182.769",
        "dur": "6.03",
        "text": "US military and the insurgent forces"
    },
    {
        "start": "185.709",
        "dur": "4.71",
        "text": "which have come into the country largely"
    },
    {
        "start": "188.799",
        "dur": "4.321",
        "text": "as a result of the u.s. matching the"
    },
    {
        "start": "190.419",
        "dur": "4.201",
        "text": "existing infrastructure so that's I"
    },
    {
        "start": "193.12",
        "dur": "9.509",
        "text": "think a fairly important thing to"
    },
    {
        "start": "194.62",
        "dur": "10.859",
        "text": "understand a from a Muslim suicide"
    },
    {
        "start": "202.629",
        "dur": "6.36",
        "text": "bomber are even decimally smaller than"
    },
    {
        "start": "205.479",
        "dur": "7.111",
        "text": "your chances of dying from a u.s. bullet"
    },
    {
        "start": "208.989",
        "dur": "5.701",
        "text": "or grenade or bomb or an insurgent"
    },
    {
        "start": "212.59",
        "dur": "3.929",
        "text": "who've only come to Iraq to fight the"
    },
    {
        "start": "214.69",
        "dur": "3.539",
        "text": "u.s. because they did 9/11 to draw the"
    },
    {
        "start": "216.519",
        "dur": "6.421",
        "text": "us into Iraq so they could attack the"
    },
    {
        "start": "218.229",
        "dur": "9.09",
        "text": "troops without having to go to Fort"
    },
    {
        "start": "222.94",
        "dur": "5.699",
        "text": "Bragg to do it so that's sort of a first"
    },
    {
        "start": "227.319",
        "dur": "4.111",
        "text": "fact now the second fact that's probably"
    },
    {
        "start": "228.639",
        "dur": "4.171",
        "text": "worth looking into is that the US UK LED"
    },
    {
        "start": "231.43",
        "dur": "3.419",
        "text": "sanctions against Iraq"
    },
    {
        "start": "232.81",
        "dur": "3.75",
        "text": "throughout the 1990s resulted in an"
    },
    {
        "start": "234.849",
        "dur": "3.57",
        "text": "estimated deaths of half a million Iraqi"
    },
    {
        "start": "236.56",
        "dur": "4.679",
        "text": "children at a factor of 10 times"
    },
    {
        "start": "238.419",
        "dur": "5.85",
        "text": "relationship to population that's 5"
    },
    {
        "start": "241.239",
        "dur": "6",
        "text": "million US children that would have to"
    },
    {
        "start": "244.269",
        "dur": "6.18",
        "text": "die over the course of a decade"
    },
    {
        "start": "247.239",
        "dur": "5.34",
        "text": "all right 500,000 children a year would"
    },
    {
        "start": "250.449",
        "dur": "4.56",
        "text": "have to die as a result of Muslim"
    },
    {
        "start": "252.579",
        "dur": "5.22",
        "text": "sanctions in order to achieve an"
    },
    {
        "start": "255.009",
        "dur": "6.871",
        "text": "equivalent statistical population death"
    },
    {
        "start": "257.799",
        "dur": "6.151",
        "text": "so that's just one country in 10 years"
    },
    {
        "start": "261.88",
        "dur": "3.4",
        "text": "if you put together all of the bases"
    },
    {
        "start": "263.95",
        "dur": "4.06",
        "text": "that have been going"
    },
    {
        "start": "265.28",
        "dur": "5.58",
        "text": "in Saudi Arabia if you look at all of"
    },
    {
        "start": "268.01",
        "dur": "5.04",
        "text": "the the fact that the Shah was deposed"
    },
    {
        "start": "270.86",
        "dur": "5.52",
        "text": "by the CIA that said Saddam Husein was"
    },
    {
        "start": "273.05",
        "dur": "4.98",
        "text": "put in and was armed by the Americans"
    },
    {
        "start": "276.38",
        "dur": "3.03",
        "text": "who he gassed his own people absolutely"
    },
    {
        "start": "278.03",
        "dur": "3.72",
        "text": "evil where did you get the helicopters"
    },
    {
        "start": "279.41",
        "dur": "3.81",
        "text": "as they say of course we know he has"
    },
    {
        "start": "281.75",
        "dur": "4.95",
        "text": "weapons of weapons of mass destruction"
    },
    {
        "start": "283.22",
        "dur": "5.07",
        "text": "the US has the receipts so that's sort"
    },
    {
        "start": "286.7",
        "dur": "2.79",
        "text": "of something I would like to to point"
    },
    {
        "start": "288.29",
        "dur": "3",
        "text": "out the last thing that I'd like to"
    },
    {
        "start": "289.49",
        "dur": "3.51",
        "text": "point out and I've had lots of requests"
    },
    {
        "start": "291.29",
        "dur": "4.34",
        "text": "to keep these shorter so this is me"
    },
    {
        "start": "293",
        "dur": "6.24",
        "text": "being short and a little abrupt"
    },
    {
        "start": "295.63",
        "dur": "5.62",
        "text": "let's look at another aspect of the"
    },
    {
        "start": "299.24",
        "dur": "5.19",
        "text": "horror that people have about the"
    },
    {
        "start": "301.25",
        "dur": "6.09",
        "text": "Muslims right which is that currently 25"
    },
    {
        "start": "304.43",
        "dur": "5.07",
        "text": "percent of u.s. Muslims support suicide"
    },
    {
        "start": "307.34",
        "dur": "3.93",
        "text": "bombing well that of course is pretty"
    },
    {
        "start": "309.5",
        "dur": "3.63",
        "text": "bad no question right I mean suicide"
    },
    {
        "start": "311.27",
        "dur": "5.94",
        "text": "bombing is a form of terrorism terrorism"
    },
    {
        "start": "313.13",
        "dur": "5.28",
        "text": "is defined as the use of violence to"
    },
    {
        "start": "317.21",
        "dur": "4.8",
        "text": "achieve political ends"
    },
    {
        "start": "318.41",
        "dur": "6.569",
        "text": "say like toppling a regime in Iraq or"
    },
    {
        "start": "322.01",
        "dur": "5.28",
        "text": "say the welfare stage or say Social"
    },
    {
        "start": "324.979",
        "dur": "4.44",
        "text": "Security or say the military industrial"
    },
    {
        "start": "327.29",
        "dur": "3.45",
        "text": "complex as a whole that is the use of"
    },
    {
        "start": "329.419",
        "dur": "3.391",
        "text": "force against taxpayers to achieve"
    },
    {
        "start": "330.74",
        "dur": "3.54",
        "text": "political ends which is the bribing of"
    },
    {
        "start": "332.81",
        "dur": "3.99",
        "text": "certain sections of the population but"
    },
    {
        "start": "334.28",
        "dur": "4.699",
        "text": "and let's not even start on the brain"
    },
    {
        "start": "336.8",
        "dur": "4.83",
        "text": "numbing new legs of public schools but"
    },
    {
        "start": "338.979",
        "dur": "6.781",
        "text": "25% let's say let's say that's totally"
    },
    {
        "start": "341.63",
        "dur": "8.67",
        "text": "true 25 percent of Muslims support"
    },
    {
        "start": "345.76",
        "dur": "6.49",
        "text": "suicide bombing so what so what are you"
    },
    {
        "start": "350.3",
        "dur": "3.72",
        "text": "threatened by suicide bombing relative"
    },
    {
        "start": "352.25",
        "dur": "4.26",
        "text": "to the degree to which the average Iraqi"
    },
    {
        "start": "354.02",
        "dur": "3.87",
        "text": "Muslim is threatened by the US military"
    },
    {
        "start": "356.51",
        "dur": "3.15",
        "text": "or the insurgents who've come there to"
    },
    {
        "start": "357.89",
        "dur": "6.12",
        "text": "fight them as a direct result of that"
    },
    {
        "start": "359.66",
        "dur": "6.24",
        "text": "invasion 25 percent of Muslims support"
    },
    {
        "start": "364.01",
        "dur": "5.88",
        "text": "suicide bombing which affects you"
    },
    {
        "start": "365.9",
        "dur": "5.37",
        "text": "virtually not at all how many person"
    },
    {
        "start": "369.89",
        "dur": "3.99",
        "text": "what is the percentage of Americans who"
    },
    {
        "start": "371.27",
        "dur": "6.12",
        "text": "support the invasion and occupation of a"
    },
    {
        "start": "373.88",
        "dur": "6",
        "text": "foreign country like Iraq see we're so"
    },
    {
        "start": "377.39",
        "dur": "4.08",
        "text": "easy to see the faults - the problems in"
    },
    {
        "start": "379.88",
        "dur": "3.06",
        "text": "other people's thinking and it's so hard"
    },
    {
        "start": "381.47",
        "dur": "3.63",
        "text": "to turn that same kind of laser and"
    },
    {
        "start": "382.94",
        "dur": "4.5",
        "text": "searchlight on ourselves but it is so"
    },
    {
        "start": "385.1",
        "dur": "4.5",
        "text": "essential to do it if we are to actually"
    },
    {
        "start": "387.44",
        "dur": "4.56",
        "text": "think rather than just be mindlessly"
    },
    {
        "start": "389.6",
        "dur": "3.9",
        "text": "patriotic and be us good then bad ok one"
    },
    {
        "start": "392",
        "dur": "2.51",
        "text": "more thing and then I'm done I really"
    },
    {
        "start": "393.5",
        "dur": "3.78",
        "text": "keep this short"
    },
    {
        "start": "394.51",
        "dur": "4",
        "text": "why are the Muslims the way they are why"
    },
    {
        "start": "397.28",
        "dur": "3.09",
        "text": "are the Muslims the way"
    },
    {
        "start": "398.51",
        "dur": "5.91",
        "text": "or another way of asking that question"
    },
    {
        "start": "400.37",
        "dur": "6.54",
        "text": "is what would you think if you had been"
    },
    {
        "start": "404.42",
        "dur": "5.25",
        "text": "born in Syria or Iran what would you"
    },
    {
        "start": "406.91",
        "dur": "4.92",
        "text": "think would you be gung-ho pro-american"
    },
    {
        "start": "409.67",
        "dur": "4.17",
        "text": "pro freedom pro-democracy ProCare ISM"
    },
    {
        "start": "411.83",
        "dur": "3.51",
        "text": "Pro whatever of course not you didn't"
    },
    {
        "start": "413.84",
        "dur": "5.52",
        "text": "invent your culture and neither did that"
    },
    {
        "start": "415.34",
        "dur": "6.47",
        "text": "but these people over in these Muslim"
    },
    {
        "start": "419.36",
        "dur": "6.21",
        "text": "tyrannies these theocracies from hell"
    },
    {
        "start": "421.81",
        "dur": "5.68",
        "text": "are not able to invent their own culture"
    },
    {
        "start": "425.57",
        "dur": "3.81",
        "text": "any more than you or I are able to"
    },
    {
        "start": "427.49",
        "dur": "3.54",
        "text": "invent our own culture they're born"
    },
    {
        "start": "429.38",
        "dur": "3.51",
        "text": "there and they believe the same shit"
    },
    {
        "start": "431.03",
        "dur": "4.56",
        "text": "that they're shovelled that we believe"
    },
    {
        "start": "432.89",
        "dur": "4.26",
        "text": "here that they're good and we're bad we"
    },
    {
        "start": "435.59",
        "dur": "3.9",
        "text": "are good they're bad the standards don't"
    },
    {
        "start": "437.15",
        "dur": "5.88",
        "text": "apply universally whatever we do is good"
    },
    {
        "start": "439.49",
        "dur": "5.4",
        "text": "whatever they do is bad they believe the"
    },
    {
        "start": "443.03",
        "dur": "3.24",
        "text": "same crap that we believe we just have a"
    },
    {
        "start": "444.89",
        "dur": "3.48",
        "text": "slightly different shit sandwich to eat"
    },
    {
        "start": "446.27",
        "dur": "4.02",
        "text": "than they do and yes our shit sandwich"
    },
    {
        "start": "448.37",
        "dur": "4.26",
        "text": "tastes better no question I'd rather be"
    },
    {
        "start": "450.29",
        "dur": "4.65",
        "text": "here than over there but it's not that I"
    },
    {
        "start": "452.63",
        "dur": "4.59",
        "text": "was such a great guy that I happened to"
    },
    {
        "start": "454.94",
        "dur": "5.28",
        "text": "be born in the West and didn't happen to"
    },
    {
        "start": "457.22",
        "dur": "5.82",
        "text": "be born in Syria where I'd be stuck in a"
    },
    {
        "start": "460.22",
        "dur": "4.41",
        "text": "mosque thumbing through the Quran for"
    },
    {
        "start": "463.04",
        "dur": "5.28",
        "text": "the rest of my natural born life until I"
    },
    {
        "start": "464.63",
        "dur": "5.25",
        "text": "went totally mental and deranged you"
    },
    {
        "start": "468.32",
        "dur": "4.29",
        "text": "didn't invent the West they didn't"
    },
    {
        "start": "469.88",
        "dur": "6.12",
        "text": "invent Islam they're just born into it"
    },
    {
        "start": "472.61",
        "dur": "4.95",
        "text": "and so the problem is with the ideas not"
    },
    {
        "start": "476",
        "dur": "4.17",
        "text": "with the people the problem is with the"
    },
    {
        "start": "477.56",
        "dur": "5.9",
        "text": "irrationality and the contradictions and"
    },
    {
        "start": "480.17",
        "dur": "6.24",
        "text": "the moral corruption within the ideas"
    },
    {
        "start": "483.46",
        "dur": "4.66",
        "text": "not it's the people the people are just"
    },
    {
        "start": "486.41",
        "dur": "3.54",
        "text": "helpless slaves of the idea the same way"
    },
    {
        "start": "488.12",
        "dur": "3.6",
        "text": "that most people in the West helpless"
    },
    {
        "start": "489.95",
        "dur": "5.67",
        "text": "slaves of the prejudices that we inherit"
    },
    {
        "start": "491.72",
        "dur": "6.72",
        "text": "as part of our culture I'm not saying to"
    },
    {
        "start": "495.62",
        "dur": "6.53",
        "text": "like Islam I'm just saying have a little"
    },
    {
        "start": "498.44",
        "dur": "7.08",
        "text": "sympathy for these poor bred livestock"
    },
    {
        "start": "502.15",
        "dur": "5.29",
        "text": "who are born into these terrible"
    },
    {
        "start": "505.52",
        "dur": "4.46",
        "text": "terrible situations and yes they believe"
    },
    {
        "start": "507.44",
        "dur": "4.77",
        "text": "a whole lot of crap but so do we and"
    },
    {
        "start": "509.98",
        "dur": "3.999",
        "text": "it's time for us to start peeling away"
    },
    {
        "start": "512.21",
        "dur": "4.92",
        "text": "the layers of illusion of mythology of"
    },
    {
        "start": "513.979",
        "dur": "4.891",
        "text": "storytelling that results in death for"
    },
    {
        "start": "517.13",
        "dur": "2.94",
        "text": "both of our culture's and stop just"
    },
    {
        "start": "518.87",
        "dur": "3.45",
        "text": "looking at them and saying well isn't"
    },
    {
        "start": "520.07",
        "dur": "3.48",
        "text": "that terrible we're so great well we"
    },
    {
        "start": "522.32",
        "dur": "2.88",
        "text": "just happened to be great we just"
    },
    {
        "start": "523.55",
        "dur": "3.6",
        "text": "inherited some kinds of greatness which"
    },
    {
        "start": "525.2",
        "dur": "4.68",
        "text": "we did not invent and they've just"
    },
    {
        "start": "527.15",
        "dur": "4.89",
        "text": "inherited some really crappy stuff and"
    },
    {
        "start": "529.88",
        "dur": "4.56",
        "text": "we need to help get this"
    },
    {
        "start": "532.04",
        "dur": "5.039",
        "text": "of irrationality and mysticism off the"
    },
    {
        "start": "534.44",
        "dur": "4.56",
        "text": "chests of these people not just dance"
    },
    {
        "start": "537.079",
        "dur": "3.601",
        "text": "around saying hey we are great because"
    },
    {
        "start": "539",
        "dur": "3.54",
        "text": "we don't have any chests of it rocks of"
    },
    {
        "start": "540.68",
        "dur": "3.599",
        "text": "irrationality on her chest it's not true"
    },
    {
        "start": "542.54",
        "dur": "4.289",
        "text": "get him off her own chest reach over and"
    },
    {
        "start": "544.279",
        "dur": "4.8",
        "text": "help those poor bastards over there in"
    },
    {
        "start": "546.829",
        "dur": "3.45",
        "text": "the Islamic countries and not just say"
    },
    {
        "start": "549.079",
        "dur": "3.06",
        "text": "well they want to kill us so let's go"
    },
    {
        "start": "550.279",
        "dur": "3.661",
        "text": "kill them where does that end remember"
    },
    {
        "start": "552.139",
        "dur": "3.271",
        "text": "how angry you were on 9/11 imagine that"
    },
    {
        "start": "553.94",
        "dur": "5.009",
        "text": "happening every single day to your"
    },
    {
        "start": "555.41",
        "dur": "5.13",
        "text": "country or to your culture how much"
    },
    {
        "start": "558.949",
        "dur": "4.621",
        "text": "would you want vengeance how much would"
    },
    {
        "start": "560.54",
        "dur": "5.13",
        "text": "you want to hurt people so they hit us"
    },
    {
        "start": "563.57",
        "dur": "4.1",
        "text": "we hit them harder they hit us harder we"
    },
    {
        "start": "565.67",
        "dur": "3.96",
        "text": "hit them harder it just doesn't end"
    },
    {
        "start": "567.67",
        "dur": "4.69",
        "text": "back-and-forth it goes until the world"
    },
    {
        "start": "569.63",
        "dur": "5.06",
        "text": "drowns in bladder I say enough thank you"
    },
    {
        "start": "572.36",
        "dur": "2.33",
        "text": "so much"
    }
]