{
  "Title": "Why Men Don't Want To Have Kids",
  "Id": "dujXV7D7RXo",
  "Transcript": [
    {
      "text": "why do men not want to have children 26%",
      "start": 0.319,
      "duration": 11.261
    },
    {
      "text": "more than 1/4 of German men say that the",
      "start": 6.39,
      "duration": 13.62
    },
    {
      "text": "ideal number of children is 0 if 0 at",
      "start": 11.58,
      "duration": 11.85
    },
    {
      "text": "birth rates across Europe are far below",
      "start": 20.01,
      "duration": 4.89
    },
    {
      "text": "replenishment levels far below",
      "start": 23.43,
      "duration": 5.49
    },
    {
      "text": "sustainable levels in Germany this is so",
      "start": 24.9,
      "duration": 5.91
    },
    {
      "text": "few children being had in wealthier",
      "start": 28.92,
      "duration": 3.42
    },
    {
      "text": "neighborhoods that the sewage systems",
      "start": 30.81,
      "duration": 4.409
    },
    {
      "text": "have stopped working because there's",
      "start": 32.34,
      "duration": 8.219
    },
    {
      "text": "just not enough volume we are not",
      "start": 35.219,
      "duration": 7.201
    },
    {
      "text": "producing enough people to keep",
      "start": 40.559,
      "duration": 4.561
    },
    {
      "text": "German sewer systems going that sentence",
      "start": 42.42,
      "duration": 4.229
    },
    {
      "text": "I'm not sure I was ever going to say my",
      "start": 45.12,
      "duration": 3.09
    },
    {
      "text": "life but they're checked it off my",
      "start": 46.649,
      "duration": 3.831
    },
    {
      "text": "bucket list",
      "start": 48.21,
      "duration": 2.27
    },
    {
      "text": "in Japan there are these men termed",
      "start": 50.78,
      "duration": 6.49
    },
    {
      "text": "grass eaters or herbivores who are not",
      "start": 54.84,
      "duration": 3.899
    },
    {
      "text": "interested in women not interested in",
      "start": 57.27,
      "duration": 3.42
    },
    {
      "text": "sex and certainly not interested in",
      "start": 58.739,
      "duration": 10.471
    },
    {
      "text": "having children in Italy",
      "start": 60.69,
      "duration": 10.89
    },
    {
      "text": "what is the birthrate 1.2 or one point",
      "start": 69.21,
      "duration": 6.72
    },
    {
      "text": "one per couple I mean that's",
      "start": 71.58,
      "duration": 6.75
    },
    {
      "text": "catastrophic that is a plague of",
      "start": 75.93,
      "duration": 6.75
    },
    {
      "text": "voluntary infertility it's like a soft",
      "start": 78.33,
      "duration": 10.88
    },
    {
      "text": "death of the European species so why why",
      "start": 82.68,
      "duration": 11.61
    },
    {
      "text": "don't men want to have kids now as to",
      "start": 89.21,
      "duration": 7.06
    },
    {
      "text": "whether women want to have kids I don't",
      "start": 94.29,
      "duration": 4.439
    },
    {
      "text": "know I guess all I could do a podcast on",
      "start": 96.27,
      "duration": 7.95
    },
    {
      "text": "that they taint my bag literally why",
      "start": 98.729,
      "duration": 7.951
    },
    {
      "text": "don't men when I have children well as",
      "start": 104.22,
      "duration": 7.95
    },
    {
      "text": "to areas you need to look at when you",
      "start": 106.68,
      "duration": 8.25
    },
    {
      "text": "want to figure out why men don't want to",
      "start": 112.17,
      "duration": 4.979
    },
    {
      "text": "have children the first area is the past",
      "start": 114.93,
      "duration": 4.95
    },
    {
      "text": "and the second yes you guessed it you",
      "start": 117.149,
      "duration": 5.61
    },
    {
      "text": "get a car and you get a car is the",
      "start": 119.88,
      "duration": 8.7
    },
    {
      "text": "future so for the past if we want to",
      "start": 122.759,
      "duration": 7.2
    },
    {
      "text": "figure out why men don't want to have",
      "start": 128.58,
      "duration": 3.21
    },
    {
      "text": "children we have to look at how their",
      "start": 129.959,
      "duration": 3.681
    },
    {
      "text": "parents look to them when they were",
      "start": 131.79,
      "duration": 3.96
    },
    {
      "text": "knee-high to a grasshopper when they",
      "start": 133.64,
      "duration": 4.6
    },
    {
      "text": "were wee bairns when they were little",
      "start": 135.75,
      "duration": 7.35
    },
    {
      "text": "boys how did daddy look because that's a",
      "start": 138.24,
      "duration": 7.95
    },
    {
      "text": "template right if daddy had a rich an",
      "start": 143.1,
      "duration": 5.19
    },
    {
      "text": "enjoyable family life and really had a",
      "start": 146.19,
      "duration": 3.48
    },
    {
      "text": "great time with his wife and loved",
      "start": 148.29,
      "duration": 2.88
    },
    {
      "text": "spending time with his kids and had a",
      "start": 149.67,
      "duration": 3.21
    },
    {
      "text": "relaxed and enjoyable time being a daddy",
      "start": 151.17,
      "duration": 3.6
    },
    {
      "text": "well that looks pretty damn appealing",
      "start": 152.88,
      "duration": 2.4
    },
    {
      "text": "doesn't it",
      "start": 154.77,
      "duration": 4.14
    },
    {
      "text": "but if daddy weren't there then that's a",
      "start": 155.28,
      "duration": 5.4
    },
    {
      "text": "big hole in the family portrait that a",
      "start": 158.91,
      "duration": 6.06
    },
    {
      "text": "man finds hard to grow into and if the",
      "start": 160.68,
      "duration": 7.2
    },
    {
      "text": "man was stressed and harassed and felt",
      "start": 164.97,
      "duration": 5.94
    },
    {
      "text": "like endless series of tiny feeted",
      "start": 167.88,
      "duration": 4.32
    },
    {
      "text": "monsters were constantly preying upon",
      "start": 170.91,
      "duration": 3.329
    },
    {
      "text": "his wallet his hopes his future his soul",
      "start": 172.2,
      "duration": 3.9
    },
    {
      "text": "his life his happiness and his testes",
      "start": 174.239,
      "duration": 5.011
    },
    {
      "text": "then well it may not be a silhouette",
      "start": 176.1,
      "duration": 8.7
    },
    {
      "text": "that he wants to step into next up that",
      "start": 179.25,
      "duration": 8.069
    },
    {
      "text": "daddy guillotine oh no you don't",
      "start": 184.8,
      "duration": 4.56
    },
    {
      "text": "actually put your head there well not",
      "start": 187.319,
      "duration": 6.691
    },
    {
      "text": "that one anyway was the dad working hard",
      "start": 189.36,
      "duration": 6.27
    },
    {
      "text": "to support the family and then kick to",
      "start": 194.01,
      "duration": 9.569
    },
    {
      "text": "the curb by some woman who was looking",
      "start": 195.63,
      "duration": 13.859
    },
    {
      "text": "to trade up well 60 70 percent of",
      "start": 203.579,
      "duration": 7.201
    },
    {
      "text": "divorces are initiated by women the",
      "start": 209.489,
      "duration": 5.31
    },
    {
      "text": "number one reason given for divorce its",
      "start": 210.78,
      "duration": 7.86
    },
    {
      "text": "dissatisfaction not not not to happy",
      "start": 214.799,
      "duration": 6.301
    },
    {
      "text": "going through a bit of a lull not so you",
      "start": 218.64,
      "duration": 4.469
    },
    {
      "text": "know you know them beat me not drunk and",
      "start": 221.1,
      "duration": 4.62
    },
    {
      "text": "sleep around just I'm just I'm not I'm",
      "start": 223.109,
      "duration": 4.651
    },
    {
      "text": "not quite satisfied at the moment I'm",
      "start": 225.72,
      "duration": 8.09
    },
    {
      "text": "I'm just feeling a little restless so",
      "start": 227.76,
      "duration": 6.05
    },
    {
      "text": "let's crack a toe of that family unit",
      "start": 234.5,
      "duration": 12.07
    },
    {
      "text": "shall we honey oh well if you want to",
      "start": 236.85,
      "duration": 11.19
    },
    {
      "text": "know why when men don't want to be",
      "start": 246.57,
      "duration": 2.54
    },
    {
      "text": "fathers",
      "start": 248.04,
      "duration": 4.11
    },
    {
      "text": "how did fatherhood look to those men in",
      "start": 249.11,
      "duration": 8.5
    },
    {
      "text": "the 70s and 80s when those little boys",
      "start": 252.15,
      "duration": 7.92
    },
    {
      "text": "were looking up as the absent or",
      "start": 257.61,
      "duration": 7.19
    },
    {
      "text": "stressed or discarded or blown up or",
      "start": 260.07,
      "duration": 9.66
    },
    {
      "text": "pillaged daddy could you could you son",
      "start": 264.8,
      "duration": 6.1
    },
    {
      "text": "that'd be great you could you would you",
      "start": 269.73,
      "duration": 3.87
    },
    {
      "text": "might grow up now just stand in this",
      "start": 270.9,
      "duration": 5.97
    },
    {
      "text": "nuclear shadow where daddy was because I",
      "start": 273.6,
      "duration": 5.91
    },
    {
      "text": "believe another flash it's about to",
      "start": 276.87,
      "duration": 5.88
    },
    {
      "text": "emerge over the horizon though to the",
      "start": 279.51,
      "duration": 4.65
    },
    {
      "text": "left that's right there son yeah all",
      "start": 282.75,
      "duration": 3.75
    },
    {
      "text": "right stand up a little all right hold",
      "start": 284.16,
      "duration": 8.4
    },
    {
      "text": "it look another set of mail ash flying",
      "start": 286.5,
      "duration": 9
    },
    {
      "text": "through the stratosphere on its way to",
      "start": 292.56,
      "duration": 6.15
    },
    {
      "text": "orbit the moon of lonely living in your",
      "start": 295.5,
      "duration": 3.9
    },
    {
      "text": "car",
      "start": 298.71,
      "duration": 3.12
    },
    {
      "text": "why paying alimony and child support",
      "start": 299.4,
      "duration": 6.08
    },
    {
      "text": "from here to eternity because the lady",
      "start": 301.83,
      "duration": 7.68
    },
    {
      "text": "was dissatisfied now the majority of",
      "start": 305.48,
      "duration": 5.71
    },
    {
      "text": "people who go through a tough time in",
      "start": 309.51,
      "duration": 3.69
    },
    {
      "text": "their marriage five years later are very",
      "start": 311.19,
      "duration": 4.71
    },
    {
      "text": "happy that they stayed married but in",
      "start": 313.2,
      "duration": 9.27
    },
    {
      "text": "our instant gratification planet you get",
      "start": 315.9,
      "duration": 8.88
    },
    {
      "text": "to live on a friend's couch or maybe",
      "start": 322.47,
      "duration": 6.66
    },
    {
      "text": "even in your Kia for a couple of years",
      "start": 324.78,
      "duration": 6.33
    },
    {
      "text": "and oh and your chance of suicide goes",
      "start": 329.13,
      "duration": 3.27
    },
    {
      "text": "up through the roof oh and no other",
      "start": 331.11,
      "duration": 2.49
    },
    {
      "text": "woman will want you because you're",
      "start": 332.4,
      "duration": 3.39
    },
    {
      "text": "paying alimony and child support from",
      "start": 333.6,
      "duration": 6.6
    },
    {
      "text": "here to eternity so no I think that I",
      "start": 335.79,
      "duration": 8.31
    },
    {
      "text": "will not want to become a father",
      "start": 340.2,
      "duration": 6.75
    },
    {
      "text": "thank you very much I mean for the",
      "start": 344.1,
      "duration": 6.21
    },
    {
      "text": "Japanese kids it's not that hard figure",
      "start": 346.95,
      "duration": 4.35
    },
    {
      "text": "out Karoshi",
      "start": 350.31,
      "duration": 5.73
    },
    {
      "text": "death by overwork not the main",
      "start": 351.3,
      "duration": 6.3
    },
    {
      "text": "occupational hazard of your average",
      "start": 356.04,
      "duration": 4.17
    },
    {
      "text": "internet philosopher but something that",
      "start": 357.6,
      "duration": 5.71
    },
    {
      "text": "did plague Japanese men",
      "start": 360.21,
      "duration": 5.89
    },
    {
      "text": "in the economic Putin times of the 70s",
      "start": 363.31,
      "duration": 4.35
    },
    {
      "text": "and 80s up until the general economic",
      "start": 366.1,
      "duration": 3.12
    },
    {
      "text": "slowdown that occurred in Japan and",
      "start": 367.66,
      "duration": 5.07
    },
    {
      "text": "continues to occur in Japan ah for the",
      "start": 369.22,
      "duration": 5.46
    },
    {
      "text": "past 20 years or so funny you'd think",
      "start": 372.73,
      "duration": 3.39
    },
    {
      "text": "that most central bank money printing",
      "start": 374.68,
      "duration": 3.42
    },
    {
      "text": "would uh solve that problem like it has",
      "start": 376.12,
      "duration": 6.42
    },
    {
      "text": "never throughout history ever give us",
      "start": 378.1,
      "duration": 6.93
    },
    {
      "text": "more money printing and lower interest",
      "start": 382.54,
      "duration": 4.68
    },
    {
      "text": "rates said no future healthy economy",
      "start": 385.03,
      "duration": 10.44
    },
    {
      "text": "ever so what was dad's life like to our",
      "start": 387.22,
      "duration": 11.64
    },
    {
      "text": "little Japanese boy well dad's almost",
      "start": 395.47,
      "duration": 6.33
    },
    {
      "text": "never home cuz he's got to work 60 70",
      "start": 398.86,
      "duration": 4.29
    },
    {
      "text": "hours a week or 80 hours a week and then",
      "start": 401.8,
      "duration": 3.15
    },
    {
      "text": "it's got to go out singing karaoke with",
      "start": 403.15,
      "duration": 3.39
    },
    {
      "text": "his boss and fall asleep on the subway",
      "start": 404.95,
      "duration": 3.75
    },
    {
      "text": "and get up every Monday morning",
      "start": 406.54,
      "duration": 3.15
    },
    {
      "text": "exhausted",
      "start": 408.7,
      "duration": 2.28
    },
    {
      "text": "where the strong urge to blow his brains",
      "start": 409.69,
      "duration": 4.32
    },
    {
      "text": "out rather than go back to work well I",
      "start": 410.98,
      "duration": 6.27
    },
    {
      "text": "think not so at the time when meruchan",
      "start": 414.01,
      "duration": 7.46
    },
    {
      "text": "being a father has become enormous ly",
      "start": 417.25,
      "duration": 7.8
    },
    {
      "text": "enormously less appealing and highly",
      "start": 421.47,
      "duration": 7.18
    },
    {
      "text": "risky legally financially medically the",
      "start": 425.05,
      "duration": 6.74
    },
    {
      "text": "stress of divorce and all that brutal",
      "start": 428.65,
      "duration": 7.4
    },
    {
      "text": "losing custody of your kids custody of",
      "start": 431.79,
      "duration": 8.439
    },
    {
      "text": "of the women 90% of the time 95% of the",
      "start": 436.05,
      "duration": 5.95
    },
    {
      "text": "time goes to the women goes to the moms",
      "start": 440.229,
      "duration": 3.06
    },
    {
      "text": "even though the mom statistically",
      "start": 442,
      "duration": 5.7
    },
    {
      "text": "appears children more than dads so at",
      "start": 443.289,
      "duration": 5.821
    },
    {
      "text": "the same time as marriage and fatherhood",
      "start": 447.7,
      "duration": 5.82
    },
    {
      "text": "has become oh my god absolutely it City",
      "start": 449.11,
      "duration": 7.49
    },
    {
      "text": "horrific and ever more horrific prospect",
      "start": 453.52,
      "duration": 8.97
    },
    {
      "text": "not being a dad not being married has",
      "start": 456.6,
      "duration": 7.81
    },
    {
      "text": "become enormously more important right",
      "start": 462.49,
      "duration": 4.679
    },
    {
      "text": "the old deal was if you want access to",
      "start": 464.41,
      "duration": 8.22
    },
    {
      "text": "the vajayjay right if you want to sail",
      "start": 467.169,
      "duration": 7.951
    },
    {
      "text": "your super tanker into Snug Harbor if",
      "start": 472.63,
      "duration": 3.84
    },
    {
      "text": "you want to have access to sex you get",
      "start": 475.12,
      "duration": 3.78
    },
    {
      "text": "married right women had a monopoly",
      "start": 476.47,
      "duration": 5.49
    },
    {
      "text": "monopoly on that and therefore the break",
      "start": 478.9,
      "duration": 5.19
    },
    {
      "text": "to get access to it you had to get",
      "start": 481.96,
      "duration": 6.09
    },
    {
      "text": "married now I mean women in their 20s",
      "start": 484.09,
      "duration": 6.69
    },
    {
      "text": "are ridiculously foolishly squandering",
      "start": 488.05,
      "duration": 4.56
    },
    {
      "text": "their time of greatest sexual appeal on",
      "start": 490.78,
      "duration": 4.01
    },
    {
      "text": "a succession of idiots",
      "start": 492.61,
      "duration": 5.54
    },
    {
      "text": "tools and then when they get into their",
      "start": 494.79,
      "duration": 5.16
    },
    {
      "text": "mid late thirties and they've sort of",
      "start": 498.15,
      "duration": 3
    },
    {
      "text": "panic and want to settle down and have",
      "start": 499.95,
      "duration": 4.29
    },
    {
      "text": "kids nobody's that particularly",
      "start": 501.15,
      "duration": 4.47
    },
    {
      "text": "interested in they have settled with a",
      "start": 504.24,
      "duration": 5.97
    },
    {
      "text": "guy who was more of a loser and school",
      "start": 505.62,
      "duration": 7.109
    },
    {
      "text": "right what says more of a loser than the",
      "start": 510.21,
      "duration": 4.38
    },
    {
      "text": "six or seven guys she dated in their 20s",
      "start": 512.729,
      "duration": 4.221
    },
    {
      "text": "which is hard to imagine but it's true",
      "start": 514.59,
      "duration": 5.19
    },
    {
      "text": "women are born wealthy I'd lose money",
      "start": 516.95,
      "duration": 5.89
    },
    {
      "text": "men are born poor and gain money right I",
      "start": 519.78,
      "duration": 8.34
    },
    {
      "text": "mean that's so women under their money",
      "start": 522.84,
      "duration": 6.87
    },
    {
      "text": "and in that broke and Men just get more",
      "start": 528.12,
      "duration": 2.7
    },
    {
      "text": "and more attractive as time goes along",
      "start": 529.71,
      "duration": 4.53
    },
    {
      "text": "so what's it like for a man if you don't",
      "start": 530.82,
      "duration": 4.05
    },
    {
      "text": "get married",
      "start": 534.24,
      "duration": 3.6
    },
    {
      "text": "Wow it's pretty cool I mean 60-inch TVs",
      "start": 534.87,
      "duration": 5.22
    },
    {
      "text": "you got gyms you got you get to travel",
      "start": 537.84,
      "duration": 4.17
    },
    {
      "text": "you've got easy access if you're",
      "start": 540.09,
      "duration": 3.3
    },
    {
      "text": "reasonably attractive and reasonably",
      "start": 542.01,
      "duration": 5.91
    },
    {
      "text": "confident you have easy access to sex on",
      "start": 543.39,
      "duration": 7.64
    },
    {
      "text": "demand you've got I mean a near infinite",
      "start": 547.92,
      "duration": 6.36
    },
    {
      "text": "multiverse of pornography at your",
      "start": 551.03,
      "duration": 6.4
    },
    {
      "text": "fingertips so to speak at two pairs of",
      "start": 554.28,
      "duration": 9.51
    },
    {
      "text": "fingertips and it's pretty sweet to not",
      "start": 557.43,
      "duration": 9.03
    },
    {
      "text": "be married I mean think of a small town",
      "start": 563.79,
      "duration": 4.29
    },
    {
      "text": "in the nineteenth century what the hell",
      "start": 566.46,
      "duration": 2.46
    },
    {
      "text": "was there to do",
      "start": 568.08,
      "duration": 3.54
    },
    {
      "text": "I couldn't travel no TV no video games",
      "start": 568.92,
      "duration": 7.61
    },
    {
      "text": "and movies note you know 3d stereoscopic",
      "start": 571.62,
      "duration": 7.41
    },
    {
      "text": "mind-bending entertainments with nothing",
      "start": 576.53,
      "duration": 4.42
    },
    {
      "text": "to do that get married have kids yeah",
      "start": 579.03,
      "duration": 4.47
    },
    {
      "text": "100 plus God says so right so I mean",
      "start": 580.95,
      "duration": 3.93
    },
    {
      "text": "nobody really believes in the God",
      "start": 583.5,
      "duration": 4.77
    },
    {
      "text": "commandments I anymore you go forth and",
      "start": 584.88,
      "duration": 5.01
    },
    {
      "text": "multiply but we can't since the snake",
      "start": 588.27,
      "duration": 5.4
    },
    {
      "text": "were adders and nobody believes that",
      "start": 589.89,
      "duration": 10.23
    },
    {
      "text": "stuff from being a single man I mean I",
      "start": 593.67,
      "duration": 9.78
    },
    {
      "text": "was a single man for many many years I",
      "start": 600.12,
      "duration": 7.14
    },
    {
      "text": "didn't get married to my mid-30s and oh",
      "start": 603.45,
      "duration": 6.74
    },
    {
      "text": "my god I mean it was it was fantastic",
      "start": 607.26,
      "duration": 4.95
    },
    {
      "text": "I'm like don't get me wrong I'm happy",
      "start": 610.19,
      "duration": 4.15
    },
    {
      "text": "being married but I got one in a million",
      "start": 612.21,
      "duration": 4.35
    },
    {
      "text": "so do not attempt to not attempt to",
      "start": 614.34,
      "duration": 6.89
    },
    {
      "text": "reproduce this at home but being single",
      "start": 616.56,
      "duration": 8.41
    },
    {
      "text": "my jetting off to Belize and Guatemala",
      "start": 621.23,
      "duration": 9.06
    },
    {
      "text": "and China and Paris and oh man it wasn't",
      "start": 624.97,
      "duration": 9.66
    },
    {
      "text": "a Morocco it traveled all over the place",
      "start": 630.29,
      "duration": 6.72
    },
    {
      "text": "could work as hard as I wanted with no",
      "start": 634.63,
      "duration": 5.47
    },
    {
      "text": "interference to keep my own money date",
      "start": 637.01,
      "duration": 7.5
    },
    {
      "text": "as much as I wanted I mean it's a pretty",
      "start": 640.1,
      "duration": 8.04
    },
    {
      "text": "sweet gig and for men of course if you",
      "start": 644.51,
      "duration": 5.94
    },
    {
      "text": "wait to get married your stock only goes",
      "start": 648.14,
      "duration": 4.34
    },
    {
      "text": "up right if you're reasonably ambitious",
      "start": 650.45,
      "duration": 8.4
    },
    {
      "text": "hard-working your stock only goes up so",
      "start": 652.48,
      "duration": 8.52
    },
    {
      "text": "for men it's it's it's great to delay",
      "start": 658.85,
      "duration": 6.21
    },
    {
      "text": "marriage get wealthier more successful",
      "start": 661,
      "duration": 5.59
    },
    {
      "text": "more you have more resources which women",
      "start": 665.06,
      "duration": 6.24
    },
    {
      "text": "always want right because we're disabled",
      "start": 666.59,
      "duration": 7.71
    },
    {
      "text": "by pregnancy and breastfeeding and you",
      "start": 671.3,
      "duration": 5.67
    },
    {
      "text": "know then this conveyor belt of kids so",
      "start": 674.3,
      "duration": 3.99
    },
    {
      "text": "women are kind of programmed to look for",
      "start": 676.97,
      "duration": 3.48
    },
    {
      "text": "guys with resources in the same way that",
      "start": 678.29,
      "duration": 3.33
    },
    {
      "text": "men are programmed to look for women",
      "start": 680.45,
      "duration": 3.47
    },
    {
      "text": "with eating features and wide hips and",
      "start": 681.62,
      "duration": 5.64
    },
    {
      "text": "fertility so for a man delaying marriage",
      "start": 683.92,
      "duration": 6.37
    },
    {
      "text": "is great for a woman delaying marriage",
      "start": 687.26,
      "duration": 4.92
    },
    {
      "text": "is terrible terrible",
      "start": 690.29,
      "duration": 3.99
    },
    {
      "text": "now she ends up in her late 30s the only",
      "start": 692.18,
      "duration": 4.92
    },
    {
      "text": "guys who didn't her guys whose kids are",
      "start": 694.28,
      "duration": 5.04
    },
    {
      "text": "grown who are 50 or older who don't want",
      "start": 697.1,
      "duration": 6.06
    },
    {
      "text": "have round two of kids because guy guys",
      "start": 699.32,
      "duration": 5.7
    },
    {
      "text": "their own age usually looking for",
      "start": 703.16,
      "duration": 3.48
    },
    {
      "text": "younger women right cuz you don't want",
      "start": 705.02,
      "duration": 3.36
    },
    {
      "text": "to date someone in their late thirties",
      "start": 706.64,
      "duration": 3.18
    },
    {
      "text": "because it's gonna be like a kind of",
      "start": 708.38,
      "duration": 3.99
    },
    {
      "text": "kids now down oh no it's alright let's",
      "start": 709.82,
      "duration": 7.17
    },
    {
      "text": "get to know you first do not bring the",
      "start": 712.37,
      "duration": 9.36
    },
    {
      "text": "pregnancy tester on the first date so",
      "start": 716.99,
      "duration": 6.45
    },
    {
      "text": "for men that particularly the men in",
      "start": 721.73,
      "duration": 4.77
    },
    {
      "text": "their 20s I mean it's a it's a buffet of",
      "start": 723.44,
      "duration": 7.85
    },
    {
      "text": "greco-roman delights out there as",
      "start": 726.5,
      "duration": 10.78
    },
    {
      "text": "opposed to what getting married",
      "start": 731.29,
      "duration": 12.66
    },
    {
      "text": "having kids and knowing that the woman",
      "start": 737.28,
      "duration": 8.26
    },
    {
      "text": "can pretty much at any time decide to",
      "start": 743.95,
      "duration": 4.23
    },
    {
      "text": "walk out and take you for everything",
      "start": 745.54,
      "duration": 7.13
    },
    {
      "text": "you've got forever",
      "start": 748.18,
      "duration": 7.62
    },
    {
      "text": "kill your chances of love of a second",
      "start": 752.67,
      "duration": 5.49
    },
    {
      "text": "family of fatherhood forget it",
      "start": 755.8,
      "duration": 5.22
    },
    {
      "text": "thanks but no thanks almost any way you",
      "start": 758.16,
      "duration": 4.21
    },
    {
      "text": "shake those dice they're gonna come up",
      "start": 761.02,
      "duration": 8.94
    },
    {
      "text": "snake eyes there goes another man's",
      "start": 762.37,
      "duration": 9.75
    },
    {
      "text": "heart into the volcano lava of status",
      "start": 769.96,
      "duration": 7.52
    },
    {
      "text": "marriage hmm well let's say that that",
      "start": 772.12,
      "duration": 10.08
    },
    {
      "text": "for some reason or maybe because this",
      "start": 777.48,
      "duration": 6.85
    },
    {
      "text": "man as a boy saw his own father has been",
      "start": 782.2,
      "duration": 4.08
    },
    {
      "text": "one of those rare fathers who had a",
      "start": 784.33,
      "duration": 6.12
    },
    {
      "text": "great time being a dad did have to work",
      "start": 786.28,
      "duration": 6.83
    },
    {
      "text": "like crazy wasn't him",
      "start": 790.45,
      "duration": 5.52
    },
    {
      "text": "Hawaii wasn't absent wasn't you know",
      "start": 793.11,
      "duration": 6.28
    },
    {
      "text": "threatened by divorce wasn't ya had it",
      "start": 795.97,
      "duration": 5.25
    },
    {
      "text": "fun had fun I enjoyed it and a relaxed",
      "start": 799.39,
      "duration": 2.79
    },
    {
      "text": "happy time being a dad",
      "start": 801.22,
      "duration": 3.57
    },
    {
      "text": "so he's like hey maybe you know my dad",
      "start": 802.18,
      "duration": 6.3
    },
    {
      "text": "had had fun well maybe uh maybe this",
      "start": 804.79,
      "duration": 5.46
    },
    {
      "text": "could be something for me epic kids's is",
      "start": 808.48,
      "duration": 4.59
    },
    {
      "text": "great if you if you can do it right like",
      "start": 810.25,
      "duration": 3.96
    },
    {
      "text": "marriage is great if you could do it",
      "start": 813.07,
      "duration": 5.52
    },
    {
      "text": "right the right person but they're just",
      "start": 814.21,
      "duration": 9.24
    },
    {
      "text": "so few great women around in my opinion",
      "start": 818.59,
      "duration": 10.53
    },
    {
      "text": "I say this having dated a lot wide",
      "start": 823.45,
      "duration": 8.37
    },
    {
      "text": "variety of cultures races I mean dated a",
      "start": 829.12,
      "duration": 11.88
    },
    {
      "text": "lot and it's really hard to be a parents",
      "start": 831.82,
      "duration": 10.8
    },
    {
      "text": "and do it right which is why you stay",
      "start": 841,
      "duration": 2.94
    },
    {
      "text": "home for the first couple of years at",
      "start": 842.62,
      "duration": 5.76
    },
    {
      "text": "least so let's say there's some guy",
      "start": 843.94,
      "duration": 7.95
    },
    {
      "text": "who's like yeah my dad's here's a great",
      "start": 848.38,
      "duration": 5.31
    },
    {
      "text": "time you know he was a stay-at-home",
      "start": 851.89,
      "duration": 3.63
    },
    {
      "text": "thumb painter and really enjoyed his",
      "start": 853.69,
      "duration": 5.94
    },
    {
      "text": "kids love my mom and so I'd like to do",
      "start": 855.52,
      "duration": 8.1
    },
    {
      "text": "that let's think about how it is",
      "start": 859.63,
      "duration": 5.97
    },
    {
      "text": "well-core taxes have gone up enormously",
      "start": 863.62,
      "duration": 3.6
    },
    {
      "text": "economic opportunity has gone down",
      "start": 865.6,
      "duration": 3.45
    },
    {
      "text": "housing prices have gone up food prices",
      "start": 867.22,
      "duration": 3.01
    },
    {
      "text": "gone up inflation",
      "start": 869.05,
      "duration": 3.37
    },
    {
      "text": "continues to escalate 25% over the last",
      "start": 870.23,
      "duration": 4.5
    },
    {
      "text": "couple of years alone in England as one",
      "start": 872.42,
      "duration": 7.32
    },
    {
      "text": "example Peter Schiff has pointed out",
      "start": 874.73,
      "duration": 6.87
    },
    {
      "text": "repeatedly that inflation is far above",
      "start": 879.74,
      "duration": 4.2
    },
    {
      "text": "the official estimates couple of points",
      "start": 881.6,
      "duration": 5.55
    },
    {
      "text": "is 10-15 percent right that ain't how",
      "start": 883.94,
      "duration": 9.12
    },
    {
      "text": "high your paychecks going quickly so man",
      "start": 887.15,
      "duration": 7.8
    },
    {
      "text": "looks ahead as well what I got look what",
      "start": 893.06,
      "duration": 7.2
    },
    {
      "text": "have I got to look forward to well if I",
      "start": 894.95,
      "duration": 8.43
    },
    {
      "text": "want the kind of life my parents had",
      "start": 900.26,
      "duration": 4.86
    },
    {
      "text": "then pretty much two people got to work",
      "start": 903.38,
      "duration": 3.81
    },
    {
      "text": "now let's see let me Mull this over so",
      "start": 905.12,
      "duration": 7.26
    },
    {
      "text": "if I get married have kids and my wife",
      "start": 907.19,
      "duration": 7.86
    },
    {
      "text": "and I both work what does that mean well",
      "start": 912.38,
      "duration": 3.81
    },
    {
      "text": "it means we got to drop the kids off at",
      "start": 915.05,
      "duration": 4.56
    },
    {
      "text": "daycare pretty early on maybe you get",
      "start": 916.19,
      "duration": 6.21
    },
    {
      "text": "six months maybe get a year one person",
      "start": 919.61,
      "duration": 7.74
    },
    {
      "text": "to stay home but then into the u.s. it's",
      "start": 922.4,
      "duration": 7.1
    },
    {
      "text": "like six weeks crazy",
      "start": 927.35,
      "duration": 4.62
    },
    {
      "text": "drop the kids off at daycare how's that",
      "start": 929.5,
      "duration": 4.57
    },
    {
      "text": "going to look let's see",
      "start": 931.97,
      "duration": 5.52
    },
    {
      "text": "well gotta kind of drop the kids off by",
      "start": 934.07,
      "duration": 4.74
    },
    {
      "text": "8:00 which means you got to get up at",
      "start": 937.49,
      "duration": 3.48
    },
    {
      "text": "6:00 6:30 get yourself ready get the",
      "start": 938.81,
      "duration": 3.93
    },
    {
      "text": "kids at breakfast and get dressed brush",
      "start": 940.97,
      "duration": 5.67
    },
    {
      "text": "your teeth comb their hair get in the",
      "start": 942.74,
      "duration": 6.21
    },
    {
      "text": "car remember everything don't freak out",
      "start": 946.64,
      "duration": 3.87
    },
    {
      "text": "don't panic kids are tired they don't",
      "start": 948.95,
      "duration": 4.14
    },
    {
      "text": "like to be rushed in frustrating like",
      "start": 950.51,
      "duration": 5.01
    },
    {
      "text": "trying to herd cats drop the kids off at",
      "start": 953.09,
      "duration": 5.61
    },
    {
      "text": "daycare drive to work I'm exhausted I've",
      "start": 955.52,
      "duration": 4.38
    },
    {
      "text": "already been up for three hours almost",
      "start": 958.7,
      "duration": 3.84
    },
    {
      "text": "by the time I get to work three",
      "start": 959.9,
      "duration": 4.59
    },
    {
      "text": "stressful hours and half a work day of",
      "start": 962.54,
      "duration": 5.99
    },
    {
      "text": "stress already shop at work work all day",
      "start": 964.49,
      "duration": 7.71
    },
    {
      "text": "and I pick up my kids got a sweat",
      "start": 968.53,
      "duration": 7.33
    },
    {
      "text": "through end of the day rush-hour traffic",
      "start": 972.2,
      "duration": 7.38
    },
    {
      "text": "gets the daycare on time get my kids",
      "start": 975.86,
      "duration": 7.53
    },
    {
      "text": "tired cranky hungry get them home my",
      "start": 979.58,
      "duration": 5.46
    },
    {
      "text": "wife's not home yet got to get something",
      "start": 983.39,
      "duration": 4.17
    },
    {
      "text": "to eat got to make some food no time to",
      "start": 985.04,
      "duration": 3.81
    },
    {
      "text": "play with the kids because they got to",
      "start": 987.56,
      "duration": 3
    },
    {
      "text": "eat then want to play with me their wine",
      "start": 988.85,
      "duration": 3.63
    },
    {
      "text": "either clingy because they haven't seen",
      "start": 990.56,
      "duration": 4.05
    },
    {
      "text": "me all day or their mom just been around",
      "start": 992.48,
      "duration": 5.58
    },
    {
      "text": "a bunch of minimum-wage transitional non",
      "start": 994.61,
      "duration": 7.62
    },
    {
      "text": "affection objects so my summer highlight",
      "start": 998.06,
      "duration": 6.3
    },
    {
      "text": "some food some food feed them I gotta",
      "start": 1002.23,
      "duration": 3.75
    },
    {
      "text": "get them to sit and eat their cranky",
      "start": 1004.36,
      "duration": 3.57
    },
    {
      "text": "tired annoyed don't want to eat don't",
      "start": 1005.98,
      "duration": 3.21
    },
    {
      "text": "like what I cook half the kids don't",
      "start": 1007.93,
      "duration": 4.29
    },
    {
      "text": "want the other half new ones try and",
      "start": 1009.19,
      "duration": 5.07
    },
    {
      "text": "feed them my wife comes home her work",
      "start": 1012.22,
      "duration": 2.67
    },
    {
      "text": "she's tired",
      "start": 1014.26,
      "duration": 2.9
    },
    {
      "text": "irritated stuck in traffic hot bothered",
      "start": 1014.89,
      "duration": 7.26
    },
    {
      "text": "like sore from long drive banks or like",
      "start": 1017.16,
      "duration": 7.21
    },
    {
      "text": "I guess they need a bath tonight Oh",
      "start": 1022.15,
      "duration": 4.53
    },
    {
      "text": "grater go I've round him up and if I",
      "start": 1024.37,
      "duration": 3.72
    },
    {
      "text": "haven't played with them barely talk to",
      "start": 1026.68,
      "duration": 4.92
    },
    {
      "text": "them rounded a bath read him a story try",
      "start": 1028.09,
      "duration": 8.67
    },
    {
      "text": "and get him to bed get him to bed nine",
      "start": 1031.6,
      "duration": 7.17
    },
    {
      "text": "o'clock and 8:30 whatever time finally",
      "start": 1036.76,
      "duration": 5.16
    },
    {
      "text": "get them all to bed and I what if I done",
      "start": 1038.77,
      "duration": 5.52
    },
    {
      "text": "played Chad with him haven't had relaxed",
      "start": 1041.92,
      "duration": 4.53
    },
    {
      "text": "enjoyable times together haven't watched",
      "start": 1044.29,
      "duration": 5.73
    },
    {
      "text": "a movie haven't learned how to do math",
      "start": 1046.45,
      "duration": 5.34
    },
    {
      "text": "it's just been hurting them hurting them",
      "start": 1050.02,
      "duration": 3
    },
    {
      "text": "the whole damn time when they don't want",
      "start": 1051.79,
      "duration": 5.34
    },
    {
      "text": "to be heard it hey tomorrow on the plus",
      "start": 1053.02,
      "duration": 5.34
    },
    {
      "text": "side we get to get up and do it all over",
      "start": 1057.13,
      "duration": 3.69
    },
    {
      "text": "again and on the weekends we get to run",
      "start": 1058.36,
      "duration": 5.25
    },
    {
      "text": "errands to buy your groceries hey your",
      "start": 1060.82,
      "duration": 6.45
    },
    {
      "text": "bells do your banking some I get to",
      "start": 1063.61,
      "duration": 5.58
    },
    {
      "text": "do my taxes maybe have to work to bring",
      "start": 1067.27,
      "duration": 6.18
    },
    {
      "text": "home on the weekend and that's my life",
      "start": 1069.19,
      "duration": 11.52
    },
    {
      "text": "oh my god oh my god bend over grab your",
      "start": 1073.45,
      "duration": 9.27
    },
    {
      "text": "toes boys there's the telephone pole of",
      "start": 1080.71,
      "duration": 4.32
    },
    {
      "text": "modern parenting coming coming to say hi",
      "start": 1082.72,
      "duration": 5.82
    },
    {
      "text": "and not with any lubrication and with",
      "start": 1085.03,
      "duration": 5.37
    },
    {
      "text": "plenty of slippers so listen that's not",
      "start": 1088.54,
      "duration": 3.48
    },
    {
      "text": "I mean it doesn't take brain surgery to",
      "start": 1090.4,
      "duration": 5.22
    },
    {
      "text": "figure out a modern parenting mostly",
      "start": 1092.02,
      "duration": 5.06
    },
    {
      "text": "sucks",
      "start": 1095.62,
      "duration": 4.35
    },
    {
      "text": "Martin statist marriage is a man trap of",
      "start": 1097.08,
      "duration": 5.65
    },
    {
      "text": "truly biblically destructive proportions",
      "start": 1099.97,
      "duration": 5.01
    },
    {
      "text": "for your self-esteem health finances",
      "start": 1102.73,
      "duration": 5.31
    },
    {
      "text": "future opportunities I mean you try try",
      "start": 1104.98,
      "duration": 4.62
    },
    {
      "text": "being a guy in your 40s",
      "start": 1108.04,
      "duration": 6.27
    },
    {
      "text": "try to meet a woman yeah I'm divorced I",
      "start": 1109.6,
      "duration": 7.47
    },
    {
      "text": "pay about three-quarters of my take-home",
      "start": 1114.31,
      "duration": 7.38
    },
    {
      "text": "pay to my ex-wife and the kids and broke",
      "start": 1117.07,
      "duration": 8.54
    },
    {
      "text": "got no money to start a new family Hey",
      "start": 1121.69,
      "duration": 10.86
    },
    {
      "text": "would you like to go on a date no come",
      "start": 1125.61,
      "duration": 8.58
    },
    {
      "text": "back",
      "start": 1132.55,
      "duration": 5.25
    },
    {
      "text": "welcome to your next 15 years Oh",
      "start": 1134.19,
      "duration": 6.4
    },
    {
      "text": "I mean you might as well be a pimply",
      "start": 1137.8,
      "duration": 8.01
    },
    {
      "text": "teenager again oh and also when the kids",
      "start": 1140.59,
      "duration": 6.99
    },
    {
      "text": "go to school you get the great fun of",
      "start": 1145.81,
      "duration": 3.81
    },
    {
      "text": "paying for after-school programs of this",
      "start": 1147.58,
      "duration": 4.89
    },
    {
      "text": "now the other and then of course by the",
      "start": 1149.62,
      "duration": 4.17
    },
    {
      "text": "time the kids are in school they're sort",
      "start": 1152.47,
      "duration": 3.48
    },
    {
      "text": "of four or five or six he's not really",
      "start": 1153.79,
      "duration": 3.54
    },
    {
      "text": "spent much time with them other than",
      "start": 1155.95,
      "duration": 2.49
    },
    {
      "text": "hurting them here and they just you",
      "start": 1157.33,
      "duration": 3.81
    },
    {
      "text": "become like a cattle prod zookeeper just",
      "start": 1158.44,
      "duration": 4.89
    },
    {
      "text": "trying to get it from a to b from the",
      "start": 1161.14,
      "duration": 3.66
    },
    {
      "text": "car to the dinner table from the dinner",
      "start": 1163.33,
      "duration": 2.94
    },
    {
      "text": "table to the bath from the bath to the",
      "start": 1164.8,
      "duration": 3.72
    },
    {
      "text": "bed you just dis asshole with a cattle",
      "start": 1166.27,
      "duration": 4.02
    },
    {
      "text": "prod saying how my up come on focus do",
      "start": 1168.52,
      "duration": 3.24
    },
    {
      "text": "this do that to the other come on we're",
      "start": 1170.29,
      "duration": 3.03
    },
    {
      "text": "late oh my god will you stop putting",
      "start": 1171.76,
      "duration": 2.58
    },
    {
      "text": "that to play that down drop your",
      "start": 1173.32,
      "duration": 4.41
    },
    {
      "text": "Campanella oh yeah oh my god I'll pay",
      "start": 1174.34,
      "duration": 5.76
    },
    {
      "text": "good money to be a asshole for the next",
      "start": 1177.73,
      "duration": 4.55
    },
    {
      "text": "five years",
      "start": 1180.1,
      "duration": 2.18
    },
    {
      "text": "by the time they go to school I mean",
      "start": 1182.88,
      "duration": 4.48
    },
    {
      "text": "what relationship do they have with",
      "start": 1185.74,
      "duration": 5.97
    },
    {
      "text": "their parents my parents has just seized",
      "start": 1187.36,
      "duration": 6.57
    },
    {
      "text": "told people who order them around and it",
      "start": 1191.71,
      "duration": 4.86
    },
    {
      "text": "stressed all the time oh I want that",
      "start": 1193.93,
      "duration": 4.95
    },
    {
      "text": "I'll pay you know quarter million",
      "start": 1196.57,
      "duration": 3.96
    },
    {
      "text": "dollars per kid to raise them to the age",
      "start": 1198.88,
      "duration": 4.32
    },
    {
      "text": "of 18 to get that kind of wonderful",
      "start": 1200.53,
      "duration": 6.99
    },
    {
      "text": "goodness as opposed to being able to",
      "start": 1203.2,
      "duration": 6.93
    },
    {
      "text": "travel sleeping on weekends quit my job",
      "start": 1207.52,
      "duration": 6.48
    },
    {
      "text": "if I feel like it enjoy all the media",
      "start": 1210.13,
      "duration": 8.43
    },
    {
      "text": "opportunities of computer games meals",
      "start": 1214,
      "duration": 8.94
    },
    {
      "text": "out oh yeah oh yeah oh yeah fatherhood",
      "start": 1218.56,
      "duration": 6.48
    },
    {
      "text": "looks like a huge smoking crater of",
      "start": 1222.94,
      "duration": 4.11
    },
    {
      "text": "future happiness from that standpoint",
      "start": 1225.04,
      "duration": 5.31
    },
    {
      "text": "from any standpoint really now I mean",
      "start": 1227.05,
      "duration": 4.77
    },
    {
      "text": "the government of course hugely profited",
      "start": 1230.35,
      "duration": 2.82
    },
    {
      "text": "from getting women with the workforce",
      "start": 1231.82,
      "duration": 4.8
    },
    {
      "text": "and ambitious women who didn't want to",
      "start": 1233.17,
      "duration": 4.95
    },
    {
      "text": "get married profited from driving and",
      "start": 1236.62,
      "duration": 2.76
    },
    {
      "text": "women to workforce because they",
      "start": 1238.12,
      "duration": 2.46
    },
    {
      "text": "generally can't compete with men who",
      "start": 1239.38,
      "duration": 2.4
    },
    {
      "text": "have wives so they want to get those",
      "start": 1240.58,
      "duration": 6.18
    },
    {
      "text": "wires into the workforce so oh my god",
      "start": 1241.78,
      "duration": 6.96
    },
    {
      "text": "now let's say that you can get a wife",
      "start": 1246.76,
      "duration": 3.6
    },
    {
      "text": "who wants to stay home maybe your",
      "start": 1248.74,
      "duration": 3.42
    },
    {
      "text": "husband stays home whatever right your",
      "start": 1250.36,
      "duration": 3.989
    },
    {
      "text": "wife wants to stay home",
      "start": 1252.16,
      "duration": 4.749
    },
    {
      "text": "well that might work out except of",
      "start": 1254.349,
      "duration": 4.33
    },
    {
      "text": "course she's got everyone in there dog",
      "start": 1256.909,
      "duration": 3.921
    },
    {
      "text": "telling her that she's not working and",
      "start": 1258.679,
      "duration": 6.151
    },
    {
      "text": "she's not fulfilled she's not ambitious",
      "start": 1260.83,
      "duration": 7.559
    },
    {
      "text": "she's betraying feminism rain pouring",
      "start": 1264.83,
      "duration": 9.24
    },
    {
      "text": "endless Hamlet e'en discontented Paula",
      "start": 1268.389,
      "duration": 7.75
    },
    {
      "text": "syllabic nonsense into her ears and then",
      "start": 1274.07,
      "duration": 4.139
    },
    {
      "text": "she may decide it to leave you and if",
      "start": 1276.139,
      "duration": 4.051
    },
    {
      "text": "she's stay-at-home mom oh my god talk",
      "start": 1278.209,
      "duration": 3.54
    },
    {
      "text": "about smoking crater of finances in",
      "start": 1280.19,
      "duration": 3.239
    },
    {
      "text": "future widen it and make it as deep as",
      "start": 1281.749,
      "duration": 4.321
    },
    {
      "text": "Mariana Trench and have goblins and lava",
      "start": 1283.429,
      "duration": 3.57
    },
    {
      "text": "pouring out of it",
      "start": 1286.07,
      "duration": 3.63
    },
    {
      "text": "if a stay-at-home wife divorces you cuz",
      "start": 1286.999,
      "duration": 4.71
    },
    {
      "text": "oh my god I mean you just complete the",
      "start": 1289.7,
      "duration": 5.339
    },
    {
      "text": "test like Paul McCartney crying because",
      "start": 1291.709,
      "duration": 4.741
    },
    {
      "text": "that one-legged wonder took him for like",
      "start": 1295.039,
      "duration": 3.05
    },
    {
      "text": "a hundred and fifty million dollars oh",
      "start": 1296.45,
      "duration": 4.829
    },
    {
      "text": "my god that's even more risky in many",
      "start": 1298.089,
      "duration": 6.88
    },
    {
      "text": "ways should she become discontent it",
      "start": 1301.279,
      "duration": 5.671
    },
    {
      "text": "should she become upset should she meet",
      "start": 1304.969,
      "duration": 6.66
    },
    {
      "text": "someone she likes more should she want",
      "start": 1306.95,
      "duration": 6.539
    },
    {
      "text": "to crank up the feminine hypergamy",
      "start": 1311.629,
      "duration": 4.2
    },
    {
      "text": "bicycle up the hill of men with",
      "start": 1313.489,
      "duration": 3.3
    },
    {
      "text": "additional resources",
      "start": 1315.829,
      "duration": 7.8
    },
    {
      "text": "well you're toast how how much of a",
      "start": 1316.789,
      "duration": 8.34
    },
    {
      "text": "presence how firm can you be how manly",
      "start": 1323.629,
      "duration": 2.97
    },
    {
      "text": "can you be how assertive can you be",
      "start": 1325.129,
      "duration": 3.9
    },
    {
      "text": "knowing that she's standing on a grenade",
      "start": 1326.599,
      "duration": 5.43
    },
    {
      "text": "that blows up your next 20 years should",
      "start": 1329.029,
      "duration": 6.81
    },
    {
      "text": "she not be happy until you become",
      "start": 1332.029,
      "duration": 5.49
    },
    {
      "text": "deferential you become obsequious and",
      "start": 1335.839,
      "duration": 3.06
    },
    {
      "text": "course that becomes a self-fulfilling",
      "start": 1337.519,
      "duration": 4.681
    },
    {
      "text": "prophecy she ain't gonna be happy if",
      "start": 1338.899,
      "duration": 9.33
    },
    {
      "text": "you're doting last weakness right women",
      "start": 1342.2,
      "duration": 8.49
    },
    {
      "text": "not biologically programmed to respond",
      "start": 1348.229,
      "duration": 4.68
    },
    {
      "text": "well to weakness said because weakness",
      "start": 1350.69,
      "duration": 5.399
    },
    {
      "text": "means no resources which means can't",
      "start": 1352.909,
      "duration": 5.13
    },
    {
      "text": "race or have kids won't be protected",
      "start": 1356.089,
      "duration": 3.54
    },
    {
      "text": "during the vulnerable times of pregnancy",
      "start": 1358.039,
      "duration": 3.24
    },
    {
      "text": "and breastfeeding which last for decades",
      "start": 1359.629,
      "duration": 5.73
    },
    {
      "text": "least historically they did what",
      "start": 1361.279,
      "duration": 5.28
    },
    {
      "text": "governments made a fortune this is all",
      "start": 1365.359,
      "duration": 2.55
    },
    {
      "text": "this the that governments do right",
      "start": 1366.559,
      "duration": 3.42
    },
    {
      "text": "I mean they pursue these social policies",
      "start": 1367.909,
      "duration": 4.291
    },
    {
      "text": "that make massive amounts of money in",
      "start": 1369.979,
      "duration": 3.44
    },
    {
      "text": "the short run for the government",
      "start": 1372.2,
      "duration": 3.12
    },
    {
      "text": "government drives women into the",
      "start": 1373.419,
      "duration": 3.58
    },
    {
      "text": "workforce I get to tax some contacts I",
      "start": 1375.32,
      "duration": 3.179
    },
    {
      "text": "stay at home on tax woman in the",
      "start": 1376.999,
      "duration": 3.451
    },
    {
      "text": "workforce and then you can tax the",
      "start": 1378.499,
      "duration": 4.66
    },
    {
      "text": "people who take care of the kid right",
      "start": 1380.45,
      "duration": 7.929
    },
    {
      "text": "they can't work it all that mayonnaise",
      "start": 1383.159,
      "duration": 7.9
    },
    {
      "text": "it's just the next generation right this",
      "start": 1388.379,
      "duration": 4.54
    },
    {
      "text": "is where government policies that are",
      "start": 1391.059,
      "duration": 3.06
    },
    {
      "text": "the most destructive show up like",
      "start": 1392.919,
      "duration": 2.64
    },
    {
      "text": "national debts I mean it's a generation",
      "start": 1394.119,
      "duration": 3.81
    },
    {
      "text": "or two but by the time they show up it's",
      "start": 1395.559,
      "duration": 8.22
    },
    {
      "text": "freakin disastrous it's frickin",
      "start": 1397.929,
      "duration": 10.911
    },
    {
      "text": "disastrous now I mean I did it right",
      "start": 1403.779,
      "duration": 8.161
    },
    {
      "text": "partly by planning partly by choice",
      "start": 1408.84,
      "duration": 5.85
    },
    {
      "text": "partly by some good fortune and",
      "start": 1411.94,
      "duration": 5.25
    },
    {
      "text": "certainly a lot to do with your support",
      "start": 1414.69,
      "duration": 6.55
    },
    {
      "text": "of this show but I get to be home I can",
      "start": 1417.19,
      "duration": 7.92
    },
    {
      "text": "work when my daughter goes to bed I'm",
      "start": 1421.24,
      "duration": 6.87
    },
    {
      "text": "home with her that's wonderful that's",
      "start": 1425.11,
      "duration": 4.74
    },
    {
      "text": "what it is what it's all about so I",
      "start": 1428.11,
      "duration": 4.38
    },
    {
      "text": "supposed to be all about one you don't",
      "start": 1429.85,
      "duration": 4.079
    },
    {
      "text": "get married to move away and you don't",
      "start": 1432.49,
      "duration": 2.819
    },
    {
      "text": "have kids to send them away one tells",
      "start": 1433.929,
      "duration": 6.21
    },
    {
      "text": "the point of that that's too late to",
      "start": 1435.309,
      "duration": 6.181
    },
    {
      "text": "reverse this stuff I mean it'll take at",
      "start": 1440.139,
      "duration": 3.27
    },
    {
      "text": "least one generation of happy dads for",
      "start": 1441.49,
      "duration": 3.179
    },
    {
      "text": "the next generation to even consider it",
      "start": 1443.409,
      "duration": 3.181
    },
    {
      "text": "but I can completely understand why",
      "start": 1444.669,
      "duration": 3.901
    },
    {
      "text": "young men these days are like whoa thank",
      "start": 1446.59,
      "duration": 6.12
    },
    {
      "text": "you I think I'll pass on that a joyful",
      "start": 1448.57,
      "duration": 7.38
    },
    {
      "text": "mantrap which is about waist height and",
      "start": 1452.71,
      "duration": 5.64
    },
    {
      "text": "heavily serrated I think I think I will",
      "start": 1455.95,
      "duration": 6.209
    },
    {
      "text": "pass and thus of course fastest passes",
      "start": 1458.35,
      "duration": 7.11
    },
    {
      "text": "Western civilization FDR URL Todd camp",
      "start": 1462.159,
      "duration": 6.24
    },
    {
      "text": "forward slash donate if you find this",
      "start": 1465.46,
      "duration": 4.199
    },
    {
      "text": "stuff helpful and useful thank you so",
      "start": 1468.399,
      "duration": 4.311
    },
    {
      "text": "much my friends I'll talk to you soon",
      "start": 1469.659,
      "duration": 3.051
    },
    {
      "text": "you",
      "start": 1499.539,
      "duration": 2.061
    }
  ],
  "Errors": null,
  "TranscriptStderr": null
}