{
  "Title": "HOW WE KNOW",
  "Id": "e3OAzCGEz3c",
  "Transcript": [
    {
      "text": "hi everybody suspend molyneux from",
      "start": 0,
      "duration": 2.429
    },
    {
      "text": "freedomain radio I hope you're doing",
      "start": 1.38,
      "duration": 3.899
    },
    {
      "text": "well let's do today's daily argument",
      "start": 2.429,
      "duration": 5.151
    },
    {
      "text": "about concept formations it's incredible",
      "start": 5.279,
      "duration": 7.591
    },
    {
      "text": "ability that you have to identify new",
      "start": 7.58,
      "duration": 7.99
    },
    {
      "text": "stuff based on old stuff look at a tree",
      "start": 12.87,
      "duration": 3.96
    },
    {
      "text": "you've never seen before",
      "start": 15.57,
      "duration": 3.869
    },
    {
      "text": "identify the tree identify its age if",
      "start": 16.83,
      "duration": 4.56
    },
    {
      "text": "you're like an expert arborist its type",
      "start": 19.439,
      "duration": 4.561
    },
    {
      "text": "and so on it's really an amazing feature",
      "start": 21.39,
      "duration": 5.16
    },
    {
      "text": "of the brain and it's mostly unconscious",
      "start": 24,
      "duration": 5.039
    },
    {
      "text": "we look we see we identify this happens",
      "start": 26.55,
      "duration": 5.1
    },
    {
      "text": "instantaneously and it happens really at",
      "start": 29.039,
      "duration": 4.531
    },
    {
      "text": "the level of the subconscious right I",
      "start": 31.65,
      "duration": 4.409
    },
    {
      "text": "mean the subconscious has been shown in",
      "start": 33.57,
      "duration": 4.98
    },
    {
      "text": "some instances to have a processing",
      "start": 36.059,
      "duration": 5.311
    },
    {
      "text": "power 8,000 times faster than the",
      "start": 38.55,
      "duration": 4.62
    },
    {
      "text": "conscious mind which is amazing there",
      "start": 41.37,
      "duration": 3.599
    },
    {
      "text": "tons of experiments where people who",
      "start": 43.17,
      "duration": 4.049
    },
    {
      "text": "don't have any abstract mathematical or",
      "start": 44.969,
      "duration": 4.531
    },
    {
      "text": "advanced mathematical abilities when",
      "start": 47.219,
      "duration": 4.41
    },
    {
      "text": "given a social problem about the",
      "start": 49.5,
      "duration": 5.07
    },
    {
      "text": "fairness of distribution understand the",
      "start": 51.629,
      "duration": 4.651
    },
    {
      "text": "correct way to do things in a moment",
      "start": 54.57,
      "duration": 4.61
    },
    {
      "text": "just based upon the the subconscious so",
      "start": 56.28,
      "duration": 7.279
    },
    {
      "text": "this capacity we have to identify new",
      "start": 59.18,
      "duration": 7.54
    },
    {
      "text": "entities new items and to categorize",
      "start": 63.559,
      "duration": 5.711
    },
    {
      "text": "them automatically incredibly rapidly",
      "start": 66.72,
      "duration": 5.43
    },
    {
      "text": "and so on like you don't look up in the",
      "start": 69.27,
      "duration": 5.01
    },
    {
      "text": "sky and you see an airplane maybe the",
      "start": 72.15,
      "duration": 3.24
    },
    {
      "text": "kind you haven't seen before like a",
      "start": 74.28,
      "duration": 3
    },
    {
      "text": "biplane you don't say what is that I",
      "start": 75.39,
      "duration": 3.15
    },
    {
      "text": "mean you understand of the plane with",
      "start": 77.28,
      "duration": 1.65
    },
    {
      "text": "doing",
      "start": 78.54,
      "duration": 2.7
    },
    {
      "text": "it's an incredible feature now I don't",
      "start": 78.93,
      "duration": 3.42
    },
    {
      "text": "make the case that there are three",
      "start": 81.24,
      "duration": 3.66
    },
    {
      "text": "reasons why we can do this then and this",
      "start": 82.35,
      "duration": 5.28
    },
    {
      "text": "is a pretty pretty wild I think when you",
      "start": 84.9,
      "duration": 6.179
    },
    {
      "text": "get it and two of them applies to non",
      "start": 87.63,
      "duration": 6.54
    },
    {
      "text": "organic entities and one applies to",
      "start": 91.079,
      "duration": 6.15
    },
    {
      "text": "organic entities so the first is if we",
      "start": 94.17,
      "duration": 4.5
    },
    {
      "text": "look at inorganic entities to think of",
      "start": 97.229,
      "duration": 3.541
    },
    {
      "text": "like a rock on the road",
      "start": 98.67,
      "duration": 4.62
    },
    {
      "text": "if you old enough you you look you see",
      "start": 100.77,
      "duration": 4.139
    },
    {
      "text": "oh that's a rock right don't hit that",
      "start": 103.29,
      "duration": 3.42
    },
    {
      "text": "rock you say if you're bicycling and",
      "start": 104.909,
      "duration": 3.24
    },
    {
      "text": "someone is behind you and you see one of",
      "start": 106.71,
      "duration": 4.14
    },
    {
      "text": "them on the path so the reason that we",
      "start": 108.149,
      "duration": 4.561
    },
    {
      "text": "can identify that is because of atoms",
      "start": 110.85,
      "duration": 5.49
    },
    {
      "text": "and physical laws atoms and physical",
      "start": 112.71,
      "duration": 7.32
    },
    {
      "text": "laws so if you saw rock floating in the",
      "start": 116.34,
      "duration": 5.58
    },
    {
      "text": "air and I had a I had a friend when I",
      "start": 120.03,
      "duration": 3.18
    },
    {
      "text": "was younger when I first started to get",
      "start": 121.92,
      "duration": 2.4
    },
    {
      "text": "into sort of rational empirical",
      "start": 123.21,
      "duration": 3.919
    },
    {
      "text": "philosophy I had a friend who was",
      "start": 124.32,
      "duration": 6.18
    },
    {
      "text": "scathingly corrosive Lee relativistic",
      "start": 127.129,
      "duration": 4.581
    },
    {
      "text": "and subject subject",
      "start": 130.5,
      "duration": 3.1
    },
    {
      "text": "mystic and really just became an",
      "start": 131.71,
      "duration": 3.9
    },
    {
      "text": "out-and-out nihilist and he he said you",
      "start": 133.6,
      "duration": 4.64
    },
    {
      "text": "know he said oh you're so much into this",
      "start": 135.61,
      "duration": 4.53
    },
    {
      "text": "objectivism and you're so much into this",
      "start": 138.24,
      "duration": 3.49
    },
    {
      "text": "objectivity and you so much into this",
      "start": 140.14,
      "duration": 3.21
    },
    {
      "text": "rationality he says I can't wait until",
      "start": 141.73,
      "duration": 3.69
    },
    {
      "text": "the day when you let go of a ball and it",
      "start": 143.35,
      "duration": 4.08
    },
    {
      "text": "just floats to the air and he really",
      "start": 145.42,
      "duration": 3.72
    },
    {
      "text": "wanted me to live in an insane universe",
      "start": 147.43,
      "duration": 4.23
    },
    {
      "text": "rather than admit that he might be wrong",
      "start": 149.14,
      "duration": 4.98
    },
    {
      "text": "about being idealistic well there's a",
      "start": 151.66,
      "duration": 3.99
    },
    {
      "text": "friendship that's deep in the review for",
      "start": 154.12,
      "duration": 4.56
    },
    {
      "text": "obvious reasons I try not to get the",
      "start": 155.65,
      "duration": 4.5
    },
    {
      "text": "socially transmitted disease called",
      "start": 158.68,
      "duration": 3.87
    },
    {
      "text": "nihilism it's really really a one-way",
      "start": 160.15,
      "duration": 7.08
    },
    {
      "text": "brain right but if you saw a rock",
      "start": 162.55,
      "duration": 6.47
    },
    {
      "text": "floating in the air you you wouldn't",
      "start": 167.23,
      "duration": 5.55
    },
    {
      "text": "know what it was right you'd say well",
      "start": 169.02,
      "duration": 7.03
    },
    {
      "text": "this is some kind of drone is there some",
      "start": 172.78,
      "duration": 5.94
    },
    {
      "text": "magnetic thing that's going on is it is",
      "start": 176.05,
      "duration": 4.68
    },
    {
      "text": "it hung from a thread is it some kind of",
      "start": 178.72,
      "duration": 4.26
    },
    {
      "text": "practical joke like you'd say well this",
      "start": 180.73,
      "duration": 6.72
    },
    {
      "text": "can't be a rock right does it life",
      "start": 182.98,
      "duration": 7.26
    },
    {
      "text": "doesn't work that way and so because the",
      "start": 187.45,
      "duration": 4.77
    },
    {
      "text": "rock is composed of atoms with",
      "start": 190.24,
      "duration": 3.87
    },
    {
      "text": "particular properties and because the",
      "start": 192.22,
      "duration": 3.66
    },
    {
      "text": "rock is subject to universal and",
      "start": 194.11,
      "duration": 3.87
    },
    {
      "text": "objective physical laws we know what",
      "start": 195.88,
      "duration": 5.49
    },
    {
      "text": "something is I mean if the properties",
      "start": 197.98,
      "duration": 4.68
    },
    {
      "text": "and behaviors of matter and energy",
      "start": 201.37,
      "duration": 3.9
    },
    {
      "text": "changed from day to day we would not be",
      "start": 202.66,
      "duration": 4.32
    },
    {
      "text": "able to develop any stable concepts in",
      "start": 205.27,
      "duration": 3.62
    },
    {
      "text": "the same way like if you can imagine",
      "start": 206.98,
      "duration": 4.44
    },
    {
      "text": "doing a presentation at a scientific",
      "start": 208.89,
      "duration": 5.4
    },
    {
      "text": "conference called the physics of dreams",
      "start": 211.42,
      "duration": 5.25
    },
    {
      "text": "anyway that's sort of like a leftist",
      "start": 214.29,
      "duration": 4.51
    },
    {
      "text": "budget but anyway the it wouldn't make",
      "start": 216.67,
      "duration": 3.6
    },
    {
      "text": "any sense because they tables there are",
      "start": 218.8,
      "duration": 2.82
    },
    {
      "text": "no physics in dreams that's kind of one",
      "start": 220.27,
      "duration": 2.88
    },
    {
      "text": "of the ways you know that they're dreams",
      "start": 221.62,
      "duration": 3.9
    },
    {
      "text": "rather than waking reality because you",
      "start": 223.15,
      "duration": 4.8
    },
    {
      "text": "can fly you can breathe underwater or",
      "start": 225.52,
      "duration": 3.72
    },
    {
      "text": "you can do somersaults in the air",
      "start": 227.95,
      "duration": 2.88
    },
    {
      "text": "forever and so at least stuff goes on",
      "start": 229.24,
      "duration": 1.95
    },
    {
      "text": "and on",
      "start": 230.83,
      "duration": 5.19
    },
    {
      "text": "and so because matter and energy behave",
      "start": 231.19,
      "duration": 7.38
    },
    {
      "text": "in stable ways because atoms have",
      "start": 236.02,
      "duration": 4.35
    },
    {
      "text": "properties that are replicated and",
      "start": 238.57,
      "duration": 3.6
    },
    {
      "text": "consistent across the universe we can",
      "start": 240.37,
      "duration": 4.41
    },
    {
      "text": "develop concepts concepts are the",
      "start": 242.17,
      "duration": 4.41
    },
    {
      "text": "greatest abstractions identifying the",
      "start": 244.78,
      "duration": 6
    },
    {
      "text": "behavior fundamentally of atoms and the",
      "start": 246.58,
      "duration": 6.12
    },
    {
      "text": "way that physical laws operate on those",
      "start": 250.78,
      "duration": 5.07
    },
    {
      "text": "atoms so you would never expect to see",
      "start": 252.7,
      "duration": 5.43
    },
    {
      "text": "just a rock floating in the air as you",
      "start": 255.85,
      "duration": 4.83
    },
    {
      "text": "are walking along I mean if you did",
      "start": 258.13,
      "duration": 4.95
    },
    {
      "text": "you'd either be dreaming or crazy or the",
      "start": 260.68,
      "duration": 3.87
    },
    {
      "text": "subject of some elaborate practical joke",
      "start": 263.08,
      "duration": 2.25
    },
    {
      "text": "or some",
      "start": 264.55,
      "duration": 3.06
    },
    {
      "text": "like that and of course this is what",
      "start": 265.33,
      "duration": 4.23
    },
    {
      "text": "magicians do you know this annoying guys",
      "start": 267.61,
      "duration": 3.75
    },
    {
      "text": "you're like fools ya fools a fool a fool",
      "start": 269.56,
      "duration": 3.18
    },
    {
      "text": "integers want to punch them in the head",
      "start": 271.36,
      "duration": 4.95
    },
    {
      "text": "man and a P I know but it's okay",
      "start": 272.74,
      "duration": 5.79
    },
    {
      "text": "exceptions for clowns and magicians but",
      "start": 276.31,
      "duration": 6.3
    },
    {
      "text": "anyway so magicians are constantly doing",
      "start": 278.53,
      "duration": 5.789
    },
    {
      "text": "this you know it's loaded you here or",
      "start": 282.61,
      "duration": 6.69
    },
    {
      "text": "I've got a hoop going around it so with",
      "start": 284.319,
      "duration": 6.451
    },
    {
      "text": "our guys had my prejudices as well of",
      "start": 289.3,
      "duration": 3.26
    },
    {
      "text": "class but Jo",
      "start": 290.77,
      "duration": 4.53
    },
    {
      "text": "so because atoms behave in stable ways",
      "start": 292.56,
      "duration": 4.659
    },
    {
      "text": "and because the laws of physics are",
      "start": 295.3,
      "duration": 3.359
    },
    {
      "text": "universal and predictable and consistent",
      "start": 297.219,
      "duration": 3.901
    },
    {
      "text": "we can develop concepts now this is all",
      "start": 298.659,
      "duration": 4.56
    },
    {
      "text": "for inorganic things like just matter",
      "start": 301.12,
      "duration": 5.18
    },
    {
      "text": "but there's something different about",
      "start": 303.219,
      "duration": 6
    },
    {
      "text": "organics and I'm just looking at a tree",
      "start": 306.3,
      "duration": 4.089
    },
    {
      "text": "at the moment and of course the tree",
      "start": 309.219,
      "duration": 3.211
    },
    {
      "text": "pops into my mind and and now you're",
      "start": 310.389,
      "duration": 4.58
    },
    {
      "text": "basically an Alana's translator",
      "start": 312.43,
      "duration": 5.84
    },
    {
      "text": "sexually you know socially transmitted",
      "start": 314.969,
      "duration": 8.35
    },
    {
      "text": "deontological concept anyway so when you",
      "start": 318.27,
      "duration": 6.82
    },
    {
      "text": "think of a tree one of the reasons you",
      "start": 323.319,
      "duration": 4.741
    },
    {
      "text": "identify it as a tree is that you can",
      "start": 325.09,
      "duration": 6.21
    },
    {
      "text": "see its purpose so if I mean you know a",
      "start": 328.06,
      "duration": 5.039
    },
    {
      "text": "tree needs light right so if you came",
      "start": 331.3,
      "duration": 6.149
    },
    {
      "text": "across some static matter of static",
      "start": 333.099,
      "duration": 5.731
    },
    {
      "text": "types or like a net for which which one",
      "start": 337.449,
      "duration": 3.09
    },
    {
      "text": "goes out that looks just like a tree",
      "start": 338.83,
      "duration": 3.42
    },
    {
      "text": "it's in a cave if you'd know it wasn't a",
      "start": 340.539,
      "duration": 3.78
    },
    {
      "text": "tree because there's no no light there's",
      "start": 342.25,
      "duration": 3.93
    },
    {
      "text": "no sunlight for the tree to perform it's",
      "start": 344.319,
      "duration": 5.641
    },
    {
      "text": "what photosynthesis on and so trees and",
      "start": 346.18,
      "duration": 5.729
    },
    {
      "text": "bushes and plants and worms",
      "start": 349.96,
      "duration": 5.129
    },
    {
      "text": "they have a purpose now trees don't move",
      "start": 351.909,
      "duration": 4.801
    },
    {
      "text": "in any generally physical way other than",
      "start": 355.089,
      "duration": 6.11
    },
    {
      "text": "you know through through the wind but",
      "start": 356.71,
      "duration": 7.44
    },
    {
      "text": "this but in dead trees will do that too",
      "start": 361.199,
      "duration": 4.96
    },
    {
      "text": "but trees have a purpose and when you go",
      "start": 364.15,
      "duration": 3.93
    },
    {
      "text": "into a forest of course you see that you",
      "start": 366.159,
      "duration": 3.12
    },
    {
      "text": "know the trees are striving for the",
      "start": 368.08,
      "duration": 3.209
    },
    {
      "text": "sunlight and and so on where where a",
      "start": 369.279,
      "duration": 3.69
    },
    {
      "text": "tree has fallen and a gap has opened up",
      "start": 371.289,
      "duration": 3.331
    },
    {
      "text": "in the canopy you can see that the new",
      "start": 372.969,
      "duration": 3.781
    },
    {
      "text": "trees sprouting up and thirsting for the",
      "start": 374.62,
      "duration": 4.229
    },
    {
      "text": "sunlight so trees have a purpose and it",
      "start": 376.75,
      "duration": 3.779
    },
    {
      "text": "is that purpose that helps us identify",
      "start": 378.849,
      "duration": 6.18
    },
    {
      "text": "things as well and so a worm has a",
      "start": 380.529,
      "duration": 6.841
    },
    {
      "text": "purpose and human being has a purpose",
      "start": 385.029,
      "duration": 4.221
    },
    {
      "text": "and a chipmunk has a purpose and",
      "start": 387.37,
      "duration": 4.71
    },
    {
      "text": "generally it's you know eat then get",
      "start": 389.25,
      "duration": 7.11
    },
    {
      "text": "laid that's generally a frat boy so this",
      "start": 392.08,
      "duration": 6.479
    },
    {
      "text": "reality that",
      "start": 396.36,
      "duration": 4.059
    },
    {
      "text": "we have inorganic matter that has",
      "start": 398.559,
      "duration": 4.65
    },
    {
      "text": "consistent atomic and physical law",
      "start": 400.419,
      "duration": 5.04
    },
    {
      "text": "behavior we have animal matter which",
      "start": 403.209,
      "duration": 4.92
    },
    {
      "text": "also has consistent atomic and physical",
      "start": 405.459,
      "duration": 5.04
    },
    {
      "text": "law behavior but also has its own",
      "start": 408.129,
      "duration": 4.8
    },
    {
      "text": "purpose as well in jellyfish and we can",
      "start": 410.499,
      "duration": 4.62
    },
    {
      "text": "look at bacteria under a microscope they",
      "start": 412.929,
      "duration": 4.02
    },
    {
      "text": "have their purpose and so on mitosis",
      "start": 415.119,
      "duration": 3.09
    },
    {
      "text": "meiosis you can see all of this stuff",
      "start": 416.949,
      "duration": 4.77
    },
    {
      "text": "going on so entities which have a",
      "start": 418.209,
      "duration": 7.92
    },
    {
      "text": "purpose also fall into a category of",
      "start": 421.719,
      "duration": 6.72
    },
    {
      "text": "easily identifiable and I know that",
      "start": 426.129,
      "duration": 3.6
    },
    {
      "text": "there's some fuzzy boundaries around the",
      "start": 428.439,
      "duration": 2.61
    },
    {
      "text": "definition of what is alive and what",
      "start": 429.729,
      "duration": 4.5
    },
    {
      "text": "it's not alive but in general we we were",
      "start": 431.049,
      "duration": 5.99
    },
    {
      "text": "pretty we pretty clear of it you know",
      "start": 434.229,
      "duration": 4.95
    },
    {
      "text": "three days after someone's dead in",
      "start": 437.039,
      "duration": 3.49
    },
    {
      "text": "general maybe with one historical",
      "start": 439.179,
      "duration": 3.21
    },
    {
      "text": "exceptions such as this claimed we can",
      "start": 440.529,
      "duration": 4.4
    },
    {
      "text": "generally say not dead ish but dead and",
      "start": 442.389,
      "duration": 8.1
    },
    {
      "text": "so because we have atomic properties",
      "start": 444.929,
      "duration": 7.09
    },
    {
      "text": "Universal physical laws and",
      "start": 450.489,
      "duration": 4.95
    },
    {
      "text": "purpose-driven organic life we have",
      "start": 452.019,
      "duration": 6.18
    },
    {
      "text": "these concepts in our mind now what's",
      "start": 455.439,
      "duration": 6.72
    },
    {
      "text": "also fascinating as well is if you look",
      "start": 458.199,
      "duration": 5.46
    },
    {
      "text": "there's a video on youtube but it's got",
      "start": 462.159,
      "duration": 3.24
    },
    {
      "text": "like someone made a sculpture underwater",
      "start": 463.659,
      "duration": 3.6
    },
    {
      "text": "of people standing in a circle now",
      "start": 465.399,
      "duration": 3.62
    },
    {
      "text": "theoretically of course you could have",
      "start": 467.259,
      "duration": 4.23
    },
    {
      "text": "coral could grow in the shape of people",
      "start": 469.019,
      "duration": 4.39
    },
    {
      "text": "standing in a circle the odds against it",
      "start": 471.489,
      "duration": 4.47
    },
    {
      "text": "would be staggeringly right once in",
      "start": 473.409,
      "duration": 5.01
    },
    {
      "text": "twenty universes kind of life time of",
      "start": 475.959,
      "duration": 6.51
    },
    {
      "text": "the universe but when we swim underwater",
      "start": 478.419,
      "duration": 5.82
    },
    {
      "text": "we see something like that we know that",
      "start": 482.469,
      "duration": 3.24
    },
    {
      "text": "that's been created by a human being for",
      "start": 484.239,
      "duration": 2.76
    },
    {
      "text": "a particular purpose in this case an",
      "start": 485.709,
      "duration": 5.13
    },
    {
      "text": "artistic purpose so when we look at",
      "start": 486.999,
      "duration": 5.82
    },
    {
      "text": "something that has been made by a human",
      "start": 490.839,
      "duration": 4.41
    },
    {
      "text": "being if we look at a table the table is",
      "start": 492.819,
      "duration": 3.69
    },
    {
      "text": "made with the purpose right to give you",
      "start": 495.249,
      "duration": 2.85
    },
    {
      "text": "something even to put your stuff on when",
      "start": 496.509,
      "duration": 3.96
    },
    {
      "text": "you're sitting down that and you look at",
      "start": 498.099,
      "duration": 3.33
    },
    {
      "text": "a shelf you know it's sort of the",
      "start": 500.469,
      "duration": 3.12
    },
    {
      "text": "purpose of you know displaying books",
      "start": 501.429,
      "duration": 3.27
    },
    {
      "text": "that you never read while hiding the",
      "start": 503.589,
      "duration": 2.82
    },
    {
      "text": "ones that you actually do reading maybe",
      "start": 504.699,
      "duration": 4.83
    },
    {
      "text": "that's just me but a picture frame so",
      "start": 506.409,
      "duration": 5.67
    },
    {
      "text": "they're all purposeful and so human",
      "start": 509.529,
      "duration": 3.841
    },
    {
      "text": "beings have a purpose but the things",
      "start": 512.079,
      "duration": 3.36
    },
    {
      "text": "that human beings create also have a",
      "start": 513.37,
      "duration": 3.809
    },
    {
      "text": "purpose and because they have a purpose",
      "start": 515.439,
      "duration": 3.181
    },
    {
      "text": "they can be easily conceptually",
      "start": 517.179,
      "duration": 3.27
    },
    {
      "text": "identified now there are some things",
      "start": 518.62,
      "duration": 4.829
    },
    {
      "text": "like you could make a statue of a table",
      "start": 520.449,
      "duration": 5.161
    },
    {
      "text": "right you could you could make a statue",
      "start": 523.449,
      "duration": 4.021
    },
    {
      "text": "of a chair for whatever reason call it",
      "start": 525.61,
      "duration": 3.06
    },
    {
      "text": "art or whatever but that would just be",
      "start": 527.47,
      "duration": 3.659
    },
    {
      "text": "copying the purpose of the chair so when",
      "start": 528.67,
      "duration": 3.87
    },
    {
      "text": "we look at the chair we know it",
      "start": 531.129,
      "duration": 3.661
    },
    {
      "text": "because if the purpose is to allow us to",
      "start": 532.54,
      "duration": 4.02
    },
    {
      "text": "sit rather than stand or squat or lie",
      "start": 534.79,
      "duration": 5.73
    },
    {
      "text": "down and that is something that's really",
      "start": 536.56,
      "duration": 5.25
    },
    {
      "text": "important to understand when it comes to",
      "start": 540.52,
      "duration": 3.24
    },
    {
      "text": "concepts we can divine in a sense or",
      "start": 541.81,
      "duration": 3.72
    },
    {
      "text": "through experience build the idea of",
      "start": 543.76,
      "duration": 3.93
    },
    {
      "text": "what is the purpose of an object and",
      "start": 545.53,
      "duration": 3.9
    },
    {
      "text": "because we know that human beings act",
      "start": 547.69,
      "duration": 3.96
    },
    {
      "text": "with purpose and create with purpose we",
      "start": 549.43,
      "duration": 4.08
    },
    {
      "text": "can define in a sense the purpose of the",
      "start": 551.65,
      "duration": 3.42
    },
    {
      "text": "thing that is created the scissor is",
      "start": 553.51,
      "duration": 3.36
    },
    {
      "text": "created for cutting paper and so on",
      "start": 555.07,
      "duration": 3.45
    },
    {
      "text": "because that's something that needs to",
      "start": 556.87,
      "duration": 3.24
    },
    {
      "text": "be done and that's what human beings",
      "start": 558.52,
      "duration": 3.42
    },
    {
      "text": "have made a scissor for so that helps us",
      "start": 560.11,
      "duration": 3.33
    },
    {
      "text": "develop our concepts that much more",
      "start": 561.94,
      "duration": 3.42
    },
    {
      "text": "clearly I hope this makes sense please",
      "start": 563.44,
      "duration": 3.03
    },
    {
      "text": "let me know in the comments below please",
      "start": 565.36,
      "duration": 3.09
    },
    {
      "text": "go to freedomainradio.com slash donate",
      "start": 566.47,
      "duration": 4.32
    },
    {
      "text": "to help out the show much ly appreciated",
      "start": 568.45,
      "duration": 5.69
    },
    {
      "text": "love you all xxx scene",
      "start": 570.79,
      "duration": 3.35
    }
  ],
  "Errors": null,
  "TranscriptStderr": null
}