[
    {
        "start": "0.319",
        "dur": "3.37",
        "text": "hi everybody it's depend molyneux from"
    },
    {
        "start": "2.399",
        "dur": "4.17",
        "text": "freedomain radio hope that you're doing"
    },
    {
        "start": "3.689",
        "dur": "5.341",
        "text": "well please drop by WWF"
    },
    {
        "start": "6.569",
        "dur": "4.981",
        "text": "freedomainradio.com pick up a copy of my"
    },
    {
        "start": "9.03",
        "dur": "5.13",
        "text": "book on truth the tyranny of illusion"
    },
    {
        "start": "11.55",
        "dur": "4.71",
        "text": "which is how to bring philosophy to bear"
    },
    {
        "start": "14.16",
        "dur": "4.14",
        "text": "on your personal life and really set you"
    },
    {
        "start": "16.26",
        "dur": "5.13",
        "text": "free individually in things that you can"
    },
    {
        "start": "18.3",
        "dur": "6.87",
        "text": "control now and also please look for"
    },
    {
        "start": "21.39",
        "dur": "5.37",
        "text": "next week my book which is a universally"
    },
    {
        "start": "25.17",
        "dur": "4.05",
        "text": "preferable behavior a rational proven"
    },
    {
        "start": "26.76",
        "dur": "4.859",
        "text": "secular ethics which is how I tackle the"
    },
    {
        "start": "29.22",
        "dur": "4.26",
        "text": "great beast of subjectivist ethics and"
    },
    {
        "start": "31.619",
        "dur": "6.181",
        "text": "attempt to prove rational and objective"
    },
    {
        "start": "33.48",
        "dur": "6.18",
        "text": "morality with no gods and no governments"
    },
    {
        "start": "37.8",
        "dur": "3.18",
        "text": "so I hope that you will have a look at"
    },
    {
        "start": "39.66",
        "dur": "4.44",
        "text": "that I think it would be very important"
    },
    {
        "start": "40.98",
        "dur": "5.34",
        "text": "book so let's continue our little tour"
    },
    {
        "start": "44.1",
        "dur": "4.799",
        "text": "down the 20th century to see what"
    },
    {
        "start": "46.32",
        "dur": "5.55",
        "text": "lessons we can gather from this"
    },
    {
        "start": "48.899",
        "dur": "4.89",
        "text": "absolutely blood-soaked wreckage of a"
    },
    {
        "start": "51.87",
        "dur": "4.079",
        "text": "century wherein hundreds upon hundreds"
    },
    {
        "start": "53.789",
        "dur": "5.731",
        "text": "of millions of people were slaughtered"
    },
    {
        "start": "55.949",
        "dur": "6.151",
        "text": "like cattle like pigs like flies for the"
    },
    {
        "start": "59.52",
        "dur": "4.709",
        "text": "sake of protecting people there is a"
    },
    {
        "start": "62.1",
        "dur": "5.61",
        "text": "fundamental paradox of course which is"
    },
    {
        "start": "64.229",
        "dur": "6.601",
        "text": "why I argue for the absolute immorality"
    },
    {
        "start": "67.71",
        "dur": "4.83",
        "text": "of the state which is it's quite mad to"
    },
    {
        "start": "70.83",
        "dur": "3.78",
        "text": "say that I wish to protect my property"
    },
    {
        "start": "72.54",
        "dur": "4.92",
        "text": "and the way that I'm going to do it is"
    },
    {
        "start": "74.61",
        "dur": "4.53",
        "text": "to create a massive monopoly a violent"
    },
    {
        "start": "77.46",
        "dur": "4.5",
        "text": "power which gets stripped me of my"
    },
    {
        "start": "79.14",
        "dur": "4.409",
        "text": "property and will it's completely insane"
    },
    {
        "start": "81.96",
        "dur": "3.03",
        "text": "it's like saying I want to protect"
    },
    {
        "start": "83.549",
        "dur": "2.551",
        "text": "myself from being raped so what I'm"
    },
    {
        "start": "84.99",
        "dur": "3.269",
        "text": "going to do is hire a bunch of"
    },
    {
        "start": "86.1",
        "dur": "4.44",
        "text": "bodyguards who can rape me night and day"
    },
    {
        "start": "88.259",
        "dur": "4.65",
        "text": "whenever they see fit it's completely"
    },
    {
        "start": "90.54",
        "dur": "4.35",
        "text": "insane no rational human being would"
    },
    {
        "start": "92.909",
        "dur": "4.261",
        "text": "ever create a state in order to protect"
    },
    {
        "start": "94.89",
        "dur": "4.68",
        "text": "his property no rational human being"
    },
    {
        "start": "97.17",
        "dur": "5.129",
        "text": "would ever create a state to protect his"
    },
    {
        "start": "99.57",
        "dur": "4.38",
        "text": "wife his children his own life it's"
    },
    {
        "start": "102.299",
        "dur": "3.301",
        "text": "completely met it's completely"
    },
    {
        "start": "103.95",
        "dur": "3.93",
        "text": "preventing the Mafia to protect your"
    },
    {
        "start": "105.6",
        "dur": "4.379",
        "text": "store in an Italian neighborhood that"
    },
    {
        "start": "107.88",
        "dur": "5.46",
        "text": "just is never going to work it never has"
    },
    {
        "start": "109.979",
        "dur": "6.151",
        "text": "worked in the 20th century way up to our"
    },
    {
        "start": "113.34",
        "dur": "5.639",
        "text": "current time is ample evidence of all of"
    },
    {
        "start": "116.13",
        "dur": "4.919",
        "text": "that so the one thing that I'd sort of"
    },
    {
        "start": "118.979",
        "dur": "5.791",
        "text": "like to point out is that you can never"
    },
    {
        "start": "121.049",
        "dur": "6.74",
        "text": "predict the consequences of getting"
    },
    {
        "start": "124.77",
        "dur": "5.549",
        "text": "involved in violence on a massive scale"
    },
    {
        "start": "127.789",
        "dur": "4.331",
        "text": "even on a personal scale you can never"
    },
    {
        "start": "130.319",
        "dur": "4.23",
        "text": "figure out what the total consequence"
    },
    {
        "start": "132.12",
        "dur": "5.729",
        "text": "long-term consequences our violence is"
    },
    {
        "start": "134.549",
        "dur": "5.461",
        "text": "going to be but if we go back to where"
    },
    {
        "start": "137.849",
        "dur": "5.881",
        "text": "we started on the last show which was"
    },
    {
        "start": "140.01",
        "dur": "7.11",
        "text": "the first world war we talked about how"
    },
    {
        "start": "143.73",
        "dur": "5.58",
        "text": "the first world war that was living"
    },
    {
        "start": "147.12",
        "dur": "4.08",
        "text": "power the balance of power was vastly"
    },
    {
        "start": "149.31",
        "dur": "4.17",
        "text": "unbalanced or imbalanced by the United"
    },
    {
        "start": "151.2",
        "dur": "4.2",
        "text": "States coming in with war materials"
    },
    {
        "start": "153.48",
        "dur": "4.229",
        "text": "100,000 soldiers and the energy of a"
    },
    {
        "start": "155.4",
        "dur": "4.169",
        "text": "young and vigorous nation that's tipping"
    },
    {
        "start": "157.709",
        "dur": "3.651",
        "text": "the balance to the ally side allowing"
    },
    {
        "start": "159.569",
        "dur": "6.06",
        "text": "for the Treaty of Versailles and so on"
    },
    {
        "start": "161.36",
        "dur": "6.37",
        "text": "now what a lot of people don't remember"
    },
    {
        "start": "165.629",
        "dur": "4.83",
        "text": "in particular about the First World War"
    },
    {
        "start": "167.73",
        "dur": "4.11",
        "text": "was of course the there was an Eastern"
    },
    {
        "start": "170.459",
        "dur": "2.491",
        "text": "Front and there was a Western Front just"
    },
    {
        "start": "171.84",
        "dur": "5.519",
        "text": "as there was in the Second World War"
    },
    {
        "start": "172.95",
        "dur": "6.509",
        "text": "although Russia was was spending sorry"
    },
    {
        "start": "177.359",
        "dur": "3.75",
        "text": "Russia was spending millions of men on"
    },
    {
        "start": "179.459",
        "dur": "3.691",
        "text": "the Eastern Front in the same way as she"
    },
    {
        "start": "181.109",
        "dur": "3.451",
        "text": "did in the Second World War and so"
    },
    {
        "start": "183.15",
        "dur": "3.509",
        "text": "Germany was fighting a two-front war"
    },
    {
        "start": "184.56",
        "dur": "3.81",
        "text": "which is one of the reasons why there"
    },
    {
        "start": "186.659",
        "dur": "4.351",
        "text": "was a central reason why once Hitler"
    },
    {
        "start": "188.37",
        "dur": "5.1",
        "text": "went to the coast to Dunkirk in May of"
    },
    {
        "start": "191.01",
        "dur": "4.17",
        "text": "1940 he immediately began turning in"
    },
    {
        "start": "193.47",
        "dur": "3",
        "text": "preparing for Operation Barbarossa which"
    },
    {
        "start": "195.18",
        "dur": "3.059",
        "text": "was the invasion of Russia because he"
    },
    {
        "start": "196.47",
        "dur": "4.56",
        "text": "knew Germany can't fight a two-front war"
    },
    {
        "start": "198.239",
        "dur": "9.241",
        "text": "that was the big lesson from a world war"
    },
    {
        "start": "201.03",
        "dur": "8.97",
        "text": "one so America comes charging in to the"
    },
    {
        "start": "207.48",
        "dur": "5.039",
        "text": "first world war vastly unbalancing the"
    },
    {
        "start": "210",
        "dur": "5.549",
        "text": "war efforts of the Allies relative to"
    },
    {
        "start": "212.519",
        "dur": "6.181",
        "text": "the Germans so what happens well the"
    },
    {
        "start": "215.549",
        "dur": "6.951",
        "text": "Germans send a little gentleman named"
    },
    {
        "start": "218.7",
        "dur": "6.27",
        "text": "Ilyich Lenin - to Russia through Finland"
    },
    {
        "start": "222.5",
        "dur": "4.449",
        "text": "and the reason that they do then they"
    },
    {
        "start": "224.97",
        "dur": "4.979",
        "text": "fund him and they arm him and they get"
    },
    {
        "start": "226.949",
        "dur": "5.25",
        "text": "him all set up to have a coup in Russia"
    },
    {
        "start": "229.949",
        "dur": "4.79",
        "text": "and why do the Germans do this well the"
    },
    {
        "start": "232.199",
        "dur": "5.43",
        "text": "reason that the Germans do this is that"
    },
    {
        "start": "234.739",
        "dur": "4.93",
        "text": "Lenin as a communist and as an"
    },
    {
        "start": "237.629",
        "dur": "5.07",
        "text": "internationalist was very much against"
    },
    {
        "start": "239.669",
        "dur": "5.25",
        "text": "the participation of Russia in the war"
    },
    {
        "start": "242.699",
        "dur": "6.061",
        "text": "of the the great powers in the war of"
    },
    {
        "start": "244.919",
        "dur": "5.94",
        "text": "1914 to 1918 so they needed to get"
    },
    {
        "start": "248.76",
        "dur": "4.05",
        "text": "Russia out of the war and as America"
    },
    {
        "start": "250.859",
        "dur": "4.231",
        "text": "came charging into the war the Germans"
    },
    {
        "start": "252.81",
        "dur": "3.78",
        "text": "were desperate for any strategy to get"
    },
    {
        "start": "255.09",
        "dur": "3.72",
        "text": "themselves out of the war so they"
    },
    {
        "start": "256.59",
        "dur": "5.429",
        "text": "shipped letting off with arms and with"
    },
    {
        "start": "258.81",
        "dur": "4.63",
        "text": "weapons to Russia where he is successful"
    },
    {
        "start": "262.019",
        "dur": "3.911",
        "text": "in the Bolshevik coup"
    },
    {
        "start": "263.44",
        "dur": "6.41",
        "text": "November 1917 and sets up the"
    },
    {
        "start": "265.93",
        "dur": "6.09",
        "text": "totalitarian estate of Russia and"
    },
    {
        "start": "269.85",
        "dur": "4.54",
        "text": "overturns the Mensheviks who were more"
    },
    {
        "start": "272.02",
        "dur": "5.43",
        "text": "peaceful more democratic more moderate"
    },
    {
        "start": "274.39",
        "dur": "5.6",
        "text": "and sets Russia on to a seventy year"
    },
    {
        "start": "277.45",
        "dur": "6.75",
        "text": "course which costs the lives of"
    },
    {
        "start": "279.99",
        "dur": "7.48",
        "text": "approximately 170 million 80 million"
    },
    {
        "start": "284.2",
        "dur": "6.3",
        "text": "people concentration camps you have the"
    },
    {
        "start": "287.47",
        "dur": "5.04",
        "text": "Stalin generated famine which is based"
    },
    {
        "start": "290.5",
        "dur": "3.72",
        "text": "on the collectivist farming of the"
    },
    {
        "start": "292.51",
        "dur": "3.69",
        "text": "Ukraine where everything was taken from"
    },
    {
        "start": "294.22",
        "dur": "4.59",
        "text": "the individual farmers in the 1930s you"
    },
    {
        "start": "296.2",
        "dur": "4.74",
        "text": "have the purchase you have staggering"
    },
    {
        "start": "298.81",
        "dur": "5.28",
        "text": "amounts of losses of life in the Second"
    },
    {
        "start": "300.94",
        "dur": "4.98",
        "text": "World War so this is you can't tell what"
    },
    {
        "start": "304.09",
        "dur": "4.23",
        "text": "is going to happen when you begin"
    },
    {
        "start": "305.92",
        "dur": "8.04",
        "text": "mucking about in the military affairs"
    },
    {
        "start": "308.32",
        "dur": "7.05",
        "text": "overseas so here we have a country and"
    },
    {
        "start": "313.96",
        "dur": "2.94",
        "text": "President Wilson the United States that"
    },
    {
        "start": "315.37",
        "dur": "3.84",
        "text": "comes into the first world war why to"
    },
    {
        "start": "316.9",
        "dur": "4.11",
        "text": "make the world safe democracy and there"
    },
    {
        "start": "319.21",
        "dur": "3.57",
        "text": "were 14 points that Wilson had out about"
    },
    {
        "start": "321.01",
        "dur": "3.3",
        "text": "self-determination and democracy and"
    },
    {
        "start": "322.78",
        "dur": "4.2",
        "text": "markets and all this kind of good stuff"
    },
    {
        "start": "324.31",
        "dur": "5.01",
        "text": "whichever one lapped up as a bunch of"
    },
    {
        "start": "326.98",
        "dur": "5.43",
        "text": "nonsensical propaganda so they went in"
    },
    {
        "start": "329.32",
        "dur": "5.31",
        "text": "to the First World War and they wish to"
    },
    {
        "start": "332.41",
        "dur": "3.24",
        "text": "make the world safe for democracy and"
    },
    {
        "start": "334.63",
        "dur": "4.2",
        "text": "what happened"
    },
    {
        "start": "335.65",
        "dur": "5.13",
        "text": "well they created totalitarian a"
    },
    {
        "start": "338.83",
        "dur": "3.63",
        "text": "totalitarian regime or they contributed"
    },
    {
        "start": "340.78",
        "dur": "3.57",
        "text": "to the motives which propelled the"
    },
    {
        "start": "342.46",
        "dur": "6.18",
        "text": "creation of that totalitarian regime in"
    },
    {
        "start": "344.35",
        "dur": "8.4",
        "text": "Russia which they then fought off and on"
    },
    {
        "start": "348.64",
        "dur": "6.57",
        "text": "for the next 70 years this is what"
    },
    {
        "start": "352.75",
        "dur": "6.45",
        "text": "happens when you go around shooting"
    },
    {
        "start": "355.21",
        "dur": "7.5",
        "text": "people to solve problems you create an"
    },
    {
        "start": "359.2",
        "dur": "5.4",
        "text": "ever-escalating back and forth slashing"
    },
    {
        "start": "362.71",
        "dur": "5.13",
        "text": "and rising tidal wave of blood and death"
    },
    {
        "start": "364.6",
        "dur": "5.1",
        "text": "and this is why when you look at this"
    },
    {
        "start": "367.84",
        "dur": "4.77",
        "text": "kind of stuff in history it's fairly"
    },
    {
        "start": "369.7",
        "dur": "7.16",
        "text": "easy to see why it's so hard to believe"
    },
    {
        "start": "372.61",
        "dur": "10.74",
        "text": "any of the nonsense that comes out about"
    },
    {
        "start": "376.86",
        "dur": "9.22",
        "text": "this kind of stuff how military might"
    },
    {
        "start": "383.35",
        "dur": "5.19",
        "text": "and violence and death and genocide and"
    },
    {
        "start": "386.08",
        "dur": "7.329",
        "text": "slaughter is going to create peace it"
    },
    {
        "start": "388.54",
        "dur": "8.26",
        "text": "does never has and it never will"
    },
    {
        "start": "393.409",
        "dur": "6.51",
        "text": "but we've just got to pry our hands of"
    },
    {
        "start": "396.8",
        "dur": "5.789",
        "text": "this gun so that we could live in a"
    },
    {
        "start": "399.919",
        "dur": "5.31",
        "text": "world of peace and plenty and beauty and"
    },
    {
        "start": "402.589",
        "dur": "4.92",
        "text": "I will say love though you may laugh at"
    },
    {
        "start": "405.229",
        "dur": "4.44",
        "text": "me for saying so but I think that in the"
    },
    {
        "start": "407.509",
        "dur": "4.11",
        "text": "absence of having our fists on this"
    },
    {
        "start": "409.669",
        "dur": "3.81",
        "text": "glove human beings are wonderful"
    },
    {
        "start": "411.619",
        "dur": "4.26",
        "text": "creatures but when we have this fist and"
    },
    {
        "start": "413.479",
        "dur": "4.97",
        "text": "we believe that this gun is virtuous"
    },
    {
        "start": "415.879",
        "dur": "5.04",
        "text": "from here to eternity we are monsters we"
    },
    {
        "start": "418.449",
        "dur": "4.06",
        "text": "are monsters of patriotism we are"
    },
    {
        "start": "420.919",
        "dur": "3.27",
        "text": "monsters of soldiering we are monsters"
    },
    {
        "start": "422.509",
        "dur": "3.601",
        "text": "of murder we are monsters of torture"
    },
    {
        "start": "424.189",
        "dur": "4.59",
        "text": "we are monstrous of self-justification"
    },
    {
        "start": "426.11",
        "dur": "5.819",
        "text": "and we are monstrous in the corruption"
    },
    {
        "start": "428.779",
        "dur": "4.62",
        "text": "of the young to whom we tell all the"
    },
    {
        "start": "431.929",
        "dur": "6.96",
        "text": "lies that we need to live with ourselves"
    },
    {
        "start": "433.399",
        "dur": "7.89",
        "text": "and what we have done so America goes"
    },
    {
        "start": "438.889",
        "dur": "4.71",
        "text": "charging into Europe to help the Allies"
    },
    {
        "start": "441.289",
        "dur": "3.78",
        "text": "which propels the Germans to send Lenin"
    },
    {
        "start": "443.599",
        "dur": "3.18",
        "text": "over for a coup which creates a bloody"
    },
    {
        "start": "445.069",
        "dur": "3.69",
        "text": "totalitarian regime which lasts for"
    },
    {
        "start": "446.779",
        "dur": "5.79",
        "text": "two-and-a-half generations in Russia"
    },
    {
        "start": "448.759",
        "dur": "7.17",
        "text": "what happens then well there is in"
    },
    {
        "start": "452.569",
        "dur": "6.27",
        "text": "Germany of course a very strong Jewish"
    },
    {
        "start": "455.929",
        "dur": "5.811",
        "text": "community and very successful they ran"
    },
    {
        "start": "458.839",
        "dur": "4.59",
        "text": "two of the major newspapers a Jew was"
    },
    {
        "start": "461.74",
        "dur": "3.31",
        "text": "foundational and writing the"
    },
    {
        "start": "463.429",
        "dur": "3.6",
        "text": "constitution for the Weimar Republic and"
    },
    {
        "start": "465.05",
        "dur": "3.359",
        "text": "like most intellectuals and the Jews are"
    },
    {
        "start": "467.029",
        "dur": "3.48",
        "text": "over-represented in the intellectual"
    },
    {
        "start": "468.409",
        "dur": "3.81",
        "text": "races or in the intellectual sphere of"
    },
    {
        "start": "470.509",
        "dur": "3.3",
        "text": "course they were left-wing there was"
    },
    {
        "start": "472.219",
        "dur": "3.21",
        "text": "socialists and of course a lot of them"
    },
    {
        "start": "473.809",
        "dur": "5.61",
        "text": "are communist remarks was a communist"
    },
    {
        "start": "475.429",
        "dur": "6.42",
        "text": "Lenin Trotsky a lot of the the founders"
    },
    {
        "start": "479.419",
        "dur": "4.35",
        "text": "of the Russian communist dictatorship"
    },
    {
        "start": "481.849",
        "dur": "4.83",
        "text": "were Jewish there's some estimates that"
    },
    {
        "start": "483.769",
        "dur": "7.74",
        "text": "say 2% of the Russian population reduced"
    },
    {
        "start": "486.679",
        "dur": "8.34",
        "text": "but over 50% of the communist elite in"
    },
    {
        "start": "491.509",
        "dur": "5.28",
        "text": "Russia were Jews right and so at least"
    },
    {
        "start": "495.019",
        "dur": "2.94",
        "text": "in Germany I'm not going to say about"
    },
    {
        "start": "496.789",
        "dur": "2.64",
        "text": "the rest of the world and I'm certainly"
    },
    {
        "start": "497.959",
        "dur": "3.091",
        "text": "not going to talk about reality because"
    },
    {
        "start": "499.429",
        "dur": "5.63",
        "text": "I'm just going to talk about perception"
    },
    {
        "start": "501.05",
        "dur": "6.779",
        "text": "in Germany the communist dictatorship"
    },
    {
        "start": "505.059",
        "dur": "4.06",
        "text": "was seen as a largely Jewish phenomenon"
    },
    {
        "start": "507.829",
        "dur": "4.4",
        "text": "and doesn't mean exclusively but it"
    },
    {
        "start": "509.119",
        "dur": "6.33",
        "text": "means a largely Jewish phenomena and"
    },
    {
        "start": "512.229",
        "dur": "4.9",
        "text": "this is the same way that we call NASA's"
    },
    {
        "start": "515.449",
        "dur": "3.481",
        "text": "imager man phenomenon even though Hitler"
    },
    {
        "start": "517.129",
        "dur": "3.991",
        "text": "and a lot of other senior Nazis were"
    },
    {
        "start": "518.93",
        "dur": "3.27",
        "text": "Austrian or non German it's just that's"
    },
    {
        "start": "521.12",
        "dur": "4.4",
        "text": "where it happened"
    },
    {
        "start": "522.2",
        "dur": "7.68",
        "text": "was the major cultural influence so for"
    },
    {
        "start": "525.52",
        "dur": "6.07",
        "text": "for the Germans they looked at the the"
    },
    {
        "start": "529.88",
        "dur": "3.9",
        "text": "Russian experiment as a Jewish"
    },
    {
        "start": "531.59",
        "dur": "4.35",
        "text": "experiment and what they did was they"
    },
    {
        "start": "533.78",
        "dur": "5.43",
        "text": "said okay well what happened when the"
    },
    {
        "start": "535.94",
        "dur": "4.89",
        "text": "Jews quote got into power in Russia well"
    },
    {
        "start": "539.21",
        "dur": "3.69",
        "text": "of course what happened when the Jews"
    },
    {
        "start": "540.83",
        "dur": "3.93",
        "text": "got into power in Russia through this"
    },
    {
        "start": "542.9",
        "dur": "3.66",
        "text": "communist revolution was they began"
    },
    {
        "start": "544.76",
        "dur": "3.96",
        "text": "slaughtering all the quote Christians"
    },
    {
        "start": "546.56",
        "dur": "4.44",
        "text": "right I mean don't get me wrong nothing"
    },
    {
        "start": "548.72",
        "dur": "3.9",
        "text": "about Jews in particular I I apparently"
    },
    {
        "start": "551",
        "dur": "3.6",
        "text": "am Jewish myself that I don't care"
    },
    {
        "start": "552.62",
        "dur": "3.12",
        "text": "because I have no interest in collective"
    },
    {
        "start": "554.6",
        "dur": "4.05",
        "text": "identities because they're not"
    },
    {
        "start": "555.74",
        "dur": "5.06",
        "text": "identities they're just cults but this"
    },
    {
        "start": "558.65",
        "dur": "4.71",
        "text": "was the perception in Germany that a"
    },
    {
        "start": "560.8",
        "dur": "5.26",
        "text": "central issue that was occurring was"
    },
    {
        "start": "563.36",
        "dur": "4.89",
        "text": "that the Jews had gained power through"
    },
    {
        "start": "566.06",
        "dur": "3.96",
        "text": "communism in Russia and said about"
    },
    {
        "start": "568.25",
        "dur": "3.51",
        "text": "slaughtering the cool acts the the"
    },
    {
        "start": "570.02",
        "dur": "4.05",
        "text": "Russians and they started persecuting"
    },
    {
        "start": "571.76",
        "dur": "4.65",
        "text": "the Christians and there was of course a"
    },
    {
        "start": "574.07",
        "dur": "4.62",
        "text": "genocide in Russia that occurred after"
    },
    {
        "start": "576.41",
        "dur": "4.32",
        "text": "the Assumption of the Communists of"
    },
    {
        "start": "578.69",
        "dur": "5.28",
        "text": "power that was huge"
    },
    {
        "start": "580.73",
        "dur": "5.28",
        "text": "staggering by millions millions one of"
    },
    {
        "start": "583.97",
        "dur": "6.75",
        "text": "the largest genocides in history and it"
    },
    {
        "start": "586.01",
        "dur": "9.69",
        "text": "was perceived to be of Jewish leadership"
    },
    {
        "start": "590.72",
        "dur": "8.85",
        "text": "towards Christians so then when you have"
    },
    {
        "start": "595.7",
        "dur": "7.59",
        "text": "an enormous fight brewing in Germany"
    },
    {
        "start": "599.57",
        "dur": "6.27",
        "text": "between the Nazis and the Communists"
    },
    {
        "start": "603.29",
        "dur": "4.11",
        "text": "there is a perception based upon the"
    },
    {
        "start": "605.84",
        "dur": "2.79",
        "text": "view again I'm not going to say whether"
    },
    {
        "start": "607.4",
        "dur": "3.3",
        "text": "it's correct or not that's just saying"
    },
    {
        "start": "608.63",
        "dur": "5.28",
        "text": "there's a perception based on the view"
    },
    {
        "start": "610.7",
        "dur": "6.45",
        "text": "that it was the the Russian Jews who"
    },
    {
        "start": "613.91",
        "dur": "5.19",
        "text": "were killing the non-jewish Christians"
    },
    {
        "start": "617.15",
        "dur": "5.58",
        "text": "the Russians who were who were"
    },
    {
        "start": "619.1",
        "dur": "5.97",
        "text": "Christians that if communism came to"
    },
    {
        "start": "622.73",
        "dur": "5.07",
        "text": "power in Germany that the same thing"
    },
    {
        "start": "625.07",
        "dur": "5.52",
        "text": "would occur if communism came to power"
    },
    {
        "start": "627.8",
        "dur": "5.28",
        "text": "in Germany that the same thing would"
    },
    {
        "start": "630.59",
        "dur": "4.71",
        "text": "occur that there would be a Jewish"
    },
    {
        "start": "633.08",
        "dur": "6.06",
        "text": "leadership that would start killing all"
    },
    {
        "start": "635.3",
        "dur": "5.69",
        "text": "of the German Christians because that's"
    },
    {
        "start": "639.14",
        "dur": "6.84",
        "text": "what they saw happening over in Russia"
    },
    {
        "start": "640.99",
        "dur": "6.7",
        "text": "so Nazism can be seen to some degree no"
    },
    {
        "start": "645.98",
        "dur": "5.6",
        "text": "justification for either system they're"
    },
    {
        "start": "647.69",
        "dur": "7.32",
        "text": "all monstrous communism and fascism but"
    },
    {
        "start": "651.58",
        "dur": "4.09",
        "text": "Nazism can be seen as a reaction to this"
    },
    {
        "start": "655.01",
        "dur": "4.26",
        "text": "fear"
    },
    {
        "start": "655.67",
        "dur": "5.76",
        "text": "of a Jewish genocide in Germany or in"
    },
    {
        "start": "659.27",
        "dur": "3.68",
        "text": "Europe because if what was perceived to"
    },
    {
        "start": "661.43",
        "dur": "3.57",
        "text": "be happening and not entirely"
    },
    {
        "start": "662.95",
        "dur": "6.25",
        "text": "inaccurately what was perceived to be"
    },
    {
        "start": "665",
        "dur": "5.64",
        "text": "happening in in Russia so if the Jews"
    },
    {
        "start": "669.2",
        "dur": "2.79",
        "text": "get in to pass through communism they'll"
    },
    {
        "start": "670.64",
        "dur": "2.58",
        "text": "stop killing all the Christians so"
    },
    {
        "start": "671.99",
        "dur": "3.33",
        "text": "they're starting to try and do the same"
    },
    {
        "start": "673.22",
        "dur": "5.07",
        "text": "thing here and the Communists were"
    },
    {
        "start": "675.32",
        "dur": "7.4",
        "text": "making great gains in the 1920s and"
    },
    {
        "start": "678.29",
        "dur": "9.15",
        "text": "early 30s in Germany so we need a white"
    },
    {
        "start": "682.72",
        "dur": "6.67",
        "text": "racist nationalistic German only an type"
    },
    {
        "start": "687.44",
        "dur": "3.45",
        "text": "look they didn't just wake up one"
    },
    {
        "start": "689.39",
        "dur": "5.61",
        "text": "morning and say we're going to we hate"
    },
    {
        "start": "690.89",
        "dur": "5.73",
        "text": "all the Jews it's not how human beings"
    },
    {
        "start": "695",
        "dur": "3.89",
        "text": "work if you don't know the history all"
    },
    {
        "start": "696.62",
        "dur": "4.5",
        "text": "you end up with is caricature and"
    },
    {
        "start": "698.89",
        "dur": "5.47",
        "text": "projection and nonsense and and"
    },
    {
        "start": "701.12",
        "dur": "4.53",
        "text": "fairytales and mythology and people"
    },
    {
        "start": "704.36",
        "dur": "2.7",
        "text": "don't just wake up one day as they oh"
    },
    {
        "start": "705.65",
        "dur": "3.33",
        "text": "let's hate all the Jews let's kill all"
    },
    {
        "start": "707.06",
        "dur": "4.56",
        "text": "the Jews right of course it's completely"
    },
    {
        "start": "708.98",
        "dur": "3.75",
        "text": "immoral to the when I say get rid of the"
    },
    {
        "start": "711.62",
        "dur": "5.34",
        "text": "government I also mean get rid of"
    },
    {
        "start": "712.73",
        "dur": "8.34",
        "text": "genocide as well as war but this was the"
    },
    {
        "start": "716.96",
        "dur": "6.84",
        "text": "perception in in Germany that's why they"
    },
    {
        "start": "721.07",
        "dur": "4.08",
        "text": "were afraid and hated and feared the"
    },
    {
        "start": "723.8",
        "dur": "3.03",
        "text": "Jews because they saw this genocide"
    },
    {
        "start": "725.15",
        "dur": "3.87",
        "text": "which they perceived as jewish going on"
    },
    {
        "start": "726.83",
        "dur": "3.66",
        "text": "in russia and they saw the same activity"
    },
    {
        "start": "729.02",
        "dur": "2.4",
        "text": "going on here they looked at many the"
    },
    {
        "start": "730.49",
        "dur": "2.82",
        "text": "leading intellectuals who were"
    },
    {
        "start": "731.42",
        "dur": "3.15",
        "text": "left-leaning or communist and jewish and"
    },
    {
        "start": "733.31",
        "dur": "2.37",
        "text": "they said well they're going to do the"
    },
    {
        "start": "734.57",
        "dur": "2.82",
        "text": "same thing here they're going to get a"
    },
    {
        "start": "735.68",
        "dur": "4.11",
        "text": "jewish elite is going to take over"
    },
    {
        "start": "737.39",
        "dur": "3.6",
        "text": "through communist methods in germany and"
    },
    {
        "start": "739.79",
        "dur": "4.65",
        "text": "thing and it's not killing us all so"
    },
    {
        "start": "740.99",
        "dur": "5.52",
        "text": "let's get them first and again this is"
    },
    {
        "start": "744.44",
        "dur": "3.57",
        "text": "sort of what i'm trying to say you can't"
    },
    {
        "start": "746.51",
        "dur": "3.75",
        "text": "predict what happened america said in"
    },
    {
        "start": "748.01",
        "dur": "4.95",
        "text": "1917 we're going to go to war in europe"
    },
    {
        "start": "750.26",
        "dur": "5.28",
        "text": "on the side of the Allies and what"
    },
    {
        "start": "752.96",
        "dur": "3.99",
        "text": "happens what we talked about some of the"
    },
    {
        "start": "755.54",
        "dur": "3.06",
        "text": "effects of the last podcast in this"
    },
    {
        "start": "756.95",
        "dur": "5.31",
        "text": "podcast we're talking about this fact"
    },
    {
        "start": "758.6",
        "dur": "7.59",
        "text": "that it caused germany to support a"
    },
    {
        "start": "762.26",
        "dur": "5.82",
        "text": "revolution in russia which caused the"
    },
    {
        "start": "766.19",
        "dur": "3.15",
        "text": "deaths of millions of people propelled a"
    },
    {
        "start": "768.08",
        "dur": "4.2",
        "text": "whole bunch of people into power that"
    },
    {
        "start": "769.34",
        "dur": "4.38",
        "text": "the germans saw as as jewish and then"
    },
    {
        "start": "772.28",
        "dur": "3.27",
        "text": "the germans were terrified it was going"
    },
    {
        "start": "773.72",
        "dur": "3.77",
        "text": "to happen to them so then you get Nazism"
    },
    {
        "start": "775.55",
        "dur": "4.38",
        "text": "as a reaction"
    },
    {
        "start": "777.49",
        "dur": "4.06",
        "text": "did you see how this pendulum just keeps"
    },
    {
        "start": "779.93",
        "dur": "4.23",
        "text": "swinging back and forth and you can't"
    },
    {
        "start": "781.55",
        "dur": "4.2",
        "text": "tell you can't tell what happens when"
    },
    {
        "start": "784.16",
        "dur": "1.9",
        "text": "you start wading into foreign countries"
    },
    {
        "start": "785.75",
        "dur": "2.71",
        "text": "and"
    },
    {
        "start": "786.06",
        "dur": "5.01",
        "text": "when things happen shooting people but"
    },
    {
        "start": "788.46",
        "dur": "8.49",
        "text": "you can always tell that it's gonna be"
    },
    {
        "start": "791.07",
        "dur": "8.52",
        "text": "really really bad really bad so this is"
    },
    {
        "start": "796.95",
        "dur": "5.79",
        "text": "the way in which when you America had a"
    },
    {
        "start": "799.59",
        "dur": "5.73",
        "text": "number of powerful stimulants or had a"
    },
    {
        "start": "802.74",
        "dur": "4.29",
        "text": "powerful influence and stimulating the"
    },
    {
        "start": "805.32",
        "dur": "4.32",
        "text": "problems of the Second World War and"
    },
    {
        "start": "807.03",
        "dur": "4.38",
        "text": "that's why when people say to me what we"
    },
    {
        "start": "809.64",
        "dur": "4.11",
        "text": "had to go to war you see because that"
    },
    {
        "start": "811.41",
        "dur": "4.14",
        "text": "was the just war and the Nazis were evil"
    },
    {
        "start": "813.75",
        "dur": "4.47",
        "text": "and and we had to go and save the world"
    },
    {
        "start": "815.55",
        "dur": "7.62",
        "text": "from the Nazis and across the Nazis were"
    },
    {
        "start": "818.22",
        "dur": "7.56",
        "text": "evil and the Communists were evil but it"
    },
    {
        "start": "823.17",
        "dur": "4.68",
        "text": "was the intervention that created the"
    },
    {
        "start": "825.78",
        "dur": "4.02",
        "text": "imbalance that started swinging the"
    },
    {
        "start": "827.85",
        "dur": "4.8",
        "text": "pendulum wildly in Europe that ended up"
    },
    {
        "start": "829.8",
        "dur": "6.33",
        "text": "with millions of lives being smashed and"
    },
    {
        "start": "832.65",
        "dur": "6.54",
        "text": "blown into smithereens with genocides"
    },
    {
        "start": "836.13",
        "dur": "4.77",
        "text": "and Holocaust sand and fire bombings of"
    },
    {
        "start": "839.19",
        "dur": "6.81",
        "text": "civilian cities and nuclear weapons"
    },
    {
        "start": "840.9",
        "dur": "7.89",
        "text": "being dropped on civilians you reap"
    },
    {
        "start": "846",
        "dur": "9.66",
        "text": "tenfold a thousandfold a million fold"
    },
    {
        "start": "848.79",
        "dur": "8.91",
        "text": "what you sow to take another small"
    },
    {
        "start": "855.66",
        "dur": "3.45",
        "text": "example because you could go on and on"
    },
    {
        "start": "857.7",
        "dur": "3.3",
        "text": "with the stuff but I won't bore you with"
    },
    {
        "start": "859.11",
        "dur": "3.87",
        "text": "it I mean there's you could go from the"
    },
    {
        "start": "861",
        "dur": "4.83",
        "text": "ancient Greeks through to the modern"
    },
    {
        "start": "862.98",
        "dur": "4.83",
        "text": "modern Roman Empire of the Americans and"
    },
    {
        "start": "865.83",
        "dur": "4.08",
        "text": "this is example after example after"
    },
    {
        "start": "867.81",
        "dur": "4.47",
        "text": "example of exactly the same thing"
    },
    {
        "start": "869.91",
        "dur": "5.19",
        "text": "happening of governments failing to"
    },
    {
        "start": "872.28",
        "dur": "5.55",
        "text": "protect citizens of governments ending"
    },
    {
        "start": "875.1",
        "dur": "6.98",
        "text": "up spending the lives of citizens by the"
    },
    {
        "start": "877.83",
        "dur": "6.33",
        "text": "millions and then in an ex post facto"
    },
    {
        "start": "882.08",
        "dur": "4.03",
        "text": "rationalization everyone says well that"
    },
    {
        "start": "884.16",
        "dur": "4.92",
        "text": "was absolutely necessary you see because"
    },
    {
        "start": "886.11",
        "dur": "5.34",
        "text": "so many of us got killed it's absolutely"
    },
    {
        "start": "889.08",
        "dur": "3.84",
        "text": "necessary it's the same way that people"
    },
    {
        "start": "891.45",
        "dur": "2.7",
        "text": "say well yes six hundred thousand people"
    },
    {
        "start": "892.92",
        "dur": "4.02",
        "text": "got killed in the Civil War in the"
    },
    {
        "start": "894.15",
        "dur": "5.76",
        "text": "United States but it was to free the"
    },
    {
        "start": "896.94",
        "dur": "4.8",
        "text": "slaves which is pure nonsense which is"
    },
    {
        "start": "899.91",
        "dur": "2.94",
        "text": "pure nonsense had nothing to do with"
    },
    {
        "start": "901.74",
        "dur": "4.26",
        "text": "reigns it's like if that was an"
    },
    {
        "start": "902.85",
        "dur": "4.5",
        "text": "afterthought it was the expansion of"
    },
    {
        "start": "906",
        "dur": "3.72",
        "text": "federal power over the southern states"
    },
    {
        "start": "907.35",
        "dur": "4.8",
        "text": "and slavery was a great evil but it's"
    },
    {
        "start": "909.72",
        "dur": "4.29",
        "text": "not that I mean why why was it that only"
    },
    {
        "start": "912.15",
        "dur": "3.54",
        "text": "America had to have a civil war that"
    },
    {
        "start": "914.01",
        "dur": "2.88",
        "text": "cost the lives hundreds of thousands"
    },
    {
        "start": "915.69",
        "dur": "2.61",
        "text": "people to get rid of slavery every other"
    },
    {
        "start": "916.89",
        "dur": "2.4",
        "text": "single damn country in the world got rid"
    },
    {
        "start": "918.3",
        "dur": "3.57",
        "text": "of slavery"
    },
    {
        "start": "919.29",
        "dur": "3.39",
        "text": "without that because it wasn't about"
    },
    {
        "start": "921.87",
        "dur": "2.969",
        "text": "anyway"
    },
    {
        "start": "922.68",
        "dur": "3.48",
        "text": "you get the idea so let's have a look at"
    },
    {
        "start": "924.839",
        "dur": "3.06",
        "text": "a more modern case and I've talked about"
    },
    {
        "start": "926.16",
        "dur": "7.38",
        "text": "this before but I'll just be relatively"
    },
    {
        "start": "927.899",
        "dur": "9.531",
        "text": "brief on it so of course after the"
    },
    {
        "start": "933.54",
        "dur": "6.719",
        "text": "Second World War there is an exhausted"
    },
    {
        "start": "937.43",
        "dur": "4.36",
        "text": "Western powers no no capacity to wage"
    },
    {
        "start": "940.259",
        "dur": "3.601",
        "text": "war for at least a generation they had"
    },
    {
        "start": "941.79",
        "dur": "4.979",
        "text": "just burnt themself out completely so"
    },
    {
        "start": "943.86",
        "dur": "5.01",
        "text": "many people had gotten killed the the"
    },
    {
        "start": "946.769",
        "dur": "3.781",
        "text": "pound was completely crapped out"
    },
    {
        "start": "948.87",
        "dur": "4.92",
        "text": "everybody was off the gold standard it"
    },
    {
        "start": "950.55",
        "dur": "4.769",
        "text": "was complete mess so of course the"
    },
    {
        "start": "953.79",
        "dur": "3.51",
        "text": "Communists take this advantage in China"
    },
    {
        "start": "955.319",
        "dur": "4.02",
        "text": "to take over and you end up with another"
    },
    {
        "start": "957.3",
        "dur": "4.95",
        "text": "communist dictatorship see this is what"
    },
    {
        "start": "959.339",
        "dur": "4.56",
        "text": "it's also so awful and so it's so we"
    },
    {
        "start": "962.25",
        "dur": "3.72",
        "text": "will not be able to laugh about this for"
    },
    {
        "start": "963.899",
        "dur": "4.231",
        "text": "10,000 years but there will be comedies"
    },
    {
        "start": "965.97",
        "dur": "3.65",
        "text": "in time when people say oh yeah they"
    },
    {
        "start": "968.13",
        "dur": "4.11",
        "text": "went to where to save the world from"
    },
    {
        "start": "969.62",
        "dur": "4.93",
        "text": "totalitarianism and what happened well"
    },
    {
        "start": "972.24",
        "dur": "4.769",
        "text": "you know half a billion people went into"
    },
    {
        "start": "974.55",
        "dur": "4.67",
        "text": "the more of Chinese communism and oh"
    },
    {
        "start": "977.009",
        "dur": "4.38",
        "text": "yeah they went originally yeah you see"
    },
    {
        "start": "979.22",
        "dur": "4.15",
        "text": "France and England went to war to save"
    },
    {
        "start": "981.389",
        "dur": "4.591",
        "text": "Poland you see because Germany had"
    },
    {
        "start": "983.37",
        "dur": "4.5",
        "text": "invaded Poland in September of 1939 and"
    },
    {
        "start": "985.98",
        "dur": "3.21",
        "text": "so they they had a treaty and they went"
    },
    {
        "start": "987.87",
        "dur": "3.93",
        "text": "to go and protect Poland oops"
    },
    {
        "start": "989.19",
        "dur": "4.589",
        "text": "damn what happened to Poland at the end"
    },
    {
        "start": "991.8",
        "dur": "3.839",
        "text": "of the war oh so sorry you got sucked"
    },
    {
        "start": "993.779",
        "dur": "3.331",
        "text": "into the Soviet more where an entire"
    },
    {
        "start": "995.639",
        "dur": "3.981",
        "text": "generation of you will be fed into the"
    },
    {
        "start": "997.11",
        "dur": "5.37",
        "text": "concentration camps the gulags"
    },
    {
        "start": "999.62",
        "dur": "5.769",
        "text": "so sorry but the intention just didn't"
    },
    {
        "start": "1002.48",
        "dur": "4.83",
        "text": "quite make it but this is always the way"
    },
    {
        "start": "1005.389",
        "dur": "3.93",
        "text": "as always the case we went to save the"
    },
    {
        "start": "1007.31",
        "dur": "4.139",
        "text": "world from totalitarianism you see"
    },
    {
        "start": "1009.319",
        "dur": "4.651",
        "text": "because Germany was very dangerous and"
    },
    {
        "start": "1011.449",
        "dur": "4.711",
        "text": "bad which it was and so we surrendered a"
    },
    {
        "start": "1013.97",
        "dur": "3.96",
        "text": "massive for hundreds of tens of millions"
    },
    {
        "start": "1016.16",
        "dur": "7.5",
        "text": "of people to the Soviets at the end of"
    },
    {
        "start": "1017.93",
        "dur": "10.519",
        "text": "the war we didn't we didn't save people"
    },
    {
        "start": "1023.66",
        "dur": "8.009",
        "text": "from totalitarianism we simply expanded"
    },
    {
        "start": "1028.449",
        "dur": "5.651",
        "text": "totalitarianism Russia took all of"
    },
    {
        "start": "1031.669",
        "dur": "2.79",
        "text": "Eastern Europe at the end of the Second"
    },
    {
        "start": "1034.1",
        "dur": "3.05",
        "text": "World War"
    },
    {
        "start": "1034.459",
        "dur": "7.59",
        "text": "how is that saving people just moved it"
    },
    {
        "start": "1037.15",
        "dur": "5.59",
        "text": "we just moved it it does get rid of"
    },
    {
        "start": "1042.049",
        "dur": "1.981",
        "text": "these things"
    },
    {
        "start": "1042.74",
        "dur": "3.209",
        "text": "the only thing that gets rid of these"
    },
    {
        "start": "1044.03",
        "dur": "5.31",
        "text": "things as philosophy is rationality is"
    },
    {
        "start": "1045.949",
        "dur": "5.181",
        "text": "personal integrity and courage not"
    },
    {
        "start": "1049.34",
        "dur": "3.63",
        "text": "shooting people shooting people does not"
    },
    {
        "start": "1051.13",
        "dur": "3.72",
        "text": "solve problems does not"
    },
    {
        "start": "1052.97",
        "dur": "5.28",
        "text": "the world does not change people's minds"
    },
    {
        "start": "1054.85",
        "dur": "7.42",
        "text": "just exposes them to sunlight not the"
    },
    {
        "start": "1058.25",
        "dur": "5.549",
        "text": "light of thought so of course they"
    },
    {
        "start": "1062.27",
        "dur": "5.67",
        "text": "accidentally find oil in the Middle East"
    },
    {
        "start": "1063.799",
        "dur": "8.281",
        "text": "and one of the reasons that you ended up"
    },
    {
        "start": "1067.94",
        "dur": "5.64",
        "text": "that the England promised a Palestine to"
    },
    {
        "start": "1072.08",
        "dur": "3",
        "text": "the Jews in the Balfour Declaration was"
    },
    {
        "start": "1073.58",
        "dur": "3.66",
        "text": "because in order to get loans to"
    },
    {
        "start": "1075.08",
        "dur": "4.29",
        "text": "continue the first world war from Jewish"
    },
    {
        "start": "1077.24",
        "dur": "4.26",
        "text": "bankers they made a promise to support"
    },
    {
        "start": "1079.37",
        "dur": "3.96",
        "text": "the the creation of a Jewish state in"
    },
    {
        "start": "1081.5",
        "dur": "3.75",
        "text": "Palestine the Jewish state of Israel so"
    },
    {
        "start": "1083.33",
        "dur": "3.479",
        "text": "this gets set up and of course everyone"
    },
    {
        "start": "1085.25",
        "dur": "3.45",
        "text": "gets attacked the Jews get attacked"
    },
    {
        "start": "1086.809",
        "dur": "3.48",
        "text": "right away because they've set up for"
    },
    {
        "start": "1088.7",
        "dur": "3.63",
        "text": "their own lunatic reasons they've set up"
    },
    {
        "start": "1090.289",
        "dur": "4.62",
        "text": "their country right in the middle of"
    },
    {
        "start": "1092.33",
        "dur": "4.979",
        "text": "everyone who hates them it's a state of"
    },
    {
        "start": "1094.909",
        "dur": "4.591",
        "text": "perpetual danger just like 1984 we are"
    },
    {
        "start": "1097.309",
        "dur": "3.87",
        "text": "always at war with the Arabs and you"
    },
    {
        "start": "1099.5",
        "dur": "3.289",
        "text": "know they get a good deal of goodies"
    },
    {
        "start": "1101.179",
        "dur": "6.87",
        "text": "from the Jews around the world and so on"
    },
    {
        "start": "1102.789",
        "dur": "6.76",
        "text": "but the the anglo-american companies who"
    },
    {
        "start": "1108.049",
        "dur": "4.141",
        "text": "had found the oil immerse sort of"
    },
    {
        "start": "1109.549",
        "dur": "5.01",
        "text": "gathering the oil were viewed as very"
    },
    {
        "start": "1112.19",
        "dur": "5.13",
        "text": "great prizes by the Arab governments of"
    },
    {
        "start": "1114.559",
        "dur": "4.891",
        "text": "the time and so of course what happened"
    },
    {
        "start": "1117.32",
        "dur": "5.07",
        "text": "was when the Allies had finished"
    },
    {
        "start": "1119.45",
        "dur": "4.5",
        "text": "fighting the Nazis they said okay well"
    },
    {
        "start": "1122.39",
        "dur": "3.029",
        "text": "screw those Eastern Europeans we're"
    },
    {
        "start": "1123.95",
        "dur": "4.08",
        "text": "going to surrender them into slavery"
    },
    {
        "start": "1125.419",
        "dur": "4.89",
        "text": "under Stalin to hell with them what"
    },
    {
        "start": "1128.03",
        "dur": "3.75",
        "text": "we're going to do is we're going to just"
    },
    {
        "start": "1130.309",
        "dur": "2.041",
        "text": "sort of retreat and we're going to lick"
    },
    {
        "start": "1131.78",
        "dur": "3.36",
        "text": "her wounds"
    },
    {
        "start": "1132.35",
        "dur": "4.35",
        "text": "oh and now the now that we're out of the"
    },
    {
        "start": "1135.14",
        "dur": "4.86",
        "text": "Middle East and we can't possibly go to"
    },
    {
        "start": "1136.7",
        "dur": "5.28",
        "text": "war at the moment the the Arabs are"
    },
    {
        "start": "1140",
        "dur": "3.72",
        "text": "taking nationalizing because of their"
    },
    {
        "start": "1141.98",
        "dur": "3.36",
        "text": "socialist propaganda which we largely"
    },
    {
        "start": "1143.72",
        "dur": "3.42",
        "text": "fed to them through our intellectuals"
    },
    {
        "start": "1145.34",
        "dur": "4.77",
        "text": "there now nationalizing the oil"
    },
    {
        "start": "1147.14",
        "dur": "4.71",
        "text": "companies so they stole all the oil"
    },
    {
        "start": "1150.11",
        "dur": "2.91",
        "text": "companies and because the West had just"
    },
    {
        "start": "1151.85",
        "dur": "3.51",
        "text": "been in a big war they couldn't do"
    },
    {
        "start": "1153.02",
        "dur": "3.659",
        "text": "anything about and not they should have"
    },
    {
        "start": "1155.36",
        "dur": "4.89",
        "text": "because that would have worked out even"
    },
    {
        "start": "1156.679",
        "dur": "5.071",
        "text": "worse and so the cold war goes on and on"
    },
    {
        "start": "1160.25",
        "dur": "4.02",
        "text": "we'll just sort of talk about this last"
    },
    {
        "start": "1161.75",
        "dur": "3.69",
        "text": "thing that culminated in 9/11 so that"
    },
    {
        "start": "1164.27",
        "dur": "7.44",
        "text": "you can understand that this stuff just"
    },
    {
        "start": "1165.44",
        "dur": "9.39",
        "text": "never works right so in order to in"
    },
    {
        "start": "1171.71",
        "dur": "5.16",
        "text": "order to fight against Russia through"
    },
    {
        "start": "1174.83",
        "dur": "3.75",
        "text": "the proxy war so the Viet Nam's the"
    },
    {
        "start": "1176.87",
        "dur": "3.72",
        "text": "Koreas and so on through the proxy wars"
    },
    {
        "start": "1178.58",
        "dur": "4.84",
        "text": "which nuclear powers at their very worst"
    },
    {
        "start": "1180.59",
        "dur": "4.39",
        "text": "are able to do the CIA trying to"
    },
    {
        "start": "1183.42",
        "dur": "3.33",
        "text": "it rains a fine young gentleman from"
    },
    {
        "start": "1184.98",
        "dur": "5.55",
        "text": "Saudi Arabia a name - sama bin Laden"
    },
    {
        "start": "1186.75",
        "dur": "6.51",
        "text": "whose religious and nutty and pretty"
    },
    {
        "start": "1190.53",
        "dur": "7.41",
        "text": "pretty nasty guy to go and fight with"
    },
    {
        "start": "1193.26",
        "dur": "6.57",
        "text": "his Mujahideen in Afghanistan and he"
    },
    {
        "start": "1197.94",
        "dur": "3.66",
        "text": "he's working on this theory and the"
    },
    {
        "start": "1199.83",
        "dur": "4.38",
        "text": "theory is that you can never militarily"
    },
    {
        "start": "1201.6",
        "dur": "3.78",
        "text": "beat a superpower if they've got nuclear"
    },
    {
        "start": "1204.21",
        "dur": "3.03",
        "text": "weapons they've got all the guns and"
    },
    {
        "start": "1205.38",
        "dur": "3.24",
        "text": "planes and bombs in the world and you"
    },
    {
        "start": "1207.24",
        "dur": "2.37",
        "text": "can't invade the country they'll just"
    },
    {
        "start": "1208.62",
        "dur": "2.22",
        "text": "nuclear at the border or"
    },
    {
        "start": "1209.61",
        "dur": "3.21",
        "text": "drop this you know a billion"
    },
    {
        "start": "1210.84",
        "dur": "4.08",
        "text": "conventional bombs on you in the on the"
    },
    {
        "start": "1212.82",
        "dur": "3.45",
        "text": "border and you'll never get anywhere so"
    },
    {
        "start": "1214.92",
        "dur": "3.09",
        "text": "what you need to do is you need to lure"
    },
    {
        "start": "1216.27",
        "dur": "3.09",
        "text": "them into your neck of the woods and"
    },
    {
        "start": "1218.01",
        "dur": "3.75",
        "text": "then you need to stage a war of"
    },
    {
        "start": "1219.36",
        "dur": "4.74",
        "text": "attrition because in the second world"
    },
    {
        "start": "1221.76",
        "dur": "4.14",
        "text": "war it cost about the same to attack as"
    },
    {
        "start": "1224.1",
        "dur": "3.36",
        "text": "it did to defend right so you had a"
    },
    {
        "start": "1225.9",
        "dur": "2.64",
        "text": "bomber that cost I don't know half a"
    },
    {
        "start": "1227.46",
        "dur": "3",
        "text": "million dollars and then you had a"
    },
    {
        "start": "1228.54",
        "dur": "3.81",
        "text": "couple of anti-aircraft guns that cost"
    },
    {
        "start": "1230.46",
        "dur": "4.35",
        "text": "half a million dollars and you know they"
    },
    {
        "start": "1232.35",
        "dur": "3.54",
        "text": "blow each other up so that's why in the"
    },
    {
        "start": "1234.81",
        "dur": "4.56",
        "text": "first world war on the second world war"
    },
    {
        "start": "1235.89",
        "dur": "4.98",
        "text": "is largely war of attrition but now that"
    },
    {
        "start": "1239.37",
        "dur": "3.24",
        "text": "the balance of power has changed quite a"
    },
    {
        "start": "1240.87",
        "dur": "3.57",
        "text": "bit in that you can take down a twenty"
    },
    {
        "start": "1242.61",
        "dur": "3.9",
        "text": "million dollar fighter with a fifteen"
    },
    {
        "start": "1244.44",
        "dur": "4.14",
        "text": "thousand dollar Stinger missile so"
    },
    {
        "start": "1246.51",
        "dur": "3.69",
        "text": "whoever's defending or harrying or"
    },
    {
        "start": "1248.58",
        "dur": "3.92",
        "text": "nitpicking or whoever's the insurgent"
    },
    {
        "start": "1250.2",
        "dur": "5.34",
        "text": "whoever's the guerrilla is spending"
    },
    {
        "start": "1252.5",
        "dur": "4.54",
        "text": "hundreds or thousands of times less than"
    },
    {
        "start": "1255.54",
        "dur": "4.74",
        "text": "the person who has the more expensive"
    },
    {
        "start": "1257.04",
        "dur": "5.82",
        "text": "military hardware and so bin Laden went"
    },
    {
        "start": "1260.28",
        "dur": "4.14",
        "text": "in to Afghanistan and harried the"
    },
    {
        "start": "1262.86",
        "dur": "4.89",
        "text": "Russians and this was one of the things"
    },
    {
        "start": "1264.42",
        "dur": "5.04",
        "text": "that was pretty key about Russia going"
    },
    {
        "start": "1267.75",
        "dur": "3.51",
        "text": "bankrupt was they spend so much money on"
    },
    {
        "start": "1269.46",
        "dur": "3.09",
        "text": "the war on Afghanistan they blew up so"
    },
    {
        "start": "1271.26",
        "dur": "3",
        "text": "much military hardware that they had to"
    },
    {
        "start": "1272.55",
        "dur": "2.91",
        "text": "replace that's one of the key reasons"
    },
    {
        "start": "1274.26",
        "dur": "3.12",
        "text": "they were going to go bankrupt anyway"
    },
    {
        "start": "1275.46",
        "dur": "3.84",
        "text": "because just as the Nazi Empire would"
    },
    {
        "start": "1277.38",
        "dur": "4.47",
        "text": "have just as the Communist Empire would"
    },
    {
        "start": "1279.3",
        "dur": "4.7",
        "text": "have if they hadn't reformed but this of"
    },
    {
        "start": "1281.85",
        "dur": "6.18",
        "text": "course made it go that much faster"
    },
    {
        "start": "1284",
        "dur": "5.29",
        "text": "so bin Laden goes into Afghanistan and"
    },
    {
        "start": "1288.03",
        "dur": "3.99",
        "text": "is instrumental in bringing down a"
    },
    {
        "start": "1289.29",
        "dur": "5.52",
        "text": "superpower by hearing it in a one-sided"
    },
    {
        "start": "1292.02",
        "dur": "4.14",
        "text": "non war of attrition where the Soviets"
    },
    {
        "start": "1294.81",
        "dur": "3.15",
        "text": "have to spend a hundred or thousand"
    },
    {
        "start": "1296.16",
        "dur": "4.23",
        "text": "dollars for every dollar that bin Laden"
    },
    {
        "start": "1297.96",
        "dur": "3.3",
        "text": "has to spend so he learns a great lesson"
    },
    {
        "start": "1300.39",
        "dur": "3.3",
        "text": "which is that you bring down a"
    },
    {
        "start": "1301.26",
        "dur": "4.35",
        "text": "superpower by luring them into war in"
    },
    {
        "start": "1303.69",
        "dur": "3.24",
        "text": "the land that you're familiar with in a"
    },
    {
        "start": "1305.61",
        "dur": "3.12",
        "text": "culture that you're familiar with and"
    },
    {
        "start": "1306.93",
        "dur": "3.44",
        "text": "then attacking them from every angle and"
    },
    {
        "start": "1308.73",
        "dur": "3.5",
        "text": "harassing them until they go bankrupt"
    },
    {
        "start": "1310.37",
        "dur": "6.12",
        "text": "huh wonder if"
    },
    {
        "start": "1312.23",
        "dur": "7.319",
        "text": "has any parallels one of them wait you"
    },
    {
        "start": "1316.49",
        "dur": "5.58",
        "text": "know what that actually seems to be very"
    },
    {
        "start": "1319.549",
        "dur": "6.661",
        "text": "similar to 9/11 yes I in fact think that"
    },
    {
        "start": "1322.07",
        "dur": "7.5",
        "text": "it is right because of course the in the"
    },
    {
        "start": "1326.21",
        "dur": "5.459",
        "text": "first Gulf War they they lied to the"
    },
    {
        "start": "1329.57",
        "dur": "4.02",
        "text": "House of Saud the Saudi leadership in"
    },
    {
        "start": "1331.669",
        "dur": "3.63",
        "text": "Saudi Arabia and said oh there are lots"
    },
    {
        "start": "1333.59",
        "dur": "2.969",
        "text": "of Hussein's troops and tanks massed"
    },
    {
        "start": "1335.299",
        "dur": "2.791",
        "text": "along your border he's going to invade"
    },
    {
        "start": "1336.559",
        "dur": "4.141",
        "text": "they faked all the photographs and so"
    },
    {
        "start": "1338.09",
        "dur": "4.23",
        "text": "the House of Saud said Oh God give us"
    },
    {
        "start": "1340.7",
        "dur": "3.51",
        "text": "some American troops of the American"
    },
    {
        "start": "1342.32",
        "dur": "4.92",
        "text": "troops all went to Saudi Arabia and"
    },
    {
        "start": "1344.21",
        "dur": "4.62",
        "text": "there they are propping up the House of"
    },
    {
        "start": "1347.24",
        "dur": "2.73",
        "text": "Saud which is hated by fundamentalist"
    },
    {
        "start": "1348.83",
        "dur": "2.94",
        "text": "Muslims because it's considered to be"
    },
    {
        "start": "1349.97",
        "dur": "4.17",
        "text": "westernized and corrupt and decadent to"
    },
    {
        "start": "1351.77",
        "dur": "5.31",
        "text": "evil and leading people off the path to"
    },
    {
        "start": "1354.14",
        "dur": "5.82",
        "text": "evil and the Great Satan and so on so"
    },
    {
        "start": "1357.08",
        "dur": "4.86",
        "text": "they hate the fact that America has"
    },
    {
        "start": "1359.96",
        "dur": "3.45",
        "text": "troops stationed in Saudi Arabia you"
    },
    {
        "start": "1361.94",
        "dur": "4.32",
        "text": "know just as if you live in America you"
    },
    {
        "start": "1363.41",
        "dur": "3.96",
        "text": "probably kind of pissed if China had"
    },
    {
        "start": "1366.26",
        "dur": "2.4",
        "text": "hundreds of thousands of troops"
    },
    {
        "start": "1367.37",
        "dur": "3.96",
        "text": "stationed all over the United States"
    },
    {
        "start": "1368.66",
        "dur": "4.47",
        "text": "propping up a local dictatorship well"
    },
    {
        "start": "1371.33",
        "dur": "3.54",
        "text": "you would not be that happy with that"
    },
    {
        "start": "1373.13",
        "dur": "4.38",
        "text": "either right so of course they want the"
    },
    {
        "start": "1374.87",
        "dur": "3.78",
        "text": "US troops and it's almost 700 bases US"
    },
    {
        "start": "1377.51",
        "dur": "3.799",
        "text": "bases around the world it's a"
    },
    {
        "start": "1378.65",
        "dur": "6.51",
        "text": "ridiculously far-flung military empire"
    },
    {
        "start": "1381.309",
        "dur": "5.74",
        "text": "so he knows that he can fight the troops"
    },
    {
        "start": "1385.16",
        "dur": "3.24",
        "text": "in Saudi Arabia because they're propping"
    },
    {
        "start": "1387.049",
        "dur": "2.611",
        "text": "up the ruling class the House of Saud"
    },
    {
        "start": "1388.4",
        "dur": "2.85",
        "text": "and because America is far superior"
    },
    {
        "start": "1389.66",
        "dur": "3.899",
        "text": "militarily so what does he do well he"
    },
    {
        "start": "1391.25",
        "dur": "4.11",
        "text": "cooks up a scheme where he says how am I"
    },
    {
        "start": "1393.559",
        "dur": "3.661",
        "text": "going to lure America into attacking"
    },
    {
        "start": "1395.36",
        "dur": "2.76",
        "text": "Muslims having at a lure America into a"
    },
    {
        "start": "1397.22",
        "dur": "3.78",
        "text": "war in the Middle East"
    },
    {
        "start": "1398.12",
        "dur": "4.86",
        "text": "well 9/11 happens everybody goes"
    },
    {
        "start": "1401",
        "dur": "3.45",
        "text": "completely insane and never asks a"
    },
    {
        "start": "1402.98",
        "dur": "3.03",
        "text": "single question about history or where"
    },
    {
        "start": "1404.45",
        "dur": "3.65",
        "text": "it came from or what happened to what's"
    },
    {
        "start": "1406.01",
        "dur": "5.48",
        "text": "going on but like kill kill kill kill"
    },
    {
        "start": "1408.1",
        "dur": "7.72",
        "text": "get him back punishment vengeance murder"
    },
    {
        "start": "1411.49",
        "dur": "5.17",
        "text": "war it's always worked out so well in"
    },
    {
        "start": "1415.82",
        "dur": "2.4",
        "text": "the past hasn't it"
    },
    {
        "start": "1416.66",
        "dur": "3.69",
        "text": "oh it's so fucking great in the past"
    },
    {
        "start": "1418.22",
        "dur": "3.69",
        "text": "let's try it again goddamn lesson we"
    },
    {
        "start": "1420.35",
        "dur": "3.39",
        "text": "have to keep learning over and over and"
    },
    {
        "start": "1421.91",
        "dur": "3.509",
        "text": "over again it's embarrassing how"
    },
    {
        "start": "1423.74",
        "dur": "5.52",
        "text": "ridiculously slow we are on the uptake"
    },
    {
        "start": "1425.419",
        "dur": "5.461",
        "text": "about the practicality of violence so"
    },
    {
        "start": "1429.26",
        "dur": "3.419",
        "text": "America goes charging into the wrong"
    },
    {
        "start": "1430.88",
        "dur": "3.9",
        "text": "country as one comedian said wait"
    },
    {
        "start": "1432.679",
        "dur": "4.051",
        "text": "seventeen of the 19 hijackers were Saudi"
    },
    {
        "start": "1434.78",
        "dur": "5.399",
        "text": "Arabia we invade Afghanistan what did we"
    },
    {
        "start": "1436.73",
        "dur": "5.28",
        "text": "do miss so America goes in and do bin"
    },
    {
        "start": "1440.179",
        "dur": "2.451",
        "text": "Laden then starts to apply exactly or"
    },
    {
        "start": "1442.01",
        "dur": "2.69",
        "text": "the"
    },
    {
        "start": "1442.63",
        "dur": "4.8",
        "text": "applies exactly the same lessons that"
    },
    {
        "start": "1444.7",
        "dur": "4.29",
        "text": "the CIA and bin Laden the Mujahideen"
    },
    {
        "start": "1447.43",
        "dur": "3.48",
        "text": "cooked it cooked up to go into"
    },
    {
        "start": "1448.99",
        "dur": "4.29",
        "text": "Afghanistan which is you draw the"
    },
    {
        "start": "1450.91",
        "dur": "4.68",
        "text": "military power into your neck of the"
    },
    {
        "start": "1453.28",
        "dur": "5.22",
        "text": "woods you arouse local popular"
    },
    {
        "start": "1455.59",
        "dur": "4.14",
        "text": "resentment and you you just not picking"
    },
    {
        "start": "1458.5",
        "dur": "3.51",
        "text": "them off and they have to spend way more"
    },
    {
        "start": "1459.73",
        "dur": "3.72",
        "text": "money and way more goodwill fighting you"
    },
    {
        "start": "1462.01",
        "dur": "4.68",
        "text": "than you ever have to spend fighting"
    },
    {
        "start": "1463.45",
        "dur": "5.4",
        "text": "there 9/11 costs one hundred and fifty"
    },
    {
        "start": "1466.69",
        "dur": "3.54",
        "text": "thousand dollars to pull off America has"
    },
    {
        "start": "1468.85",
        "dur": "4.29",
        "text": "spent what 500 billion dollars"
    },
    {
        "start": "1470.23",
        "dur": "5.01",
        "text": "responding to it hmm I wonder how that's"
    },
    {
        "start": "1473.14",
        "dur": "4.56",
        "text": "going to go in the long run I wonder"
    },
    {
        "start": "1475.24",
        "dur": "6.15",
        "text": "which end pyre is actually going to go"
    },
    {
        "start": "1477.7",
        "dur": "6.99",
        "text": "down and so all of these kinds of things"
    },
    {
        "start": "1481.39",
        "dur": "5.25",
        "text": "are the inevitable result of going to"
    },
    {
        "start": "1484.69",
        "dur": "4.29",
        "text": "charge in and start shooting and blowing"
    },
    {
        "start": "1486.64",
        "dur": "3.93",
        "text": "people up in other countries that the"
    },
    {
        "start": "1488.98",
        "dur": "3.27",
        "text": "patterns of these things go right back"
    },
    {
        "start": "1490.57",
        "dur": "4.83",
        "text": "to decisions that were made generations"
    },
    {
        "start": "1492.25",
        "dur": "5.37",
        "text": "ago that we venerate that we venerate we"
    },
    {
        "start": "1495.4",
        "dur": "3.48",
        "text": "say well first world war was a noble war"
    },
    {
        "start": "1497.62",
        "dur": "3.63",
        "text": "and then the Second World War was a"
    },
    {
        "start": "1498.88",
        "dur": "5.4",
        "text": "really noble war well now it was just"
    },
    {
        "start": "1501.25",
        "dur": "5.25",
        "text": "cause and effect I mean the second world"
    },
    {
        "start": "1504.28",
        "dur": "3.84",
        "text": "war can be arguably traced directly back"
    },
    {
        "start": "1506.5",
        "dur": "4.14",
        "text": "to America's decision to enter the First"
    },
    {
        "start": "1508.12",
        "dur": "4.73",
        "text": "World War and then all the ramifications"
    },
    {
        "start": "1510.64",
        "dur": "4.41",
        "text": "of that including the Soviet empire"
    },
    {
        "start": "1512.85",
        "dur": "4.12",
        "text": "including the Chinese communism"
    },
    {
        "start": "1515.05",
        "dur": "4.56",
        "text": "including the nationalization of the oil"
    },
    {
        "start": "1516.97",
        "dur": "4.05",
        "text": "companies by the by the Muslim"
    },
    {
        "start": "1519.61",
        "dur": "3.21",
        "text": "governments by the Arabic governments"
    },
    {
        "start": "1521.02",
        "dur": "4.23",
        "text": "and of course all the mess that has"
    },
    {
        "start": "1522.82",
        "dur": "4.08",
        "text": "continued on since then over and over"
    },
    {
        "start": "1525.25",
        "dur": "3.72",
        "text": "and over again this just keeps going on"
    },
    {
        "start": "1526.9",
        "dur": "5.91",
        "text": "and keeps going on and keeps going on"
    },
    {
        "start": "1528.97",
        "dur": "6.57",
        "text": "until we can pry our fingers off that"
    },
    {
        "start": "1532.81",
        "dur": "5.01",
        "text": "fucking trigger we are just going to"
    },
    {
        "start": "1535.54",
        "dur": "8.97",
        "text": "spend our children's lives in blood"
    },
    {
        "start": "1537.82",
        "dur": "10.26",
        "text": "until the end of time and why not give"
    },
    {
        "start": "1544.51",
        "dur": "10.25",
        "text": "up the illusion that murder can be"
    },
    {
        "start": "1548.08",
        "dur": "9.95",
        "text": "virtuous and why don't we learn to think"
    },
    {
        "start": "1554.76",
        "dur": "6.63",
        "text": "instead of kill"
    },
    {
        "start": "1558.03",
        "dur": "3.36",
        "text": "thank you for watching"
    }
]