{
  "Title": "Shape the hell up world!",
  "Id": "EAy96uRmMzc",
  "Transcript": [
    {
      "text": "there's two questions here we haven't",
      "start": 0.03,
      "duration": 3.599
    },
    {
      "text": "dealt with one is how do you balance",
      "start": 1.829,
      "duration": 3.541
    },
    {
      "text": "your life you know having a life with",
      "start": 3.629,
      "duration": 3.541
    },
    {
      "text": "your family and your self and your",
      "start": 5.37,
      "duration": 4.43
    },
    {
      "text": "friends while you know having this",
      "start": 7.17,
      "duration": 5.9
    },
    {
      "text": "city-state world empire on the internet",
      "start": 9.8,
      "duration": 5.799
    },
    {
      "text": "well I mean to me it's it's a very",
      "start": 13.07,
      "duration": 5.08
    },
    {
      "text": "simple thing in theory and it can be",
      "start": 15.599,
      "duration": 4.651
    },
    {
      "text": "tough to achieve in practice but I do",
      "start": 18.15,
      "duration": 8.28
    },
    {
      "text": "the very best I can to push this cart",
      "start": 20.25,
      "duration": 8.91
    },
    {
      "text": "forward and I have no investment in",
      "start": 26.43,
      "duration": 4.349
    },
    {
      "text": "whether it goes forward or not that's",
      "start": 29.16,
      "duration": 3.239
    },
    {
      "text": "the best that I've been able to come up",
      "start": 30.779,
      "duration": 5.731
    },
    {
      "text": "with so I will expend every ounce of",
      "start": 32.399,
      "duration": 7.111
    },
    {
      "text": "mental sweat and blood that I can to",
      "start": 36.51,
      "duration": 4.319
    },
    {
      "text": "make the most compelling and",
      "start": 39.51,
      "duration": 3.51
    },
    {
      "text": "entertaining and engaging and hopefully",
      "start": 40.829,
      "duration": 4.591
    },
    {
      "text": "rational and empirical arguments for",
      "start": 43.02,
      "duration": 4.64
    },
    {
      "text": "truth consistency reason and virtue and",
      "start": 45.42,
      "duration": 5.52
    },
    {
      "text": "I have no investment if anybody listens",
      "start": 47.66,
      "duration": 5.14
    },
    {
      "text": "I mean that the end that's a delicate",
      "start": 50.94,
      "duration": 3.81
    },
    {
      "text": "you can't sing without an audience you",
      "start": 52.8,
      "duration": 3.63
    },
    {
      "text": "know when I started write that when we",
      "start": 54.75,
      "duration": 3.39
    },
    {
      "text": "start no one's listening you know your",
      "start": 56.43,
      "duration": 3.39
    },
    {
      "text": "first episode how many people listened",
      "start": 58.14,
      "duration": 4.59
    },
    {
      "text": "to it that week yeah yeah yeah some guy",
      "start": 59.82,
      "duration": 5.19
    },
    {
      "text": "in next next car cuz I'm the window down",
      "start": 62.73,
      "duration": 5.819
    },
    {
      "text": "but no but I have no like I desperately",
      "start": 65.01,
      "duration": 5.219
    },
    {
      "text": "want to change the world and I'm putting",
      "start": 68.549,
      "duration": 4.161
    },
    {
      "text": "every ounce of effort that I can as",
      "start": 70.229,
      "duration": 5.521
    },
    {
      "text": "consistently and and hopefully adroit be",
      "start": 72.71,
      "duration": 6.28
    },
    {
      "text": "applied as I can but I have no power",
      "start": 75.75,
      "duration": 4.799
    },
    {
      "text": "over whether the world will change not",
      "start": 78.99,
      "duration": 3
    },
    {
      "text": "so you make your most compelling it's",
      "start": 80.549,
      "duration": 3.061
    },
    {
      "text": "like a doctor you can say to the guy",
      "start": 81.99,
      "duration": 3.84
    },
    {
      "text": "listen if you keep eating like this you",
      "start": 83.61,
      "duration": 3.96
    },
    {
      "text": "keep smoking like this you keep drinking",
      "start": 85.83,
      "duration": 3.99
    },
    {
      "text": "like this you're gonna get sick and you",
      "start": 87.57,
      "duration": 3.96
    },
    {
      "text": "can make that really passionate case to",
      "start": 89.82,
      "duration": 2.79
    },
    {
      "text": "him and the more passionate you make",
      "start": 91.53,
      "duration": 4.019
    },
    {
      "text": "that case the more likely he is to",
      "start": 92.61,
      "duration": 5.88
    },
    {
      "text": "listen but you have no control what he",
      "start": 95.549,
      "duration": 5.041
    },
    {
      "text": "does when he leaves your office so you",
      "start": 98.49,
      "duration": 3.72
    },
    {
      "text": "make that case and you really don't want",
      "start": 100.59,
      "duration": 3
    },
    {
      "text": "the guy to get sick you really want him",
      "start": 102.21,
      "duration": 3.93
    },
    {
      "text": "to live well and then he walks out and",
      "start": 103.59,
      "duration": 4.559
    },
    {
      "text": "you have no ownership anymore of what he",
      "start": 106.14,
      "duration": 4.74
    },
    {
      "text": "does it's that balance and very often we",
      "start": 108.149,
      "duration": 4.051
    },
    {
      "text": "follow people out of their waiting room",
      "start": 110.88,
      "duration": 2.82
    },
    {
      "text": "and the waiting room we followed put",
      "start": 112.2,
      "duration": 2.97
    },
    {
      "text": "down their cigarette I don't drive so",
      "start": 113.7,
      "duration": 3.18
    },
    {
      "text": "fast you you can't have that",
      "start": 115.17,
      "duration": 3.33
    },
    {
      "text": "cheeseburger that's not good for you you",
      "start": 116.88,
      "duration": 2.669
    },
    {
      "text": "know whatever it is come back for a",
      "start": 118.5,
      "duration": 1.979
    },
    {
      "text": "checkup you need to get your blood",
      "start": 119.549,
      "duration": 2.371
    },
    {
      "text": "tested is that test videos your foots",
      "start": 120.479,
      "duration": 3.96
    },
    {
      "text": "looking black you diabetes we follow",
      "start": 121.92,
      "duration": 6.509
    },
    {
      "text": "people we we stalk if the world we can't",
      "start": 124.439,
      "duration": 5.701
    },
    {
      "text": "stop the world I mean we can't make us",
      "start": 128.429,
      "duration": 4.291
    },
    {
      "text": "miserable to change the world so you",
      "start": 130.14,
      "duration": 3.66
    },
    {
      "text": "push as hard as you can",
      "start": 132.72,
      "duration": 2.49
    },
    {
      "text": "and you don't care if it moves or not",
      "start": 133.8,
      "duration": 3.39
    },
    {
      "text": "that's that's the only thing that I can",
      "start": 135.21,
      "duration": 3.66
    },
    {
      "text": "do that has given me I think the most",
      "start": 137.19,
      "duration": 3.81
    },
    {
      "text": "freedom I'm very passionate about the",
      "start": 138.87,
      "duration": 3.9
    },
    {
      "text": "course of truth reason and philosophy",
      "start": 141,
      "duration": 5.58
    },
    {
      "text": "and I am as indifferent as I possibly",
      "start": 142.77,
      "duration": 5.82
    },
    {
      "text": "can be as to whether people listen or",
      "start": 146.58,
      "duration": 4.23
    },
    {
      "text": "not because that is the most rational",
      "start": 148.59,
      "duration": 4.32
    },
    {
      "text": "thing that I can do I only have control",
      "start": 150.81,
      "duration": 4.44
    },
    {
      "text": "over what I do of course I have no",
      "start": 152.91,
      "duration": 4.68
    },
    {
      "text": "control over what anybody else does and",
      "start": 155.25,
      "duration": 4.59
    },
    {
      "text": "I mean I can't even control my daughter",
      "start": 157.59,
      "duration": 3.42
    },
    {
      "text": "she's 3 trying to have a conversation",
      "start": 159.84,
      "duration": 2.79
    },
    {
      "text": "with her mom at dinner she is an",
      "start": 161.01,
      "duration": 3.45
    },
    {
      "text": "unbelievable wind-up chatterbox now I",
      "start": 162.63,
      "duration": 4.23
    },
    {
      "text": "can't exactly complain she might have",
      "start": 164.46,
      "duration": 3.57
    },
    {
      "text": "gotten that from it's a mystery",
      "start": 166.86,
      "duration": 3.57
    },
    {
      "text": "obviously it must skip a generation but",
      "start": 168.03,
      "duration": 3.75
    },
    {
      "text": "I mean I can't even control my daughter",
      "start": 170.43,
      "duration": 3.39
    },
    {
      "text": "who's 3 and I'm 10 times her size and",
      "start": 171.78,
      "duration": 4.95
    },
    {
      "text": "you know I hopefully have a few more",
      "start": 173.82,
      "duration": 5.04
    },
    {
      "text": "bits of knowledge if I can't control my",
      "start": 176.73,
      "duration": 3.09
    },
    {
      "text": "three-year-old I'm gonna pretend I",
      "start": 178.86,
      "duration": 3.09
    },
    {
      "text": "control someone else right and so I",
      "start": 179.82,
      "duration": 3.75
    },
    {
      "text": "really want to change the world and it",
      "start": 181.95,
      "duration": 3.06
    },
    {
      "text": "put every effort that I can into it",
      "start": 183.57,
      "duration": 3.44
    },
    {
      "text": "whether the world changes or not",
      "start": 185.01,
      "duration": 3.87
    },
    {
      "text": "fundamentally I could care less because",
      "start": 187.01,
      "duration": 3.73
    },
    {
      "text": "I have no control over it and I try not",
      "start": 188.88,
      "duration": 3.99
    },
    {
      "text": "to imagine I have control where I don't",
      "start": 190.74,
      "duration": 5.15
    },
    {
      "text": "because that's a sure path to misery",
      "start": 192.87,
      "duration": 8
    },
    {
      "text": "worms so final question and this is a",
      "start": 195.89,
      "duration": 6.78
    },
    {
      "text": "big one for me because as I said I",
      "start": 200.87,
      "duration": 4.41
    },
    {
      "text": "listen to you and bad Quaker when the",
      "start": 202.67,
      "duration": 4.74
    },
    {
      "text": "weight of the world is scaring my little",
      "start": 205.28,
      "duration": 6.69
    },
    {
      "text": "brain I've a slate between really just",
      "start": 207.41,
      "duration": 7.29
    },
    {
      "text": "thinking we are fucked and thinking you",
      "start": 211.97,
      "duration": 4.02
    },
    {
      "text": "know there might be hope and you know",
      "start": 214.7,
      "duration": 2.43
    },
    {
      "text": "I'm 47",
      "start": 215.99,
      "duration": 3.45
    },
    {
      "text": "my dad's 90 so I'll be and I have a",
      "start": 217.13,
      "duration": 3.72
    },
    {
      "text": "healthy lifestyle I don't smoke or drink",
      "start": 219.44,
      "duration": 4.11
    },
    {
      "text": "or do drugs so I will probably live to",
      "start": 220.85,
      "duration": 4.2
    },
    {
      "text": "be maybe about that old you know bar",
      "start": 223.55,
      "duration": 4.86
    },
    {
      "text": "getting hit by a bus or whatever I'm",
      "start": 225.05,
      "duration": 6.06
    },
    {
      "text": "wondering when I'm that age if things",
      "start": 228.41,
      "duration": 4.799
    },
    {
      "text": "will be better or worse you know is it",
      "start": 231.11,
      "duration": 4.53
    },
    {
      "text": "gonna be Hitler's Germany is it gonna be",
      "start": 233.209,
      "duration": 4.351
    },
    {
      "text": "brave new world uh",
      "start": 235.64,
      "duration": 4.53
    },
    {
      "text": "or is it gonna be libertarian paradise",
      "start": 237.56,
      "duration": 5.07
    },
    {
      "text": "or something in between and what do you",
      "start": 240.17,
      "duration": 3.78
    },
    {
      "text": "think and how do you deal with those",
      "start": 242.63,
      "duration": 3.69
    },
    {
      "text": "thoughts if you have them at all no of",
      "start": 243.95,
      "duration": 3.75
    },
    {
      "text": "course I have them I mean I think it's",
      "start": 246.32,
      "duration": 4.05
    },
    {
      "text": "impossible do not have them I mean it",
      "start": 247.7,
      "duration": 4.74
    },
    {
      "text": "would be mental to not have them when",
      "start": 250.37,
      "duration": 4.5
    },
    {
      "text": "you study deeply the syphilis of the",
      "start": 252.44,
      "duration": 4.32
    },
    {
      "text": "world you got to look into the future",
      "start": 254.87,
      "duration": 5.7
    },
    {
      "text": "and we you know we are a kind of doctor",
      "start": 256.76,
      "duration": 8.34
    },
    {
      "text": "I believe and doctors gain efficacy",
      "start": 260.57,
      "duration": 7.26
    },
    {
      "text": "through studying disease and so yeah we",
      "start": 265.1,
      "duration": 4.47
    },
    {
      "text": "study evil you know we study evil and we",
      "start": 267.83,
      "duration": 3.57
    },
    {
      "text": "attempted he says a we I study evil and",
      "start": 269.57,
      "duration": 2.76
    },
    {
      "text": "I attempt to come up with as many",
      "start": 271.4,
      "duration": 2.85
    },
    {
      "text": "antidotes and Prevention's as possible",
      "start": 272.33,
      "duration": 3.33
    },
    {
      "text": "because I'd almost impossible yeah yeah",
      "start": 274.25,
      "duration": 2.97
    },
    {
      "text": "it's almost impossible to cure evil so",
      "start": 275.66,
      "duration": 3.63
    },
    {
      "text": "it's you know evil is stage 4 lung",
      "start": 277.22,
      "duration": 3.69
    },
    {
      "text": "cancer is I'm at some value all you can",
      "start": 279.29,
      "duration": 2.879
    },
    {
      "text": "do is prevent tell people to put down",
      "start": 280.91,
      "duration": 2.55
    },
    {
      "text": "the cigarettes because by then it's",
      "start": 282.169,
      "duration": 3.661
    },
    {
      "text": "usually too late if they haven't so so",
      "start": 283.46,
      "duration": 5.73
    },
    {
      "text": "yeah yeah if you study disease then you",
      "start": 285.83,
      "duration": 4.86
    },
    {
      "text": "gonna see that and you're gonna see",
      "start": 289.19,
      "duration": 4.14
    },
    {
      "text": "where it leads the these signs are not",
      "start": 290.69,
      "duration": 5.94
    },
    {
      "text": "good the signs are not good the power of",
      "start": 293.33,
      "duration": 5.19
    },
    {
      "text": "evil is greater because we have",
      "start": 296.63,
      "duration": 4.11
    },
    {
      "text": "generated so much wealth in society that",
      "start": 298.52,
      "duration": 5.58
    },
    {
      "text": "they can use the sweat of our Labor's",
      "start": 300.74,
      "duration": 4.95
    },
    {
      "text": "and the genius of our minds is",
      "start": 304.1,
      "duration": 4.08
    },
    {
      "text": "unbelievable collateral to sell us into",
      "start": 305.69,
      "duration": 5.039
    },
    {
      "text": "the distant future to to banksters and",
      "start": 308.18,
      "duration": 7.98
    },
    {
      "text": "other white-collar criminals and so we",
      "start": 310.729,
      "duration": 7.921
    },
    {
      "text": "have fed the cancer of the state with",
      "start": 316.16,
      "duration": 4.08
    },
    {
      "text": "the fuel of our productivity to the",
      "start": 318.65,
      "duration": 3.15
    },
    {
      "text": "point where it towers over us with a",
      "start": 320.24,
      "duration": 3.3
    },
    {
      "text": "size and strength that is unimaginable",
      "start": 321.8,
      "duration": 5.4
    },
    {
      "text": "in the past you know in the past you",
      "start": 323.54,
      "duration": 5.7
    },
    {
      "text": "know Macbeth could kill",
      "start": 327.2,
      "duration": 5.219
    },
    {
      "text": "King and become a new king done coup",
      "start": 329.24,
      "duration": 6.06
    },
    {
      "text": "done right because there were no",
      "start": 332.419,
      "duration": 4.291
    },
    {
      "text": "surveillance cameras no weapons of mass",
      "start": 335.3,
      "duration": 3.48
    },
    {
      "text": "destruction no endless cool acts all",
      "start": 336.71,
      "duration": 3.48
    },
    {
      "text": "over the planet no extraordinary",
      "start": 338.78,
      "duration": 5.729
    },
    {
      "text": "rendition so no passports no all of this",
      "start": 340.19,
      "duration": 4.71
    },
    {
      "text": "sort of stuff",
      "start": 344.509,
      "duration": 1.831
    },
    {
      "text": "now I'm course I'm not suggesting that",
      "start": 344.9,
      "duration": 3.299
    },
    {
      "text": "anything to do with with killing because",
      "start": 346.34,
      "duration": 4.109
    },
    {
      "text": "it's not how you overturn the state but",
      "start": 348.199,
      "duration": 3.81
    },
    {
      "text": "you know these mofos have some",
      "start": 350.449,
      "duration": 3.961
    },
    {
      "text": "significant power juice in their engines",
      "start": 352.009,
      "duration": 6.211
    },
    {
      "text": "and all we have really is three quarts",
      "start": 354.41,
      "duration": 5.28
    },
    {
      "text": "of the truth this Jimmy says right we",
      "start": 358.22,
      "duration": 4.289
    },
    {
      "text": "have we have the truth and we have this",
      "start": 359.69,
      "duration": 4.319
    },
    {
      "text": "amazing medium which allows us to have",
      "start": 362.509,
      "duration": 3.321
    },
    {
      "text": "conversations I never would have had",
      "start": 364.009,
      "duration": 5.431
    },
    {
      "text": "anything I mean I would never even have",
      "start": 365.83,
      "duration": 6.82
    },
    {
      "text": "the low show that I have if it wasn't",
      "start": 369.44,
      "duration": 4.62
    },
    {
      "text": "for the internet the internet I wouldn't",
      "start": 372.65,
      "duration": 3.419
    },
    {
      "text": "know you existed I mean maybe of course",
      "start": 374.06,
      "duration": 3.18
    },
    {
      "text": "not you would have gotten a book into",
      "start": 376.069,
      "duration": 2.551
    },
    {
      "text": "borders and I might have stumbled across",
      "start": 377.24,
      "duration": 3.57
    },
    {
      "text": "it with a hundred other books that may",
      "start": 378.62,
      "duration": 3.78
    },
    {
      "text": "come through that day but then I",
      "start": 380.81,
      "duration": 3.3
    },
    {
      "text": "consider that unlikely yeah cuz the",
      "start": 382.4,
      "duration": 3.06
    },
    {
      "text": "gatekeepers of culture have come",
      "start": 384.11,
      "duration": 2.7
    },
    {
      "text": "crashing down with the rise of the",
      "start": 385.46,
      "duration": 3.269
    },
    {
      "text": "internet the gatekeepers of culture and",
      "start": 386.81,
      "duration": 3.72
    },
    {
      "text": "culture I view as the enemy of truth and",
      "start": 388.729,
      "duration": 3.72
    },
    {
      "text": "reason cultures have talked about that",
      "start": 390.53,
      "duration": 4.05
    },
    {
      "text": "cultures yeah yeah well culture should",
      "start": 392.449,
      "duration": 4.351
    },
    {
      "text": "get some goddamn reason every pacifies",
      "start": 394.58,
      "duration": 4.5
    },
    {
      "text": "it socially should get some culture ya",
      "start": 396.8,
      "duration": 4.02
    },
    {
      "text": "know it's the reason that we use the",
      "start": 399.08,
      "duration": 4.98
    },
    {
      "text": "same word for delusions of grandeur and",
      "start": 400.82,
      "duration": 6
    },
    {
      "text": "things that infest and grow and kill",
      "start": 404.06,
      "duration": 6.38
    },
    {
      "text": "things right culture of germs anyway so",
      "start": 406.82,
      "duration": 7.2
    },
    {
      "text": "so yeah I mean we can't help but look",
      "start": 410.44,
      "duration": 5.199
    },
    {
      "text": "into the future and with with",
      "start": 414.02,
      "duration": 4.53
    },
    {
      "text": "extraordinary trepidation because the",
      "start": 415.639,
      "duration": 4.65
    },
    {
      "text": "technology is so great that I think I",
      "start": 418.55,
      "duration": 3.48
    },
    {
      "text": "fear that if Liberty is lost it will be",
      "start": 420.289,
      "duration": 4.491
    },
    {
      "text": "very hard to very hard to recover and",
      "start": 422.03,
      "duration": 5.16
    },
    {
      "text": "this is not the end of ROM this is not",
      "start": 424.78,
      "duration": 3.759
    },
    {
      "text": "the end of the British Empire this is",
      "start": 427.19,
      "duration": 2.879
    },
    {
      "text": "not the end of the Ottoman Empire this",
      "start": 428.539,
      "duration": 3.211
    },
    {
      "text": "is very different this is a very",
      "start": 430.069,
      "duration": 3.061
    },
    {
      "text": "different environment that we have the",
      "start": 431.75,
      "duration": 2.909
    },
    {
      "text": "possibility of mass surveillance and",
      "start": 433.13,
      "duration": 4.349
    },
    {
      "text": "mass information-gathering chip IDs and",
      "start": 434.659,
      "duration": 5.301
    },
    {
      "text": "RF IDs and and everything the the",
      "start": 437.479,
      "duration": 4.651
    },
    {
      "text": "possibility of controlling the human",
      "start": 439.96,
      "duration": 4.72
    },
    {
      "text": "livestock has become so powerful and so",
      "start": 442.13,
      "duration": 5.219
    },
    {
      "text": "extraordinary that I fear I fear that",
      "start": 444.68,
      "duration": 4.44
    },
    {
      "text": "this may be freedom's last stand and is",
      "start": 447.349,
      "duration": 2.94
    },
    {
      "text": "greatest and we have the greatest",
      "start": 449.12,
      "duration": 2.849
    },
    {
      "text": "opportunity the same technology that",
      "start": 450.289,
      "duration": 3.66
    },
    {
      "text": "Mikasa did to darkness forever might",
      "start": 451.969,
      "duration": 4.141
    },
    {
      "text": "rises to the light in perpetuity and I",
      "start": 453.949,
      "duration": 3.991
    },
    {
      "text": "think it's that essential a crossroad",
      "start": 456.11,
      "duration": 3.989
    },
    {
      "text": "that we have so I hope this is being",
      "start": 457.94,
      "duration": 3.93
    },
    {
      "text": "followed with a conjunction like but",
      "start": 460.099,
      "duration": 2.361
    },
    {
      "text": "because you",
      "start": 461.87,
      "duration": 2.799
    },
    {
      "text": "making me feel worse not better so far",
      "start": 462.46,
      "duration": 6.54
    },
    {
      "text": "well I'm scared I'm just trying to",
      "start": 464.669,
      "duration": 10.361
    },
    {
      "text": "please you but that's right but the",
      "start": 469,
      "duration": 8.31
    },
    {
      "text": "possibilities are extraordinary it's a",
      "start": 475.03,
      "duration": 4.229
    },
    {
      "text": "race you know it is a race and we are in",
      "start": 477.31,
      "duration": 4.71
    },
    {
      "text": "incredibly fast vehicles right there is",
      "start": 479.259,
      "duration": 4.291
    },
    {
      "text": "the vehicle of the bad guys over to our",
      "start": 482.02,
      "duration": 3.989
    },
    {
      "text": "right and they are hitting the gas with",
      "start": 483.55,
      "duration": 4.5
    },
    {
      "text": "everything they can they are passing it",
      "start": 486.009,
      "duration": 3.931
    },
    {
      "text": "as many laws as they can they're using",
      "start": 488.05,
      "duration": 3.239
    },
    {
      "text": "as much indoctrination as they can",
      "start": 489.94,
      "duration": 2.67
    },
    {
      "text": "they're controlling as much media as",
      "start": 491.289,
      "duration": 3.421
    },
    {
      "text": "they can they are posing as much as they",
      "start": 492.61,
      "duration": 4.71
    },
    {
      "text": "can and there's this fucked up endless",
      "start": 494.71,
      "duration": 5.01
    },
    {
      "text": "tentacle of brain crossing technology",
      "start": 497.32,
      "duration": 5.129
    },
    {
      "text": "called the internet which is racing them",
      "start": 499.72,
      "duration": 5.37
    },
    {
      "text": "to the finish line and we better hit the",
      "start": 502.449,
      "duration": 4.56
    },
    {
      "text": "fucking gas because if we lose I don't",
      "start": 505.09,
      "duration": 3.78
    },
    {
      "text": "think anyone's gonna win again in the",
      "start": 507.009,
      "duration": 5.4
    },
    {
      "text": "future but if we win we win for good in",
      "start": 508.87,
      "duration": 5.46
    },
    {
      "text": "every sense of the word and I think that",
      "start": 512.409,
      "duration": 5.31
    },
    {
      "text": "we have a damn good shot but it is all",
      "start": 514.33,
      "duration": 5.67
    },
    {
      "text": "about the efficacy the focus the",
      "start": 517.719,
      "duration": 4.26
    },
    {
      "text": "intensity the passion and the conviction",
      "start": 520,
      "duration": 5.399
    },
    {
      "text": "that we bring to bear that we bring to",
      "start": 521.979,
      "duration": 5.36
    },
    {
      "text": "bear on these essential questions of",
      "start": 525.399,
      "duration": 4.651
    },
    {
      "text": "volunteerism versus violence is the only",
      "start": 527.339,
      "duration": 4.87
    },
    {
      "text": "- right those are the these are the two",
      "start": 530.05,
      "duration": 4.62
    },
    {
      "text": "massive motorcycle car spaceships were",
      "start": 532.209,
      "duration": 5.491
    },
    {
      "text": "driving at Mac 12 million his violence",
      "start": 534.67,
      "duration": 4.38
    },
    {
      "text": "versus volunteerism they edged ahead",
      "start": 537.7,
      "duration": 3.3
    },
    {
      "text": "sometimes we edged ahead sometimes we",
      "start": 539.05,
      "duration": 3.24
    },
    {
      "text": "got to hit the gas because they're not",
      "start": 541,
      "duration": 2.64
    },
    {
      "text": "gonna pull back they're not gonna hold",
      "start": 542.29,
      "duration": 4.049
    },
    {
      "text": "off this is an ancient race of rulers",
      "start": 543.64,
      "duration": 5.31
    },
    {
      "text": "and their dependents who wish to rule",
      "start": 546.339,
      "duration": 4.981
    },
    {
      "text": "and command the human soul and the human",
      "start": 548.95,
      "duration": 4.05
    },
    {
      "text": "spirit and we've got to hit the fucking",
      "start": 551.32,
      "duration": 3.06
    },
    {
      "text": "gas they're not gonna slow down they're",
      "start": 553,
      "duration": 3.329
    },
    {
      "text": "not gonna turn aside and either they hit",
      "start": 554.38,
      "duration": 5.19
    },
    {
      "text": "the wall or we do metaphorically and so",
      "start": 556.329,
      "duration": 7.021
    },
    {
      "text": "all I say is fuck where we end up we",
      "start": 559.57,
      "duration": 5.37
    },
    {
      "text": "don't control that fuck whether people",
      "start": 563.35,
      "duration": 4.14
    },
    {
      "text": "listen to us we don't control that the",
      "start": 564.94,
      "duration": 4.47
    },
    {
      "text": "only thing that we control is the power",
      "start": 567.49,
      "duration": 3.99
    },
    {
      "text": "and the intensity and the focus and the",
      "start": 569.41,
      "duration": 4.02
    },
    {
      "text": "reason and the evidence and the passion",
      "start": 571.48,
      "duration": 4.229
    },
    {
      "text": "that we bring to this calling that's all",
      "start": 573.43,
      "duration": 5.64
    },
    {
      "text": "we can control the vulnerability of",
      "start": 575.709,
      "duration": 5.041
    },
    {
      "text": "wanting the world to get better is a",
      "start": 579.07,
      "duration": 3.75
    },
    {
      "text": "terrifying place to be at times the",
      "start": 580.75,
      "duration": 3.87
    },
    {
      "text": "vulnerability of having children and",
      "start": 582.82,
      "duration": 3.78
    },
    {
      "text": "needing the world to get better I am so",
      "start": 584.62,
      "duration": 3.719
    },
    {
      "text": "embarrassed to introduce this planet to",
      "start": 586.6,
      "duration": 3.72
    },
    {
      "text": "my daughter this planet better shaped",
      "start": 588.339,
      "duration": 3.69
    },
    {
      "text": "the fuck up before I have to introduce",
      "start": 590.32,
      "duration": 3.269
    },
    {
      "text": "it to my daughter because I don't want",
      "start": 592.029,
      "duration": 3.031
    },
    {
      "text": "to describe the shit that goes down on",
      "start": 593.589,
      "duration": 2.11
    },
    {
      "text": "the in this",
      "start": 595.06,
      "duration": 2.439
    },
    {
      "text": "to my daughter it's an embarrassment it",
      "start": 595.699,
      "duration": 3.33
    },
    {
      "text": "is an embarrassment to have to describe",
      "start": 597.499,
      "duration": 3.45
    },
    {
      "text": "war it is an embarrassment to have to",
      "start": 599.029,
      "duration": 3.511
    },
    {
      "text": "describe the prison industrial complex",
      "start": 600.949,
      "duration": 4.14
    },
    {
      "text": "it is an embarrassment to describe why",
      "start": 602.54,
      "duration": 3.899
    },
    {
      "text": "she's not going to the public school",
      "start": 605.089,
      "duration": 2.67
    },
    {
      "text": "down the corner it is an embarrassment",
      "start": 606.439,
      "duration": 3.9
    },
    {
      "text": "to describe national debt what has been",
      "start": 607.759,
      "duration": 4.02
    },
    {
      "text": "done to her before she was even born",
      "start": 610.339,
      "duration": 4.11
    },
    {
      "text": "this will better shape the fuck up so I",
      "start": 611.779,
      "duration": 4.23
    },
    {
      "text": "can introduce it properly to my daughter",
      "start": 614.449,
      "duration": 3.23
    },
    {
      "text": "and I'm gonna do everything that I can",
      "start": 616.009,
      "duration": 4.74
    },
    {
      "text": "to help that along with the full",
      "start": 617.679,
      "duration": 4.21
    },
    {
      "text": "knowledge that there's absolutely",
      "start": 620.749,
      "duration": 6.83
    },
    {
      "text": "nothing I can do to affect it Wow",
      "start": 621.889,
      "duration": 5.69
    },
    {
      "text": "you",
      "start": 642.7,
      "duration": 2.06
    }
  ],
  "Errors": null,
  "TranscriptStderr": null
}