{
  "Title": "Being a Magnet for Virtue",
  "Id": "Ewpx4ZQNpeI",
  "Transcript": [
    {
      "text": "all right next up we have Dimitri hello",
      "start": 0.06,
      "duration": 6.93
    },
    {
      "text": "dear me",
      "start": 5.66,
      "duration": 6.689
    },
    {
      "text": "I can't excellent I can't hear myself",
      "start": 6.99,
      "duration": 5.359
    },
    {
      "text": "all right so my question today is I grew",
      "start": 13.009,
      "duration": 6.011
    },
    {
      "text": "up with well in do some background this",
      "start": 16.859,
      "duration": 4.201
    },
    {
      "text": "helped you understand better is where",
      "start": 19.02,
      "duration": 6.99
    },
    {
      "text": "I'm coming from first I grew up at being",
      "start": 21.06,
      "duration": 7.229
    },
    {
      "text": "unschooled in my team and I'm a polymath",
      "start": 26.01,
      "duration": 4.08
    },
    {
      "text": "right now with multiple degrees and",
      "start": 28.289,
      "duration": 3.57
    },
    {
      "text": "stuff I'm an doesn't quite a lot of my",
      "start": 30.09,
      "duration": 4.07
    },
    {
      "text": "life but I grew up with very different",
      "start": 31.859,
      "duration": 4.351
    },
    {
      "text": "values because my mother taught me to",
      "start": 34.16,
      "duration": 3.52
    },
    {
      "text": "think critically from a very young age",
      "start": 36.21,
      "duration": 8.22
    },
    {
      "text": "and gave me a well a core belief that's",
      "start": 37.68,
      "duration": 9.27
    },
    {
      "text": "based on a universal truth the universal",
      "start": 44.43,
      "duration": 4.44
    },
    {
      "text": "truth being that no one knows everything",
      "start": 46.95,
      "duration": 4.62
    },
    {
      "text": "which means everything that I believe is",
      "start": 48.87,
      "duration": 4.74
    },
    {
      "text": "subject to change based on what evidence",
      "start": 51.57,
      "duration": 5.96
    },
    {
      "text": "I get be it logical rational empirical",
      "start": 53.61,
      "duration": 6.81
    },
    {
      "text": "everything else I believe is it's",
      "start": 57.53,
      "duration": 5.47
    },
    {
      "text": "changeable so I don't really fight a",
      "start": 60.42,
      "duration": 5.94
    },
    {
      "text": "whole lot of a lot of other things and",
      "start": 63,
      "duration": 5.84
    },
    {
      "text": "it makes it really really hard for me to",
      "start": 66.36,
      "duration": 5.91
    },
    {
      "text": "relate to some people because I find",
      "start": 68.84,
      "duration": 5.41
    },
    {
      "text": "that a lot of people don't have that as",
      "start": 72.27,
      "duration": 3.69
    },
    {
      "text": "a core belief they hold it really really",
      "start": 74.25,
      "duration": 3.479
    },
    {
      "text": "tight to what they believe and and",
      "start": 75.96,
      "duration": 4.53
    },
    {
      "text": "simply won't listen we need to try to",
      "start": 77.729,
      "duration": 4.801
    },
    {
      "text": "try to explain something something you",
      "start": 80.49,
      "duration": 4.29
    },
    {
      "text": "like it's really simple to understand",
      "start": 82.53,
      "duration": 5.07
    },
    {
      "text": "but they just don't get it",
      "start": 84.78,
      "duration": 6.15
    },
    {
      "text": "so as a result I mean recently I just",
      "start": 87.6,
      "duration": 6.33
    },
    {
      "text": "ended a friendship with a with a guy who",
      "start": 90.93,
      "duration": 4.59
    },
    {
      "text": "was my best friend I mean for like ten",
      "start": 93.93,
      "duration": 5.04
    },
    {
      "text": "years because it turned out he was just",
      "start": 95.52,
      "duration": 6.9
    },
    {
      "text": "faking things for a long time he's a",
      "start": 98.97,
      "duration": 6.539
    },
    {
      "text": "statist and doesn't really believe in",
      "start": 102.42,
      "duration": 5.64
    },
    {
      "text": "all the crap I believe evidently you",
      "start": 105.509,
      "duration": 4.621
    },
    {
      "text": "know and and I was just like floored by",
      "start": 108.06,
      "duration": 3.96
    },
    {
      "text": "it because I really I can't tolerate",
      "start": 110.13,
      "duration": 6.66
    },
    {
      "text": "status and because or anyone really",
      "start": 112.02,
      "duration": 6.51
    },
    {
      "text": "whose things that the important man of",
      "start": 116.79,
      "duration": 4.56
    },
    {
      "text": "this world is it somehow virtuous it's",
      "start": 118.53,
      "duration": 4.769
    },
    {
      "text": "just pure corruption people revel it and",
      "start": 121.35,
      "duration": 3.42
    },
    {
      "text": "think it's like the greatest thing ever",
      "start": 123.299,
      "duration": 3.271
    },
    {
      "text": "and I'm just like why can't you see how",
      "start": 124.77,
      "duration": 5.7
    },
    {
      "text": "horrible it is um so part of my problem",
      "start": 126.57,
      "duration": 6.059
    },
    {
      "text": "is I'm having a really hard time finding",
      "start": 130.47,
      "duration": 3.06
    },
    {
      "text": "a good",
      "start": 132.629,
      "duration": 4.141
    },
    {
      "text": "I mean so far I have like two people in",
      "start": 133.53,
      "duration": 5.19
    },
    {
      "text": "my life that are awesome I have my",
      "start": 136.77,
      "duration": 4.65
    },
    {
      "text": "mother who obviously she unschooled me",
      "start": 138.72,
      "duration": 5.07
    },
    {
      "text": "as I was growing up and taught me to",
      "start": 141.42,
      "duration": 3.9
    },
    {
      "text": "think critically so just she's an",
      "start": 143.79,
      "duration": 2.88
    },
    {
      "text": "awesome person um",
      "start": 145.32,
      "duration": 2.97
    },
    {
      "text": "she's more of a friend of mine as",
      "start": 146.67,
      "duration": 3
    },
    {
      "text": "opposed to being a mother or anything",
      "start": 148.29,
      "duration": 1.95
    },
    {
      "text": "like that",
      "start": 149.67,
      "duration": 2.16
    },
    {
      "text": "and then I have my wife which is like",
      "start": 150.24,
      "duration": 5.07
    },
    {
      "text": "the only person that I know of who who",
      "start": 151.83,
      "duration": 5.07
    },
    {
      "text": "agrees and thinks the way that I think",
      "start": 155.31,
      "duration": 4.86
    },
    {
      "text": "and has the same problem she's like lost",
      "start": 156.9,
      "duration": 4.62
    },
    {
      "text": "all of her friends and half of her",
      "start": 160.17,
      "duration": 3.06
    },
    {
      "text": "family she's just like why are there",
      "start": 161.52,
      "duration": 5.31
    },
    {
      "text": "idiots and and I picked the same way",
      "start": 163.23,
      "duration": 5.16
    },
    {
      "text": "because most of the other people I run",
      "start": 166.83,
      "duration": 3.18
    },
    {
      "text": "into they're just idiots and it's like",
      "start": 168.39,
      "duration": 3.48
    },
    {
      "text": "why can't you think it's really really",
      "start": 170.01,
      "duration": 3.75
    },
    {
      "text": "simple to understand what what do you",
      "start": 171.87,
      "duration": 5.4
    },
    {
      "text": "have such a problem with it so we've",
      "start": 173.76,
      "duration": 5.25
    },
    {
      "text": "been thinking for a while as where where",
      "start": 177.27,
      "duration": 5
    },
    {
      "text": "could you find friends you know and",
      "start": 179.01,
      "duration": 5.76
    },
    {
      "text": "friends local friends Beckenham maybe",
      "start": 182.27,
      "duration": 3.82
    },
    {
      "text": "I'm a barbecue with and go and do stuff",
      "start": 184.77,
      "duration": 5.58
    },
    {
      "text": "with it I don't know it's kind of",
      "start": 186.09,
      "duration": 5.61
    },
    {
      "text": "frustrating I was one of you had any",
      "start": 190.35,
      "duration": 6.3
    },
    {
      "text": "thoughts on it yeah I mean lots of lots",
      "start": 191.7,
      "duration": 6.84
    },
    {
      "text": "of thoughts on it I mean you know first",
      "start": 196.65,
      "duration": 5.22
    },
    {
      "text": "of all you know massive kudos to mom",
      "start": 198.54,
      "duration": 4.02
    },
    {
      "text": "honey",
      "start": 201.87,
      "duration": 3.42
    },
    {
      "text": "holy crap yeah she's awesome she really",
      "start": 202.56,
      "duration": 4.86
    },
    {
      "text": "is yeah I mean you know we we get our",
      "start": 205.29,
      "duration": 4.169
    },
    {
      "text": "grim tales of bad parenting on this show",
      "start": 207.42,
      "duration": 4.289
    },
    {
      "text": "but you know let's let's pause and",
      "start": 209.459,
      "duration": 5.071
    },
    {
      "text": "worship before the altar of the goddess",
      "start": 211.709,
      "duration": 6.09
    },
    {
      "text": "of moms can be right so I really wanted",
      "start": 214.53,
      "duration": 8.13
    },
    {
      "text": "my dad was in her side know what's late",
      "start": 217.799,
      "duration": 6.931
    },
    {
      "text": "what's the story with your danger oh my",
      "start": 222.66,
      "duration": 3.299
    },
    {
      "text": "dad was the other side he was the",
      "start": 224.73,
      "duration": 5.4
    },
    {
      "text": "abusive person but as I grew up I",
      "start": 225.959,
      "duration": 6.241
    },
    {
      "text": "basically I hated him and everything",
      "start": 230.13,
      "duration": 4.26
    },
    {
      "text": "that you stood for without never to be",
      "start": 232.2,
      "duration": 5.97
    },
    {
      "text": "like him and I never have been",
      "start": 234.39,
      "duration": 6.3
    },
    {
      "text": "so okay he died a few years back on the",
      "start": 238.17,
      "duration": 3.9
    },
    {
      "text": "goddess of rationality if she was",
      "start": 240.69,
      "duration": 4.47
    },
    {
      "text": "married to an abusive guy but anyway she",
      "start": 242.07,
      "duration": 5.639
    },
    {
      "text": "did right by you in in keeping you away",
      "start": 245.16,
      "duration": 5.639
    },
    {
      "text": "from the toxic brain chemical dissolving",
      "start": 247.709,
      "duration": 4.741
    },
    {
      "text": "of the identity known as public schools",
      "start": 250.799,
      "duration": 3.69
    },
    {
      "text": "yeah and you know homeschooled and",
      "start": 252.45,
      "duration": 3.75
    },
    {
      "text": "talked you had a reason so with the",
      "start": 254.489,
      "duration": 3.151
    },
    {
      "text": "exception of marrying and having kids",
      "start": 256.2,
      "duration": 3.09
    },
    {
      "text": "with an abusive guy obviously you're",
      "start": 257.64,
      "duration": 3.12
    },
    {
      "text": "happy to be alive so that's not the end",
      "start": 259.29,
      "duration": 3.57
    },
    {
      "text": "of the world but really wanted to point",
      "start": 260.76,
      "duration": 4.02
    },
    {
      "text": "out like great great stuff and of course",
      "start": 262.86,
      "duration": 2.73
    },
    {
      "text": "that",
      "start": 264.78,
      "duration": 2.22
    },
    {
      "text": "he makes it a whole lot easier for you",
      "start": 265.59,
      "duration": 3.27
    },
    {
      "text": "to meet and marry someone like your wife",
      "start": 267,
      "duration": 4.889
    },
    {
      "text": "so yes yeah",
      "start": 268.86,
      "duration": 7.92
    },
    {
      "text": "good things true for that now you know I",
      "start": 271.889,
      "duration": 8.131
    },
    {
      "text": "was thinking about this the other day so",
      "start": 276.78,
      "duration": 6.84
    },
    {
      "text": "I was with with some friends and we were",
      "start": 280.02,
      "duration": 6.93
    },
    {
      "text": "at a barn and Isabella was climbing up",
      "start": 283.62,
      "duration": 6.03
    },
    {
      "text": "the bales of hay and you know I I can't",
      "start": 286.95,
      "duration": 3.78
    },
    {
      "text": "look at a bale of hay without",
      "start": 289.65,
      "duration": 2.22
    },
    {
      "text": "remembering that needle in a haystack",
      "start": 290.73,
      "duration": 3.06
    },
    {
      "text": "thing you know and you you look at a",
      "start": 291.87,
      "duration": 3.06
    },
    {
      "text": "bale of hay you're like wow that really",
      "start": 293.79,
      "duration": 3.09
    },
    {
      "text": "would be hard to find a needle in a",
      "start": 294.93,
      "duration": 6.36
    },
    {
      "text": "haystack and so if you're going to I",
      "start": 296.88,
      "duration": 6.15
    },
    {
      "text": "mean that there's there's lots of",
      "start": 301.29,
      "duration": 4.05
    },
    {
      "text": "different ways you can calibrate this",
      "start": 303.03,
      "duration": 6.6
    },
    {
      "text": "right so you can have friends that you",
      "start": 305.34,
      "duration": 6.06
    },
    {
      "text": "like to go and see a movie with right",
      "start": 309.63,
      "duration": 3.69
    },
    {
      "text": "and you can chat about the movie without",
      "start": 311.4,
      "duration": 3.21
    },
    {
      "text": "getting all philosophical or whatever",
      "start": 313.32,
      "duration": 4.89
    },
    {
      "text": "and I don't not my particular cup of tea",
      "start": 314.61,
      "duration": 6.45
    },
    {
      "text": "but nuts you know not not bad or",
      "start": 318.21,
      "duration": 4.8
    },
    {
      "text": "anything like that right I don't know if",
      "start": 321.06,
      "duration": 3.51
    },
    {
      "text": "you're into sports and whatever right I",
      "start": 323.01,
      "duration": 4.86
    },
    {
      "text": "mean no not so much no I mean either but",
      "start": 324.57,
      "duration": 4.92
    },
    {
      "text": "you know I mean if you are and you're",
      "start": 327.87,
      "duration": 4.23
    },
    {
      "text": "willing to put aside the military",
      "start": 329.49,
      "duration": 5.04
    },
    {
      "text": "essence of sports but anyway I mean so",
      "start": 332.1,
      "duration": 4.2
    },
    {
      "text": "this you know maybe you just like to go",
      "start": 334.53,
      "duration": 2.91
    },
    {
      "text": "horse riding together or maybe the",
      "start": 336.3,
      "duration": 2.34
    },
    {
      "text": "people like you're skiing together way",
      "start": 337.44,
      "duration": 3.93
    },
    {
      "text": "so you can have acquaintances and I say",
      "start": 338.64,
      "duration": 4.2
    },
    {
      "text": "you can have like this is somehow my",
      "start": 341.37,
      "duration": 3
    },
    {
      "text": "permission I don't mean that at all but",
      "start": 342.84,
      "duration": 3.77
    },
    {
      "text": "you know what I mean I'll take three",
      "start": 344.37,
      "duration": 4.919
    },
    {
      "text": "yeah yes three three acquaintances to go",
      "start": 346.61,
      "duration": 4.84
    },
    {
      "text": "now the problem is though of course that",
      "start": 349.289,
      "duration": 4.831
    },
    {
      "text": "you're your limited right if you go in",
      "start": 351.45,
      "duration": 4.439
    },
    {
      "text": "you know you're limited ahead of time",
      "start": 354.12,
      "duration": 4.74
    },
    {
      "text": "right right I mean you and your limited",
      "start": 355.889,
      "duration": 6.451
    },
    {
      "text": "until one of them has a problem right so",
      "start": 358.86,
      "duration": 5.82
    },
    {
      "text": "then you know someone says you know you",
      "start": 362.34,
      "duration": 4.199
    },
    {
      "text": "have these acquaintances and you know",
      "start": 364.68,
      "duration": 4.02
    },
    {
      "text": "maybe then one of them you know I don't",
      "start": 366.539,
      "duration": 4.921
    },
    {
      "text": "know has a problem they have you know",
      "start": 368.7,
      "duration": 3.96
    },
    {
      "text": "problem in the marriage or the problem",
      "start": 371.46,
      "duration": 2.28
    },
    {
      "text": "at work or whatever they start to share",
      "start": 372.66,
      "duration": 3.36
    },
    {
      "text": "their problems and then you supposed to",
      "start": 373.74,
      "duration": 3.51
    },
    {
      "text": "give feedback if you're a friend",
      "start": 376.02,
      "duration": 2.67
    },
    {
      "text": "whatever right and that becomes",
      "start": 377.25,
      "duration": 3.139
    },
    {
      "text": "progressively more difficult if they're",
      "start": 378.69,
      "duration": 3.599
    },
    {
      "text": "irrational and all that kind of stuff",
      "start": 380.389,
      "duration": 5.021
    },
    {
      "text": "right so from that ABB's yeah so as long",
      "start": 382.289,
      "duration": 5.431
    },
    {
      "text": "as you know that going in then that's",
      "start": 385.41,
      "duration": 5.34
    },
    {
      "text": "you know I think that's again there's",
      "start": 387.72,
      "duration": 6.41
    },
    {
      "text": "nothing good or bad except",
      "start": 390.75,
      "duration": 5.909
    },
    {
      "text": "self-deception right I mean",
      "start": 394.13,
      "duration": 3.789
    },
    {
      "text": "fundamentally when it comes to",
      "start": 396.659,
      "duration": 2.851
    },
    {
      "text": "relationship the only thing that's bad",
      "start": 397.919,
      "duration": 4.261
    },
    {
      "text": "is avoiding the truth right everything",
      "start": 399.51,
      "duration": 3.87
    },
    {
      "text": "which is conscious everything which is",
      "start": 402.18,
      "duration": 2.46
    },
    {
      "text": "known everything which is explored",
      "start": 403.38,
      "duration": 2.73
    },
    {
      "text": "everything which is understood is the",
      "start": 404.64,
      "duration": 3.87
    },
    {
      "text": "good right which is why I never try to",
      "start": 406.11,
      "duration": 4.74
    },
    {
      "text": "aim at decisions I only try to aim at",
      "start": 408.51,
      "duration": 4.26
    },
    {
      "text": "enlightenment because with enlightened",
      "start": 410.85,
      "duration": 4.23
    },
    {
      "text": "comes good decisions and if you aim at",
      "start": 412.77,
      "duration": 3.33
    },
    {
      "text": "decisions in the absence of",
      "start": 415.08,
      "duration": 2.22
    },
    {
      "text": "enlightenment you will never get good",
      "start": 416.1,
      "duration": 3.48
    },
    {
      "text": "decisions at least in my experience so",
      "start": 417.3,
      "duration": 3.75
    },
    {
      "text": "as long as you're aware and fully",
      "start": 419.58,
      "duration": 2.58
    },
    {
      "text": "conscious of the fact that these",
      "start": 421.05,
      "duration": 2.85
    },
    {
      "text": "relationships are limited I don't think",
      "start": 422.16,
      "duration": 4.08
    },
    {
      "text": "there's any particular problem with them",
      "start": 423.9,
      "duration": 4.86
    },
    {
      "text": "and you know it's like you're neighbors",
      "start": 426.24,
      "duration": 4.2
    },
    {
      "text": "right check with your neighbors over the",
      "start": 428.76,
      "duration": 3.48
    },
    {
      "text": "backyard fence you're living in close",
      "start": 430.44,
      "duration": 3.56
    },
    {
      "text": "proximity but you know you probably not",
      "start": 432.24,
      "duration": 3.78
    },
    {
      "text": "doing group privacy in the basement or",
      "start": 434,
      "duration": 5.76
    },
    {
      "text": "whatever right so right right so I think",
      "start": 436.02,
      "duration": 8.19
    },
    {
      "text": "to have that is is fine you know again",
      "start": 439.76,
      "duration": 6.4
    },
    {
      "text": "as long as you're aware and and steer",
      "start": 444.21,
      "duration": 3.6
    },
    {
      "text": "clear of any of the dangerous depths",
      "start": 446.16,
      "duration": 2.79
    },
    {
      "text": "which you're going to expose the",
      "start": 447.81,
      "duration": 3.18
    },
    {
      "text": "limitation to the relationship I think",
      "start": 448.95,
      "duration": 3.39
    },
    {
      "text": "that's fine but I do think that if you",
      "start": 450.99,
      "duration": 2.28
    },
    {
      "text": "are looking for a needle in a haystack",
      "start": 452.34,
      "duration": 2.37
    },
    {
      "text": "the one thing you really need is a",
      "start": 453.27,
      "duration": 3.83
    },
    {
      "text": "magnet",
      "start": 454.71,
      "duration": 2.39
    },
    {
      "text": "right so if you're looking for somebody",
      "start": 457.13,
      "duration": 3.94
    },
    {
      "text": "who's deeper you're not looking for",
      "start": 459.24,
      "duration": 4.23
    },
    {
      "text": "agreement obviously you know this",
      "start": 461.07,
      "duration": 3.33
    },
    {
      "text": "because you know how to think rationally",
      "start": 463.47,
      "duration": 2.73
    },
    {
      "text": "you're not asking for agreement in",
      "start": 464.4,
      "duration": 3.3
    },
    {
      "text": "content you're looking for agreements in",
      "start": 466.2,
      "duration": 3.6
    },
    {
      "text": "methodology if you look for agreement in",
      "start": 467.7,
      "duration": 4.8
    },
    {
      "text": "content then what you're looking for is",
      "start": 469.8,
      "duration": 4.47
    },
    {
      "text": "well that's just with my verbal",
      "start": 472.5,
      "duration": 4.44
    },
    {
      "text": "masturbation basically I mean yeah if",
      "start": 474.27,
      "duration": 4.59
    },
    {
      "text": "you just somebody who just agrees with",
      "start": 476.94,
      "duration": 3.45
    },
    {
      "text": "you all the time that's just a yes man",
      "start": 478.86,
      "duration": 2.94
    },
    {
      "text": "and that's really not what I'm looking",
      "start": 480.39,
      "duration": 2.7
    },
    {
      "text": "for I'm looking for other people who",
      "start": 481.8,
      "duration": 3.12
    },
    {
      "text": "have like the same caliber of being able",
      "start": 483.09,
      "duration": 4.71
    },
    {
      "text": "to hold a rational conversation so that",
      "start": 484.92,
      "duration": 6.6
    },
    {
      "text": "we can actually discuss things that you",
      "start": 487.8,
      "duration": 5.76
    },
    {
      "text": "know like if I were that to sit down and",
      "start": 491.52,
      "duration": 3.75
    },
    {
      "text": "have dinner with you and your family and",
      "start": 493.56,
      "duration": 3.33
    },
    {
      "text": "be me and my wife we would have a",
      "start": 495.27,
      "duration": 3.69
    },
    {
      "text": "wonderful conversation I mean in my mind",
      "start": 496.89,
      "duration": 3.84
    },
    {
      "text": "because we could all think I'm the same",
      "start": 498.96,
      "duration": 6.72
    },
    {
      "text": "kind of level and talking not really we",
      "start": 500.73,
      "duration": 6.87
    },
    {
      "text": "could debate things without having to",
      "start": 505.68,
      "duration": 6.41
    },
    {
      "text": "you know get all pissed off because you",
      "start": 507.6,
      "duration": 7.14
    },
    {
      "text": "know I'm saying something you don't",
      "start": 512.09,
      "duration": 5.38
    },
    {
      "text": "agree with you know right right because",
      "start": 514.74,
      "duration": 4.47
    },
    {
      "text": "we would have a methodology right now",
      "start": 517.47,
      "duration": 3.54
    },
    {
      "text": "this is the key looking for somebody who",
      "start": 519.21,
      "duration": 3.75
    },
    {
      "text": "you know oh people say you know I want",
      "start": 521.01,
      "duration": 3.9
    },
    {
      "text": "to find an atheist anarchists to see",
      "start": 522.96,
      "duration": 3.12
    },
    {
      "text": "into self-knowledge and has gone through",
      "start": 524.91,
      "duration": 3.54
    },
    {
      "text": "therapy it's like no you don't you don't",
      "start": 526.08,
      "duration": 4.02
    },
    {
      "text": "want to find because that's like saying",
      "start": 528.45,
      "duration": 5.12
    },
    {
      "text": "I want the wind to blow a hole in a say",
      "start": 530.1,
      "duration": 5.9
    },
    {
      "text": "that's my exact outline well good luck",
      "start": 533.57,
      "duration": 5.01
    },
    {
      "text": "that's never gonna right right I mean",
      "start": 536,
      "duration": 5.48
    },
    {
      "text": "but but what you want is somebody who is",
      "start": 538.58,
      "duration": 5.4
    },
    {
      "text": "right you you don't want somebody who's",
      "start": 541.48,
      "duration": 4.45
    },
    {
      "text": "got the same destination necessarily but",
      "start": 543.98,
      "duration": 3.27
    },
    {
      "text": "you want to have somebody who's got the",
      "start": 545.93,
      "duration": 4.62
    },
    {
      "text": "same transportation right so if you want",
      "start": 547.25,
      "duration": 5.76
    },
    {
      "text": "to fly somewhere there's no point trying",
      "start": 550.55,
      "duration": 3.719
    },
    {
      "text": "to hook up with someone who's gonna",
      "start": 553.01,
      "duration": 3.66
    },
    {
      "text": "hitchhike because you don't have the",
      "start": 554.269,
      "duration": 5.491
    },
    {
      "text": "same transportation right you may say",
      "start": 556.67,
      "duration": 5.07
    },
    {
      "text": "hey well maybe we'll meet in Vegas when",
      "start": 559.76,
      "duration": 3.09
    },
    {
      "text": "you get there in three weeks or whatever",
      "start": 561.74,
      "duration": 2.67
    },
    {
      "text": "but I'm gonna fly there and be there in",
      "start": 562.85,
      "duration": 4.5
    },
    {
      "text": "two hours right hmm and the",
      "start": 564.41,
      "duration": 4.65
    },
    {
      "text": "transportation is the essence right and",
      "start": 567.35,
      "duration": 3.03
    },
    {
      "text": "what I mean by that of course is the",
      "start": 569.06,
      "duration": 3.959
    },
    {
      "text": "methodology right it's not you don't",
      "start": 570.38,
      "duration": 5.12
    },
    {
      "text": "want an atheist you don't want an",
      "start": 573.019,
      "duration": 5.01
    },
    {
      "text": "anarchist you don't want somebody who's",
      "start": 575.5,
      "duration": 4.81
    },
    {
      "text": "you know all kinds of fired up and",
      "start": 578.029,
      "duration": 3.781
    },
    {
      "text": "committed to Seffner what you want is",
      "start": 580.31,
      "duration": 3.18
    },
    {
      "text": "somebody who's able to think because",
      "start": 581.81,
      "duration": 4.14
    },
    {
      "text": "people who are able to think will",
      "start": 583.49,
      "duration": 5.43
    },
    {
      "text": "generally arrive at similar values right",
      "start": 585.95,
      "duration": 5.16
    },
    {
      "text": "like scientists generally arrive at",
      "start": 588.92,
      "duration": 3.75
    },
    {
      "text": "similar conclusions when they're not",
      "start": 591.11,
      "duration": 3.12
    },
    {
      "text": "completely warped by state funding or",
      "start": 592.67,
      "duration": 4.38
    },
    {
      "text": "whatever right and mathematicians in the",
      "start": 594.23,
      "duration": 4.29
    },
    {
      "text": "same way as well will generally arrive",
      "start": 597.05,
      "duration": 3.09
    },
    {
      "text": "at similar if not the same conclusions",
      "start": 598.52,
      "duration": 2.85
    },
    {
      "text": "because they have the same methodology",
      "start": 600.14,
      "duration": 4.29
    },
    {
      "text": "so what you're looking for is not does",
      "start": 601.37,
      "duration": 5.1
    },
    {
      "text": "somebody have the same conclusions that",
      "start": 604.43,
      "duration": 3.93
    },
    {
      "text": "I have but to somebody have the capacity",
      "start": 606.47,
      "duration": 5.16
    },
    {
      "text": "to experience doubt without self",
      "start": 608.36,
      "duration": 5.61
    },
    {
      "text": "collapse right to somebody have the",
      "start": 611.63,
      "duration": 4.579
    },
    {
      "text": "ability to entertain opposing thoughts",
      "start": 613.97,
      "duration": 5.16
    },
    {
      "text": "without aggression does somebody have",
      "start": 616.209,
      "duration": 4.781
    },
    {
      "text": "the ability to recognize that being",
      "start": 619.13,
      "duration": 5.3
    },
    {
      "text": "offended is a very poor substitute for",
      "start": 620.99,
      "duration": 9.24
    },
    {
      "text": "being right and and so it's somebody",
      "start": 624.43,
      "duration": 10.029
    },
    {
      "text": "able to process information and is not",
      "start": 630.23,
      "duration": 6.39
    },
    {
      "text": "wedded to conclusions",
      "start": 634.459,
      "duration": 4.141
    },
    {
      "text": "people are so the mystery like why are",
      "start": 636.62,
      "duration": 3.48
    },
    {
      "text": "people so wedded to conclusions that's",
      "start": 638.6,
      "duration": 3.179
    },
    {
      "text": "not that hard it's hard emotionally to",
      "start": 640.1,
      "duration": 3.03
    },
    {
      "text": "figure out but intellectually we know",
      "start": 641.779,
      "duration": 2.851
    },
    {
      "text": "pretty much people are wedded to",
      "start": 643.13,
      "duration": 3.69
    },
    {
      "text": "conclusions because they're punished for",
      "start": 644.63,
      "duration": 3.48
    },
    {
      "text": "not having those conclusions you know",
      "start": 646.82,
      "duration": 3.209
    },
    {
      "text": "why right I mean they grew up thinking",
      "start": 648.11,
      "duration": 3.39
    },
    {
      "text": "that you know they're wrong they're",
      "start": 650.029,
      "duration": 2.851
    },
    {
      "text": "going to be punished in some way or",
      "start": 651.5,
      "duration": 3.36
    },
    {
      "text": "another or ostracized or whatever so",
      "start": 652.88,
      "duration": 3.959
    },
    {
      "text": "yeah they hold on to what they believe",
      "start": 654.86,
      "duration": 5.219
    },
    {
      "text": "very very strongly yeah yeah I mean it's",
      "start": 656.839,
      "duration": 4.681
    },
    {
      "text": "like you you you you watch someone",
      "start": 660.079,
      "duration": 4.591
    },
    {
      "text": "standing in the park in some bizarre",
      "start": 661.52,
      "duration": 4.74
    },
    {
      "text": "shape they're sort of in some mid Tai",
      "start": 664.67,
      "duration": 2.52
    },
    {
      "text": "Chi pose",
      "start": 666.26,
      "duration": 2.16
    },
    {
      "text": "you don't know why and then you realize",
      "start": 667.19,
      "duration": 3.33
    },
    {
      "text": "you know they've got a laser on their",
      "start": 668.42,
      "duration": 3.27
    },
    {
      "text": "forehead it's like oh that's why they're",
      "start": 670.52,
      "duration": 1.59
    },
    {
      "text": "doing that",
      "start": 671.69,
      "duration": 1.92
    },
    {
      "text": "right because they don't want to get",
      "start": 672.11,
      "duration": 2.94
    },
    {
      "text": "shot at obviously obeying some guy's",
      "start": 673.61,
      "duration": 2.88
    },
    {
      "text": "orders right that's why they look so",
      "start": 675.05,
      "duration": 4.17
    },
    {
      "text": "weird right so we're growing up and it's",
      "start": 676.49,
      "duration": 4.17
    },
    {
      "text": "like well no you have to accept Jesus",
      "start": 679.22,
      "duration": 2.79
    },
    {
      "text": "Christ as your Lord and Savior and you",
      "start": 680.66,
      "duration": 3
    },
    {
      "text": "have to fold the flag this particular",
      "start": 682.01,
      "duration": 2.85
    },
    {
      "text": "way and you have to say that the",
      "start": 683.66,
      "duration": 2.52
    },
    {
      "text": "military you hear us and you have to say",
      "start": 684.86,
      "duration": 2.49
    },
    {
      "text": "that your teacher is good and you have",
      "start": 686.18,
      "duration": 2.55
    },
    {
      "text": "to say that public school is right and",
      "start": 687.35,
      "duration": 2.52
    },
    {
      "text": "you have to say your country is the best",
      "start": 688.73,
      "duration": 2.46
    },
    {
      "text": "in your culture is that because if you",
      "start": 689.87,
      "duration": 3.78
    },
    {
      "text": "don't you'll get punished and this is",
      "start": 691.19,
      "duration": 4.41
    },
    {
      "text": "why people just get addicted to these",
      "start": 693.65,
      "duration": 3.45
    },
    {
      "text": "conclusions it's just a form of",
      "start": 695.6,
      "duration": 3.98
    },
    {
      "text": "Stockholm Syndrome it's just a form of",
      "start": 697.1,
      "duration": 6.15
    },
    {
      "text": "of fear paralysis because they're",
      "start": 699.58,
      "duration": 5.62
    },
    {
      "text": "attacked and punished and ostracized and",
      "start": 703.25,
      "duration": 4.32
    },
    {
      "text": "bullied and marked and excluded and you",
      "start": 705.2,
      "duration": 4.98
    },
    {
      "text": "know for not you know like like you know",
      "start": 707.57,
      "duration": 4.8
    },
    {
      "text": "I mean the guy who just rolls his eyes",
      "start": 710.18,
      "duration": 6.3
    },
    {
      "text": "when the football team comes out it's",
      "start": 712.37,
      "duration": 6.21
    },
    {
      "text": "like you know is is the guy who",
      "start": 716.48,
      "duration": 4.05
    },
    {
      "text": "everyone's like oh he's weird you know",
      "start": 718.58,
      "duration": 3.42
    },
    {
      "text": "why isn't it you and the whole team",
      "start": 720.53,
      "duration": 3.27
    },
    {
      "text": "comes out it's like because I'm not a",
      "start": 722,
      "duration": 4.08
    },
    {
      "text": " ape that's why it's cool for",
      "start": 723.8,
      "duration": 4.92
    },
    {
      "text": "evolving slightly beyond our common",
      "start": 726.08,
      "duration": 6.12
    },
    {
      "text": "chimpanzee cousins but I'm not an ape",
      "start": 728.72,
      "duration": 4.98
    },
    {
      "text": "who's going to worship physical size and",
      "start": 732.2,
      "duration": 5.97
    },
    {
      "text": "strength because I'm not I'm not",
      "start": 733.7,
      "duration": 6.57
    },
    {
      "text": "primitive that way I've gone a little",
      "start": 738.17,
      "duration": 3.75
    },
    {
      "text": "bit beyond the Stone Age and we're",
      "start": 740.27,
      "duration": 2.64
    },
    {
      "text": "looking for something a little bit more",
      "start": 741.92,
      "duration": 4.47
    },
    {
      "text": "refined than testosterone a steroid and",
      "start": 742.91,
      "duration": 6.33
    },
    {
      "text": "fueled muscles anywhere so but but of",
      "start": 746.39,
      "duration": 5.01
    },
    {
      "text": "course so people are just punished for",
      "start": 749.24,
      "duration": 5.19
    },
    {
      "text": "not conforming to the collection of wild",
      "start": 751.4,
      "duration": 7.38
    },
    {
      "text": "prejudices called culture and so then",
      "start": 754.43,
      "duration": 5.82
    },
    {
      "text": "they're afraid to think because thinking",
      "start": 758.78,
      "duration": 2.82
    },
    {
      "text": "is going to detach them from those",
      "start": 760.25,
      "duration": 3.93
    },
    {
      "text": "conclusions and that's invite attack and",
      "start": 761.6,
      "duration": 5.04
    },
    {
      "text": "you know the viciousness of culture you",
      "start": 764.18,
      "duration": 4.53
    },
    {
      "text": "know if somebody was emailing me this",
      "start": 766.64,
      "duration": 3.96
    },
    {
      "text": "long email about and every time I",
      "start": 768.71,
      "duration": 3.36
    },
    {
      "text": "mentioned Native Americans I get the",
      "start": 770.6,
      "duration": 3.239
    },
    {
      "text": "same thing on native Canadians where the",
      "start": 772.07,
      "duration": 3.3
    },
    {
      "text": "natives were gentle and wonderful with",
      "start": 773.839,
      "duration": 3.151
    },
    {
      "text": "their children and they were very",
      "start": 775.37,
      "duration": 2.969
    },
    {
      "text": "peaceful and they were you know they",
      "start": 776.99,
      "duration": 2.91
    },
    {
      "text": "didn't attack them and they didn't",
      "start": 778.339,
      "duration": 2.941
    },
    {
      "text": "lecture them and they didn't punish them",
      "start": 779.9,
      "duration": 3.27
    },
    {
      "text": "and I just know that's not true how do I",
      "start": 781.28,
      "duration": 4.41
    },
    {
      "text": "know that's not true because in a free",
      "start": 783.17,
      "duration": 4.59
    },
    {
      "text": "society culture changes all the time and",
      "start": 785.69,
      "duration": 4.05
    },
    {
      "text": "we're a technology progresses all the",
      "start": 787.76,
      "duration": 3.54
    },
    {
      "text": "time and when people can think for",
      "start": 789.74,
      "duration": 3.03
    },
    {
      "text": "themselves they tend not to do exactly",
      "start": 791.3,
      "duration": 3.27
    },
    {
      "text": "what their parents did of course not of",
      "start": 792.77,
      "duration": 3.63
    },
    {
      "text": "course not I sure as hell hope that I",
      "start": 794.57,
      "duration": 2.88
    },
    {
      "text": "don't it doesn't do exactly the same",
      "start": 796.4,
      "duration": 2.55
    },
    {
      "text": "same things that I'm doing that would be",
      "start": 797.45,
      "duration": 2.59
    },
    {
      "text": "tragic",
      "start": 798.95,
      "duration": 3.28
    },
    {
      "text": "in fact yeah the fact that their culture",
      "start": 800.04,
      "duration": 4.14
    },
    {
      "text": "stagnated for thousands of years is a",
      "start": 802.23,
      "duration": 4.02
    },
    {
      "text": "direct measure of the brutality and and",
      "start": 804.18,
      "duration": 3.599
    },
    {
      "text": "viciousness that the parents had towards",
      "start": 806.25,
      "duration": 3.3
    },
    {
      "text": "their children you know why are they all",
      "start": 807.779,
      "duration": 3.661
    },
    {
      "text": "doing the same stupid rain dance that",
      "start": 809.55,
      "duration": 3.18
    },
    {
      "text": "doesn't work well because they're",
      "start": 811.44,
      "duration": 2.85
    },
    {
      "text": "punished if they don't I mean so people",
      "start": 812.73,
      "duration": 3.659
    },
    {
      "text": "tell me all these facts and yeah oh yeah",
      "start": 814.29,
      "duration": 5.76
    },
    {
      "text": "oh uh hang on just a moment I got a",
      "start": 816.389,
      "duration": 4.95
    },
    {
      "text": "really good example of what you're",
      "start": 820.05,
      "duration": 2.849
    },
    {
      "text": "actually talking about right now is a",
      "start": 821.339,
      "duration": 3.93
    },
    {
      "text": "conversation my wife and I had recently",
      "start": 822.899,
      "duration": 4.44
    },
    {
      "text": "and she was telling me about when she",
      "start": 825.269,
      "duration": 4.411
    },
    {
      "text": "was young maybe like eight or nine years",
      "start": 827.339,
      "duration": 3.961
    },
    {
      "text": "old she was talking to her mom and but",
      "start": 829.68,
      "duration": 3.089
    },
    {
      "text": "she would give her mom a really good",
      "start": 831.3,
      "duration": 3.81
    },
    {
      "text": "compliment right and so she tells her",
      "start": 832.769,
      "duration": 4.891
    },
    {
      "text": "mom you know when I get older I'm gonna",
      "start": 835.11,
      "duration": 4.349
    },
    {
      "text": "do my best not to make any of the",
      "start": 837.66,
      "duration": 4.08
    },
    {
      "text": "mistakes that you've made and of course",
      "start": 839.459,
      "duration": 3.93
    },
    {
      "text": "she thought she was giving her mom a",
      "start": 841.74,
      "duration": 3.48
    },
    {
      "text": "really good compliment her mom got all",
      "start": 843.389,
      "duration": 3.841
    },
    {
      "text": "sorts of upset you know turned out to be",
      "start": 845.22,
      "duration": 4.02
    },
    {
      "text": "a tragic thing in her life and I said",
      "start": 847.23,
      "duration": 3.06
    },
    {
      "text": "well that's interesting because I had",
      "start": 849.24,
      "duration": 2.73
    },
    {
      "text": "the same kind of conversation with my",
      "start": 850.29,
      "duration": 4.739
    },
    {
      "text": "mom and my mom was like oh thank",
      "start": 851.97,
      "duration": 3.51
    },
    {
      "text": "goodness",
      "start": 855.029,
      "duration": 2.971
    },
    {
      "text": "I don't want you to make any of the",
      "start": 855.48,
      "duration": 4.469
    },
    {
      "text": "mistakes I made and if you can just jump",
      "start": 858,
      "duration": 3.449
    },
    {
      "text": "over those and just make your own",
      "start": 859.949,
      "duration": 3.45
    },
    {
      "text": "mistakes and learn from those you'll be",
      "start": 861.449,
      "duration": 3.961
    },
    {
      "text": "much better off I mean and it's just",
      "start": 863.399,
      "duration": 5.101
    },
    {
      "text": "like worlds of difference you know now",
      "start": 865.41,
      "duration": 5.159
    },
    {
      "text": "my wife like loves my mom and she's like",
      "start": 868.5,
      "duration": 4.17
    },
    {
      "text": "why is my family stupid but yeah I mean",
      "start": 870.569,
      "duration": 3.481
    },
    {
      "text": "that's an example of what you were",
      "start": 872.67,
      "duration": 5.609
    },
    {
      "text": "talking about there yeah so I mean so",
      "start": 874.05,
      "duration": 5.76
    },
    {
      "text": "when it comes to having the magnet to",
      "start": 878.279,
      "duration": 4.68
    },
    {
      "text": "find the needle in the haystack if you",
      "start": 879.81,
      "duration": 4.829
    },
    {
      "text": "don't want an acquaintance but you want",
      "start": 882.959,
      "duration": 3.961
    },
    {
      "text": "more close friends then I think the best",
      "start": 884.639,
      "duration": 4.14
    },
    {
      "text": "thing to do is to put your beliefs out",
      "start": 886.92,
      "duration": 4.68
    },
    {
      "text": "there on the internet and find people",
      "start": 888.779,
      "duration": 6.87
    },
    {
      "text": "who respond geographically that would be",
      "start": 891.6,
      "duration": 4.979
    },
    {
      "text": "a good idea as well",
      "start": 895.649,
      "duration": 2.49
    },
    {
      "text": "I mean I have acquaintances I mean I",
      "start": 896.579,
      "duration": 3.481
    },
    {
      "text": "make friends at the drop of a hat super",
      "start": 898.139,
      "duration": 6
    },
    {
      "text": "easy for me merely because the key to",
      "start": 900.06,
      "duration": 5.73
    },
    {
      "text": "getting respect is giving it and I give",
      "start": 904.139,
      "duration": 3.3
    },
    {
      "text": "everyone respect to begin with and",
      "start": 905.79,
      "duration": 3.599
    },
    {
      "text": "that's just the way that I was raised",
      "start": 907.439,
      "duration": 9.601
    },
    {
      "text": "and for yeah right everyone respect to",
      "start": 909.389,
      "duration": 10.231
    },
    {
      "text": "begin with come on let it be earned a",
      "start": 917.04,
      "duration": 4.89
    },
    {
      "text": "little bit or not I you think might add",
      "start": 919.62,
      "duration": 4.05
    },
    {
      "text": "this thing where I start off my give",
      "start": 921.93,
      "duration": 2.909
    },
    {
      "text": "them a little bit of trust a little bit",
      "start": 923.67,
      "duration": 2.399
    },
    {
      "text": "of respect let's see what they do with",
      "start": 924.839,
      "duration": 1.471
    },
    {
      "text": "it",
      "start": 926.069,
      "duration": 2.13
    },
    {
      "text": "and there's yeah there's three things",
      "start": 926.31,
      "duration": 3.54
    },
    {
      "text": "they do with it I mean if they take it",
      "start": 928.199,
      "duration": 2.88
    },
    {
      "text": "and throw it on the ground spit on it",
      "start": 929.85,
      "duration": 2.789
    },
    {
      "text": "whatever well they just trash the only",
      "start": 931.079,
      "duration": 2.13
    },
    {
      "text": "respect",
      "start": 932.639,
      "duration": 1.591
    },
    {
      "text": "is gonna give them so they don't get",
      "start": 933.209,
      "duration": 2.31
    },
    {
      "text": "anymore now they don't even have that",
      "start": 934.23,
      "duration": 3.449
    },
    {
      "text": "that I gave them to begin with if they",
      "start": 935.519,
      "duration": 4.081
    },
    {
      "text": "take it tuck it into their pocket hang",
      "start": 937.679,
      "duration": 3.9
    },
    {
      "text": "on to it for later well they get that",
      "start": 939.6,
      "duration": 3.779
    },
    {
      "text": "amount of trust and respect and it never",
      "start": 941.579,
      "duration": 4.11
    },
    {
      "text": "grows but if they add a little bit to it",
      "start": 943.379,
      "duration": 3.99
    },
    {
      "text": "polish it up something handed back well",
      "start": 945.689,
      "duration": 3.63
    },
    {
      "text": "then that's trust that goes back and",
      "start": 947.369,
      "duration": 4.59
    },
    {
      "text": "forth and builds over time but you have",
      "start": 949.319,
      "duration": 4.11
    },
    {
      "text": "to start with that small trinket and",
      "start": 951.959,
      "duration": 3.42
    },
    {
      "text": "when I meet somebody from the beginning",
      "start": 953.429,
      "duration": 4.59
    },
    {
      "text": "I give that and I see what happens and a",
      "start": 955.379,
      "duration": 4.95
    },
    {
      "text": "lot of times it's really amazing you",
      "start": 958.019,
      "duration": 4.44
    },
    {
      "text": "give the respect first and people will",
      "start": 960.329,
      "duration": 4.35
    },
    {
      "text": "respond by giving it back it happens",
      "start": 962.459,
      "duration": 4.531
    },
    {
      "text": "more often than not the problem is is",
      "start": 964.679,
      "duration": 4.051
    },
    {
      "text": "that most people are trying to demand it",
      "start": 966.99,
      "duration": 3.899
    },
    {
      "text": "instead of commanding well no sleep and",
      "start": 968.73,
      "duration": 3.18
    },
    {
      "text": "hang on and see you're contradicting",
      "start": 970.889,
      "duration": 3.211
    },
    {
      "text": "yourself a little bit I I'm sensing Dale",
      "start": 971.91,
      "duration": 3.779
    },
    {
      "text": "Carnegie's ghost swirling around this",
      "start": 974.1,
      "duration": 3.149
    },
    {
      "text": "conversation right because they're",
      "start": 975.689,
      "duration": 3.21
    },
    {
      "text": "saying why most people idiots but I do",
      "start": 977.249,
      "duration": 4.89
    },
    {
      "text": "give people respect well no I mean but",
      "start": 978.899,
      "duration": 5.461
    },
    {
      "text": "my assertion of most people being idiots",
      "start": 982.139,
      "duration": 3.721
    },
    {
      "text": "is basically seeing what they do with it",
      "start": 984.36,
      "duration": 3.06
    },
    {
      "text": "afterward",
      "start": 985.86,
      "duration": 5.639
    },
    {
      "text": "and what they say afterward or when I",
      "start": 987.42,
      "duration": 7.38
    },
    {
      "text": "argue with people not argue and in the",
      "start": 991.499,
      "duration": 4.68
    },
    {
      "text": "term of like yelling and fighting but",
      "start": 994.8,
      "duration": 4.529
    },
    {
      "text": "arguing in the terms of like debate with",
      "start": 996.179,
      "duration": 5.491
    },
    {
      "text": "other people and I'll say something it's",
      "start": 999.329,
      "duration": 3.81
    },
    {
      "text": "like they either they didn't hear what I",
      "start": 1001.67,
      "duration": 3.539
    },
    {
      "text": "said or they didn't think about what I",
      "start": 1003.139,
      "duration": 4.14
    },
    {
      "text": "said or they'll just repeat the same",
      "start": 1005.209,
      "duration": 4.74
    },
    {
      "text": "mantras back and you know the same thing",
      "start": 1007.279,
      "duration": 4.321
    },
    {
      "text": "back to me and I was like I've already",
      "start": 1009.949,
      "duration": 4.98
    },
    {
      "text": "addressed that and you seem to not",
      "start": 1011.6,
      "duration": 6.329
    },
    {
      "text": "listen to it and that's what I mean by",
      "start": 1014.929,
      "duration": 4.65
    },
    {
      "text": "people are stupid and people are just",
      "start": 1017.929,
      "duration": 3.9
    },
    {
      "text": "being idiots is is they're just like",
      "start": 1019.579,
      "duration": 4.081
    },
    {
      "text": "mental zombies that just parrot these",
      "start": 1021.829,
      "duration": 3.45
    },
    {
      "text": "things back that they've learned whether",
      "start": 1023.66,
      "duration": 3.48
    },
    {
      "text": "it be they learned it in church as they",
      "start": 1025.279,
      "duration": 4.05
    },
    {
      "text": "blended in school or wherever it is that",
      "start": 1027.14,
      "duration": 3.99
    },
    {
      "text": "they've learned some of this stop that",
      "start": 1029.329,
      "duration": 7.051
    },
    {
      "text": "they just say over and over again but so",
      "start": 1031.13,
      "duration": 6.75
    },
    {
      "text": "what I'm looking for is that I make I",
      "start": 1036.38,
      "duration": 3.059
    },
    {
      "text": "make friends easily have lots of",
      "start": 1037.88,
      "duration": 2.76
    },
    {
      "text": "acquaintances of that but what I'm",
      "start": 1039.439,
      "duration": 4.26
    },
    {
      "text": "looking for is how to find those those",
      "start": 1040.64,
      "duration": 5.069
    },
    {
      "text": "like the magnet you talked about right",
      "start": 1043.699,
      "duration": 5.431
    },
    {
      "text": "and I mean how to find a few just a few",
      "start": 1045.709,
      "duration": 6.57
    },
    {
      "text": "people who I wouldn't mind hanging out",
      "start": 1049.13,
      "duration": 5.19
    },
    {
      "text": "with a whole lot more I mean my wife and",
      "start": 1052.279,
      "duration": 4.801
    },
    {
      "text": "I we go we go camping at work were",
      "start": 1054.32,
      "duration": 5.25
    },
    {
      "text": "hanging camping which is basically we we",
      "start": 1057.08,
      "duration": 5.37
    },
    {
      "text": "do hammock camping and so we go out into",
      "start": 1059.57,
      "duration": 4.92
    },
    {
      "text": "the into the forests here in the",
      "start": 1062.45,
      "duration": 4.38
    },
    {
      "text": "northwest of the US which",
      "start": 1064.49,
      "duration": 4.32
    },
    {
      "text": "you know absolutely beautiful we camp",
      "start": 1066.83,
      "duration": 3.15
    },
    {
      "text": "with hammocks and we have a bunch of",
      "start": 1068.81,
      "duration": 2.55
    },
    {
      "text": "friends we do that with and sometimes",
      "start": 1069.98,
      "duration": 3.42
    },
    {
      "text": "there's a good conversation that happens",
      "start": 1071.36,
      "duration": 8.19
    },
    {
      "text": "most of the time it goes weird but but",
      "start": 1073.4,
      "duration": 8.7
    },
    {
      "text": "yeah so I'm trying to try my like tough",
      "start": 1079.55,
      "duration": 4.74
    },
    {
      "text": "and Magno to find those few things and I",
      "start": 1082.1,
      "duration": 3.9
    },
    {
      "text": "think the Internet is really good you",
      "start": 1084.29,
      "duration": 3.18
    },
    {
      "text": "know I found a couple of people to talk",
      "start": 1086,
      "duration": 3.09
    },
    {
      "text": "to and we on the internet but it's kind",
      "start": 1087.47,
      "duration": 2.82
    },
    {
      "text": "of like one person's in Australia",
      "start": 1089.09,
      "duration": 3.24
    },
    {
      "text": "another one's in the Netherlands and you",
      "start": 1090.29,
      "duration": 4.26
    },
    {
      "text": "know which is great but it doesn't",
      "start": 1092.33,
      "duration": 3.9
    },
    {
      "text": "really make for like you know hey how",
      "start": 1094.55,
      "duration": 3.57
    },
    {
      "text": "about I coming over for a barbecue this",
      "start": 1096.23,
      "duration": 4.38
    },
    {
      "text": "weekend or something you know yeah but I",
      "start": 1098.12,
      "duration": 5.13
    },
    {
      "text": "mean I would focus on and that there are",
      "start": 1100.61,
      "duration": 5.76
    },
    {
      "text": "websites that can help pinpoint you",
      "start": 1103.25,
      "duration": 4.8
    },
    {
      "text": "geographically and so on and just put in",
      "start": 1106.37,
      "duration": 4.02
    },
    {
      "text": "your sort of rough neighborhood it's you",
      "start": 1108.05,
      "duration": 4.47
    },
    {
      "text": "know start a group and say look I I want",
      "start": 1110.39,
      "duration": 3.45
    },
    {
      "text": "to find like-minded people who are",
      "start": 1112.52,
      "duration": 2.58
    },
    {
      "text": "interested in talking about you know",
      "start": 1113.84,
      "duration": 4.11
    },
    {
      "text": "real things in in a real context and I'm",
      "start": 1115.1,
      "duration": 6.69
    },
    {
      "text": "in this area and you know just you know",
      "start": 1117.95,
      "duration": 6.18
    },
    {
      "text": "find some neutral place where you can",
      "start": 1121.79,
      "duration": 5.25
    },
    {
      "text": "meet you know can I throw barbecues at a",
      "start": 1124.13,
      "duration": 4.71
    },
    {
      "text": "public park or something like that or",
      "start": 1127.04,
      "duration": 4.11
    },
    {
      "text": "some place where people can meet and",
      "start": 1128.84,
      "duration": 4.38
    },
    {
      "text": "just invite and then you know just just",
      "start": 1131.15,
      "duration": 4.17
    },
    {
      "text": "make it a make it a project which is you",
      "start": 1133.22,
      "duration": 3.36
    },
    {
      "text": "know I'm gonna find some friends it's",
      "start": 1135.32,
      "duration": 3.09
    },
    {
      "text": "like finding a job I mean you you know",
      "start": 1136.58,
      "duration": 3.78
    },
    {
      "text": "things that you got to do and and the",
      "start": 1138.41,
      "duration": 3.33
    },
    {
      "text": "Internet has made it really quite",
      "start": 1140.36,
      "duration": 3.57
    },
    {
      "text": "amazing to get meetup groups going in",
      "start": 1141.74,
      "duration": 4.11
    },
    {
      "text": "geographical areas and I would really",
      "start": 1143.93,
      "duration": 3.42
    },
    {
      "text": "focus on that I mean certainly you can't",
      "start": 1145.85,
      "duration": 2.79
    },
    {
      "text": "wait for people to fall in your lap you",
      "start": 1147.35,
      "duration": 4.55
    },
    {
      "text": "can't wait to burn these people just",
      "start": 1148.64,
      "duration": 7.41
    },
    {
      "text": "randomly right I mean if you if you if",
      "start": 1151.9,
      "duration": 7.81
    },
    {
      "text": "you're looking to to fill a position",
      "start": 1156.05,
      "duration": 6
    },
    {
      "text": "called close friend then you're",
      "start": 1159.71,
      "duration": 4.05
    },
    {
      "text": "basically looking for somebody with two",
      "start": 1162.05,
      "duration": 3.6
    },
    {
      "text": "PhDs in disparate fields you know",
      "start": 1163.76,
      "duration": 4.5
    },
    {
      "text": "molecular biology in art history you",
      "start": 1165.65,
      "duration": 3.96
    },
    {
      "text": "know well you don't just wander around",
      "start": 1168.26,
      "duration": 3.39
    },
    {
      "text": "you know saying hey I just met a guy at",
      "start": 1169.61,
      "duration": 3.21
    },
    {
      "text": "the coffee shop I wonder if he has",
      "start": 1171.65,
      "duration": 3.66
    },
    {
      "text": "degrees in molecular biology and art",
      "start": 1172.82,
      "duration": 4.02
    },
    {
      "text": "history right if you're looking for",
      "start": 1175.31,
      "duration": 2.94
    },
    {
      "text": "something really specialized then you",
      "start": 1176.84,
      "duration": 2.7
    },
    {
      "text": "have to cast your net as wide as",
      "start": 1178.25,
      "duration": 3.45
    },
    {
      "text": "possible and you have to openly state",
      "start": 1179.54,
      "duration": 3.69
    },
    {
      "text": "what you want what you need what you",
      "start": 1181.7,
      "duration": 3.15
    },
    {
      "text": "have to offer and then just wait for the",
      "start": 1183.23,
      "duration": 4.77
    },
    {
      "text": "quote applicants to to pour in but if",
      "start": 1184.85,
      "duration": 3.93
    },
    {
      "text": "you're looking for things really",
      "start": 1188,
      "duration": 2.85
    },
    {
      "text": "specialized castanet white make it",
      "start": 1188.78,
      "duration": 3.81
    },
    {
      "text": "geographically specific can be open very",
      "start": 1190.85,
      "duration": 3.48
    },
    {
      "text": "open and clear about what your needs are",
      "start": 1192.59,
      "duration": 3.36
    },
    {
      "text": "and then you know prepare for the",
      "start": 1194.33,
      "duration": 2.97
    },
    {
      "text": "inevitable disappointment when somebody",
      "start": 1195.95,
      "duration": 2.7
    },
    {
      "text": "says oh I only have a master's in",
      "start": 1197.3,
      "duration": 2.26
    },
    {
      "text": "molecular biology",
      "start": 1198.65,
      "duration": 2.95
    },
    {
      "text": "get out of here you punk or whatever it",
      "start": 1199.56,
      "duration": 5.55
    },
    {
      "text": "is right but but I would say use use the",
      "start": 1201.6,
      "duration": 5.75
    },
    {
      "text": "web work the web to find geographical",
      "start": 1205.11,
      "duration": 4.26
    },
    {
      "text": "similarities because you know I mean",
      "start": 1207.35,
      "duration": 3.46
    },
    {
      "text": "there could be a guy four doors over",
      "start": 1209.37,
      "duration": 3.39
    },
    {
      "text": "who's in exactly the same boat who could",
      "start": 1210.81,
      "duration": 4.68
    },
    {
      "text": "be a great friend but he's not gonna",
      "start": 1212.76,
      "duration": 4.95
    },
    {
      "text": "know putting yourself out personally",
      "start": 1215.49,
      "duration": 3.99
    },
    {
      "text": "face to face to me is it's a bit random",
      "start": 1217.71,
      "duration": 3.93
    },
    {
      "text": "and given the rarity of what you're",
      "start": 1219.48,
      "duration": 4.08
    },
    {
      "text": "looking for probably it's not going to",
      "start": 1221.64,
      "duration": 6.51
    },
    {
      "text": "be that great or useful and approach so",
      "start": 1223.56,
      "duration": 6.57
    },
    {
      "text": "that would be my suggestion hasn't",
      "start": 1228.15,
      "duration": 3.66
    },
    {
      "text": "turned out to be the best approach so",
      "start": 1230.13,
      "duration": 3.15
    },
    {
      "text": "far it's quite figured at it calling in",
      "start": 1231.81,
      "duration": 5.37
    },
    {
      "text": "an ask me taps comm is it's a good place",
      "start": 1233.28,
      "duration": 5.85
    },
    {
      "text": "to somebody who's mentioned yeah I",
      "start": 1237.18,
      "duration": 6.51
    },
    {
      "text": "promise it actually just I just think in",
      "start": 1239.13,
      "duration": 8.01
    },
    {
      "text": "there in the chat and I never say they",
      "start": 1243.69,
      "duration": 4.8
    },
    {
      "text": "mentioned that I'm gonna have a look at",
      "start": 1247.14,
      "duration": 3.69
    },
    {
      "text": "that a little bit later on okay yeah I",
      "start": 1248.49,
      "duration": 3.81
    },
    {
      "text": "hope that helps and of course if you do",
      "start": 1250.83,
      "duration": 3.81
    },
    {
      "text": "find a group that you like please feel",
      "start": 1252.3,
      "duration": 3.57
    },
    {
      "text": "free to come to the freedomain radio",
      "start": 1254.64,
      "duration": 5.22
    },
    {
      "text": "message board and talk to people who may",
      "start": 1255.87,
      "duration": 6.51
    },
    {
      "text": "also be around as well I mean we've got",
      "start": 1259.86,
      "duration": 4.44
    },
    {
      "text": "I don't know not you know it's not only",
      "start": 1262.38,
      "duration": 3.57
    },
    {
      "text": "that many active members post like ten",
      "start": 1264.3,
      "duration": 3.6
    },
    {
      "text": "or eleven thousand people who've signed",
      "start": 1265.95,
      "duration": 3.93
    },
    {
      "text": "up and I'm sure they would like to there",
      "start": 1267.9,
      "duration": 4.82
    },
    {
      "text": "must be at least a few who'd be around",
      "start": 1269.88,
      "duration": 5.46
    },
    {
      "text": "from a geographical standpoint and so",
      "start": 1272.72,
      "duration": 3.85
    },
    {
      "text": "you know you can work that resource as",
      "start": 1275.34,
      "duration": 5.34
    },
    {
      "text": "well sounds absolutely great um thanks a",
      "start": 1276.57,
      "duration": 8.94
    },
    {
      "text": "lot for your help and your chemo and",
      "start": 1280.68,
      "duration": 5.97
    },
    {
      "text": "everything like that and I hope that",
      "start": 1285.51,
      "duration": 4.44
    },
    {
      "text": "continues along that same positive path",
      "start": 1286.65,
      "duration": 5.7
    },
    {
      "text": "for you your family oh thank you thank",
      "start": 1289.95,
      "duration": 4.53
    },
    {
      "text": "you everything all right have yourself a",
      "start": 1292.35,
      "duration": 3.84
    },
    {
      "text": "good time finding your friends and if",
      "start": 1294.48,
      "duration": 3.09
    },
    {
      "text": "you find some please feel free to share",
      "start": 1296.19,
      "duration": 4.44
    },
    {
      "text": "the goodies with others and I hope it",
      "start": 1297.57,
      "duration": 5.49
    },
    {
      "text": "works out okay thank you very much all",
      "start": 1300.63,
      "duration": 5.54
    },
    {
      "text": "right you too",
      "start": 1303.06,
      "duration": 3.11
    },
    {
      "text": "you",
      "start": 1334.01,
      "duration": 2.06
    }
  ],
  "Errors": null,
  "TranscriptStderr": null
}