{
  "Title": "The True Meaning of \"Star Trek Into Darkness\"",
  "Id": "fBRf8DVkc-8",
  "Transcript": [
    {
      "text": "hi everybody stefan molyneux from",
      "start": 0,
      "duration": 3.689
    },
    {
      "text": "freedomain radio so this is a",
      "start": 2.28,
      "duration": 4.499
    },
    {
      "text": "philosophical review of star trek into",
      "start": 3.689,
      "duration": 5.821
    },
    {
      "text": "darkness now this is a film that has a",
      "start": 6.779,
      "duration": 4.591
    },
    {
      "text": "great deal of power at an allegorical",
      "start": 9.51,
      "duration": 3.18
    },
    {
      "text": "level and I think I'm going to make the",
      "start": 11.37,
      "duration": 4.2
    },
    {
      "text": "case for that there's some which is",
      "start": 12.69,
      "duration": 4.44
    },
    {
      "text": "known by the makers of the film JJ",
      "start": 15.57,
      "duration": 3.12
    },
    {
      "text": "Abrams and the actors have talked about",
      "start": 17.13,
      "duration": 4.14
    },
    {
      "text": "how it's an allegory for American",
      "start": 18.69,
      "duration": 4.89
    },
    {
      "text": "imperialism under Bush Cheney Rumsfeld",
      "start": 21.27,
      "duration": 3.99
    },
    {
      "text": "and so on but I think it goes much",
      "start": 23.58,
      "duration": 5.039
    },
    {
      "text": "further than that and you know for those",
      "start": 25.26,
      "duration": 4.74
    },
    {
      "text": "of you who don't know I come from a very",
      "start": 28.619,
      "duration": 5.21
    },
    {
      "text": "sort of strong artistic background my",
      "start": 30,
      "duration": 5.969
    },
    {
      "text": "university level writing courses I was a",
      "start": 33.829,
      "duration": 3.491
    },
    {
      "text": "studied playwriting at the National",
      "start": 35.969,
      "duration": 2.761
    },
    {
      "text": "Theatre School of Canada wrote plays",
      "start": 37.32,
      "duration": 4.02
    },
    {
      "text": "wrote novels poetry short stories I have",
      "start": 38.73,
      "duration": 4.68
    },
    {
      "text": "a very strong artistic background too",
      "start": 41.34,
      "duration": 4.62
    },
    {
      "text": "acted I played Macbeth in Shakespeare",
      "start": 43.41,
      "duration": 4.89
    },
    {
      "text": "and so on so I've done a lot of artistic",
      "start": 45.96,
      "duration": 5.369
    },
    {
      "text": "stuff and and I view the most powerful",
      "start": 48.3,
      "duration": 6.689
    },
    {
      "text": "allegories as representing stories which",
      "start": 51.329,
      "duration": 6.031
    },
    {
      "text": "accurately but metaphorically describe",
      "start": 54.989,
      "duration": 4.59
    },
    {
      "text": "what people don't want to talk about but",
      "start": 57.36,
      "duration": 3.66
    },
    {
      "text": "can't stop thinking about in this case",
      "start": 59.579,
      "duration": 2.851
    },
    {
      "text": "it would be of course imperialism in",
      "start": 61.02,
      "duration": 3.45
    },
    {
      "text": "particular to the wars in Iraq and",
      "start": 62.43,
      "duration": 3.41
    },
    {
      "text": "Afghanistan and I think if you",
      "start": 64.47,
      "duration": 3.18
    },
    {
      "text": "understand the parallels that are going",
      "start": 65.84,
      "duration": 3
    },
    {
      "text": "on in the movie you'll see how",
      "start": 67.65,
      "duration": 3.96
    },
    {
      "text": "powerfully this is still affecting our",
      "start": 68.84,
      "duration": 4.12
    },
    {
      "text": "consciousness in the moment we can start",
      "start": 71.61,
      "duration": 2.49
    },
    {
      "text": "talking about it directly we can do",
      "start": 72.96,
      "duration": 2.43
    },
    {
      "text": "something to bring these damn Wars to an",
      "start": 74.1,
      "duration": 6.9
    },
    {
      "text": "end so so the general story and this is",
      "start": 75.39,
      "duration": 7.799
    },
    {
      "text": "going to be spoiler central so please go",
      "start": 81,
      "duration": 4.049
    },
    {
      "text": "and watch the movie before you continue",
      "start": 83.189,
      "duration": 4.801
    },
    {
      "text": "but the general story is that these",
      "start": 85.049,
      "duration": 5.401
    },
    {
      "text": "super humans 73 super humans were",
      "start": 87.99,
      "duration": 6.239
    },
    {
      "text": "created and sorry they would they sort",
      "start": 90.45,
      "duration": 6.059
    },
    {
      "text": "of rose to power in wars in the 1990s in",
      "start": 94.229,
      "duration": 3.451
    },
    {
      "text": "the sort of Star Trek universe which",
      "start": 96.509,
      "duration": 2.9
    },
    {
      "text": "started of course in the 50s and 60s",
      "start": 97.68,
      "duration": 5.46
    },
    {
      "text": "they came to to the conquered half the",
      "start": 99.409,
      "duration": 4.841
    },
    {
      "text": "quarter of the world or something like",
      "start": 103.14,
      "duration": 2.369
    },
    {
      "text": "that or half the world and then they",
      "start": 104.25,
      "duration": 2.88
    },
    {
      "text": "were beaten and they were put into this",
      "start": 105.509,
      "duration": 4.371
    },
    {
      "text": "cryogenic sleep and shot into space and",
      "start": 107.13,
      "duration": 6.48
    },
    {
      "text": "then 300 years later this you know",
      "start": 109.88,
      "duration": 7.12
    },
    {
      "text": "wizened Robocop guy wakens them up and",
      "start": 113.61,
      "duration": 6.539
    },
    {
      "text": "starts to use them to design weapons for",
      "start": 117,
      "duration": 5.88
    },
    {
      "text": "the upcoming war that he anticipates is",
      "start": 120.149,
      "duration": 4.141
    },
    {
      "text": "going to happen with the Klingons now",
      "start": 122.88,
      "duration": 4.019
    },
    {
      "text": "let's take a pause and look at the Star",
      "start": 124.29,
      "duration": 4.07
    },
    {
      "text": "Trek universe as it was viewed in the",
      "start": 126.899,
      "duration": 3.511
    },
    {
      "text": "1960s and and why it worked",
      "start": 128.36,
      "duration": 4.239
    },
    {
      "text": "allegorically so well they were of",
      "start": 130.41,
      "duration": 3.42
    },
    {
      "text": "course three",
      "start": 132.599,
      "duration": 4.711
    },
    {
      "text": "of influence in the 1960s there was NATO",
      "start": 133.83,
      "duration": 5.73
    },
    {
      "text": "right North American Treaty Organization",
      "start": 137.31,
      "duration": 4.2
    },
    {
      "text": "which was of course Europe and to some",
      "start": 139.56,
      "duration": 3.84
    },
    {
      "text": "degree the United States that was sort",
      "start": 141.51,
      "duration": 3.51
    },
    {
      "text": "of the West and then there was Russia",
      "start": 143.4,
      "duration": 3.93
    },
    {
      "text": "and then there was China",
      "start": 145.02,
      "duration": 3.96
    },
    {
      "text": "and there was sort of the Far East in",
      "start": 147.33,
      "duration": 3.53
    },
    {
      "text": "terms of to a smaller degree there was",
      "start": 148.98,
      "duration": 5.01
    },
    {
      "text": "Japan and so on now in the Star Trek",
      "start": 150.86,
      "duration": 5.35
    },
    {
      "text": "universe it's pretty clear the the",
      "start": 153.99,
      "duration": 5.91
    },
    {
      "text": "Klingons are the Russians the Romulans",
      "start": 156.21,
      "duration": 5.88
    },
    {
      "text": "are the Chinese and the Vulcan",
      "start": 159.9,
      "duration": 4.71
    },
    {
      "text": "particularly Spock is other Japanese",
      "start": 162.09,
      "duration": 4.61
    },
    {
      "text": "right because he's half human and half",
      "start": 164.61,
      "duration": 5.46
    },
    {
      "text": "Vulcan and Japan in the 1960s was you",
      "start": 166.7,
      "duration": 5.95
    },
    {
      "text": "know a recent enemy but now was occupied",
      "start": 170.07,
      "duration": 4.139
    },
    {
      "text": "and was becoming more of an ally and so",
      "start": 172.65,
      "duration": 2.58
    },
    {
      "text": "on this is why you get the half-and-half",
      "start": 174.209,
      "duration": 9.961
    },
    {
      "text": "thing now in the story these this one of",
      "start": 175.23,
      "duration": 12.86
    },
    {
      "text": "them awakens the Kahn awakens and",
      "start": 184.17,
      "duration": 6.93
    },
    {
      "text": "attacks he puts a bomb at the bottom of",
      "start": 188.09,
      "duration": 4.9
    },
    {
      "text": "a big building in a big city that this",
      "start": 191.1,
      "duration": 5.16
    },
    {
      "text": "to me is allegorical to the bombing of",
      "start": 192.99,
      "duration": 5.67
    },
    {
      "text": "the World Trade Center in 1993 where",
      "start": 196.26,
      "duration": 4.02
    },
    {
      "text": "they you know Islamic extremists put the",
      "start": 198.66,
      "duration": 3.54
    },
    {
      "text": "bomb in the basement and and so on and",
      "start": 200.28,
      "duration": 4.32
    },
    {
      "text": "so that to me is sort of an ace tarting",
      "start": 202.2,
      "duration": 6.12
    },
    {
      "text": "point to this but he then attacks start",
      "start": 204.6,
      "duration": 6.6
    },
    {
      "text": "with any flees to a remote uninhabited",
      "start": 208.32,
      "duration": 5.85
    },
    {
      "text": "area of the Klingon homeworld which is",
      "start": 211.2,
      "duration": 4.68
    },
    {
      "text": "again right on the edge of the border",
      "start": 214.17,
      "duration": 4.47
    },
    {
      "text": "between Federation airspace and the the",
      "start": 215.88,
      "duration": 4.98
    },
    {
      "text": "Klingon airspace and this of course is",
      "start": 218.64,
      "duration": 4.8
    },
    {
      "text": "Afghanistan right because it's sort of",
      "start": 220.86,
      "duration": 4.14
    },
    {
      "text": "remote and rocky it's under the Klingon",
      "start": 223.44,
      "duration": 3.57
    },
    {
      "text": "sphere of influence close to the border",
      "start": 225,
      "duration": 4.2
    },
    {
      "text": "so this of course in the 1980s Russia",
      "start": 227.01,
      "duration": 4.05
    },
    {
      "text": "was invading and occupying and",
      "start": 229.2,
      "duration": 4.28
    },
    {
      "text": "attempting to maintain its control over",
      "start": 231.06,
      "duration": 5.94
    },
    {
      "text": "Afghanistan now what's interesting is",
      "start": 233.48,
      "duration": 7.27
    },
    {
      "text": "that Kahn is using weapons that are",
      "start": 237,
      "duration": 6.45
    },
    {
      "text": "developed through the Federation to",
      "start": 240.75,
      "duration": 5.88
    },
    {
      "text": "fight off the Klingons who come to get",
      "start": 243.45,
      "duration": 4.89
    },
    {
      "text": "the staff the guys who've come like the",
      "start": 246.63,
      "duration": 3.75
    },
    {
      "text": "Kirk of these guys who come to to go and",
      "start": 248.34,
      "duration": 4.86
    },
    {
      "text": "get him that this is to me directly",
      "start": 250.38,
      "duration": 4.5
    },
    {
      "text": "analogous to the CIA's funding of the",
      "start": 253.2,
      "duration": 4.62
    },
    {
      "text": "Mujahideen in Afghanistan who were",
      "start": 254.88,
      "duration": 4.8
    },
    {
      "text": "fighting off the Russians you know one",
      "start": 257.82,
      "duration": 4.229
    },
    {
      "text": "of the great lessons of modern warfare",
      "start": 259.68,
      "duration": 5.34
    },
    {
      "text": "is that attack is almost infinitely more",
      "start": 262.049,
      "duration": 4.801
    },
    {
      "text": "expensive than defense right because you",
      "start": 265.02,
      "duration": 2.52
    },
    {
      "text": "had the mood",
      "start": 266.85,
      "duration": 2.88
    },
    {
      "text": "padeen trade mother CIA who were taking",
      "start": 267.54,
      "duration": 3.78
    },
    {
      "text": "down you know twenty five million dollar",
      "start": 269.73,
      "duration": 4.23
    },
    {
      "text": "Russian MIG planes with a 25,000 or",
      "start": 271.32,
      "duration": 4.92
    },
    {
      "text": "$50,000 Stinger missile which is one of",
      "start": 273.96,
      "duration": 3.42
    },
    {
      "text": "the things that contributed to the",
      "start": 276.24,
      "duration": 4.71
    },
    {
      "text": "collapse of the Russian Empire and to to",
      "start": 277.38,
      "duration": 5.46
    },
    {
      "text": "attack is it almost infinitely more",
      "start": 280.95,
      "duration": 3.9
    },
    {
      "text": "expensive than it is to defend and this",
      "start": 282.84,
      "duration": 3.9
    },
    {
      "text": "is how bin Laden and the Mujahideen",
      "start": 284.85,
      "duration": 3.15
    },
    {
      "text": "learned that this is how you take down",
      "start": 286.74,
      "duration": 3.15
    },
    {
      "text": "an empire so the CIA trained to take",
      "start": 288,
      "duration": 4.17
    },
    {
      "text": "trained them to take down Russia by",
      "start": 289.89,
      "duration": 4.56
    },
    {
      "text": "causing Russia you know extreme",
      "start": 292.17,
      "duration": 5.61
    },
    {
      "text": "financial harm by destroying the the",
      "start": 294.45,
      "duration": 4.77
    },
    {
      "text": "weapons of invasion with very cheap",
      "start": 297.78,
      "duration": 3.33
    },
    {
      "text": "weapons of defense the same thing of",
      "start": 299.22,
      "duration": 3.9
    },
    {
      "text": "course is happening now in Iraq and to a",
      "start": 301.11,
      "duration": 4.59
    },
    {
      "text": "smaller degree in Afghanistan as well so",
      "start": 303.12,
      "duration": 5.01
    },
    {
      "text": "the fact that Khan who represents bin",
      "start": 305.7,
      "duration": 4.5
    },
    {
      "text": "Laden is using the Federation weapons to",
      "start": 308.13,
      "duration": 5.7
    },
    {
      "text": "fight off the Klingons is after he's",
      "start": 310.2,
      "duration": 5.22
    },
    {
      "text": "been trained to develop and build and",
      "start": 313.83,
      "duration": 2.82
    },
    {
      "text": "he's been trained in these weapons is",
      "start": 315.42,
      "duration": 3.42
    },
    {
      "text": "directly analogous to the CIA's training",
      "start": 316.65,
      "duration": 4.86
    },
    {
      "text": "and funding of the Mujahideen under bin",
      "start": 318.84,
      "duration": 4.2
    },
    {
      "text": "Laden to go and fight off the Russians",
      "start": 321.51,
      "duration": 8.25
    },
    {
      "text": "in the 1980s so then what happens is the",
      "start": 323.04,
      "duration": 9.42
    },
    {
      "text": "the Federation has sleepers right these",
      "start": 329.76,
      "duration": 4.89
    },
    {
      "text": "guys who are in cryogenic freeze right",
      "start": 332.46,
      "duration": 3.42
    },
    {
      "text": "these they're seventy two of them plus",
      "start": 334.65,
      "duration": 3.93
    },
    {
      "text": "count seventy three and one of the",
      "start": 335.88,
      "duration": 4.29
    },
    {
      "text": "things that's used in spite omen ology",
      "start": 338.58,
      "duration": 2.85
    },
    {
      "text": "is a sleeper cell which is where",
      "start": 340.17,
      "duration": 3.15
    },
    {
      "text": "somebody's able to be activated to act",
      "start": 341.43,
      "duration": 3.81
    },
    {
      "text": "against your enemy but is dormant and so",
      "start": 343.32,
      "duration": 3
    },
    {
      "text": "on so the fact that there's these",
      "start": 345.24,
      "duration": 3.38
    },
    {
      "text": "sleepers to me indicates another sort of",
      "start": 346.32,
      "duration": 5.73
    },
    {
      "text": "spy CIA terminology they openly talk",
      "start": 348.62,
      "duration": 7.59
    },
    {
      "text": "about firing these things as drones into",
      "start": 352.05,
      "duration": 7.77
    },
    {
      "text": "Afghanistan proxy which is the the the",
      "start": 356.21,
      "duration": 4.93
    },
    {
      "text": "part of the homeworld of the Klingon",
      "start": 359.82,
      "duration": 2.88
    },
    {
      "text": "homeworld that is uninhabited and so on",
      "start": 361.14,
      "duration": 4.68
    },
    {
      "text": "and I think that's really that's really",
      "start": 362.7,
      "duration": 7.08
    },
    {
      "text": "important to to understand now what",
      "start": 365.82,
      "duration": 6.75
    },
    {
      "text": "happens then is that they find out that",
      "start": 369.78,
      "duration": 5.1
    },
    {
      "text": "these guys have been awakened or that",
      "start": 372.57,
      "duration": 3.66
    },
    {
      "text": "the Khan has been awakened in order to",
      "start": 374.88,
      "duration": 2.61
    },
    {
      "text": "help them build these horrible weapons",
      "start": 376.23,
      "duration": 3.42
    },
    {
      "text": "which is supposed to be used to provoke",
      "start": 377.49,
      "duration": 5.58
    },
    {
      "text": "a war with the Klingons and what happens",
      "start": 379.65,
      "duration": 4.77
    },
    {
      "text": "of course is that the war with the",
      "start": 383.07,
      "duration": 2.85
    },
    {
      "text": "Klingons doesn't actually materialize",
      "start": 384.42,
      "duration": 4.47
    },
    {
      "text": "what does materialize is the war with",
      "start": 385.92,
      "duration": 5.31
    },
    {
      "text": "Khan slash bin Laden now isn't this",
      "start": 388.89,
      "duration": 5.4
    },
    {
      "text": "really the case with America and Russia",
      "start": 391.23,
      "duration": 5.88
    },
    {
      "text": "that they trained these guys to go and",
      "start": 394.29,
      "duration": 4.5
    },
    {
      "text": "fight the Russians and defeat the",
      "start": 397.11,
      "duration": 3.36
    },
    {
      "text": "Russians mostly economically which is",
      "start": 398.79,
      "duration": 2.64
    },
    {
      "text": "why the US economy",
      "start": 400.47,
      "duration": 2.25
    },
    {
      "text": "years in such a mess these days because",
      "start": 401.43,
      "duration": 2.52
    },
    {
      "text": "they're fried using the same economic",
      "start": 402.72,
      "duration": 4.35
    },
    {
      "text": "weapons of disproportionate cast of",
      "start": 403.95,
      "duration": 5.07
    },
    {
      "text": "attack and defense that they learned",
      "start": 407.07,
      "duration": 3.24
    },
    {
      "text": "that the u.s. taught them about the",
      "start": 409.02,
      "duration": 2.73
    },
    {
      "text": "Russians that are using against America",
      "start": 410.31,
      "duration": 3.81
    },
    {
      "text": "and so the war with the Klingon Empire",
      "start": 411.75,
      "duration": 4.2
    },
    {
      "text": "never materializes just as the war with",
      "start": 414.12,
      "duration": 3.15
    },
    {
      "text": "Russia never materialized but what",
      "start": 415.95,
      "duration": 3.27
    },
    {
      "text": "happens is you end up with a war with",
      "start": 417.27,
      "duration": 3.36
    },
    {
      "text": "those terrorists that you created to",
      "start": 419.22,
      "duration": 2.13
    },
    {
      "text": "fight the enemy",
      "start": 420.63,
      "duration": 2.13
    },
    {
      "text": "which is of course the war on terror",
      "start": 421.35,
      "duration": 6.35
    },
    {
      "text": "that is that is happening now there are",
      "start": 422.76,
      "duration": 7.08
    },
    {
      "text": "some things that are not even subtle",
      "start": 427.7,
      "duration": 8.23
    },
    {
      "text": "right so there are 73 of these these",
      "start": 429.84,
      "duration": 8.67
    },
    {
      "text": "terrorists and how many virgens do you",
      "start": 435.93,
      "duration": 4.83
    },
    {
      "text": "get in the Islamic paradise if you die a",
      "start": 438.51,
      "duration": 4.47
    },
    {
      "text": "martyr all right I mean it's not even",
      "start": 440.76,
      "duration": 3.75
    },
    {
      "text": "the number is not accidental I mean this",
      "start": 442.98,
      "duration": 3.81
    },
    {
      "text": "is a direct reference to this to this",
      "start": 444.51,
      "duration": 5.79
    },
    {
      "text": "kind of stuff so what happens then is",
      "start": 446.79,
      "duration": 9.3
    },
    {
      "text": "that a Khan takes over a federation",
      "start": 450.3,
      "duration": 9.42
    },
    {
      "text": "vessel and crashes it into a city again",
      "start": 456.09,
      "duration": 6
    },
    {
      "text": "I mean you you you you you couldn't make",
      "start": 459.72,
      "duration": 5.04
    },
    {
      "text": "it any less subtle if you tried I mean",
      "start": 462.09,
      "duration": 5.97
    },
    {
      "text": "you couldn't you know other than having",
      "start": 464.76,
      "duration": 4.38
    },
    {
      "text": "a bunch of people run after the",
      "start": 468.06,
      "duration": 3.39
    },
    {
      "text": "starships saying it's a false flag",
      "start": 469.14,
      "duration": 6.51
    },
    {
      "text": "attack but because of course bin Laden",
      "start": 471.45,
      "duration": 7.16
    },
    {
      "text": "through his proxies did took over",
      "start": 475.65,
      "duration": 4.92
    },
    {
      "text": "American built planes and flew them into",
      "start": 478.61,
      "duration": 3.61
    },
    {
      "text": "American building so the fact that the",
      "start": 480.57,
      "duration": 4.83
    },
    {
      "text": "bin Laden con takes over a federation",
      "start": 482.22,
      "duration": 5.7
    },
    {
      "text": "built starship and crashes it into a",
      "start": 485.4,
      "duration": 6.6
    },
    {
      "text": "city is not even remotely not even",
      "start": 487.92,
      "duration": 7.67
    },
    {
      "text": "remotely subtle and then what happens is",
      "start": 492,
      "duration": 6.06
    },
    {
      "text": "spark beams kneeling he gets away and",
      "start": 495.59,
      "duration": 4.87
    },
    {
      "text": "then Spock goes and has a fistfight with",
      "start": 498.06,
      "duration": 4.95
    },
    {
      "text": "him and they dispose of him on a",
      "start": 500.46,
      "duration": 5.73
    },
    {
      "text": "floating vessel right dispose of Kahn on",
      "start": 503.01,
      "duration": 5.94
    },
    {
      "text": "a floating vessel this of course so this",
      "start": 506.19,
      "duration": 5.16
    },
    {
      "text": "whole big fight this whole big war with",
      "start": 508.95,
      "duration": 4.59
    },
    {
      "text": "starships and photon torpedoes and all",
      "start": 511.35,
      "duration": 5.31
    },
    {
      "text": "that kind of stuff comes down to local",
      "start": 513.54,
      "duration": 4.92
    },
    {
      "text": "hand-to-hand combat and this of course",
      "start": 516.66,
      "duration": 4.44
    },
    {
      "text": "was the end of bin Laden in the real",
      "start": 518.46,
      "duration": 3.66
    },
    {
      "text": "world right again according to the",
      "start": 521.1,
      "duration": 2.46
    },
    {
      "text": "official story the SEAL Team six went in",
      "start": 522.12,
      "duration": 3.12
    },
    {
      "text": "and killed him and all that stuff and",
      "start": 523.56,
      "duration": 2.88
    },
    {
      "text": "they disposed of him on a floating",
      "start": 525.24,
      "duration": 2.46
    },
    {
      "text": "vessel right which was they threw his",
      "start": 526.44,
      "duration": 5.13
    },
    {
      "text": "body overboard on a on a ship so I think",
      "start": 527.7,
      "duration": 7.26
    },
    {
      "text": "that's really really important to to",
      "start": 531.57,
      "duration": 5.43
    },
    {
      "text": "understand this level of parallels are",
      "start": 534.96,
      "duration": 4.2
    },
    {
      "text": "so obvious and so I mean on the nose",
      "start": 537,
      "duration": 3.96
    },
    {
      "text": "that I would actually probably have",
      "start": 539.16,
      "duration": 3.66
    },
    {
      "text": "marked someone down from it's too too",
      "start": 540.96,
      "duration": 6.18
    },
    {
      "text": "obvious too clear so I think if you look",
      "start": 542.82,
      "duration": 5.58
    },
    {
      "text": "at it from that standpoint there's",
      "start": 547.14,
      "duration": 2.49
    },
    {
      "text": "something very interesting to be said",
      "start": 548.4,
      "duration": 5.46
    },
    {
      "text": "about the danger of creating weapons out",
      "start": 549.63,
      "duration": 7.02
    },
    {
      "text": "of people turning people into weapons a",
      "start": 553.86,
      "duration": 4.32
    },
    {
      "text": "weapon you fire it goes and blow",
      "start": 556.65,
      "duration": 2.73
    },
    {
      "text": "something up and that's done but when",
      "start": 558.18,
      "duration": 2.88
    },
    {
      "text": "you turn a person into a weapon it's",
      "start": 559.38,
      "duration": 2.85
    },
    {
      "text": "almost always a case of boomerang",
      "start": 561.06,
      "duration": 3.81
    },
    {
      "text": "there's always almost always case of a",
      "start": 562.23,
      "duration": 4.56
    },
    {
      "text": "blowback and I think that's really",
      "start": 564.87,
      "duration": 6.33
    },
    {
      "text": "really important to understand so at the",
      "start": 566.79,
      "duration": 6.84
    },
    {
      "text": "end of the movie there is a ceremony I",
      "start": 571.2,
      "duration": 3.87
    },
    {
      "text": "think it takes place a year after the",
      "start": 573.63,
      "duration": 3.03
    },
    {
      "text": "crashing of the spaceship into the",
      "start": 575.07,
      "duration": 3.75
    },
    {
      "text": "buildings of the city and they talk",
      "start": 576.66,
      "duration": 3.54
    },
    {
      "text": "about if lives are lost don't",
      "start": 578.82,
      "duration": 3.33
    },
    {
      "text": "immediately seek for revenge and so on",
      "start": 580.2,
      "duration": 4.79
    },
    {
      "text": "not a bad sentiment that even had some",
      "start": 582.15,
      "duration": 5.94
    },
    {
      "text": "veterans as extras in the audience of",
      "start": 584.99,
      "duration": 4.48
    },
    {
      "text": "that and at the end of the movie they",
      "start": 588.09,
      "duration": 3.42
    },
    {
      "text": "say is dedicated to the post 9/11",
      "start": 589.47,
      "duration": 5.73
    },
    {
      "text": "veterans and so on and it's an",
      "start": 591.51,
      "duration": 5.76
    },
    {
      "text": "interesting sentiment people mistake the",
      "start": 595.2,
      "duration": 4.92
    },
    {
      "text": "course of these wars so that the root",
      "start": 597.27,
      "duration": 5.91
    },
    {
      "text": "causes is not poverty it's not it's not",
      "start": 600.12,
      "duration": 4.62
    },
    {
      "text": "even fundamentally imperialism it's not",
      "start": 603.18,
      "duration": 3.18
    },
    {
      "text": "blowback the root cause fundamentally is",
      "start": 604.74,
      "duration": 3.69
    },
    {
      "text": "the government's power to print money",
      "start": 606.36,
      "duration": 3.93
    },
    {
      "text": "and tax citizens at gunpoint that's the",
      "start": 608.43,
      "duration": 4.11
    },
    {
      "text": "root cause of war they say that war is",
      "start": 610.29,
      "duration": 3.45
    },
    {
      "text": "the health of the state this is nonsense",
      "start": 612.54,
      "duration": 3.45
    },
    {
      "text": "the state is the health of war you",
      "start": 613.74,
      "duration": 4.11
    },
    {
      "text": "simply can't have war if the government",
      "start": 615.99,
      "duration": 3.3
    },
    {
      "text": "doesn't have the power to borrow print",
      "start": 617.85,
      "duration": 2.73
    },
    {
      "text": "money and tax at gunpoint",
      "start": 619.29,
      "duration": 3.81
    },
    {
      "text": "because the costs of war are so",
      "start": 620.58,
      "duration": 4.77
    },
    {
      "text": "astonishingly high that unless the",
      "start": 623.1,
      "duration": 5.46
    },
    {
      "text": "citizens are drugged into losing their",
      "start": 625.35,
      "duration": 5.1
    },
    {
      "text": "lifeblood through vampiric infant",
      "start": 628.56,
      "duration": 3.75
    },
    {
      "text": "stations while they sleep they will",
      "start": 630.45,
      "duration": 3.78
    },
    {
      "text": "rebel against the war immediately I mean",
      "start": 632.31,
      "duration": 4.02
    },
    {
      "text": "if you immediately got a bill for a",
      "start": 634.23,
      "duration": 3.84
    },
    {
      "text": "hundred thousand dollars for a war I bet",
      "start": 636.33,
      "duration": 3.45
    },
    {
      "text": "you'd put down your flag and you know",
      "start": 638.07,
      "duration": 3.6
    },
    {
      "text": "pick up your hippie peace symbols pretty",
      "start": 639.78,
      "duration": 4.08
    },
    {
      "text": "quickly but people are drugged by the",
      "start": 641.67,
      "duration": 4.79
    },
    {
      "text": "diluted cost of the war deferred and",
      "start": 643.86,
      "duration": 5.22
    },
    {
      "text": "extended and extrapolated and generally",
      "start": 646.46,
      "duration": 5.14
    },
    {
      "text": "hidden from immediate view it is a slow",
      "start": 649.08,
      "duration": 5.07
    },
    {
      "text": "death it's like instead of burning to",
      "start": 651.6,
      "duration": 3.9
    },
    {
      "text": "death it's like freezing to death where",
      "start": 654.15,
      "duration": 2.55
    },
    {
      "text": "you just kind of get warm and comfy and",
      "start": 655.5,
      "duration": 3.12
    },
    {
      "text": "then go out that way the root cause of",
      "start": 656.7,
      "duration": 3.81
    },
    {
      "text": "war is the government's power to tax the",
      "start": 658.62,
      "duration": 3.63
    },
    {
      "text": "monopolies that the government provides",
      "start": 660.51,
      "duration": 3.51
    },
    {
      "text": "banks on the provisions of currency",
      "start": 662.25,
      "duration": 3.36
    },
    {
      "text": "services and the government control of",
      "start": 664.02,
      "duration": 3.48
    },
    {
      "text": "interest rates and the government's",
      "start": 665.61,
      "duration": 3.12
    },
    {
      "text": "power to in",
      "start": 667.5,
      "duration": 4.26
    },
    {
      "text": "the unborn through selling off fetuses",
      "start": 668.73,
      "duration": 5.61
    },
    {
      "text": "to foreign bankers so the root cause of",
      "start": 671.76,
      "duration": 4.11
    },
    {
      "text": "war is not of course couldn't be",
      "start": 674.34,
      "duration": 3.51
    },
    {
      "text": "addressed in a Hollywood film I would be",
      "start": 675.87,
      "duration": 4.23
    },
    {
      "text": "would be mad to imagine this is why it's",
      "start": 677.85,
      "duration": 4.65
    },
    {
      "text": "a Hollywood film but the two other",
      "start": 680.1,
      "duration": 4.82
    },
    {
      "text": "things that I would mention is that",
      "start": 682.5,
      "duration": 6.63
    },
    {
      "text": "they're all mad in the funk the hero's",
      "start": 684.92,
      "duration": 5.56
    },
    {
      "text": "sorry the spark and they go through",
      "start": 689.13,
      "duration": 2.91
    },
    {
      "text": "these unbelievable near-death",
      "start": 690.48,
      "duration": 3.63
    },
    {
      "text": "experiences with almost no trauma",
      "start": 692.04,
      "duration": 4.53
    },
    {
      "text": "whatsoever any wise cracking jokes oh",
      "start": 694.11,
      "duration": 3.87
    },
    {
      "text": "and then with all its sociopaths right",
      "start": 696.57,
      "duration": 3.48
    },
    {
      "text": "because sociopaths don't have that sense",
      "start": 697.98,
      "duration": 3.3
    },
    {
      "text": "of fear and they don't retain that sense",
      "start": 700.05,
      "duration": 4.05
    },
    {
      "text": "of emotional throughput so you know",
      "start": 701.28,
      "duration": 4.29
    },
    {
      "text": "you're fighting sociopaths with",
      "start": 704.1,
      "duration": 3
    },
    {
      "text": "sociopaths which is never going to end",
      "start": 705.57,
      "duration": 4.47
    },
    {
      "text": "war this is something that is really",
      "start": 707.1,
      "duration": 5.61
    },
    {
      "text": "important to understand the war this",
      "start": 710.04,
      "duration": 4.44
    },
    {
      "text": "this current war the war in the movie is",
      "start": 712.71,
      "duration": 4.47
    },
    {
      "text": "only continuing because the enemy was",
      "start": 714.48,
      "duration": 4.14
    },
    {
      "text": "not defeated in the previous war but it",
      "start": 717.18,
      "duration": 2.67
    },
    {
      "text": "was only put to sleep and then it's",
      "start": 718.62,
      "duration": 5.28
    },
    {
      "text": "really confor the the the federation",
      "start": 719.85,
      "duration": 6.57
    },
    {
      "text": "fundamentally is fascistic right I mean",
      "start": 723.9,
      "duration": 4.32
    },
    {
      "text": "it's all military all the time there's",
      "start": 726.42,
      "duration": 4.44
    },
    {
      "text": "almost no reference to any non millage",
      "start": 728.22,
      "duration": 4.14
    },
    {
      "text": "it's a complete fascistic universe I",
      "start": 730.86,
      "duration": 3.15
    },
    {
      "text": "mean it's Benito Mussolini on steroids",
      "start": 732.36,
      "duration": 5.31
    },
    {
      "text": "and because there's almost no mention in",
      "start": 734.01,
      "duration": 5.85
    },
    {
      "text": "the free market and cost ever I don't",
      "start": 737.67,
      "duration": 3.3
    },
    {
      "text": "know where is this technology coming",
      "start": 739.86,
      "duration": 2.16
    },
    {
      "text": "from is not coming from the government",
      "start": 740.97,
      "duration": 2.52
    },
    {
      "text": "come produce the thumb tag without",
      "start": 742.02,
      "duration": 5.25
    },
    {
      "text": "sticking itself in the thumb but in this",
      "start": 743.49,
      "duration": 6.51
    },
    {
      "text": "fascistic universe the Federation the",
      "start": 747.27,
      "duration": 4.59
    },
    {
      "text": "Star Trek series can only continue as",
      "start": 750,
      "duration": 3.33
    },
    {
      "text": "long as it has enemies all right this is",
      "start": 751.86,
      "duration": 2.58
    },
    {
      "text": "really important to understand right",
      "start": 753.33,
      "duration": 3.66
    },
    {
      "text": "that the drama of war only exists",
      "start": 754.44,
      "duration": 5.13
    },
    {
      "text": "because there are enemies and so the",
      "start": 756.99,
      "duration": 5.67
    },
    {
      "text": "federation needs the enemies this is the",
      "start": 759.57,
      "duration": 4.44
    },
    {
      "text": "most important thing to understand we",
      "start": 762.66,
      "duration": 4.02
    },
    {
      "text": "just look at America even just the",
      "start": 764.01,
      "duration": 4.17
    },
    {
      "text": "post-war period I mean just run through",
      "start": 766.68,
      "duration": 3.9
    },
    {
      "text": "all of the foreign entanglements and",
      "start": 768.18,
      "duration": 4.14
    },
    {
      "text": "involvement in Wars you know from Korea",
      "start": 770.58,
      "duration": 4.17
    },
    {
      "text": "to Vietnam to Iran to the Contra scandal",
      "start": 772.32,
      "duration": 5.67
    },
    {
      "text": "to God getting involved in Guatemala",
      "start": 774.75,
      "duration": 4.62
    },
    {
      "text": "getting involved in Iraq getting",
      "start": 777.99,
      "duration": 3.21
    },
    {
      "text": "involved in in the first Gulf War I mean",
      "start": 779.37,
      "duration": 5.13
    },
    {
      "text": "the continual manufacturer of enemies is",
      "start": 781.2,
      "duration": 5.31
    },
    {
      "text": "essential to the growth of the fascist",
      "start": 784.5,
      "duration": 3.81
    },
    {
      "text": "state which is why in this story the",
      "start": 786.51,
      "duration": 3.3
    },
    {
      "text": "enemies never go away they're put to",
      "start": 788.31,
      "duration": 3.6
    },
    {
      "text": "sleep right and then they're shot back",
      "start": 789.81,
      "duration": 3.3
    },
    {
      "text": "out into space and at the end of the",
      "start": 791.91,
      "duration": 2.67
    },
    {
      "text": "movie they're put to sleep again they",
      "start": 793.11,
      "duration": 3.09
    },
    {
      "text": "don't end the enemies because to end the",
      "start": 794.58,
      "duration": 3.57
    },
    {
      "text": "enemies is to end the hierarchy is to",
      "start": 796.2,
      "duration": 4.65
    },
    {
      "text": "end the the Federation is to have a",
      "start": 798.15,
      "duration": 4.059
    },
    {
      "text": "world of peace",
      "start": 800.85,
      "duration": 2.859
    },
    {
      "text": "right this is really really essential to",
      "start": 802.209,
      "duration": 5.37
    },
    {
      "text": "understand you will never see parenting",
      "start": 803.709,
      "duration": 4.92
    },
    {
      "text": "but that's a little bit at the beginning",
      "start": 807.579,
      "duration": 2.31
    },
    {
      "text": "where a guy wants to take care of his",
      "start": 808.629,
      "duration": 2.281
    },
    {
      "text": "daughter or whatever but you'll never",
      "start": 809.889,
      "duration": 2.911
    },
    {
      "text": "see parenting in any of these sorts of",
      "start": 810.91,
      "duration": 3.39
    },
    {
      "text": "movies because this is all about",
      "start": 812.8,
      "duration": 4.319
    },
    {
      "text": "fighting made-up monstrous that you keep",
      "start": 814.3,
      "duration": 4.139
    },
    {
      "text": "alive in order to continue fighting",
      "start": 817.119,
      "duration": 3.09
    },
    {
      "text": "right this is a bloodthirsty",
      "start": 818.439,
      "duration": 3.69
    },
    {
      "text": "blood-soaked hierarchical violent",
      "start": 820.209,
      "duration": 3.57
    },
    {
      "text": "universe which can only be maintained by",
      "start": 822.129,
      "duration": 4.2
    },
    {
      "text": "the continued brutalization of children",
      "start": 823.779,
      "duration": 4.381
    },
    {
      "text": "this is why you'll never see you know",
      "start": 826.329,
      "duration": 3.69
    },
    {
      "text": "let's reform parenting to end war I mean",
      "start": 828.16,
      "duration": 3.69
    },
    {
      "text": "this is so incomprehensible to people",
      "start": 830.019,
      "duration": 4.081
    },
    {
      "text": "who are addicted to the fight or flight",
      "start": 831.85,
      "duration": 5.76
    },
    {
      "text": "and freeze mechanism of continual",
      "start": 834.1,
      "duration": 5.01
    },
    {
      "text": "warfare which is where we are still",
      "start": 837.61,
      "duration": 4.43
    },
    {
      "text": "addicted so tragically as a species",
      "start": 839.11,
      "duration": 5.159
    },
    {
      "text": "where there's not a war overseas there's",
      "start": 842.04,
      "duration": 3.76
    },
    {
      "text": "a war against taxpayers as a war against",
      "start": 844.269,
      "duration": 2.91
    },
    {
      "text": "the unborn there's a war against drug",
      "start": 845.8,
      "duration": 3.06
    },
    {
      "text": "users there's a war against you you name",
      "start": 847.179,
      "duration": 2.791
    },
    {
      "text": "it there's always a war against",
      "start": 848.86,
      "duration": 2.699
    },
    {
      "text": "something at all times because the only",
      "start": 849.97,
      "duration": 2.94
    },
    {
      "text": "thing that we can think of gives it",
      "start": 851.559,
      "duration": 3.09
    },
    {
      "text": "given the brutality most of her",
      "start": 852.91,
      "duration": 3.989
    },
    {
      "text": "upbringing is that we must use the might",
      "start": 854.649,
      "duration": 3.99
    },
    {
      "text": "of the state to solve delicate social",
      "start": 856.899,
      "duration": 3.87
    },
    {
      "text": "problems which is like trying to build a",
      "start": 858.639,
      "duration": 3.69
    },
    {
      "text": "house with a bunker buster' you'll get a",
      "start": 860.769,
      "duration": 2.85
    },
    {
      "text": "lot of noise and smoke but you won't get",
      "start": 862.329,
      "duration": 4.021
    },
    {
      "text": "a whole lot of house because the",
      "start": 863.619,
      "duration": 4.41
    },
    {
      "text": "fundamental solution to the problem that",
      "start": 866.35,
      "duration": 5.01
    },
    {
      "text": "war is not to stop raising arms against",
      "start": 868.029,
      "duration": 4.98
    },
    {
      "text": "enemies or decide to go fight or not to",
      "start": 871.36,
      "duration": 3.329
    },
    {
      "text": "go and fight it's simply to teach you",
      "start": 873.009,
      "duration": 3.591
    },
    {
      "text": "treat your children with peace love",
      "start": 874.689,
      "duration": 4.68
    },
    {
      "text": "virtue negotiation consideration",
      "start": 876.6,
      "duration": 5.56
    },
    {
      "text": "gentleness kindness respect dignity and",
      "start": 879.369,
      "duration": 4.051
    },
    {
      "text": "all that kind of stuff that's the true",
      "start": 882.16,
      "duration": 2.989
    },
    {
      "text": "revolution there is no revolution",
      "start": 883.42,
      "duration": 4.469
    },
    {
      "text": "fundamentally but parenting and the",
      "start": 885.149,
      "duration": 4.93
    },
    {
      "text": "point is not to raise arms against",
      "start": 887.889,
      "duration": 4.591
    },
    {
      "text": "enemies but to lower your arms before",
      "start": 890.079,
      "duration": 6.17
    },
    {
      "text": "your children thank you very much",
      "start": 892.48,
      "duration": 3.769
    },
    {
      "text": "you",
      "start": 921.3,
      "duration": 2.06
    }
  ],
  "Errors": null,
  "TranscriptStderr": null
}