{
  "Title": "Turning 50 Years Old",
  "Id": "Fdzp5py9Ezg",
  "Transcript": [
    {
      "text": "hi everybody its defend molyneux from",
      "start": 0,
      "duration": 2.52
    },
    {
      "text": "freedomain radio I hope you're doing",
      "start": 1.469,
      "duration": 6.511
    },
    {
      "text": "well so today is September the 23rd 2016",
      "start": 2.52,
      "duration": 8.909
    },
    {
      "text": "I myself was born in a little Hospital",
      "start": 7.98,
      "duration": 7.44
    },
    {
      "text": "in athlone Ireland 6 p.m. on September",
      "start": 11.429,
      "duration": 6.451
    },
    {
      "text": "the 24th 1966 so that means that",
      "start": 15.42,
      "duration": 6.75
    },
    {
      "text": "tomorrow be my 50th birthday and means",
      "start": 17.88,
      "duration": 6.479
    },
    {
      "text": "I'm entering into my sixth decade and",
      "start": 22.17,
      "duration": 8.939
    },
    {
      "text": "out of my fifth now my life has not been",
      "start": 24.359,
      "duration": 8.581
    },
    {
      "text": "broken up into these decades so far I",
      "start": 31.109,
      "duration": 4.321
    },
    {
      "text": "didn't really notice my 30s and in terms",
      "start": 32.94,
      "duration": 4.5
    },
    {
      "text": "of passing 30 or passing 40 didn't",
      "start": 35.43,
      "duration": 3.449
    },
    {
      "text": "really matter much to me maybe it's",
      "start": 37.44,
      "duration": 3.24
    },
    {
      "text": "because I've had some health issues or",
      "start": 38.879,
      "duration": 4.291
    },
    {
      "text": "maybe it's because when you turn 50",
      "start": 40.68,
      "duration": 5.219
    },
    {
      "text": "you're much more likely to have the",
      "start": 43.17,
      "duration": 4.049
    },
    {
      "text": "majority of your life in the rear view",
      "start": 45.899,
      "duration": 4.171
    },
    {
      "text": "rather than ahead of you there is kind",
      "start": 47.219,
      "duration": 6.471
    },
    {
      "text": "of a tipping point of reflection and",
      "start": 50.07,
      "duration": 7.44
    },
    {
      "text": "it's hard to avoid thinking about your",
      "start": 53.69,
      "duration": 5.349
    },
    {
      "text": "life in the big picture you know we all",
      "start": 57.51,
      "duration": 4.139
    },
    {
      "text": "I feel like my days sometimes like like",
      "start": 59.039,
      "duration": 4.95
    },
    {
      "text": "I get shot out of a cannon I burst",
      "start": 61.649,
      "duration": 4.83
    },
    {
      "text": "through my day doing enjoyable",
      "start": 63.989,
      "duration": 5.191
    },
    {
      "text": "interesting and exciting things and then",
      "start": 66.479,
      "duration": 5.491
    },
    {
      "text": "I just basically landed my bed and so",
      "start": 69.18,
      "duration": 6.66
    },
    {
      "text": "there are times of course when the view",
      "start": 71.97,
      "duration": 5.579
    },
    {
      "text": "has to rise up you have to look at a",
      "start": 75.84,
      "duration": 3.45
    },
    {
      "text": "bigger picture of your life where you",
      "start": 77.549,
      "duration": 3.301
    },
    {
      "text": "are what you've done and where you're",
      "start": 79.29,
      "duration": 2.61
    },
    {
      "text": "going",
      "start": 80.85,
      "duration": 3.12
    },
    {
      "text": "illness does that and one of the reasons",
      "start": 81.9,
      "duration": 3.81
    },
    {
      "text": "why I probably didn't notice too much",
      "start": 83.97,
      "duration": 3.57
    },
    {
      "text": "about time passing in the past was I had",
      "start": 85.71,
      "duration": 5.369
    },
    {
      "text": "this kind of bulletproof health that",
      "start": 87.54,
      "duration": 6.48
    },
    {
      "text": "never gave me a moment's trouble I never",
      "start": 91.079,
      "duration": 4.441
    },
    {
      "text": "broke a bone I never spent a night in a",
      "start": 94.02,
      "duration": 3.72
    },
    {
      "text": "hospital I'm and then a couple years ago",
      "start": 95.52,
      "duration": 4.41
    },
    {
      "text": "I got cancer and have an ear problem now",
      "start": 97.74,
      "duration": 4.41
    },
    {
      "text": "so I think it's just kind of wear and",
      "start": 99.93,
      "duration": 5.16
    },
    {
      "text": "tear perhaps or some bad luck but there",
      "start": 102.15,
      "duration": 6.96
    },
    {
      "text": "is more thoughts about mortality than",
      "start": 105.09,
      "duration": 5.459
    },
    {
      "text": "when I was this bulletproof health-based",
      "start": 109.11,
      "duration": 3.09
    },
    {
      "text": "Terminator that was sort of moving",
      "start": 110.549,
      "duration": 4.171
    },
    {
      "text": "forward without any hiccups as far as",
      "start": 112.2,
      "duration": 8.879
    },
    {
      "text": "that went so it is an interesting time",
      "start": 114.72,
      "duration": 10.89
    },
    {
      "text": "to reflect first of all I am aware that",
      "start": 121.079,
      "duration": 8.4
    },
    {
      "text": "I am an enormous ly lucky person and",
      "start": 125.61,
      "duration": 6.48
    },
    {
      "text": "some of it is luck and some of it of",
      "start": 129.479,
      "duration": 4.321
    },
    {
      "text": "course some of the luck has been the",
      "start": 132.09,
      "duration": 2.29
    },
    {
      "text": "result",
      "start": 133.8,
      "duration": 3.4
    },
    {
      "text": "of choices that I've made I gave up a",
      "start": 134.38,
      "duration": 5.46
    },
    {
      "text": "very stable and peaceful and lucrative",
      "start": 137.2,
      "duration": 5.16
    },
    {
      "text": "career in as a software executive and",
      "start": 139.84,
      "duration": 4.89
    },
    {
      "text": "software entrepreneur about ten years",
      "start": 142.36,
      "duration": 5.37
    },
    {
      "text": "ago or eight years ago and decided to do",
      "start": 144.73,
      "duration": 5.73
    },
    {
      "text": "philosophy full-time on the web but now",
      "start": 147.73,
      "duration": 4.77
    },
    {
      "text": "I have very good abilities that way I",
      "start": 150.46,
      "duration": 4.23
    },
    {
      "text": "have very good reasoning abilities I",
      "start": 152.5,
      "duration": 3.6
    },
    {
      "text": "have very good communication abilities",
      "start": 154.69,
      "duration": 4.47
    },
    {
      "text": "so some of it I was obviously born with",
      "start": 156.1,
      "duration": 5.01
    },
    {
      "text": "which I think to that degree means that",
      "start": 159.16,
      "duration": 4.17
    },
    {
      "text": "it can be reasonably used in the service",
      "start": 161.11,
      "duration": 4.41
    },
    {
      "text": "of humanity in the future some of it is",
      "start": 163.33,
      "duration": 4.68
    },
    {
      "text": "my choices my willpower the ethics that",
      "start": 165.52,
      "duration": 7.26
    },
    {
      "text": "inform what I do and it is interesting",
      "start": 168.01,
      "duration": 7.71
    },
    {
      "text": "to me was an Objectivist for for many",
      "start": 172.78,
      "duration": 3.96
    },
    {
      "text": "years and still consider myself",
      "start": 175.72,
      "duration": 2.73
    },
    {
      "text": "metaphysically an epistemological II",
      "start": 176.74,
      "duration": 4.17
    },
    {
      "text": "mostly Objectivist but I have kind of",
      "start": 178.45,
      "duration": 6.6
    },
    {
      "text": "noticed like I was I was looking up some",
      "start": 180.91,
      "duration": 6.87
    },
    {
      "text": "Mike son a bitch posted hell some",
      "start": 185.05,
      "duration": 5.31
    },
    {
      "text": "publishers were losing money now for",
      "start": 187.78,
      "duration": 5.22
    },
    {
      "text": "many years I was working on novels and",
      "start": 190.36,
      "duration": 5.4
    },
    {
      "text": "and plays and short stories and poetry",
      "start": 193,
      "duration": 4.89
    },
    {
      "text": "and so on and found very little",
      "start": 195.76,
      "duration": 3.87
    },
    {
      "text": "receptivity of the publishing world for",
      "start": 197.89,
      "duration": 3.09
    },
    {
      "text": "reasons that I can't understand now in",
      "start": 199.63,
      "duration": 2.73
    },
    {
      "text": "hindsight but didn't really at the time",
      "start": 200.98,
      "duration": 6.96
    },
    {
      "text": "and it was sort of struck me that what I",
      "start": 202.36,
      "duration": 8.46
    },
    {
      "text": "do in this philosophy show is really in",
      "start": 207.94,
      "duration": 4.11
    },
    {
      "text": "the service of humanity and in the",
      "start": 210.82,
      "duration": 4.05
    },
    {
      "text": "service of the future and in the service",
      "start": 212.05,
      "duration": 5.81
    },
    {
      "text": "of bringing clarity to the confusing",
      "start": 214.87,
      "duration": 5.4
    },
    {
      "text": "sort of sense based mess that is fired",
      "start": 217.86,
      "duration": 3.97
    },
    {
      "text": "at a sort of everyday trying to organize",
      "start": 220.27,
      "duration": 2.82
    },
    {
      "text": "it at the principles that help people",
      "start": 221.83,
      "duration": 2.91
    },
    {
      "text": "make sense of it all and hopefully act",
      "start": 223.09,
      "duration": 5.34
    },
    {
      "text": "for the better to better the world there",
      "start": 224.74,
      "duration": 6.27
    },
    {
      "text": "was something that in my sort of art",
      "start": 228.43,
      "duration": 5.16
    },
    {
      "text": "career I went to the National Theatre",
      "start": 231.01,
      "duration": 7.86
    },
    {
      "text": "School and I studied writing at various",
      "start": 233.59,
      "duration": 7.74
    },
    {
      "text": "places and there was something about",
      "start": 238.87,
      "duration": 3.96
    },
    {
      "text": "that that was for me and there's",
      "start": 241.33,
      "duration": 2.7
    },
    {
      "text": "something about this philosophy show",
      "start": 242.83,
      "duration": 2.91
    },
    {
      "text": "that is for the world and what I find",
      "start": 244.03,
      "duration": 4.05
    },
    {
      "text": "fascinating is that all the things that",
      "start": 245.74,
      "duration": 3.9
    },
    {
      "text": "were more for me than for the world",
      "start": 248.08,
      "duration": 4.2
    },
    {
      "text": "didn't work out but now that I'm doing",
      "start": 249.64,
      "duration": 4.17
    },
    {
      "text": "something more for the world than for me",
      "start": 252.28,
      "duration": 2.64
    },
    {
      "text": "and don't get me wrong I really enjoy",
      "start": 253.81,
      "duration": 3
    },
    {
      "text": "what I'm doing but it is a different",
      "start": 254.92,
      "duration": 3.81
    },
    {
      "text": "kind of animal and it's one that's",
      "start": 256.81,
      "duration": 4.29
    },
    {
      "text": "really really flourishing you know I I",
      "start": 258.73,
      "duration": 4.71
    },
    {
      "text": "couldn't sell any books really to",
      "start": 261.1,
      "duration": 3.84
    },
    {
      "text": "publishers to save my life and now",
      "start": 263.44,
      "duration": 3.33
    },
    {
      "text": "through what I'm doing in this",
      "start": 264.94,
      "duration": 2.85
    },
    {
      "text": "conversation",
      "start": 266.77,
      "duration": 4.53
    },
    {
      "text": "I have 150,000 books download downloaded",
      "start": 267.79,
      "duration": 5.46
    },
    {
      "text": "and hopefully read or viewed every",
      "start": 271.3,
      "duration": 4.32
    },
    {
      "text": "single month every single month the",
      "start": 273.25,
      "duration": 4.95
    },
    {
      "text": "bestseller is like 5,000 this is 150,000",
      "start": 275.62,
      "duration": 4.89
    },
    {
      "text": "a month we're doing close to 15 million",
      "start": 278.2,
      "duration": 4.26
    },
    {
      "text": "views and downloads there every month",
      "start": 280.51,
      "duration": 5.1
    },
    {
      "text": "and that is an incredible opportunity I",
      "start": 282.46,
      "duration": 8.28
    },
    {
      "text": "am enormous Lee and humbly grateful to",
      "start": 285.61,
      "duration": 9.65
    },
    {
      "text": "everyone's interest and fascination and",
      "start": 290.74,
      "duration": 8.28
    },
    {
      "text": "sharing of what it is that I do in this",
      "start": 295.26,
      "duration": 5.62
    },
    {
      "text": "show it is a humbling and beautiful",
      "start": 299.02,
      "duration": 4.38
    },
    {
      "text": "experience to see how many people out",
      "start": 300.88,
      "duration": 4.5
    },
    {
      "text": "there are hungry for reason for evidence",
      "start": 303.4,
      "duration": 6.42
    },
    {
      "text": "for clarity for consistency and when you",
      "start": 305.38,
      "duration": 7.83
    },
    {
      "text": "I guess when I turn 50 tomorrow and if",
      "start": 309.82,
      "duration": 6.06
    },
    {
      "text": "you would like to send a little Prezi my",
      "start": 313.21,
      "duration": 4.14
    },
    {
      "text": "way I certainly would not object to that",
      "start": 315.88,
      "duration": 3.57
    },
    {
      "text": "M we use it for the show and I think",
      "start": 317.35,
      "duration": 2.94
    },
    {
      "text": "it'll help us grow it",
      "start": 319.45,
      "duration": 5.28
    },
    {
      "text": "freedomainradio.com / donate but when I",
      "start": 320.29,
      "duration": 7.65
    },
    {
      "text": "turn 50 tomorrow looking back at the",
      "start": 324.73,
      "duration": 5.19
    },
    {
      "text": "sort of mark that I've made on the world",
      "start": 327.94,
      "duration": 7.35
    },
    {
      "text": "is a beautiful thing it's beautiful to",
      "start": 329.92,
      "duration": 6.75
    },
    {
      "text": "see how many people rather I grew up in",
      "start": 335.29,
      "duration": 5.85
    },
    {
      "text": "a very irrational environment and I had",
      "start": 336.67,
      "duration": 6.15
    },
    {
      "text": "one or two friends who were more",
      "start": 341.14,
      "duration": 3.18
    },
    {
      "text": "rational but for the most part it was",
      "start": 342.82,
      "duration": 5.01
    },
    {
      "text": "just crazy town everywhere I looked 360",
      "start": 344.32,
      "duration": 6.5
    },
    {
      "text": "madness and seeing just how many",
      "start": 347.83,
      "duration": 5.52
    },
    {
      "text": "like-minded people or just really minded",
      "start": 350.82,
      "duration": 3.88
    },
    {
      "text": "people there are out there has been a",
      "start": 353.35,
      "duration": 3.41
    },
    {
      "text": "beautiful experience over the past",
      "start": 354.7,
      "duration": 6.42
    },
    {
      "text": "decade because when you turn 50 you",
      "start": 356.76,
      "duration": 7.71
    },
    {
      "text": "realize of course that your life is",
      "start": 361.12,
      "duration": 5.58
    },
    {
      "text": "somewhat statistically more behind you",
      "start": 364.47,
      "duration": 4.45
    },
    {
      "text": "than ahead of you and it really helps me",
      "start": 366.7,
      "duration": 6.21
    },
    {
      "text": "to focus on the need to get your sounds",
      "start": 368.92,
      "duration": 8.61
    },
    {
      "text": "out before you die get the treasure",
      "start": 372.91,
      "duration": 8.72
    },
    {
      "text": "letters in you up and out into the world",
      "start": 377.53,
      "duration": 6.72
    },
    {
      "text": "before you die you're gonna die either",
      "start": 381.63,
      "duration": 6.16
    },
    {
      "text": "way whether you speak your precious",
      "start": 384.25,
      "duration": 5.67
    },
    {
      "text": "truth to the world or you hold them to",
      "start": 387.79,
      "duration": 4.2
    },
    {
      "text": "yourself out of fear and starve the",
      "start": 389.92,
      "duration": 4.74
    },
    {
      "text": "world of reason and treasure and beauty",
      "start": 391.99,
      "duration": 5.22
    },
    {
      "text": "thereby butting get the sounds out of",
      "start": 394.66,
      "duration": 5.37
    },
    {
      "text": "you before you die death is gonna take",
      "start": 397.21,
      "duration": 4.38
    },
    {
      "text": "you whether you have spoken",
      "start": 400.03,
      "duration": 3.48
    },
    {
      "text": "or whether you are silent death is gonna",
      "start": 401.59,
      "duration": 5.37
    },
    {
      "text": "take you whether you you cry your",
      "start": 403.51,
      "duration": 5.19
    },
    {
      "text": "barbaric truths at the rooftop of the",
      "start": 406.96,
      "duration": 6.09
    },
    {
      "text": "world or you up til out under the sod of",
      "start": 408.7,
      "duration": 6.87
    },
    {
      "text": "history and your life vanishes like it",
      "start": 413.05,
      "duration": 4.74
    },
    {
      "text": "javelin dropped from a great height into",
      "start": 415.57,
      "duration": 6.98
    },
    {
      "text": "a still pond loop and you're gone and I",
      "start": 417.79,
      "duration": 7.59
    },
    {
      "text": "did I made a I made a very strong",
      "start": 422.55,
      "duration": 5.86
    },
    {
      "text": "commitment to myself and to you when I",
      "start": 425.38,
      "duration": 4.8
    },
    {
      "text": "first started this which was I was going",
      "start": 428.41,
      "duration": 5.25
    },
    {
      "text": "to be faithful to a methodology never to",
      "start": 430.18,
      "duration": 5.58
    },
    {
      "text": "a conclusion I was going to be faithful",
      "start": 433.66,
      "duration": 3.75
    },
    {
      "text": "to the facts and I was going to follow",
      "start": 435.76,
      "duration": 3.42
    },
    {
      "text": "the facts and the evidence and the",
      "start": 437.41,
      "duration": 4.14
    },
    {
      "text": "arguments were ever there led and that",
      "start": 439.18,
      "duration": 5.97
    },
    {
      "text": "has been one of the greatest gifts and",
      "start": 441.55,
      "duration": 5.94
    },
    {
      "text": "beauties of this conversation with the",
      "start": 445.15,
      "duration": 5.1
    },
    {
      "text": "world is that if you are Wed to a",
      "start": 447.49,
      "duration": 6.36
    },
    {
      "text": "conclusion then you attract people who",
      "start": 450.25,
      "duration": 5.52
    },
    {
      "text": "share the same conclusions but you",
      "start": 453.85,
      "duration": 3.63
    },
    {
      "text": "haven't reasoned your way to them and",
      "start": 455.77,
      "duration": 3.69
    },
    {
      "text": "therefore you're stuck together in your",
      "start": 457.48,
      "duration": 4.35
    },
    {
      "text": "prejudices and you're trapped there",
      "start": 459.46,
      "duration": 4.35
    },
    {
      "text": "really because if you start to change",
      "start": 461.83,
      "duration": 4.14
    },
    {
      "text": "your mind and people have been attracted",
      "start": 463.81,
      "duration": 3.6
    },
    {
      "text": "to you for your conclusions rather than",
      "start": 465.97,
      "duration": 2.64
    },
    {
      "text": "your methodology right for the",
      "start": 467.41,
      "duration": 4.53
    },
    {
      "text": "destination not the journey then they",
      "start": 468.61,
      "duration": 6.24
    },
    {
      "text": "will leave you and you may not be able",
      "start": 471.94,
      "duration": 6.15
    },
    {
      "text": "to get to a new audience but because I",
      "start": 474.85,
      "duration": 5.91
    },
    {
      "text": "made that commitment to focus on the",
      "start": 478.09,
      "duration": 6.09
    },
    {
      "text": "methodology of reason and evidence the",
      "start": 480.76,
      "duration": 6.63
    },
    {
      "text": "process rather than the conclusions I",
      "start": 484.18,
      "duration": 7.97
    },
    {
      "text": "have been able to be consistent while",
      "start": 487.39,
      "duration": 7.71
    },
    {
      "text": "changing my conclusions right I mean",
      "start": 492.15,
      "duration": 4.12
    },
    {
      "text": "when you get new information when you",
      "start": 495.1,
      "duration": 3.18
    },
    {
      "text": "get new arguments you must follow them",
      "start": 496.27,
      "duration": 4.23
    },
    {
      "text": "right I mean you you must if you want to",
      "start": 498.28,
      "duration": 5.04
    },
    {
      "text": "have any kind of integrity so making a",
      "start": 500.5,
      "duration": 5.1
    },
    {
      "text": "promise to be faithful to philosophy",
      "start": 503.32,
      "duration": 4.56
    },
    {
      "text": "rather than to conclusions has given me",
      "start": 505.6,
      "duration": 4.98
    },
    {
      "text": "the power to adapt to new information to",
      "start": 507.88,
      "duration": 4.77
    },
    {
      "text": "adapt to new situations without breaking",
      "start": 510.58,
      "duration": 4.2
    },
    {
      "text": "integrity at all I know for some people",
      "start": 512.65,
      "duration": 3.09
    },
    {
      "text": "that's been really tough you know I",
      "start": 514.78,
      "duration": 3.51
    },
    {
      "text": "think I'm flip-flopping or whatever but",
      "start": 515.74,
      "duration": 4.62
    },
    {
      "text": "I have made that commitment you cannot",
      "start": 518.29,
      "duration": 4.41
    },
    {
      "text": "be a thinker and be wedded to",
      "start": 520.36,
      "duration": 4.68
    },
    {
      "text": "conclusions you must focus on the",
      "start": 522.7,
      "duration": 3.87
    },
    {
      "text": "process you can't be a scientist and be",
      "start": 525.04,
      "duration": 3.57
    },
    {
      "text": "wedded to the outcome of a particular",
      "start": 526.57,
      "duration": 4.23
    },
    {
      "text": "hypothesis you must be wedded to the",
      "start": 528.61,
      "duration": 4.53
    },
    {
      "text": "scientific method that's the way that it",
      "start": 530.8,
      "duration": 4.289
    },
    {
      "text": "works so yeah it's been tough",
      "start": 533.14,
      "duration": 3.919
    },
    {
      "text": "tough for all of us sometimes as",
      "start": 535.089,
      "duration": 4.021
    },
    {
      "text": "information changes his arguments",
      "start": 537.059,
      "duration": 4.83
    },
    {
      "text": "changes as circumstances change but I am",
      "start": 539.11,
      "duration": 6
    },
    {
      "text": "incredibly grateful you know I mean I'm",
      "start": 541.889,
      "duration": 4.75
    },
    {
      "text": "very happy that I made the decision to",
      "start": 545.11,
      "duration": 3.3
    },
    {
      "text": "do what I'm doing but I'm most happy",
      "start": 546.639,
      "duration": 3.87
    },
    {
      "text": "that I made the decision and and early",
      "start": 548.41,
      "duration": 5.07
    },
    {
      "text": "on even before I went full time I put",
      "start": 550.509,
      "duration": 4.471
    },
    {
      "text": "out a seventeen part introduction to",
      "start": 553.48,
      "duration": 3.45
    },
    {
      "text": "philosophy series where I explained the",
      "start": 554.98,
      "duration": 3.39
    },
    {
      "text": "methodology I was going to use and",
      "start": 556.93,
      "duration": 2.79
    },
    {
      "text": "everything that was going to condition",
      "start": 558.37,
      "duration": 6.149
    },
    {
      "text": "what I produced and I'm really really",
      "start": 559.72,
      "duration": 6.779
    },
    {
      "text": "happy that I made that decision and I'm",
      "start": 564.519,
      "duration": 4.44
    },
    {
      "text": "really really thrilled and pleased and",
      "start": 566.499,
      "duration": 5.31
    },
    {
      "text": "honored that so much of the world seems",
      "start": 568.959,
      "duration": 6.841
    },
    {
      "text": "to have appreciated and accepted that",
      "start": 571.809,
      "duration": 7.47
    },
    {
      "text": "position and hopefully me changing",
      "start": 575.8,
      "duration": 4.92
    },
    {
      "text": "positions when new information comes",
      "start": 579.279,
      "duration": 4.5
    },
    {
      "text": "along has given the world some small",
      "start": 580.72,
      "duration": 4.77
    },
    {
      "text": "permission perhaps to be less dogmatic",
      "start": 583.779,
      "duration": 3.66
    },
    {
      "text": "in its own approaches and to recognize",
      "start": 585.49,
      "duration": 4.11
    },
    {
      "text": "that you can have honor integrity and",
      "start": 587.439,
      "duration": 4.231
    },
    {
      "text": "integrity if you follow reason and",
      "start": 589.6,
      "duration": 3.75
    },
    {
      "text": "evidence in fact I think it's the only",
      "start": 591.67,
      "duration": 5.269
    },
    {
      "text": "way you could have honor and integrity",
      "start": 593.35,
      "duration": 5.969
    },
    {
      "text": "so I mean as far as my personal life",
      "start": 596.939,
      "duration": 7.96
    },
    {
      "text": "goes it's um it's uh it's greater than I",
      "start": 599.319,
      "duration": 8.671
    },
    {
      "text": "could have imagined when I was younger I",
      "start": 604.899,
      "duration": 5.04
    },
    {
      "text": "grew up in a world starved of love there",
      "start": 607.99,
      "duration": 3.689
    },
    {
      "text": "was as much love in the world around me",
      "start": 609.939,
      "duration": 3.411
    },
    {
      "text": "when I was a child this there is",
      "start": 611.679,
      "duration": 7.14
    },
    {
      "text": "waterfalls in the desert and I am I mean",
      "start": 613.35,
      "duration": 6.88
    },
    {
      "text": "I I shouldn't say blessed or lucky and",
      "start": 618.819,
      "duration": 4.591
    },
    {
      "text": "so on because I have sort of argued in",
      "start": 620.23,
      "duration": 5.399
    },
    {
      "text": "the past in my book free book if you",
      "start": 623.41,
      "duration": 3.899
    },
    {
      "text": "want a freedomainradio.com slash free",
      "start": 625.629,
      "duration": 3.361
    },
    {
      "text": "real time relationships the logic of",
      "start": 627.309,
      "duration": 4.291
    },
    {
      "text": "love that love is our involuntary",
      "start": 628.99,
      "duration": 4.289
    },
    {
      "text": "response to virtue if we're virtuous so",
      "start": 631.6,
      "duration": 3.709
    },
    {
      "text": "I know that I've earned the love that I",
      "start": 633.279,
      "duration": 4.951
    },
    {
      "text": "get from from the world and thank you",
      "start": 635.309,
      "duration": 4.84
    },
    {
      "text": "everyone so much for your kind but they",
      "start": 638.23,
      "duration": 4.62
    },
    {
      "text": "wishes that are coming and I appreciated",
      "start": 640.149,
      "duration": 4.73
    },
    {
      "text": "it it moves me more than I can probably",
      "start": 642.85,
      "duration": 7.979
    },
    {
      "text": "express but in my life I have just an",
      "start": 644.879,
      "duration": 9.341
    },
    {
      "text": "incredible wife I I love beyond measure",
      "start": 650.829,
      "duration": 7.74
    },
    {
      "text": "I have a beautiful child who is the joy",
      "start": 654.22,
      "duration": 6.71
    },
    {
      "text": "of my existence and I love",
      "start": 658.569,
      "duration": 4.341
    },
    {
      "text": "laughs being a husband and being a",
      "start": 660.93,
      "duration": 5.88
    },
    {
      "text": "father and I have have good friends I",
      "start": 662.91,
      "duration": 8.22
    },
    {
      "text": "have a wonderful community of people who",
      "start": 666.81,
      "duration": 7.26
    },
    {
      "text": "I love and who I support and it goes",
      "start": 671.13,
      "duration": 4.649
    },
    {
      "text": "both ways and I've made great friends",
      "start": 674.07,
      "duration": 4.26
    },
    {
      "text": "even remotely through what I do in this",
      "start": 675.779,
      "duration": 7.771
    },
    {
      "text": "show so I do have love and it's hard to",
      "start": 678.33,
      "duration": 10.23
    },
    {
      "text": "imagine great happiness without great",
      "start": 683.55,
      "duration": 7.83
    },
    {
      "text": "love it is the soil and nutrient of my",
      "start": 688.56,
      "duration": 3.06
    },
    {
      "text": "day",
      "start": 691.38,
      "duration": 2.76
    },
    {
      "text": "it is the palace and stabilization of my",
      "start": 691.62,
      "duration": 5.13
    },
    {
      "text": "existence to know that I have earned the",
      "start": 694.14,
      "duration": 5.49
    },
    {
      "text": "love that I receive and that I am",
      "start": 696.75,
      "duration": 6.36
    },
    {
      "text": "honorable in my return of love and that",
      "start": 699.63,
      "duration": 6.72
    },
    {
      "text": "is an incredibly that's really the thing",
      "start": 703.11,
      "duration": 5.31
    },
    {
      "text": "that I'm proud of stuff and I know that",
      "start": 706.35,
      "duration": 4.53
    },
    {
      "text": "it informs what I do in this show as",
      "start": 708.42,
      "duration": 7.229
    },
    {
      "text": "well but that is a very powerful bedrock",
      "start": 710.88,
      "duration": 7.38
    },
    {
      "text": "to what it is that I do and of course",
      "start": 715.649,
      "duration": 4.38
    },
    {
      "text": "also you know if you've had brushes with",
      "start": 718.26,
      "duration": 3.81
    },
    {
      "text": "some alarming stuff you know cancer",
      "start": 720.029,
      "duration": 7.56
    },
    {
      "text": "being fairly alarming having health is",
      "start": 722.07,
      "duration": 8.37
    },
    {
      "text": "something that you I guess never really",
      "start": 727.589,
      "duration": 4.141
    },
    {
      "text": "take for granted again I'm gonna eat",
      "start": 730.44,
      "duration": 3.75
    },
    {
      "text": "well I exercise I've lost some weight",
      "start": 731.73,
      "duration": 4.77
    },
    {
      "text": "since back in the day yeah look at my",
      "start": 734.19,
      "duration": 6.33
    },
    {
      "text": "old 240p Pillsbury Doughboy videos in",
      "start": 736.5,
      "duration": 6.959
    },
    {
      "text": "the Red Room and so I take good care of",
      "start": 740.52,
      "duration": 5.1
    },
    {
      "text": "myself and make sure that I get my",
      "start": 743.459,
      "duration": 3.661
    },
    {
      "text": "relaxation and my leisure and my fun",
      "start": 745.62,
      "duration": 3.75
    },
    {
      "text": "times as well as the challenging work of",
      "start": 747.12,
      "duration": 4.469
    },
    {
      "text": "helping to sand down the irrationalities",
      "start": 749.37,
      "duration": 3.96
    },
    {
      "text": "of the world in the furnace of reason",
      "start": 751.589,
      "duration": 4.171
    },
    {
      "text": "and evidence but there is one thing I",
      "start": 753.33,
      "duration": 3.6
    },
    {
      "text": "mean there are a number of things that",
      "start": 755.76,
      "duration": 3.12
    },
    {
      "text": "are beneficial about having had a brush",
      "start": 756.93,
      "duration": 5.73
    },
    {
      "text": "with bad health which is that I tell you",
      "start": 758.88,
      "duration": 5.91
    },
    {
      "text": "this you never ever I never ever will",
      "start": 762.66,
      "duration": 4.26
    },
    {
      "text": "complain about getting older given that",
      "start": 764.79,
      "duration": 4.11
    },
    {
      "text": "that was not something that was",
      "start": 766.92,
      "duration": 3.78
    },
    {
      "text": "automatically assumed to be in the cards",
      "start": 768.9,
      "duration": 4.26
    },
    {
      "text": "some years back so there is a great",
      "start": 770.7,
      "duration": 6.03
    },
    {
      "text": "gratitude within me for every day on the",
      "start": 773.16,
      "duration": 6.869
    },
    {
      "text": "sunny side of the six foot deep",
      "start": 776.73,
      "duration": 5.22
    },
    {
      "text": "NAF that we're all eventually going to",
      "start": 780.029,
      "duration": 4.951
    },
    {
      "text": "take so that is something that I'm in",
      "start": 781.95,
      "duration": 5.85
    },
    {
      "text": "immensely relieved and happy about and",
      "start": 784.98,
      "duration": 5.31
    },
    {
      "text": "you know I think he you can of course",
      "start": 787.8,
      "duration": 4.2
    },
    {
      "text": "take a brush with ill health and turned",
      "start": 790.29,
      "duration": 3.06
    },
    {
      "text": "it into a commitment for even better",
      "start": 792,
      "duration": 2.41
    },
    {
      "text": "health and",
      "start": 793.35,
      "duration": 2.859
    },
    {
      "text": "habits and better tactics and it can",
      "start": 794.41,
      "duration": 3.539
    },
    {
      "text": "actually make you healthier then you",
      "start": 796.209,
      "duration": 3.69
    },
    {
      "text": "would have been otherwise and I of",
      "start": 797.949,
      "duration": 4.651
    },
    {
      "text": "course in taking that approach I want to",
      "start": 799.899,
      "duration": 4.38
    },
    {
      "text": "be around for my family I want to be",
      "start": 802.6,
      "duration": 3.739
    },
    {
      "text": "around for the world and I want to see",
      "start": 804.279,
      "duration": 8.55
    },
    {
      "text": "this amazing transition called hope you",
      "start": 806.339,
      "duration": 8.381
    },
    {
      "text": "know those of us who've been trying to",
      "start": 812.829,
      "duration": 3.93
    },
    {
      "text": "bring reason and evidence and critical",
      "start": 814.72,
      "duration": 4.26
    },
    {
      "text": "thinking to the world for I mean I",
      "start": 816.759,
      "duration": 5.01
    },
    {
      "text": "started in my sort of mid-teens so it's",
      "start": 818.98,
      "duration": 6.359
    },
    {
      "text": "been over three decades for me well you",
      "start": 821.769,
      "duration": 6.12
    },
    {
      "text": "know we accumulated a lot of losing a",
      "start": 825.339,
      "duration": 5.161
    },
    {
      "text": "whole lot of losing you know as the",
      "start": 827.889,
      "duration": 4.14
    },
    {
      "text": "government grew bigger as the government",
      "start": 830.5,
      "duration": 3.509
    },
    {
      "text": "grew more powerful as debt escalated as",
      "start": 832.029,
      "duration": 3.391
    },
    {
      "text": "dependence on the state grew as",
      "start": 834.009,
      "duration": 3.81
    },
    {
      "text": "education got worse it really really",
      "start": 835.42,
      "duration": 7.589
    },
    {
      "text": "looked that that we were really really",
      "start": 837.819,
      "duration": 7.2
    },
    {
      "text": "going to lose and there were there was a",
      "start": 843.009,
      "duration": 7.921
    },
    {
      "text": "time with me that I genuinely felt or or",
      "start": 845.019,
      "duration": 8.341
    },
    {
      "text": "believed or found it irrational to think",
      "start": 850.93,
      "duration": 4.019
    },
    {
      "text": "otherwise that basically what I was",
      "start": 853.36,
      "duration": 5.55
    },
    {
      "text": "doing was creating a body of thought",
      "start": 854.949,
      "duration": 7.471
    },
    {
      "text": "that would not prevent any kind of decay",
      "start": 858.91,
      "duration": 5.729
    },
    {
      "text": "or disaster in society but would be",
      "start": 862.42,
      "duration": 5.55
    },
    {
      "text": "there as a guidepost or a signpost",
      "start": 864.639,
      "duration": 6.81
    },
    {
      "text": "for the future right that that I could",
      "start": 867.97,
      "duration": 5.4
    },
    {
      "text": "not prevent the the terrible things that",
      "start": 871.449,
      "duration": 3.12
    },
    {
      "text": "were happening in society and their",
      "start": 873.37,
      "duration": 2.969
    },
    {
      "text": "escalation but I could create a body of",
      "start": 874.569,
      "duration": 3.841
    },
    {
      "text": "thought that would be used after the",
      "start": 876.339,
      "duration": 3.961
    },
    {
      "text": "dark ages to help rebuild you know like",
      "start": 878.41,
      "duration": 3.599
    },
    {
      "text": "Aristotle wrote he couldn't prevent",
      "start": 880.3,
      "duration": 3.719
    },
    {
      "text": "Plato wrote he couldn't prevent if she",
      "start": 882.009,
      "duration": 3.57
    },
    {
      "text": "may have accelerated Socrates spoke",
      "start": 884.019,
      "duration": 3.331
    },
    {
      "text": "couldn't prevent the decay of their",
      "start": 885.579,
      "duration": 5.041
    },
    {
      "text": "civilization but their writings after",
      "start": 887.35,
      "duration": 6.69
    },
    {
      "text": "the Dark Ages helped to reinforce the",
      "start": 890.62,
      "duration": 4.889
    },
    {
      "text": "mental conversations of mankind",
      "start": 894.04,
      "duration": 3.299
    },
    {
      "text": "afterwards so I thought I was creating",
      "start": 895.509,
      "duration": 3.39
    },
    {
      "text": "kind of a RHIB rosetta stone of reason",
      "start": 897.339,
      "duration": 4.05
    },
    {
      "text": "and evidence that could not prevent the",
      "start": 898.899,
      "duration": 4.321
    },
    {
      "text": "decay and the disastrous but could be",
      "start": 901.389,
      "duration": 5.401
    },
    {
      "text": "used to resurrect society after a a Dark",
      "start": 903.22,
      "duration": 10.229
    },
    {
      "text": "Age and then and then it it really began",
      "start": 906.79,
      "duration": 10.919
    },
    {
      "text": "to change it really began to change and",
      "start": 913.449,
      "duration": 9.12
    },
    {
      "text": "now I hope is there not just the thing",
      "start": 917.709,
      "duration": 8.541
    },
    {
      "text": "with feathers but hope is",
      "start": 922.569,
      "duration": 6.411
    },
    {
      "text": "I have an ambivalent relationship with",
      "start": 926.25,
      "duration": 3.06
    },
    {
      "text": "hope",
      "start": 928.98,
      "duration": 2.1
    },
    {
      "text": "I like having hope but I think having",
      "start": 929.31,
      "duration": 6.5
    },
    {
      "text": "hope in the absence of possibility is a",
      "start": 931.08,
      "duration": 6.72
    },
    {
      "text": "self-destructive mark of self-deception",
      "start": 935.81,
      "duration": 3.1
    },
    {
      "text": "and you don't want to have hope where",
      "start": 937.8,
      "duration": 2.94
    },
    {
      "text": "there's no hope but you do wonder you",
      "start": 938.91,
      "duration": 3.42
    },
    {
      "text": "don't want to deny hope but there is and",
      "start": 940.74,
      "duration": 4.849
    },
    {
      "text": "this gathering together of thinkers of",
      "start": 942.33,
      "duration": 5.04
    },
    {
      "text": "conversations that are possible through",
      "start": 945.589,
      "duration": 3.161
    },
    {
      "text": "this show through many other people's",
      "start": 947.37,
      "duration": 3.99
    },
    {
      "text": "shows the information sharing that is",
      "start": 948.75,
      "duration": 4.14
    },
    {
      "text": "going on through various social medias",
      "start": 951.36,
      "duration": 3.3
    },
    {
      "text": "through the internet as a whole through",
      "start": 952.89,
      "duration": 5.639
    },
    {
      "text": "YouTube I mean this is strengthening and",
      "start": 954.66,
      "duration": 6.78
    },
    {
      "text": "in bolting emboldening the isolated",
      "start": 958.529,
      "duration": 5.041
    },
    {
      "text": "fragments of original thinkers of",
      "start": 961.44,
      "duration": 4.38
    },
    {
      "text": "critical thinkers out there you know we",
      "start": 963.57,
      "duration": 4.56
    },
    {
      "text": "used to just be tiny stars in a night",
      "start": 965.82,
      "duration": 4.44
    },
    {
      "text": "sky of ignorance and self-deception and",
      "start": 968.13,
      "duration": 4.38
    },
    {
      "text": "self manipulation and delusion we were",
      "start": 970.26,
      "duration": 5.43
    },
    {
      "text": "these tiny tiny little stars and you",
      "start": 972.51,
      "duration": 5.79
    },
    {
      "text": "know I guess people many centuries or",
      "start": 975.69,
      "duration": 3.75
    },
    {
      "text": "millennia ago looked up at the stars",
      "start": 978.3,
      "duration": 2.789
    },
    {
      "text": "began drawing lines between them and",
      "start": 979.44,
      "duration": 3.12
    },
    {
      "text": "creating stories and the stars turned",
      "start": 981.089,
      "duration": 5.821
    },
    {
      "text": "from pointless points of light into sky",
      "start": 982.56,
      "duration": 6.93
    },
    {
      "text": "spanning stories that informed people",
      "start": 986.91,
      "duration": 4.32
    },
    {
      "text": "and it's like there are these lines",
      "start": 989.49,
      "duration": 5.19
    },
    {
      "text": "connecting we disparate stars of distant",
      "start": 991.23,
      "duration": 5.46
    },
    {
      "text": "thought and we are connecting and we are",
      "start": 994.68,
      "duration": 4.29
    },
    {
      "text": "reinforcing and we are helping and we",
      "start": 996.69,
      "duration": 3.96
    },
    {
      "text": "are supporting and we are growing",
      "start": 998.97,
      "duration": 4.23
    },
    {
      "text": "together and enough of these coalesce",
      "start": 1000.65,
      "duration": 5.07
    },
    {
      "text": "together and we get a brighter Sun than",
      "start": 1003.2,
      "duration": 4.05
    },
    {
      "text": "we have right now and that is an",
      "start": 1005.72,
      "duration": 4.2
    },
    {
      "text": "incredible experience to be part of and",
      "start": 1007.25,
      "duration": 5.75
    },
    {
      "text": "it does give me genuine hope that",
      "start": 1009.92,
      "duration": 6.09
    },
    {
      "text": "disaster can be averted we can get the",
      "start": 1013,
      "duration": 4.839
    },
    {
      "text": "information out we can get the arguments",
      "start": 1016.01,
      "duration": 4.199
    },
    {
      "text": "out we can get the facts out tribes of",
      "start": 1017.839,
      "duration": 5.131
    },
    {
      "text": "thinkers never coalesce right because in",
      "start": 1020.209,
      "duration": 4.141
    },
    {
      "text": "the past thinkers were isolated and",
      "start": 1022.97,
      "duration": 3.089
    },
    {
      "text": "ostracized and so on or attacked or",
      "start": 1024.35,
      "duration": 3.959
    },
    {
      "text": "beheaded or burnt at the stake or thrown",
      "start": 1026.059,
      "duration": 4.471
    },
    {
      "text": "in jail or whatever but now we can",
      "start": 1028.309,
      "duration": 5.161
    },
    {
      "text": "connect only connect as he enforced or",
      "start": 1030.53,
      "duration": 5.159
    },
    {
      "text": "said and through that connection we can",
      "start": 1033.47,
      "duration": 5.13
    },
    {
      "text": "create blast wide a tunnel through to",
      "start": 1035.689,
      "duration": 4.831
    },
    {
      "text": "the future and this is one of the",
      "start": 1038.6,
      "duration": 3.3
    },
    {
      "text": "reasons why the people have met through",
      "start": 1040.52,
      "duration": 2.73
    },
    {
      "text": "the show these people I do shows with",
      "start": 1041.9,
      "duration": 4.38
    },
    {
      "text": "are very close to my heart and I will do",
      "start": 1043.25,
      "duration": 5.67
    },
    {
      "text": "as much as possible to help support and",
      "start": 1046.28,
      "duration": 4.14
    },
    {
      "text": "encourage them as they help support and",
      "start": 1048.92,
      "duration": 4.67
    },
    {
      "text": "encourage me and that kind of connection",
      "start": 1050.42,
      "duration": 6.889
    },
    {
      "text": "is where I think the real possibilities",
      "start": 1053.59,
      "duration": 5.819
    },
    {
      "text": "for freedom in the future come from yes",
      "start": 1057.309,
      "duration": 3.36
    },
    {
      "text": "there will be enemies in the way yes",
      "start": 1059.409,
      "duration": 2.76
    },
    {
      "text": "there will be lies there will be attacks",
      "start": 1060.669,
      "duration": 4.62
    },
    {
      "text": "and all of that but nobody has to stand",
      "start": 1062.169,
      "duration": 4.441
    },
    {
      "text": "these alone and I would really strongly",
      "start": 1065.289,
      "duration": 3.031
    },
    {
      "text": "urge you if you think for yourself you",
      "start": 1066.61,
      "duration": 3.72
    },
    {
      "text": "find people connect with people even if",
      "start": 1068.32,
      "duration": 5.4
    },
    {
      "text": "it's just online in in person it's even",
      "start": 1070.33,
      "duration": 5.969
    },
    {
      "text": "better and if you get that kind of",
      "start": 1073.72,
      "duration": 4.319
    },
    {
      "text": "connection you can get the kind of",
      "start": 1076.299,
      "duration": 4.23
    },
    {
      "text": "strength you know we are not Islands we",
      "start": 1078.039,
      "duration": 4.321
    },
    {
      "text": "are not you know it's Aristotle said the",
      "start": 1080.529,
      "duration": 3.78
    },
    {
      "text": "only beings that can live alone or",
      "start": 1082.36,
      "duration": 4.65
    },
    {
      "text": "beasts or gods and human beings with",
      "start": 1084.309,
      "duration": 5.161
    },
    {
      "text": "social animals we need that and I'm very",
      "start": 1087.01,
      "duration": 5.58
    },
    {
      "text": "happy to have that and I love the people",
      "start": 1089.47,
      "duration": 5.25
    },
    {
      "text": "that I do the shows with I love what",
      "start": 1092.59,
      "duration": 2.73
    },
    {
      "text": "they're up to",
      "start": 1094.72,
      "duration": 2.64
    },
    {
      "text": "do we agree on everything doesn't matter",
      "start": 1095.32,
      "duration": 4.709
    },
    {
      "text": "we are there in the same direction and",
      "start": 1097.36,
      "duration": 5.37
    },
    {
      "text": "you know you can walk side by side with",
      "start": 1100.029,
      "duration": 4.171
    },
    {
      "text": "people without them having to go exactly",
      "start": 1102.73,
      "duration": 3.24
    },
    {
      "text": "into your own footsteps as long as",
      "start": 1104.2,
      "duration": 2.55
    },
    {
      "text": "you're heading in the right direction",
      "start": 1105.97,
      "duration": 2.819
    },
    {
      "text": "with the right positive energy and",
      "start": 1106.75,
      "duration": 3.559
    },
    {
      "text": "willpower and virtue",
      "start": 1108.789,
      "duration": 4.801
    },
    {
      "text": "fellow travelers are are essential in",
      "start": 1110.309,
      "duration": 4.451
    },
    {
      "text": "this kind of journey and I've really",
      "start": 1113.59,
      "duration": 2.67
    },
    {
      "text": "really learned that I mean I was it",
      "start": 1114.76,
      "duration": 2.88
    },
    {
      "text": "wasn't like I was choosing to be",
      "start": 1116.26,
      "duration": 4.08
    },
    {
      "text": "isolated in the past but there just",
      "start": 1117.64,
      "duration": 4.08
    },
    {
      "text": "didn't seem to be any particular way to",
      "start": 1120.34,
      "duration": 3.54
    },
    {
      "text": "connect with people and of course I have",
      "start": 1121.72,
      "duration": 4.199
    },
    {
      "text": "sanded down some of my rough edges with",
      "start": 1123.88,
      "duration": 3.779
    },
    {
      "text": "regards to perfectionism and idealism",
      "start": 1125.919,
      "duration": 4.291
    },
    {
      "text": "and I'm certainly willing to entertain",
      "start": 1127.659,
      "duration": 3.99
    },
    {
      "text": "fellow travelers in the same direction",
      "start": 1130.21,
      "duration": 4.02
    },
    {
      "text": "in a way that I wasn't before but before",
      "start": 1131.649,
      "duration": 5.691
    },
    {
      "text": "it really wasn't that possible anyway so",
      "start": 1134.23,
      "duration": 7.829
    },
    {
      "text": "so I have I have hope and that is",
      "start": 1137.34,
      "duration": 8.829
    },
    {
      "text": "bringing me a great joy so I didn't want",
      "start": 1142.059,
      "duration": 5.461
    },
    {
      "text": "to make this too long I just wanted to",
      "start": 1146.169,
      "duration": 3.331
    },
    {
      "text": "give you a sense of what it is like you",
      "start": 1147.52,
      "duration": 3.42
    },
    {
      "text": "know maybe you've turned 50 I know a lot",
      "start": 1149.5,
      "duration": 3.75
    },
    {
      "text": "of my listeners are older maybe turning",
      "start": 1150.94,
      "duration": 4.229
    },
    {
      "text": "50 just seems kind of income principle",
      "start": 1153.25,
      "duration": 4.88
    },
    {
      "text": "to you I get it I was there too but I",
      "start": 1155.169,
      "duration": 5.191
    },
    {
      "text": "wanted to give you a sense of what it's",
      "start": 1158.13,
      "duration": 6.51
    },
    {
      "text": "like to turn 50 what it feels like and",
      "start": 1160.36,
      "duration": 9.24
    },
    {
      "text": "try and make a life for yourself don't",
      "start": 1164.64,
      "duration": 6.49
    },
    {
      "text": "inherit to life don't accept a life",
      "start": 1169.6,
      "duration": 4.049
    },
    {
      "text": "don't be like a train on a train tracks",
      "start": 1171.13,
      "duration": 4.049
    },
    {
      "text": "laid by history just going in some",
      "start": 1173.649,
      "duration": 3.39
    },
    {
      "text": "directions that seems to be appropriate",
      "start": 1175.179,
      "duration": 3.63
    },
    {
      "text": "because that's what other people have",
      "start": 1177.039,
      "duration": 2.731
    },
    {
      "text": "done oh that's what people did before",
      "start": 1178.809,
      "duration": 2.191
    },
    {
      "text": "before you well that's what we are",
      "start": 1179.77,
      "duration": 3.3
    },
    {
      "text": "telling you is the right thing to do you",
      "start": 1181,
      "duration": 4.62
    },
    {
      "text": "know carve your own channel make your",
      "start": 1183.07,
      "duration": 3.78
    },
    {
      "text": "own train tracks and in",
      "start": 1185.62,
      "duration": 2.97
    },
    {
      "text": "Thanks if you get wings and learn to fly",
      "start": 1186.85,
      "duration": 3.72
    },
    {
      "text": "you don't have to worry about the ground",
      "start": 1188.59,
      "duration": 5.4
    },
    {
      "text": "or gravity or train tracks at all so try",
      "start": 1190.57,
      "duration": 5.97
    },
    {
      "text": "and make your life what it is that is",
      "start": 1193.99,
      "duration": 4.41
    },
    {
      "text": "going to make you the most proud and the",
      "start": 1196.54,
      "duration": 3.87
    },
    {
      "text": "most happy the most self-satisfied the",
      "start": 1198.4,
      "duration": 5.6
    },
    {
      "text": "most empowered when you get to be my age",
      "start": 1200.41,
      "duration": 9.09
    },
    {
      "text": "and hopefully way beyond because in the",
      "start": 1204,
      "duration": 7.9
    },
    {
      "text": "short run it's easier to live a life",
      "start": 1209.5,
      "duration": 7.22
    },
    {
      "text": "dictated by others but in the long run",
      "start": 1211.9,
      "duration": 7.25
    },
    {
      "text": "it's really no life at all",
      "start": 1216.72,
      "duration": 4.27
    },
    {
      "text": "stefan molyneux from freedomain radio",
      "start": 1219.15,
      "duration": 3.49
    },
    {
      "text": "thank you again so much and again if you",
      "start": 1220.99,
      "duration": 3
    },
    {
      "text": "would like to send a little something my",
      "start": 1222.64,
      "duration": 3.93
    },
    {
      "text": "way I was hugely hugely appreciated let",
      "start": 1223.99,
      "duration": 4.77
    },
    {
      "text": "me see where the love is at",
      "start": 1226.57,
      "duration": 4.65
    },
    {
      "text": "freedomainradio.com / tonight all the",
      "start": 1228.76,
      "duration": 4.8
    },
    {
      "text": "very best and thank you everyone so much",
      "start": 1231.22,
      "duration": 5.93
    },
    {
      "text": "for the greatest life",
      "start": 1233.56,
      "duration": 3.59
    },
    {
      "text": "you",
      "start": 1243.26,
      "duration": 2.06
    }
  ],
  "Errors": null,
  "TranscriptStderr": null
}