{
  "Title": "BANNED FROM YOUTUBE",
  "Id": "FIBriSfx8wo",
  "Transcript": [
    {
      "text": "hi everybody used to van molyneux from",
      "start": 0.53,
      "duration": 3.159
    },
    {
      "text": "freedomain radio i hope you're doing",
      "start": 2.73,
      "duration": 5.76
    },
    {
      "text": "well sorry for the somewhat significant",
      "start": 3.689,
      "duration": 8.16
    },
    {
      "text": "service outage at the youtube presence",
      "start": 8.49,
      "duration": 5.01
    },
    {
      "text": "of the official freedomain radio channel",
      "start": 11.849,
      "duration": 3.151
    },
    {
      "text": "which is youtube.com forward slash",
      "start": 13.5,
      "duration": 5.64
    },
    {
      "text": "freedomain radio I was actually at an",
      "start": 15,
      "duration": 5.34
    },
    {
      "text": "animal shelter with my daughter we were",
      "start": 19.14,
      "duration": 2.43
    },
    {
      "text": "dropping off some food for the animals",
      "start": 20.34,
      "duration": 3.39
    },
    {
      "text": "and playing with some kitties and when",
      "start": 21.57,
      "duration": 3.99
    },
    {
      "text": "we were going back to the car I checked",
      "start": 23.73,
      "duration": 3.66
    },
    {
      "text": "my cell phone and I got a whole bunch of",
      "start": 25.56,
      "duration": 5.129
    },
    {
      "text": "messages like hey like you that guy who",
      "start": 27.39,
      "duration": 6
    },
    {
      "text": "used to have that YouTube channel that",
      "start": 30.689,
      "duration": 5.071
    },
    {
      "text": "you were working on for say about eight",
      "start": 33.39,
      "duration": 5.4
    },
    {
      "text": "years and had 1500 plus videos of",
      "start": 35.76,
      "duration": 6.54
    },
    {
      "text": "experts interviews and and ethics and",
      "start": 38.79,
      "duration": 5.25
    },
    {
      "text": "philosophy and history and all that kind",
      "start": 42.3,
      "duration": 4.05
    },
    {
      "text": "of stuff and I was like why yes I",
      "start": 44.04,
      "duration": 4.74
    },
    {
      "text": "believe that I was that guy and they",
      "start": 46.35,
      "duration": 3.68
    },
    {
      "text": "said well you're not that guy anymore",
      "start": 48.78,
      "duration": 4.439
    },
    {
      "text": "because your YouTube channel is gone and",
      "start": 50.03,
      "duration": 6.13
    },
    {
      "text": "I was really quite surprised we've never",
      "start": 53.219,
      "duration": 4.98
    },
    {
      "text": "had in trouble with YouTube we've never",
      "start": 56.16,
      "duration": 3.96
    },
    {
      "text": "had any significant copyright problems",
      "start": 58.199,
      "duration": 4.351
    },
    {
      "text": "we were in good standing and so on but",
      "start": 60.12,
      "duration": 4.319
    },
    {
      "text": "so I was like gotta be a mistake",
      "start": 62.55,
      "duration": 4.859
    },
    {
      "text": "DNS problem whatever so I went to go and",
      "start": 64.439,
      "duration": 5.851
    },
    {
      "text": "check the YouTube channel and it said",
      "start": 67.409,
      "duration": 6.75
    },
    {
      "text": "hey you bald bastard you don't have a",
      "start": 70.29,
      "duration": 6
    },
    {
      "text": "youtube channel anymore your Gmail is",
      "start": 74.159,
      "duration": 4.35
    },
    {
      "text": "gone your Google Drive is gone your",
      "start": 76.29,
      "duration": 5.1
    },
    {
      "text": "Google+ account is gone and that's it",
      "start": 78.509,
      "duration": 4.671
    },
    {
      "text": "for you there's nothing but a smoking",
      "start": 81.39,
      "duration": 5.1
    },
    {
      "text": "pile of digital ash slowly dispersing",
      "start": 83.18,
      "duration": 6.64
    },
    {
      "text": "into the memory hole and I was a bit",
      "start": 86.49,
      "duration": 7.739
    },
    {
      "text": "surprised so I talked to Mike and we",
      "start": 89.82,
      "duration": 7.369
    },
    {
      "text": "found out that you can lose all of these",
      "start": 94.229,
      "duration": 5.341
    },
    {
      "text": "digital footprints for what just about",
      "start": 97.189,
      "duration": 4.271
    },
    {
      "text": "anything we didn't have any copyright",
      "start": 99.57,
      "duration": 3.75
    },
    {
      "text": "problems we've never violated community",
      "start": 101.46,
      "duration": 3.689
    },
    {
      "text": "standards and so on once we had a video",
      "start": 103.32,
      "duration": 3.329
    },
    {
      "text": "that was age restricted but that was",
      "start": 105.149,
      "duration": 5.58
    },
    {
      "text": "about it so we were a little surprised",
      "start": 106.649,
      "duration": 7.08
    },
    {
      "text": "at why our channel might have just",
      "start": 110.729,
      "duration": 5.551
    },
    {
      "text": "vanished now I don't know what happened",
      "start": 113.729,
      "duration": 5.371
    },
    {
      "text": "we're back up now nobody communicated",
      "start": 116.28,
      "duration": 4.08
    },
    {
      "text": "with us from Google they didn't say what",
      "start": 119.1,
      "duration": 3.42
    },
    {
      "text": "the problem is they didn't tell us what",
      "start": 120.36,
      "duration": 3.869
    },
    {
      "text": "the resolution was so though the channel",
      "start": 122.52,
      "duration": 4.76
    },
    {
      "text": "did reappear like the Cryptkeeper like",
      "start": 124.229,
      "duration": 6.721
    },
    {
      "text": "like that that hand from the grave in",
      "start": 127.28,
      "duration": 5.02
    },
    {
      "text": "the horror movie that grabs your ankle",
      "start": 130.95,
      "duration": 2.41
    },
    {
      "text": "when you try and get away",
      "start": 132.3,
      "duration": 4.02
    },
    {
      "text": "back but I have a theory I don't know",
      "start": 133.36,
      "duration": 7.5
    },
    {
      "text": "one possibility which seems plausible is",
      "start": 136.32,
      "duration": 8.23
    },
    {
      "text": "that on Friday I gave the speech of my",
      "start": 140.86,
      "duration": 6.75
    },
    {
      "text": "career in Amsterdam to over 40,000",
      "start": 144.55,
      "duration": 5.43
    },
    {
      "text": "people giant video screens and the whole",
      "start": 147.61,
      "duration": 4.17
    },
    {
      "text": "watching McCall it and we'll put a link",
      "start": 149.98,
      "duration": 5.03
    },
    {
      "text": "to that video that may have got us",
      "start": 151.78,
      "duration": 5.76
    },
    {
      "text": "eliminated we'll put a link to that",
      "start": 155.01,
      "duration": 4.15
    },
    {
      "text": "video in the low bar and on the video",
      "start": 157.54,
      "duration": 4.68
    },
    {
      "text": "here but the speech was a pretty",
      "start": 159.16,
      "duration": 6
    },
    {
      "text": "blistering fusillade against political",
      "start": 162.22,
      "duration": 5.34
    },
    {
      "text": "corruption and fiat currency and war",
      "start": 165.16,
      "duration": 5.49
    },
    {
      "text": "mongering and so on and it was seen by",
      "start": 167.56,
      "duration": 5.22
    },
    {
      "text": "tens of thousands of people and it was",
      "start": 170.65,
      "duration": 3.96
    },
    {
      "text": "uploaded to their site and our site and",
      "start": 172.78,
      "duration": 3.84
    },
    {
      "text": "has had a pretty significant effect and",
      "start": 174.61,
      "duration": 5.64
    },
    {
      "text": "that was Friday I gave the speech then",
      "start": 176.62,
      "duration": 5.339
    },
    {
      "text": "it was broadcast live and we uploaded it",
      "start": 180.25,
      "duration": 6
    },
    {
      "text": "right away Saturday I met up with a",
      "start": 181.959,
      "duration": 5.941
    },
    {
      "text": "whole bunch of freedomain radio",
      "start": 186.25,
      "duration": 5.01
    },
    {
      "text": "listeners from Europe and we ate grapes",
      "start": 187.9,
      "duration": 5.25
    },
    {
      "text": "and we had foot rubs and we talked",
      "start": 191.26,
      "duration": 3.51
    },
    {
      "text": "philosophy for about 11 hours actually",
      "start": 193.15,
      "duration": 3.87
    },
    {
      "text": "only one of those is true no wait no",
      "start": 194.77,
      "duration": 4.08
    },
    {
      "text": "there were some grapes but that was",
      "start": 197.02,
      "duration": 4.469
    },
    {
      "text": "Saturday Sunday I got up God forsaken",
      "start": 198.85,
      "duration": 5.22
    },
    {
      "text": "literally something that makes a dairy",
      "start": 201.489,
      "duration": 4.081
    },
    {
      "text": "farmer look like he's sleeping in and",
      "start": 204.07,
      "duration": 5.19
    },
    {
      "text": "flew back to Toronto and she added",
      "start": 205.57,
      "duration": 6
    },
    {
      "text": "philosophy with my seatmate for the last",
      "start": 209.26,
      "duration": 5.759
    },
    {
      "text": "couple of hours and then today this",
      "start": 211.57,
      "duration": 5.34
    },
    {
      "text": "takedown occurred really the first",
      "start": 215.019,
      "duration": 4.97
    },
    {
      "text": "business day after I gave my speech",
      "start": 216.91,
      "duration": 5.76
    },
    {
      "text": "about political corruption is that",
      "start": 219.989,
      "duration": 4.901
    },
    {
      "text": "related it seems after eight years of no",
      "start": 222.67,
      "duration": 5.19
    },
    {
      "text": "problems I give this quite incredible",
      "start": 224.89,
      "duration": 5.099
    },
    {
      "text": "speech to my largest audience ever and",
      "start": 227.86,
      "duration": 4.26
    },
    {
      "text": "Monday the first business day afterwards",
      "start": 229.989,
      "duration": 5.101
    },
    {
      "text": "the channel vanishes and Gmail and",
      "start": 232.12,
      "duration": 6.98
    },
    {
      "text": "everything vanishes without warning and",
      "start": 235.09,
      "duration": 7.89
    },
    {
      "text": "I really want to thank everyone who",
      "start": 239.1,
      "duration": 7.63
    },
    {
      "text": "stepped up and retweeted we got hundreds",
      "start": 242.98,
      "duration": 5.22
    },
    {
      "text": "and hundreds of retweets of what had",
      "start": 246.73,
      "duration": 4.319
    },
    {
      "text": "happened to the channel and we had",
      "start": 248.2,
      "duration": 4.7
    },
    {
      "text": "people who have contacts at Google who",
      "start": 251.049,
      "duration": 4.771
    },
    {
      "text": "buried them with their emails of mass",
      "start": 252.9,
      "duration": 5.769
    },
    {
      "text": "digital protesting and we had memes",
      "start": 255.82,
      "duration": 4.919
    },
    {
      "text": "created and just a massive flood of",
      "start": 258.669,
      "duration": 4.291
    },
    {
      "text": "support and encouragement and enthusiasm",
      "start": 260.739,
      "duration": 4.68
    },
    {
      "text": "for the show which I hugely appreciate",
      "start": 262.96,
      "duration": 4.05
    },
    {
      "text": "and then we were back",
      "start": 265.419,
      "duration": 5.281
    },
    {
      "text": "and by around four o'clock in the",
      "start": 267.01,
      "duration": 5.13
    },
    {
      "text": "afternoon so we're only down for a",
      "start": 270.7,
      "duration": 3.63
    },
    {
      "text": "couple of hours and I think the speed at",
      "start": 272.14,
      "duration": 4.89
    },
    {
      "text": "which we came back up says I think that",
      "start": 274.33,
      "duration": 5.28
    },
    {
      "text": "a lot of the activism that occurred",
      "start": 277.03,
      "duration": 4.23
    },
    {
      "text": "around the channel had its intended",
      "start": 279.61,
      "duration": 4.65
    },
    {
      "text": "effect so thank you I for said greatest",
      "start": 281.26,
      "duration": 5.13
    },
    {
      "text": "and best and wisest as smartest and",
      "start": 284.26,
      "duration": 4.68
    },
    {
      "text": "downright sexiest listeners that the",
      "start": 286.39,
      "duration": 3.72
    },
    {
      "text": "world has ever seen so thank you",
      "start": 288.94,
      "duration": 2.25
    },
    {
      "text": "everyone so much and I will tell you",
      "start": 290.11,
      "duration": 4.02
    },
    {
      "text": "this that if the takedown of the",
      "start": 291.19,
      "duration": 7.08
    },
    {
      "text": "freedomain radio YouTube channel was a",
      "start": 294.13,
      "duration": 7.32
    },
    {
      "text": "result of my speech in Amsterdam then I",
      "start": 298.27,
      "duration": 5.37
    },
    {
      "text": "will tell you this I know exactly which",
      "start": 301.45,
      "duration": 4.02
    },
    {
      "text": "topics I'm going to start hitting harder",
      "start": 303.64,
      "duration": 4.2
    },
    {
      "text": "in my speeches because you know if you",
      "start": 305.47,
      "duration": 5.36
    },
    {
      "text": "are an airplane with bombs they only",
      "start": 307.84,
      "duration": 5.4
    },
    {
      "text": "shoot at you when you're over the target",
      "start": 310.83,
      "duration": 5.53
    },
    {
      "text": "so as Churchill said you have enemies",
      "start": 313.24,
      "duration": 4.92
    },
    {
      "text": "good that means you have stood up for",
      "start": 316.36,
      "duration": 5.1
    },
    {
      "text": "something somewhere sometime so I know",
      "start": 318.16,
      "duration": 6
    },
    {
      "text": "which nerve to lean on further because",
      "start": 321.46,
      "duration": 4.86
    },
    {
      "text": "that may have been responsible for what",
      "start": 324.16,
      "duration": 3.57
    },
    {
      "text": "happened thank you again for the",
      "start": 326.32,
      "duration": 3.99
    },
    {
      "text": "community we're back baby and we will",
      "start": 327.73,
      "duration": 4.32
    },
    {
      "text": "continue ploughing on but with a",
      "start": 330.31,
      "duration": 4.65
    },
    {
      "text": "slightly more refined direction now back",
      "start": 332.05,
      "duration": 5.43
    },
    {
      "text": "into the storm thank you so much",
      "start": 334.96,
      "duration": 4.2
    },
    {
      "text": "everyone this is stefan molyneux from",
      "start": 337.48,
      "duration": 4.13
    },
    {
      "text": "freedomain radio",
      "start": 339.16,
      "duration": 2.45
    },
    {
      "text": "[Music]",
      "start": 343.36,
      "duration": 21.12
    }
  ],
  "Errors": null,
  "TranscriptStderr": null
}