{
  "Title": "Condemning the English Rioters! | True News",
  "Id": "FjW-lfTlr0g",
  "Transcript": [
    {
      "text": "this is part three of a philosophical",
      "start": 8.269,
      "duration": 7.091
    },
    {
      "text": "analysis of the British rioting and I",
      "start": 11.63,
      "duration": 4.989
    },
    {
      "text": "really want to thank everyone who's",
      "start": 15.36,
      "duration": 3.06
    },
    {
      "text": "posted a plethora of comments and filled",
      "start": 16.619,
      "duration": 5.311
    },
    {
      "text": "my inbox with responses and I want to",
      "start": 18.42,
      "duration": 5.43
    },
    {
      "text": "address a pretty core one that people",
      "start": 21.93,
      "duration": 3.81
    },
    {
      "text": "are making about what it is that I'm",
      "start": 23.85,
      "duration": 4.38
    },
    {
      "text": "saying where they're saying Steph how",
      "start": 25.74,
      "duration": 4.439
    },
    {
      "text": "can you say that there has diminished",
      "start": 28.23,
      "duration": 4.38
    },
    {
      "text": "moral responsibility for these poor kids",
      "start": 30.179,
      "duration": 4.081
    },
    {
      "text": "just because they come from hardscrabble",
      "start": 32.61,
      "duration": 4.8
    },
    {
      "text": "single parents welfare laced backgrounds",
      "start": 34.26,
      "duration": 6.84
    },
    {
      "text": "from get us well I think that's a fine",
      "start": 37.41,
      "duration": 6.419
    },
    {
      "text": "question to ask and it does reveal to me",
      "start": 41.1,
      "duration": 5.22
    },
    {
      "text": "the tragedy of what passes for thinking",
      "start": 43.829,
      "duration": 4.05
    },
    {
      "text": "in the world and I mean this was all",
      "start": 46.32,
      "duration": 3.39
    },
    {
      "text": "sympathy it's not your fault that you",
      "start": 47.879,
      "duration": 3.151
    },
    {
      "text": "can't reason in this way you certainly",
      "start": 49.71,
      "duration": 2.88
    },
    {
      "text": "can innately it's just being ground out",
      "start": 51.03,
      "duration": 4.47
    },
    {
      "text": "of you by State roundel state-controlled",
      "start": 52.59,
      "duration": 5.73
    },
    {
      "text": "education so let me explain what you're",
      "start": 55.5,
      "duration": 4.44
    },
    {
      "text": "missing because not one person has made",
      "start": 58.32,
      "duration": 3.12
    },
    {
      "text": "this point and it's a very obvious point",
      "start": 59.94,
      "duration": 8.91
    },
    {
      "text": "once you see it if somebody is rich and",
      "start": 61.44,
      "duration": 9.21
    },
    {
      "text": "privileged I think we can assume that",
      "start": 68.85,
      "duration": 4.32
    },
    {
      "text": "they have an easier time being a better",
      "start": 70.65,
      "duration": 4.8
    },
    {
      "text": "person I don't think that's a hugely",
      "start": 73.17,
      "duration": 3.69
    },
    {
      "text": "controversial thing to say I'm not",
      "start": 75.45,
      "duration": 2.64
    },
    {
      "text": "saying this means nobody has any free",
      "start": 76.86,
      "duration": 5.64
    },
    {
      "text": "will but there are influences and let's",
      "start": 78.09,
      "duration": 8.58
    },
    {
      "text": "look at a guy just some guy in England",
      "start": 82.5,
      "duration": 6.96
    },
    {
      "text": "picked semi randomly let's say that this",
      "start": 86.67,
      "duration": 6.809
    },
    {
      "text": "guy lived spent almost the first two",
      "start": 89.46,
      "duration": 6.119
    },
    {
      "text": "years of his life at a family home in",
      "start": 93.479,
      "duration": 3.721
    },
    {
      "text": "Paisley terrace at the Willow bright",
      "start": 95.579,
      "duration": 3.871
    },
    {
      "text": "area of look of Edinburgh his dad worked",
      "start": 97.2,
      "duration": 4.41
    },
    {
      "text": "as a tax inspector while his dad was",
      "start": 99.45,
      "duration": 3.87
    },
    {
      "text": "studying for a law degree from the",
      "start": 101.61,
      "duration": 4.11
    },
    {
      "text": "University of Edinburgh and then he",
      "start": 103.32,
      "duration": 3.96
    },
    {
      "text": "spent a couple of years in Australia",
      "start": 105.72,
      "duration": 4.59
    },
    {
      "text": "where his father was a lecturer in law",
      "start": 107.28,
      "duration": 5.49
    },
    {
      "text": "at the University of Adelaide he spent",
      "start": 110.31,
      "duration": 4.47
    },
    {
      "text": "the remainder of his childhood in Durham",
      "start": 112.77,
      "duration": 3.3
    },
    {
      "text": "England while his foot whether his",
      "start": 114.78,
      "duration": 3.75
    },
    {
      "text": "father lectured in durham university",
      "start": 116.07,
      "duration": 4.86
    },
    {
      "text": "then he went to the chorus to school in",
      "start": 118.53,
      "duration": 4.86
    },
    {
      "text": "durham and then he attended fetes",
      "start": 120.93,
      "duration": 4.41
    },
    {
      "text": "college a prestigious independent school",
      "start": 123.39,
      "duration": 4.55
    },
    {
      "text": "in edinburgh then he became a lawyer",
      "start": 125.34,
      "duration": 6.21
    },
    {
      "text": "well this is a pretty rich white",
      "start": 127.94,
      "duration": 5.09
    },
    {
      "text": "privileged",
      "start": 131.55,
      "duration": 3.4
    },
    {
      "text": "background would you say that somebody",
      "start": 133.03,
      "duration": 5.64
    },
    {
      "text": "like this had more moral responsibility",
      "start": 134.95,
      "duration": 5.31
    },
    {
      "text": "for how his life turned out or the",
      "start": 138.67,
      "duration": 3.09
    },
    {
      "text": "destruction that he reached would he",
      "start": 140.26,
      "duration": 2.97
    },
    {
      "text": "have about the same or would he have",
      "start": 141.76,
      "duration": 4.44
    },
    {
      "text": "less moral responsibility than a ghetto",
      "start": 143.23,
      "duration": 6.589
    },
    {
      "text": "kid well I think that reasonably it's",
      "start": 146.2,
      "duration": 6.03
    },
    {
      "text": "easily able to say that with opportunity",
      "start": 149.819,
      "duration": 4.631
    },
    {
      "text": "comes responsibility with a greater",
      "start": 152.23,
      "duration": 3.75
    },
    {
      "text": "privilege comes greater moral",
      "start": 154.45,
      "duration": 3.539
    },
    {
      "text": "accountability it's not one hundred",
      "start": 155.98,
      "duration": 3.9
    },
    {
      "text": "percent 20 percent but it's definitely",
      "start": 157.989,
      "duration": 9.991
    },
    {
      "text": "there this rich privileged young white",
      "start": 159.88,
      "duration": 11.73
    },
    {
      "text": "kid grew up to be Tony Blair and Tony",
      "start": 167.98,
      "duration": 5.46
    },
    {
      "text": "Blair in the first six years that he was",
      "start": 171.61,
      "duration": 3.78
    },
    {
      "text": "Prime Minister ordered British troops",
      "start": 173.44,
      "duration": 4.769
    },
    {
      "text": "into battle five times more than any",
      "start": 175.39,
      "duration": 4.67
    },
    {
      "text": "other prime minister in British history",
      "start": 178.209,
      "duration": 8.511
    },
    {
      "text": "Iraq 98 in 2003 Kosovo 1999 Sierra Leone",
      "start": 180.06,
      "duration": 12.58
    },
    {
      "text": "2000 and Afghanistan 2001 none of these",
      "start": 186.72,
      "duration": 8.2
    },
    {
      "text": "countries were threatening the United",
      "start": 192.64,
      "duration": 3.78
    },
    {
      "text": "Kingdom this is not operation sea lion",
      "start": 194.92,
      "duration": 3.9
    },
    {
      "text": "with Hitler trembling at the haunches on",
      "start": 196.42,
      "duration": 6.319
    },
    {
      "text": "the French coast these were clearly",
      "start": 198.82,
      "duration": 6.11
    },
    {
      "text": "international war crimes falling under",
      "start": 202.739,
      "duration": 5.171
    },
    {
      "text": "the worst prime which is aggression from",
      "start": 204.93,
      "duration": 4.39
    },
    {
      "text": "one country to another down provoked",
      "start": 207.91,
      "duration": 3.84
    },
    {
      "text": "invasion of another country down the",
      "start": 209.32,
      "duration": 4.35
    },
    {
      "text": "street memos seem to indicate fairly",
      "start": 211.75,
      "duration": 3.48
    },
    {
      "text": "clearly that intelligence was",
      "start": 213.67,
      "duration": 3.27
    },
    {
      "text": "manipulated in the population was lied",
      "start": 215.23,
      "duration": 6.66
    },
    {
      "text": "to in order to draw England into the",
      "start": 216.94,
      "duration": 9.57
    },
    {
      "text": "Iraqi war in particular and this has",
      "start": 221.89,
      "duration": 7.23
    },
    {
      "text": "resulted in the deaths most",
      "start": 226.51,
      "duration": 5.849
    },
    {
      "text": "conservatively of a hundred thousand or",
      "start": 229.12,
      "duration": 6.42
    },
    {
      "text": "more Iraqis the displacement of a",
      "start": 232.359,
      "duration": 6.72
    },
    {
      "text": "million or so and the shattering of the",
      "start": 235.54,
      "duration": 5.88
    },
    {
      "text": "infrastructure and the housing and the",
      "start": 239.079,
      "duration": 7.681
    },
    {
      "text": "hospitals of an entire country so it's",
      "start": 241.42,
      "duration": 7.77
    },
    {
      "text": "fine with me if you want to place the",
      "start": 246.76,
      "duration": 5.12
    },
    {
      "text": "heavy cloak of moral responsibility on",
      "start": 249.19,
      "duration": 5.46
    },
    {
      "text": "ghetto youths whose brains have been",
      "start": 251.88,
      "duration": 4.99
    },
    {
      "text": "shredded by crappy government schools",
      "start": 254.65,
      "duration": 4.22
    },
    {
      "text": "designed to squash them and keep them",
      "start": 256.87,
      "duration": 4.56
    },
    {
      "text": "into a permanent underclass it's fine",
      "start": 258.87,
      "duration": 4.9
    },
    {
      "text": "with me if you want to say that people",
      "start": 261.43,
      "duration": 4.41
    },
    {
      "text": "who've never been exposed to a work",
      "start": 263.77,
      "duration": 3.04
    },
    {
      "text": "ethic that p",
      "start": 265.84,
      "duration": 3.16
    },
    {
      "text": "who've never been exposed to any role",
      "start": 266.81,
      "duration": 3.75
    },
    {
      "text": "models the people who've grown up in",
      "start": 269,
      "duration": 3.21
    },
    {
      "text": "poverty in single parenthood in a",
      "start": 270.56,
      "duration": 4.26
    },
    {
      "text": "culture that avoids work and has been",
      "start": 272.21,
      "duration": 4.29
    },
    {
      "text": "trapped in the welfare system it's fine",
      "start": 274.82,
      "duration": 3.87
    },
    {
      "text": "with me if you want to say that these",
      "start": 276.5,
      "duration": 4.35
    },
    {
      "text": "people are one hundred percent morally",
      "start": 278.69,
      "duration": 4.17
    },
    {
      "text": "responsible for what they do but what",
      "start": 280.85,
      "duration": 4.44
    },
    {
      "text": "level of moral responsibility falls upon",
      "start": 282.86,
      "duration": 7.41
    },
    {
      "text": "some rich kid like Tony Blair who starts",
      "start": 285.29,
      "duration": 8.849
    },
    {
      "text": "wars against international law and who",
      "start": 290.27,
      "duration": 6.81
    },
    {
      "text": "is a war criminal by any objective",
      "start": 294.139,
      "duration": 5.791
    },
    {
      "text": "standard what is his level of moral",
      "start": 297.08,
      "duration": 8.55
    },
    {
      "text": "responsibility Tony Blair now makes",
      "start": 299.93,
      "duration": 8.06
    },
    {
      "text": "about 7 million pounds a year and",
      "start": 305.63,
      "duration": 5.13
    },
    {
      "text": "commands about 250,000 pounds for",
      "start": 307.99,
      "duration": 4.87
    },
    {
      "text": "speaking engagement and still builds out",
      "start": 310.76,
      "duration": 3.51
    },
    {
      "text": "his private security force to the",
      "start": 312.86,
      "duration": 3.9
    },
    {
      "text": "taxpayer hundreds of thousands of pounds",
      "start": 314.27,
      "duration": 4.91
    },
    {
      "text": "a year has an estimated net worth of 60",
      "start": 316.76,
      "duration": 7.29
    },
    {
      "text": "million pounds and works for a variety",
      "start": 319.18,
      "duration": 6.61
    },
    {
      "text": "of financial companies and is there",
      "start": 324.05,
      "duration": 3.42
    },
    {
      "text": "lecturer at universities and has book",
      "start": 325.79,
      "duration": 4.91
    },
    {
      "text": "deals what is his level of moral",
      "start": 327.47,
      "duration": 6.48
    },
    {
      "text": "responsibility well do you think that",
      "start": 330.7,
      "duration": 6.19
    },
    {
      "text": "nobody sees this in society do you think",
      "start": 333.95,
      "duration": 4.26
    },
    {
      "text": "the children are not aware of this do",
      "start": 336.89,
      "duration": 2.49
    },
    {
      "text": "you think the youths are not completely",
      "start": 338.21,
      "duration": 4.459
    },
    {
      "text": "aware of the rank moral hypocrisy",
      "start": 339.38,
      "duration": 13.4
    },
    {
      "text": "involved in this kind of stuff the cost",
      "start": 342.669,
      "duration": 12.911
    },
    {
      "text": "of the bailouts of the British banks",
      "start": 352.78,
      "duration": 3.79
    },
    {
      "text": "let's talk about that for a moment",
      "start": 355.58,
      "duration": 4.98
    },
    {
      "text": "because we're all about holding people",
      "start": 356.57,
      "duration": 6.96
    },
    {
      "text": "accountable for theft and destruction of",
      "start": 360.56,
      "duration": 7.95
    },
    {
      "text": "property well 850 billion pounds eight",
      "start": 363.53,
      "duration": 9.359
    },
    {
      "text": "hundred and fifty billion pounds that is",
      "start": 368.51,
      "duration": 6.99
    },
    {
      "text": "an extraordinary amount of money that is",
      "start": 372.889,
      "duration": 3.811
    },
    {
      "text": "what went to the bank so let's take a",
      "start": 375.5,
      "duration": 8.4
    },
    {
      "text": "quick look shall we now the raising of",
      "start": 376.7,
      "duration": 11.13
    },
    {
      "text": "tuition fees for British youth will cost",
      "start": 383.9,
      "duration": 5.43
    },
    {
      "text": "the British government about 18 billion",
      "start": 387.83,
      "duration": 6.23
    },
    {
      "text": "what 850 billion to bail out banks and",
      "start": 389.33,
      "duration": 7.44
    },
    {
      "text": "to keep the bonuses and executive",
      "start": 394.06,
      "duration": 5.13
    },
    {
      "text": "salaries of people",
      "start": 396.77,
      "duration": 4.31
    },
    {
      "text": "who ripped off other people largely or",
      "start": 399.19,
      "duration": 4.08
    },
    {
      "text": "made extensive miscalculations which",
      "start": 401.08,
      "duration": 5.04
    },
    {
      "text": "they alone should be responsible for 18",
      "start": 403.27,
      "duration": 4.17
    },
    {
      "text": "billion dollars have been taken from the",
      "start": 406.12,
      "duration": 4.02
    },
    {
      "text": "youth and these are just loans which the",
      "start": 407.44,
      "duration": 4.53
    },
    {
      "text": "youth are obligated to repay it's true",
      "start": 410.14,
      "duration": 3.03
    },
    {
      "text": "that some of the banks may have to repay",
      "start": 411.97,
      "duration": 2.46
    },
    {
      "text": "some of these loans but those are banks",
      "start": 413.17,
      "duration": 3.12
    },
    {
      "text": "in general way down the road not the",
      "start": 414.43,
      "duration": 4.32
    },
    {
      "text": "executives making bonuses right now they",
      "start": 416.29,
      "duration": 3.95
    },
    {
      "text": "get to walk away with all that money",
      "start": 418.75,
      "duration": 3.5
    },
    {
      "text": "there's eight hundred and fifty billion",
      "start": 420.24,
      "duration": 6.45
    },
    {
      "text": "pounds it's going to take decades if not",
      "start": 422.25,
      "duration": 7.21
    },
    {
      "text": "generations to pay off when this was",
      "start": 426.69,
      "duration": 5.38
    },
    {
      "text": "passed like that with no consultation",
      "start": 429.46,
      "duration": 5.46
    },
    {
      "text": "from the youth who will actually have to",
      "start": 432.07,
      "duration": 4.44
    },
    {
      "text": "pay and the government is going to need",
      "start": 434.92,
      "duration": 2.76
    },
    {
      "text": "people with some pretty damn high",
      "start": 436.51,
      "duration": 3.54
    },
    {
      "text": "earnings to be able to pay off the",
      "start": 437.68,
      "duration": 4.05
    },
    {
      "text": "amount of debt that it's forcing down",
      "start": 440.05,
      "duration": 3.33
    },
    {
      "text": "the young people's throats and yet it's",
      "start": 441.73,
      "duration": 3.21
    },
    {
      "text": "not going to loan them any money to go",
      "start": 443.38,
      "duration": 4.44
    },
    {
      "text": "to school to improve their skills or if",
      "start": 444.94,
      "duration": 4.05
    },
    {
      "text": "it is going to loan it to them it's",
      "start": 447.82,
      "duration": 2.49
    },
    {
      "text": "going to learn them to extremely high",
      "start": 448.99,
      "duration": 3.33
    },
    {
      "text": "rate and tuition fees are going up",
      "start": 450.31,
      "duration": 5.19
    },
    {
      "text": "enormously and the whole system itself",
      "start": 452.32,
      "duration": 6.24
    },
    {
      "text": "the whole system itself statism as a",
      "start": 455.5,
      "duration": 4.89
    },
    {
      "text": "whole is the initiation of force to",
      "start": 458.56,
      "duration": 5.7
    },
    {
      "text": "achieve your goals if you want the poor",
      "start": 460.39,
      "duration": 5.67
    },
    {
      "text": "people to get money well what you do is",
      "start": 464.26,
      "duration": 3.51
    },
    {
      "text": "you go and raise taxes on the productive",
      "start": 466.06,
      "duration": 3.66
    },
    {
      "text": "you take from the productive and you",
      "start": 467.77,
      "duration": 3.39
    },
    {
      "text": "give to the impoverished that's the idea",
      "start": 469.72,
      "duration": 3.66
    },
    {
      "text": "behind the welfare state can we really",
      "start": 471.16,
      "duration": 3.42
    },
    {
      "text": "blame the kids for eliminating the",
      "start": 473.38,
      "duration": 3.84
    },
    {
      "text": "middleman and simply taken stuff from",
      "start": 474.58,
      "duration": 5.46
    },
    {
      "text": "the productive themselves the shops and",
      "start": 477.22,
      "duration": 5.449
    },
    {
      "text": "the restaurants and the local businesses",
      "start": 480.04,
      "duration": 5.879
    },
    {
      "text": "it's hard to see why it's okay for a tax",
      "start": 482.669,
      "duration": 4.931
    },
    {
      "text": "collector but it's wrong for a youth is",
      "start": 485.919,
      "duration": 2.821
    },
    {
      "text": "surely more efficient with the youth",
      "start": 487.6,
      "duration": 4.56
    },
    {
      "text": "much less overhead so I just wanted to",
      "start": 488.74,
      "duration": 6.75
    },
    {
      "text": "sort of point these things out I do not",
      "start": 492.16,
      "duration": 5.97
    },
    {
      "text": "condone violence I do not condone the",
      "start": 495.49,
      "duration": 5.04
    },
    {
      "text": "initiation of force it is wrong it is",
      "start": 498.13,
      "duration": 4.2
    },
    {
      "text": "wrong what these rioters are doing",
      "start": 500.53,
      "duration": 3.57
    },
    {
      "text": "they're playing directly into the hands",
      "start": 502.33,
      "duration": 4.08
    },
    {
      "text": "of the ruling powers because now they're",
      "start": 504.1,
      "duration": 4.47
    },
    {
      "text": "everybody in the majority inning that",
      "start": 506.41,
      "duration": 3.36
    },
    {
      "text": "are going to beg for an expansion of",
      "start": 508.57,
      "duration": 2.88
    },
    {
      "text": "state power so I mean they're just",
      "start": 509.77,
      "duration": 2.73
    },
    {
      "text": "shooting themselves in the foot even",
      "start": 511.45,
      "duration": 3.24
    },
    {
      "text": "more then they have been shot in the",
      "start": 512.5,
      "duration": 3.93
    },
    {
      "text": "other foot let me take that gun I still",
      "start": 514.69,
      "duration": 8.39
    },
    {
      "text": "gotta tell here but the reality is that",
      "start": 516.43,
      "duration": 10.909
    },
    {
      "text": "the youth are listening the youth are",
      "start": 523.08,
      "duration": 6.199
    },
    {
      "text": "listening",
      "start": 527.339,
      "duration": 3.86
    },
    {
      "text": "they don't listen to what their elders",
      "start": 529.279,
      "duration": 3.631
    },
    {
      "text": "say they listen to what actually occurs",
      "start": 531.199,
      "duration": 2.88
    },
    {
      "text": "in the world they listen to what",
      "start": 532.91,
      "duration": 6.029
    },
    {
      "text": "actually occurs to rich white people who",
      "start": 534.079,
      "duration": 7.86
    },
    {
      "text": "cheat and lie and miscalculate and get",
      "start": 538.939,
      "duration": 6.541
    },
    {
      "text": "massively rewarded they look at what",
      "start": 541.939,
      "duration": 5.46
    },
    {
      "text": "happens to people who start wars in",
      "start": 545.48,
      "duration": 4.2
    },
    {
      "text": "foreign countries for no reason of",
      "start": 547.399,
      "duration": 5.24
    },
    {
      "text": "self-defense and lie to the population",
      "start": 549.68,
      "duration": 8.339
    },
    {
      "text": "they get awards rewards teaching",
      "start": 552.639,
      "duration": 8.8
    },
    {
      "text": "positions executive positions at banking",
      "start": 558.019,
      "duration": 7.831
    },
    {
      "text": "and financial institutions they get all",
      "start": 561.439,
      "duration": 8.15
    },
    {
      "text": "the goodies that society can provide",
      "start": 565.85,
      "duration": 8.159
    },
    {
      "text": "they look at how important they feel to",
      "start": 569.589,
      "duration": 7.091
    },
    {
      "text": "those in power when they see the",
      "start": 574.009,
      "duration": 5.7
    },
    {
      "text": "government passing off their future in a",
      "start": 576.68,
      "duration": 5.639
    },
    {
      "text": "nice little slave crate to the banking",
      "start": 579.709,
      "duration": 8.63
    },
    {
      "text": "institutions and then shaft them for",
      "start": 582.319,
      "duration": 14.46
    },
    {
      "text": "tuition fees you understand the gravest",
      "start": 588.339,
      "duration": 13
    },
    {
      "text": "danger for any society is not that the",
      "start": 596.779,
      "duration": 6.75
    },
    {
      "text": "young do not listen to the moral",
      "start": 601.339,
      "duration": 6.06
    },
    {
      "text": "instruction they are receiving but that",
      "start": 603.529,
      "duration": 6.081
    },
    {
      "text": "they do",
      "start": 607.399,
      "duration": 2.211
    },
    {
      "text": "you",
      "start": 616.93,
      "duration": 2.06
    }
  ],
  "Errors": null,
  "TranscriptStderr": null
}