{
  "Title": "The Rise of Crony Capitalism and Corporate Welfare",
  "Id": "G45UboC2iVk",
  "Transcript": [
    {
      "text": "hi everybody Savannah molyneux from",
      "start": 0,
      "duration": 2.22
    },
    {
      "text": "freedomain radio hope you're doing well",
      "start": 1.17,
      "duration": 4.35
    },
    {
      "text": "yes today we are going to take aim at",
      "start": 2.22,
      "duration": 6.03
    },
    {
      "text": "the giant monoliths of economic",
      "start": 5.52,
      "duration": 5.369
    },
    {
      "text": "soul-sucking currently resting",
      "start": 8.25,
      "duration": 4.41
    },
    {
      "text": "themselves and nestling themselves like",
      "start": 10.889,
      "duration": 3.301
    },
    {
      "text": "vampires over the cribs of the next",
      "start": 12.66,
      "duration": 3.3
    },
    {
      "text": "generation yes I'm talking to you",
      "start": 14.19,
      "duration": 3.45
    },
    {
      "text": "corporate America and a little bit of",
      "start": 15.96,
      "duration": 4.649
    },
    {
      "text": "the corporate UK reality so corporate",
      "start": 17.64,
      "duration": 4.649
    },
    {
      "text": "welfare and what's called crony",
      "start": 20.609,
      "duration": 3.691
    },
    {
      "text": "capitalism we'll call it crap but listen",
      "start": 22.289,
      "duration": 5.761
    },
    {
      "text": "for short is a whole bunch of god-awful",
      "start": 24.3,
      "duration": 5.729
    },
    {
      "text": "methodologies that giant corporations",
      "start": 28.05,
      "duration": 4.439
    },
    {
      "text": "use in order to gain the power of the",
      "start": 30.029,
      "duration": 4.141
    },
    {
      "text": "state for their own economic advantage",
      "start": 32.489,
      "duration": 3.961
    },
    {
      "text": "at your expense yes",
      "start": 34.17,
      "duration": 4.92
    },
    {
      "text": "so they win you lose so there are of",
      "start": 36.45,
      "duration": 3.84
    },
    {
      "text": "course many forms of corporate welfare",
      "start": 39.09,
      "duration": 4.14
    },
    {
      "text": "there are direct subsidies here's some",
      "start": 40.29,
      "duration": 6.12
    },
    {
      "text": "cash loan guarantees I'm good",
      "start": 43.23,
      "duration": 4.8
    },
    {
      "text": "I'll back you up on that loan that you",
      "start": 46.41,
      "duration": 3.27
    },
    {
      "text": "don't quite have the money to make",
      "start": 48.03,
      "duration": 4.5
    },
    {
      "text": "technical assistance programs there are",
      "start": 49.68,
      "duration": 4.74
    },
    {
      "text": "really narrow tax credits that benefit",
      "start": 52.53,
      "duration": 4.11
    },
    {
      "text": "certain industries there are favorable",
      "start": 54.42,
      "duration": 4.52
    },
    {
      "text": "regulations and trade barriers and",
      "start": 56.64,
      "duration": 4.98
    },
    {
      "text": "congressional and presidential earmarks",
      "start": 58.94,
      "duration": 5.469
    },
    {
      "text": "that help reward their political friends",
      "start": 61.62,
      "duration": 6.539
    },
    {
      "text": "now I know it's real easy to pick on the",
      "start": 64.409,
      "duration": 5.791
    },
    {
      "text": "corporations and we're gonna do it but I",
      "start": 68.159,
      "duration": 3.801
    },
    {
      "text": "do want to say that something up front",
      "start": 70.2,
      "duration": 4.5
    },
    {
      "text": "which is that if you are running a",
      "start": 71.96,
      "duration": 5.32
    },
    {
      "text": "corporation this is a big part of your",
      "start": 74.7,
      "duration": 4.2
    },
    {
      "text": "job something called fiduciary",
      "start": 77.28,
      "duration": 3.78
    },
    {
      "text": "responsibility is kind of like a legal",
      "start": 78.9,
      "duration": 4.05
    },
    {
      "text": "thing you have to do so if the",
      "start": 81.06,
      "duration": 3.48
    },
    {
      "text": "government offers you a big benefit or",
      "start": 82.95,
      "duration": 3.48
    },
    {
      "text": "if by lobbying the government you can",
      "start": 84.54,
      "duration": 4.2
    },
    {
      "text": "gain a big benefit and you don't do it",
      "start": 86.43,
      "duration": 4.29
    },
    {
      "text": "you actually might end up in pretty hot",
      "start": 88.74,
      "duration": 4.169
    },
    {
      "text": "water you you have to do that which is",
      "start": 90.72,
      "duration": 3.48
    },
    {
      "text": "going to benefit the shareholders that",
      "start": 92.909,
      "duration": 2.46
    },
    {
      "text": "which is going to benefit the bottom",
      "start": 94.2,
      "duration": 3.48
    },
    {
      "text": "line and if this is the way the game is",
      "start": 95.369,
      "duration": 6.301
    },
    {
      "text": "played then you have to do it so think",
      "start": 97.68,
      "duration": 6.29
    },
    {
      "text": "of think of it like this so hitting have",
      "start": 101.67,
      "duration": 6.089
    },
    {
      "text": "not allowed in bicycle races it is",
      "start": 103.97,
      "duration": 5.95
    },
    {
      "text": "allowed in boxing so I'll be really",
      "start": 107.759,
      "duration": 6.171
    },
    {
      "text": "surprised that boxers hit each other and",
      "start": 109.92,
      "duration": 6.9
    },
    {
      "text": "bicycle racers don't well-known because",
      "start": 113.93,
      "duration": 5.35
    },
    {
      "text": "no point lecturing boxers and saying hey",
      "start": 116.82,
      "duration": 4.56
    },
    {
      "text": "man that's so violent you should take",
      "start": 119.28,
      "duration": 4.53
    },
    {
      "text": "drugs rather than just hit people well",
      "start": 121.38,
      "duration": 4.08
    },
    {
      "text": "what's the point of lecturing boxers are",
      "start": 123.81,
      "duration": 2.879
    },
    {
      "text": "about hitting people when that's how the",
      "start": 125.46,
      "duration": 3.45
    },
    {
      "text": "game is played and that's how they make",
      "start": 126.689,
      "duration": 3.841
    },
    {
      "text": "their money if you want boxers to stop",
      "start": 128.91,
      "duration": 4.11
    },
    {
      "text": "hitting boxers then you should change",
      "start": 130.53,
      "duration": 3.21
    },
    {
      "text": "the rules of",
      "start": 133.02,
      "duration": 2.1
    },
    {
      "text": "since oh I just really wanted to point",
      "start": 133.74,
      "duration": 2.25
    },
    {
      "text": "it out doesn't mean that the",
      "start": 135.12,
      "duration": 2.31
    },
    {
      "text": "corporations have no moral",
      "start": 135.99,
      "duration": 3.75
    },
    {
      "text": "responsibility but it's the old hate the",
      "start": 137.43,
      "duration": 5.91
    },
    {
      "text": "game don't hate the player now of course",
      "start": 139.74,
      "duration": 5.85
    },
    {
      "text": "big corporations are the media as well",
      "start": 143.34,
      "duration": 4.62
    },
    {
      "text": "and Hollywood and so on all rely on a",
      "start": 145.59,
      "duration": 4.11
    },
    {
      "text": "lot of government favors and tax breaks",
      "start": 147.96,
      "duration": 3.09
    },
    {
      "text": "and good relationship with government",
      "start": 149.7,
      "duration": 3.57
    },
    {
      "text": "government protected unions so who the",
      "start": 151.05,
      "duration": 4.41
    },
    {
      "text": "hell actually speaks for the free market",
      "start": 153.27,
      "duration": 5.13
    },
    {
      "text": "me you and everyone who's ever been on",
      "start": 155.46,
      "duration": 4.29
    },
    {
      "text": "the show for the most part",
      "start": 158.4,
      "duration": 2.88
    },
    {
      "text": "very few people are actually speaking",
      "start": 159.75,
      "duration": 3.27
    },
    {
      "text": "for the free market you know the poor",
      "start": 161.28,
      "duration": 4.17
    },
    {
      "text": "often dependent on government power the",
      "start": 163.02,
      "duration": 4.2
    },
    {
      "text": "rich use government power for their own",
      "start": 165.45,
      "duration": 3.42
    },
    {
      "text": "advantage at your expense and the",
      "start": 167.22,
      "duration": 3.87
    },
    {
      "text": "expense of your children who's speaking",
      "start": 168.87,
      "duration": 5.22
    },
    {
      "text": "for the free market it's really hard to",
      "start": 171.09,
      "duration": 5.25
    },
    {
      "text": "know most people who are out there being",
      "start": 174.09,
      "duration": 5.34
    },
    {
      "text": "entrepreneurs are kind of busy and so",
      "start": 176.34,
      "duration": 7.02
    },
    {
      "text": "don't have all of that time now every",
      "start": 179.43,
      "duration": 5.94
    },
    {
      "text": "dollar that the government spends for",
      "start": 183.36,
      "duration": 5.22
    },
    {
      "text": "the benefit of some well-heeled deep",
      "start": 185.37,
      "duration": 4.95
    },
    {
      "text": "pocketed well-connected interest group",
      "start": 188.58,
      "duration": 4.38
    },
    {
      "text": "well that's a dollar that is no longer",
      "start": 190.32,
      "duration": 5.1
    },
    {
      "text": "available to you to your family to your",
      "start": 192.96,
      "duration": 6.63
    },
    {
      "text": "business to spend and invest as you see",
      "start": 195.42,
      "duration": 5.76
    },
    {
      "text": "fit you can't be left with your own",
      "start": 199.59,
      "duration": 3.9
    },
    {
      "text": "money because you might spend it on",
      "start": 201.18,
      "duration": 4.92
    },
    {
      "text": "something you want including charity so",
      "start": 203.49,
      "duration": 4.17
    },
    {
      "text": "we can't have that the government's got",
      "start": 206.1,
      "duration": 3.27
    },
    {
      "text": "to take it away give it to corporations",
      "start": 207.66,
      "duration": 5.1
    },
    {
      "text": "because well that's just how it works is",
      "start": 209.37,
      "duration": 5.46
    },
    {
      "text": "how this horrible system works of course",
      "start": 212.76,
      "duration": 4.08
    },
    {
      "text": "a corporate welfare spending is really",
      "start": 214.83,
      "duration": 3.9
    },
    {
      "text": "really vile of course the government is",
      "start": 216.84,
      "duration": 3.96
    },
    {
      "text": "spending resources that don't even exist",
      "start": 218.73,
      "duration": 3.78
    },
    {
      "text": "they're borrowing from the future",
      "start": 220.8,
      "duration": 3.68
    },
    {
      "text": "pillaging the next generation of",
      "start": 222.51,
      "duration": 5.16
    },
    {
      "text": "Americans so you know one person holds",
      "start": 224.48,
      "duration": 4.54
    },
    {
      "text": "you down while the other drains your",
      "start": 227.67,
      "duration": 3.63
    },
    {
      "text": "blood when you're a baby one person",
      "start": 229.02,
      "duration": 3.42
    },
    {
      "text": "would be the government the other would",
      "start": 231.3,
      "duration": 3.33
    },
    {
      "text": "be the corporation's so let's dive into",
      "start": 232.44,
      "duration": 4.65
    },
    {
      "text": "a few details according to oil change",
      "start": 234.63,
      "duration": 5.66
    },
    {
      "text": "international the US government spends",
      "start": 237.09,
      "duration": 5.1
    },
    {
      "text": "somewhere between and it's kind of",
      "start": 240.29,
      "duration": 3.34
    },
    {
      "text": "chilly they don't have this narrow debt",
      "start": 242.19,
      "duration": 3.48
    },
    {
      "text": "anymore somewhere between 10 billion and",
      "start": 243.63,
      "duration": 3.66
    },
    {
      "text": "fifty two billion dollars a year on",
      "start": 245.67,
      "duration": 4.86
    },
    {
      "text": "corporate welfare for that's right the",
      "start": 247.29,
      "duration": 7.2
    },
    {
      "text": "fossil fuel industry and that is of",
      "start": 250.53,
      "duration": 5.4
    },
    {
      "text": "course one of the wealthiest industries",
      "start": 254.49,
      "duration": 5.64
    },
    {
      "text": "on the in the entire world they",
      "start": 255.93,
      "duration": 5.82
    },
    {
      "text": "estimated the total combined subsidies",
      "start": 260.13,
      "duration": 4.32
    },
    {
      "text": "to Big Oil approached thirty seven point",
      "start": 261.75,
      "duration": 5.46
    },
    {
      "text": "five billion dollars in 2014",
      "start": 264.45,
      "duration": 4.74
    },
    {
      "text": "that's about 21 billion on production",
      "start": 267.21,
      "duration": 5.76
    },
    {
      "text": "and exploration subsidies I actually may",
      "start": 269.19,
      "duration": 5.129
    },
    {
      "text": "have benefited from these way back in",
      "start": 272.97,
      "duration": 2.49
    },
    {
      "text": "the day after high school I didn't have",
      "start": 274.319,
      "duration": 3.151
    },
    {
      "text": "any money to go to college so I ended up",
      "start": 275.46,
      "duration": 4.41
    },
    {
      "text": "gold panning and prospecting and in",
      "start": 277.47,
      "duration": 4.05
    },
    {
      "text": "hindsight the company that did that",
      "start": 279.87,
      "duration": 3.54
    },
    {
      "text": "might have done it partly because of tax",
      "start": 281.52,
      "duration": 4.5
    },
    {
      "text": "breaks so obviously I'm completely in",
      "start": 283.41,
      "duration": 4.17
    },
    {
      "text": "favor of them now and that's the end of",
      "start": 286.02,
      "duration": 3.72
    },
    {
      "text": "the presentation well important to be",
      "start": 287.58,
      "duration": 5.64
    },
    {
      "text": "honest u.s. uncut has previously",
      "start": 289.74,
      "duration": 7.22
    },
    {
      "text": "reported about the lovely life saving",
      "start": 293.22,
      "duration": 6.87
    },
    {
      "text": "child eating pharmaceutical industry now",
      "start": 296.96,
      "duration": 5.549
    },
    {
      "text": "the pharmaceutical industry costs",
      "start": 300.09,
      "duration": 6.24
    },
    {
      "text": "taxpayers a little over a quarter of a",
      "start": 302.509,
      "duration": 5.081
    },
    {
      "text": "trillion dollars a year two hundred and",
      "start": 306.33,
      "duration": 3.69
    },
    {
      "text": "seventy billion dollars a year now this",
      "start": 307.59,
      "duration": 4.71
    },
    {
      "text": "is costs paid for life-saving drugs that",
      "start": 310.02,
      "duration": 4.23
    },
    {
      "text": "the patents have been brought up by big",
      "start": 312.3,
      "duration": 4.56
    },
    {
      "text": "pharma now that's a lot of money this is",
      "start": 314.25,
      "duration": 4.38
    },
    {
      "text": "almost two thousand dollars a household",
      "start": 316.86,
      "duration": 3.239
    },
    {
      "text": "in corporate welfare",
      "start": 318.63,
      "duration": 3.569
    },
    {
      "text": "now these high costs are partly due to",
      "start": 320.099,
      "duration": 4.681
    },
    {
      "text": "the fact that the Medicare Part D for",
      "start": 322.199,
      "duration": 4.771
    },
    {
      "text": "destruction bill that george w bush",
      "start": 324.78,
      "duration": 4.919
    },
    {
      "text": "signed into law in 2003 prevents",
      "start": 326.97,
      "duration": 5.16
    },
    {
      "text": "Medicare from negotiating drug prices",
      "start": 329.699,
      "duration": 4.171
    },
    {
      "text": "with pharmaceutical companies medicare",
      "start": 332.13,
      "duration": 3.87
    },
    {
      "text": "buys a lot of drugs when you buy a lot",
      "start": 333.87,
      "duration": 3.24
    },
    {
      "text": "of stuff you have good negotiating",
      "start": 336,
      "duration": 3.57
    },
    {
      "text": "leverage not allowed to do it because",
      "start": 337.11,
      "duration": 6.45
    },
    {
      "text": "government and capitalism and the",
      "start": 339.57,
      "duration": 5.79
    },
    {
      "text": "biggest drug companies you know they're",
      "start": 343.56,
      "duration": 4.349
    },
    {
      "text": "not doing too badly between 2003 and",
      "start": 345.36,
      "duration": 5.67
    },
    {
      "text": "2012 the big biggest drug drug companies",
      "start": 347.909,
      "duration": 4.141
    },
    {
      "text": "made over seven hundred and eleven",
      "start": 351.03,
      "duration": 3.93
    },
    {
      "text": "billion dollars in profits and they did",
      "start": 352.05,
      "duration": 5.22
    },
    {
      "text": "that just by buying patents for drugs",
      "start": 354.96,
      "duration": 3.5
    },
    {
      "text": "that were largely developed with",
      "start": 357.27,
      "duration": 2.399
    },
    {
      "text": "taxpayer-funded",
      "start": 358.46,
      "duration": 3.19
    },
    {
      "text": "research and then after they cornered",
      "start": 359.669,
      "duration": 3.3
    },
    {
      "text": "the market and there's no cornering the",
      "start": 361.65,
      "duration": 2.97
    },
    {
      "text": "market like having these kind of patents",
      "start": 362.969,
      "duration": 4.95
    },
    {
      "text": "then they jack up the prices so you know",
      "start": 364.62,
      "duration": 5.13
    },
    {
      "text": "you get some taxpayer funded research",
      "start": 367.919,
      "duration": 4.921
    },
    {
      "text": "lab perhaps in a university to develop a",
      "start": 369.75,
      "duration": 4.979
    },
    {
      "text": "drug and then it's bought up by a pharma",
      "start": 372.84,
      "duration": 3.84
    },
    {
      "text": "company who gets the monopoly and makes",
      "start": 374.729,
      "duration": 4.891
    },
    {
      "text": "a lot of money but on the other hand",
      "start": 376.68,
      "duration": 4.739
    },
    {
      "text": "destroys a lot of lives so yeah",
      "start": 379.62,
      "duration": 2.16
    },
    {
      "text": "obviously",
      "start": 381.419,
      "duration": 6.06
    },
    {
      "text": "balances out now capital gains is it's a",
      "start": 381.78,
      "duration": 7.05
    },
    {
      "text": "bit of a complicated topic but",
      "start": 387.479,
      "duration": 5.071
    },
    {
      "text": "fundamentally capital gains so you make",
      "start": 388.83,
      "duration": 5.28
    },
    {
      "text": "money off selling off your investments",
      "start": 392.55,
      "duration": 3.06
    },
    {
      "text": "that's in capital gains and they're",
      "start": 394.11,
      "duration": 5.85
    },
    {
      "text": "taxed at a lower rate than labor like",
      "start": 395.61,
      "duration": 5.34
    },
    {
      "text": "like actual I should",
      "start": 399.96,
      "duration": 2.37
    },
    {
      "text": "the actual workers you know it's work to",
      "start": 400.95,
      "duration": 3.12
    },
    {
      "text": "make investments in someone right so",
      "start": 402.33,
      "duration": 4.41
    },
    {
      "text": "your labor your salary is taxed at about",
      "start": 404.07,
      "duration": 5.25
    },
    {
      "text": "35 percent as of 2012 capital gains are",
      "start": 406.74,
      "duration": 5.49
    },
    {
      "text": "taxed at a lower rate 20 percent now to",
      "start": 409.32,
      "duration": 4.77
    },
    {
      "text": "be fair the money that people often",
      "start": 412.23,
      "duration": 4.29
    },
    {
      "text": "invest they work they say - it's already",
      "start": 414.09,
      "duration": 5.04
    },
    {
      "text": "been taxed once but it's still pretty",
      "start": 416.52,
      "duration": 5.01
    },
    {
      "text": "favorable to the rich pew research found",
      "start": 419.13,
      "duration": 4.71
    },
    {
      "text": "the 53 percent of Americans own and no",
      "start": 421.53,
      "duration": 4.56
    },
    {
      "text": "stock at all and out of the 47 percent",
      "start": 423.84,
      "duration": 5.94
    },
    {
      "text": "who have stocks the richest 5% own two",
      "start": 426.09,
      "duration": 6.77
    },
    {
      "text": "thirds of that stock a little little top",
      "start": 429.78,
      "duration": 6.09
    },
    {
      "text": "top-heavy only about 10 percent of",
      "start": 432.86,
      "duration": 5.62
    },
    {
      "text": "Americans have pensions so stock market",
      "start": 435.87,
      "duration": 5.4
    },
    {
      "text": "gains or losses don't really affect the",
      "start": 438.48,
      "duration": 6.24
    },
    {
      "text": "incomes of most of the retirees so I'm",
      "start": 441.27,
      "duration": 5.76
    },
    {
      "text": "not sort of making a case for increasing",
      "start": 444.72,
      "duration": 3.75
    },
    {
      "text": "taxes on that I'd like to see lower",
      "start": 447.03,
      "duration": 5.13
    },
    {
      "text": "taxes elsewhere but that is an important",
      "start": 448.47,
      "duration": 5.01
    },
    {
      "text": "consideration that the rich people who",
      "start": 452.16,
      "duration": 3.03
    },
    {
      "text": "have the year of the government like it",
      "start": 453.48,
      "duration": 3.42
    },
    {
      "text": "when their income which often comes from",
      "start": 455.19,
      "duration": 3.93
    },
    {
      "text": "investment is taxed at a lower rate than",
      "start": 456.9,
      "duration": 4.02
    },
    {
      "text": "people who sort of get up and do the",
      "start": 459.12,
      "duration": 5.82
    },
    {
      "text": "nine-to-five ah the gnarly farmers yes",
      "start": 460.92,
      "duration": 6.09
    },
    {
      "text": "the rednecks the people with leathery",
      "start": 464.94,
      "duration": 4.68
    },
    {
      "text": "skin so there's crop insurance which was",
      "start": 467.01,
      "duration": 4.17
    },
    {
      "text": "originally intended to help farmers",
      "start": 469.62,
      "duration": 4.17
    },
    {
      "text": "recover from the dust balls of the 1930s",
      "start": 471.18,
      "duration": 4.47
    },
    {
      "text": "he look a government program that lasted",
      "start": 473.79,
      "duration": 4.05
    },
    {
      "text": "its utility well it's basically turned",
      "start": 475.65,
      "duration": 3.87
    },
    {
      "text": "into a giant slush fund for wealthy",
      "start": 477.84,
      "duration": 3.86
    },
    {
      "text": "corporate farmers and who've become",
      "start": 479.52,
      "duration": 5.61
    },
    {
      "text": "fabulous at manipulating the system for",
      "start": 481.7,
      "duration": 7
    },
    {
      "text": "their own fun and profit Bloomberg has",
      "start": 485.13,
      "duration": 5.4
    },
    {
      "text": "reported the median income of commercial",
      "start": 488.7,
      "duration": 3.84
    },
    {
      "text": "farm households and farming as more than",
      "start": 490.53,
      "duration": 4.58
    },
    {
      "text": "50% of a household income is almost",
      "start": 492.54,
      "duration": 5.49
    },
    {
      "text": "$85,000 as of 2011 that's 70 percent",
      "start": 495.11,
      "duration": 5.44
    },
    {
      "text": "more than the average American household",
      "start": 498.03,
      "duration": 6.18
    },
    {
      "text": "and if farmers have figured out that if",
      "start": 500.55,
      "duration": 5.43
    },
    {
      "text": "they grow crops on lands they know would",
      "start": 504.21,
      "duration": 3.87
    },
    {
      "text": "be unproductive then they make their",
      "start": 505.98,
      "duration": 3.6
    },
    {
      "text": "money from the insurance claims rather",
      "start": 508.08,
      "duration": 5.31
    },
    {
      "text": "than the actual crops in 2011 26 farmers",
      "start": 509.58,
      "duration": 5.399
    },
    {
      "text": "each got an annual subsidy of over a",
      "start": 513.39,
      "duration": 4.44
    },
    {
      "text": "million dollars one tomato farmer in",
      "start": 514.979,
      "duration": 5.25
    },
    {
      "text": "Florida who got all almost a two million",
      "start": 517.83,
      "duration": 5.64
    },
    {
      "text": "dollar subsidy and also these kinds of",
      "start": 520.229,
      "duration": 5.641
    },
    {
      "text": "tariff walls around America very",
      "start": 523.47,
      "duration": 3.78
    },
    {
      "text": "destructive to public health in some",
      "start": 525.87,
      "duration": 3.54
    },
    {
      "text": "instances there's a big sugar tariff",
      "start": 527.25,
      "duration": 3.9
    },
    {
      "text": "that drives up the price of sugar in",
      "start": 529.41,
      "duration": 3.29
    },
    {
      "text": "America this is one of the reasons why",
      "start": 531.15,
      "duration": 3.69
    },
    {
      "text": "manufacturers of sweet",
      "start": 532.7,
      "duration": 4.42
    },
    {
      "text": "and drinks and foods switch to fructose",
      "start": 534.84,
      "duration": 6.3
    },
    {
      "text": "glucose to save money because sugar was",
      "start": 537.12,
      "duration": 7.02
    },
    {
      "text": "driven up in price by corporate all of",
      "start": 541.14,
      "duration": 5.12
    },
    {
      "text": "these tariff walls around America and",
      "start": 544.14,
      "duration": 4.59
    },
    {
      "text": "you know a strong case to be made as far",
      "start": 546.26,
      "duration": 4.75
    },
    {
      "text": "as I understand it that fructose glucose",
      "start": 548.73,
      "duration": 3.75
    },
    {
      "text": "just a little bit worse for you than",
      "start": 551.01,
      "duration": 7.14
    },
    {
      "text": "sugar itself so lots of different ways",
      "start": 552.48,
      "duration": 9.33
    },
    {
      "text": "you can measure this you know eighteen",
      "start": 558.15,
      "duration": 6.09
    },
    {
      "text": "billion dollars in particular categories",
      "start": 561.81,
      "duration": 3.66
    },
    {
      "text": "of corporate welfare that's actually",
      "start": 564.24,
      "duration": 3.57
    },
    {
      "text": "more than NASA's and you will budget",
      "start": 565.47,
      "duration": 3.869
    },
    {
      "text": "since 2009 that's half at around",
      "start": 567.81,
      "duration": 4.68
    },
    {
      "text": "seventeen billion now you can't really",
      "start": 569.339,
      "duration": 5.341
    },
    {
      "text": "talk about corporate welfare Oh without",
      "start": 572.49,
      "duration": 5.039
    },
    {
      "text": "talking about bags thanks I had the",
      "start": 574.68,
      "duration": 5.31
    },
    {
      "text": "giant claw that comes in and takes out",
      "start": 577.529,
      "duration": 4.981
    },
    {
      "text": "your brain in cash now the biggest banks",
      "start": 579.99,
      "duration": 3.78
    },
    {
      "text": "remember they were too big to fail in",
      "start": 582.51,
      "duration": 3.24
    },
    {
      "text": "the 2008 financial meltdown so the",
      "start": 583.77,
      "duration": 3.93
    },
    {
      "text": "government had to fire hose liquid gold",
      "start": 585.75,
      "duration": 3.99
    },
    {
      "text": "up their butts well the biggest banks",
      "start": 587.7,
      "duration": 4.079
    },
    {
      "text": "have now grown even bigger than they",
      "start": 589.74,
      "duration": 4.38
    },
    {
      "text": "were just before the financial meltdown",
      "start": 591.779,
      "duration": 5.071
    },
    {
      "text": "and it's perceived that their demise",
      "start": 594.12,
      "duration": 4.05
    },
    {
      "text": "would spell doom for the US financial",
      "start": 596.85,
      "duration": 3.69
    },
    {
      "text": "sector as a whole let's take a moment",
      "start": 598.17,
      "duration": 7.53
    },
    {
      "text": "shall we so these banks grow bigger and",
      "start": 600.54,
      "duration": 7.41
    },
    {
      "text": "the Federal Reserve allows them to",
      "start": 605.7,
      "duration": 3.6
    },
    {
      "text": "borrow at lower interest rates than",
      "start": 607.95,
      "duration": 4.44
    },
    {
      "text": "other big banks so if you get into this",
      "start": 609.3,
      "duration": 5.28
    },
    {
      "text": "too-big-to-fail category you get a big",
      "start": 612.39,
      "duration": 4.38
    },
    {
      "text": "reduction on your interest rates so",
      "start": 614.58,
      "duration": 3.54
    },
    {
      "text": "they're subsidizing the continued growth",
      "start": 616.77,
      "duration": 2.94
    },
    {
      "text": "hey you're too big to fail let's figure",
      "start": 618.12,
      "duration": 4.26
    },
    {
      "text": "out how we can make you even bigger in",
      "start": 619.71,
      "duration": 5.129
    },
    {
      "text": "2013 Bloomberg estimated that the 10",
      "start": 622.38,
      "duration": 6.9
    },
    {
      "text": "biggest too-big-to-fail banks host 83",
      "start": 624.839,
      "duration": 6.391
    },
    {
      "text": "billion dollars a year in corporate",
      "start": 629.28,
      "duration": 4.71
    },
    {
      "text": "welfare that's a lot the system you've",
      "start": 631.23,
      "duration": 4.2
    },
    {
      "text": "encountered the Troubled Asset Relief",
      "start": 633.99,
      "duration": 3.27
    },
    {
      "text": "Program the giant bailouts which were",
      "start": 635.43,
      "duration": 3.57
    },
    {
      "text": "seven hundred billion dollars plus and",
      "start": 637.26,
      "duration": 3.54
    },
    {
      "text": "the giant loans at the Federal Reserve",
      "start": 639,
      "duration": 3.69
    },
    {
      "text": "May that came out when that was ordered",
      "start": 640.8,
      "duration": 5.64
    },
    {
      "text": "and recently um but it's really really",
      "start": 642.69,
      "duration": 6.45
    },
    {
      "text": "important that the Bank of Scotland do",
      "start": 646.44,
      "duration": 3.72
    },
    {
      "text": "really well you know wake up every",
      "start": 649.14,
      "duration": 2.069
    },
    {
      "text": "morning wondering how the Bank of",
      "start": 650.16,
      "duration": 2.429
    },
    {
      "text": "Scotland doing thanks to the Federal",
      "start": 651.209,
      "duration": 4.681
    },
    {
      "text": "Reserve it's doing okay now the House of",
      "start": 652.589,
      "duration": 5.011
    },
    {
      "text": "Representatives recently voted to revive",
      "start": 655.89,
      "duration": 4.23
    },
    {
      "text": "who back from the dead the Export Import",
      "start": 657.6,
      "duration": 5.88
    },
    {
      "text": "Bank and its viewed or has been",
      "start": 660.12,
      "duration": 5.07
    },
    {
      "text": "criticized by some as a giant slush fund",
      "start": 663.48,
      "duration": 4.26
    },
    {
      "text": "for large multinational corporations",
      "start": 665.19,
      "duration": 5.19
    },
    {
      "text": "so recently the export-import bank had a",
      "start": 667.74,
      "duration": 4.92
    },
    {
      "text": "portfolio of one hundred twelve billion",
      "start": 670.38,
      "duration": 4.08
    },
    {
      "text": "dollars ninety billion went to",
      "start": 672.66,
      "duration": 4.32
    },
    {
      "text": "multinational corporations a huge",
      "start": 674.46,
      "duration": 4.64
    },
    {
      "text": "portion of that money went to just ten",
      "start": 676.98,
      "duration": 5.19
    },
    {
      "text": "wealthy corporations for those who don't",
      "start": 679.1,
      "duration": 4.99
    },
    {
      "text": "know who've had more of a life than I",
      "start": 682.17,
      "duration": 3.69
    },
    {
      "text": "have the export-import bank is a",
      "start": 684.09,
      "duration": 3.54
    },
    {
      "text": "government agency and it subsidizes",
      "start": 685.86,
      "duration": 4.41
    },
    {
      "text": "American exports by foreign firms with",
      "start": 687.63,
      "duration": 5.97
    },
    {
      "text": "taxpayer backing of its loans so they",
      "start": 690.27,
      "duration": 6.18
    },
    {
      "text": "say oh you know will an aid small",
      "start": 693.6,
      "duration": 4.98
    },
    {
      "text": "business so it creates jobs and levels",
      "start": 696.45,
      "duration": 4.56
    },
    {
      "text": "the playing field in global trade",
      "start": 698.58,
      "duration": 4.92
    },
    {
      "text": "according to its defenders basically its",
      "start": 701.01,
      "duration": 6.24
    },
    {
      "text": "corporate welfare it provides overseas",
      "start": 703.5,
      "duration": 6.63
    },
    {
      "text": "corporations with billions of dollars of",
      "start": 707.25,
      "duration": 5.79
    },
    {
      "text": "loans and financing at favorable rates",
      "start": 710.13,
      "duration": 7.98
    },
    {
      "text": "and that's not very fair so for instance",
      "start": 713.04,
      "duration": 9.96
    },
    {
      "text": "American airline companies are negative",
      "start": 718.11,
      "duration": 6.36
    },
    {
      "text": "they come out negatively in this because",
      "start": 723,
      "duration": 5.04
    },
    {
      "text": "the export-import bank subsidizes for",
      "start": 724.47,
      "duration": 5.97
    },
    {
      "text": "enviros of American aircraft so domestic",
      "start": 728.04,
      "duration": 5.64
    },
    {
      "text": "buyers are in big trouble when it comes",
      "start": 730.44,
      "duration": 6.39
    },
    {
      "text": "to competing and there's another reason",
      "start": 733.68,
      "duration": 6.57
    },
    {
      "text": "why jobs that are going overseas now if",
      "start": 736.83,
      "duration": 4.92
    },
    {
      "text": "we just look at the biggest 200",
      "start": 740.25,
      "duration": 3.51
    },
    {
      "text": "corporations they have a ridiculously",
      "start": 741.75,
      "duration": 3.81
    },
    {
      "text": "unfair advantage because of their",
      "start": 743.76,
      "duration": 3.96
    },
    {
      "text": "influence in power in Washington",
      "start": 745.56,
      "duration": 4.35
    },
    {
      "text": "according to the sunlight foundation",
      "start": 747.72,
      "duration": 5.19
    },
    {
      "text": "here's some numbers for you that should",
      "start": 749.91,
      "duration": 5.07
    },
    {
      "text": "help blow your mind right here cup your",
      "start": 752.91,
      "duration": 3.33
    },
    {
      "text": "ears to people Princess Leia time",
      "start": 754.98,
      "duration": 4.35
    },
    {
      "text": "because it's gonna get crazy the top 200",
      "start": 756.24,
      "duration": 5.58
    },
    {
      "text": "companies spent about five point eight",
      "start": 759.33,
      "duration": 4.05
    },
    {
      "text": "billion dollars lobbying Congress",
      "start": 761.82,
      "duration": 4.01
    },
    {
      "text": "between oh seven and twenty twelve so",
      "start": 763.38,
      "duration": 4.77
    },
    {
      "text": "5.8 billion hope that see that seems",
      "start": 765.83,
      "duration": 4.78
    },
    {
      "text": "like a lot it's really not 5.8 billion",
      "start": 768.15,
      "duration": 5.55
    },
    {
      "text": "lobbying Congress now in the same those",
      "start": 770.61,
      "duration": 4.8
    },
    {
      "text": "same years these top 200 companies",
      "start": 773.7,
      "duration": 3.69
    },
    {
      "text": "receive four point four trillion dollars",
      "start": 775.41,
      "duration": 7.89
    },
    {
      "text": "in federal contracts that's really quite",
      "start": 777.39,
      "duration": 7.68
    },
    {
      "text": "something you spend five point eight",
      "start": 783.3,
      "duration": 3.87
    },
    {
      "text": "billion dollars lobbying and you get",
      "start": 785.07,
      "duration": 4.86
    },
    {
      "text": "four point four trillion dollars in",
      "start": 787.17,
      "duration": 4.35
    },
    {
      "text": "federal contracts and this is what I",
      "start": 789.93,
      "duration": 2.7
    },
    {
      "text": "mean when I talked about fiduciary",
      "start": 791.52,
      "duration": 2.34
    },
    {
      "text": "responsibility if you have a big",
      "start": 792.63,
      "duration": 4.17
    },
    {
      "text": "corporation and you don't do this then",
      "start": 793.86,
      "duration": 4.47
    },
    {
      "text": "you're like a boxer trying to win a",
      "start": 796.8,
      "duration": 4.13
    },
    {
      "text": "boxing match with a tricycle around the",
      "start": 798.33,
      "duration": 6.259
    },
    {
      "text": "the boxing ring which is square four",
      "start": 800.93,
      "duration": 4.83
    },
    {
      "text": "point four trillion dollars that's",
      "start": 804.589,
      "duration": 3.291
    },
    {
      "text": "actually a hundred billion dollars more",
      "start": 805.76,
      "duration": 6.18
    },
    {
      "text": "than what the US government spent on the",
      "start": 807.88,
      "duration": 6.31
    },
    {
      "text": "nation's Social Security recipients",
      "start": 811.94,
      "duration": 5.19
    },
    {
      "text": "about 50 million of them so that's quite",
      "start": 814.19,
      "duration": 3.45
    },
    {
      "text": "locked",
      "start": 817.13,
      "duration": 2.75
    },
    {
      "text": "jumping across the pond in the UK well",
      "start": 817.64,
      "duration": 6.03
    },
    {
      "text": "taxpayers are well ninety three billion",
      "start": 819.88,
      "duration": 6.94
    },
    {
      "text": "pounds about a year are being extracted",
      "start": 823.67,
      "duration": 5.609
    },
    {
      "text": "from taxpayers and given to big",
      "start": 826.82,
      "duration": 4.53
    },
    {
      "text": "corporations and businesses as a whole",
      "start": 829.279,
      "duration": 4.531
    },
    {
      "text": "that's a little more than three thousand",
      "start": 831.35,
      "duration": 4.08
    },
    {
      "text": "five hundred pounds from every single",
      "start": 833.81,
      "duration": 6.15
    },
    {
      "text": "household in the United Kingdom so",
      "start": 835.43,
      "duration": 8.45
    },
    {
      "text": "that's not great 2013 Washington State",
      "start": 839.96,
      "duration": 8.129
    },
    {
      "text": "mid November Monday Washington governor",
      "start": 843.88,
      "duration": 6.64
    },
    {
      "text": "jay Inslee who is a Democrat he's signed",
      "start": 848.089,
      "duration": 5.131
    },
    {
      "text": "into law the very largest corporate tax",
      "start": 850.52,
      "duration": 4.14
    },
    {
      "text": "break in any state's history",
      "start": 853.22,
      "duration": 3.869
    },
    {
      "text": "this is a corporate tax break with an",
      "start": 854.66,
      "duration": 4.74
    },
    {
      "text": "estimated long-term value of eight point",
      "start": 857.089,
      "duration": 5.221
    },
    {
      "text": "seven billion dollars that's quite a",
      "start": 859.4,
      "duration": 6.059
    },
    {
      "text": "refund check to be getting in the mail",
      "start": 862.31,
      "duration": 7.02
    },
    {
      "text": "and this was supposed to entice Boeing",
      "start": 865.459,
      "duration": 8.311
    },
    {
      "text": "to build its plane in the state and it",
      "start": 869.33,
      "duration": 5.97
    },
    {
      "text": "wasn't just that day Boeing the",
      "start": 873.77,
      "duration": 3.63
    },
    {
      "text": "aerospace giant has received more state",
      "start": 875.3,
      "duration": 3.75
    },
    {
      "text": "and local subsidy on us than any other",
      "start": 877.4,
      "duration": 5.73
    },
    {
      "text": "corporation in America so since 2000",
      "start": 879.05,
      "duration": 6.84
    },
    {
      "text": "federal government has spread the love",
      "start": 883.13,
      "duration": 4.47
    },
    {
      "text": "spread the cookie dough sixty eight",
      "start": 885.89,
      "duration": 3.06
    },
    {
      "text": "billion dollars in grants and special",
      "start": 887.6,
      "duration": 3.42
    },
    {
      "text": "tax credits to businesses two-thirds of",
      "start": 888.95,
      "duration": 3.03
    },
    {
      "text": "that of course going to large",
      "start": 891.02,
      "duration": 3.93
    },
    {
      "text": "corporations six corporations alone have",
      "start": 891.98,
      "duration": 4.41
    },
    {
      "text": "received a billion dollars or more while",
      "start": 894.95,
      "duration": 3.81
    },
    {
      "text": "21 have got about five hundred million",
      "start": 896.39,
      "duration": 6.63
    },
    {
      "text": "dollars or more federal agencies of",
      "start": 898.76,
      "duration": 5.91
    },
    {
      "text": "course during that same time period has",
      "start": 903.02,
      "duration": 3.63
    },
    {
      "text": "given the private sector hundreds of",
      "start": 904.67,
      "duration": 3.45
    },
    {
      "text": "billions of dollars in loans loan",
      "start": 906.65,
      "duration": 4.32
    },
    {
      "text": "guarantees bail out assistance tarp the",
      "start": 908.12,
      "duration": 4.86
    },
    {
      "text": "largest share going to major us of",
      "start": 910.97,
      "duration": 5.79
    },
    {
      "text": "course and foreign banks so of course",
      "start": 912.98,
      "duration": 6.21
    },
    {
      "text": "the Federal Reserve in 2008 wanted to",
      "start": 916.76,
      "duration": 4.41
    },
    {
      "text": "buy up the toxic securities right so",
      "start": 919.19,
      "duration": 3.75
    },
    {
      "text": "they made all these bad mortgage loans",
      "start": 921.17,
      "duration": 2.97
    },
    {
      "text": "they bundled them into other financial",
      "start": 922.94,
      "duration": 2.43
    },
    {
      "text": "instruments sold them around the world",
      "start": 924.14,
      "duration": 3.3
    },
    {
      "text": "and then because they were really",
      "start": 925.37,
      "duration": 4.11
    },
    {
      "text": "leveraged like some of these big",
      "start": 927.44,
      "duration": 4.53
    },
    {
      "text": "financial houses in 2007 were led to it",
      "start": 929.48,
      "duration": 4.109
    },
    {
      "text": "leverage like thirty to one which means",
      "start": 931.97,
      "duration": 2.76
    },
    {
      "text": "if they lose four",
      "start": 933.589,
      "duration": 3.151
    },
    {
      "text": "and the value they go they get wiped out",
      "start": 934.73,
      "duration": 4.77
    },
    {
      "text": "completely they bought on on margin so",
      "start": 936.74,
      "duration": 4.649
    },
    {
      "text": "to speak oh they were exposed on margin",
      "start": 939.5,
      "duration": 5.19
    },
    {
      "text": "and so the Federal Reserve bought up all",
      "start": 941.389,
      "duration": 4.741
    },
    {
      "text": "this stuff propping up the price and",
      "start": 944.69,
      "duration": 4.199
    },
    {
      "text": "thus pretending that the zombies were",
      "start": 946.13,
      "duration": 3.81
    },
    {
      "text": "really great for people that have",
      "start": 948.889,
      "duration": 3.151
    },
    {
      "text": "financial sex with my sis kin-kee but",
      "start": 949.94,
      "duration": 3.75
    },
    {
      "text": "whatever floats your boat",
      "start": 952.04,
      "duration": 5.82
    },
    {
      "text": "and so this was mainly driven by these",
      "start": 953.69,
      "duration": 7.649
    },
    {
      "text": "by buying toxic securities programs",
      "start": 957.86,
      "duration": 6.599
    },
    {
      "text": "Federal Reserve started in 2008 the",
      "start": 961.339,
      "duration": 4.86
    },
    {
      "text": "total value of loans and guarantees",
      "start": 964.459,
      "duration": 4.021
    },
    {
      "text": "bailouts assistance literally runs into",
      "start": 966.199,
      "duration": 6.51
    },
    {
      "text": "the trillions of dollars a Bank of",
      "start": 968.48,
      "duration": 9.06
    },
    {
      "text": "America gross borrowing just under three",
      "start": 972.709,
      "duration": 9.421
    },
    {
      "text": "point five trillion dollars and this is",
      "start": 977.54,
      "duration": 6.299
    },
    {
      "text": "including a master it's Merrill Lynch",
      "start": 982.13,
      "duration": 3.12
    },
    {
      "text": "and countrywide financial acquisitions",
      "start": 983.839,
      "duration": 4.261
    },
    {
      "text": "that they did repay some of this there",
      "start": 985.25,
      "duration": 4.589
    },
    {
      "text": "was three point five trillion dollars",
      "start": 988.1,
      "duration": 3.78
    },
    {
      "text": "Citigroup got two point six trillion and",
      "start": 989.839,
      "duration": 3.601
    },
    {
      "text": "support Morgan Stanley two point one",
      "start": 991.88,
      "duration": 3.569
    },
    {
      "text": "trillion JPMorgan Chase one point three",
      "start": 993.44,
      "duration": 2.519
    },
    {
      "text": "trillion",
      "start": 995.449,
      "duration": 2.01
    },
    {
      "text": "including Bear Stearns and Washington",
      "start": 995.959,
      "duration": 6.63
    },
    {
      "text": "Mutual the largest recipient of federal",
      "start": 997.459,
      "duration": 7.471
    },
    {
      "text": "grants and tax credits was a Spanish",
      "start": 1002.589,
      "duration": 6.541
    },
    {
      "text": "energy company Iberdrola which received",
      "start": 1004.93,
      "duration": 6.779
    },
    {
      "text": "the federal subsidies by quote investing",
      "start": 1009.13,
      "duration": 3.93
    },
    {
      "text": "heavily in u.s. power generation",
      "start": 1011.709,
      "duration": 3.57
    },
    {
      "text": "facilities really important to make sure",
      "start": 1013.06,
      "duration": 4.38
    },
    {
      "text": "that the Spanish energy companies do",
      "start": 1015.279,
      "duration": 3.06
    },
    {
      "text": "really really well",
      "start": 1017.44,
      "duration": 4.62
    },
    {
      "text": "the top five for all of future shame of",
      "start": 1018.339,
      "duration": 5.941
    },
    {
      "text": "state and local subsidy recipients",
      "start": 1022.06,
      "duration": 4.29
    },
    {
      "text": "Boeing got thirteen point four billion",
      "start": 1024.28,
      "duration": 3.539
    },
    {
      "text": "dollars the sources for all this will be",
      "start": 1026.35,
      "duration": 4.56
    },
    {
      "text": "below Intel Intel inside your children's",
      "start": 1027.819,
      "duration": 4.74
    },
    {
      "text": "pockets got five point nine billion",
      "start": 1030.91,
      "duration": 4.889
    },
    {
      "text": "Alcoa 5.6 billion general motors 3.7",
      "start": 1032.559,
      "duration": 7.441
    },
    {
      "text": "billion ford motor 2.5 billion dollar",
      "start": 1035.799,
      "duration": 5.551
    },
    {
      "text": "some of these big corporations that",
      "start": 1040,
      "duration": 2.61
    },
    {
      "text": "double and triple dippers they go into",
      "start": 1041.35,
      "duration": 5.729
    },
    {
      "text": "federal and state funds and there are",
      "start": 1042.61,
      "duration": 6.87
    },
    {
      "text": "five corporations who've done the magic",
      "start": 1047.079,
      "duration": 4.771
    },
    {
      "text": "triangle of doom they are among the 50",
      "start": 1049.48,
      "duration": 4.17
    },
    {
      "text": "largest recipients of three kinds of",
      "start": 1051.85,
      "duration": 3.66
    },
    {
      "text": "funds state subsidies federal grants and",
      "start": 1053.65,
      "duration": 4.56
    },
    {
      "text": "tax credits and federal loans loan",
      "start": 1055.51,
      "duration": 5.22
    },
    {
      "text": "guarantees and bailout assistance",
      "start": 1058.21,
      "duration": 4.32
    },
    {
      "text": "because sometimes it's really really",
      "start": 1060.73,
      "duration": 4.89
    },
    {
      "text": "hard to work for a living and these",
      "start": 1062.53,
      "duration": 4.5
    },
    {
      "text": "businesses which have been defined is",
      "start": 1065.62,
      "duration": 2.52
    },
    {
      "text": "the most successful that it",
      "start": 1067.03,
      "duration": 2.58
    },
    {
      "text": "caning subsidies from all level of",
      "start": 1068.14,
      "duration": 3.03
    },
    {
      "text": "governments are Boeing Ford Motor",
      "start": 1069.61,
      "duration": 3.29
    },
    {
      "text": "General Electric General Motors and",
      "start": 1071.17,
      "duration": 7.11
    },
    {
      "text": "JPMorgan Chase now the amount of these",
      "start": 1072.9,
      "duration": 8.83
    },
    {
      "text": "kinds of subsidies is layers and layers",
      "start": 1078.28,
      "duration": 6.06
    },
    {
      "text": "and layers and layers now we've talked",
      "start": 1081.73,
      "duration": 5.16
    },
    {
      "text": "about that income assistance to poor",
      "start": 1084.34,
      "duration": 4.14
    },
    {
      "text": "people runs at about a trillion dollars",
      "start": 1086.89,
      "duration": 5.37
    },
    {
      "text": "a year it's really hard to compare where",
      "start": 1088.48,
      "duration": 6.57
    },
    {
      "text": "corporate welfare lands with regards to",
      "start": 1092.26,
      "duration": 6.27
    },
    {
      "text": "this and so I really want to point out I",
      "start": 1095.05,
      "duration": 5.1
    },
    {
      "text": "don't know whether it's larger or it's",
      "start": 1098.53,
      "duration": 2.88
    },
    {
      "text": "smaller but it's something that really",
      "start": 1100.15,
      "duration": 3.24
    },
    {
      "text": "needs to be focused on see there are",
      "start": 1101.41,
      "duration": 3.39
    },
    {
      "text": "people who have a lot of power in the",
      "start": 1103.39,
      "duration": 3.72
    },
    {
      "text": "government because they vote a lot right",
      "start": 1104.8,
      "duration": 3.51
    },
    {
      "text": "a lot of poor people who are on welfare",
      "start": 1107.11,
      "duration": 3.12
    },
    {
      "text": "gonna vote for a continuation of those",
      "start": 1108.31,
      "duration": 3.81
    },
    {
      "text": "welfare programs and then there are",
      "start": 1110.23,
      "duration": 3.18
    },
    {
      "text": "people who have a lot of power in",
      "start": 1112.12,
      "duration": 2.91
    },
    {
      "text": "government because they have a lot of",
      "start": 1113.41,
      "duration": 5.07
    },
    {
      "text": "money and they like to hand that money",
      "start": 1115.03,
      "duration": 6.15
    },
    {
      "text": "to politicians or arrange fundraisers",
      "start": 1118.48,
      "duration": 4.74
    },
    {
      "text": "raisers or set up super PACs or whatever",
      "start": 1121.18,
      "duration": 4.65
    },
    {
      "text": "to make sure that their guy gets into",
      "start": 1123.22,
      "duration": 4.92
    },
    {
      "text": "power now once their guy gets into power",
      "start": 1125.83,
      "duration": 4.05
    },
    {
      "text": "then they get all these benefits flowing",
      "start": 1128.14,
      "duration": 4.44
    },
    {
      "text": "back you could call it bribery but it's",
      "start": 1129.88,
      "duration": 4.62
    },
    {
      "text": "go lobbying because the word bribery",
      "start": 1132.58,
      "duration": 4.86
    },
    {
      "text": "kind of Anna you taste it but lobbying",
      "start": 1134.5,
      "duration": 4.05
    },
    {
      "text": "just sounds like you're really",
      "start": 1137.44,
      "duration": 5.25
    },
    {
      "text": "enthusiastic for particular programs and",
      "start": 1138.55,
      "duration": 5.82
    },
    {
      "text": "this goes on all of the face looks",
      "start": 1142.69,
      "duration": 5.04
    },
    {
      "text": "Amtrak right the the train Amtrak is",
      "start": 1144.37,
      "duration": 5.58
    },
    {
      "text": "just a giant money pit addicted to",
      "start": 1147.73,
      "duration": 5.55
    },
    {
      "text": "corporate welfare subsidies you know",
      "start": 1149.95,
      "duration": 4.71
    },
    {
      "text": "it's not fully private it's not fully",
      "start": 1153.28,
      "duration": 3.12
    },
    {
      "text": "public it's one of these weird fascist",
      "start": 1154.66,
      "duration": 4.35
    },
    {
      "text": "ghosts with a leg on one leg on the dark",
      "start": 1156.4,
      "duration": 4.82
    },
    {
      "text": "and one leg on the boat it's a",
      "start": 1159.01,
      "duration": 5.61
    },
    {
      "text": "managerial disaster a money loser from",
      "start": 1161.22,
      "duration": 8.31
    },
    {
      "text": "here to eternity and continues to get",
      "start": 1164.62,
      "duration": 8.22
    },
    {
      "text": "subsidies for even the most ridiculous",
      "start": 1169.53,
      "duration": 7.15
    },
    {
      "text": "roots last year and tracks net losses",
      "start": 1172.84,
      "duration": 5.73
    },
    {
      "text": "were almost 1.4 billion dollars there",
      "start": 1176.68,
      "duration": 3.12
    },
    {
      "text": "was an operating loss of almost two",
      "start": 1178.57,
      "duration": 3.81
    },
    {
      "text": "hundred and twenty seven million dollars",
      "start": 1179.8,
      "duration": 4.05
    },
    {
      "text": "and again I won't go through all of the",
      "start": 1182.38,
      "duration": 3.75
    },
    {
      "text": "details of everything that's going on in",
      "start": 1183.85,
      "duration": 3.6
    },
    {
      "text": "all these programs it would take a long",
      "start": 1186.13,
      "duration": 4.08
    },
    {
      "text": "time it's not that fascinating and I",
      "start": 1187.45,
      "duration": 7.44
    },
    {
      "text": "think you can get the pattern but it's",
      "start": 1190.21,
      "duration": 5.76
    },
    {
      "text": "really hard to get ahead because these",
      "start": 1194.89,
      "duration": 2.52
    },
    {
      "text": "corporations have the year of government",
      "start": 1195.97,
      "duration": 3.84
    },
    {
      "text": "and they have the taxpayers money and",
      "start": 1197.41,
      "duration": 4.229
    },
    {
      "text": "there's a weird in",
      "start": 1199.81,
      "duration": 3.239
    },
    {
      "text": "balance why does this stuff continue to",
      "start": 1201.639,
      "duration": 4.681
    },
    {
      "text": "grow and expand because let's say that",
      "start": 1203.049,
      "duration": 5.01
    },
    {
      "text": "there's some program that is like I",
      "start": 1206.32,
      "duration": 5.669
    },
    {
      "text": "don't know 130 million dollars eight",
      "start": 1208.059,
      "duration": 5.16
    },
    {
      "text": "hundred and thirty million dollars on",
      "start": 1211.989,
      "duration": 3.74
    },
    {
      "text": "and it goes to ten companies right",
      "start": 1213.219,
      "duration": 4.2
    },
    {
      "text": "governments can spend a hundred thirty",
      "start": 1215.729,
      "duration": 3.1
    },
    {
      "text": "million dollars on ten companies well",
      "start": 1217.419,
      "duration": 2.82
    },
    {
      "text": "each of those companies has a thirteen",
      "start": 1218.829,
      "duration": 2.97
    },
    {
      "text": "million dollar incentive to make sure",
      "start": 1220.239,
      "duration": 4.14
    },
    {
      "text": "that goes ahead especially if it's a",
      "start": 1221.799,
      "duration": 3.93
    },
    {
      "text": "repetitive thing I give it something",
      "start": 1224.379,
      "duration": 2.7
    },
    {
      "text": "that's not just a one-time deal but a",
      "start": 1225.729,
      "duration": 4.83
    },
    {
      "text": "repetitive thing well that is a lot of",
      "start": 1227.079,
      "duration": 5.19
    },
    {
      "text": "incentive you're gonna spend quite a bit",
      "start": 1230.559,
      "duration": 3
    },
    {
      "text": "of that thirteen million dollars to make",
      "start": 1232.269,
      "duration": 5.13
    },
    {
      "text": "sure this happens however there are 130",
      "start": 1233.559,
      "duration": 7.29
    },
    {
      "text": "million dollars is about a dollar for",
      "start": 1237.399,
      "duration": 8.85
    },
    {
      "text": "every household in America and so you",
      "start": 1240.849,
      "duration": 7.2
    },
    {
      "text": "have like less than $1 worth of",
      "start": 1246.249,
      "duration": 3.39
    },
    {
      "text": "incentive to push back against these",
      "start": 1248.049,
      "duration": 3.901
    },
    {
      "text": "words companies have millions and",
      "start": 1249.639,
      "duration": 5.37
    },
    {
      "text": "millions of dollars incentive to try and",
      "start": 1251.95,
      "duration": 5.009
    },
    {
      "text": "make this go ahead and that imbalance is",
      "start": 1255.009,
      "duration": 2.99
    },
    {
      "text": "really really crazy",
      "start": 1256.959,
      "duration": 6.15
    },
    {
      "text": "now the government and big business are",
      "start": 1257.999,
      "duration": 7.24
    },
    {
      "text": "an unholy combination you know that's an",
      "start": 1263.109,
      "duration": 4.831
    },
    {
      "text": "Objectivist argument that says that the",
      "start": 1265.239,
      "duration": 5.43
    },
    {
      "text": "separation of the state and the economy",
      "start": 1267.94,
      "duration": 5.13
    },
    {
      "text": "is necessary and essential for the same",
      "start": 1270.669,
      "duration": 3.96
    },
    {
      "text": "reason that the separation of church and",
      "start": 1273.07,
      "duration": 4.649
    },
    {
      "text": "state was essential to human Liberty and",
      "start": 1274.629,
      "duration": 6.48
    },
    {
      "text": "the reason is that to set up a tariff",
      "start": 1277.719,
      "duration": 4.68
    },
    {
      "text": "like to say let's say you're some",
      "start": 1281.109,
      "duration": 3.51
    },
    {
      "text": "sweater manufacturer in Cincinnati you",
      "start": 1282.399,
      "duration": 3.12
    },
    {
      "text": "can go to your government your",
      "start": 1284.619,
      "duration": 1.951
    },
    {
      "text": "government can say oh you can go to",
      "start": 1285.519,
      "duration": 3.03
    },
    {
      "text": "government say stop these foreign",
      "start": 1286.57,
      "duration": 3.929
    },
    {
      "text": "sweaters from coming in and if they do",
      "start": 1288.549,
      "duration": 3.69
    },
    {
      "text": "then you can raise the price of your",
      "start": 1290.499,
      "duration": 4.321
    },
    {
      "text": "sweaters but if you actually had to fund",
      "start": 1292.239,
      "duration": 5.13
    },
    {
      "text": "people going round and opening ships and",
      "start": 1294.82,
      "duration": 4.709
    },
    {
      "text": "you had to fund your own customs agency",
      "start": 1297.369,
      "duration": 3.3
    },
    {
      "text": "or whatever it wouldn't make any sense",
      "start": 1299.529,
      "duration": 2.911
    },
    {
      "text": "the fact is that the costs of",
      "start": 1300.669,
      "duration": 4.41
    },
    {
      "text": "enforcement are socialized the cost of",
      "start": 1302.44,
      "duration": 4.079
    },
    {
      "text": "enforcement of tariffs the drive up the",
      "start": 1305.079,
      "duration": 3.121
    },
    {
      "text": "price of your goods you pay for as a",
      "start": 1306.519,
      "duration": 3.6
    },
    {
      "text": "taxpayer is not does not accrue directly",
      "start": 1308.2,
      "duration": 5.25
    },
    {
      "text": "to the individual company so the costs",
      "start": 1310.119,
      "duration": 4.98
    },
    {
      "text": "of enforcing all of these rules is",
      "start": 1313.45,
      "duration": 3.919
    },
    {
      "text": "socialized but the profits are",
      "start": 1315.099,
      "duration": 4.591
    },
    {
      "text": "privatized and that is really essential",
      "start": 1317.369,
      "duration": 4.571
    },
    {
      "text": "to understand when you give the",
      "start": 1319.69,
      "duration": 3.63
    },
    {
      "text": "government this kind of power the power",
      "start": 1321.94,
      "duration": 3.329
    },
    {
      "text": "not to be a referee but to pick winners",
      "start": 1323.32,
      "duration": 4.38
    },
    {
      "text": "and losers in the economy it's gonna go",
      "start": 1325.269,
      "duration": 4.62
    },
    {
      "text": "to their friends you know political",
      "start": 1327.7,
      "duration": 4.649
    },
    {
      "text": "power is basically the ability to punish",
      "start": 1329.889,
      "duration": 5.551
    },
    {
      "text": "your enemies and reward your friends and",
      "start": 1332.349,
      "duration": 4.68
    },
    {
      "text": "force everyone to pay for your",
      "start": 1335.44,
      "duration": 3.209
    },
    {
      "text": "preference this is always going to",
      "start": 1337.029,
      "duration": 2.041
    },
    {
      "text": "happen",
      "start": 1338.649,
      "duration": 3.571
    },
    {
      "text": "now this demonization of corporations is",
      "start": 1339.07,
      "duration": 4.439
    },
    {
      "text": "honorable you see if the corporations",
      "start": 1342.22,
      "duration": 3.449
    },
    {
      "text": "are so powerful why they so demonized",
      "start": 1343.509,
      "duration": 4.321
    },
    {
      "text": "well because what happens is when",
      "start": 1345.669,
      "duration": 4.38
    },
    {
      "text": "corporations are demonized people run to",
      "start": 1347.83,
      "duration": 3.719
    },
    {
      "text": "the government for more protection",
      "start": 1350.049,
      "duration": 3.691
    },
    {
      "text": "against corporations which allows the",
      "start": 1351.549,
      "duration": 3.63
    },
    {
      "text": "government to create more rules that are",
      "start": 1353.74,
      "duration": 3.149
    },
    {
      "text": "supposed to control corporations which",
      "start": 1355.179,
      "duration": 3.031
    },
    {
      "text": "the corporation's then through a",
      "start": 1356.889,
      "duration": 3.24
    },
    {
      "text": "phenomenon called regulatory capture end",
      "start": 1358.21,
      "duration": 3.48
    },
    {
      "text": "up taking over",
      "start": 1360.129,
      "duration": 3.601
    },
    {
      "text": "I mean Wall Street writes the",
      "start": 1361.69,
      "duration": 3.66
    },
    {
      "text": "regulations for Wall Street and it's",
      "start": 1363.73,
      "duration": 3.059
    },
    {
      "text": "designed to make the big firms with the",
      "start": 1365.35,
      "duration": 3.689
    },
    {
      "text": "most political pull and clout even",
      "start": 1366.789,
      "duration": 4.081
    },
    {
      "text": "bigger and to punish the smaller firms",
      "start": 1369.039,
      "duration": 3.181
    },
    {
      "text": "and drive other people out of the",
      "start": 1370.87,
      "duration": 4.08
    },
    {
      "text": "business so when you create these ogres",
      "start": 1372.22,
      "duration": 5.01
    },
    {
      "text": "called corporations everybody runs to",
      "start": 1374.95,
      "duration": 3.929
    },
    {
      "text": "the government to protect them which",
      "start": 1377.23,
      "duration": 3.179
    },
    {
      "text": "corporations love because they then get",
      "start": 1378.879,
      "duration": 2.76
    },
    {
      "text": "to control the government and write the",
      "start": 1380.409,
      "duration": 3.87
    },
    {
      "text": "rules to punish their competitors and",
      "start": 1381.639,
      "duration": 4.561
    },
    {
      "text": "reward themselves so there's no",
      "start": 1384.279,
      "duration": 3.63
    },
    {
      "text": "particular way out of this which is why",
      "start": 1386.2,
      "duration": 5.64
    },
    {
      "text": "I'm for a free-market it simply can't",
      "start": 1387.909,
      "duration": 6.541
    },
    {
      "text": "work that you can create some sort of",
      "start": 1391.84,
      "duration": 4.23
    },
    {
      "text": "monopoly in a free market monopolies",
      "start": 1394.45,
      "duration": 3.229
    },
    {
      "text": "always and forever result from",
      "start": 1396.07,
      "duration": 4.68
    },
    {
      "text": "government control and power exercised",
      "start": 1397.679,
      "duration": 4.48
    },
    {
      "text": "for the benefit of particular",
      "start": 1400.75,
      "duration": 4.62
    },
    {
      "text": "corporations and there's no way to get",
      "start": 1402.159,
      "duration": 5.581
    },
    {
      "text": "around this at all once you set the",
      "start": 1405.37,
      "duration": 4.439
    },
    {
      "text": "system up then it's like you're saying",
      "start": 1407.74,
      "duration": 4.95
    },
    {
      "text": "to people go into a ring and hit each",
      "start": 1409.809,
      "duration": 5.191
    },
    {
      "text": "other in the face or wherever and",
      "start": 1412.69,
      "duration": 3.959
    },
    {
      "text": "whoever knocks the other person out wins",
      "start": 1415,
      "duration": 3.48
    },
    {
      "text": "and they get a million dollars and then",
      "start": 1416.649,
      "duration": 3.36
    },
    {
      "text": "saying well we've got to find some way",
      "start": 1418.48,
      "duration": 3.39
    },
    {
      "text": "to control violence in that ring well",
      "start": 1420.009,
      "duration": 3.63
    },
    {
      "text": "you can you just have to change the",
      "start": 1421.87,
      "duration": 3
    },
    {
      "text": "rules of the game to the point where the",
      "start": 1423.639,
      "duration": 3.5
    },
    {
      "text": "government does not have the power to",
      "start": 1424.87,
      "duration": 4.47
    },
    {
      "text": "privatize to allow corporations to",
      "start": 1427.139,
      "duration": 4.54
    },
    {
      "text": "privatize profits while socializing the",
      "start": 1429.34,
      "duration": 4.439
    },
    {
      "text": "costs of regulations and enforcement it",
      "start": 1431.679,
      "duration": 4.921
    },
    {
      "text": "has to be voluntary it has to be society",
      "start": 1433.779,
      "duration": 4.411
    },
    {
      "text": "why political power",
      "start": 1436.6,
      "duration": 3.179
    },
    {
      "text": "what is it allows you to punish your",
      "start": 1438.19,
      "duration": 3.15
    },
    {
      "text": "enemies and reward your friends and if",
      "start": 1439.779,
      "duration": 4.65
    },
    {
      "text": "you speak for freedom I really think you",
      "start": 1441.34,
      "duration": 4.949
    },
    {
      "text": "know where you're going to end up this",
      "start": 1444.429,
      "duration": 3.321
    },
    {
      "text": "is stefan molyneux for freedomain radio",
      "start": 1446.289,
      "duration": 4.35
    },
    {
      "text": "thank you so much for watching hey just",
      "start": 1447.75,
      "duration": 4.029
    },
    {
      "text": "a little note if you want to go and buy",
      "start": 1450.639,
      "duration": 3.15
    },
    {
      "text": "some stuff you can go to FDR URL comm",
      "start": 1451.779,
      "duration": 4.74
    },
    {
      "text": "slash amazon to help us out",
      "start": 1453.789,
      "duration": 4.38
    },
    {
      "text": "it won't cost you anything and we get a",
      "start": 1456.519,
      "duration": 3.691
    },
    {
      "text": "little bit of coin because you can go",
      "start": 1458.169,
      "duration": 3.691
    },
    {
      "text": "through our amazon affiliate link",
      "start": 1460.21,
      "duration": 3.9
    },
    {
      "text": "freedomainradio.com slash donate to help",
      "start": 1461.86,
      "duration": 4.319
    },
    {
      "text": "out the show thank you so much for",
      "start": 1464.11,
      "duration": 3.96
    },
    {
      "text": "watching please like subscribe so yeah",
      "start": 1466.179,
      "duration": 3.331
    },
    {
      "text": "please like",
      "start": 1468.07,
      "duration": 3.87
    },
    {
      "text": "subscribe and share there I did it I",
      "start": 1469.51,
      "duration": 4.23
    },
    {
      "text": "made it and have yourselves a wonderful",
      "start": 1471.94,
      "duration": 4.85
    },
    {
      "text": "day I'll talk to you soon",
      "start": 1473.74,
      "duration": 3.05
    }
  ],
  "Errors": null,
  "TranscriptStderr": null
}