{
  "Title": "The Constitution is just a piece of paper...",
  "Id": "Gj1g3LZcf9I",
  "Transcript": [
    {
      "text": "I see Trevor rights to freedom ain't",
      "start": 0,
      "duration": 4.44
    },
    {
      "text": "ready I'll be doing YouTube responses he",
      "start": 2.939,
      "duration": 3.871
    },
    {
      "text": "says Stefan you are wrong on the",
      "start": 4.44,
      "duration": 4.47
    },
    {
      "text": "statement that the Constitution is just",
      "start": 6.81,
      "duration": 4.56
    },
    {
      "text": "a piece of paper so are other laws just",
      "start": 8.91,
      "duration": 5.07
    },
    {
      "text": "a piece of paper then there is anarchy",
      "start": 11.37,
      "duration": 7.01
    },
    {
      "text": "are you an anarchist anarchist anarchist",
      "start": 13.98,
      "duration": 8.37
    },
    {
      "text": "well if the Constitution is just a piece",
      "start": 18.38,
      "duration": 6.34
    },
    {
      "text": "of paper I mean it is sorry I mean like",
      "start": 22.35,
      "duration": 3.99
    },
    {
      "text": "a recipe is not a meal the recipe is a",
      "start": 24.72,
      "duration": 3.33
    },
    {
      "text": "piece of paper you can't eat it",
      "start": 26.34,
      "duration": 3.689
    },
    {
      "text": "it is a prescription for things I mean",
      "start": 28.05,
      "duration": 3.27
    },
    {
      "text": "nobody eats that prescription and",
      "start": 30.029,
      "duration": 2.611
    },
    {
      "text": "considers themselves cured of whatever",
      "start": 31.32,
      "duration": 2.91
    },
    {
      "text": "ailment unless their ailment is a",
      "start": 32.64,
      "duration": 3.75
    },
    {
      "text": "deficiency of rice paper and anyway I",
      "start": 34.23,
      "duration": 3.989
    },
    {
      "text": "think you get the idea",
      "start": 36.39,
      "duration": 3.84
    },
    {
      "text": "Louis no laws are not just a piece of",
      "start": 38.219,
      "duration": 4.801
    },
    {
      "text": "paper because pieces of paper are not",
      "start": 40.23,
      "duration": 8.73
    },
    {
      "text": "armed and laws are always backed up by",
      "start": 43.02,
      "duration": 8.219
    },
    {
      "text": "force and this is why I don't know",
      "start": 48.96,
      "duration": 3.66
    },
    {
      "text": "people are shocked that if you resist",
      "start": 51.239,
      "duration": 3.871
    },
    {
      "text": "arrest or run away or grab the officers",
      "start": 52.62,
      "duration": 5.189
    },
    {
      "text": "taser perhaps or attack an officer that",
      "start": 55.11,
      "duration": 4.92
    },
    {
      "text": "you're going to get shot at well yeah I",
      "start": 57.809,
      "duration": 3.901
    },
    {
      "text": "mean that's what the law is I mean",
      "start": 60.03,
      "duration": 2.88
    },
    {
      "text": "everybody says oh we should have a",
      "start": 61.71,
      "duration": 2.669
    },
    {
      "text": "regulation we should have a law we",
      "start": 62.91,
      "duration": 3.27
    },
    {
      "text": "should increase this we should they're",
      "start": 64.379,
      "duration": 4.261
    },
    {
      "text": "saying let's get more cats with guns",
      "start": 66.18,
      "duration": 5.64
    },
    {
      "text": "pointed at people and to be shot if they",
      "start": 68.64,
      "duration": 6.57
    },
    {
      "text": "disagree laws are not just good ideas or",
      "start": 71.82,
      "duration": 6.479
    },
    {
      "text": "good advice or be nice if but laws are",
      "start": 75.21,
      "duration": 5.81
    },
    {
      "text": "armed people shooting you if you don't",
      "start": 78.299,
      "duration": 6
    },
    {
      "text": "follow them to a cage right it's",
      "start": 81.02,
      "duration": 5.77
    },
    {
      "text": "legitimate kidnapping that's the deal",
      "start": 84.299,
      "duration": 4.89
    },
    {
      "text": "that's the way it is I mean I takes a",
      "start": 86.79,
      "duration": 5.219
    },
    {
      "text": "huge amount of propaganda to miss these",
      "start": 89.189,
      "duration": 5.371
    },
    {
      "text": "basic and obvious facts which is of",
      "start": 92.009,
      "duration": 3.781
    },
    {
      "text": "course the property government schools",
      "start": 94.56,
      "duration": 3
    },
    {
      "text": "don't tell you about the nature of the",
      "start": 95.79,
      "duration": 3.09
    },
    {
      "text": "state because that would reveal the",
      "start": 97.56,
      "duration": 3.54
    },
    {
      "text": "nature of the funding of the teachers",
      "start": 98.88,
      "duration": 3.629
    },
    {
      "text": "and of the administrators and of the",
      "start": 101.1,
      "duration": 3.99
    },
    {
      "text": "school and like right now in Toronto in",
      "start": 102.509,
      "duration": 4.741
    },
    {
      "text": "Ontario some teachers who are going on",
      "start": 105.09,
      "duration": 6.779
    },
    {
      "text": "strike and people have no choice they",
      "start": 107.25,
      "duration": 5.88
    },
    {
      "text": "still have to pay for the schools",
      "start": 111.869,
      "duration": 2.971
    },
    {
      "text": "because that comes out of property taxes",
      "start": 113.13,
      "duration": 3.87
    },
    {
      "text": "even those who rent and in fact in many",
      "start": 114.84,
      "duration": 5.55
    },
    {
      "text": "places I think Canada as well the",
      "start": 117,
      "duration": 6.479
    },
    {
      "text": "property taxes you pay on rental units",
      "start": 120.39,
      "duration": 4.74
    },
    {
      "text": "is even higher than you pay on condos",
      "start": 123.479,
      "duration": 4.441
    },
    {
      "text": "because it's baked into the rent people",
      "start": 125.13,
      "duration": 5.28
    },
    {
      "text": "don't notice as much and so what if the",
      "start": 127.92,
      "duration": 3.87
    },
    {
      "text": "teacher gonna say to you oh yeah",
      "start": 130.41,
      "duration": 2.939
    },
    {
      "text": "everything that's you know your heater",
      "start": 131.79,
      "duration": 2.1
    },
    {
      "text": "by force",
      "start": 133.349,
      "duration": 2.491
    },
    {
      "text": "I'm paid because of my appeal to force",
      "start": 133.89,
      "duration": 3.99
    },
    {
      "text": "your parents and other people who don't",
      "start": 135.84,
      "duration": 3.42
    },
    {
      "text": "even have kids have to pay for the",
      "start": 137.88,
      "duration": 2.7
    },
    {
      "text": "school whether they agree with it or not",
      "start": 139.26,
      "duration": 3.09
    },
    {
      "text": "whether they can set it useful or wise",
      "start": 140.58,
      "duration": 5.4
    },
    {
      "text": "or not and you know we we let you kids",
      "start": 142.35,
      "duration": 5.46
    },
    {
      "text": "out at 3:15 even though parents get off",
      "start": 145.98,
      "duration": 4.02
    },
    {
      "text": "at work at five o'clock because we have",
      "start": 147.81,
      "duration": 3.63
    },
    {
      "text": "the guns to prevent competition that",
      "start": 150,
      "duration": 2.58
    },
    {
      "text": "might make things a little bit more",
      "start": 151.44,
      "duration": 3.93
    },
    {
      "text": "convenient we don't know why you given",
      "start": 152.58,
      "duration": 4.379
    },
    {
      "text": "homework there's no proof that it does",
      "start": 155.37,
      "duration": 3.089
    },
    {
      "text": "anything other than cause family",
      "start": 156.959,
      "duration": 3.061
    },
    {
      "text": "conflict and make people hate learning",
      "start": 158.459,
      "duration": 3.931
    },
    {
      "text": "we don't know why we don't we have no",
      "start": 160.02,
      "duration": 4.86
    },
    {
      "text": "idea if you sitting in rooms and rows is",
      "start": 162.39,
      "duration": 4.89
    },
    {
      "text": "the best for you to learn we know that",
      "start": 164.88,
      "duration": 3.96
    },
    {
      "text": "it's the most convenient in the same way",
      "start": 167.28,
      "duration": 4.77
    },
    {
      "text": "that you don't ship you don't ship",
      "start": 168.84,
      "duration": 5.399
    },
    {
      "text": "individual anchovies in a Tiffany's box",
      "start": 172.05,
      "duration": 3.9
    },
    {
      "text": "you just jam as many as you can and it",
      "start": 174.239,
      "duration": 2.97
    },
    {
      "text": "squash the lid down well that's how",
      "start": 175.95,
      "duration": 3.81
    },
    {
      "text": "classrooms work we don't know if summers",
      "start": 177.209,
      "duration": 4.021
    },
    {
      "text": "off is good for you in fact we're pretty",
      "start": 179.76,
      "duration": 2.67
    },
    {
      "text": "sure it's not because it gives you a",
      "start": 181.23,
      "duration": 2.43
    },
    {
      "text": "couple of months to forget everything",
      "start": 182.43,
      "duration": 2.64
    },
    {
      "text": "that you learned and stop pretty much",
      "start": 183.66,
      "duration": 3.51
    },
    {
      "text": "from scratch the next year but we as",
      "start": 185.07,
      "duration": 3.72
    },
    {
      "text": "teachers really like our summers off and",
      "start": 187.17,
      "duration": 3.569
    },
    {
      "text": "by the way we've got the guns of the",
      "start": 188.79,
      "duration": 4.44
    },
    {
      "text": "state to prevent any competition from",
      "start": 190.739,
      "duration": 5.161
    },
    {
      "text": "any other schools that might do",
      "start": 193.23,
      "duration": 4.2
    },
    {
      "text": "something more convenient and better for",
      "start": 195.9,
      "duration": 3.6
    },
    {
      "text": "you to learn now make sure you don't use",
      "start": 197.43,
      "duration": 3.93
    },
    {
      "text": "violence to get what you want right I",
      "start": 199.5,
      "duration": 4.11
    },
    {
      "text": "mean that would just be ludicrous so",
      "start": 201.36,
      "duration": 3.75
    },
    {
      "text": "there's of course a huge amount of",
      "start": 203.61,
      "duration": 4.29
    },
    {
      "text": "propaganda that the government is not",
      "start": 205.11,
      "duration": 4.17
    },
    {
      "text": "forced that the government is some sort",
      "start": 207.9,
      "duration": 3.6
    },
    {
      "text": "of social contract or taxes that the",
      "start": 209.28,
      "duration": 3.57
    },
    {
      "text": "price we pay for living in a civilized",
      "start": 211.5,
      "duration": 4.86
    },
    {
      "text": "society and but the reality is the state",
      "start": 212.85,
      "duration": 5.609
    },
    {
      "text": "is forced some product Obama has said it",
      "start": 216.36,
      "duration": 3.689
    },
    {
      "text": "George Washington is reported to have",
      "start": 218.459,
      "duration": 3.721
    },
    {
      "text": "said it I think the state is forced the",
      "start": 220.049,
      "duration": 3.511
    },
    {
      "text": "state is violence and it is the",
      "start": 222.18,
      "duration": 3
    },
    {
      "text": "initiation of violence because everyone",
      "start": 223.56,
      "duration": 3.269
    },
    {
      "text": "has the right of self-defense but only",
      "start": 225.18,
      "duration": 2.97
    },
    {
      "text": "the state has the right to impose",
      "start": 226.829,
      "duration": 3.811
    },
    {
      "text": "unilateral pseudo contracts on people in",
      "start": 228.15,
      "duration": 4.89
    },
    {
      "text": "the form of increased taxes or taxes at",
      "start": 230.64,
      "duration": 6.03
    },
    {
      "text": "all and then just come and arrest you if",
      "start": 233.04,
      "duration": 5.16
    },
    {
      "text": "you don't pay or you know and shoot you",
      "start": 236.67,
      "duration": 4.71
    },
    {
      "text": "if you resist the state is forced so",
      "start": 238.2,
      "duration": 4.89
    },
    {
      "text": "saying that laws are just a piece of",
      "start": 241.38,
      "duration": 4.079
    },
    {
      "text": "paper is an insult to pieces of paper",
      "start": 243.09,
      "duration": 4.83
    },
    {
      "text": "which are generally pacifist although",
      "start": 245.459,
      "duration": 5.071
    },
    {
      "text": "occasionally those paper cats all back",
      "start": 247.92,
      "duration": 4.5
    },
    {
      "text": "in the day before Kindle when I was a",
      "start": 250.53,
      "duration": 4.26
    },
    {
      "text": "grad student Oh paper cuts has nothing",
      "start": 252.42,
      "duration": 4.53
    },
    {
      "text": "worse than an old dusty paper cut from",
      "start": 254.79,
      "duration": 4.229
    },
    {
      "text": "19th century books that might have TB in",
      "start": 256.95,
      "duration": 5.52
    },
    {
      "text": "them but so no yeah Louis losses our",
      "start": 259.019,
      "duration": 5.341
    },
    {
      "text": "laws our opinions with guns and the",
      "start": 262.47,
      "duration": 3.06
    },
    {
      "text": "reason I've said this before for many",
      "start": 264.36,
      "duration": 3.33
    },
    {
      "text": "years laws or opinions with guns because",
      "start": 265.53,
      "duration": 4.47
    },
    {
      "text": "nobody can tell you why law is justified",
      "start": 267.69,
      "duration": 3.9
    },
    {
      "text": "and no one can tell you why the state is",
      "start": 270,
      "duration": 3.18
    },
    {
      "text": "justified and why these particular",
      "start": 271.59,
      "duration": 3
    },
    {
      "text": "individuals have the right to initiate",
      "start": 273.18,
      "duration": 3.66
    },
    {
      "text": "force and counterfeit and borrow on",
      "start": 274.59,
      "duration": 3.93
    },
    {
      "text": "other people's behalf and impose",
      "start": 276.84,
      "duration": 3.21
    },
    {
      "text": "unilateral contracts without other",
      "start": 278.52,
      "duration": 3.54
    },
    {
      "text": "people's consent and do all the things",
      "start": 280.05,
      "duration": 3.6
    },
    {
      "text": "that are completely illegal to everyone",
      "start": 282.06,
      "duration": 4.8
    },
    {
      "text": "and not inside the black and buyers fear",
      "start": 283.65,
      "duration": 4.8
    },
    {
      "text": "bubble of evil power known as the state",
      "start": 286.86,
      "duration": 4.5
    },
    {
      "text": "no one can tell any of these things to",
      "start": 288.45,
      "duration": 4.65
    },
    {
      "text": "anyone because they make absolutely no",
      "start": 291.36,
      "duration": 4.2
    },
    {
      "text": "rational sense whatsoever or moral sense",
      "start": 293.1,
      "duration": 4.56
    },
    {
      "text": "so their opinions in that they're",
      "start": 295.56,
      "duration": 3.84
    },
    {
      "text": "unfounded in philosophy but their",
      "start": 297.66,
      "duration": 3.48
    },
    {
      "text": "opinions with guns because if you",
      "start": 299.4,
      "duration": 4.32
    },
    {
      "text": "disagree with the state and you act upon",
      "start": 301.14,
      "duration": 5.97
    },
    {
      "text": "that disagreement you're likely solution",
      "start": 303.72,
      "duration": 5.13
    },
    {
      "text": "is not in a voting booth but in a pine",
      "start": 307.11,
      "duration": 5.49
    },
    {
      "text": "box rotting for eternity so it's anarchy",
      "start": 308.85,
      "duration": 6.63
    },
    {
      "text": "are you an anarchist well remember who",
      "start": 312.6,
      "duration": 4.23
    },
    {
      "text": "has given you the emotional associations",
      "start": 315.48,
      "duration": 4.38
    },
    {
      "text": "of Anarchy why without the government",
      "start": 316.83,
      "duration": 5.46
    },
    {
      "text": "there'd be anarchy and of course you're",
      "start": 319.86,
      "duration": 4.62
    },
    {
      "text": "told that anarchy is all chaos and",
      "start": 322.29,
      "duration": 4.32
    },
    {
      "text": "madness and violence and all that kind",
      "start": 324.48,
      "duration": 3.18
    },
    {
      "text": "of stuff and of course the government's",
      "start": 326.61,
      "duration": 3
    },
    {
      "text": "gonna he's gonna tell you that of course",
      "start": 327.66,
      "duration": 3.75
    },
    {
      "text": "not I mean there's not a lot of",
      "start": 329.61,
      "duration": 4.47
    },
    {
      "text": "insurance company advertisements that",
      "start": 331.41,
      "duration": 4.5
    },
    {
      "text": "says and you'll probably find you may",
      "start": 334.08,
      "duration": 3.57
    },
    {
      "text": "only make money because the stuffs not",
      "start": 335.91,
      "duration": 3.36
    },
    {
      "text": "going to happen to you for the most part",
      "start": 337.65,
      "duration": 3.51
    },
    {
      "text": "I mean it's just not what they do",
      "start": 339.27,
      "duration": 5.94
    },
    {
      "text": "and so whatever the government tells you",
      "start": 341.16,
      "duration": 7.23
    },
    {
      "text": "is really bad you might be interested in",
      "start": 345.21,
      "duration": 5.4
    },
    {
      "text": "looking to it all Anarchy means is",
      "start": 348.39,
      "duration": 3.45
    },
    {
      "text": "without rulers doesn't mean without",
      "start": 350.61,
      "duration": 3.48
    },
    {
      "text": "rules in fact when you have rulers you",
      "start": 351.84,
      "duration": 3.72
    },
    {
      "text": "don't have rules because you're subject",
      "start": 354.09,
      "duration": 3.21
    },
    {
      "text": "to the arbitrary whims of the rulers",
      "start": 355.56,
      "duration": 3.6
    },
    {
      "text": "look at the implementation of Obamacare",
      "start": 357.3,
      "duration": 4.89
    },
    {
      "text": "you know you can keep your doctors your",
      "start": 359.16,
      "duration": 5.73
    },
    {
      "text": "premiums will decrease I mean the number",
      "start": 362.19,
      "duration": 5.49
    },
    {
      "text": "of lies you can keep your plan they just",
      "start": 364.89,
      "duration": 6.36
    },
    {
      "text": "lied about the whole thing and people",
      "start": 367.68,
      "duration": 8.1
    },
    {
      "text": "voted on things that they rulers and the",
      "start": 371.25,
      "duration": 6.87
    },
    {
      "text": "elites knew at the time we're completely",
      "start": 375.78,
      "duration": 5.7
    },
    {
      "text": "false and so how on earth is that not",
      "start": 378.12,
      "duration": 6.15
    },
    {
      "text": "the imposition of just arbitrary whims",
      "start": 381.48,
      "duration": 4.98
    },
    {
      "text": "rather than any kind of rules if you",
      "start": 384.27,
      "duration": 4.02
    },
    {
      "text": "change your mind later you can't undo it",
      "start": 386.46,
      "duration": 4.74
    },
    {
      "text": "so it's like me selling stuff there's a",
      "start": 388.29,
      "duration": 6.27
    },
    {
      "text": "box that says iPad and inside is a",
      "start": 391.2,
      "duration": 6.089
    },
    {
      "text": "scorpion on cocaine and you can't return",
      "start": 394.56,
      "duration": 5.25
    },
    {
      "text": "it and then I say look I'm a good",
      "start": 397.289,
      "duration": 3.391
    },
    {
      "text": "businessman",
      "start": 399.81,
      "duration": 3.56
    },
    {
      "text": "like no you're a fraud and a danger and",
      "start": 400.68,
      "duration": 6.299
    },
    {
      "text": "should be put out of business so Anarchy",
      "start": 403.37,
      "duration": 5.5
    },
    {
      "text": "simply means without rulers in other",
      "start": 406.979,
      "duration": 3.451
    },
    {
      "text": "words we get to negotiate we get to",
      "start": 408.87,
      "duration": 3.66
    },
    {
      "text": "appoint third parties on how to resolve",
      "start": 410.43,
      "duration": 4.53
    },
    {
      "text": "and negotiate our disputes that's all it",
      "start": 412.53,
      "duration": 5.25
    },
    {
      "text": "means in the same way that lovemaking",
      "start": 414.96,
      "duration": 6.57
    },
    {
      "text": "means not rape right anarchy means no",
      "start": 417.78,
      "duration": 6.66
    },
    {
      "text": "centralized institution of violence that",
      "start": 421.53,
      "duration": 5.55
    },
    {
      "text": "gets to shoot anyone who disagrees with",
      "start": 424.44,
      "duration": 4.02
    },
    {
      "text": "its whims which is really the definition",
      "start": 427.08,
      "duration": 3.36
    },
    {
      "text": "of the state that's all anarchy means is",
      "start": 428.46,
      "duration": 3.329
    },
    {
      "text": "we negotiate with each other you know",
      "start": 430.44,
      "duration": 3.72
    },
    {
      "text": "like reasonable sensible adult human",
      "start": 431.789,
      "duration": 3.451
    },
    {
      "text": "beings and those who don't want to",
      "start": 434.16,
      "duration": 3.33
    },
    {
      "text": "negotiate will have sanctions against",
      "start": 435.24,
      "duration": 3.989
    },
    {
      "text": "them and I've written about this you can",
      "start": 437.49,
      "duration": 4.14
    },
    {
      "text": "actually read more at freedomain blog",
      "start": 439.229,
      "duration": 4.921
    },
    {
      "text": "spot.com a look at feed 1 this was right",
      "start": 441.63,
      "duration": 4.379
    },
    {
      "text": "at the beginning of this show lo those",
      "start": 444.15,
      "duration": 4.199
    },
    {
      "text": "many years ago when I had four and a",
      "start": 446.009,
      "duration": 5.13
    },
    {
      "text": "half more hairs but all in my nose so it",
      "start": 448.349,
      "duration": 6.271
    },
    {
      "text": "was a mixed bag so it just means no",
      "start": 451.139,
      "duration": 5.641
    },
    {
      "text": "rulers which means you actually do get",
      "start": 454.62,
      "duration": 5.07
    },
    {
      "text": "to have rules like if we're playing",
      "start": 456.78,
      "duration": 6.24
    },
    {
      "text": "chess and there's a third party who can",
      "start": 459.69,
      "duration": 4.71
    },
    {
      "text": "just make up whatever rules they want",
      "start": 463.02,
      "duration": 3.51
    },
    {
      "text": "based upon whatever we give him in terms",
      "start": 464.4,
      "duration": 3.93
    },
    {
      "text": "of money you're like if I give him five",
      "start": 466.53,
      "duration": 3.78
    },
    {
      "text": "bucks he'll say oh yeah you know Steph's",
      "start": 468.33,
      "duration": 4.89
    },
    {
      "text": "rook can move diagonally you know or the",
      "start": 470.31,
      "duration": 4.68
    },
    {
      "text": "horse can move diagonally or in straight",
      "start": 473.22,
      "duration": 4.71
    },
    {
      "text": "lines or the king can take two spaces",
      "start": 474.99,
      "duration": 4.83
    },
    {
      "text": "instead of one or whatever right there",
      "start": 477.93,
      "duration": 4.44
    },
    {
      "text": "the Queen can burrow and come up like",
      "start": 479.82,
      "duration": 3.92
    },
    {
      "text": "something out of Frank Herbert's dune",
      "start": 482.37,
      "duration": 5.22
    },
    {
      "text": "right so if if you and I didn't didn't",
      "start": 483.74,
      "duration": 5.38
    },
    {
      "text": "know what the rules were in terms of",
      "start": 487.59,
      "duration": 3.329
    },
    {
      "text": "playing chess but whoever we gave the",
      "start": 489.12,
      "duration": 3.06
    },
    {
      "text": "money to there's some guy who was",
      "start": 490.919,
      "duration": 3.631
    },
    {
      "text": "judging our moves as legal or not and we",
      "start": 492.18,
      "duration": 4.29
    },
    {
      "text": "just paid him money and then whoever",
      "start": 494.55,
      "duration": 3.899
    },
    {
      "text": "gave him the most money and made him",
      "start": 496.47,
      "duration": 3.689
    },
    {
      "text": "feel the best and praised him or stroke",
      "start": 498.449,
      "duration": 3.96
    },
    {
      "text": "his ego would get a ruling in then we",
      "start": 500.159,
      "duration": 4.141
    },
    {
      "text": "would say fundamentally we're not",
      "start": 502.409,
      "duration": 4.32
    },
    {
      "text": "playing chess with any rules you know",
      "start": 504.3,
      "duration": 4.13
    },
    {
      "text": "we're playing chess with a bribed",
      "start": 506.729,
      "duration": 5.25
    },
    {
      "text": "arbiter right we would not recognize",
      "start": 508.43,
      "duration": 4.96
    },
    {
      "text": "that there are any rules in chess right",
      "start": 511.979,
      "duration": 4.291
    },
    {
      "text": "as the same thing with the state the",
      "start": 513.39,
      "duration": 5.73
    },
    {
      "text": "state mediates conflicts are based upon",
      "start": 516.27,
      "duration": 6.03
    },
    {
      "text": "political expediency bribes media",
      "start": 519.12,
      "duration": 5.37
    },
    {
      "text": "attention positive or negative feedback",
      "start": 522.3,
      "duration": 4.8
    },
    {
      "text": "the Internet campaign donations over the",
      "start": 524.49,
      "duration": 5.58
    },
    {
      "text": "draw I mean this is how this quote",
      "start": 527.1,
      "duration": 4.979
    },
    {
      "text": "disputes are mediated in society there's",
      "start": 530.07,
      "duration": 4.23
    },
    {
      "text": "a third party who's completely corrupt",
      "start": 532.079,
      "duration": 3.991
    },
    {
      "text": "and nobody knows ahead of time what the",
      "start": 534.3,
      "duration": 4.83
    },
    {
      "text": "rules are going to be so that is actual",
      "start": 536.07,
      "duration": 4.68
    },
    {
      "text": "anarchy like if you tried to play chess",
      "start": 539.13,
      "duration": 2.76
    },
    {
      "text": "like that people were like well that's",
      "start": 540.75,
      "duration": 2.79
    },
    {
      "text": "crazy there's no rules you can't play",
      "start": 541.89,
      "duration": 4.8
    },
    {
      "text": "like that hello welcome to having a",
      "start": 543.54,
      "duration": 7.47
    },
    {
      "text": "government in your midst so I'm into",
      "start": 546.69,
      "duration": 6.089
    },
    {
      "text": "love making lot right not right you know",
      "start": 551.01,
      "duration": 2.94
    },
    {
      "text": "make love not war",
      "start": 552.779,
      "duration": 3.391
    },
    {
      "text": "and that is the motto in the sense of",
      "start": 553.95,
      "duration": 4.889
    },
    {
      "text": "the anarchists in that we say you can't",
      "start": 556.17,
      "duration": 4.32
    },
    {
      "text": "play chess with a completely corrupt",
      "start": 558.839,
      "duration": 3.511
    },
    {
      "text": "arbiter you have to negotiate with each",
      "start": 560.49,
      "duration": 3.48
    },
    {
      "text": "other accept the rules and anybody who",
      "start": 562.35,
      "duration": 3.21
    },
    {
      "text": "doesn't want to play by your rules or",
      "start": 563.97,
      "duration": 3.299
    },
    {
      "text": "reasonable rules you don't have to play",
      "start": 565.56,
      "duration": 3.33
    },
    {
      "text": "with them you take your chessboard and",
      "start": 567.269,
      "duration": 2.581
    },
    {
      "text": "go home",
      "start": 568.89,
      "duration": 4.97
    },
    {
      "text": "so I hope that helps with that",
      "start": 569.85,
      "duration": 4.01
    }
  ],
  "Errors": null,
  "TranscriptStderr": null
}