[
    {
        "start": "0",
        "dur": "4.79",
        "text": "so there's this immense charade going on"
    },
    {
        "start": "3",
        "dur": "5.34",
        "text": "at the moment which is the pretense that"
    },
    {
        "start": "4.79",
        "dur": "6.37",
        "text": "the existing Democratic fascistic system"
    },
    {
        "start": "8.34",
        "dur": "4.77",
        "text": "can actually sustain itself and this"
    },
    {
        "start": "11.16",
        "dur": "3.96",
        "text": "charade is really centered around the"
    },
    {
        "start": "13.11",
        "dur": "4.2",
        "text": "issue of deficits so you've seen this"
    },
    {
        "start": "15.12",
        "dur": "4.59",
        "text": "like a million times you get some"
    },
    {
        "start": "17.31",
        "dur": "3.629",
        "text": "politician on a talk show and the talk"
    },
    {
        "start": "19.71",
        "dur": "3.09",
        "text": "show host says well what are you going"
    },
    {
        "start": "20.939",
        "dur": "4.26",
        "text": "to cut from the government and the"
    },
    {
        "start": "22.8",
        "dur": "5.67",
        "text": "politician won't ever give a specific"
    },
    {
        "start": "25.199",
        "dur": "5.761",
        "text": "answer our general cats or cats and the"
    },
    {
        "start": "28.47",
        "dur": "4.08",
        "text": "growth of entitlements and so on but no"
    },
    {
        "start": "30.96",
        "dur": "3.63",
        "text": "politician will ever say specifically"
    },
    {
        "start": "32.55",
        "dur": "4.5",
        "text": "what he or she is going to cut and the"
    },
    {
        "start": "34.59",
        "dur": "4.53",
        "text": "reason for that is obvious to anyone"
    },
    {
        "start": "37.05",
        "dur": "4.11",
        "text": "with half a brain cell the reason that"
    },
    {
        "start": "39.12",
        "dur": "3.39",
        "text": "people won't say what's going to be cat"
    },
    {
        "start": "41.16",
        "dur": "5.16",
        "text": "in the government is the moment that you"
    },
    {
        "start": "42.51",
        "dur": "6.42",
        "text": "say X is going to be cat then everybody"
    },
    {
        "start": "46.32",
        "dur": "4.23",
        "text": "who receives money from X is going to"
    },
    {
        "start": "48.93",
        "dur": "3.24",
        "text": "start campaigning like mad against you"
    },
    {
        "start": "50.55",
        "dur": "4.02",
        "text": "so if you say we're going to cut the"
    },
    {
        "start": "52.17",
        "dur": "4.02",
        "text": "post office budget by 100 million"
    },
    {
        "start": "54.57",
        "dur": "3.14",
        "text": "dollars then the post office union will"
    },
    {
        "start": "56.19",
        "dur": "4.02",
        "text": "spend at least a hundred million dollars"
    },
    {
        "start": "57.71",
        "dur": "4.329",
        "text": "campaigning against you if we say we're"
    },
    {
        "start": "60.21",
        "dur": "4.339",
        "text": "going to cut the benefits of a"
    },
    {
        "start": "62.039",
        "dur": "4.26",
        "text": "particular group of public servants then"
    },
    {
        "start": "64.549",
        "dur": "3.551",
        "text": "immediately those people will go"
    },
    {
        "start": "66.299",
        "dur": "3.811",
        "text": "hog-wild in making sure that you don't"
    },
    {
        "start": "68.1",
        "dur": "4.35",
        "text": "get elected and that's just a basic"
    },
    {
        "start": "70.11",
        "dur": "3.78",
        "text": "reality of an imbalance of incentives"
    },
    {
        "start": "72.45",
        "dur": "4.14",
        "text": "that can't ever be discussed or pointed"
    },
    {
        "start": "73.89",
        "dur": "4.92",
        "text": "out in the existing system because the"
    },
    {
        "start": "76.59",
        "dur": "4.26",
        "text": "moment it is pointed out the moment that"
    },
    {
        "start": "78.81",
        "dur": "3.15",
        "text": "people realize that if you're going to"
    },
    {
        "start": "80.85",
        "dur": "3.24",
        "text": "cut the budget of some particular"
    },
    {
        "start": "81.96",
        "dur": "3.57",
        "text": "government agency by 100 million dollars"
    },
    {
        "start": "84.09",
        "dur": "3.3",
        "text": "and that agency has a hundred million"
    },
    {
        "start": "85.53",
        "dur": "4.5",
        "text": "dollars worth of incentive to campaign"
    },
    {
        "start": "87.39",
        "dur": "5.1",
        "text": "against you whereas the average American"
    },
    {
        "start": "90.03",
        "dur": "5.1",
        "text": "has no incentive whatsoever to spend"
    },
    {
        "start": "92.49",
        "dur": "4.739",
        "text": "even one thin dime supporting the"
    },
    {
        "start": "95.13",
        "dur": "3.72",
        "text": "measure then we understand that this"
    },
    {
        "start": "97.229",
        "dur": "3.39",
        "text": "imbalance of incentives means that the"
    },
    {
        "start": "98.85",
        "dur": "3.949",
        "text": "system is going to forever grow until it"
    },
    {
        "start": "100.619",
        "dur": "4.32",
        "text": "collapses and there's no possibility are"
    },
    {
        "start": "102.799",
        "dur": "3.701",
        "text": "reforming it because people respond to"
    },
    {
        "start": "104.939",
        "dur": "3.54",
        "text": "incentives right to basic principles of"
    },
    {
        "start": "106.5",
        "dur": "3.93",
        "text": "economics one people respond to"
    },
    {
        "start": "108.479",
        "dur": "3.331",
        "text": "incentives and to all desires are"
    },
    {
        "start": "110.43",
        "dur": "3.54",
        "text": "infinite and all resources are finite"
    },
    {
        "start": "111.81",
        "dur": "4.019",
        "text": "which is why you need allocation"
    },
    {
        "start": "113.97",
        "dur": "3.32",
        "text": "algorithms like the free market for much"
    },
    {
        "start": "115.829",
        "dur": "4.221",
        "text": "of a better phrase"
    },
    {
        "start": "117.29",
        "dur": "6.27",
        "text": "and the tax cuts fall into this paradigm"
    },
    {
        "start": "120.05",
        "dur": "5.82",
        "text": "very clearly so Democrats are against"
    },
    {
        "start": "123.56",
        "dur": "3.66",
        "text": "the tax cuts and Republicans are for the"
    },
    {
        "start": "125.87",
        "dur": "3.05",
        "text": "tax cuts and that's for very simple"
    },
    {
        "start": "127.22",
        "dur": "4.2",
        "text": "reasons to do with their constituency"
    },
    {
        "start": "128.92",
        "dur": "5.11",
        "text": "there are two basic classes of people"
    },
    {
        "start": "131.42",
        "dur": "5.79",
        "text": "who feed off the middle class or the"
    },
    {
        "start": "134.03",
        "dur": "5.61",
        "text": "productive classes in a state of society"
    },
    {
        "start": "137.21",
        "dur": "4.98",
        "text": "the first you can call them the leeches"
    },
    {
        "start": "139.64",
        "dur": "3.99",
        "text": "because they steal the blood as a whole"
    },
    {
        "start": "142.19",
        "dur": "3.72",
        "text": "and you can't really feel them and"
    },
    {
        "start": "143.63",
        "dur": "4.11",
        "text": "that's the banking classes and the"
    },
    {
        "start": "145.91",
        "dur": "4.86",
        "text": "moneyed classes and the classes who"
    },
    {
        "start": "147.74",
        "dur": "5.49",
        "text": "benefit from the manipulations of"
    },
    {
        "start": "150.77",
        "dur": "3.81",
        "text": "currency and our interest rates from the"
    },
    {
        "start": "153.23",
        "dur": "5.1",
        "text": "Federal Reserve you can't really see"
    },
    {
        "start": "154.58",
        "dur": "6.12",
        "text": "them and they take from the money system"
    },
    {
        "start": "158.33",
        "dur": "3.81",
        "text": "as a whole and they end up owning"
    },
    {
        "start": "160.7",
        "dur": "3.39",
        "text": "everyone through debt enslavement"
    },
    {
        "start": "162.14",
        "dur": "4.08",
        "text": "through national debts and so on to look"
    },
    {
        "start": "164.09",
        "dur": "3.48",
        "text": "at those are the leeches on the other"
    },
    {
        "start": "166.22",
        "dur": "2.82",
        "text": "side you have the parasites and the"
    },
    {
        "start": "167.57",
        "dur": "3.24",
        "text": "parasites are much more visible they're"
    },
    {
        "start": "169.04",
        "dur": "4.29",
        "text": "the people who benefit specifically from"
    },
    {
        "start": "170.81",
        "dur": "5.73",
        "text": "government spending and those are in"
    },
    {
        "start": "173.33",
        "dur": "4.89",
        "text": "public sector union employees those are"
    },
    {
        "start": "176.54",
        "dur": "4.83",
        "text": "welfare recipients Social Security"
    },
    {
        "start": "178.22",
        "dur": "6.87",
        "text": "recipients and so on and their income in"
    },
    {
        "start": "181.37",
        "dur": "6.089",
        "text": "a cash from the state to the citizen way"
    },
    {
        "start": "185.09",
        "dur": "4.35",
        "text": "like in a check way is dependent upon"
    },
    {
        "start": "187.459",
        "dur": "4.861",
        "text": "the extension and expansion of state"
    },
    {
        "start": "189.44",
        "dur": "4.019",
        "text": "programs forever and so if you want to"
    },
    {
        "start": "192.32",
        "dur": "3.419",
        "text": "understand the American political system"
    },
    {
        "start": "193.459",
        "dur": "4.831",
        "text": "all you need to understand is that the"
    },
    {
        "start": "195.739",
        "dur": "4.201",
        "text": "Republicans represent the leeches or the"
    },
    {
        "start": "198.29",
        "dur": "4.229",
        "text": "banking classes or the financial classes"
    },
    {
        "start": "199.94",
        "dur": "4.89",
        "text": "and the Democrats represent the"
    },
    {
        "start": "202.519",
        "dur": "4.141",
        "text": "parasites who are public sector unions"
    },
    {
        "start": "204.83",
        "dur": "4.469",
        "text": "and people who specifically receive"
    },
    {
        "start": "206.66",
        "dur": "5.67",
        "text": "government checks now the Democrats"
    },
    {
        "start": "209.299",
        "dur": "5.641",
        "text": "opposed the tax cuts because tax cuts"
    },
    {
        "start": "212.33",
        "dur": "4.56",
        "text": "mean that there will be eventual"
    },
    {
        "start": "214.94",
        "dur": "5.7",
        "text": "spending cuts and spending cats means"
    },
    {
        "start": "216.89",
        "dur": "5.52",
        "text": "that the constituency of the Democrats"
    },
    {
        "start": "220.64",
        "dur": "3.99",
        "text": "which is the public sector unions and"
    },
    {
        "start": "222.41",
        "dur": "3.99",
        "text": "recipients of government aid the"
    },
    {
        "start": "224.63",
        "dur": "3.96",
        "text": "parasites who the Democrats represent"
    },
    {
        "start": "226.4",
        "dur": "4.14",
        "text": "will be harmed if government spending is"
    },
    {
        "start": "228.59",
        "dur": "3.42",
        "text": "cut so they want to keep taxes as high"
    },
    {
        "start": "230.54",
        "dur": "4.34",
        "text": "as possible to pay off the parasite"
    },
    {
        "start": "232.01",
        "dur": "5.4",
        "text": "class who funds and supports their"
    },
    {
        "start": "234.88",
        "dur": "5.41",
        "text": "there are money classes the bankers the"
    },
    {
        "start": "237.41",
        "dur": "5.58",
        "text": "financial classes the leeches well they"
    },
    {
        "start": "240.29",
        "dur": "4.41",
        "text": "want the tax cuts because that's to"
    },
    {
        "start": "242.99",
        "dur": "3.69",
        "text": "their specific interest it has nothing"
    },
    {
        "start": "244.7",
        "dur": "4.61",
        "text": "to do with any preference for helping"
    },
    {
        "start": "246.68",
        "dur": "4.86",
        "text": "the poor or helping the old or"
    },
    {
        "start": "249.31",
        "dur": "5.92",
        "text": "stimulating the economy through tax cuts"
    },
    {
        "start": "251.54",
        "dur": "5.669",
        "text": "all it is is a mirror paying off the"
    },
    {
        "start": "255.23",
        "dur": "4.14",
        "text": "group who got you into power the"
    },
    {
        "start": "257.209",
        "dur": "3.601",
        "text": "parasites and the leeches and there's"
    },
    {
        "start": "259.37",
        "dur": "4.38",
        "text": "really nothing else to think about in"
    },
    {
        "start": "260.81",
        "dur": "4.62",
        "text": "terms of these tax cuts because there's"
    },
    {
        "start": "263.75",
        "dur": "3.99",
        "text": "this man fits our myth that's floating"
    },
    {
        "start": "265.43",
        "dur": "4.26",
        "text": "around that austerity is coming to"
    },
    {
        "start": "267.74",
        "dur": "3.6",
        "text": "government austerity is come with"
    },
    {
        "start": "269.69",
        "dur": "4.56",
        "text": "government which is sort of like saying"
    },
    {
        "start": "271.34",
        "dur": "4.68",
        "text": "if you know a guy who's 500 pounds and"
    },
    {
        "start": "274.25",
        "dur": "5.7",
        "text": "who eats fifteen thousand calories a day"
    },
    {
        "start": "276.02",
        "dur": "5.91",
        "text": "that if you can get his diet down to 14"
    },
    {
        "start": "279.95",
        "dur": "4.29",
        "text": "thousand calories a day that somehow"
    },
    {
        "start": "281.93",
        "dur": "4.44",
        "text": "he's starving if government could be"
    },
    {
        "start": "284.24",
        "dur": "5.13",
        "text": "cat-like by eighty percent would be been"
    },
    {
        "start": "286.37",
        "dur": "6.03",
        "text": "out where it was relative to GDP in the"
    },
    {
        "start": "289.37",
        "dur": "5.84",
        "text": "60s when society did seem to function"
    },
    {
        "start": "292.4",
        "dur": "5.76",
        "text": "relatively well so the idea that"
    },
    {
        "start": "295.21",
        "dur": "4.57",
        "text": "government cats are cuts to spending in"
    },
    {
        "start": "298.16",
        "dur": "3.259",
        "text": "government departments or to government"
    },
    {
        "start": "299.78",
        "dur": "4.71",
        "text": "budgets it's somehow austerity is"
    },
    {
        "start": "301.419",
        "dur": "5.111",
        "text": "completely insane it's ridiculous but"
    },
    {
        "start": "304.49",
        "dur": "3.96",
        "text": "it's the lie that is propagated by"
    },
    {
        "start": "306.53",
        "dur": "4.62",
        "text": "people in power to frighten everyone"
    },
    {
        "start": "308.45",
        "dur": "4.38",
        "text": "with a imaginary belt-tightening that"
    },
    {
        "start": "311.15",
        "dur": "3.39",
        "text": "really doesn't exist there's also this"
    },
    {
        "start": "312.83",
        "dur": "5.1",
        "text": "myth around which is quite funny and"
    },
    {
        "start": "314.54",
        "dur": "5.16",
        "text": "ridiculous which is that the tax cuts"
    },
    {
        "start": "317.93",
        "dur": "4.94",
        "text": "are going to increase government"
    },
    {
        "start": "319.7",
        "dur": "6.06",
        "text": "deficits so they say if the tax cuts are"
    },
    {
        "start": "322.87",
        "dur": "4.81",
        "text": "extended then the Treasury is going to"
    },
    {
        "start": "325.76",
        "dur": "3.54",
        "text": "end up with that much less money which"
    },
    {
        "start": "327.68",
        "dur": "4.32",
        "text": "is automatically and immediately going"
    },
    {
        "start": "329.3",
        "dur": "5.46",
        "text": "to add to the government deficit and the"
    },
    {
        "start": "332",
        "dur": "4.32",
        "text": "national debt I mean how ridiculous is"
    },
    {
        "start": "334.76",
        "dur": "3.45",
        "text": "that of it it's an embarrassing"
    },
    {
        "start": "336.32",
        "dur": "3.3",
        "text": "statement for people to make it's even"
    },
    {
        "start": "338.21",
        "dur": "3",
        "text": "more embarrassing for people to print it"
    },
    {
        "start": "339.62",
        "dur": "4.38",
        "text": "and it's even more embarrassing for"
    },
    {
        "start": "341.21",
        "dur": "5.61",
        "text": "people to accept it if you're expecting"
    },
    {
        "start": "344",
        "dur": "6.479",
        "text": "a raise of five thousand dollars next"
    },
    {
        "start": "346.82",
        "dur": "5.52",
        "text": "year and you don't get that raise does"
    },
    {
        "start": "350.479",
        "dur": "3.991",
        "text": "that immediately mean that you're going"
    },
    {
        "start": "352.34",
        "dur": "3.84",
        "text": "to be in debt and extra five thousand"
    },
    {
        "start": "354.47",
        "dur": "4.05",
        "text": "dollars next year well of course not if"
    },
    {
        "start": "356.18",
        "dur": "4.83",
        "text": "you don't get the raise all that happens"
    },
    {
        "start": "358.52",
        "dur": "3.54",
        "text": "is you don't spend the five thousand"
    },
    {
        "start": "361.01",
        "dur": "3.39",
        "text": "dollars that you were going to get in"
    },
    {
        "start": "362.06",
        "dur": "5.19",
        "text": "the race so the idea that there's some"
    },
    {
        "start": "364.4",
        "dur": "4.44",
        "text": "connection between an extension of the"
    },
    {
        "start": "367.25",
        "dur": "3.57",
        "text": "tax cuts and an automatic"
    },
    {
        "start": "368.84",
        "dur": "4.26",
        "text": "increase in government's bed begin it's"
    },
    {
        "start": "370.82",
        "dur": "3.51",
        "text": "completely lunatic you and I if we don't"
    },
    {
        "start": "373.1",
        "dur": "3.8",
        "text": "get extra money we just don't spend it"
    },
    {
        "start": "374.33",
        "dur": "4.74",
        "text": "but it is an indictment which says that"
    },
    {
        "start": "376.9",
        "dur": "4.72",
        "text": "government spending is going to increase"
    },
    {
        "start": "379.07",
        "dur": "6.629",
        "text": "no matter what no matter what no matter"
    },
    {
        "start": "381.62",
        "dur": "5.79",
        "text": "what and if we don't get tax increases"
    },
    {
        "start": "385.699",
        "dur": "3.181",
        "text": "then the spending is simply going to"
    },
    {
        "start": "387.41",
        "dur": "3.9",
        "text": "slip into deficit in other words there's"
    },
    {
        "start": "388.88",
        "dur": "4.319",
        "text": "no conceivable way to stop the growth of"
    },
    {
        "start": "391.31",
        "dur": "3.84",
        "text": "government spending and so we need the"
    },
    {
        "start": "393.199",
        "dur": "3.72",
        "text": "tax increases to cover that spending"
    },
    {
        "start": "395.15",
        "dur": "4.26",
        "text": "which is a complete indictment of the"
    },
    {
        "start": "396.919",
        "dur": "3.841",
        "text": "complete lack of control that society"
    },
    {
        "start": "399.41",
        "dur": "3.69",
        "text": "has over the increase in government"
    },
    {
        "start": "400.76",
        "dur": "3.81",
        "text": "because of the mismatch of incentives we"
    },
    {
        "start": "403.1",
        "dur": "3.06",
        "text": "talked about earlier these are just"
    },
    {
        "start": "404.57",
        "dur": "3.51",
        "text": "things to note and to point out"
    },
    {
        "start": "406.16",
        "dur": "4.83",
        "text": "particularly the fact that it's not"
    },
    {
        "start": "408.08",
        "dur": "6.559",
        "text": "noted and not pointed out in the"
    },
    {
        "start": "410.99",
        "dur": "3.649",
        "text": "mainstream media"
    }
]