[
    {
        "start": "0",
        "dur": "4.23",
        "text": "hi everybody it's the 10 molyneux from"
    },
    {
        "start": "1.86",
        "dur": "4.229",
        "text": "freedomain radio couple of newsy little"
    },
    {
        "start": "4.23",
        "dur": "4.199",
        "text": "items for you today just some thoughts"
    },
    {
        "start": "6.089",
        "dur": "4.791",
        "text": "about what's going on in the world of"
    },
    {
        "start": "8.429",
        "dur": "5.641",
        "text": "politics particularly in the US but"
    },
    {
        "start": "10.88",
        "dur": "5.229",
        "text": "we've got a try factor of sexual"
    },
    {
        "start": "14.07",
        "dur": "4.65",
        "text": "scandals I guess going on at the moment"
    },
    {
        "start": "16.109",
        "dur": "4.59",
        "text": "the Sperminator arnold schwarzenegger"
    },
    {
        "start": "18.72",
        "dur": "5.819",
        "text": "having fathered a child by his"
    },
    {
        "start": "20.699",
        "dur": "5.611",
        "text": "housekeeper for about 10 years had the"
    },
    {
        "start": "24.539",
        "dur": "3.721",
        "text": "child pretty much living in his house"
    },
    {
        "start": "26.31",
        "dur": "3.629",
        "text": "had his wife send money and gifts to the"
    },
    {
        "start": "28.26",
        "dur": "3.21",
        "text": "housekeeper into the child and told no"
    },
    {
        "start": "29.939",
        "dur": "4.411",
        "text": "one and of course was running on the"
    },
    {
        "start": "31.47",
        "dur": "5.249",
        "text": "family values platform on the Republican"
    },
    {
        "start": "34.35",
        "dur": "5.07",
        "text": "Party during his campaign for the"
    },
    {
        "start": "36.719",
        "dur": "5.311",
        "text": "governorship of California that's really"
    },
    {
        "start": "39.42",
        "dur": "4.319",
        "text": "quite understanding thing I have trouble"
    },
    {
        "start": "42.03",
        "dur": "3.36",
        "text": "keeping any kind of secret from my wife"
    },
    {
        "start": "43.739",
        "dur": "4.381",
        "text": "like if I'm planning a surprise for her"
    },
    {
        "start": "45.39",
        "dur": "4.02",
        "text": "I really have a tough time having a"
    },
    {
        "start": "48.12",
        "dur": "3.06",
        "text": "child of mine running around the house"
    },
    {
        "start": "49.41",
        "dur": "3.719",
        "text": "playing with my kids and keeping that"
    },
    {
        "start": "51.18",
        "dur": "6.929",
        "text": "secret from her and from the populace at"
    },
    {
        "start": "53.129",
        "dur": "6.721",
        "text": "large takes a pretty unusual and i would"
    },
    {
        "start": "58.109",
        "dur": "3.391",
        "text": "say pathological personality there's a"
    },
    {
        "start": "59.85",
        "dur": "3.36",
        "text": "conversation in that almost everything"
    },
    {
        "start": "61.5",
        "dur": "3.869",
        "text": "that happens in life is a conversation"
    },
    {
        "start": "63.21",
        "dur": "5.46",
        "text": "of one kind or another so we'll talk"
    },
    {
        "start": "65.369",
        "dur": "6.991",
        "text": "about that as well dominique strauss can"
    },
    {
        "start": "68.67",
        "dur": "7.26",
        "text": "accused of sexual assault and forced"
    },
    {
        "start": "72.36",
        "dur": "7.619",
        "text": "oral sex with I guess an African woman"
    },
    {
        "start": "75.93",
        "dur": "5.43",
        "text": "who was a maid who was came into his his"
    },
    {
        "start": "79.979",
        "dur": "3.03",
        "text": "hotel room while he was in the bathroom"
    },
    {
        "start": "81.36",
        "dur": "4.649",
        "text": "probably masturbating if all of this is"
    },
    {
        "start": "83.009",
        "dur": "4.561",
        "text": "true again something quite important"
    },
    {
        "start": "86.009",
        "dur": "4.831",
        "text": "this is only alleged so we'll see how"
    },
    {
        "start": "87.57",
        "dur": "6.479",
        "text": "this plays out the third one of course"
    },
    {
        "start": "90.84",
        "dur": "7.8",
        "text": "is Wiener gate which is the congressman"
    },
    {
        "start": "94.049",
        "dur": "6.721",
        "text": "who sent twitter pics of his junk to"
    },
    {
        "start": "98.64",
        "dur": "3.9",
        "text": "various college students around I"
    },
    {
        "start": "100.77",
        "dur": "4.55",
        "text": "believe he's admitted to this so this is"
    },
    {
        "start": "102.54",
        "dur": "4.859",
        "text": "kind of in the in the public sphere now"
    },
    {
        "start": "105.32",
        "dur": "3.97",
        "text": "there's a conversation I think that's"
    },
    {
        "start": "107.399",
        "dur": "3.031",
        "text": "really really important around all of"
    },
    {
        "start": "109.29",
        "dur": "3.359",
        "text": "this but let me let me give you some"
    },
    {
        "start": "110.43",
        "dur": "3.99",
        "text": "statistics about congressman this is"
    },
    {
        "start": "112.649",
        "dur": "3.36",
        "text": "from a few years ago but quite important"
    },
    {
        "start": "114.42",
        "dur": "4.08",
        "text": "29 members of Congress have been accused"
    },
    {
        "start": "116.009",
        "dur": "4.411",
        "text": "of spousal abuse seven have been"
    },
    {
        "start": "118.5",
        "dur": "5.82",
        "text": "arrested for fraud 19 have been accused"
    },
    {
        "start": "120.42",
        "dur": "6.479",
        "text": "of writing bad checks 117 had bankrupted"
    },
    {
        "start": "124.32",
        "dur": "5.249",
        "text": "at least two businesses I guess they're"
    },
    {
        "start": "126.899",
        "dur": "4.801",
        "text": "all working on the USA three had been"
    },
    {
        "start": "129.569",
        "dur": "3.331",
        "text": "arrested for assault 71 have credit"
    },
    {
        "start": "131.7",
        "dur": "3.899",
        "text": "reports so bad"
    },
    {
        "start": "132.9",
        "dur": "3.72",
        "text": "they can't qualify for a credit card 14"
    },
    {
        "start": "135.599",
        "dur": "2.941",
        "text": "have been arrested on drug related"
    },
    {
        "start": "136.62",
        "dur": "3.75",
        "text": "charges eight have been arrested for"
    },
    {
        "start": "138.54",
        "dur": "4.619",
        "text": "shoplifting 21 occurrent defendants in"
    },
    {
        "start": "140.37",
        "dur": "4.14",
        "text": "lawsuits and in 1998 alone 84 were"
    },
    {
        "start": "143.159",
        "dur": "3.541",
        "text": "stopped for drunk driving but released"
    },
    {
        "start": "144.51",
        "dur": "5.55",
        "text": "after they claimed congressional"
    },
    {
        "start": "146.7",
        "dur": "4.89",
        "text": "immunity this is very important this is"
    },
    {
        "start": "150.06",
        "dur": "4.08",
        "text": "a conversation that our leaders are"
    },
    {
        "start": "151.59",
        "dur": "5.25",
        "text": "having with us and if we don't listen to"
    },
    {
        "start": "154.14",
        "dur": "6.929",
        "text": "it it is to our detriment on every"
    },
    {
        "start": "156.84",
        "dur": "7.259",
        "text": "conceivable level I wouldn't hire any of"
    },
    {
        "start": "161.069",
        "dur": "6",
        "text": "these assclowns as a goddamn babysitter"
    },
    {
        "start": "164.099",
        "dur": "5.431",
        "text": "let alone to run just about everything"
    },
    {
        "start": "167.069",
        "dur": "4.881",
        "text": "to do with my life and the life of my"
    },
    {
        "start": "169.53",
        "dur": "5.039",
        "text": "future I guess the future adult child"
    },
    {
        "start": "171.95",
        "dur": "5.05",
        "text": "this is a pretty good test would you"
    },
    {
        "start": "174.569",
        "dur": "5.31",
        "text": "hire on torts & Eggar to be your"
    },
    {
        "start": "177",
        "dur": "4.439",
        "text": "babysitter I would say not certainly not"
    },
    {
        "start": "179.879",
        "dur": "4.771",
        "text": "dominique strauss can and certainly not"
    },
    {
        "start": "181.439",
        "dur": "4.95",
        "text": "Rob weiner this is not something that we"
    },
    {
        "start": "184.65",
        "dur": "4.47",
        "text": "would do this is a pretty important"
    },
    {
        "start": "186.389",
        "dur": "4.49",
        "text": "thing we try in general in life to stop"
    },
    {
        "start": "189.12",
        "dur": "4.199",
        "text": "people off with small and manageable"
    },
    {
        "start": "190.879",
        "dur": "5.351",
        "text": "responsibilities and then move them up"
    },
    {
        "start": "193.319",
        "dur": "4.53",
        "text": "to running quasi global economies this"
    },
    {
        "start": "196.23",
        "dur": "3.39",
        "text": "is pretty important what is the"
    },
    {
        "start": "197.849",
        "dur": "4.191",
        "text": "conversation that is being had but"
    },
    {
        "start": "199.62",
        "dur": "5.06",
        "text": "people are saying very clearly that"
    },
    {
        "start": "202.04",
        "dur": "5.259",
        "text": "they're morally crazy that they're"
    },
    {
        "start": "204.68",
        "dur": "5.639",
        "text": "corrupt that they're capable of"
    },
    {
        "start": "207.299",
        "dur": "5.731",
        "text": "bald-faced lying to people that they are"
    },
    {
        "start": "210.319",
        "dur": "4.931",
        "text": "aggressive and entitled in narcissistic"
    },
    {
        "start": "213.03",
        "dur": "3.599",
        "text": "and sociopathic and all of these kinds"
    },
    {
        "start": "215.25",
        "dur": "3.81",
        "text": "of things I've seen to this very clearly"
    },
    {
        "start": "216.629",
        "dur": "6.211",
        "text": "very clearly and the media is playing"
    },
    {
        "start": "219.06",
        "dur": "5.459",
        "text": "right along because this must contain"
    },
    {
        "start": "222.84",
        "dur": "3.75",
        "text": "head explosion this is the thing that"
    },
    {
        "start": "224.519",
        "dur": "3.71",
        "text": "goes on in American politics not just"
    },
    {
        "start": "226.59",
        "dur": "7.259",
        "text": "American politics but around the world"
    },
    {
        "start": "228.229",
        "dur": "9.19",
        "text": "which is that oh you see you can start"
    },
    {
        "start": "233.849",
        "dur": "7.14",
        "text": "in the legal war that causes the deaths"
    },
    {
        "start": "237.419",
        "dur": "5.49",
        "text": "of over a million people you can attack"
    },
    {
        "start": "240.989",
        "dur": "5.25",
        "text": "a country that poses no threat to you"
    },
    {
        "start": "242.909",
        "dur": "6.841",
        "text": "whatsoever after having a blockade which"
    },
    {
        "start": "246.239",
        "dur": "5.97",
        "text": "is the US and UK blockade of Iraq that"
    },
    {
        "start": "249.75",
        "dur": "5.04",
        "text": "killed about 5 million Iraqi children"
    },
    {
        "start": "252.209",
        "dur": "4.08",
        "text": "over a decade now they have displaced"
    },
    {
        "start": "254.79",
        "dur": "3.33",
        "text": "millions more and murdered another"
    },
    {
        "start": "256.289",
        "dur": "3.48",
        "text": "million you can do all of that so you"
    },
    {
        "start": "258.12",
        "dur": "2.54",
        "text": "can start this illegal war by lying to"
    },
    {
        "start": "259.769",
        "dur": "4.011",
        "text": "the general public"
    },
    {
        "start": "260.66",
        "dur": "4.44",
        "text": "and there are no calls for your"
    },
    {
        "start": "263.78",
        "dur": "6.42",
        "text": "resignation there are no calls for"
    },
    {
        "start": "265.1",
        "dur": "8.66",
        "text": "impeachment but use a intern as a cigar"
    },
    {
        "start": "270.2",
        "dur": "5.7",
        "text": "holder tweet your man meat and suddenly"
    },
    {
        "start": "273.76",
        "dur": "4.77",
        "text": "resignation impeachment all of this is"
    },
    {
        "start": "275.9",
        "dur": "5.73",
        "text": "occurring to see how insane this is I"
    },
    {
        "start": "278.53",
        "dur": "5.59",
        "text": "mean it's not normal sex I wouldn't save"
    },
    {
        "start": "281.63",
        "dur": "6.12",
        "text": "even particularly healthy sex but it's"
    },
    {
        "start": "284.12",
        "dur": "5.79",
        "text": "sex that's all it is it is actually the"
    },
    {
        "start": "287.75",
        "dur": "4.11",
        "text": "Magic Man friction that starts life that"
    },
    {
        "start": "289.91",
        "dur": "3.93",
        "text": "brings it all into being it's why we're"
    },
    {
        "start": "291.86",
        "dur": "3.93",
        "text": "all here because somebody looked at"
    },
    {
        "start": "293.84",
        "dur": "3.87",
        "text": "somebody else would that bloom in there"
    },
    {
        "start": "295.79",
        "dur": "3.8",
        "text": "I that's why we're here so this is"
    },
    {
        "start": "297.71",
        "dur": "4.97",
        "text": "really around the creation of life"
    },
    {
        "start": "299.59",
        "dur": "7.83",
        "text": "exception of dominique strauss can and"
    },
    {
        "start": "302.68",
        "dur": "7.24",
        "text": "so that must be wildly punished however"
    },
    {
        "start": "307.42",
        "dur": "3.94",
        "text": "starting wars running at massive"
    },
    {
        "start": "309.92",
        "dur": "4.34",
        "text": "national debts throwing millions of"
    },
    {
        "start": "311.36",
        "dur": "9.03",
        "text": "innocent people into prison in the US"
    },
    {
        "start": "314.26",
        "dur": "8.32",
        "text": "this is cause for the massive legal"
    },
    {
        "start": "320.39",
        "dur": "6.81",
        "text": "retaliation called hey here's a free"
    },
    {
        "start": "322.58",
        "dur": "9.99",
        "text": "pension would you like a book deal this"
    },
    {
        "start": "327.2",
        "dur": "9.21",
        "text": "is the madness sex gets you evicted from"
    },
    {
        "start": "332.57",
        "dur": "8.39",
        "text": "your job piling debt onto the unborn"
    },
    {
        "start": "336.41",
        "dur": "10.64",
        "text": "selling them off into serfdom doesn't"
    },
    {
        "start": "340.96",
        "dur": "9.31",
        "text": "decimal starting illegal wars I mean"
    },
    {
        "start": "347.05",
        "dur": "7.36",
        "text": "Clinton could bomb the living out"
    },
    {
        "start": "350.27",
        "dur": "8.1",
        "text": "of Kosovo and there was nearly an airy"
    },
    {
        "start": "354.41",
        "dur": "6.45",
        "text": "and negative in the media but oh my god"
    },
    {
        "start": "358.37",
        "dur": "5.25",
        "text": "he got a blowjob from Monica Lewinsky"
    },
    {
        "start": "360.86",
        "dur": "4.95",
        "text": "and suddenly everything must come to a"
    },
    {
        "start": "363.62",
        "dur": "4.47",
        "text": "grinding halt and he must be savaged"
    },
    {
        "start": "365.81",
        "dur": "5.4",
        "text": "forever because that's the crime that is"
    },
    {
        "start": "368.09",
        "dur": "4.44",
        "text": "worth paying attention to I swear to god"
    },
    {
        "start": "371.21",
        "dur": "3.99",
        "text": "they're going to look down the tunnel of"
    },
    {
        "start": "372.53",
        "dur": "5.1",
        "text": "time from the future to the mad"
    },
    {
        "start": "375.2",
        "dur": "5.25",
        "text": "hellscape of our moral Armageddon's here"
    },
    {
        "start": "377.63",
        "dur": "4.92",
        "text": "and they will not be able to process"
    },
    {
        "start": "380.45",
        "dur": "4.83",
        "text": "what it is like to live in such an"
    },
    {
        "start": "382.55",
        "dur": "5.34",
        "text": "inferno of cluster fracking mental wack"
    },
    {
        "start": "385.28",
        "dur": "5.63",
        "text": "job and place we live in at the moment"
    },
    {
        "start": "387.89",
        "dur": "6.27",
        "text": "this is the world that we're living it"
    },
    {
        "start": "390.91",
        "dur": "3.729",
        "text": "tweet your meat bye bye everyone takes a"
    },
    {
        "start": "394.16",
        "dur": "2.249",
        "text": "step back"
    },
    {
        "start": "394.639",
        "dur": "3.87",
        "text": "Woods and you nobody can have anything"
    },
    {
        "start": "396.409",
        "dur": "3.961",
        "text": "to do with you because you are corrupt"
    },
    {
        "start": "398.509",
        "dur": "3.511",
        "text": "and a moral and the cheater and so on"
    },
    {
        "start": "400.37",
        "dur": "3.06",
        "text": "and yeah he's a cheater yeah he's a"
    },
    {
        "start": "402.02",
        "dur": "5.459",
        "text": "cheater yeah he's a liar yeah he's a"
    },
    {
        "start": "403.43",
        "dur": "5.849",
        "text": "cheater yeah okay okay so what does that"
    },
    {
        "start": "407.479",
        "dur": "4.111",
        "text": "mean about our leadership what does that"
    },
    {
        "start": "409.279",
        "dur": "4.681",
        "text": "mean about the people who were in charge"
    },
    {
        "start": "411.59",
        "dur": "5.069",
        "text": "what are they telling us that we simply"
    },
    {
        "start": "413.96",
        "dur": "9.389",
        "text": "refuse to hear that we refuse to listen"
    },
    {
        "start": "416.659",
        "dur": "11.16",
        "text": "to where are my friends until we all"
    },
    {
        "start": "423.349",
        "dur": "6.891",
        "text": "stop listening to it we're all Monica"
    },
    {
        "start": "427.819",
        "dur": "2.421",
        "text": "Lewinsky"
    }
]