{
  "Title": "Do You Hate The World? | #RageQuitEarth",
  "Id": "H_yniJrd8GE",
  "Transcript": [
    {
      "text": "hi everybody stefan molyneux from",
      "start": 0,
      "duration": 3.36
    },
    {
      "text": "freedomain radio listener question from",
      "start": 1.41,
      "duration": 5.219
    },
    {
      "text": "gabriel he quoted me when i said the",
      "start": 3.36,
      "duration": 4.949
    },
    {
      "text": "world is not exactly chock full of",
      "start": 6.629,
      "duration": 3.661
    },
    {
      "text": "people who are voluntarist who've got",
      "start": 8.309,
      "duration": 3.601
    },
    {
      "text": "self-knowledge people who've been to",
      "start": 10.29,
      "duration": 2.849
    },
    {
      "text": "therapy people who have good",
      "start": 11.91,
      "duration": 2.88
    },
    {
      "text": "relationships people who reject the",
      "start": 13.139,
      "duration": 4.681
    },
    {
      "text": "state and the initiation of force and he",
      "start": 14.79,
      "duration": 6.899
    },
    {
      "text": "writes nor will it ever be staff not",
      "start": 17.82,
      "duration": 5.549
    },
    {
      "text": "even close",
      "start": 21.689,
      "duration": 5.311
    },
    {
      "text": "and very in line demented flaw in your",
      "start": 23.369,
      "duration": 6.961
    },
    {
      "text": "brand of philosophy your ideal society",
      "start": 27,
      "duration": 5.55
    },
    {
      "text": "requires for the average human a minimum",
      "start": 30.33,
      "duration": 4.8
    },
    {
      "text": "threshold of intelligence and morality",
      "start": 32.55,
      "duration": 6.63
    },
    {
      "text": "that cannot be met I find many things",
      "start": 35.13,
      "duration": 5.999
    },
    {
      "text": "you teach very useful on a micro level",
      "start": 39.18,
      "duration": 3.449
    },
    {
      "text": "and they will help many individuals in",
      "start": 41.129,
      "duration": 4.321
    },
    {
      "text": "their quality of life and their",
      "start": 42.629,
      "duration": 4.2
    },
    {
      "text": "relationships but their debate about",
      "start": 45.45,
      "duration": 3.06
    },
    {
      "text": "extending them to a large enough",
      "start": 46.829,
      "duration": 4.261
    },
    {
      "text": "population to change our social societal",
      "start": 48.51,
      "duration": 9.389
    },
    {
      "text": "structure is moot I think that's a great",
      "start": 51.09,
      "duration": 8.37
    },
    {
      "text": "question and it's a great comment and",
      "start": 57.899,
      "duration": 7.351
    },
    {
      "text": "it's a great objection and there's no",
      "start": 59.46,
      "duration": 8.33
    },
    {
      "text": "argument to it right this is",
      "start": 65.25,
      "duration": 4.43
    },
    {
      "text": "self-knowledge we'll teach you this",
      "start": 67.79,
      "duration": 6.13
    },
    {
      "text": "Gabriel that if you respond to someone",
      "start": 69.68,
      "duration": 7.93
    },
    {
      "text": "and deny their arguments without making",
      "start": 73.92,
      "duration": 8.78
    },
    {
      "text": "a counter argument you are clearly and",
      "start": 77.61,
      "duration": 10.88
    },
    {
      "text": "obviously revealing emotional resistance",
      "start": 82.7,
      "duration": 9.19
    },
    {
      "text": "pushback without reason is an emotional",
      "start": 88.49,
      "duration": 5.26
    },
    {
      "text": "defense and you're not making an",
      "start": 91.89,
      "duration": 7.35
    },
    {
      "text": "argument now if you put on the not",
      "start": 93.75,
      "duration": 9.18
    },
    {
      "text": "making an argument now not an argument",
      "start": 99.24,
      "duration": 5.97
    },
    {
      "text": "na if you put on the naff filter we",
      "start": 102.93,
      "duration": 3.36
    },
    {
      "text": "might as well have closed off for a",
      "start": 105.21,
      "duration": 2.31
    },
    {
      "text": "comment section for the most part",
      "start": 106.29,
      "duration": 3.48
    },
    {
      "text": "because very few people make an actual",
      "start": 107.52,
      "duration": 4.95
    },
    {
      "text": "argument or if they make an argument",
      "start": 109.77,
      "duration": 4.739
    },
    {
      "text": "they make an inconsequential argument",
      "start": 112.47,
      "duration": 4.289
    },
    {
      "text": "completely tangential to the main issue",
      "start": 114.509,
      "duration": 4.951
    },
    {
      "text": "if I made some minor error in math or",
      "start": 116.759,
      "duration": 3.18
    },
    {
      "text": "yeah",
      "start": 119.46,
      "duration": 5.61
    },
    {
      "text": "right I mean it's not not relevant so it",
      "start": 119.939,
      "duration": 7.29
    },
    {
      "text": "will never the world will never be full",
      "start": 125.07,
      "duration": 4.35
    },
    {
      "text": "of people who are volunteers you have",
      "start": 127.229,
      "duration": 3.601
    },
    {
      "text": "self-knowledge who've been to therapy",
      "start": 129.42,
      "duration": 3.27
    },
    {
      "text": "well of course in the future we hope to",
      "start": 130.83,
      "duration": 3.18
    },
    {
      "text": "build a society where people won't",
      "start": 132.69,
      "duration": 3.45
    },
    {
      "text": "you need to go to therapy in the you",
      "start": 134.01,
      "duration": 6.809
    },
    {
      "text": "know when when the polio vaccine was",
      "start": 136.14,
      "duration": 6.36
    },
    {
      "text": "created the hope was Sir for a future",
      "start": 140.819,
      "duration": 3.361
    },
    {
      "text": "without iron lungs and you know largely",
      "start": 142.5,
      "duration": 3.569
    },
    {
      "text": "been achieved so the hope is to not have",
      "start": 144.18,
      "duration": 3.779
    },
    {
      "text": "children who are broken and who need",
      "start": 146.069,
      "duration": 4.56
    },
    {
      "text": "therapy and to whom and who don't live",
      "start": 147.959,
      "duration": 6.75
    },
    {
      "text": "in a society to whom self-knowledge puts",
      "start": 150.629,
      "duration": 5.851
    },
    {
      "text": "them at odds with their society Rika's",
      "start": 154.709,
      "duration": 4.62
    },
    {
      "text": "right now a self-knowledge philosophical",
      "start": 156.48,
      "duration": 5.97
    },
    {
      "text": "consistency integrity virtue really",
      "start": 159.329,
      "duration": 6.63
    },
    {
      "text": "living in and acting on your values puts",
      "start": 162.45,
      "duration": 5.009
    },
    {
      "text": "you directly at odds with society and",
      "start": 165.959,
      "duration": 3.36
    },
    {
      "text": "not just like in terms that people won't",
      "start": 167.459,
      "duration": 3.211
    },
    {
      "text": "like you while people will be bothered",
      "start": 169.319,
      "duration": 2.971
    },
    {
      "text": "by you in terms of like you'll go to",
      "start": 170.67,
      "duration": 2.01
    },
    {
      "text": "jail",
      "start": 172.29,
      "duration": 3.589
    },
    {
      "text": "right like if you I never advocate",
      "start": 172.68,
      "duration": 5.85
    },
    {
      "text": "disobeying the law but the reality is",
      "start": 175.879,
      "duration": 5.23
    },
    {
      "text": "that if you don't want to pay your taxes",
      "start": 178.53,
      "duration": 5.789
    },
    {
      "text": "if you find funding a Wars and the",
      "start": 181.109,
      "duration": 5.25
    },
    {
      "text": "military-industrial complex and the",
      "start": 184.319,
      "duration": 4.051
    },
    {
      "text": "enslavement of the poor on the new",
      "start": 186.359,
      "duration": 4.02
    },
    {
      "text": "plantations of the welfare state if you",
      "start": 188.37,
      "duration": 3.509
    },
    {
      "text": "find these things objectionable and you",
      "start": 190.379,
      "duration": 5.241
    },
    {
      "text": "wish to not submit to violence and not",
      "start": 191.879,
      "duration": 6
    },
    {
      "text": "be forced to fund things that are",
      "start": 195.62,
      "duration": 4.119
    },
    {
      "text": "morally repulsive to you you go to jail",
      "start": 197.879,
      "duration": 4.351
    },
    {
      "text": "the guys will come with guns to your",
      "start": 199.739,
      "duration": 5.22
    },
    {
      "text": "house and take you in a wagon and put",
      "start": 202.23,
      "duration": 3.92
    },
    {
      "text": "you in jail",
      "start": 204.959,
      "duration": 5.571
    },
    {
      "text": "so integrity at the moment is incredibly",
      "start": 206.15,
      "duration": 8.26
    },
    {
      "text": "constant it's not even as beneficial as",
      "start": 210.53,
      "duration": 7.569
    },
    {
      "text": "a black market is in terms of economy",
      "start": 214.41,
      "duration": 5.88
    },
    {
      "text": "and payoff because there's no personal",
      "start": 218.099,
      "duration": 6.931
    },
    {
      "text": "profit in it for the most part so not",
      "start": 220.29,
      "duration": 8.849
    },
    {
      "text": "that I'm advocating a black market so",
      "start": 225.03,
      "duration": 8.19
    },
    {
      "text": "right now people are incredibly punished",
      "start": 229.139,
      "duration": 8.88
    },
    {
      "text": "both socially and legally for integrity",
      "start": 233.22,
      "duration": 8.43
    },
    {
      "text": "for for morality for ethics and so",
      "start": 238.019,
      "duration": 5.97
    },
    {
      "text": "saying well if that ever changes",
      "start": 241.65,
      "duration": 5.729
    },
    {
      "text": "people's behavior Bohn changed is it's",
      "start": 243.989,
      "duration": 3.93
    },
    {
      "text": "just false",
      "start": 247.379,
      "duration": 2.101
    },
    {
      "text": "I mean people respond to incentives and",
      "start": 247.919,
      "duration": 6.921
    },
    {
      "text": "the social cues are obey and conform and",
      "start": 249.48,
      "duration": 10.53
    },
    {
      "text": "surrender or we will break you we will",
      "start": 254.84,
      "duration": 8.139
    },
    {
      "text": "break you into we will throw you into",
      "start": 260.01,
      "duration": 5.51
    },
    {
      "text": "the right berms of modern prisons until",
      "start": 262.979,
      "duration": 4.891
    },
    {
      "text": "you are like Winston's",
      "start": 265.52,
      "duration": 5.11
    },
    {
      "text": "at the end of 1984 back in love with Big",
      "start": 267.87,
      "duration": 6.03
    },
    {
      "text": "Brother that is the reality of the",
      "start": 270.63,
      "duration": 8.94
    },
    {
      "text": "society that we live in your ideal",
      "start": 273.9,
      "duration": 8.19
    },
    {
      "text": "society requires he says for the average",
      "start": 279.57,
      "duration": 4.74
    },
    {
      "text": "human a minimum threshold of intelligent",
      "start": 282.09,
      "duration": 7.35
    },
    {
      "text": "and morality that cannot be met now what",
      "start": 284.31,
      "duration": 10.07
    },
    {
      "text": "I'm trying to do is GUI up philosophy",
      "start": 289.44,
      "duration": 4.94
    },
    {
      "text": "probably that doesn't make sense",
      "start": 294.5,
      "duration": 3.91
    },
    {
      "text": "that's gonna be taken out of context so",
      "start": 296.22,
      "duration": 5.49
    },
    {
      "text": "what I mean is that most people like",
      "start": 298.41,
      "duration": 4.95
    },
    {
      "text": "your average grandmother is not logging",
      "start": 301.71,
      "duration": 7.5
    },
    {
      "text": "into a UNIX workstation or a trs-80 or",
      "start": 303.36,
      "duration": 9.42
    },
    {
      "text": "some sort of tandem workstation and DQ",
      "start": 309.21,
      "duration": 7.44
    },
    {
      "text": "bang hey typing in command lines in",
      "start": 312.78,
      "duration": 9.72
    },
    {
      "text": "order to do stuff and you had of course",
      "start": 316.65,
      "duration": 7.97
    },
    {
      "text": "originally there was command line only",
      "start": 322.5,
      "duration": 5.61
    },
    {
      "text": "back boy my first computer I got a tiny",
      "start": 324.62,
      "duration": 4.96
    },
    {
      "text": "inheritance I guess wasn't that tiny got",
      "start": 328.11,
      "duration": 2.76
    },
    {
      "text": "an inheritance for my grandmother when",
      "start": 329.58,
      "duration": 3.809
    },
    {
      "text": "she died and I used it to buy an Atari",
      "start": 330.87,
      "duration": 5.31
    },
    {
      "text": "800 the one with the keyboard and I do",
      "start": 333.389,
      "duration": 6.541
    },
    {
      "text": "believe 16 K of ram oh yeah you could do",
      "start": 336.18,
      "duration": 6.39
    },
    {
      "text": "graphics 8 or gr done 8 and that's when",
      "start": 339.93,
      "duration": 4.109
    },
    {
      "text": "I learned to program and all this kind",
      "start": 342.57,
      "duration": 2.76
    },
    {
      "text": "of cool stuff thanks to my math teacher",
      "start": 344.039,
      "duration": 3.871
    },
    {
      "text": "a guy who let me off math class let me",
      "start": 345.33,
      "duration": 3.93
    },
    {
      "text": "go to the computer lab which was",
      "start": 347.91,
      "duration": 2.1
    },
    {
      "text": "fantastic",
      "start": 349.26,
      "duration": 5.279
    },
    {
      "text": "thanks mr. har but your average",
      "start": 350.01,
      "duration": 6.51
    },
    {
      "text": "grandmother is not gonna be logging in",
      "start": 354.539,
      "duration": 3.541
    },
    {
      "text": "and doing command line stuff then of",
      "start": 356.52,
      "duration": 4.07
    },
    {
      "text": "course there was das and then there was",
      "start": 358.08,
      "duration": 5.79
    },
    {
      "text": "asking graphical quote pseudo graphical",
      "start": 360.59,
      "duration": 7.03
    },
    {
      "text": "laters overdose and then there was",
      "start": 363.87,
      "duration": 8.18
    },
    {
      "text": "Windows which was a gooey overdose and",
      "start": 367.62,
      "duration": 7.049
    },
    {
      "text": "gooeys got better graphical user",
      "start": 372.05,
      "duration": 5.47
    },
    {
      "text": "interface it's a GUI and then we got two",
      "start": 374.669,
      "duration": 4.741
    },
    {
      "text": "touch pads touch screens and so on and",
      "start": 377.52,
      "duration": 3.3
    },
    {
      "text": "we go voice commands and like it's",
      "start": 379.41,
      "duration": 3.78
    },
    {
      "text": "basically become as friendly as possible",
      "start": 380.82,
      "duration": 6.51
    },
    {
      "text": "as so so saying computer use will never",
      "start": 383.19,
      "duration": 6.659
    },
    {
      "text": "spread to the general population because",
      "start": 387.33,
      "duration": 4.23
    },
    {
      "text": "you need a whole basement full of vacuum",
      "start": 389.849,
      "duration": 4.141
    },
    {
      "text": "tubes and you need command-line",
      "start": 391.56,
      "duration": 4.079
    },
    {
      "text": "interfaces or you have to scratch out",
      "start": 393.99,
      "duration": 3.75
    },
    {
      "text": "you know this is government education",
      "start": 395.639,
      "duration": 3.511
    },
    {
      "text": "only class they ever failed in high",
      "start": 397.74,
      "duration": 2.729
    },
    {
      "text": "school was a computer science class when",
      "start": 399.15,
      "duration": 2.08
    },
    {
      "text": "I was gonna",
      "start": 400.469,
      "duration": 2.711
    },
    {
      "text": "doing computer science all the time on",
      "start": 401.23,
      "duration": 3.21
    },
    {
      "text": "my spare time because you had to fill",
      "start": 403.18,
      "duration": 5.67
    },
    {
      "text": "out these cards to to run your assembly",
      "start": 404.44,
      "duration": 7.44
    },
    {
      "text": "commands so saying well no nobody's",
      "start": 408.85,
      "duration": 4.44
    },
    {
      "text": "people agree the idea that people are",
      "start": 411.88,
      "duration": 3.12
    },
    {
      "text": "gonna get involved in computers in any",
      "start": 413.29,
      "duration": 3.21
    },
    {
      "text": "because you need a basement full of",
      "start": 415,
      "duration": 3.24
    },
    {
      "text": "vacuum tubes and command lines or",
      "start": 416.5,
      "duration": 4.2
    },
    {
      "text": "scratchy on I mean just know it's not",
      "start": 418.24,
      "duration": 6.05
    },
    {
      "text": "gonna happen but that's because",
      "start": 420.7,
      "duration": 7.49
    },
    {
      "text": "computers weren't user-friendly enough",
      "start": 424.29,
      "duration": 3.9
    },
    {
      "text": "computers were not user-friendly enough",
      "start": 428.55,
      "duration": 7.27
    },
    {
      "text": "the right supply will create a demand so",
      "start": 431.41,
      "duration": 5.97
    },
    {
      "text": "people who never would have imagined",
      "start": 435.82,
      "duration": 6.98
    },
    {
      "text": "buying a UNIX computer will buy an iPad",
      "start": 437.38,
      "duration": 8.91
    },
    {
      "text": "because it's pretty easy I mean it's",
      "start": 442.8,
      "duration": 5.23
    },
    {
      "text": "almost infinitely easier compared to",
      "start": 446.29,
      "duration": 4.29
    },
    {
      "text": "command line to get done what you need",
      "start": 448.03,
      "duration": 4.71
    },
    {
      "text": "to get done although I still know people",
      "start": 450.58,
      "duration": 4.89
    },
    {
      "text": "who love reveal codes being WordPerfect",
      "start": 452.74,
      "duration": 4.68
    },
    {
      "text": "five point one but that's a topic for",
      "start": 455.47,
      "duration": 6.87
    },
    {
      "text": "another time so when you make technology",
      "start": 457.42,
      "duration": 6.68
    },
    {
      "text": "or when you make complexity",
      "start": 462.34,
      "duration": 7.53
    },
    {
      "text": "user-friendly then you spread its",
      "start": 464.1,
      "duration": 8.13
    },
    {
      "text": "adoption by the general population and",
      "start": 469.87,
      "duration": 5.37
    },
    {
      "text": "her cars used to be hobbyists nightmares",
      "start": 472.23,
      "duration": 4.45
    },
    {
      "text": "right I mean it what guess for a",
      "start": 475.24,
      "duration": 3.6
    },
    {
      "text": "hobbyist a nightmare is a plus right but",
      "start": 476.68,
      "duration": 4.23
    },
    {
      "text": "cars they used to fall apart all the",
      "start": 478.84,
      "duration": 3.69
    },
    {
      "text": "time you had to stop and keep cranking",
      "start": 480.91,
      "duration": 3.6
    },
    {
      "text": "them you needed basically to travel with",
      "start": 482.53,
      "duration": 3.87
    },
    {
      "text": "a mechanic because they broke down all",
      "start": 484.51,
      "duration": 3.72
    },
    {
      "text": "the time they really weren't any roads",
      "start": 486.4,
      "duration": 3.9
    },
    {
      "text": "so if you said well cars are going to be",
      "start": 488.23,
      "duration": 5.1
    },
    {
      "text": "the dominant method of transportation in",
      "start": 490.3,
      "duration": 4.92
    },
    {
      "text": "the future people would say it's never",
      "start": 493.33,
      "duration": 4.74
    },
    {
      "text": "gonna happen there are no roads you",
      "start": 495.22,
      "duration": 4.35
    },
    {
      "text": "can't travel with the mechanic are there",
      "start": 498.07,
      "duration": 3.66
    },
    {
      "text": "two unreliable people even believe that",
      "start": 499.57,
      "duration": 4.14
    },
    {
      "text": "if you've traveled over 20 miles now you",
      "start": 501.73,
      "duration": 2.97
    },
    {
      "text": "wouldn't be able to breathe enough",
      "start": 503.71,
      "duration": 5.03
    },
    {
      "text": "oxygen you'd wear goggles no right but",
      "start": 504.7,
      "duration": 6.99
    },
    {
      "text": "things change when things improve their",
      "start": 508.74,
      "duration": 4.66
    },
    {
      "text": "adoption becomes more widespread when",
      "start": 511.69,
      "duration": 2.789
    },
    {
      "text": "things become more more user friendly",
      "start": 513.4,
      "duration": 2.97
    },
    {
      "text": "and more reliable than the read option",
      "start": 514.479,
      "duration": 5.401
    },
    {
      "text": "becomes more widespread this is a basic",
      "start": 516.37,
      "duration": 8
    },
    {
      "text": "economics so my goal is to make",
      "start": 519.88,
      "duration": 9.18
    },
    {
      "text": "philosophy user friendly to GUI up",
      "start": 524.37,
      "duration": 6.07
    },
    {
      "text": "philosophy to put a graphic user",
      "start": 529.06,
      "duration": 3.48
    },
    {
      "text": "interface on philosophy to make it",
      "start": 530.44,
      "duration": 4.71
    },
    {
      "text": "actionable because if you make",
      "start": 532.54,
      "duration": 4.8
    },
    {
      "text": "ASSA feasible then there's a point to",
      "start": 535.15,
      "duration": 3.72
    },
    {
      "text": "listening to it right if we were talking",
      "start": 537.34,
      "duration": 4.02
    },
    {
      "text": "about like if all I did on this show was",
      "start": 538.87,
      "duration": 4.08
    },
    {
      "text": "talk about you know Kierkegaard's",
      "start": 541.36,
      "duration": 4.77
    },
    {
      "text": "definition of that and Aristotle's",
      "start": 542.95,
      "duration": 4.83
    },
    {
      "text": "approach to this I mean there'd be some",
      "start": 546.13,
      "duration": 4.86
    },
    {
      "text": "people who'd be mildly interested but it",
      "start": 547.78,
      "duration": 4.62
    },
    {
      "text": "would not spread because it would not be",
      "start": 550.99,
      "duration": 6.54
    },
    {
      "text": "actionable and it sort of be like",
      "start": 552.4,
      "duration": 8.16
    },
    {
      "text": "selling people a computer and saying you",
      "start": 557.53,
      "duration": 4.95
    },
    {
      "text": "should use this to write stuff but",
      "start": 560.56,
      "duration": 4.77
    },
    {
      "text": "there's no email and no printer and so",
      "start": 562.48,
      "duration": 4.35
    },
    {
      "text": "you can't ever get the writing off the",
      "start": 565.33,
      "duration": 4.62
    },
    {
      "text": "computer wouldn't be that valuable to",
      "start": 566.83,
      "duration": 7.5
    },
    {
      "text": "people right so my goal is to make",
      "start": 569.95,
      "duration": 6.78
    },
    {
      "text": "philosophy user-friendly and that is to",
      "start": 574.33,
      "duration": 3.9
    },
    {
      "text": "I don't use a lot of technical language",
      "start": 576.73,
      "duration": 4.26
    },
    {
      "text": "I was very influenced by a philosophy",
      "start": 578.23,
      "duration": 4.59
    },
    {
      "text": "professor in graduate school who",
      "start": 580.99,
      "duration": 4.38
    },
    {
      "text": "reminded me that Socrates never used the",
      "start": 582.82,
      "duration": 4.91
    },
    {
      "text": "word epistemology or new amino or",
      "start": 585.37,
      "duration": 4.74
    },
    {
      "text": "metaphysical or he just he used the",
      "start": 587.73,
      "duration": 3.85
    },
    {
      "text": "language of the land he used the",
      "start": 590.11,
      "duration": 2.73
    },
    {
      "text": "language of the people to talk about",
      "start": 591.58,
      "duration": 5.04
    },
    {
      "text": "philosophy and to goad them into well",
      "start": 592.84,
      "duration": 5.55
    },
    {
      "text": "his first command who know thyself was",
      "start": 596.62,
      "duration": 3.93
    },
    {
      "text": "to you you can't know the world unless",
      "start": 598.39,
      "duration": 6.18
    },
    {
      "text": "you know yourself because you it's like",
      "start": 600.55,
      "duration": 5.34
    },
    {
      "text": "trying to figure out colors if you don't",
      "start": 604.57,
      "duration": 2.64
    },
    {
      "text": "know what color glasses you're wearing",
      "start": 605.89,
      "duration": 3.15
    },
    {
      "text": "you're gonna get confused you need to",
      "start": 607.21,
      "duration": 3.3
    },
    {
      "text": "know your own perceptions and prejudices",
      "start": 609.04,
      "duration": 6.66
    },
    {
      "text": "in order to see the world clearly so my",
      "start": 610.51,
      "duration": 7.92
    },
    {
      "text": "goal is to take philosophy and make it",
      "start": 615.7,
      "duration": 4.59
    },
    {
      "text": "approachable make it valuable make it",
      "start": 618.43,
      "duration": 5.94
    },
    {
      "text": "actionable make it useful and I'm really",
      "start": 620.29,
      "duration": 7.5
    },
    {
      "text": "constantly focusing on philosophy that",
      "start": 624.37,
      "duration": 6
    },
    {
      "text": "can be explained to four-year-olds now",
      "start": 627.79,
      "duration": 4.41
    },
    {
      "text": "I've been a father for a six and a half",
      "start": 630.37,
      "duration": 3.3
    },
    {
      "text": "years a stay-at-home dad for six and a",
      "start": 632.2,
      "duration": 3.72
    },
    {
      "text": "half years I have talked about just",
      "start": 633.67,
      "duration": 4.26
    },
    {
      "text": "about everything to do with ethics with",
      "start": 635.92,
      "duration": 4.32
    },
    {
      "text": "my daughter starting when she was about",
      "start": 637.93,
      "duration": 6.57
    },
    {
      "text": "two she gets it it's not brain surgery",
      "start": 640.24,
      "duration": 6.09
    },
    {
      "text": "basic ethics is not brain surgery I'm",
      "start": 644.5,
      "duration": 3.39
    },
    {
      "text": "not saying that you know if I read her",
      "start": 646.33,
      "duration": 3.51
    },
    {
      "text": "universally preferable behavior which is",
      "start": 647.89,
      "duration": 3.33
    },
    {
      "text": "my book on ethics you can get at",
      "start": 649.84,
      "duration": 3.36
    },
    {
      "text": "freedomainradio.com slash free and it",
      "start": 651.22,
      "duration": 3.48
    },
    {
      "text": "read that to her as a bedtime story",
      "start": 653.2,
      "duration": 4.44
    },
    {
      "text": "but I've got a podcast which you can",
      "start": 654.7,
      "duration": 6.21
    },
    {
      "text": "find at FDR podcast.com called the ABCs",
      "start": 657.64,
      "duration": 5.22
    },
    {
      "text": "of UPB which is how you explain ethics",
      "start": 660.91,
      "duration": 6.3
    },
    {
      "text": "to little children because you you can't",
      "start": 662.86,
      "duration": 5.4
    },
    {
      "text": "have",
      "start": 667.21,
      "duration": 2.91
    },
    {
      "text": "moral responsibility without moral",
      "start": 668.26,
      "duration": 3.09
    },
    {
      "text": "understanding and if you can't explain",
      "start": 670.12,
      "duration": 3.12
    },
    {
      "text": "your ethical systems children goodluck",
      "start": 671.35,
      "duration": 3.72
    },
    {
      "text": "can't good luck",
      "start": 673.24,
      "duration": 3.72
    },
    {
      "text": "Plato if you can't explain your ethical",
      "start": 675.07,
      "duration": 5.67
    },
    {
      "text": "system children then you have done",
      "start": 676.96,
      "duration": 5.34
    },
    {
      "text": "something wrong you've made a mistake",
      "start": 680.74,
      "duration": 3.51
    },
    {
      "text": "it's what Aristotle used to say like if",
      "start": 682.3,
      "duration": 3.41
    },
    {
      "text": "you've if you've gone through some",
      "start": 684.25,
      "duration": 3.9
    },
    {
      "text": "ethical system and what's come out is",
      "start": 685.71,
      "duration": 5.14
    },
    {
      "text": "rape is moral then I don't care you've",
      "start": 688.15,
      "duration": 4.59
    },
    {
      "text": "what you've done you've made some kind",
      "start": 690.85,
      "duration": 2.88
    },
    {
      "text": "of mistake",
      "start": 692.74,
      "duration": 5.25
    },
    {
      "text": "and you know if you've got some system",
      "start": 693.73,
      "duration": 7.59
    },
    {
      "text": "some hypothesis in physics and the if",
      "start": 697.99,
      "duration": 5.16
    },
    {
      "text": "you put all the numbers and all of the",
      "start": 701.32,
      "duration": 4.08
    },
    {
      "text": "variables into your equations what comes",
      "start": 703.15,
      "duration": 4.74
    },
    {
      "text": "out is a rock should fall up from the",
      "start": 705.4,
      "duration": 4.92
    },
    {
      "text": "earth I don't care what you've done",
      "start": 707.89,
      "duration": 4.02
    },
    {
      "text": "you've met a mistake somewhere I don't",
      "start": 710.32,
      "duration": 3.12
    },
    {
      "text": "even need to go find it if you want and",
      "start": 711.91,
      "duration": 4.44
    },
    {
      "text": "so you know this is why the ethical",
      "start": 713.44,
      "duration": 4.44
    },
    {
      "text": "system that I have proposed universally",
      "start": 716.35,
      "duration": 3.93
    },
    {
      "text": "preferable behavior exists independently",
      "start": 717.88,
      "duration": 4.53
    },
    {
      "text": "of States States and governments",
      "start": 720.28,
      "duration": 4.35
    },
    {
      "text": "requires no concern no Commandments no",
      "start": 722.41,
      "duration": 3.72
    },
    {
      "text": "assumptions it's not just plant the flag",
      "start": 724.63,
      "duration": 2.82
    },
    {
      "text": "and if you like it let's set up a",
      "start": 726.13,
      "duration": 3.72
    },
    {
      "text": "kingdom here it is a rational objective",
      "start": 727.45,
      "duration": 5.16
    },
    {
      "text": "empirical that explains history and it",
      "start": 729.85,
      "duration": 5.04
    },
    {
      "text": "bans rape theft assault and murder of",
      "start": 732.61,
      "duration": 4.86
    },
    {
      "text": "the four major bands that all moral",
      "start": 734.89,
      "duration": 6.09
    },
    {
      "text": "systems have to deal with I mean it's",
      "start": 737.47,
      "duration": 5.4
    },
    {
      "text": "inconvenient to exist in higher existing",
      "start": 740.98,
      "duration": 3.93
    },
    {
      "text": "hierarchies of power but that's sort of",
      "start": 742.87,
      "duration": 5.28
    },
    {
      "text": "a point of philosophy isn't it to be to",
      "start": 744.91,
      "duration": 5.76
    },
    {
      "text": "be inconvenient to false it and to",
      "start": 748.15,
      "duration": 4.65
    },
    {
      "text": "immorality I mean well I hope that a",
      "start": 750.67,
      "duration": 3.84
    },
    {
      "text": "cancer doctor is inconvenient to cancer",
      "start": 752.8,
      "duration": 3.69
    },
    {
      "text": "otherwise he's not much of a doctor and",
      "start": 754.51,
      "duration": 3.81
    },
    {
      "text": "so philosophy is supposed to be",
      "start": 756.49,
      "duration": 4.68
    },
    {
      "text": "inconvenient to wrongdoers and liars and",
      "start": 758.32,
      "duration": 5.58
    },
    {
      "text": "cheats and Sophists and that's one of",
      "start": 761.17,
      "duration": 4.83
    },
    {
      "text": "the ways in which I steer this ship of",
      "start": 763.9,
      "duration": 6.12
    },
    {
      "text": "thought and so yeah so right now of",
      "start": 766,
      "duration": 6.84
    },
    {
      "text": "course yeah philosophy is considered to",
      "start": 770.02,
      "duration": 5.82
    },
    {
      "text": "be abstract you know and pointless",
      "start": 772.84,
      "duration": 7.77
    },
    {
      "text": "useless Mitsuru",
      "start": 775.84,
      "duration": 6.9
    },
    {
      "text": "often do go back to Bill \u0026 Ted's",
      "start": 780.61,
      "duration": 3.99
    },
    {
      "text": "Excellent venture strange things are",
      "start": 782.74,
      "duration": 7.41
    },
    {
      "text": "afoot at the circle-k dude but there's",
      "start": 784.6,
      "duration": 7.62
    },
    {
      "text": "actually a pretty good like it said when",
      "start": 790.15,
      "duration": 3.93
    },
    {
      "text": "in if you've ever seen if you've not",
      "start": 792.22,
      "duration": 3.75
    },
    {
      "text": "seen Bill \u0026 Ted's Excellent Adventure",
      "start": 794.08,
      "duration": 4.89
    },
    {
      "text": "and the following bogus journey where",
      "start": 795.97,
      "duration": 4.33
    },
    {
      "text": "they go to hell then they say",
      "start": 798.97,
      "duration": 3.78
    },
    {
      "text": "this is nothing like our album covers",
      "start": 800.3,
      "duration": 5.58
    },
    {
      "text": "but you got to see it because in that's",
      "start": 802.75,
      "duration": 6.16
    },
    {
      "text": "a great bit of Freud in there dude she's",
      "start": 805.88,
      "duration": 8.01
    },
    {
      "text": "your mom and philosophy is Socrates with",
      "start": 808.91,
      "duration": 7.71
    },
    {
      "text": "dust in the wind you know it just dust",
      "start": 813.89,
      "duration": 4.92
    },
    {
      "text": "in the wind I mean that's not philosophy",
      "start": 816.62,
      "duration": 4.02
    },
    {
      "text": "I mean that's not even great music",
      "start": 818.81,
      "duration": 6.57
    },
    {
      "text": "actually is pretty good but so if you",
      "start": 820.64,
      "duration": 6.72
    },
    {
      "text": "make philosophy valuable and useful and",
      "start": 825.38,
      "duration": 4.08
    },
    {
      "text": "powerful and actionable and",
      "start": 827.36,
      "duration": 5.4
    },
    {
      "text": "comprehensible to people then you've",
      "start": 829.46,
      "duration": 5.22
    },
    {
      "text": "just given up philosophy it's no longer",
      "start": 832.76,
      "duration": 4.05
    },
    {
      "text": "command line where you can't print off",
      "start": 834.68,
      "duration": 3.99
    },
    {
      "text": "anything you've written right it's a",
      "start": 836.81,
      "duration": 3.9
    },
    {
      "text": "touchscreen it plays music",
      "start": 838.67,
      "duration": 4.65
    },
    {
      "text": "it's easy to work with and it has",
      "start": 840.71,
      "duration": 7.08
    },
    {
      "text": "utility it's actionable so that is how",
      "start": 843.32,
      "duration": 6.03
    },
    {
      "text": "philosophy is going to spread and I",
      "start": 847.79,
      "duration": 3.78
    },
    {
      "text": "guarantee you if I had taken an academic",
      "start": 849.35,
      "duration": 4.29
    },
    {
      "text": "approach to philosophy and talked about",
      "start": 851.57,
      "duration": 5.25
    },
    {
      "text": "how well you know Rousseau talks about",
      "start": 853.64,
      "duration": 5.52
    },
    {
      "text": "our brains in a tank being manipulated",
      "start": 856.82,
      "duration": 4.89
    },
    {
      "text": "by a demon and how will we know it right",
      "start": 859.16,
      "duration": 3.63
    },
    {
      "text": "yeah there'd be a couple of people",
      "start": 861.71,
      "duration": 5.13
    },
    {
      "text": "listening listening to me and one year",
      "start": 862.79,
      "duration": 7.23
    },
    {
      "text": "of Pink Floyd and the other and a whole",
      "start": 866.84,
      "duration": 5.67
    },
    {
      "text": "plateful of exciting brownies on their",
      "start": 870.02,
      "duration": 5.04
    },
    {
      "text": "lap but we wouldn't be doing you know",
      "start": 872.51,
      "duration": 7.08
    },
    {
      "text": "100 120 million downloads we wouldn't",
      "start": 875.06,
      "duration": 5.67
    },
    {
      "text": "have the hundreds of thousands of",
      "start": 879.59,
      "duration": 2.63
    },
    {
      "text": "listeners or more I don't have no idea",
      "start": 880.73,
      "duration": 7.04
    },
    {
      "text": "but this is because it's actionable so",
      "start": 882.22,
      "duration": 8.62
    },
    {
      "text": "when you raise children peacefully you",
      "start": 887.77,
      "duration": 5.14
    },
    {
      "text": "make them smarter right there are",
      "start": 890.84,
      "duration": 4.11
    },
    {
      "text": "genetic components to IQ as far as I",
      "start": 892.91,
      "duration": 4.29
    },
    {
      "text": "understand you could say some people say",
      "start": 894.95,
      "duration": 5.31
    },
    {
      "text": "like it's a half of your IQ potential is",
      "start": 897.2,
      "duration": 4.92
    },
    {
      "text": "genetic you can't really test it as much",
      "start": 900.26,
      "duration": 3
    },
    {
      "text": "when you're younger because the full",
      "start": 902.12,
      "duration": 2.49
    },
    {
      "text": "expression of IQ waits the brain",
      "start": 903.26,
      "duration": 4.11
    },
    {
      "text": "maturity until 25 you know like boys and",
      "start": 904.61,
      "duration": 4.02
    },
    {
      "text": "girls when they're born about the same",
      "start": 907.37,
      "duration": 3.18
    },
    {
      "text": "height but boys end up taller on average",
      "start": 908.63,
      "duration": 4.17
    },
    {
      "text": "then girls or not these days there's",
      "start": 910.55,
      "duration": 4.2
    },
    {
      "text": "these Amazons you know warrior",
      "start": 912.8,
      "duration": 4.41
    },
    {
      "text": "princesses who I guess are getting",
      "start": 914.75,
      "duration": 3.69
    },
    {
      "text": "steroids from meat or something like",
      "start": 917.21,
      "duration": 6
    },
    {
      "text": "giant women but so some IQ you can't",
      "start": 918.44,
      "duration": 7.86
    },
    {
      "text": "particularly alter but some IQ you can",
      "start": 923.21,
      "duration": 5.34
    },
    {
      "text": "according to your research so if you",
      "start": 926.3,
      "duration": 4.41
    },
    {
      "text": "don't hit your children you get a couple",
      "start": 928.55,
      "duration": 5.19
    },
    {
      "text": "of IQ points right there",
      "start": 930.71,
      "duration": 6.06
    },
    {
      "text": "negotiating with them rather than rather",
      "start": 933.74,
      "duration": 7.32
    },
    {
      "text": "than hitting them if you stimulate them",
      "start": 936.77,
      "duration": 6.24
    },
    {
      "text": "with philosophy very early on I'm pretty",
      "start": 941.06,
      "duration": 5.87
    },
    {
      "text": "sure that helps in terms of IQ and",
      "start": 943.01,
      "duration": 5.88
    },
    {
      "text": "there's just a couple of other things",
      "start": 946.93,
      "duration": 4.99
    },
    {
      "text": "that you can do which again whether it",
      "start": 948.89,
      "duration": 5.61
    },
    {
      "text": "actually increases IQ or simply doesn't",
      "start": 951.92,
      "duration": 4.35
    },
    {
      "text": "retard the development of the brain I",
      "start": 954.5,
      "duration": 3.66
    },
    {
      "text": "don't know right like I mean if you",
      "start": 956.27,
      "duration": 3.33
    },
    {
      "text": "don't give a kid enough food he ends up",
      "start": 958.16,
      "duration": 2.91
    },
    {
      "text": "growing up shorter but if you give him",
      "start": 959.6,
      "duration": 3.57
    },
    {
      "text": "access food he doesn't end up taller he",
      "start": 961.07,
      "duration": 3.63
    },
    {
      "text": "just reaches the natural maximum of",
      "start": 963.17,
      "duration": 3.21
    },
    {
      "text": "sight so the goal of course is to have",
      "start": 964.7,
      "duration": 4.32
    },
    {
      "text": "kids reach the natural maximum of their",
      "start": 966.38,
      "duration": 7.47
    },
    {
      "text": "IQ potential and there's stuff that we",
      "start": 969.02,
      "duration": 6.68
    },
    {
      "text": "can do around that and in particular",
      "start": 973.85,
      "duration": 4.89
    },
    {
      "text": "peaceful parenting I believe is going to",
      "start": 975.7,
      "duration": 5.41
    },
    {
      "text": "give children their greatest IQ boost",
      "start": 978.74,
      "duration": 5.31
    },
    {
      "text": "and that's not insignificant I mean and",
      "start": 981.11,
      "duration": 5.34
    },
    {
      "text": "you can check out the research in the",
      "start": 984.05,
      "duration": 4.23
    },
    {
      "text": "bomb in the brain calm or look at my",
      "start": 986.45,
      "duration": 3.9
    },
    {
      "text": "conversations with alison gopnik on this",
      "start": 988.28,
      "duration": 6.21
    },
    {
      "text": "channel or with other experts it",
      "start": 990.35,
      "duration": 6.36
    },
    {
      "text": "Elizabeth Graf talks about it",
      "start": 994.49,
      "duration": 4.74
    },
    {
      "text": "that you can get a four to six IQ point",
      "start": 996.71,
      "duration": 5.16
    },
    {
      "text": "boost just by not hitting your children",
      "start": 999.23,
      "duration": 3.96
    },
    {
      "text": "and it's not even like reasoning with",
      "start": 1001.87,
      "duration": 3.54
    },
    {
      "text": "them and so on but just not hitting them",
      "start": 1003.19,
      "duration": 4.47
    },
    {
      "text": "don't dramatize the trauma costs IQ and",
      "start": 1005.41,
      "duration": 5.46
    },
    {
      "text": "trauma causes a warp in otherwise",
      "start": 1007.66,
      "duration": 5.13
    },
    {
      "text": "intelligent people because trauma gives",
      "start": 1010.87,
      "duration": 4.41
    },
    {
      "text": "us this avoidance mechanism you know",
      "start": 1012.79,
      "duration": 4.14
    },
    {
      "text": "they had trigger warnings and so on this",
      "start": 1015.28,
      "duration": 3.27
    },
    {
      "text": "is all nonsense I mean the best way to",
      "start": 1016.93,
      "duration": 3.66
    },
    {
      "text": "deal with stuff that upsets you which",
      "start": 1018.55,
      "duration": 3.78
    },
    {
      "text": "used to be common knowledge is you",
      "start": 1020.59,
      "duration": 3.06
    },
    {
      "text": "confront it you you go and deal with",
      "start": 1022.33,
      "duration": 2.879
    },
    {
      "text": "your fears you confront your fears this",
      "start": 1023.65,
      "duration": 3.12
    },
    {
      "text": "avoidance and running away to teddy bear",
      "start": 1025.209,
      "duration": 3.511
    },
    {
      "text": "rooms with frolicking puppies if you",
      "start": 1026.77,
      "duration": 3.33
    },
    {
      "text": "hear an idea that's troublesome to you",
      "start": 1028.72,
      "duration": 3.75
    },
    {
      "text": "is it's ridiculous and counterfactual",
      "start": 1030.1,
      "duration": 3.69
    },
    {
      "text": "and actually just makes people worse but",
      "start": 1032.47,
      "duration": 2.88
    },
    {
      "text": "anyway that's a topic for another time",
      "start": 1033.79,
      "duration": 3
    },
    {
      "text": "you can check out the factual feminist",
      "start": 1035.35,
      "duration": 3.18
    },
    {
      "text": "for more on this she's got a great video",
      "start": 1036.79,
      "duration": 6.63
    },
    {
      "text": "on trigger warming warnings so yeah",
      "start": 1038.53,
      "duration": 7.5
    },
    {
      "text": "right now there are not a lot of smart",
      "start": 1043.42,
      "duration": 4.89
    },
    {
      "text": "people who are into south knowledge who",
      "start": 1046.03,
      "duration": 4.02
    },
    {
      "text": "recognize and accept the non-aggression",
      "start": 1048.31,
      "duration": 5.4
    },
    {
      "text": "principle and someone and I get that but",
      "start": 1050.05,
      "duration": 7.29
    },
    {
      "text": "again that's like saying in 1969 there",
      "start": 1053.71,
      "duration": 7.89
    },
    {
      "text": "aren't a lot of people who enjoy using",
      "start": 1057.34,
      "duration": 8.34
    },
    {
      "text": "computers saying that the present is a",
      "start": 1061.6,
      "duration": 6.03
    },
    {
      "text": "pure predictor of the future",
      "start": 1065.68,
      "duration": 4.77
    },
    {
      "text": "is ridiculous and and the fact that",
      "start": 1067.63,
      "duration": 5.43
    },
    {
      "text": "there isn't this argument that this",
      "start": 1070.45,
      "duration": 4.77
    },
    {
      "text": "argument of contempt for the masses is",
      "start": 1073.06,
      "duration": 4.89
    },
    {
      "text": "very prevalent whenever you talk about",
      "start": 1075.22,
      "duration": 4.89
    },
    {
      "text": "improving the lot of human beings people",
      "start": 1077.95,
      "duration": 5.67
    },
    {
      "text": "will attempt to to woo you to seduce you",
      "start": 1080.11,
      "duration": 7.41
    },
    {
      "text": "into a contempt for the masses and I",
      "start": 1083.62,
      "duration": 5.79
    },
    {
      "text": "accept and I understand that people",
      "start": 1087.52,
      "duration": 3.84
    },
    {
      "text": "reject information based on trauma they",
      "start": 1089.41,
      "duration": 4.35
    },
    {
      "text": "reject data facts arguments reason",
      "start": 1091.36,
      "duration": 5.67
    },
    {
      "text": "evidence and empiricism based on trauma",
      "start": 1093.76,
      "duration": 7.05
    },
    {
      "text": "and based on bigotry and Prejudice and",
      "start": 1097.03,
      "duration": 5.37
    },
    {
      "text": "so on well of course that's the case",
      "start": 1100.81,
      "duration": 4.11
    },
    {
      "text": "right I mean naturally that's the case",
      "start": 1102.4,
      "duration": 4.2
    },
    {
      "text": "of evolutionary reasons and the",
      "start": 1104.92,
      "duration": 2.97
    },
    {
      "text": "conformity but the tribe gained you",
      "start": 1106.6,
      "duration": 3.81
    },
    {
      "text": "access that two eggs for the women's",
      "start": 1107.89,
      "duration": 4.85
    },
    {
      "text": "eggs and so anybody who was not",
      "start": 1110.41,
      "duration": 5.52
    },
    {
      "text": "compromised to the tribe would not breed",
      "start": 1112.74,
      "duration": 4.96
    },
    {
      "text": "would not reproduce so all non",
      "start": 1115.93,
      "duration": 3.6
    },
    {
      "text": "conformist genes they only really emerge",
      "start": 1117.7,
      "duration": 4.68
    },
    {
      "text": "in the species as weird random mutation",
      "start": 1119.53,
      "duration": 5.4
    },
    {
      "text": "testing the waters to see if right if",
      "start": 1122.38,
      "duration": 4.5
    },
    {
      "text": "society evolves evolution requires a",
      "start": 1124.93,
      "duration": 3.69
    },
    {
      "text": "vast ability in the gene set along with",
      "start": 1126.88,
      "duration": 4.14
    },
    {
      "text": "a small amount of mutations and most of",
      "start": 1128.62,
      "duration": 4.68
    },
    {
      "text": "which are non beneficial the same thing",
      "start": 1131.02,
      "duration": 3.51
    },
    {
      "text": "with society as a whole look at it as",
      "start": 1133.3,
      "duration": 3.36
    },
    {
      "text": "social animal it requires a large degree",
      "start": 1134.53,
      "duration": 4.29
    },
    {
      "text": "of stability which is conformity and a",
      "start": 1136.66,
      "duration": 3.96
    },
    {
      "text": "small degree of people like me and",
      "start": 1138.82,
      "duration": 5.42
    },
    {
      "text": "people like you who who test whether",
      "start": 1140.62,
      "duration": 6.12
    },
    {
      "text": "nonconformity and therefore growth and",
      "start": 1144.24,
      "duration": 3.76
    },
    {
      "text": "improvement if it's the right kind of",
      "start": 1146.74,
      "duration": 2.97
    },
    {
      "text": "nonconformity nonconformity with error",
      "start": 1148,
      "duration": 3.57
    },
    {
      "text": "with prejudice with bigotry with the",
      "start": 1149.71,
      "duration": 5.85
    },
    {
      "text": "dull inertia of historical falsehoods we",
      "start": 1151.57,
      "duration": 5.94
    },
    {
      "text": "test and we see sometimes people test",
      "start": 1155.56,
      "duration": 3.15
    },
    {
      "text": "and they see and they get shipped off to",
      "start": 1157.51,
      "duration": 3.03
    },
    {
      "text": "a gulag or thrown off a cliff or fed to",
      "start": 1158.71,
      "duration": 3.63
    },
    {
      "text": "sharks or sacrifice to the gods but",
      "start": 1160.54,
      "duration": 3.78
    },
    {
      "text": "sometimes if the technology and the",
      "start": 1162.34,
      "duration": 3.69
    },
    {
      "text": "times and the conditions are right they",
      "start": 1164.32,
      "duration": 3.36
    },
    {
      "text": "guess the biggest philosophy show in the",
      "start": 1166.03,
      "duration": 4.2
    },
    {
      "text": "world and set their minds against",
      "start": 1167.68,
      "duration": 4.32
    },
    {
      "text": "improving the human towards improving",
      "start": 1170.23,
      "duration": 3.42
    },
    {
      "text": "the human condition as much as humanly",
      "start": 1172,
      "duration": 4.19
    },
    {
      "text": "possible and that's how society",
      "start": 1173.65,
      "duration": 5.55
    },
    {
      "text": "progresses so saying contempt for the",
      "start": 1176.19,
      "duration": 4.78
    },
    {
      "text": "herd while it's the inertia of the herd",
      "start": 1179.2,
      "duration": 3.24
    },
    {
      "text": "that creates the stability that allows",
      "start": 1180.97,
      "duration": 5.46
    },
    {
      "text": "for the progress of the species so",
      "start": 1182.44,
      "duration": 6.18
    },
    {
      "text": "saying well I have contempt for the herd",
      "start": 1186.43,
      "duration": 4.68
    },
    {
      "text": "because they're also conformist and",
      "start": 1188.62,
      "duration": 4.47
    },
    {
      "text": "someone yeah of course but I mean if",
      "start": 1191.11,
      "duration": 4.53
    },
    {
      "text": "every single gene mutated from one",
      "start": 1193.09,
      "duration": 5.32
    },
    {
      "text": "generation to the next you do",
      "start": 1195.64,
      "duration": 4.75
    },
    {
      "text": "I mean you wouldn't have any any life",
      "start": 1198.41,
      "duration": 3.78
    },
    {
      "text": "you wouldn't have any progress it is",
      "start": 1200.39,
      "duration": 4.59
    },
    {
      "text": "through the vast ability and inertia and",
      "start": 1202.19,
      "duration": 4.95
    },
    {
      "text": "and conformity of society that creates",
      "start": 1204.98,
      "duration": 3.93
    },
    {
      "text": "the relative stability that allows",
      "start": 1207.14,
      "duration": 5.22
    },
    {
      "text": "people who want to improve society the",
      "start": 1208.91,
      "duration": 5.61
    },
    {
      "text": "stability to be able to create that I",
      "start": 1212.36,
      "duration": 4.56
    },
    {
      "text": "mean the vast majority of people vast",
      "start": 1214.52,
      "duration": 3.63
    },
    {
      "text": "vast majority of people who were",
      "start": 1216.92,
      "duration": 3.63
    },
    {
      "text": "involved in having us have the capacity",
      "start": 1218.15,
      "duration": 3.75
    },
    {
      "text": "to have this conversation the",
      "start": 1220.55,
      "duration": 2.85
    },
    {
      "text": "technologists the entrepreneurs the",
      "start": 1221.9,
      "duration": 3.57
    },
    {
      "text": "world their status their religious their",
      "start": 1223.4,
      "duration": 4.58
    },
    {
      "text": "and so the people who are working",
      "start": 1225.47,
      "duration": 5.13
    },
    {
      "text": "against us philosophically are the same",
      "start": 1227.98,
      "duration": 4.81
    },
    {
      "text": "people who have created the stability",
      "start": 1230.6,
      "duration": 3.96
    },
    {
      "text": "that allows society to have this kind of",
      "start": 1232.79,
      "duration": 3.75
    },
    {
      "text": "communication mechanism so I can't",
      "start": 1234.56,
      "duration": 4.83
    },
    {
      "text": "really get rude into contempt for the",
      "start": 1236.54,
      "duration": 5.58
    },
    {
      "text": "masses because if everybody was a",
      "start": 1239.39,
      "duration": 4.71
    },
    {
      "text": "revolutionary there would be no",
      "start": 1242.12,
      "duration": 4.56
    },
    {
      "text": "stability and society to the point where",
      "start": 1244.1,
      "duration": 3.72
    },
    {
      "text": "we could have conversations about",
      "start": 1246.68,
      "duration": 2.4
    },
    {
      "text": "improving the human condition",
      "start": 1247.82,
      "duration": 3.54
    },
    {
      "text": "just as if every gene mutated at the",
      "start": 1249.08,
      "duration": 4.38
    },
    {
      "text": "same time we generation to generation",
      "start": 1251.36,
      "duration": 3.99
    },
    {
      "text": "there'd be no such thing as life it",
      "start": 1253.46,
      "duration": 6.54
    },
    {
      "text": "would all be chaos so I you know trying",
      "start": 1255.35,
      "duration": 6.24
    },
    {
      "text": "to lure me into contempt for the masses",
      "start": 1260,
      "duration": 3.57
    },
    {
      "text": "is not going to work I have a great",
      "start": 1261.59,
      "duration": 5.16
    },
    {
      "text": "appreciation for the masses I'm sure",
      "start": 1263.57,
      "duration": 5.1
    },
    {
      "text": "that almost all of my food comes from",
      "start": 1266.75,
      "duration": 4.62
    },
    {
      "text": "people who significantly oppose me",
      "start": 1268.67,
      "duration": 5.13
    },
    {
      "text": "philosophically I'm not going to boy get",
      "start": 1271.37,
      "duration": 4.86
    },
    {
      "text": "their food because be chatty forehead",
      "start": 1273.8,
      "duration": 5.76
    },
    {
      "text": "likes to eat so have hape have hope have",
      "start": 1276.23,
      "duration": 5.28
    },
    {
      "text": "faith in the future we are working on a",
      "start": 1279.56,
      "duration": 4.95
    },
    {
      "text": "presentation about genetics and ideology",
      "start": 1281.51,
      "duration": 5.07
    },
    {
      "text": "which hopefully will clarify some of",
      "start": 1284.51,
      "duration": 3.72
    },
    {
      "text": "this stuff I look forward to your",
      "start": 1286.58,
      "duration": 4.29
    },
    {
      "text": "continued questions you can send them in",
      "start": 1288.23,
      "duration": 5.52
    },
    {
      "text": "to us at freedomainradio.com I know so",
      "start": 1290.87,
      "duration": 3.96
    },
    {
      "text": "you can leave comments and we'll pick",
      "start": 1293.75,
      "duration": 2.94
    },
    {
      "text": "out stuff that is valuable Gabriel great",
      "start": 1294.83,
      "duration": 4.17
    },
    {
      "text": "great question great comment have hope",
      "start": 1296.69,
      "duration": 4.71
    },
    {
      "text": "the methodology of the progress of the",
      "start": 1299,
      "duration": 4.26
    },
    {
      "text": "species is fortunately well delineated",
      "start": 1301.4,
      "duration": 5.7
    },
    {
      "text": "and proven in society do not give up do",
      "start": 1303.26,
      "duration": 5.97
    },
    {
      "text": "not end up hating the Horde that gives",
      "start": 1307.1,
      "duration": 3.57
    },
    {
      "text": "you food and sustenance and keeps you",
      "start": 1309.23,
      "duration": 2.28
    },
    {
      "text": "alive",
      "start": 1310.67,
      "duration": 2.88
    },
    {
      "text": "it is really an act of intellectual",
      "start": 1311.51,
      "duration": 4.56
    },
    {
      "text": "seppuku to imagine that everyone must be",
      "start": 1313.55,
      "duration": 5.34
    },
    {
      "text": "like you and I that would not be valid",
      "start": 1316.07,
      "duration": 4.68
    },
    {
      "text": "or valuable and we create too much chaos",
      "start": 1318.89,
      "duration": 4.35
    },
    {
      "text": "for society to continue and I like",
      "start": 1320.75,
      "duration": 4.88
    },
    {
      "text": "having some stability on the planet so",
      "start": 1323.24,
      "duration": 4.92
    },
    {
      "text": "and also freedomainradio.com slash",
      "start": 1325.63,
      "duration": 5.74
    },
    {
      "text": "donate if you find these conversations",
      "start": 1328.16,
      "duration": 3.78
    },
    {
      "text": "to be value",
      "start": 1331.37,
      "duration": 2.88
    },
    {
      "text": "I'm pretty convinced you can't get this",
      "start": 1331.94,
      "duration": 5.189
    },
    {
      "text": "kind of stuff anywhere else and if you",
      "start": 1334.25,
      "duration": 4.35
    },
    {
      "text": "find these conversations valuable we",
      "start": 1337.129,
      "duration": 4.561
    },
    {
      "text": "really really need your help to flourish",
      "start": 1338.6,
      "duration": 5.4
    },
    {
      "text": "and to survive so freedomainradio.com",
      "start": 1341.69,
      "duration": 4.68
    },
    {
      "text": "slash tonight do help us that you'll",
      "start": 1344,
      "duration": 4.47
    },
    {
      "text": "feel better I promise you thank you so",
      "start": 1346.37,
      "duration": 2.429
    },
    {
      "text": "much",
      "start": 1348.47,
      "duration": 3.049
    },
    {
      "text": "have yourself a great day",
      "start": 1348.799,
      "duration": 2.72
    }
  ],
  "Errors": null,
  "TranscriptStderr": null
}