{
  "Title": "IF WOMEN RULED THE WORLD",
  "Id": "HFvdeomvHD4",
  "Transcript": [
    {
      "text": "when I was a kid I was constantly told",
      "start": 0.03,
      "duration": 4.53
    },
    {
      "text": "that if women ran the world everything",
      "start": 1.8,
      "duration": 6.18
    },
    {
      "text": "would be a paradise now women have been",
      "start": 4.56,
      "duration": 4.86
    },
    {
      "text": "in charge of the westrom our two",
      "start": 7.98,
      "duration": 3.3
    },
    {
      "text": "generations that educate almost all the",
      "start": 9.42,
      "duration": 4.139
    },
    {
      "text": "kids when they're young they're in",
      "start": 11.28,
      "duration": 4.08
    },
    {
      "text": "charge of the family court system in",
      "start": 13.559,
      "duration": 4.351
    },
    {
      "text": "general they run the political system",
      "start": 15.36,
      "duration": 5.31
    },
    {
      "text": "because there's such a consistently out",
      "start": 17.91,
      "duration": 5.34
    },
    {
      "text": "their voting bloc and I guess I just",
      "start": 20.67,
      "duration": 3.63
    },
    {
      "text": "have one question",
      "start": 23.25,
      "duration": 7.22
    },
    {
      "text": "when as a man I look at this matriarchy",
      "start": 24.3,
      "duration": 9.889
    },
    {
      "text": "do you miss us yet",
      "start": 30.47,
      "duration": 3.719
    }
  ],
  "Errors": null,
  "TranscriptStderr": null
}