{
  "Title": "CHARLOTTESVILLE",
  "Id": "hjg3joKXfqc",
  "Transcript": [
    {
      "text": "Oh world what if you've been doing what",
      "start": 0.03,
      "duration": 6.059
    },
    {
      "text": "is going on everybody needs to take a",
      "start": 3.36,
      "duration": 5.6
    },
    {
      "text": "deep breath step back from the brink and",
      "start": 6.089,
      "duration": 6.901
    },
    {
      "text": "remember use your words not your fists",
      "start": 8.96,
      "duration": 5.73
    },
    {
      "text": "there are so many people to call that",
      "start": 12.99,
      "duration": 4.47
    },
    {
      "text": "good thing that magic Barack Obama was",
      "start": 14.69,
      "duration": 4.9
    },
    {
      "text": "the racial healer everyone expected him",
      "start": 17.46,
      "duration": 4.59
    },
    {
      "text": "to be except everyone with the brain",
      "start": 19.59,
      "duration": 7.49
    },
    {
      "text": "when he got into office in 2008 so first",
      "start": 22.05,
      "duration": 8.879
    },
    {
      "text": "black American president hmm I can taste",
      "start": 27.08,
      "duration": 5.47
    },
    {
      "text": "the racial harmony in the air smells",
      "start": 30.929,
      "duration": 3.841
    },
    {
      "text": "like cordite actually and pepper spray",
      "start": 32.55,
      "duration": 4.74
    },
    {
      "text": "these days so many people to talk about",
      "start": 34.77,
      "duration": 4.94
    },
    {
      "text": "Mike's igner he is the mayor of",
      "start": 37.29,
      "duration": 4.14
    },
    {
      "text": "Charlottesville a couple of interesting",
      "start": 39.71,
      "duration": 4.15
    },
    {
      "text": "coincidences here so earlier this year",
      "start": 41.43,
      "duration": 4.68
    },
    {
      "text": "Mike's ignor said he wanted",
      "start": 43.86,
      "duration": 5.01
    },
    {
      "text": "Charlottesville to be a quote capital of",
      "start": 46.11,
      "duration": 5.219
    },
    {
      "text": "the resistance against Trump in his",
      "start": 48.87,
      "duration": 4.38
    },
    {
      "text": "administration after Trump tried to halt",
      "start": 51.329,
      "duration": 4.081
    },
    {
      "text": "some immigration from the seven",
      "start": 53.25,
      "duration": 4.079
    },
    {
      "text": "countries that don't have any capacity",
      "start": 55.41,
      "duration": 4.8
    },
    {
      "text": "to vet people in a need reliable way the",
      "start": 57.329,
      "duration": 5.25
    },
    {
      "text": "mayor also said that he wanted the city",
      "start": 60.21,
      "duration": 3.689
    },
    {
      "text": "manager to talk with other city",
      "start": 62.579,
      "duration": 2.671
    },
    {
      "text": "councilors about how to make",
      "start": 63.899,
      "duration": 3.931
    },
    {
      "text": "Charlottesville a sanctuary city for",
      "start": 65.25,
      "duration": 4.08
    },
    {
      "text": "those who don't know that means where",
      "start": 67.83,
      "duration": 2.94
    },
    {
      "text": "you can't be arrested for being an",
      "start": 69.33,
      "duration": 5.82
    },
    {
      "text": "illegal alien and I guess this shows",
      "start": 70.77,
      "duration": 7.44
    },
    {
      "text": "just how much he is committed to the",
      "start": 75.15,
      "duration": 3.93
    },
    {
      "text": "rule of law",
      "start": 78.21,
      "duration": 3.96
    },
    {
      "text": "now a well-educated man without a doubt",
      "start": 79.08,
      "duration": 6.899
    },
    {
      "text": "he holds a PhD in political science I'm",
      "start": 82.17,
      "duration": 5.91
    },
    {
      "text": "sorry as if that's a science he holds a",
      "start": 85.979,
      "duration": 5.331
    },
    {
      "text": "PhD in political science from where ah",
      "start": 88.08,
      "duration": 5.579
    },
    {
      "text": "if you've been following any of the",
      "start": 91.31,
      "duration": 4.48
    },
    {
      "text": "leftist attacks on right speakers and",
      "start": 93.659,
      "duration": 4.021
    },
    {
      "text": "free speech advocates and so on you may",
      "start": 95.79,
      "duration": 4.92
    },
    {
      "text": "not be at all shocked to hear that the",
      "start": 97.68,
      "duration": 6.719
    },
    {
      "text": "mayor of Charlottesville holds a PhD in",
      "start": 100.71,
      "duration": 5.339
    },
    {
      "text": "political science from the University of",
      "start": 104.399,
      "duration": 6.54
    },
    {
      "text": "California at Berkeley so good thing",
      "start": 106.049,
      "duration": 6.57
    },
    {
      "text": "that indoctrination didn't take any hold",
      "start": 110.939,
      "duration": 2.22
    },
    {
      "text": "at all",
      "start": 112.619,
      "duration": 5.04
    },
    {
      "text": "Mike was appointed by governor Tim Kaine",
      "start": 113.159,
      "duration": 6.78
    },
    {
      "text": "he was of course Hillary's VP choice",
      "start": 117.659,
      "duration": 4.681
    },
    {
      "text": "governor Tim Kaine to a four-year term",
      "start": 119.939,
      "duration": 4.261
    },
    {
      "text": "on Virginia's Board of Medicine so",
      "start": 122.34,
      "duration": 3.45
    },
    {
      "text": "fairly tight politically with Tim Kaine",
      "start": 124.2,
      "duration": 4.14
    },
    {
      "text": "Tim Kaine himself has three children the",
      "start": 125.79,
      "duration": 5.04
    },
    {
      "text": "youngest son of Tim Kaine his name is",
      "start": 128.34,
      "duration": 4.979
    },
    {
      "text": "Lynwood and he was arrested",
      "start": 130.83,
      "duration": 4.95
    },
    {
      "text": "in Minnesota for his alleged role in an",
      "start": 133.319,
      "duration": 5.611
    },
    {
      "text": "organized riot against the Trump",
      "start": 135.78,
      "duration": 4.799
    },
    {
      "text": "administration and Donald Trump's",
      "start": 138.93,
      "duration": 4.919
    },
    {
      "text": "policies this young man 24 years old he",
      "start": 140.579,
      "duration": 5.731
    },
    {
      "text": "was charged in May by prosecutors in San",
      "start": 143.849,
      "duration": 4.86
    },
    {
      "text": "Paul with fleeing on foot concealing",
      "start": 146.31,
      "duration": 4.25
    },
    {
      "text": "identity in a public place and",
      "start": 148.709,
      "duration": 3.75
    },
    {
      "text": "obstructing the legal process by",
      "start": 150.56,
      "duration": 4
    },
    {
      "text": "interfering with a police officer now",
      "start": 152.459,
      "duration": 4.321
    },
    {
      "text": "this is some fairly serious stuff one of",
      "start": 154.56,
      "duration": 3.84
    },
    {
      "text": "his three charges as a whole one is",
      "start": 156.78,
      "duration": 5.25
    },
    {
      "text": "punishable by up to a year in prison so",
      "start": 158.4,
      "duration": 8.399
    },
    {
      "text": "this is I guess the sticky SJW leftist",
      "start": 162.03,
      "duration": 7.62
    },
    {
      "text": "net that the unite the right organizers",
      "start": 166.799,
      "duration": 6.201
    },
    {
      "text": "and participants are wandered into I",
      "start": 169.65,
      "duration": 6.75
    },
    {
      "text": "guess like Seyfried training late stage",
      "start": 173,
      "duration": 8.859
    },
    {
      "text": "rather hungry tiger now what was the",
      "start": 176.4,
      "duration": 8.009
    },
    {
      "text": "plan what was the plan well first of all",
      "start": 181.859,
      "duration": 6.151
    },
    {
      "text": "the plan was to deny the permit for the",
      "start": 184.409,
      "duration": 4.89
    },
    {
      "text": "assembly for the unite the right",
      "start": 188.01,
      "duration": 3.27
    },
    {
      "text": "assembly the unite the right was upset",
      "start": 189.299,
      "duration": 3.961
    },
    {
      "text": "some people were upset because the",
      "start": 191.28,
      "duration": 4.019
    },
    {
      "text": "statue of Robert Ely was being taken",
      "start": 193.26,
      "duration": 4.92
    },
    {
      "text": "down and they didn't like that and I",
      "start": 195.299,
      "duration": 5.37
    },
    {
      "text": "don't know do you know there's a statue",
      "start": 198.18,
      "duration": 5.16
    },
    {
      "text": "of Vladimir Lenin in Seattle I think",
      "start": 200.669,
      "duration": 4.71
    },
    {
      "text": "that's highly offensive I think it",
      "start": 203.34,
      "duration": 4.319
    },
    {
      "text": "should stay up though as a reminder that",
      "start": 205.379,
      "duration": 3.48
    },
    {
      "text": "communism doesn't work and we",
      "start": 207.659,
      "duration": 2.79
    },
    {
      "text": "continually need to talk about that",
      "start": 208.859,
      "duration": 3.3
    },
    {
      "text": "because apparently people have a short",
      "start": 210.449,
      "duration": 3.18
    },
    {
      "text": "memory no matter how much it's",
      "start": 212.159,
      "duration": 3.631
    },
    {
      "text": "Washington blood that stain seems to",
      "start": 213.629,
      "duration": 7.741
    },
    {
      "text": "fade away so that was the impetus they",
      "start": 215.79,
      "duration": 7.439
    },
    {
      "text": "applied for a permit and they were",
      "start": 221.37,
      "duration": 3.479
    },
    {
      "text": "denied their permit now the ACLU the",
      "start": 223.229,
      "duration": 3.69
    },
    {
      "text": "American Civil Liberties Union stepped",
      "start": 224.849,
      "duration": 5.581
    },
    {
      "text": "in took him to court the town of",
      "start": 226.919,
      "duration": 5.34
    },
    {
      "text": "Charlottesville and said well you can't",
      "start": 230.43,
      "duration": 3.899
    },
    {
      "text": "deny them their free speech rights based",
      "start": 232.259,
      "duration": 3.57
    },
    {
      "text": "on the content of what's being said and",
      "start": 234.329,
      "duration": 4.83
    },
    {
      "text": "eventually they won and so I'm going to",
      "start": 235.829,
      "duration": 8.55
    },
    {
      "text": "give an imitation of what the the City",
      "start": 239.159,
      "duration": 6.66
    },
    {
      "text": "Council was probably like after it's",
      "start": 244.379,
      "duration": 5.491
    },
    {
      "text": "fine okay Nazis you can have your rally",
      "start": 245.819,
      "duration": 6.271
    },
    {
      "text": "but let's just see what happens now",
      "start": 249.87,
      "duration": 5.459
    },
    {
      "text": "shall we because they had weeks leading",
      "start": 252.09,
      "duration": 4.829
    },
    {
      "text": "up to the protest city and state",
      "start": 255.329,
      "duration": 4.08
    },
    {
      "text": "officials got together put their helium",
      "start": 256.919,
      "duration": 4.44
    },
    {
      "text": "heads together and drew up a detailed",
      "start": 259.409,
      "duration": 4.101
    },
    {
      "text": "plan for how to deal with the rally now",
      "start": 261.359,
      "duration": 5.31
    },
    {
      "text": "the rally drew a grand total of fewer",
      "start": 263.51,
      "duration": 3.61
    },
    {
      "text": "than",
      "start": 266.669,
      "duration": 3.871
    },
    {
      "text": "five hundred people this is not exactly",
      "start": 267.12,
      "duration": 6.84
    },
    {
      "text": "Germany in 1933 when Hitler is getting",
      "start": 270.54,
      "duration": 4.86
    },
    {
      "text": "what thirty thirty five percent of the",
      "start": 273.96,
      "duration": 4.11
    },
    {
      "text": "vote this is five hundred people in a",
      "start": 275.4,
      "duration": 4.829
    },
    {
      "text": "couple hundred million people country so",
      "start": 278.07,
      "duration": 5.46
    },
    {
      "text": "not massive now to deal with these five",
      "start": 280.229,
      "duration": 5.521
    },
    {
      "text": "hundred people they had a thousand first",
      "start": 283.53,
      "duration": 5.07
    },
    {
      "text": "responders including three hundred State",
      "start": 285.75,
      "duration": 4.199
    },
    {
      "text": "Police troopers and members of the",
      "start": 288.6,
      "duration": 6.9
    },
    {
      "text": "National Guard so you had two first",
      "start": 289.949,
      "duration": 8.401
    },
    {
      "text": "responders for everyone rally attender",
      "start": 295.5,
      "duration": 4.47
    },
    {
      "text": "yes that's pretty much the worst Beach",
      "start": 298.35,
      "duration": 5.25
    },
    {
      "text": "Boys song that was ever written so if",
      "start": 299.97,
      "duration": 5.58
    },
    {
      "text": "they had weeks to do this and they had a",
      "start": 303.6,
      "duration": 5.7
    },
    {
      "text": "two to one ratio of law enforcement to",
      "start": 305.55,
      "duration": 6.3
    },
    {
      "text": "actual participants in the rally I think",
      "start": 309.3,
      "duration": 4.41
    },
    {
      "text": "it should have been vaguely possible to",
      "start": 311.85,
      "duration": 4.62
    },
    {
      "text": "keep it peaceful that was the plan now",
      "start": 313.71,
      "duration": 4.26
    },
    {
      "text": "I'm going to go out on a limb here and",
      "start": 316.47,
      "duration": 3.419
    },
    {
      "text": "although I have absolutely zero formal",
      "start": 317.97,
      "duration": 4.65
    },
    {
      "text": "police training I'm gonna construct a",
      "start": 319.889,
      "duration": 5.011
    },
    {
      "text": "scenario where in the piece could have",
      "start": 322.62,
      "duration": 4.71
    },
    {
      "text": "been kept so the unite the right rally",
      "start": 324.9,
      "duration": 4.53
    },
    {
      "text": "attendees were kind of pushed into a",
      "start": 327.33,
      "duration": 4.709
    },
    {
      "text": "fairly small set of squares and then",
      "start": 329.43,
      "duration": 5.19
    },
    {
      "text": "they were ringed by some you know",
      "start": 332.039,
      "duration": 5.371
    },
    {
      "text": "peaceful some obviously not so peaceful",
      "start": 334.62,
      "duration": 5.4
    },
    {
      "text": "some utterly feral leftist protesters",
      "start": 337.41,
      "duration": 5.819
    },
    {
      "text": "who disagreed with their arguments let's",
      "start": 340.02,
      "duration": 6.95
    },
    {
      "text": "say so what I would do is I would put a",
      "start": 343.229,
      "duration": 7.591
    },
    {
      "text": "human chain between the rally attendees",
      "start": 346.97,
      "duration": 5.65
    },
    {
      "text": "and the protesters",
      "start": 350.82,
      "duration": 5.01
    },
    {
      "text": "yeah the protest could yell the the",
      "start": 352.62,
      "duration": 4.71
    },
    {
      "text": "rally attendees could have their",
      "start": 355.83,
      "duration": 4.29
    },
    {
      "text": "speeches everybody could have a robust",
      "start": 357.33,
      "duration": 5.67
    },
    {
      "text": "exchange of ideas and then go home in",
      "start": 360.12,
      "duration": 4.829
    },
    {
      "text": "one piece and there wouldn't be the",
      "start": 363,
      "duration": 4.229
    },
    {
      "text": "horrifying tragedy if not downright",
      "start": 364.949,
      "duration": 5.101
    },
    {
      "text": "murder as it's been alleged of a young",
      "start": 367.229,
      "duration": 5.611
    },
    {
      "text": "man driving his car into leftist",
      "start": 370.05,
      "duration": 5.31
    },
    {
      "text": "protesters killing one and wounding many",
      "start": 372.84,
      "duration": 4.29
    },
    {
      "text": "and quite possibly there may not have",
      "start": 375.36,
      "duration": 3.51
    },
    {
      "text": "been a crash of a police helicopter that",
      "start": 377.13,
      "duration": 4.77
    },
    {
      "text": "killed two policemen so you put the",
      "start": 378.87,
      "duration": 5.76
    },
    {
      "text": "human beings the cops in between the",
      "start": 381.9,
      "duration": 5.13
    },
    {
      "text": "rally attendees and the protesters and",
      "start": 384.63,
      "duration": 4.38
    },
    {
      "text": "you make sure they don't come into",
      "start": 387.03,
      "duration": 3.93
    },
    {
      "text": "physical contact with each other and if",
      "start": 389.01,
      "duration": 4.26
    },
    {
      "text": "anyone throws stuff you arrest them it's",
      "start": 390.96,
      "duration": 4.17
    },
    {
      "text": "not that complicated you've got to the",
      "start": 393.27,
      "duration": 6.94
    },
    {
      "text": "one like yeah a riots people",
      "start": 395.13,
      "duration": 8.53
    },
    {
      "text": "so this does not seem to have been done",
      "start": 400.21,
      "duration": 7.799
    },
    {
      "text": "what seems to have been done is that the",
      "start": 403.66,
      "duration": 5.819
    },
    {
      "text": "rally attendees were in a fairly small",
      "start": 408.009,
      "duration": 4.731
    },
    {
      "text": "area they were ringed by leftist",
      "start": 409.479,
      "duration": 7.261
    },
    {
      "text": "protesters and agitators and violent",
      "start": 412.74,
      "duration": 6.97
    },
    {
      "text": "types and then the police melted away",
      "start": 416.74,
      "duration": 7.2
    },
    {
      "text": "the police vanished and it was open",
      "start": 419.71,
      "duration": 10.709
    },
    {
      "text": "season on the rally attendees now given",
      "start": 423.94,
      "duration": 7.77
    },
    {
      "text": "that they had weeks to plan they have",
      "start": 430.419,
      "duration": 2.851
    },
    {
      "text": "virtually unlimited budgets they have",
      "start": 431.71,
      "duration": 4.95
    },
    {
      "text": "virtually unlimited manpower I think",
      "start": 433.27,
      "duration": 7.2
    },
    {
      "text": "that what happened was the plan now the",
      "start": 436.66,
      "duration": 5.729
    },
    {
      "text": "ACLU has recently confirmed that the",
      "start": 440.47,
      "duration": 4.83
    },
    {
      "text": "police in charlottesville were actually",
      "start": 442.389,
      "duration": 6.481
    },
    {
      "text": "given stand-down orders and what does",
      "start": 445.3,
      "duration": 5.76
    },
    {
      "text": "this do you've got two groups the two",
      "start": 448.87,
      "duration": 5.549
    },
    {
      "text": "groups who violently hate each other you",
      "start": 451.06,
      "duration": 5.639
    },
    {
      "text": "have no police presence you have a stand",
      "start": 454.419,
      "duration": 5.671
    },
    {
      "text": "down order what do you think is gonna",
      "start": 456.699,
      "duration": 7.25
    },
    {
      "text": "happen this is not brain surgery this is",
      "start": 460.09,
      "duration": 6.569
    },
    {
      "text": "setting up the perfect storm for the",
      "start": 463.949,
      "duration": 7
    },
    {
      "text": "kind of catastrophes that unfolded so",
      "start": 466.659,
      "duration": 6.331
    },
    {
      "text": "what happened was violence escalated",
      "start": 470.949,
      "duration": 3.451
    },
    {
      "text": "there was a state of emergency the riot",
      "start": 472.99,
      "duration": 4.26
    },
    {
      "text": "was shut down see you had your permit",
      "start": 474.4,
      "duration": 5.579
    },
    {
      "text": "curtain half your meeting right and",
      "start": 477.25,
      "duration": 5.19
    },
    {
      "text": "James fields a suspect in this car",
      "start": 479.979,
      "duration": 4.381
    },
    {
      "text": "ramming as I mentioned two state police",
      "start": 482.44,
      "duration": 4.199
    },
    {
      "text": "officers died in a helicopter crash just",
      "start": 484.36,
      "duration": 4.739
    },
    {
      "text": "an absolute disaster all around and now",
      "start": 486.639,
      "duration": 3.75
    },
    {
      "text": "there now the aftermath you've got",
      "start": 489.099,
      "duration": 3.75
    },
    {
      "text": "people who have been photographed or",
      "start": 490.389,
      "duration": 3.75
    },
    {
      "text": "videos of them the United the right",
      "start": 492.849,
      "duration": 3.301
    },
    {
      "text": "protesters are being doxed and they're",
      "start": 494.139,
      "duration": 4.171
    },
    {
      "text": "their employees employers are being",
      "start": 496.15,
      "duration": 7.32
    },
    {
      "text": "contacted they're getting fired so that",
      "start": 498.31,
      "duration": 8.729
    },
    {
      "text": "is what happened more or less in a",
      "start": 503.47,
      "duration": 6.09
    },
    {
      "text": "nutshell and now it is time for the big",
      "start": 507.039,
      "duration": 4.231
    },
    {
      "text": "picture it is time to bring the big soft",
      "start": 509.56,
      "duration": 4.169
    },
    {
      "text": "hammer philosophy down on people's",
      "start": 511.27,
      "duration": 5.069
    },
    {
      "text": "crystalline delusions and expose what is",
      "start": 513.729,
      "duration": 6.031
    },
    {
      "text": "really going on first point I have been",
      "start": 516.339,
      "duration": 5.341
    },
    {
      "text": "predicting this for over a year as have",
      "start": 519.76,
      "duration": 4.73
    },
    {
      "text": "many other people with clear eyes and",
      "start": 521.68,
      "duration": 5.76
    },
    {
      "text": "rational minds that if you continue to",
      "start": 524.49,
      "duration": 6.46
    },
    {
      "text": "escalate in language then it results in",
      "start": 527.44,
      "duration": 5.61
    },
    {
      "text": "this kind of violence when you're gonna",
      "start": 530.95,
      "duration": 2.97
    },
    {
      "text": "call people",
      "start": 533.05,
      "duration": 4.5
    },
    {
      "text": "Nazis and they must be smashed and they",
      "start": 533.92,
      "duration": 5.76
    },
    {
      "text": "must be punch a Nazi and they can be",
      "start": 537.55,
      "duration": 5.61
    },
    {
      "text": "killed and so on well that is an open",
      "start": 539.68,
      "duration": 6.899
    },
    {
      "text": "declaration of the intent to kill of the",
      "start": 543.16,
      "duration": 5.01
    },
    {
      "text": "intent to maim of the intent to attack",
      "start": 546.579,
      "duration": 7.431
    },
    {
      "text": "of the attempt to injure so of course",
      "start": 548.17,
      "duration": 8.13
    },
    {
      "text": "de-escalating the rhetoric is something",
      "start": 554.01,
      "duration": 5.05
    },
    {
      "text": "enormous ly important and foundational",
      "start": 556.3,
      "duration": 5.279
    },
    {
      "text": "my have a I've had a public intellectual",
      "start": 559.06,
      "duration": 4.709
    },
    {
      "text": "career for eleven years actually this",
      "start": 561.579,
      "duration": 4.95
    },
    {
      "text": "week is the eleventh anniversary of my",
      "start": 563.769,
      "duration": 4.68
    },
    {
      "text": "very first youtube video I have",
      "start": 566.529,
      "duration": 4.141
    },
    {
      "text": "continually and perpetually called for",
      "start": 568.449,
      "duration": 4.311
    },
    {
      "text": "reason versus aggression for",
      "start": 570.67,
      "duration": 6.359
    },
    {
      "text": "conversation versus violence and a lot",
      "start": 572.76,
      "duration": 7.42
    },
    {
      "text": "of people didn't listen a lot of people",
      "start": 577.029,
      "duration": 6.12
    },
    {
      "text": "didn't listen because well if you look",
      "start": 580.18,
      "duration": 5.339
    },
    {
      "text": "at history humanity really likes to",
      "start": 583.149,
      "duration": 5.161
    },
    {
      "text": "fight they like to fight it wars",
      "start": 585.519,
      "duration": 5.971
    },
    {
      "text": "conflicts raids rapes you name it human",
      "start": 588.31,
      "duration": 5.7
    },
    {
      "text": "beings and ants the two species that war",
      "start": 591.49,
      "duration": 5.01
    },
    {
      "text": "among themselves so a lot of people want",
      "start": 594.01,
      "duration": 5.699
    },
    {
      "text": "this they want this chaos they want this",
      "start": 596.5,
      "duration": 5.76
    },
    {
      "text": "violence they get off on the videos of",
      "start": 599.709,
      "duration": 4.471
    },
    {
      "text": "violence and and I don't know what it is",
      "start": 602.26,
      "duration": 6.269
    },
    {
      "text": "so if you have been aware of this issue",
      "start": 604.18,
      "duration": 6.599
    },
    {
      "text": "and you've not been speaking out against",
      "start": 608.529,
      "duration": 4.591
    },
    {
      "text": "this escalating violence over the last",
      "start": 610.779,
      "duration": 5.611
    },
    {
      "text": "year sorry your part of the problem you",
      "start": 613.12,
      "duration": 4.589
    },
    {
      "text": "really are part of the problem and you",
      "start": 616.39,
      "duration": 4.05
    },
    {
      "text": "need to change right now you should have",
      "start": 617.709,
      "duration": 4.32
    },
    {
      "text": "changed a year ago you need to change",
      "start": 620.44,
      "duration": 9.079
    },
    {
      "text": "right now so here's the thing",
      "start": 622.029,
      "duration": 12.42
    },
    {
      "text": "free speech there is no alternative to",
      "start": 629.519,
      "duration": 7.871
    },
    {
      "text": "free speech except violence human beings",
      "start": 634.449,
      "duration": 5.161
    },
    {
      "text": "we need to make decisions in societies",
      "start": 637.39,
      "duration": 3.629
    },
    {
      "text": "in countries we need to allocate",
      "start": 639.61,
      "duration": 2.909
    },
    {
      "text": "resources there are laws that need to be",
      "start": 641.019,
      "duration": 2.491
    },
    {
      "text": "passed or repealed",
      "start": 642.519,
      "duration": 2.55
    },
    {
      "text": "we need to make decisions but either",
      "start": 643.51,
      "duration": 5.46
    },
    {
      "text": "than a reason with each other or you're",
      "start": 645.069,
      "duration": 7.32
    },
    {
      "text": "going to have plastic bottles filled",
      "start": 648.97,
      "duration": 4.679
    },
    {
      "text": "with concrete thrown at someone's head",
      "start": 652.389,
      "duration": 2.661
    },
    {
      "text": "you're gonna have cars plowing through",
      "start": 653.649,
      "duration": 4.861
    },
    {
      "text": "protesters it is free speech or it is",
      "start": 655.05,
      "duration": 5.74
    },
    {
      "text": "violence do not fool yourself for one",
      "start": 658.51,
      "duration": 6.05
    },
    {
      "text": "minute that there is some third option",
      "start": 660.79,
      "duration": 6.57
    },
    {
      "text": "managed speech or well it's just hates",
      "start": 664.56,
      "duration": 3.11
    },
    {
      "text": "me",
      "start": 667.36,
      "duration": 3.7
    },
    {
      "text": "I don't like it no free speech free",
      "start": 667.67,
      "duration": 6.75
    },
    {
      "text": "speech it's the only thing that keeps",
      "start": 671.06,
      "duration": 5.7
    },
    {
      "text": "our jets cool this is really important",
      "start": 674.42,
      "duration": 4.47
    },
    {
      "text": "to understand of course their speech out",
      "start": 676.76,
      "duration": 6.03
    },
    {
      "text": "there that you hate their speech out",
      "start": 678.89,
      "duration": 6.9
    },
    {
      "text": "there that I hate there are people out",
      "start": 682.79,
      "duration": 4.38
    },
    {
      "text": "there who hate your speech there are",
      "start": 685.79,
      "duration": 3.63
    },
    {
      "text": "people out there who hate my speech if",
      "start": 687.17,
      "duration": 5.1
    },
    {
      "text": "we allow an extremity of emotion to",
      "start": 689.42,
      "duration": 4.8
    },
    {
      "text": "silence people who are speaking",
      "start": 692.27,
      "duration": 4.35
    },
    {
      "text": "peacefully where does it end",
      "start": 694.22,
      "duration": 4.98
    },
    {
      "text": "and this is what they do this is what",
      "start": 696.62,
      "duration": 5.7
    },
    {
      "text": "people who want to control speech who",
      "start": 699.2,
      "duration": 4.38
    },
    {
      "text": "want to shut off debate what do they do",
      "start": 702.32,
      "duration": 3.84
    },
    {
      "text": "they find the most unpopular group that",
      "start": 703.58,
      "duration": 5.79
    },
    {
      "text": "could possibly be imagined and they say",
      "start": 706.16,
      "duration": 5.1
    },
    {
      "text": "well if you defend their free speech",
      "start": 709.37,
      "duration": 6.06
    },
    {
      "text": "somehow you're Pro their position right",
      "start": 711.26,
      "duration": 7.97
    },
    {
      "text": "so oh let's find a guy with a Nazi flag",
      "start": 715.43,
      "duration": 7.56
    },
    {
      "text": "okay there's a guy with a Nazi flag not",
      "start": 719.23,
      "duration": 5.56
    },
    {
      "text": "sysem is violence",
      "start": 722.99,
      "duration": 4.05
    },
    {
      "text": "it is collectivism it is racism it",
      "start": 724.79,
      "duration": 5.33
    },
    {
      "text": "requires a massive totalitarian state",
      "start": 727.04,
      "duration": 8.12
    },
    {
      "text": "engage engage listen I do a call-in show",
      "start": 730.12,
      "duration": 8.56
    },
    {
      "text": "four hours a week I've had communists",
      "start": 735.16,
      "duration": 5.92
    },
    {
      "text": "call in I've had fascists call in I've",
      "start": 738.68,
      "duration": 4.2
    },
    {
      "text": "had people I enormous ly disagree with",
      "start": 741.08,
      "duration": 5.63
    },
    {
      "text": "and we have it out in a public forum",
      "start": 742.88,
      "duration": 7.86
    },
    {
      "text": "that's what you do in a free society",
      "start": 746.71,
      "duration": 7.48
    },
    {
      "text": "if people's ideas are so bad so wrong so",
      "start": 750.74,
      "duration": 6.9
    },
    {
      "text": "egregious let them speak don't pull a",
      "start": 754.19,
      "duration": 4.86
    },
    {
      "text": "Blues Brothers and drive them off a",
      "start": 757.64,
      "duration": 5.76
    },
    {
      "text": "cliff drive them off a bridge you let",
      "start": 759.05,
      "duration": 6.9
    },
    {
      "text": "them speak so that everyone can hear how",
      "start": 763.4,
      "duration": 4.86
    },
    {
      "text": "bad the ideas are and if their ideas are",
      "start": 765.95,
      "duration": 3.93
    },
    {
      "text": "so bad you should be able to rabbat them",
      "start": 768.26,
      "duration": 4.74
    },
    {
      "text": "and dismantle them very easily listen if",
      "start": 769.88,
      "duration": 5.22
    },
    {
      "text": "I can spend over an hour having a debate",
      "start": 773,
      "duration": 3.57
    },
    {
      "text": "with a guy who believes the world is",
      "start": 775.1,
      "duration": 4.44
    },
    {
      "text": "flat and that the Sun is closer to us",
      "start": 776.57,
      "duration": 6.99
    },
    {
      "text": "than Australia you can handle some toxic",
      "start": 779.54,
      "duration": 9.12
    },
    {
      "text": "ideology you can handle it because what",
      "start": 783.56,
      "duration": 6.96
    },
    {
      "text": "happens is they say well that speech",
      "start": 788.66,
      "duration": 4.17
    },
    {
      "text": "that's horrible speech we should stop",
      "start": 790.52,
      "duration": 4.56
    },
    {
      "text": "that speech that's hateful speech we",
      "start": 792.83,
      "duration": 5.9
    },
    {
      "text": "should stop that speech and you say yeah",
      "start": 795.08,
      "duration": 5.91
    },
    {
      "text": "because you don't",
      "start": 798.73,
      "duration": 4.06
    },
    {
      "text": "want to stand on principle gee yeah I",
      "start": 800.99,
      "duration": 3.09
    },
    {
      "text": "don't want to be out there defending",
      "start": 802.79,
      "duration": 6.42
    },
    {
      "text": "Nazis but you're not defending Nazis",
      "start": 804.08,
      "duration": 8.009
    },
    {
      "text": "you're defending yourself you're",
      "start": 809.21,
      "duration": 6.33
    },
    {
      "text": "defending your capacity to speak because",
      "start": 812.089,
      "duration": 8.421
    },
    {
      "text": "look you can find always find some group",
      "start": 815.54,
      "duration": 7.169
    },
    {
      "text": "whose public pronouncements you find",
      "start": 820.51,
      "duration": 4.72
    },
    {
      "text": "odious horrible wretched reprehensible",
      "start": 822.709,
      "duration": 7.651
    },
    {
      "text": "evil but guess what there's one or more",
      "start": 825.23,
      "duration": 7.53
    },
    {
      "text": "people out there in your country who",
      "start": 830.36,
      "duration": 5.52
    },
    {
      "text": "find exactly the same of your speech",
      "start": 832.76,
      "duration": 5.55
    },
    {
      "text": "they think exactly the same of your",
      "start": 835.88,
      "duration": 5.24
    },
    {
      "text": "speech and if you're going to allow",
      "start": 838.31,
      "duration": 7.94
    },
    {
      "text": "hatred rage contempt to silence people",
      "start": 841.12,
      "duration": 7.63
    },
    {
      "text": "it's just an escalation of offense then",
      "start": 846.25,
      "duration": 4.54
    },
    {
      "text": "I'm gonna manufacture the most defense",
      "start": 848.75,
      "duration": 5.339
    },
    {
      "text": "to shut people up that I can't beat in",
      "start": 850.79,
      "duration": 5.01
    },
    {
      "text": "the debate that's gonna be you you",
      "start": 854.089,
      "duration": 3.661
    },
    {
      "text": "understand we don't surrender that power",
      "start": 855.8,
      "duration": 5.43
    },
    {
      "text": "to anyone you may hate their speech",
      "start": 857.75,
      "duration": 5.399
    },
    {
      "text": "somebody's gonna hate your speech you do",
      "start": 861.23,
      "duration": 4.71
    },
    {
      "text": "not want to give up that power you do",
      "start": 863.149,
      "duration": 5.361
    },
    {
      "text": "not want to give up that power at all",
      "start": 865.94,
      "duration": 6.05
    },
    {
      "text": "that is where civilization ends",
      "start": 868.51,
      "duration": 7.21
    },
    {
      "text": "completely and the thing is to like I",
      "start": 871.99,
      "duration": 8.44
    },
    {
      "text": "don't understand this why are you",
      "start": 875.72,
      "duration": 8.46
    },
    {
      "text": "hitting people you disagree with maybe",
      "start": 880.43,
      "duration": 5.9
    },
    {
      "text": "they're completely horrible and wrong",
      "start": 884.18,
      "duration": 4.74
    },
    {
      "text": "the lowest of the low the vilest of the",
      "start": 886.33,
      "duration": 6.43
    },
    {
      "text": "vile so prove them wrong show how wrong",
      "start": 888.92,
      "duration": 4.289
    },
    {
      "text": "they are",
      "start": 892.76,
      "duration": 1.92
    },
    {
      "text": "bring the reason bring the evidence",
      "start": 893.209,
      "duration": 3.511
    },
    {
      "text": "bring your rhetorical skills bring your",
      "start": 894.68,
      "duration": 7.19
    },
    {
      "text": "eloquence what the hell are you doing",
      "start": 896.72,
      "duration": 10.309
    },
    {
      "text": "bad idea I'm gonna hit him with a brick",
      "start": 901.87,
      "duration": 5.159
    },
    {
      "text": "are you stupid you don't hit people with",
      "start": 907.06,
      "duration": 6.04
    },
    {
      "text": "bricks because they're saying things you",
      "start": 910.19,
      "duration": 5.3
    },
    {
      "text": "find offensive what are you retarded",
      "start": 913.1,
      "duration": 4.739
    },
    {
      "text": "actually that's sorry I apologize for",
      "start": 915.49,
      "duration": 2.65
    },
    {
      "text": "that",
      "start": 917.839,
      "duration": 2.041
    },
    {
      "text": "that's an insult to retarded people",
      "start": 918.14,
      "duration": 2.819
    },
    {
      "text": "because mentally challenged people",
      "start": 919.88,
      "duration": 3.51
    },
    {
      "text": "aren't hitting people with bricks for",
      "start": 920.959,
      "duration": 6.741
    },
    {
      "text": "disagreeing with them hitting people",
      "start": 923.39,
      "duration": 7.949
    },
    {
      "text": "throwing feces and urine at them pulling",
      "start": 927.7,
      "duration": 6.62
    },
    {
      "text": "fire alarms",
      "start": 931.339,
      "duration": 5.821
    },
    {
      "text": "you are confessing that you don't know",
      "start": 934.32,
      "duration": 5.04
    },
    {
      "text": "had a reason you're confessing that you",
      "start": 937.16,
      "duration": 5.89
    },
    {
      "text": "you can't find any way to productively",
      "start": 939.36,
      "duration": 4.919
    },
    {
      "text": "disagree and disprove what they're",
      "start": 943.05,
      "duration": 3.45
    },
    {
      "text": "saying you're saying I can't answer",
      "start": 944.279,
      "duration": 3.721
    },
    {
      "text": "their arguments with reason and evidence",
      "start": 946.5,
      "duration": 6.259
    },
    {
      "text": "all gonna hit him with a brick or a car",
      "start": 948,
      "duration": 10.56
    },
    {
      "text": "stop it now that is not how we are gonna",
      "start": 952.759,
      "duration": 9.281
    },
    {
      "text": "have a civilization no hitting people",
      "start": 958.56,
      "duration": 5.07
    },
    {
      "text": "with bricks you understand",
      "start": 962.04,
      "duration": 4.109
    },
    {
      "text": "stop it learn how to reason Regus",
      "start": 963.63,
      "duration": 4.829
    },
    {
      "text": "Socrates read your John Locke read your",
      "start": 966.149,
      "duration": 4.44
    },
    {
      "text": "Aristotle read your play to learn how to",
      "start": 968.459,
      "duration": 4.081
    },
    {
      "text": "make a goddamn argument and stop hitting",
      "start": 970.589,
      "duration": 7.44
    },
    {
      "text": "people with bricks I call it childish",
      "start": 972.54,
      "duration": 9.75
    },
    {
      "text": "but that's an insult to children oh look",
      "start": 978.029,
      "duration": 5.851
    },
    {
      "text": "I hit someone with a brick I made him a",
      "start": 982.29,
      "duration": 2.849
    },
    {
      "text": "victim and now he's got free publicity",
      "start": 983.88,
      "duration": 3.509
    },
    {
      "text": "for everyone else who wants to join his",
      "start": 985.139,
      "duration": 4.56
    },
    {
      "text": "cause good thinking everyone way to",
      "start": 987.389,
      "duration": 7.591
    },
    {
      "text": "solve problems you understand in a",
      "start": 989.699,
      "duration": 5.671
    },
    {
      "text": "debate",
      "start": 994.98,
      "duration": 8.7
    },
    {
      "text": "whoever punches first loses because",
      "start": 995.37,
      "duration": 13.05
    },
    {
      "text": "here's the thing if you're not smart if",
      "start": 1003.68,
      "duration": 6.06
    },
    {
      "text": "you don't know how to debate if you",
      "start": 1008.42,
      "duration": 2.43
    },
    {
      "text": "don't know how to reason if you don't",
      "start": 1009.74,
      "duration": 4.56
    },
    {
      "text": "know how to communicate of course you're",
      "start": 1010.85,
      "duration": 7.289
    },
    {
      "text": "going to want to downshift to violence",
      "start": 1014.3,
      "duration": 5.849
    },
    {
      "text": "less intelligent people are generally",
      "start": 1018.139,
      "duration": 5.401
    },
    {
      "text": "better at violence in the absence of",
      "start": 1020.149,
      "duration": 5.641
    },
    {
      "text": "rational arguments it is the brutal",
      "start": 1023.54,
      "duration": 4.74
    },
    {
      "text": "losers who will win the day is that",
      "start": 1025.79,
      "duration": 4.919
    },
    {
      "text": "where we want to go as a society where",
      "start": 1028.28,
      "duration": 4.379
    },
    {
      "text": "the fists and the bricks and the",
      "start": 1030.709,
      "duration": 4.98
    },
    {
      "text": "hurtling cars are what define the debate",
      "start": 1032.659,
      "duration": 8.75
    },
    {
      "text": "or what define the conversation and I",
      "start": 1035.689,
      "duration": 9.63
    },
    {
      "text": "know I know there's supposed to be this",
      "start": 1041.409,
      "duration": 7.961
    },
    {
      "text": "let's all come together but the first",
      "start": 1045.319,
      "duration": 6.6
    },
    {
      "text": "thing I saw was punch in at sea punch a",
      "start": 1049.37,
      "duration": 4.95
    },
    {
      "text": "Nazi punch in at sea you can punch Nazis",
      "start": 1051.919,
      "duration": 7.921
    },
    {
      "text": "punch a Nazi and then guess what the",
      "start": 1054.32,
      "duration": 7.979
    },
    {
      "text": "definition of Nazi began to spread just",
      "start": 1059.84,
      "duration": 5.76
    },
    {
      "text": "a little bit you remember that a Nazi is",
      "start": 1062.299,
      "duration": 5.671
    },
    {
      "text": "now anyone who's in the extreme",
      "start": 1065.6,
      "duration": 5.16
    },
    {
      "text": "right what is the extreme right people I",
      "start": 1067.97,
      "duration": 5.069
    },
    {
      "text": "really don't like Oh who else is the",
      "start": 1070.76,
      "duration": 4.77
    },
    {
      "text": "Nazi anyone who's on the right what's on",
      "start": 1073.039,
      "duration": 3.961
    },
    {
      "text": "the right I don't know there to the",
      "start": 1075.53,
      "duration": 2.49
    },
    {
      "text": "right of Chairman Mao",
      "start": 1077,
      "duration": 3.69
    },
    {
      "text": "oh I know who Nazi is anyone who likes",
      "start": 1078.02,
      "duration": 4.47
    },
    {
      "text": "Donald Trump I know who a Nazi is",
      "start": 1080.69,
      "duration": 4.29
    },
    {
      "text": "everyone in a maggot I know who a Nazi",
      "start": 1082.49,
      "duration": 6.179
    },
    {
      "text": "is 50 million Republicans they're all",
      "start": 1084.98,
      "duration": 6.99
    },
    {
      "text": "Nazis you understand it's not even a",
      "start": 1088.669,
      "duration": 5.071
    },
    {
      "text": "slippery slope that's a theory it's a",
      "start": 1091.97,
      "duration": 4.62
    },
    {
      "text": "slippery slope for which there is over a",
      "start": 1093.74,
      "duration": 6.059
    },
    {
      "text": "year of empirical evidence pension I see",
      "start": 1096.59,
      "duration": 4.98
    },
    {
      "text": "the definition of Nazi expands to the",
      "start": 1099.799,
      "duration": 3.031
    },
    {
      "text": "point where you can pretty much punch",
      "start": 1101.57,
      "duration": 2.609
    },
    {
      "text": "anyone who disagrees with you",
      "start": 1102.83,
      "duration": 4.62
    },
    {
      "text": "you cannot punch a Nazi you understand",
      "start": 1104.179,
      "duration": 6.561
    },
    {
      "text": "stop punching Nazis prove them wrong",
      "start": 1107.45,
      "duration": 7.29
    },
    {
      "text": "expose their flaws their bad reasoning",
      "start": 1110.74,
      "duration": 7.15
    },
    {
      "text": "their big expose them I don't even know",
      "start": 1114.74,
      "duration": 6.36
    },
    {
      "text": "why I need to say this stuff it's like",
      "start": 1117.89,
      "duration": 4.98
    },
    {
      "text": "y'all never went to kindergarten use",
      "start": 1121.1,
      "duration": 4.23
    },
    {
      "text": "your words not your fists and of course",
      "start": 1122.87,
      "duration": 6.679
    },
    {
      "text": "punch a Nazi becomes punch a communist",
      "start": 1125.33,
      "duration": 6.87
    },
    {
      "text": "and you end up with this why Mars style",
      "start": 1129.549,
      "duration": 7
    },
    {
      "text": "street fighting and of course there is",
      "start": 1132.2,
      "duration": 9.78
    },
    {
      "text": "selective outrage with the media we all",
      "start": 1136.549,
      "duration": 7.201
    },
    {
      "text": "know how this was a couple of days ago",
      "start": 1141.98,
      "duration": 4.079
    },
    {
      "text": "an anti-trump fanatic murdered a GOP",
      "start": 1143.75,
      "duration": 5.01
    },
    {
      "text": "committee boom boom boom two bullets to",
      "start": 1146.059,
      "duration": 4.411
    },
    {
      "text": "the head right in front of his wife was",
      "start": 1148.76,
      "duration": 5.45
    },
    {
      "text": "that talked about Obama did not condemn",
      "start": 1150.47,
      "duration": 6.51
    },
    {
      "text": "the race hatred fueled by certain",
      "start": 1154.21,
      "duration": 4.99
    },
    {
      "text": "elements within black lives matter when",
      "start": 1156.98,
      "duration": 4.65
    },
    {
      "text": "Mike had Johnson gunned down five cops",
      "start": 1159.2,
      "duration": 4.89
    },
    {
      "text": "because he hated white people he didn't",
      "start": 1161.63,
      "duration": 5.4
    },
    {
      "text": "condemn that did anyone ask him to",
      "start": 1164.09,
      "duration": 5.91
    },
    {
      "text": "condemn that good Lord above we got",
      "start": 1167.03,
      "duration": 6.69
    },
    {
      "text": "video of Donald Trump in 2000 decrying",
      "start": 1170,
      "duration": 5.52
    },
    {
      "text": "against David Duke the racists a bigot a",
      "start": 1173.72,
      "duration": 4.589
    },
    {
      "text": "problem he's still got a denial there's",
      "start": 1175.52,
      "duration": 5.94
    },
    {
      "text": "a disavow meanwhile you can see a",
      "start": 1178.309,
      "duration": 4.531
    },
    {
      "text": "picture of Hillary Clinton virtually",
      "start": 1181.46,
      "duration": 4.23
    },
    {
      "text": "tongue kissing Robert Byrd a former",
      "start": 1182.84,
      "duration": 6.51
    },
    {
      "text": "member of the KKK do you have to disavow",
      "start": 1185.69,
      "duration": 9.14
    },
    {
      "text": "that no because you're on the left so",
      "start": 1189.35,
      "duration": 8.28
    },
    {
      "text": "what is the left up to why is this",
      "start": 1194.83,
      "duration": 3.719
    },
    {
      "text": "happening",
      "start": 1197.63,
      "duration": 3.39
    },
    {
      "text": "well the left lost the intellectual",
      "start": 1198.549,
      "duration": 3.301
    },
    {
      "text": "argument",
      "start": 1201.02,
      "duration": 4.58
    },
    {
      "text": "years ago seriously in the 1960s when",
      "start": 1201.85,
      "duration": 6.569
    },
    {
      "text": "the crimes of Stalin came out when Chris",
      "start": 1205.6,
      "duration": 3.9
    },
    {
      "text": "Jeff talked about the cult of",
      "start": 1208.419,
      "duration": 4.731
    },
    {
      "text": "personality when Alexander Solzhenitsyn",
      "start": 1209.5,
      "duration": 7.02
    },
    {
      "text": "published The Gulag Archipelago",
      "start": 1213.15,
      "duration": 6.04
    },
    {
      "text": "in the 70s the concentration camps the",
      "start": 1216.52,
      "duration": 5.64
    },
    {
      "text": "nightmarish totalitarianism of the",
      "start": 1219.19,
      "duration": 5.369
    },
    {
      "text": "Soviet system became clear and you get",
      "start": 1222.16,
      "duration": 4.11
    },
    {
      "text": "the Cambodian system you look at Cuba",
      "start": 1224.559,
      "duration": 5.551
    },
    {
      "text": "all across they lost the argument in",
      "start": 1226.27,
      "duration": 5.76
    },
    {
      "text": "terms of productivity and freedom and",
      "start": 1230.11,
      "duration": 3.87
    },
    {
      "text": "opportunity and a better society and you",
      "start": 1232.03,
      "duration": 4.62
    },
    {
      "text": "had the Giants experiments of East and",
      "start": 1233.98,
      "duration": 6.14
    },
    {
      "text": "West Germany and East and West Berlin",
      "start": 1236.65,
      "duration": 4.83
    },
    {
      "text": "replicated everywhere",
      "start": 1240.12,
      "duration": 3.97
    },
    {
      "text": "communism complete disaster body count",
      "start": 1241.48,
      "duration": 4.59
    },
    {
      "text": "of about a hundred million people in the",
      "start": 1244.09,
      "duration": 3
    },
    {
      "text": "20th century alone",
      "start": 1246.07,
      "duration": 3.359
    },
    {
      "text": "so they lost the argument what do they",
      "start": 1247.09,
      "duration": 3.959
    },
    {
      "text": "do there they say oh well I guess the",
      "start": 1249.429,
      "duration": 2.88
    },
    {
      "text": "theory was wrong we're going to embrace",
      "start": 1251.049,
      "duration": 3.24
    },
    {
      "text": "the free market and freedom and personal",
      "start": 1252.309,
      "duration": 5.521
    },
    {
      "text": "property and contract rights and freedom",
      "start": 1254.289,
      "duration": 7.081
    },
    {
      "text": "baby no no they want power and they're",
      "start": 1257.83,
      "duration": 5.88
    },
    {
      "text": "addicts so they said okay what we gonna",
      "start": 1261.37,
      "duration": 5.28
    },
    {
      "text": "switch immigration from Europe to the",
      "start": 1263.71,
      "duration": 4.5
    },
    {
      "text": "third world we can get third-world",
      "start": 1266.65,
      "duration": 2.909
    },
    {
      "text": "migrants or third welding were",
      "start": 1268.21,
      "duration": 3.959
    },
    {
      "text": "immigrants to come into America and this",
      "start": 1269.559,
      "duration": 6.23
    },
    {
      "text": "was the 1965 Immigration Act and",
      "start": 1272.169,
      "duration": 5.851
    },
    {
      "text": "immigrants from the third world and",
      "start": 1275.789,
      "duration": 4.571
    },
    {
      "text": "immigrants from Mexico overwhelmingly",
      "start": 1278.02,
      "duration": 4.44
    },
    {
      "text": "vote Democrat and this is why Democrats",
      "start": 1280.36,
      "duration": 3.66
    },
    {
      "text": "want immigration and it's one of the",
      "start": 1282.46,
      "duration": 3.329
    },
    {
      "text": "reasons why Republicans don't I mean if",
      "start": 1284.02,
      "duration": 3.63
    },
    {
      "text": "the immigrants all voted Republican the",
      "start": 1285.789,
      "duration": 3.87
    },
    {
      "text": "Democrats would not want immigration",
      "start": 1287.65,
      "duration": 4.139
    },
    {
      "text": "from the third world but they vote for",
      "start": 1289.659,
      "duration": 5.851
    },
    {
      "text": "the left overwhelmingly and so this was",
      "start": 1291.789,
      "duration": 5.701
    },
    {
      "text": "the plan we can't win the intellectual",
      "start": 1295.51,
      "duration": 4.409
    },
    {
      "text": "argument so we're just gonna import",
      "start": 1297.49,
      "duration": 4.5
    },
    {
      "text": "people who are gonna vote for us because",
      "start": 1299.919,
      "duration": 4.351
    },
    {
      "text": "they don't have the European tradition",
      "start": 1301.99,
      "duration": 5.22
    },
    {
      "text": "of relative separation of state and",
      "start": 1304.27,
      "duration": 4.2
    },
    {
      "text": "economics church and say in someone's",
      "start": 1307.21,
      "duration": 4.949
    },
    {
      "text": "son now Trump is threatening that plan",
      "start": 1308.47,
      "duration": 5.579
    },
    {
      "text": "because he wants to reduce immigration",
      "start": 1312.159,
      "duration": 5.311
    },
    {
      "text": "considerably perhaps even worse Trump is",
      "start": 1314.049,
      "duration": 5.071
    },
    {
      "text": "doing fairly well I mean it's a bumpy",
      "start": 1317.47,
      "duration": 3.18
    },
    {
      "text": "road obviously it was never going to be",
      "start": 1319.12,
      "duration": 3.809
    },
    {
      "text": "smooth sailing but you know more than a",
      "start": 1320.65,
      "duration": 4.71
    },
    {
      "text": "million jobs have been created since you",
      "start": 1322.929,
      "duration": 4.711
    },
    {
      "text": "know what just two just in this year and",
      "start": 1325.36,
      "duration": 3.75
    },
    {
      "text": "when more than a million jobs have been",
      "start": 1327.64,
      "duration": 3.269
    },
    {
      "text": "created what happens is people move from",
      "start": 1329.11,
      "duration": 3.18
    },
    {
      "text": "being dependent on the state to paying",
      "start": 1330.909,
      "duration": 2.331
    },
    {
      "text": "taxes now when you",
      "start": 1332.29,
      "duration": 2.51
    },
    {
      "text": "depending on the state you don't care",
      "start": 1333.24,
      "duration": 2.85
    },
    {
      "text": "about growth of the state in fact you",
      "start": 1334.8,
      "duration": 2.76
    },
    {
      "text": "probably want it because that's more oh",
      "start": 1336.09,
      "duration": 3.63
    },
    {
      "text": "they're gonna raise taxes well I'm on",
      "start": 1337.56,
      "duration": 3.81
    },
    {
      "text": "the receiving end of that tax bandwagon",
      "start": 1339.72,
      "duration": 3.18
    },
    {
      "text": "so sure go for it but if you're paying",
      "start": 1341.37,
      "duration": 4.2
    },
    {
      "text": "taxes suddenly you want less regulation",
      "start": 1342.9,
      "duration": 4.89
    },
    {
      "text": "you want lower taxes you want less",
      "start": 1345.57,
      "duration": 3.75
    },
    {
      "text": "government involvement in your life and",
      "start": 1347.79,
      "duration": 3.18
    },
    {
      "text": "you have more bills that give more money",
      "start": 1349.32,
      "duration": 3.03
    },
    {
      "text": "to pay your own bills so you don't need",
      "start": 1350.97,
      "duration": 3.27
    },
    {
      "text": "the government as much so there's this",
      "start": 1352.35,
      "duration": 5.4
    },
    {
      "text": "kind of shift there's this kind of shift",
      "start": 1354.24,
      "duration": 6.78
    },
    {
      "text": "and they're worried you know they had",
      "start": 1357.75,
      "duration": 4.92
    },
    {
      "text": "this plan it was almost in the bag they",
      "start": 1361.02,
      "duration": 4.56
    },
    {
      "text": "had this plan they almost overwhelmed",
      "start": 1362.67,
      "duration": 4.83
    },
    {
      "text": "the entire body body politic in America",
      "start": 1365.58,
      "duration": 5.52
    },
    {
      "text": "with third Walters who were going to",
      "start": 1367.5,
      "duration": 8.34
    },
    {
      "text": "vote for the left and well it it didn't",
      "start": 1371.1,
      "duration": 6.78
    },
    {
      "text": "work out at least there's been a hiccup",
      "start": 1375.84,
      "duration": 3.84
    },
    {
      "text": "in the plan also also let's not forget",
      "start": 1377.88,
      "duration": 4.14
    },
    {
      "text": "the whole Russia stole the election",
      "start": 1379.68,
      "duration": 3.54
    },
    {
      "text": "Russia hacked the election that whole",
      "start": 1382.02,
      "duration": 3.54
    },
    {
      "text": "narrative has virtually completely",
      "start": 1383.22,
      "duration": 4.44
    },
    {
      "text": "fallen apart there's been I talked about",
      "start": 1385.56,
      "duration": 3.48
    },
    {
      "text": "this in the show before a significant",
      "start": 1387.66,
      "duration": 4.56
    },
    {
      "text": "analysis run on the data that was taken",
      "start": 1389.04,
      "duration": 5.43
    },
    {
      "text": "from the DNC server and shipped off to",
      "start": 1392.22,
      "duration": 4.14
    },
    {
      "text": "WikiLeaks and the copy rate of which it",
      "start": 1394.47,
      "duration": 4.5
    },
    {
      "text": "was taken virtually ensures that it was",
      "start": 1396.36,
      "duration": 6
    },
    {
      "text": "a local USB key probably USB 2.0 it was",
      "start": 1398.97,
      "duration": 5.43
    },
    {
      "text": "not sent at those speeds over the",
      "start": 1402.36,
      "duration": 5.27
    },
    {
      "text": "internet to Romania I mean so this whole",
      "start": 1404.4,
      "duration": 5.43
    },
    {
      "text": "aspect of things has fallen by the",
      "start": 1407.63,
      "duration": 4.9
    },
    {
      "text": "wayside as well so a lot of stuff not",
      "start": 1409.83,
      "duration": 4.5
    },
    {
      "text": "going well for the Democrat Party so",
      "start": 1412.53,
      "duration": 3.33
    },
    {
      "text": "what's their goal what's their plan well",
      "start": 1414.33,
      "duration": 6.41
    },
    {
      "text": "now you see their plan is to amplify",
      "start": 1415.86,
      "duration": 8.01
    },
    {
      "text": "farmers rights white nationalism to",
      "start": 1420.74,
      "duration": 6.31
    },
    {
      "text": "amplify it to to bring it into the",
      "start": 1423.87,
      "duration": 4.83
    },
    {
      "text": "public's attention so that they can",
      "start": 1427.05,
      "duration": 4.05
    },
    {
      "text": "scare blacks and Hispanics into voting",
      "start": 1428.7,
      "duration": 5.16
    },
    {
      "text": "for the left but then have much left to",
      "start": 1431.1,
      "duration": 4.62
    },
    {
      "text": "offer I think they're not in power and",
      "start": 1433.86,
      "duration": 3.42
    },
    {
      "text": "the government doesn't really have that",
      "start": 1435.72,
      "duration": 3.51
    },
    {
      "text": "much money left in America so they just",
      "start": 1437.28,
      "duration": 3.96
    },
    {
      "text": "can't roll out massive new programs and",
      "start": 1439.23,
      "duration": 5.22
    },
    {
      "text": "Obamacare is collapsing anyway so so",
      "start": 1441.24,
      "duration": 4.35
    },
    {
      "text": "they don't have anything positive to",
      "start": 1444.45,
      "duration": 2.76
    },
    {
      "text": "offer and when you don't have anything",
      "start": 1445.59,
      "duration": 3.87
    },
    {
      "text": "positive to offer then you offer",
      "start": 1447.21,
      "duration": 3.72
    },
    {
      "text": "something negative right and so what",
      "start": 1449.46,
      "duration": 3.6
    },
    {
      "text": "they're offering now is well they're all",
      "start": 1450.93,
      "duration": 4.23
    },
    {
      "text": "these terrifying Nazi white people out",
      "start": 1453.06,
      "duration": 3.81
    },
    {
      "text": "there so you better vote for us so we'll",
      "start": 1455.16,
      "duration": 4.44
    },
    {
      "text": "protect you now the fact that this is",
      "start": 1456.87,
      "duration": 4.11
    },
    {
      "text": "tearing the country apart what are what",
      "start": 1459.6,
      "duration": 1.92
    },
    {
      "text": "are they care",
      "start": 1460.98,
      "duration": 2.55
    },
    {
      "text": "I mean drug addicts tear their families",
      "start": 1461.52,
      "duration": 3.27
    },
    {
      "text": "apart they don't care they just want the",
      "start": 1463.53,
      "duration": 3.15
    },
    {
      "text": "drug and the Democrats are",
      "start": 1464.79,
      "duration": 3.54
    },
    {
      "text": "in the late stage of drug addiction they",
      "start": 1466.68,
      "duration": 5.13
    },
    {
      "text": "will foment crimes in order to get the",
      "start": 1468.33,
      "duration": 4.74
    },
    {
      "text": "drug that they want in order to get",
      "start": 1471.81,
      "duration": 6.78
    },
    {
      "text": "their head so that is really what's",
      "start": 1473.07,
      "duration": 8.58
    },
    {
      "text": "happening and it is a trap",
      "start": 1478.59,
      "duration": 5.43
    },
    {
      "text": "it is a trap come have your alleys you",
      "start": 1481.65,
      "duration": 4.32
    },
    {
      "text": "can have your alleys and then we're",
      "start": 1484.02,
      "duration": 3.51
    },
    {
      "text": "gonna surround you with aggressive",
      "start": 1485.97,
      "duration": 3.48
    },
    {
      "text": "pumped up hyped up people who think that",
      "start": 1487.53,
      "duration": 3.81
    },
    {
      "text": "they're fighting the reincarnated zombie",
      "start": 1489.45,
      "duration": 3.42
    },
    {
      "text": "of Adolf Hitler with supernatural powers",
      "start": 1491.34,
      "duration": 4.38
    },
    {
      "text": "to take over the world the resulting",
      "start": 1492.87,
      "duration": 5.25
    },
    {
      "text": "violence we're gonna pump that violence",
      "start": 1495.72,
      "duration": 3.57
    },
    {
      "text": "up we're gonna escalate it we're gonna",
      "start": 1498.12,
      "duration": 2.76
    },
    {
      "text": "use it to attack Republicans we're gonna",
      "start": 1499.29,
      "duration": 4.71
    },
    {
      "text": "use it to attack Donald Trump and we're",
      "start": 1500.88,
      "duration": 4.62
    },
    {
      "text": "gonna completely obscure any message",
      "start": 1504,
      "duration": 4.32
    },
    {
      "text": "that you might have it's a great trap",
      "start": 1505.5,
      "duration": 5.37
    },
    {
      "text": "bring you into an enclosed area surround",
      "start": 1508.32,
      "duration": 4.44
    },
    {
      "text": "you with aggressive leftist with draw",
      "start": 1510.87,
      "duration": 3.69
    },
    {
      "text": "the police presence oh look",
      "start": 1512.76,
      "duration": 10.5
    },
    {
      "text": "violence Oh terrible Nazis it is an",
      "start": 1514.56,
      "duration": 14.25
    },
    {
      "text": "obvious trap it's a clear trap and the",
      "start": 1523.26,
      "duration": 8.46
    },
    {
      "text": "solution of course is to be aware of the",
      "start": 1528.81,
      "duration": 4.17
    },
    {
      "text": "danger of the situation that you're",
      "start": 1531.72,
      "duration": 4.38
    },
    {
      "text": "putting yourself in do not imagine that",
      "start": 1532.98,
      "duration": 5.91
    },
    {
      "text": "there's some abstract rule of law that",
      "start": 1536.1,
      "duration": 4.74
    },
    {
      "text": "is going to protect you and encircle you",
      "start": 1538.89,
      "duration": 3.75
    },
    {
      "text": "and shields you do not imagine that for",
      "start": 1540.84,
      "duration": 3.63
    },
    {
      "text": "a moment that's not how things work",
      "start": 1542.64,
      "duration": 4.65
    },
    {
      "text": "unfortunately in the West in the world",
      "start": 1544.47,
      "duration": 8.97
    },
    {
      "text": "these days return to the arguments you",
      "start": 1547.29,
      "duration": 8.64
    },
    {
      "text": "want to make I say this to everyone the",
      "start": 1553.44,
      "duration": 4.44
    },
    {
      "text": "people I agree with the people I",
      "start": 1555.93,
      "duration": 3.81
    },
    {
      "text": "disagree with the people I severely",
      "start": 1557.88,
      "duration": 4.46
    },
    {
      "text": "disagree with return to your arguments",
      "start": 1559.74,
      "duration": 5.67
    },
    {
      "text": "I'm just about to release a book called",
      "start": 1562.34,
      "duration": 6.25
    },
    {
      "text": "the art of the arguments about what an",
      "start": 1565.41,
      "duration": 5.61
    },
    {
      "text": "argument is how to make one why it is so",
      "start": 1568.59,
      "duration": 4.41
    },
    {
      "text": "fundamentally important that we recommit",
      "start": 1571.02,
      "duration": 4.91
    },
    {
      "text": "ourselves every day every generation to",
      "start": 1573,
      "duration": 5.84
    },
    {
      "text": "having debates rather than using force",
      "start": 1575.93,
      "duration": 7.27
    },
    {
      "text": "when you surrender to force the Lions",
      "start": 1578.84,
      "duration": 6.28
    },
    {
      "text": "the Cheetahs the violent the sociopathic",
      "start": 1583.2,
      "duration": 5.97
    },
    {
      "text": "the the suicidal they rule society it",
      "start": 1585.12,
      "duration": 6.06
    },
    {
      "text": "literally becomes hell on earth when we",
      "start": 1589.17,
      "duration": 4.65
    },
    {
      "text": "give up the argument and we return with",
      "start": 1591.18,
      "duration": 4.74
    },
    {
      "text": "modern technology to Stone Age practices",
      "start": 1593.82,
      "duration": 6.4
    },
    {
      "text": "of physical domination so I urge",
      "start": 1595.92,
      "duration": 7.72
    },
    {
      "text": "I wish I could come and I urge everyone",
      "start": 1600.22,
      "duration": 7.74
    },
    {
      "text": "everyone please please you must make",
      "start": 1603.64,
      "duration": 9.17
    },
    {
      "text": "arguments make an argument or unmake",
      "start": 1607.96,
      "duration": 8.18
    },
    {
      "text": "civilization itself",
      "start": 1612.81,
      "duration": 3.33
    }
  ],
  "Errors": null,
  "TranscriptStderr": null
}