[
    {
        "start": "3.76",
        "dur": "3.09",
        "text": "Hi there, it's Stefan Molyneux from Freedomain\nRadio."
    },
    {
        "start": "6.85",
        "dur": "3.91",
        "text": "I hope that you're doing well, and I also\nhope that you're not just listening to the"
    },
    {
        "start": "10.76",
        "dur": "8.25",
        "text": "audio cast of this, because we have some visual\ncues, some not-quite-special effects, to go"
    },
    {
        "start": "19.01",
        "dur": "5.779",
        "text": "over the introduction of some facts into our\ndebate."
    },
    {
        "start": "24.789",
        "dur": "5.121",
        "text": "I know, it's a little bit of a shock, just\nbreathe and we'll get through this together."
    },
    {
        "start": "29.91",
        "dur": "6.399",
        "text": "I know that we've been talking a lot about\ntheory, but I hope to be able to show some"
    },
    {
        "start": "36.309",
        "dur": "4.361",
        "text": "empirical evidence for the kinds of theories\nthat we've been talking about over the past"
    },
    {
        "start": "40.67",
        "dur": "5.84",
        "text": "few podcasts, with particular attention to\nproperty rights."
    },
    {
        "start": "46.51",
        "dur": "7.49",
        "text": "As you remember, we talked about if you want\nto put forward a moral theory, then that moral"
    },
    {
        "start": "54",
        "dur": "6.139",
        "text": "theory has to be logical, rational, empirical,\nuniversal, testable, reproducible, independent"
    },
    {
        "start": "60.139",
        "dur": "5.151",
        "text": "of time and place, and so on, just as any\nscientific theory or biological theory would"
    },
    {
        "start": "65.29",
        "dur": "2.77",
        "text": "have to be."
    },
    {
        "start": "68.06",
        "dur": "4.95",
        "text": "I hope that I don't have to spend a lot of\nenergy trying to convince you that the scientific"
    },
    {
        "start": "73.01",
        "dur": "5.9",
        "text": "method is, say, better than alchemy, prayer,\nor mysticism in determining and examining"
    },
    {
        "start": "78.91",
        "dur": "4.68",
        "text": "the facts of reality, creating valid theories,\nmoving forward the progress of human knowledge."
    },
    {
        "start": "83.59",
        "dur": "6.04",
        "text": "I think that if you believe that prayer is\nbetter than science, well, I'm guessing you"
    },
    {
        "start": "89.63",
        "dur": "2.74",
        "text": "haven't made it this far."
    },
    {
        "start": "92.37",
        "dur": "7.63",
        "text": "What I'd like to do now is talk about ways\nthat we could empirically verify or validate"
    },
    {
        "start": "100",
        "dur": "5.38",
        "text": "certain theories, particularly those with\nregards to property rights."
    },
    {
        "start": "105.38",
        "dur": "6.38",
        "text": "As you may have remembered, I talked about\nthe universality of property rights, and there's"
    },
    {
        "start": "111.76",
        "dur": "4.19",
        "text": "lots of theories which I've talked about in\nmy podcasts about why property rights are"
    },
    {
        "start": "115.95",
        "dur": "4.58",
        "text": "valid, basically based on the foundation that\nyou own your body, therefore you own the effects"
    },
    {
        "start": "120.53",
        "dur": "4.14",
        "text": "of your body, therefore you have moral responsibility,\nand if you create something or transform it"
    },
    {
        "start": "124.67",
        "dur": "5.839",
        "text": "form a non-usable product to a usable product,\nif you catch a fish in the sea, then turn"
    },
    {
        "start": "130.509",
        "dur": "4.441",
        "text": "it into a dinner, then you have created a\nproduct as surely as if you had invented it"
    },
    {
        "start": "134.95",
        "dur": "4.129",
        "text": "out of thin air, since it was useless swimming\nin the bottom of the ocean."
    },
    {
        "start": "139.079",
        "dur": "4.981",
        "text": "There's lots of ways to verify and justify\nthe foundation of property rights from this"
    },
    {
        "start": "144.06",
        "dur": "5.55",
        "text": "Lockean view of the infusion of labor or enclosurists,\nthe view of self-ownership and therefore owning"
    },
    {
        "start": "149.61",
        "dur": "4.62",
        "text": "the effects of one's body, etc."
    },
    {
        "start": "154.23",
        "dur": "4.66",
        "text": "Let's just say that we accept the universal\nvalidity of property rights, simply based"
    },
    {
        "start": "158.89",
        "dur": "4.95",
        "text": "on the axiom, which I think is actually enough,\nof saying that either human beings have property"
    },
    {
        "start": "163.84",
        "dur": "1.879",
        "text": "rights, or they don't have property rights."
    },
    {
        "start": "165.719",
        "dur": "5.44",
        "text": "You can't have human beings who have property\nrights and then have human beings who do not"
    },
    {
        "start": "171.159",
        "dur": "1.021",
        "text": "have property rights."
    },
    {
        "start": "172.18",
        "dur": "4.55",
        "text": "Or at least you can't argue for a true and\nlogically consistent (which is really the"
    },
    {
        "start": "176.73",
        "dur": "7.2",
        "text": "same thing) moral proposition which says that\nsome people have property rights, other people"
    },
    {
        "start": "183.93",
        "dur": "2.029",
        "text": "don't have property rights."
    },
    {
        "start": "185.959",
        "dur": "3.991",
        "text": "Because what is going to be proposed for a\nhuman being, must be proposed for all human"
    },
    {
        "start": "189.95",
        "dur": "1",
        "text": "beings."
    },
    {
        "start": "190.95",
        "dur": "8.11",
        "text": "Again, with the minor exceptions of people\nwho are not competent, toddlers, etc."
    },
    {
        "start": "199.06",
        "dur": "7.519",
        "text": "Let's say that the theory that we're at least\ngoing to put to the test would be that property"
    },
    {
        "start": "206.579",
        "dur": "6.39",
        "text": "rights are valid for all human beings."
    },
    {
        "start": "212.969",
        "dur": "6.58",
        "text": "If it's true that property rights are valid\nfor all human beings, then there should be"
    },
    {
        "start": "219.549",
        "dur": "1.601",
        "text": "some test for that."
    },
    {
        "start": "221.15",
        "dur": "4.789",
        "text": "We're putting forth a theory like All rocks\nfall to the earth at 9.8 m/s/s or something"
    },
    {
        "start": "225.939",
        "dur": "6.41",
        "text": "like that, and it's nice, logical, etc., but\nwe really do need to test this theory."
    },
    {
        "start": "232.349",
        "dur": "1.93",
        "text": "We do need to look for empirical evidence."
    },
    {
        "start": "234.279",
        "dur": "6.03",
        "text": "I don't believe there's any value in philosophizing\nin a vacuum, but we do really want to have"
    },
    {
        "start": "240.309",
        "dur": "2.85",
        "text": "a look for some empirical evidence."
    },
    {
        "start": "243.159",
        "dur": "9.7",
        "text": "We're going to make some assumptions here,\nand we're going to say that violence is bad,"
    },
    {
        "start": "252.859",
        "dur": "4.371",
        "text": "that prosperity is good, that living is better\nthan dying, that having your children live"
    },
    {
        "start": "257.23",
        "dur": "2.94",
        "text": "is better than having your children die, and\nthings like that."
    },
    {
        "start": "260.17",
        "dur": "3.54",
        "text": "I hope that I don't have to go into a whole\nlot of explanations."
    },
    {
        "start": "263.71",
        "dur": "3.28",
        "text": "There are logical explanations for all of\nthese positions."
    },
    {
        "start": "266.99",
        "dur": "6.62",
        "text": "But if we say that something like the non-aggression\nprinciple, which is \"Thou shalt not initiate"
    },
    {
        "start": "273.61",
        "dur": "10.83",
        "text": "force against your fellow man\" is a universal,\nvalid and negative moral obligation, then"
    },
    {
        "start": "284.44",
        "dur": "2.01",
        "text": "we can see some specific and measurable results."
    },
    {
        "start": "286.45",
        "dur": "5.74",
        "text": "What do human beings do when they're not being\naggressed against in a violent manner?"
    },
    {
        "start": "292.19",
        "dur": "6.65",
        "text": "Fortunately, both the contemporary world and\nthe existing countries throughout history"
    },
    {
        "start": "298.84",
        "dur": "5.07",
        "text": "provide incredibly powerful labs for examining\nthis kind of position."
    },
    {
        "start": "303.91",
        "dur": "6.93",
        "text": "We have societies wherein the use of force,\nand I'm simply gonna talk about to the exclusion"
    },
    {
        "start": "310.84",
        "dur": "4.47",
        "text": "of the State for the most part, because we'll\nget into politics later."
    },
    {
        "start": "315.31",
        "dur": "7.09",
        "text": "We can generally say that in countries like\nCanada, the United States, and England, etc.,"
    },
    {
        "start": "322.4",
        "dur": "5.39",
        "text": "Western democracies, that the initiation of\nthe use of force against citizens and between"
    },
    {
        "start": "327.79",
        "dur": "6.92",
        "text": "citizens is less than it would be in a place\nlike Niger, or Syria, or Iran, and places"
    },
    {
        "start": "334.71",
        "dur": "3.92",
        "text": "like that, and China to a large degree as\nwell."
    },
    {
        "start": "338.63",
        "dur": "5.95",
        "text": "If we accept that there is a valid moral proposition\ncalled the Non-Aggression Principle, that"
    },
    {
        "start": "344.58",
        "dur": "4.19",
        "text": "you should not initiate the use of force against\nyour fellow man, but that you can respond"
    },
    {
        "start": "348.77",
        "dur": "8.54",
        "text": "to it in terms of self-defense, then we can\nmeasure the amount of violence that is initiated"
    },
    {
        "start": "357.31",
        "dur": "4.9",
        "text": "against citizens across the world, and we\ncan do that through violations of property"
    },
    {
        "start": "362.21",
        "dur": "2.61",
        "text": "rights."
    },
    {
        "start": "364.82",
        "dur": "3.89",
        "text": "This is one of the few areas in life where\nthere are fairly clear statistics going back"
    },
    {
        "start": "368.71",
        "dur": "2.43",
        "text": "quite a long way."
    },
    {
        "start": "371.14",
        "dur": "8.35",
        "text": "If I have a property right to that which I\ncreate, then I am not going to surrender that"
    },
    {
        "start": "379.49",
        "dur": "6.7",
        "text": "property except either voluntarily, through\nan act of charity or gift-giving, or I'm going"
    },
    {
        "start": "386.19",
        "dur": "2.4",
        "text": "to surrender it in exchange for something."
    },
    {
        "start": "388.59",
        "dur": "5.83",
        "text": "So if I have $5 and you have a pen, then we\ncan choose to exchange the $5 for the pen,"
    },
    {
        "start": "394.42",
        "dur": "5.13",
        "text": "if I want the pen more than I want $5, and\nyou want the $5 more than you want the pen,"
    },
    {
        "start": "399.55",
        "dur": "5.35",
        "text": "then we have a win-win interaction which is\npurely voluntary."
    },
    {
        "start": "404.9",
        "dur": "5.76",
        "text": "If I have property, then I have the option\nto have it controlled or not controlled, either"
    },
    {
        "start": "410.66",
        "dur": "4.55",
        "text": "by myself or subject to the violence initiated\nby others."
    },
    {
        "start": "415.21",
        "dur": "4.09",
        "text": "In particular, we're going to look at violence\nagainst property and its measurable results"
    },
    {
        "start": "419.3",
        "dur": "1.51",
        "text": "throughout history."
    },
    {
        "start": "420.81",
        "dur": "4.97",
        "text": "Violence initiated against the innocent for\nthe purposes of transferring or controlling"
    },
    {
        "start": "425.78",
        "dur": "2.64",
        "text": "their property."
    },
    {
        "start": "428.42",
        "dur": "4.44",
        "text": "We're going to start to have a look at Western\nhistory, and then we'll compare it a little"
    },
    {
        "start": "432.86",
        "dur": "2.75",
        "text": "bit to modern history."
    },
    {
        "start": "435.61",
        "dur": "9.42",
        "text": "We're going to start with Western history\nthroughout the Middle Ages, and the 17th century."
    },
    {
        "start": "445.03",
        "dur": "5.28",
        "text": "Property rights in land throughout the Dark\nAges and the Middle Ages were extraordinarily"
    },
    {
        "start": "450.31",
        "dur": "1.21",
        "text": "restricted."
    },
    {
        "start": "451.52",
        "dur": "4.07",
        "text": "Property rights in terms of capital were also\nextraordinarily restricted because there's"
    },
    {
        "start": "455.59",
        "dur": "5.24",
        "text": "a historical hostility that in particular\nthe Catholic Church has toward something called"
    },
    {
        "start": "460.83",
        "dur": "2.18",
        "text": "usury, which is lending money for interest."
    },
    {
        "start": "463.01",
        "dur": "5.85",
        "text": "I give you $100 and you pay me back next year\nat $105."
    },
    {
        "start": "468.86",
        "dur": "6.38",
        "text": "Property rights in terms of land, in terms\nof capital, and in terms of occupation were"
    },
    {
        "start": "475.24",
        "dur": "4.74",
        "text": "very much controlled through violence, through\nthe State, and through the church."
    },
    {
        "start": "479.98",
        "dur": "5.25",
        "text": "You did not have the right to kick people\noff your land, you did not have the right"
    },
    {
        "start": "485.23",
        "dur": "4.99",
        "text": "to consolidate land, to buy up other people's\nlands and put it together in a larger and"
    },
    {
        "start": "490.22",
        "dur": "2.419",
        "text": "more economically productive whole."
    },
    {
        "start": "492.639",
        "dur": "3.571",
        "text": "In the realm of occupations, you had to go\nthrough an extraordinarily lengthy apprenticeship"
    },
    {
        "start": "496.21",
        "dur": "5.84",
        "text": "even for fairly braindead occupations, and\nthe State controlled a vast amount of public"
    },
    {
        "start": "502.05",
        "dur": "1.91",
        "text": "services."
    },
    {
        "start": "503.96",
        "dur": "5.18",
        "text": "You had these medieval guilds which restricted\nthe right for you to work within particular"
    },
    {
        "start": "509.14",
        "dur": "3.23",
        "text": "occupations, even if that was your preference,\nwith the gun of the State, or I guess in that"
    },
    {
        "start": "512.37",
        "dur": "7.39",
        "text": "case a sword and stola of the State, in the\nbackground."
    },
    {
        "start": "519.76",
        "dur": "7.01",
        "text": "So if I wanted to become a bricklayer, I had\nto apprentice for 7 years because Lord knows,"
    },
    {
        "start": "526.77",
        "dur": "3.78",
        "text": "you can either become a doctor or learn how\nto slap bricks on each other, not that it's"
    },
    {
        "start": "530.55",
        "dur": "5.09",
        "text": "a bad occupation to do that, but it really\ndoesn't require objectively 7 years of education"
    },
    {
        "start": "535.64",
        "dur": "1.66",
        "text": "to learn how to do it."
    },
    {
        "start": "537.3",
        "dur": "4.87",
        "text": "Things were so restrictive in the medieval\nworld that if I was a shoemaker and you were"
    },
    {
        "start": "542.17",
        "dur": "7.311",
        "text": "a shoemaker, and we both had shops on opposite\nsides of some medieval town, and a potential"
    },
    {
        "start": "549.481",
        "dur": "4.519",
        "text": "customer or just some person was walking down\nthe street, if I sneezed, you could actually"
    },
    {
        "start": "554",
        "dur": "4.23",
        "text": "bring charges against me and have me thrown\nin jail, because if I sneeze then the person"
    },
    {
        "start": "558.23",
        "dur": "3.651",
        "text": "has to say \"God bless you,\" and then we can\nenter into a conversation, so it's a form"
    },
    {
        "start": "561.881",
        "dur": "5.849",
        "text": "of unfair advertising to sneeze when somebody\nis walking down the street if there's a potentially"
    },
    {
        "start": "567.73",
        "dur": "1.13",
        "text": "competitive situation."
    },
    {
        "start": "568.86",
        "dur": "5.72",
        "text": "This is, of course, a gross violation of personal\nproperty, not only of the body, but of the"
    },
    {
        "start": "574.58",
        "dur": "3.29",
        "text": "property that one owns."
    },
    {
        "start": "577.87",
        "dur": "8.06",
        "text": "We had incredibly violent interventions on\nthe part of the State or private, or semi-private"
    },
    {
        "start": "585.93",
        "dur": "6.32",
        "text": "institutions like guilds that were protected\nby the State, and this took the form of interventions"
    },
    {
        "start": "592.25",
        "dur": "7.49",
        "text": "in land, capital, labor, career choice, etc.,\nand also in the realm of trade, you had enormous"
    },
    {
        "start": "599.74",
        "dur": "5.22",
        "text": "interventions in the rights of property throughout\nthe Middle Ages."
    },
    {
        "start": "604.96",
        "dur": "6.84",
        "text": "You had something called mercantilism wherein\nif I want to go and trade with France as a"
    },
    {
        "start": "611.8",
        "dur": "7.46",
        "text": "British guy, I have to go and apply to the\nking for a special permit, which only I can"
    },
    {
        "start": "619.26",
        "dur": "4.26",
        "text": "get, which allows me to trade cotton with\nFrance, or something like that."
    },
    {
        "start": "623.52",
        "dur": "4.63",
        "text": "And nobody else can go and trade it, in return\nfor which I give an enormous amount of money"
    },
    {
        "start": "628.15",
        "dur": "8.74",
        "text": "to the king, who then pays for soldiers to\ngo and stab and kill anybody who ends up interfering"
    },
    {
        "start": "636.89",
        "dur": "5.65",
        "text": "in my \"king-given right\" to trade cotton with\nFrance."
    },
    {
        "start": "642.54",
        "dur": "4.44",
        "text": "So this is a very violent intervention in\nthe rights of other people to engage in voluntary"
    },
    {
        "start": "646.98",
        "dur": "1.84",
        "text": "trade with people overseas."
    },
    {
        "start": "648.82",
        "dur": "5.39",
        "text": "This occurred domestically as well, that you\nwould get a license from the State to produce"
    },
    {
        "start": "654.21",
        "dur": "5",
        "text": "cotton or candles, or you would have to do\nit through a guild, and if you tried to go"
    },
    {
        "start": "659.21",
        "dur": "6.34",
        "text": "outside this closed and very coercive system,\nthen you would get thrown in jail, fined,"
    },
    {
        "start": "665.55",
        "dur": "6.55",
        "text": "killed if you resisted, all of the juicy initiation\nof the use of force that the State is relatively"
    },
    {
        "start": "672.1",
        "dur": "2.29",
        "text": "famous for throughout history."
    },
    {
        "start": "674.39",
        "dur": "4.88",
        "text": "We'll talk a little bit more about the contemporary\nworld of the State when we get to the series"
    },
    {
        "start": "679.27",
        "dur": "2.92",
        "text": "on politics."
    },
    {
        "start": "682.19",
        "dur": "8.84",
        "text": "I think it's fair to say, not too controversial,\nthat in the realm of property rights in particular,"
    },
    {
        "start": "691.03",
        "dur": "7.999",
        "text": "there was an enormous amount of violent destruction\nof the rights of property, violent interventions"
    },
    {
        "start": "699.029",
        "dur": "4.712",
        "text": "in people's rights to control either their\nland, their capital, their own bodies, their"
    },
    {
        "start": "703.741",
        "dur": "5.249",
        "text": "minds in terms of the occupations they pursued,\ntheir ability to trade with others overseas;"
    },
    {
        "start": "708.99",
        "dur": "6.03",
        "text": "all of this was tightly controlled and regulated\nthrough a system of mercantilism and common"
    },
    {
        "start": "715.02",
        "dur": "3.88",
        "text": "law property, or \"the commons\" as they're\ncalled, where everybody kind of owns and kind"
    },
    {
        "start": "718.9",
        "dur": "2.95",
        "text": "of doesn't own, like a public park."
    },
    {
        "start": "721.85",
        "dur": "7.27",
        "text": "You had tariffs, taxes, mercantilist licensing,\nmassive controls over how it is that people"
    },
    {
        "start": "729.12",
        "dur": "3.3",
        "text": "could spend their time, energy and resources."
    },
    {
        "start": "732.42",
        "dur": "6.02",
        "text": "One of the things that began to change as\na result of the Scientific Revolution of the"
    },
    {
        "start": "738.44",
        "dur": "5.09",
        "text": "16-17th centuries, as a result of the Enlightenment,\nas a result of the rediscovery and implementation"
    },
    {
        "start": "743.53",
        "dur": "6.41",
        "text": "of Roman law, as a result of a number of factors,\nmostly philosophical, though, you started"
    },
    {
        "start": "749.94",
        "dur": "5.43",
        "text": "to get in the mid-18th century something called\nthe Enclosure Act."
    },
    {
        "start": "755.37",
        "dur": "1.99",
        "text": "We'll just talk about England for the moment,\nif you don't mind."
    },
    {
        "start": "757.36",
        "dur": "5.55",
        "text": "It's fairly central to the story of what we're\ntalking about."
    },
    {
        "start": "762.91",
        "dur": "5.02",
        "text": "What happened was, historically, land had\nbeen heavily divided among people, and I've"
    },
    {
        "start": "767.93",
        "dur": "5.35",
        "text": "got a graphic here which we'll talk about\nthis a little bit."
    },
    {
        "start": "773.28",
        "dur": "4.14",
        "text": "Look at this, we actually have some graphics."
    },
    {
        "start": "777.42",
        "dur": "9.75",
        "text": "On your left-hand side you see the kind of\ndivision of land that occurred prior to the"
    },
    {
        "start": "787.17",
        "dur": "4.37",
        "text": "Enclosure movements when everything had been\nhistorically put in, and this is how land"
    },
    {
        "start": "791.54",
        "dur": "1.45",
        "text": "was divided."
    },
    {
        "start": "792.99",
        "dur": "4.34",
        "text": "For those on the audio, it's kind of like\na Rubik's cube from hell."
    },
    {
        "start": "797.33",
        "dur": "4.85",
        "text": "And then, we can see here, this is what happened\nin terms of ownership after the Enclosure"
    },
    {
        "start": "802.18",
        "dur": "1",
        "text": "movement."
    },
    {
        "start": "803.18",
        "dur": "4.349",
        "text": "Basically what happened was, there was a massive\nconsolidation of property."
    },
    {
        "start": "807.529",
        "dur": "4.361",
        "text": "What that really means is that fundamentally,\nthere was the introduction of property rights"
    },
    {
        "start": "811.89",
        "dur": "2.4",
        "text": "in the realm of land."
    },
    {
        "start": "814.29",
        "dur": "3.33",
        "text": "Historical squatting, and you couldn't throw\npeople off your land even if you were a lord,"
    },
    {
        "start": "817.62",
        "dur": "5.23",
        "text": "and all these kinds of things were kind of\nput by the by, and property rights were allowed"
    },
    {
        "start": "822.85",
        "dur": "5.44",
        "text": "to be created and implemented in the realm\nof land."
    },
    {
        "start": "828.29",
        "dur": "6.44",
        "text": "Beforehand, you had all of these rights, like\nyou had a gleaning right if you were a peasant,"
    },
    {
        "start": "834.73",
        "dur": "5.5",
        "text": "that you could go and pick off that your lord\nhad left over from his harvest, you had all"
    },
    {
        "start": "840.23",
        "dur": "4.45",
        "text": "this common land that you could let all your\nsheep graze on, but the land was so heavily"
    },
    {
        "start": "844.68",
        "dur": "6.72",
        "text": "subdivided, and there was no property, that\nbasically people didn't invest in productivity"
    },
    {
        "start": "851.4",
        "dur": "3.52",
        "text": "improvements in their land."
    },
    {
        "start": "854.92",
        "dur": "4.49",
        "text": "If you're like me, you have a big lawn to\nmow, which is kind of a drag."
    },
    {
        "start": "859.41",
        "dur": "5.79",
        "text": "But what you do is, if you're right next to\na public park, you mow your land but you don't"
    },
    {
        "start": "865.2",
        "dur": "5.49",
        "text": "go and mow the public park, because that's\nnot your land, so there's no reason to manage"
    },
    {
        "start": "870.69",
        "dur": "2.94",
        "text": "it and control it and tend to it and invest\nin it and so on."
    },
    {
        "start": "873.63",
        "dur": "1.95",
        "text": "You don't landscape the public park."
    },
    {
        "start": "875.58",
        "dur": "2.819",
        "text": "You don't landscape the woods that you don't\nown."
    },
    {
        "start": "878.399",
        "dur": "5.94",
        "text": "There really was no particular incentive for\npeople to invest in productivity improvements"
    },
    {
        "start": "884.339",
        "dur": "6.311",
        "text": "when the land was so heavily subdivided, when\nthere were so many controls on capital, and"
    },
    {
        "start": "890.65",
        "dur": "5.76",
        "text": "there were so many controls on trade that\nthere was simply no reason for people to improve"
    },
    {
        "start": "896.41",
        "dur": "2.96",
        "text": "their agriculture."
    },
    {
        "start": "899.37",
        "dur": "8.75",
        "text": "With the Enclosure Acts, what happened was\npeople began to introduce crop improvements."
    },
    {
        "start": "908.12",
        "dur": "3.84",
        "text": "This started since the 12th century when they\nfigured out that if you put a shoulder harness"
    },
    {
        "start": "911.96",
        "dur": "3.9",
        "text": "on an ox, you can pull a plow much more heavily\nrather than strangling him, which they had"
    },
    {
        "start": "915.86",
        "dur": "1",
        "text": "in the Roman times."
    },
    {
        "start": "916.86",
        "dur": "5",
        "text": "Big problem in the productivity of agriculture\nbecause they had these neck harnesses that,"
    },
    {
        "start": "921.86",
        "dur": "2.31",
        "text": "the more weight the oxen or the horse pulled,\nthe more they would choke."
    },
    {
        "start": "924.17",
        "dur": "4.68",
        "text": "So they put shoulder harnesses on them, which\nis much more productive."
    },
    {
        "start": "928.85",
        "dur": "3.96",
        "text": "What happened was, as the Enclosure movement\nwent underway, there was a large incentive"
    },
    {
        "start": "932.81",
        "dur": "4.97",
        "text": "for people to begin increasing the productivity\nof the crops that they were growing in the"
    },
    {
        "start": "937.78",
        "dur": "1",
        "text": "land."
    },
    {
        "start": "938.78",
        "dur": "4.79",
        "text": "You have Charles Townsend's (also called Turnip\nTownsend, I don't think for his shape) he"
    },
    {
        "start": "943.57",
        "dur": "3.67",
        "text": "had a four-field crop rotation system that\nhe introduced which was adopted fairly widely"
    },
    {
        "start": "947.24",
        "dur": "1.36",
        "text": "in England."
    },
    {
        "start": "948.6",
        "dur": "6.37",
        "text": "It was a new system of farming which used\ncomplementary crops to rejuvenate the soil."
    },
    {
        "start": "954.97",
        "dur": "3.2",
        "text": "What it means is, if you continue to plant\nwheat every year, you're going to strip the"
    },
    {
        "start": "958.17",
        "dur": "4.419",
        "text": "nutrients out of the soil, and end up with\ndead land."
    },
    {
        "start": "962.589",
        "dur": "6.471",
        "text": "What farmers had to do in the past was they\nhad to leave the soil fallow, you just don't"
    },
    {
        "start": "969.06",
        "dur": "4.48",
        "text": "plant anything for a year or two to let the\nsoil regenerate."
    },
    {
        "start": "973.54",
        "dur": "3.57",
        "text": "But this guy introduced it in a series where\nyou could grow winter crops, turnips, which"
    },
    {
        "start": "977.11",
        "dur": "8.039",
        "text": "allowed you to have more livestock, massive\nincreases, 5, 10, 15, 20-fold increases in"
    },
    {
        "start": "985.149",
        "dur": "3.891",
        "text": "the productivity of food at the same time\nas there's a consolidation of land, which"
    },
    {
        "start": "989.04",
        "dur": "6.489",
        "text": "means that people are free in a loose sense\nof the word, to leave their farms and go and"
    },
    {
        "start": "995.529",
        "dur": "2.37",
        "text": "work in the cities in the new factories."
    },
    {
        "start": "997.899",
        "dur": "4.861",
        "text": "The new factories were possible because restrictions\non usury, on the lending of money for interest,"
    },
    {
        "start": "1002.76",
        "dur": "4.81",
        "text": "had been lifted, and so people were free to\ndo with their capital as they wished, because"
    },
    {
        "start": "1007.57",
        "dur": "5.389",
        "text": "to use an economics term, people began to\nunderstand the time value of money."
    },
    {
        "start": "1012.959",
        "dur": "4.19",
        "text": "Usury always seemed like cheating, that's\nhow you sort of understand it, that people"
    },
    {
        "start": "1017.149",
        "dur": "5.111",
        "text": "would rather have a big-screen TV today for\nthe same price than next year, and because"
    },
    {
        "start": "1022.26",
        "dur": "3.689",
        "text": "they want it today and they want to enjoy\nthe big-screen TV for that year, they're gonna"
    },
    {
        "start": "1025.949",
        "dur": "3.11",
        "text": "pay a premium called interest."
    },
    {
        "start": "1029.059",
        "dur": "6.471",
        "text": "Jethro Tull, not just a manic flute player,\nbut also an 18th-century agricultural innovator,"
    },
    {
        "start": "1035.53",
        "dur": "1.82",
        "text": "invented a seed-planting drill."
    },
    {
        "start": "1037.35",
        "dur": "5.13",
        "text": "Before, in the Middle Ages, I shouldn't laugh\nbecause I'm no farmer, but they would basically"
    },
    {
        "start": "1042.48",
        "dur": "6.26",
        "text": "just take the crops and sort of throw them\nout across the land, and the birds would peck"
    },
    {
        "start": "1048.74",
        "dur": "3.73",
        "text": "them, and some would fall in a useful place,\nand some would fall in a non-useful place,"
    },
    {
        "start": "1052.47",
        "dur": "1.23",
        "text": "and so on."
    },
    {
        "start": "1053.7",
        "dur": "5.63",
        "text": "Jethro Tull invented this seed drill, it drilled\ninto the ground, you dropped your seeds in,"
    },
    {
        "start": "1059.33",
        "dur": "4.93",
        "text": "it planted them in uniform intervals and depths,\nand it was a great big machine that really"
    },
    {
        "start": "1064.26",
        "dur": "1.64",
        "text": "worked."
    },
    {
        "start": "1065.9",
        "dur": "8.06",
        "text": "Basically, there were huge innovations in\nagriculture which resulted in massive increases"
    },
    {
        "start": "1073.96",
        "dur": "2.51",
        "text": "in crop production."
    },
    {
        "start": "1076.47",
        "dur": "4.99",
        "text": "Here's an example where we have a testable\nhypothesis, human beings have property rights,"
    },
    {
        "start": "1081.46",
        "dur": "9.07",
        "text": "we have a system of massive and violent violation\nof property rights, historical squatting,"
    },
    {
        "start": "1090.53",
        "dur": "5.95",
        "text": "interventions in trade in terms of the mercantilist\nsystem of licensing for trade, you have tariffs"
    },
    {
        "start": "1096.48",
        "dur": "4.76",
        "text": "and taxes, guilds and usury laws, which make\nit illegal to lend money at interest, which"
    },
    {
        "start": "1101.24",
        "dur": "4.22",
        "text": "still exists in the Muslim world, and you\nshould see the complicated nature of Islamic"
    },
    {
        "start": "1105.46",
        "dur": "5.53",
        "text": "banks and how they try and lend money to pretend\nthat they're not lending at interest."
    },
    {
        "start": "1110.99",
        "dur": "5.16",
        "text": "Basically, if human beings do universally\nhave property rights, then there should be"
    },
    {
        "start": "1116.15",
        "dur": "6.36",
        "text": "a measurable change when those property rights\nare allowed to function in a normal way."
    },
    {
        "start": "1122.51",
        "dur": "9.92",
        "text": "We do see very strongly here the results of\nthis kind of stuff."
    },
    {
        "start": "1132.43",
        "dur": "3.16",
        "text": "Let's have a look, I'll hold up another chart\nhere."
    },
    {
        "start": "1135.59",
        "dur": "4.37",
        "text": "Ooh, look at that, the gripping graphics,\nit's almost like you're watching CNN, isn't"
    },
    {
        "start": "1139.96",
        "dur": "1",
        "text": "it?"
    },
    {
        "start": "1140.96",
        "dur": "7.63",
        "text": "What you see here, going from left to right,\nwe're starting at 1200 AD, so just at the"
    },
    {
        "start": "1148.59",
        "dur": "4.089",
        "text": "beginning of the Middle Ages, and we're going\nto 2000 AD."
    },
    {
        "start": "1152.679",
        "dur": "4.611",
        "text": "This is real wages, for building workers,\nalthough it's common for most."
    },
    {
        "start": "1157.29",
        "dur": "4.53",
        "text": "This is real wages, so this is money adjusted\nfor inflation and all that kind of stuff,"
    },
    {
        "start": "1161.82",
        "dur": "1.44",
        "text": "purchasing power."
    },
    {
        "start": "1163.26",
        "dur": "7.07",
        "text": "You can see chugging along in the Middle Ages,\nnothing's going on, you're getting 100 units,"
    },
    {
        "start": "1170.33",
        "dur": "8.28",
        "text": "then starting around the mid-19th century\nyou begin to see this massive climb."
    },
    {
        "start": "1178.61",
        "dur": "4.79",
        "text": "Of course, this is the result of what happens\nwhen you actually begin to respect the reality"
    },
    {
        "start": "1183.4",
        "dur": "2.73",
        "text": "of people's property rights."
    },
    {
        "start": "1186.13",
        "dur": "1.549",
        "text": "This is unprecedented in history."
    },
    {
        "start": "1187.679",
        "dur": "6.87",
        "text": "This particular graph is why we have the incredible\nsociety that we have now, with all of the"
    },
    {
        "start": "1194.549",
        "dur": "4.551",
        "text": "innovations and all of the economic growths,\netc."
    },
    {
        "start": "1199.1",
        "dur": "4.67",
        "text": "Let's have a look at GDP per person in pre-Industrial\nEngland."
    },
    {
        "start": "1203.77",
        "dur": "1.1",
        "text": "This is up to 1950."
    },
    {
        "start": "1204.87",
        "dur": "4.63",
        "text": "The only one I can find of this is versus\nIndia."
    },
    {
        "start": "1209.5",
        "dur": "4.41",
        "text": "Here of course, this is 1250 to the year 2000."
    },
    {
        "start": "1213.91",
        "dur": "1.85",
        "text": "We've gone off the chart here."
    },
    {
        "start": "1215.76",
        "dur": "4.22",
        "text": "But here you can see we're chugging along,\nwhen you begin to respect property rights,"
    },
    {
        "start": "1219.98",
        "dur": "4.699",
        "text": "then the GDP per person begins to go up enormously."
    },
    {
        "start": "1224.679",
        "dur": "2.99",
        "text": "There's another example of how all of this\nstuff can work."
    },
    {
        "start": "1227.669",
        "dur": "2.51",
        "text": "If you want to look at a fairly..."
    },
    {
        "start": "1230.179",
        "dur": "6.331",
        "text": "I mean this is somewhat subjective, but here's\nan example of male height."
    },
    {
        "start": "1236.51",
        "dur": "2.43",
        "text": "This is some indication of health."
    },
    {
        "start": "1238.94",
        "dur": "6.16",
        "text": "Male height in Europe and Asia, 0AD to the\nyear 2000."
    },
    {
        "start": "1245.1",
        "dur": "6.829",
        "text": "You can see here, we're going from 0AD to\nthe year 2000, I can zoom in on the right-hand"
    },
    {
        "start": "1251.929",
        "dur": "6.111",
        "text": "side here, you can see this enormous growth\nin the height of men during and after the"
    },
    {
        "start": "1258.04",
        "dur": "2.56",
        "text": "Industrial Revolution, starting at around\n1800."
    },
    {
        "start": "1260.6",
        "dur": "5.09",
        "text": "Because, of course, they were actually getting\nenough food to eat so they could grow to a"
    },
    {
        "start": "1265.69",
        "dur": "3.73",
        "text": "relatively decent height."
    },
    {
        "start": "1269.42",
        "dur": "2.84",
        "text": "There's lots of theories about the growth\nof the Industrial Revolution, but certainly"
    },
    {
        "start": "1272.26",
        "dur": "7.64",
        "text": "the one factor that is different from all\nproceeding societies is the increased recognition"
    },
    {
        "start": "1279.9",
        "dur": "1",
        "text": "of property rights."
    },
    {
        "start": "1280.9",
        "dur": "4.05",
        "text": "It was not available in the ancient world\nwhere you had a very strongly divided ruling"
    },
    {
        "start": "1284.95",
        "dur": "5.52",
        "text": "class from the plebeians, and of course you\nhad an enormous under-structure of slaves,"
    },
    {
        "start": "1290.47",
        "dur": "6.97",
        "text": "and of course the existence of slavery is\na complete violation of property rights."
    },
    {
        "start": "1297.44",
        "dur": "6.72",
        "text": "Here, for instance, let's just have a look\nat England and see how it ranks in terms of"
    },
    {
        "start": "1304.16",
        "dur": "5.67",
        "text": "its size versus its economic output."
    },
    {
        "start": "1309.83",
        "dur": "4.94",
        "text": "In 1700, England had a population about 1/3\nthat of France, and about 4% that of both"
    },
    {
        "start": "1314.77",
        "dur": "2.39",
        "text": "India and China."
    },
    {
        "start": "1317.16",
        "dur": "5.28",
        "text": "England had a position of world dominance\nin terms of trade and to a similar degree"
    },
    {
        "start": "1322.44",
        "dur": "3.39",
        "text": "military as well."
    },
    {
        "start": "1325.83",
        "dur": "7.11",
        "text": "Britain defeated France through the Napoleonic\nWars to emerge the unchallenged European power"
    },
    {
        "start": "1332.94",
        "dur": "1.82",
        "text": "by 1815."
    },
    {
        "start": "1334.76",
        "dur": "8.78",
        "text": "By 1850, Britain still had a mere 1.8% of\nthe world's population."
    },
    {
        "start": "1343.54",
        "dur": "6.19",
        "text": "The area of the British Isles is only about\n.16% of the world landmass."
    },
    {
        "start": "1349.73",
        "dur": "2.1",
        "text": "This blows my mind."
    },
    {
        "start": "1351.83",
        "dur": "5.06",
        "text": "This is what happens when you recognize and\nrespect ethical theories, or ethical realities,"
    },
    {
        "start": "1356.89",
        "dur": "8.409",
        "text": "I would argue, such as property rights, you\nhave 1.8% of the world population, .16% of"
    },
    {
        "start": "1365.299",
        "dur": "1.911",
        "text": "the world landmass."
    },
    {
        "start": "1367.21",
        "dur": "6.46",
        "text": "Britain produced 2/3 of the world coal output."
    },
    {
        "start": "1373.67",
        "dur": "7.9",
        "text": "Half of the iron output, and 1/2 of factory-produced\ncotton textiles."
    },
    {
        "start": "1381.57",
        "dur": "1.29",
        "text": "Doesn't that just blow your mind?"
    },
    {
        "start": "1382.86",
        "dur": "1",
        "text": "Completely unprecedented."
    },
    {
        "start": "1383.86",
        "dur": "5.6",
        "text": "This is what happens when you recognize and\naccept ethical theories."
    },
    {
        "start": "1389.46",
        "dur": "6.51",
        "text": "1.8% of the world's population, .16% of the\nworld landmass produced 2/3 of the coal output"
    },
    {
        "start": "1395.97",
        "dur": "1.37",
        "text": "of the entire planet!"
    },
    {
        "start": "1397.34",
        "dur": "5.08",
        "text": "Half the iron output, and 1/2 of the factory-produced\ncotton textiles."
    },
    {
        "start": "1402.42",
        "dur": "3.57",
        "text": "Output per worker was higher in Britain than\nany other countries."
    },
    {
        "start": "1405.99",
        "dur": "6.1",
        "text": "By the mid-19th century, and this was quite\ntrue in terms of the corn laws and some of"
    },
    {
        "start": "1412.09",
        "dur": "4.1",
        "text": "the laws that were passed against the final\nremaining tariffs in agricultural production"
    },
    {
        "start": "1416.19",
        "dur": "8.34",
        "text": "within England, Britain by this time also\npursued an armed policy of enforcing free"
    },
    {
        "start": "1424.53",
        "dur": "1.79",
        "text": "trade on other countries."
    },
    {
        "start": "1426.32",
        "dur": "5.979",
        "text": "Britain used a show of force in Persia, now\nIran or Iraq I guess, in 1841 to force it"
    },
    {
        "start": "1432.299",
        "dur": "2.331",
        "text": "to concede most favored nation status."
    },
    {
        "start": "1434.63",
        "dur": "6.2",
        "text": "It intervened in Egypt, nominally a province\nof the Ottoman Empire, in 1841 out of displeasure"
    },
    {
        "start": "1440.83",
        "dur": "3.469",
        "text": "with the protectionist Pasha."
    },
    {
        "start": "1444.299",
        "dur": "5.241",
        "text": "England had quite a strong influence on the\nworldwide development of the Industrial Revolution,"
    },
    {
        "start": "1449.54",
        "dur": "1.71",
        "text": "because it used..."
    },
    {
        "start": "1451.25",
        "dur": "4.24",
        "text": "This is quite a bit of a tragedy, which we\ncan see being played out in the modern world"
    },
    {
        "start": "1455.49",
        "dur": "7.97",
        "text": "as well, that England became wealthy through\nthe recognition of property rights, and then"
    },
    {
        "start": "1463.46",
        "dur": "5.43",
        "text": "used the wealth that the recognition of property\nrights generated in order to create an empire,"
    },
    {
        "start": "1468.89",
        "dur": "4.05",
        "text": "to run a large army, to grow the government,\nwhich of course we can see happening in the"
    },
    {
        "start": "1472.94",
        "dur": "1.369",
        "text": "United States at the moment."
    },
    {
        "start": "1474.309",
        "dur": "5.491",
        "text": "This is the typical story of, Freedom produces\nwealth, wealth makes the government greedy"
    },
    {
        "start": "1479.8",
        "dur": "4.879",
        "text": "to increase taxes, wealth corrupts the government\nby giving it so much money and power that"
    },
    {
        "start": "1484.679",
        "dur": "4.071",
        "text": "it ends up becoming expansionist, and then\nit all collapses."
    },
    {
        "start": "1488.75",
        "dur": "3.33",
        "text": "We'll get to that, just a bit of a taste."
    },
    {
        "start": "1492.08",
        "dur": "5.33",
        "text": "Here's another example of how we can look\nat what happens when you recognize the reality"
    },
    {
        "start": "1497.41",
        "dur": "2.87",
        "text": "of property rights."
    },
    {
        "start": "1500.28",
        "dur": "4.509",
        "text": "When you recognize the realities of navigation,\nyou get where you want to go."
    },
    {
        "start": "1504.789",
        "dur": "6.301",
        "text": "When you recognize the realities of health\nbased on nutrition and exercise, then you"
    },
    {
        "start": "1511.09",
        "dur": "2.339",
        "text": "get to maintain health!"
    },
    {
        "start": "1513.429",
        "dur": "1.181",
        "text": "Here's another example."
    },
    {
        "start": "1514.61",
        "dur": "5.15",
        "text": "1660-1851, these are the number of patents\nfiled by year."
    },
    {
        "start": "1519.76",
        "dur": "4.11",
        "text": "1660 was the year that the patent system in\nEngland first began."
    },
    {
        "start": "1523.87",
        "dur": "7.67",
        "text": "From 1660-1851, you can see what happens in\nthe late 18th century."
    },
    {
        "start": "1531.54",
        "dur": "7.9",
        "text": "(This is a wonderful thing, this automatic\nlight adjustment) Here, from left to right,"
    },
    {
        "start": "1539.44",
        "dur": "6.94",
        "text": "we have very few patents, then I'll zoom in\nhere."
    },
    {
        "start": "1546.38",
        "dur": "4.22",
        "text": "When we start to get into the late 18th century,\nwhen we begin to have the recognition and"
    },
    {
        "start": "1550.6",
        "dur": "6.13",
        "text": "expansion of property rights in land, labor,\ncapital, and so on, you begin to see an enormous"
    },
    {
        "start": "1556.73",
        "dur": "4.63",
        "text": "increase in the amount of patents that are\nbeing created."
    },
    {
        "start": "1561.36",
        "dur": "4.4",
        "text": "The simple basic reason behind this is the\nsame reason that socialism, communism, fascism"
    },
    {
        "start": "1565.76",
        "dur": "1.95",
        "text": "don't work economically."
    },
    {
        "start": "1567.71",
        "dur": "3.07",
        "text": "The basic principle of economics is that people\nrespond to incentives."
    },
    {
        "start": "1570.78",
        "dur": "3.41",
        "text": "If I'm allowed to keep the products of what\nit is that I earn and make, then I'm going"
    },
    {
        "start": "1574.19",
        "dur": "2",
        "text": "to have a greater incentive to do that."
    },
    {
        "start": "1576.19",
        "dur": "4.27",
        "text": "If I don't get to keep the products of what\nI earn and create, then I'm not really gonna"
    },
    {
        "start": "1580.46",
        "dur": "1",
        "text": "do that."
    },
    {
        "start": "1581.46",
        "dur": "4.64",
        "text": "Once you start to respect property rights,\nthe existence of property rights within people,"
    },
    {
        "start": "1586.1",
        "dur": "5.59",
        "text": "then you are going to see an extraordinary\nincrease in the amount of investment that"
    },
    {
        "start": "1591.69",
        "dur": "1.89",
        "text": "they're willing to put."
    },
    {
        "start": "1593.58",
        "dur": "7.99",
        "text": "Let's have a look at British GDP, normalized,\nso in 1860 it's 100."
    },
    {
        "start": "1601.57",
        "dur": "6.33",
        "text": "This is British GDP over the very long run."
    },
    {
        "start": "1607.9",
        "dur": "4.97",
        "text": "Here you can see we're trundling along from\nthe year 1200 on the left-hand side, then"
    },
    {
        "start": "1612.87",
        "dur": "4.11",
        "text": "we begin to get the Industrial Revolution\nin the late 17th century, and here you can"
    },
    {
        "start": "1616.98",
        "dur": "7.94",
        "text": "see this massive increase, so that we have\nthis enormous increase to 1900."
    },
    {
        "start": "1624.92",
        "dur": "3.07",
        "text": "This isn't even counting the 20th century."
    },
    {
        "start": "1627.99",
        "dur": "5.38",
        "text": "There's an example of what happens to GDP\nwhen you recognize the property rights."
    },
    {
        "start": "1633.37",
        "dur": "5.46",
        "text": "When we have a look at productivity, this\nis economic efficiency, and there's lots of"
    },
    {
        "start": "1638.83",
        "dur": "3.22",
        "text": "factors that go into this, but let's have\na quick look at this."
    },
    {
        "start": "1642.05",
        "dur": "6.369",
        "text": "This is from the year 1200, which is on the\nleft-hand side, we trundle, we trundle, then"
    },
    {
        "start": "1648.419",
        "dur": "5.701",
        "text": "1800 which is the horizontal line is in fact\n100, then we go up to the year 2000, we can"
    },
    {
        "start": "1654.12",
        "dur": "2.73",
        "text": "see asymptotic increases."
    },
    {
        "start": "1656.85",
        "dur": "2.37",
        "text": "This is just massive."
    },
    {
        "start": "1659.22",
        "dur": "4.38",
        "text": "Absolutely unprecedented in human history,\nit's never occurred before."
    },
    {
        "start": "1663.6",
        "dur": "4.02",
        "text": "I don't mean to labor the case, but I just\nwanna make sure that we understand that we're"
    },
    {
        "start": "1667.62",
        "dur": "3.429",
        "text": "not just talking about subjective ethical\ntheories here, but that they have very measurable"
    },
    {
        "start": "1671.049",
        "dur": "4.181",
        "text": "and real results in the world that is."
    },
    {
        "start": "1675.23",
        "dur": "4.98",
        "text": "Here is productivity levels in cotton cloth\nproduction."
    },
    {
        "start": "1680.21",
        "dur": "4.079",
        "text": "Cotton was hugely fought over in terms of\nimport duties and tariffs, and they were largely"
    },
    {
        "start": "1684.289",
        "dur": "4.281",
        "text": "broken down."
    },
    {
        "start": "1688.57",
        "dur": "4.53",
        "text": "Here, this is from 1760-1880."
    },
    {
        "start": "1693.1",
        "dur": "4.11",
        "text": "This is during the major years of the Industrial\nRevolution."
    },
    {
        "start": "1697.21",
        "dur": "6.64",
        "text": "On the left-hand side you can see from 1760\nto the early 1800s this time period here,"
    },
    {
        "start": "1703.85",
        "dur": "4.4",
        "text": "there's pretty much smack occurring as far\nas productivity increases grow."
    },
    {
        "start": "1708.25",
        "dur": "4.26",
        "text": "You begin to put property rights in land,\ncapital and labor, and you have this massive"
    },
    {
        "start": "1712.51",
        "dur": "6.6",
        "text": "increase through the 1880s of efficiency in\ncotton production."
    },
    {
        "start": "1719.11",
        "dur": "6.04",
        "text": "It's estimated that one particular process\nwent down from 32 days to less than a day."
    },
    {
        "start": "1725.15",
        "dur": "1",
        "text": "Here's another example."
    },
    {
        "start": "1726.15",
        "dur": "1.55",
        "text": "I'm not expecting you to read this."
    },
    {
        "start": "1727.7",
        "dur": "2.849",
        "text": "I guess you could pause it."
    },
    {
        "start": "1730.549",
        "dur": "11.691",
        "text": "This is productivity growth in nail production\nfrom 1200-1869."
    },
    {
        "start": "1742.24",
        "dur": "4.74",
        "text": "You can look at the day wages and the efficiency\nof production."
    },
    {
        "start": "1746.98",
        "dur": "5.71",
        "text": "In 1200, the efficiency of production, which\nis the base value, is 100."
    },
    {
        "start": "1752.69",
        "dur": "2.83",
        "text": "1850-1869 it's 1238."
    },
    {
        "start": "1755.52",
        "dur": "8.67",
        "text": "1200% increase in the productivity value of\nnails, which have massive impacts."
    },
    {
        "start": "1764.19",
        "dur": "6.219",
        "text": "We have, of course, the Black Death is pretty\nbad for nail prices."
    },
    {
        "start": "1770.409",
        "dur": "1.051",
        "text": "Let's have a look here."
    },
    {
        "start": "1771.46",
        "dur": "4.44",
        "text": "I'm just gonna tell you that it's real, so\nyou can have a look at this."
    },
    {
        "start": "1775.9",
        "dur": "1.84",
        "text": "I guess you can pause this."
    },
    {
        "start": "1777.74",
        "dur": "5.429",
        "text": "If you go to freedomainradio.com, then you\ncan see all of this stuff."
    },
    {
        "start": "1783.169",
        "dur": "5.541",
        "text": "If you look at the efficiency of production\nthere, you can see that we end up going from"
    },
    {
        "start": "1788.71",
        "dur": "3.76",
        "text": "a low number to a very high number."
    },
    {
        "start": "1792.47",
        "dur": "2.62",
        "text": "Not quite as gripping as the charts, but we\nshall keep going."
    },
    {
        "start": "1795.09",
        "dur": "3.04",
        "text": "This is all about the recognition of ethical\ntheories."
    },
    {
        "start": "1798.13",
        "dur": "2.35",
        "text": "Is it measurable, is it testable?"
    },
    {
        "start": "1800.48",
        "dur": "1.67",
        "text": "Figure 12."
    },
    {
        "start": "1802.15",
        "dur": "2.79",
        "text": "Productivity growth rate by region, in England\nfrom 1770-1869."
    },
    {
        "start": "1804.94",
        "dur": "5.64",
        "text": "Again, this is during the height of the Industrial\nRevolution."
    },
    {
        "start": "1810.58",
        "dur": "7.03",
        "text": "Here we can see, in the south there was a\nlot more control."
    },
    {
        "start": "1817.61",
        "dur": "1.52",
        "text": "The center of government was London."
    },
    {
        "start": "1819.13",
        "dur": "5.409",
        "text": "In the northwest, there was a lot more freedom\nfor people to own their own capital and see"
    },
    {
        "start": "1824.539",
        "dur": "7.221",
        "text": "the results of it, and you can see, again,\nfrom 1600-1850, the northwest, this top dark"
    },
    {
        "start": "1831.76",
        "dur": "6.029",
        "text": "line, where you have less violence, less initiation\nof the use of force against citizens, you"
    },
    {
        "start": "1837.789",
        "dur": "2.241",
        "text": "have a much higher productivity growth overall."
    },
    {
        "start": "1840.03",
        "dur": "3.9",
        "text": "This is measurable results of the respect\nfor property rights."
    },
    {
        "start": "1843.93",
        "dur": "9.629",
        "text": "Here, something for the ladies, you can see\nthat this is deaths by pregnancy."
    },
    {
        "start": "1853.559",
        "dur": "5.961",
        "text": "You can see here that from 1600, you had a\npercentage chance of dying in each pregnancy"
    },
    {
        "start": "1859.52",
        "dur": "4.93",
        "text": "of 1.55%, by 1800-1837 you had .5%."
    },
    {
        "start": "1864.45",
        "dur": "6.52",
        "text": "This results in women getting married earlier\non, which is a good thing, I guess."
    },
    {
        "start": "1870.97",
        "dur": "6.6",
        "text": "Because the risk of pregnancy is reduced,\nthey can get married earlier."
    },
    {
        "start": "1877.57",
        "dur": "2.18",
        "text": "This is fairly important."
    },
    {
        "start": "1879.75",
        "dur": "8.48",
        "text": "The changes of death by pregnancy in the course\nof the average marriage, in the 1600s-1650s,"
    },
    {
        "start": "1888.23",
        "dur": "8.799",
        "text": "almost 10% of women would die from pregnancy,\nand by 1800-1837 that was down to 3.3% of"
    },
    {
        "start": "1897.029",
        "dur": "2.441",
        "text": "women would die from pregnancy."
    },
    {
        "start": "1899.47",
        "dur": "2.7",
        "text": "I gotta tell ya, I think that's fairly good."
    },
    {
        "start": "1902.17",
        "dur": "9.119",
        "text": "These are all measurable results of recognizing\nproperty rights, universal, ethical theories."
    },
    {
        "start": "1911.289",
        "dur": "3.801",
        "text": "Here, this will make the environmentalists\nget kind of twitchy."
    },
    {
        "start": "1915.09",
        "dur": "8.449",
        "text": "Here we have the growth in world population\nfrom 10,000 BC to the year 2000, and of course"
    },
    {
        "start": "1923.539",
        "dur": "5.921",
        "text": "there are many people who are appalled at\nthis as being an example of how we are destroying"
    },
    {
        "start": "1929.46",
        "dur": "8.61",
        "text": "the planet and blablabla, but funnily enough,\nI'm quite happy to be in the 5.5 billion people"
    },
    {
        "start": "1938.07",
        "dur": "1.94",
        "text": "who were alive in the year 2000."
    },
    {
        "start": "1940.01",
        "dur": "5.17",
        "text": "Lots of people do like to control population,\nthey just don't particularly want to be in"
    },
    {
        "start": "1945.18",
        "dur": "2.18",
        "text": "those who are culled."
    },
    {
        "start": "1947.36",
        "dur": "4.74",
        "text": "Let's have a look at an example of when..."
    },
    {
        "start": "1952.1",
        "dur": "6.23",
        "text": "As I mentioned before, there were usury laws\nthat were very common and rigidly enforced"
    },
    {
        "start": "1958.33",
        "dur": "5.14",
        "text": "throughout the Dark Ages and early Middle\nAges."
    },
    {
        "start": "1963.47",
        "dur": "7.23",
        "text": "This all began to change over time, and you\ncan see this going on from 1600-1650, that"
    },
    {
        "start": "1970.7",
        "dur": "6.75",
        "text": "the limit on interest rates was controlled,\nand so you can see here that when we look"
    },
    {
        "start": "1977.45",
        "dur": "4.28",
        "text": "at this chart, this top line is the limit\non interest rates, the bottom line represents"
    },
    {
        "start": "1981.73",
        "dur": "5.25",
        "text": "the full two percentage points it goes down\nwhen you withdraw the use of violence against"
    },
    {
        "start": "1986.98",
        "dur": "3.47",
        "text": "people's right to control their own property\nand lend at interest."
    },
    {
        "start": "1990.45",
        "dur": "3.87",
        "text": "You may not think that 2% is a huge amount,\nbut it's pretty significant if you've ever"
    },
    {
        "start": "1994.32",
        "dur": "5.41",
        "text": "taken out a mortgage."
    },
    {
        "start": "1999.73",
        "dur": "4.96",
        "text": "This is an alternate source, but you can see\nreal gross domestic product per person in"
    },
    {
        "start": "2004.69",
        "dur": "5.92",
        "text": "England from the 1260s to the 1990s, so this\nhas the whole deal included."
    },
    {
        "start": "2010.61",
        "dur": "4.72",
        "text": "On the left-hand side you have early Middle\nAges, 1260s, on the right-hand side you have"
    },
    {
        "start": "2015.33",
        "dur": "1",
        "text": "the 1990s."
    },
    {
        "start": "2016.33",
        "dur": "10.68",
        "text": "Again, massive asymptotic increase in productivity,\nwealth, health, women not dying in childbirth,"
    },
    {
        "start": "2027.01",
        "dur": "1.48",
        "text": "etc."
    },
    {
        "start": "2028.49",
        "dur": "3.2",
        "text": "We can also have a look at some other..."
    },
    {
        "start": "2031.69",
        "dur": "5.52",
        "text": "I don't need to go through all of these."
    },
    {
        "start": "2037.21",
        "dur": "7.13",
        "text": "We can also have a look at some of the gross\ndomestic product per capita in England relative"
    },
    {
        "start": "2044.34",
        "dur": "2.66",
        "text": "to modern economies."
    },
    {
        "start": "2047",
        "dur": "5.21",
        "text": "This is a truly shocking and ghastly chart."
    },
    {
        "start": "2052.21",
        "dur": "6.709",
        "text": "The human suffering that's behind these numbers\nis almost impossible to comprehend."
    },
    {
        "start": "2058.919",
        "dur": "12.771",
        "text": "Let's have a look here, and we can see that\nthe UK in 1995, $16,000 was the average income,"
    },
    {
        "start": "2071.69",
        "dur": "2.4",
        "text": "and Mexico, $7,000."
    },
    {
        "start": "2074.09",
        "dur": "1.309",
        "text": "That's pretty bad."
    },
    {
        "start": "2075.399",
        "dur": "4.52",
        "text": "If we look down here, we can begin to see\nthat England in the 1860s is equivalent to"
    },
    {
        "start": "2079.919",
        "dur": "1.771",
        "text": "Indonesia in 1990."
    },
    {
        "start": "2081.69",
        "dur": "8.85",
        "text": "England in the 1400s and 1760s is equivalent\nto Egypt and places like Ghana, Kenya, Nigeria,"
    },
    {
        "start": "2090.54",
        "dur": "3.69",
        "text": "Malawi and Chad, are equivalent to England\nin the 1300s, right before the Black Death"
    },
    {
        "start": "2094.23",
        "dur": "2.21",
        "text": "in terms of their per capita income."
    },
    {
        "start": "2096.44",
        "dur": "1.73",
        "text": "This is completely shocking."
    },
    {
        "start": "2098.17",
        "dur": "5.88",
        "text": "This means, of course, that places in the\nmodern world are so controlled by violent"
    },
    {
        "start": "2104.05",
        "dur": "7.6",
        "text": "warlords in the forms of State power, so they\nhave their property rights are so violently"
    },
    {
        "start": "2111.65",
        "dur": "4.62",
        "text": "controlled and violated, that they actually\nare living back in time in the early Middle"
    },
    {
        "start": "2116.27",
        "dur": "1.14",
        "text": "Ages."
    },
    {
        "start": "2117.41",
        "dur": "3.32",
        "text": "This is completely appalling and shocking\nto me."
    },
    {
        "start": "2120.73",
        "dur": "4.66",
        "text": "You can see very clearly that the amount of\neconomic growth is inversely proportional"
    },
    {
        "start": "2125.39",
        "dur": "1.95",
        "text": "to the degree of violence within society."
    },
    {
        "start": "2127.34",
        "dur": "3.64",
        "text": "When you include State violence, which of\ncourse is the majority of the violence that"
    },
    {
        "start": "2130.98",
        "dur": "6.91",
        "text": "occurs in less developed economies, then it's\nvery clear to see that when you violate the"
    },
    {
        "start": "2137.89",
        "dur": "6.05",
        "text": "universality of even something as obvious,\nor at least simple, as property rights, that"
    },
    {
        "start": "2143.94",
        "dur": "6.6",
        "text": "the result is starvation, death, infant mortality\nis extraordinarily high, people's caloric"
    },
    {
        "start": "2150.54",
        "dur": "8.74",
        "text": "intake is extraordinarily low, you have women\ndying through childbirth, life expectancy"
    },
    {
        "start": "2159.28",
        "dur": "2.829",
        "text": "in these countries is abysmally low (which\nis perfectly measurable)."
    },
    {
        "start": "2162.109",
        "dur": "4.291",
        "text": "These are countries who have access, this\nis the thing to understand."
    },
    {
        "start": "2166.4",
        "dur": "1.8",
        "text": "It's amazing to think about."
    },
    {
        "start": "2168.2",
        "dur": "5.89",
        "text": "These countries which exist in a early Middle\nAges state in the modern world, they exist"
    },
    {
        "start": "2174.09",
        "dur": "4.65",
        "text": "that way even though they have access to all\nthe information and technology that has been"
    },
    {
        "start": "2178.74",
        "dur": "4.96",
        "text": "developed (largely) by the West, since the\nMiddle Ages."
    },
    {
        "start": "2183.7",
        "dur": "5.03",
        "text": "In the Middle Ages there was no Internet,\nthere was no way to get access to capital"
    },
    {
        "start": "2188.73",
        "dur": "5.77",
        "text": "from outside countries, there was no way to\nfigure out how to build a factory."
    },
    {
        "start": "2194.5",
        "dur": "3.34",
        "text": "When you want to build a factory right now,\nyou just order all the parts of your factory"
    },
    {
        "start": "2197.84",
        "dur": "3.23",
        "text": "and assemble them, but when the Industrial\nRevolution was occurring, you had to build"
    },
    {
        "start": "2201.07",
        "dur": "4.31",
        "text": "the factories to build the parts to build\nthe parts to build the factories, so it was"
    },
    {
        "start": "2205.38",
        "dur": "1.88",
        "text": "an enormous amount of bootstrapping going\non."
    },
    {
        "start": "2207.26",
        "dur": "6.93",
        "text": "None of that is required in the modern world,\nso these countries that exist in this barbaric,"
    },
    {
        "start": "2214.19",
        "dur": "8.59",
        "text": "sub-human, violent squalor have access to\nincredibly more resources than the Western"
    },
    {
        "start": "2222.78",
        "dur": "4.35",
        "text": "countries that were going through the Industrial\nRevolution in the late Middle Ages."
    },
    {
        "start": "2227.13",
        "dur": "3.67",
        "text": "The degree of barbarity that is represented\nby the amount of violence that is inflicted"
    },
    {
        "start": "2230.8",
        "dur": "5.12",
        "text": "upon these citizens, the control of violation\nof their property rights in persons, in land,"
    },
    {
        "start": "2235.92",
        "dur": "4.83",
        "text": "in capital, in occupation, is absolutely evil."
    },
    {
        "start": "2240.75",
        "dur": "4.94",
        "text": "We have worked quite hard to develop an ethical\ntheory free of religion which doesn't violate"
    },
    {
        "start": "2245.69",
        "dur": "5.48",
        "text": "the is-ought dichotomy, and we can find pretty\nstrong empirical evidence for what happens"
    },
    {
        "start": "2251.17",
        "dur": "4.28",
        "text": "if property rights are true and you violate\nproperty rights."
    },
    {
        "start": "2255.45",
        "dur": "3.59",
        "text": "When you respect them, you can see the growth\nthat occurs within economies, when you begin"
    },
    {
        "start": "2259.04",
        "dur": "2.88",
        "text": "to respect and more universalize property\nrights."
    },
    {
        "start": "2261.92",
        "dur": "3.68",
        "text": "Not that they were ever respected universally,\nwhich we'll get to when we get to politics."
    },
    {
        "start": "2265.6",
        "dur": "6.14",
        "text": "You can also see both looking in history and\nin the modern world across different cultures,"
    },
    {
        "start": "2271.74",
        "dur": "4.41",
        "text": "what happens when property rights are not\nrespected and the rule of violence is the"
    },
    {
        "start": "2276.15",
        "dur": "2.42",
        "text": "only rule, so to speak, that there is."
    },
    {
        "start": "2278.57",
        "dur": "4.779",
        "text": "I hope that this helps you to understand that\nwe're not just philosophizing in a vacuum"
    },
    {
        "start": "2283.349",
        "dur": "5.531",
        "text": "here, we really are trying to find some particularly\nstrong evidence for what it is that we're"
    },
    {
        "start": "2288.88",
        "dur": "6.09",
        "text": "talking about, because we don't want to claim\nthat the scientific method and empirical verification"
    },
    {
        "start": "2294.97",
        "dur": "3.85",
        "text": "is very important for our theories and then\nreject those in the moral realm."
    },
    {
        "start": "2298.82",
        "dur": "2.799",
        "text": "I hope that this has been helpful, thank you\nso much for listening, I will talk to you"
    },
    {
        "start": "2301.619",
        "dur": "0.14",
        "text": "soon."
    }
]