{
  "Title": "Lessons in Propaganda from Government Education",
  "Id": "i4Ey7ThGOUs",
  "Transcript": [
    {
      "text": "the future of freedom is the truth of",
      "start": 25.11,
      "duration": 7.81
    },
    {
      "text": "the past lessons in propaganda from",
      "start": 28.42,
      "duration": 7.83
    },
    {
      "text": "government education by stefan molyneux",
      "start": 32.92,
      "duration": 5.76
    },
    {
      "text": "ma host of freedomain radio the largest",
      "start": 36.25,
      "duration": 4.86
    },
    {
      "text": "and most popular philosophy show in the",
      "start": 38.68,
      "duration": 2.879
    },
    {
      "text": "world",
      "start": 41.11,
      "duration": 7.019
    },
    {
      "text": "at freedomainradio.com quote a general",
      "start": 41.559,
      "duration": 9.421
    },
    {
      "text": "state education is a mere contrivance",
      "start": 48.129,
      "duration": 5.671
    },
    {
      "text": "for molding people to be exactly like",
      "start": 50.98,
      "duration": 6.27
    },
    {
      "text": "one another and as the mould in which it",
      "start": 53.8,
      "duration": 6.09
    },
    {
      "text": "casts them is that which pleases the",
      "start": 57.25,
      "duration": 5.25
    },
    {
      "text": "dominant power in the government whether",
      "start": 59.89,
      "duration": 5.28
    },
    {
      "text": "this be a monarch an aristocracy or a",
      "start": 62.5,
      "duration": 6.06
    },
    {
      "text": "majority of the existing generation in",
      "start": 65.17,
      "duration": 5.46
    },
    {
      "text": "proportion as it is efficient and",
      "start": 68.56,
      "duration": 5.4
    },
    {
      "text": "successful it establishes a despotism",
      "start": 70.63,
      "duration": 6.39
    },
    {
      "text": "over the mind leading by a natural",
      "start": 73.96,
      "duration": 8.85
    },
    {
      "text": "tendency to one over the body John",
      "start": 77.02,
      "duration": 12.08
    },
    {
      "text": "Stuart Mill on Liberty 1859 the",
      "start": 82.81,
      "duration": 6.29
    },
    {
      "text": "philosophy of the schoolroom in one",
      "start": 89.22,
      "duration": 3.85
    },
    {
      "text": "generation will be the philosophy of",
      "start": 91.06,
      "duration": 7.879
    },
    {
      "text": "government in the next Abraham Lincoln",
      "start": 93.07,
      "duration": 10.18
    },
    {
      "text": "introduction try asking",
      "start": 98.939,
      "duration": 6.831
    },
    {
      "text": "for directions without typing in a",
      "start": 103.25,
      "duration": 5.25
    },
    {
      "text": "starting point the webpage will rightly",
      "start": 105.77,
      "duration": 5.28
    },
    {
      "text": "tell you that this is impossible if you",
      "start": 108.5,
      "duration": 3.6
    },
    {
      "text": "last on the ocean",
      "start": 111.05,
      "duration": 6.39
    },
    {
      "text": "you can't plot a course for Tahiti in a",
      "start": 112.1,
      "duration": 8.87
    },
    {
      "text": "famous chapter from George Orwell's 1984",
      "start": 117.44,
      "duration": 6.179
    },
    {
      "text": "Winston Smith tries asking an old man",
      "start": 120.97,
      "duration": 5.77
    },
    {
      "text": "what life was like before socialism but",
      "start": 123.619,
      "duration": 6.181
    },
    {
      "text": "can extract only scraps and faded scenes",
      "start": 126.74,
      "duration": 4.86
    },
    {
      "text": "from the ancient man's broken",
      "start": 129.8,
      "duration": 6.81
    },
    {
      "text": "recollections in order to seal you in",
      "start": 131.6,
      "duration": 8.19
    },
    {
      "text": "slavery your government must pretend",
      "start": 136.61,
      "duration": 8.25
    },
    {
      "text": "that you were never free it must shatter",
      "start": 139.79,
      "duration": 8.34
    },
    {
      "text": "your true history into facile propaganda",
      "start": 144.86,
      "duration": 5.91
    },
    {
      "text": "into fairy tales that endlessly repeat",
      "start": 148.13,
      "duration": 4.53
    },
    {
      "text": "the fantasy that your political leaders",
      "start": 150.77,
      "duration": 4.71
    },
    {
      "text": "rescued you from the scary chaos of",
      "start": 152.66,
      "duration": 9.48
    },
    {
      "text": "Liberty the murder of memory is the",
      "start": 155.48,
      "duration": 10.29
    },
    {
      "text": "first crime of the state and the source",
      "start": 162.14,
      "duration": 8.51
    },
    {
      "text": "and sustenance of all its other crimes",
      "start": 165.77,
      "duration": 4.88
    },
    {
      "text": "why do we believe this propaganda these",
      "start": 170.83,
      "duration": 8.89
    },
    {
      "text": "fairytales I submit that it is to avoid",
      "start": 174.04,
      "duration": 10.11
    },
    {
      "text": "the knowledge of her own enslavement",
      "start": 179.72,
      "duration": 4.43
    },
    {
      "text": "most people's beliefs are ex post facto",
      "start": 184.36,
      "duration": 6.159
    },
    {
      "text": "justifications for the after-effects of",
      "start": 187.9,
      "duration": 6.16
    },
    {
      "text": "brute power almost no one wants to pay",
      "start": 190.519,
      "duration": 6.901
    },
    {
      "text": "taxes otherwise why force them but",
      "start": 194.06,
      "duration": 5.78
    },
    {
      "text": "because we are compelled to we find",
      "start": 197.42,
      "duration": 5.22
    },
    {
      "text": "solace in pretending that our tax money",
      "start": 199.84,
      "duration": 6.13
    },
    {
      "text": "does great and necessary good in society",
      "start": 202.64,
      "duration": 6.33
    },
    {
      "text": "and comfort ourselves with the lie that",
      "start": 205.97,
      "duration": 6.47
    },
    {
      "text": "without taxes charity benevolence and",
      "start": 208.97,
      "duration": 9.09
    },
    {
      "text": "civilization itself would collapse the",
      "start": 212.44,
      "duration": 9.07
    },
    {
      "text": "history killing statist argument goes",
      "start": 218.06,
      "duration": 10.28
    },
    {
      "text": "like this X is required we are for",
      "start": 221.51,
      "duration": 15.01
    },
    {
      "text": "to do X without force X would not exist",
      "start": 228.34,
      "duration": 13.83
    },
    {
      "text": "for example the poor need help we are",
      "start": 236.52,
      "duration": 9.34
    },
    {
      "text": "forced to help the poor if we were not",
      "start": 242.17,
      "duration": 7.56
    },
    {
      "text": "forced to help the poor the poor would",
      "start": 245.86,
      "duration": 6.56
    },
    {
      "text": "not be helped",
      "start": 249.73,
      "duration": 5.07
    },
    {
      "text": "you can plug all sorts of statist",
      "start": 252.42,
      "duration": 4.9
    },
    {
      "text": "programs into this equation helping the",
      "start": 254.8,
      "duration": 5.61
    },
    {
      "text": "poor the old the sick opposing drug use",
      "start": 257.32,
      "duration": 4.59
    },
    {
      "text": "and illiteracy protecting the",
      "start": 260.41,
      "duration": 5.96
    },
    {
      "text": "environment and so on they all fit",
      "start": 261.91,
      "duration": 4.46
    },
    {
      "text": "the true madness of this equation is",
      "start": 266.5,
      "duration": 6.18
    },
    {
      "text": "easy to see if we plug in defunct",
      "start": 270.08,
      "duration": 6.72
    },
    {
      "text": "statist programs such as slavery we need",
      "start": 272.68,
      "duration": 5.43
    },
    {
      "text": "food",
      "start": 276.8,
      "duration": 5
    },
    {
      "text": "slaves must be forced to grow food",
      "start": 278.11,
      "duration": 10.14
    },
    {
      "text": "without slavery there will be no food or",
      "start": 281.8,
      "duration": 10.6
    },
    {
      "text": "we need families people must be forced",
      "start": 288.25,
      "duration": 7.33
    },
    {
      "text": "to get married without forced marriage",
      "start": 292.4,
      "duration": 9.51
    },
    {
      "text": "there would be no families one of the",
      "start": 295.58,
      "duration": 8.16
    },
    {
      "text": "most destructive uses of this mad",
      "start": 301.91,
      "duration": 6.71
    },
    {
      "text": "syllogism is this children need",
      "start": 303.74,
      "duration": 9.54
    },
    {
      "text": "education we must force children into",
      "start": 308.62,
      "duration": 6.49
    },
    {
      "text": "government schools and force everyone to",
      "start": 313.28,
      "duration": 7.14
    },
    {
      "text": "pay if we do not force everyone children",
      "start": 315.11,
      "duration": 8.61
    },
    {
      "text": "and particularly poor children will not",
      "start": 320.42,
      "duration": 8.88
    },
    {
      "text": "be educated to sustain these fairytales",
      "start": 323.72,
      "duration": 8.61
    },
    {
      "text": "the state must bury the true history a",
      "start": 329.3,
      "duration": 6.18
    },
    {
      "text": "free and voluntary education which",
      "start": 332.33,
      "duration": 5.07
    },
    {
      "text": "inevitably gives rise to the following",
      "start": 335.48,
      "duration": 6.36
    },
    {
      "text": "syllogism children are now forced into",
      "start": 337.4,
      "duration": 6.24
    },
    {
      "text": "state schools and everyone is forced to",
      "start": 341.84,
      "duration": 4.95
    },
    {
      "text": "pay for them in the past children were",
      "start": 343.64,
      "duration": 5.4
    },
    {
      "text": "not forced into state schools and no one",
      "start": 346.79,
      "duration": 4.58
    },
    {
      "text": "was forced to pay for education",
      "start": 349.04,
      "duration": 6.15
    },
    {
      "text": "therefore the imposition of force in the",
      "start": 351.37,
      "duration": 5.74
    },
    {
      "text": "case of Education must have occurred",
      "start": 355.19,
      "duration": 4.74
    },
    {
      "text": "because in the past children were not",
      "start": 357.11,
      "duration": 7.83
    },
    {
      "text": "being educated a false corollary of this",
      "start": 359.93,
      "duration": 8.91
    },
    {
      "text": "is children can only be educated through",
      "start": 364.94,
      "duration": 6.54
    },
    {
      "text": "government force therefore anyone",
      "start": 368.84,
      "duration": 5.25
    },
    {
      "text": "opposed to government force is opposed",
      "start": 371.48,
      "duration": 7.56
    },
    {
      "text": "to the education of children this is the",
      "start": 374.09,
      "duration": 5.35
    },
    {
      "text": "same",
      "start": 379.04,
      "duration": 3.37
    },
    {
      "text": "logic as food can only be grown by",
      "start": 379.44,
      "duration": 5.52
    },
    {
      "text": "slaves therefore anyone opposed to",
      "start": 382.41,
      "duration": 7.34
    },
    {
      "text": "slavery must want Universal starvation",
      "start": 384.96,
      "duration": 7.35
    },
    {
      "text": "back this fallacy is beyond ridiculous",
      "start": 389.75,
      "duration": 4.72
    },
    {
      "text": "which is why it must be so often",
      "start": 392.31,
      "duration": 4.05
    },
    {
      "text": "repeated since absurd statements gained",
      "start": 394.47,
      "duration": 4.67
    },
    {
      "text": "credibility only through repetition",
      "start": 396.36,
      "duration": 5.55
    },
    {
      "text": "which is easy to see once we plug other",
      "start": 399.14,
      "duration": 6.37
    },
    {
      "text": "arguments into the equation slaves are",
      "start": 401.91,
      "duration": 7.2
    },
    {
      "text": "forced to work in the past slave through",
      "start": 405.51,
      "duration": 4.92
    },
    {
      "text": "a not forced to work",
      "start": 409.11,
      "duration": 4.2
    },
    {
      "text": "therefore slavery exists because slaves",
      "start": 410.43,
      "duration": 7.14
    },
    {
      "text": "did not work before slavery or in the",
      "start": 413.31,
      "duration": 6.12
    },
    {
      "text": "case of a warrior forcibly taking a",
      "start": 417.57,
      "duration": 4.74
    },
    {
      "text": "bride I forced this woman to marry me",
      "start": 419.43,
      "duration": 5.76
    },
    {
      "text": "before I forced her to marry me she was",
      "start": 422.31,
      "duration": 5.64
    },
    {
      "text": "unmarried therefore if I did not force",
      "start": 425.19,
      "duration": 6.38
    },
    {
      "text": "her she never would have gotten married",
      "start": 427.95,
      "duration": 7.53
    },
    {
      "text": "if the dentist is drilling there must",
      "start": 431.57,
      "duration": 7.54
    },
    {
      "text": "have been a cavity in the realm of",
      "start": 435.48,
      "duration": 6.39
    },
    {
      "text": "Education the generally held fantasy is",
      "start": 439.11,
      "duration": 5.46
    },
    {
      "text": "that state schools were imposed to",
      "start": 441.87,
      "duration": 4.65
    },
    {
      "text": "address terrible deficiencies in",
      "start": 444.57,
      "duration": 4.73
    },
    {
      "text": "instruction particularly among the poor",
      "start": 446.52,
      "duration": 6.87
    },
    {
      "text": "this belief is so tenacious that no",
      "start": 449.3,
      "duration": 5.86
    },
    {
      "text": "amount of genuine scholarship seems able",
      "start": 453.39,
      "duration": 4.2
    },
    {
      "text": "to dislodge it as is so often the case",
      "start": 455.16,
      "duration": 6.259
    },
    {
      "text": "with Stockholm Syndrome justifications",
      "start": 457.59,
      "duration": 8.04
    },
    {
      "text": "for example if you tell fans of state",
      "start": 461.419,
      "duration": 5.981
    },
    {
      "text": "education that literacy was higher",
      "start": 465.63,
      "duration": 3.63
    },
    {
      "text": "before government schools were inflicted",
      "start": 467.4,
      "duration": 5.16
    },
    {
      "text": "and has been declining ever since they",
      "start": 469.26,
      "duration": 6.69
    },
    {
      "text": "will dismiss you if you tell them that",
      "start": 472.56,
      "duration": 5.55
    },
    {
      "text": "neither parents nor children expressed",
      "start": 475.95,
      "duration": 4.23
    },
    {
      "text": "any real dissatisfaction with voluntary",
      "start": 478.11,
      "duration": 4.11
    },
    {
      "text": "schools before governments took over",
      "start": 480.18,
      "duration": 6
    },
    {
      "text": "education they will dismiss you",
      "start": 482.22,
      "duration": 6.27
    },
    {
      "text": "if you tell them that the stated goal of",
      "start": 486.18,
      "duration": 4.56
    },
    {
      "text": "government education was the social",
      "start": 488.49,
      "duration": 4.44
    },
    {
      "text": "economic and political control of the",
      "start": 490.74,
      "duration": 4.74
    },
    {
      "text": "population particularly religious",
      "start": 492.93,
      "duration": 5.64
    },
    {
      "text": "minorities such as Catholics they will",
      "start": 495.48,
      "duration": 6.84
    },
    {
      "text": "dismiss you if you tell them that bitter",
      "start": 498.57,
      "duration": 6.69
    },
    {
      "text": "enemies of freedom such as Marx Hitler",
      "start": 502.32,
      "duration": 5.28
    },
    {
      "text": "and Stalin continually demanded and",
      "start": 505.26,
      "duration": 4.23
    },
    {
      "text": "achieved more and more state control",
      "start": 507.6,
      "duration": 4.98
    },
    {
      "text": "over the education of children they will",
      "start": 509.49,
      "duration": 6.84
    },
    {
      "text": "dismiss you if you remind them that one",
      "start": 512.58,
      "duration": 6.03
    },
    {
      "text": "of the greatest advocates for compulsory",
      "start": 516.33,
      "duration": 4.79
    },
    {
      "text": "attendance laws was the Ku Klux Klan",
      "start": 518.61,
      "duration": 7.34
    },
    {
      "text": "they will dismiss you if you remind them",
      "start": 521.12,
      "duration": 7.75
    },
    {
      "text": "that a free-market society cannot long",
      "start": 525.95,
      "duration": 4.51
    },
    {
      "text": "survive when its children are",
      "start": 528.87,
      "duration": 3.44
    },
    {
      "text": "indoctrinated in a socialistic",
      "start": 530.46,
      "duration": 6.29
    },
    {
      "text": "educational system they will dismiss you",
      "start": 532.31,
      "duration": 10.5
    },
    {
      "text": "the reason for this blindness is simple",
      "start": 536.75,
      "duration": 9.28
    },
    {
      "text": "when universal force is used to quote",
      "start": 542.81,
      "duration": 7.75
    },
    {
      "text": "solve a quote problem the original quote",
      "start": 546.03,
      "duration": 8.04
    },
    {
      "text": "problem even if entirely imaginary grows",
      "start": 550.56,
      "duration": 7.92
    },
    {
      "text": "and grows in people's imaginations the",
      "start": 554.07,
      "duration": 9.2
    },
    {
      "text": "quote reasoning goes like this if",
      "start": 558.48,
      "duration": 7.26
    },
    {
      "text": "universal state violence was the best",
      "start": 563.27,
      "duration": 4.81
    },
    {
      "text": "and only possible solution the original",
      "start": 565.74,
      "duration": 5.49
    },
    {
      "text": "problem must have been truly awful if",
      "start": 568.08,
      "duration": 6.03
    },
    {
      "text": "the forced nationalization of an entire",
      "start": 571.23,
      "duration": 5.51
    },
    {
      "text": "industry such as education was required",
      "start": 574.11,
      "duration": 6.54
    },
    {
      "text": "imagine how bad education had to be to",
      "start": 576.74,
      "duration": 8.71
    },
    {
      "text": "require such a drastic step this",
      "start": 580.65,
      "duration": 7.11
    },
    {
      "text": "completely ignores the possibility that",
      "start": 585.45,
      "duration": 4.08
    },
    {
      "text": "the takeover was simply an expansion",
      "start": 587.76,
      "duration": 7.08
    },
    {
      "text": "istic abuse of state power if a woman is",
      "start": 589.53,
      "duration": 8.16
    },
    {
      "text": "savagely beaten by her husband would we",
      "start": 594.84,
      "duration": 4.83
    },
    {
      "text": "say that she must have been really bad",
      "start": 597.69,
      "duration": 5.64
    },
    {
      "text": "to deserve such a punishment or that",
      "start": 599.67,
      "duration": 5.67
    },
    {
      "text": "slaves must have been incredibly lazy",
      "start": 603.33,
      "duration": 4.71
    },
    {
      "text": "because they had to be violently forced",
      "start": 605.34,
      "duration": 6.12
    },
    {
      "text": "to work or that there must have been",
      "start": 608.04,
      "duration": 5.67
    },
    {
      "text": "something funny going on with all those",
      "start": 611.46,
      "duration": 4.56
    },
    {
      "text": "witches in Salem otherwise why would",
      "start": 613.71,
      "duration": 4.76
    },
    {
      "text": "they have been burned at the stake of",
      "start": 616.02,
      "duration": 3.58
    },
    {
      "text": "course",
      "start": 618.47,
      "duration": 5.15
    },
    {
      "text": "not this kind of nonsense can go on",
      "start": 619.6,
      "duration": 5.58
    },
    {
      "text": "forever of course and it seems",
      "start": 623.62,
      "duration": 3.93
    },
    {
      "text": "ridiculous when we put other arguments",
      "start": 625.18,
      "duration": 4.23
    },
    {
      "text": "through the standard equation but once",
      "start": 627.55,
      "duration": 3.209
    },
    {
      "text": "you understand the true history of",
      "start": 629.41,
      "duration": 2.849
    },
    {
      "text": "American education",
      "start": 630.759,
      "duration": 4.77
    },
    {
      "text": "the current propaganda will seem equally",
      "start": 632.259,
      "duration": 7.981
    },
    {
      "text": "foolish and this my friends is what they",
      "start": 635.529,
      "duration": 10.141
    },
    {
      "text": "call a solution American schools were",
      "start": 640.24,
      "duration": 7.82
    },
    {
      "text": "forcibly taken over by the state around",
      "start": 645.67,
      "duration": 6.63
    },
    {
      "text": "1840 beforehand in the populated areas",
      "start": 648.06,
      "duration": 6.579
    },
    {
      "text": "of the north and US as well as all of",
      "start": 652.3,
      "duration": 5.099
    },
    {
      "text": "New England literacy rates were between",
      "start": 654.639,
      "duration": 10.051
    },
    {
      "text": "91 and 94 percent in Canada according to",
      "start": 657.399,
      "duration": 11.011
    },
    {
      "text": "contemporary reports by 1867 most people",
      "start": 664.69,
      "duration": 6.3
    },
    {
      "text": "were more or less literate and nearly",
      "start": 668.41,
      "duration": 4.229
    },
    {
      "text": "every town or village must already have",
      "start": 670.99,
      "duration": 7.11
    },
    {
      "text": "had its grammar school this literacy",
      "start": 672.639,
      "duration": 8.76
    },
    {
      "text": "rate has been steadily falling ever",
      "start": 678.1,
      "duration": 3.929
    },
    {
      "text": "since",
      "start": 681.399,
      "duration": 3.63
    },
    {
      "text": "despite staggering increases in funding",
      "start": 682.029,
      "duration": 5.851
    },
    {
      "text": "and technology and significant decreases",
      "start": 685.029,
      "duration": 9.451
    },
    {
      "text": "in class size how has state education",
      "start": 687.88,
      "duration": 9.72
    },
    {
      "text": "solved or improved these historically",
      "start": 694.48,
      "duration": 7.709
    },
    {
      "text": "high literacy rates in the world of the",
      "start": 697.6,
      "duration": 8.06
    },
    {
      "text": "government these are what are called",
      "start": 702.189,
      "duration": 8.64
    },
    {
      "text": "improvements one in five students now",
      "start": 705.66,
      "duration": 9.82
    },
    {
      "text": "carries a weapon to school one in 36 a",
      "start": 710.829,
      "duration": 9.11
    },
    {
      "text": "gun nearly half",
      "start": 715.48,
      "duration": 6.889
    },
    {
      "text": "students in major US cities drop out of",
      "start": 719.939,
      "duration": 6.74
    },
    {
      "text": "high school every day an average of",
      "start": 722.369,
      "duration": 7.29
    },
    {
      "text": "7,200 students drop out of school",
      "start": 726.679,
      "duration": 6.34
    },
    {
      "text": "that is 13 million children fleeing",
      "start": 729.659,
      "duration": 8.43
    },
    {
      "text": "state schools every year in Canada very",
      "start": 733.019,
      "duration": 7.77
    },
    {
      "text": "similar to the u.s. 7% of Ontario",
      "start": 738.089,
      "duration": 5.82
    },
    {
      "text": "dropouts were a students while 46 had",
      "start": 740.789,
      "duration": 6.12
    },
    {
      "text": "been B students and 45% say they are",
      "start": 743.909,
      "duration": 5.61
    },
    {
      "text": "dropping out because they basically hate",
      "start": 746.909,
      "duration": 9.03
    },
    {
      "text": "school more than 32 million adults in",
      "start": 749.519,
      "duration": 9.75
    },
    {
      "text": "the u.s. 14% of the population have very",
      "start": 755.939,
      "duration": 6.24
    },
    {
      "text": "low literacy skills many of them cannot",
      "start": 759.269,
      "duration": 4.86
    },
    {
      "text": "read anything more challenging than a",
      "start": 762.179,
      "duration": 5.09
    },
    {
      "text": "simple children's book with pictures",
      "start": 764.129,
      "duration": 5.28
    },
    {
      "text": "naturally there is no literacy",
      "start": 767.269,
      "duration": 7.12
    },
    {
      "text": "requirement for voting 42 million",
      "start": 769.409,
      "duration": 8.13
    },
    {
      "text": "American adults can't read at all",
      "start": 774.389,
      "duration": 6.24
    },
    {
      "text": "50 million can only read at a 4th or 5th",
      "start": 777.539,
      "duration": 6.181
    },
    {
      "text": "grade level the number of adults",
      "start": 780.629,
      "duration": 4.53
    },
    {
      "text": "classified as functionally illiterate",
      "start": 783.72,
      "duration": 3.719
    },
    {
      "text": "increases by about two and a quarter",
      "start": 785.159,
      "duration": 8.16
    },
    {
      "text": "million each year 20% of high school",
      "start": 787.439,
      "duration": 7.35
    },
    {
      "text": "seniors can be classified as being",
      "start": 793.319,
      "duration": 3.39
    },
    {
      "text": "functionally illiterate at the time they",
      "start": 794.789,
      "duration": 5.13
    },
    {
      "text": "graduate after over 15,000 hours of",
      "start": 796.709,
      "duration": 8.88
    },
    {
      "text": "state education 75% of unemployed adults",
      "start": 799.919,
      "duration": 7.44
    },
    {
      "text": "have difficulty reading and writing at a",
      "start": 805.589,
      "duration": 5.82
    },
    {
      "text": "basic level 7 in 10 adults in prison",
      "start": 807.359,
      "duration": 8.15
    },
    {
      "text": "perform at the lowest literacy levels",
      "start": 811.409,
      "duration": 6.51
    },
    {
      "text": "85% of all juvenile offenders are",
      "start": 815.509,
      "duration": 5.55
    },
    {
      "text": "functionally or marginally illiterate",
      "start": 817.919,
      "duration": 5.64
    },
    {
      "text": "Houmas all were forced to go to",
      "start": 821.059,
      "duration": 6.64
    },
    {
      "text": "government schools for many years the",
      "start": 823.559,
      "duration": 5.88
    },
    {
      "text": "percentage of American children who are",
      "start": 827.699,
      "duration": 3.87
    },
    {
      "text": "able to read well hasn't improved at all",
      "start": 829.439,
      "duration": 4.56
    },
    {
      "text": "in the last 25 years despite a near",
      "start": 831.569,
      "duration": 4.92
    },
    {
      "text": "tripling of educational funding at a",
      "start": 833.999,
      "duration": 5.54
    },
    {
      "text": "significant reduction in class size",
      "start": 836.489,
      "duration": 6.831
    },
    {
      "text": "unless early nineteen",
      "start": 839.539,
      "duration": 6.721
    },
    {
      "text": "century schools were continually on fire",
      "start": 843.32,
      "duration": 5.52
    },
    {
      "text": "or underwater or filled with noxious",
      "start": 846.26,
      "duration": 6
    },
    {
      "text": "gases it's hard to conceive of how the",
      "start": 848.84,
      "duration": 4.89
    },
    {
      "text": "above could ever be called an",
      "start": 852.26,
      "duration": 7.86
    },
    {
      "text": "improvement when you don't know what you",
      "start": 853.73,
      "duration": 10.14
    },
    {
      "text": "don't know some people ask how financial",
      "start": 860.12,
      "duration": 5.85
    },
    {
      "text": "institutions are able to get away with",
      "start": 863.87,
      "duration": 3.75
    },
    {
      "text": "ripping off the entire population",
      "start": 865.97,
      "duration": 3.57
    },
    {
      "text": "through predatory lending and endless",
      "start": 867.62,
      "duration": 5.31
    },
    {
      "text": "bailouts the answer lies in the almost",
      "start": 869.54,
      "duration": 5.91
    },
    {
      "text": "complete financial illiteracy of the",
      "start": 872.93,
      "duration": 6.39
    },
    {
      "text": "average American from an article in The",
      "start": 875.45,
      "duration": 7.2
    },
    {
      "text": "New Yorker the depth of our financial",
      "start": 879.32,
      "duration": 6.75
    },
    {
      "text": "ignorant is startling in recent years",
      "start": 882.65,
      "duration": 5.61
    },
    {
      "text": "annamaria lizardy an economist at",
      "start": 886.07,
      "duration": 4.38
    },
    {
      "text": "dartmouth and the head of the financial",
      "start": 888.26,
      "duration": 3.72
    },
    {
      "text": "literacy center has conducted extensive",
      "start": 890.45,
      "duration": 3.71
    },
    {
      "text": "studies of what Americans know about",
      "start": 891.98,
      "duration": 6.72
    },
    {
      "text": "finance it's depressing work almost half",
      "start": 894.16,
      "duration": 6.13
    },
    {
      "text": "of those surveyed couldn't answer to",
      "start": 898.7,
      "duration": 3.6
    },
    {
      "text": "questions about inflation and interest",
      "start": 900.29,
      "duration": 4.47
    },
    {
      "text": "rates correctly and slightly more",
      "start": 902.3,
      "duration": 4.68
    },
    {
      "text": "sophisticated topics baffle a majority",
      "start": 904.76,
      "duration": 5.31
    },
    {
      "text": "of people many people don't know the",
      "start": 906.98,
      "duration": 4.74
    },
    {
      "text": "terms of their mortgage or the interest",
      "start": 910.07,
      "duration": 4.08
    },
    {
      "text": "rate they're paying and at a time when",
      "start": 911.72,
      "duration": 3.9
    },
    {
      "text": "we are borrowing more than ever",
      "start": 914.15,
      "duration": 4.14
    },
    {
      "text": "most Americans can't explain what",
      "start": 915.62,
      "duration": 7.2
    },
    {
      "text": "compound interest is but at least a",
      "start": 918.29,
      "duration": 6.48
    },
    {
      "text": "country with 700 military bases overseas",
      "start": 922.82,
      "duration": 4.44
    },
    {
      "text": "is chock full of people with a good",
      "start": 924.77,
      "duration": 4.91
    },
    {
      "text": "knowledge of geography right",
      "start": 927.26,
      "duration": 5.67
    },
    {
      "text": "not so much 11 percent of young",
      "start": 929.68,
      "duration": 5.95
    },
    {
      "text": "Americans couldn't even locate the US on",
      "start": 932.93,
      "duration": 7.62
    },
    {
      "text": "a map almost 1/3 had no idea where the",
      "start": 935.63,
      "duration": 8.49
    },
    {
      "text": "Pacific Ocean was 58% could not find",
      "start": 940.55,
      "duration": 6.57
    },
    {
      "text": "Japan 65 percent could not find France",
      "start": 944.12,
      "duration": 6.51
    },
    {
      "text": "and 69 percent could not locate the",
      "start": 947.12,
      "duration": 7.29
    },
    {
      "text": "United Kingdom fewer than 15% could find",
      "start": 950.63,
      "duration": 8.46
    },
    {
      "text": "Israel or Iraq almost 1/3 insisted that",
      "start": 954.41,
      "duration": 6.42
    },
    {
      "text": "the population of the United States was",
      "start": 959.09,
      "duration": 4.86
    },
    {
      "text": "between 1 and 2 billion rather than",
      "start": 960.83,
      "duration": 6.96
    },
    {
      "text": "around 300 million also even though",
      "start": 963.95,
      "duration": 5.37
    },
    {
      "text": "educational standards have declined",
      "start": 967.79,
      "duration": 3.6
    },
    {
      "text": "since government schools came into being",
      "start": 969.32,
      "duration": 4.74
    },
    {
      "text": "only about 1/3 of eighth graders",
      "start": 971.39,
      "duration": 5.259
    },
    {
      "text": "currently score at or above the",
      "start": 974.06,
      "duration": 4.059
    },
    {
      "text": "proficient level on the National",
      "start": 976.649,
      "duration": 3.69
    },
    {
      "text": "Assessment of Educational Progress in",
      "start": 978.119,
      "duration": 8.931
    },
    {
      "text": "reading 32% mathematics 34% or science",
      "start": 980.339,
      "duration": 10.951
    },
    {
      "text": "29% imagine giving them a grammar or",
      "start": 987.05,
      "duration": 8.61
    },
    {
      "text": "math test from 1840",
      "start": 991.29,
      "duration": 4.37
    },
    {
      "text": "education secretary Duncan recently",
      "start": 996.6,
      "duration": 6.33
    },
    {
      "text": "admitted that 82% of public schools",
      "start": 999.899,
      "duration": 6.091
    },
    {
      "text": "could be labeled failing under No Child",
      "start": 1002.93,
      "duration": 7.74
    },
    {
      "text": "Left Behind specifications what was his",
      "start": 1005.99,
      "duration": 7.349
    },
    {
      "text": "solution killed the program and returned",
      "start": 1010.67,
      "duration": 5.82
    },
    {
      "text": "the money to taxpayers or expand its",
      "start": 1013.339,
      "duration": 10.081
    },
    {
      "text": "funding you only get one guess headstart",
      "start": 1016.49,
      "duration": 10.62
    },
    {
      "text": "has cast a hundred and sixty six billion",
      "start": 1023.42,
      "duration": 7.409
    },
    {
      "text": "dollars since 1965 despite many studies",
      "start": 1027.11,
      "duration": 5.16
    },
    {
      "text": "proving that most of the money was",
      "start": 1030.829,
      "duration": 3.811
    },
    {
      "text": "wasted and did not help poor kids gain",
      "start": 1032.27,
      "duration": 6.47
    },
    {
      "text": "or keep any improvements recently its",
      "start": 1034.64,
      "duration": 7.319
    },
    {
      "text": "funding was increased by over two",
      "start": 1038.74,
      "duration": 7.809
    },
    {
      "text": "billion dollars people respond to",
      "start": 1041.959,
      "duration": 6.871
    },
    {
      "text": "incentives when you pay people for",
      "start": 1046.549,
      "duration": 6.681
    },
    {
      "text": "failure you tend to get more failure",
      "start": 1048.83,
      "duration": 6.81
    },
    {
      "text": "America spends over a hundred and fifty",
      "start": 1053.23,
      "duration": 4.36
    },
    {
      "text": "thousand dollars per student between the",
      "start": 1055.64,
      "duration": 4.89
    },
    {
      "text": "1st and 12th grade nearly three times as",
      "start": 1057.59,
      "duration": 7.94
    },
    {
      "text": "much as it did in 1970 between 1960 and",
      "start": 1060.53,
      "duration": 7.35
    },
    {
      "text": "1985 the ratio of students to teachers",
      "start": 1065.53,
      "duration": 5.08
    },
    {
      "text": "in public schools fell by almost 30",
      "start": 1067.88,
      "duration": 6.72
    },
    {
      "text": "percent as is always the case with",
      "start": 1070.61,
      "duration": 6.75
    },
    {
      "text": "government programs more money more",
      "start": 1074.6,
      "duration": 5.61
    },
    {
      "text": "resources and more people means more and",
      "start": 1077.36,
      "duration": 8.309
    },
    {
      "text": "more catastrophic results economist",
      "start": 1080.21,
      "duration": 7.77
    },
    {
      "text": "Thomas Sowell notes that scholastic",
      "start": 1085.669,
      "duration": 3.75
    },
    {
      "text": "achievement test scores are",
      "start": 1087.98,
      "duration": 4.199
    },
    {
      "text": "significantly lower now than 30 years",
      "start": 1089.419,
      "duration": 5.431
    },
    {
      "text": "ago and that the vocabulary of the",
      "start": 1092.179,
      "duration": 5.851
    },
    {
      "text": "average student contains half as many",
      "start": 1094.85,
      "duration": 8.13
    },
    {
      "text": "words as it did in 1945 is it because",
      "start": 1098.03,
      "duration": 7.56
    },
    {
      "text": "teachers are underpaid not in Canada",
      "start": 1102.98,
      "duration": 5.13
    },
    {
      "text": "where teachers earned 80 percent of the",
      "start": 1105.59,
      "duration": 5.43
    },
    {
      "text": "manufacturing wage in 1950 and now earn",
      "start": 1108.11,
      "duration": 5.4
    },
    {
      "text": "over 50 percent more than the basic",
      "start": 1111.02,
      "duration": 9.57
    },
    {
      "text": "manufacturing wage unemployment why are",
      "start": 1113.51,
      "duration": 9.72
    },
    {
      "text": "so many people unemployed well",
      "start": 1120.59,
      "duration": 4.079
    },
    {
      "text": "unemployment is closely linked to",
      "start": 1123.23,
      "duration": 3.96
    },
    {
      "text": "illiteracy more than 40 percent of",
      "start": 1124.669,
      "duration": 4.74
    },
    {
      "text": "working-age Canadians lack the necessary",
      "start": 1127.19,
      "duration": 4.619
    },
    {
      "text": "basic literacy skills required to",
      "start": 1129.409,
      "duration": 4.591
    },
    {
      "text": "successfully participate in the labor",
      "start": 1131.809,
      "duration": 7.651
    },
    {
      "text": "market in the u.s. 43 percent of people",
      "start": 1134,
      "duration": 8.19
    },
    {
      "text": "with the lowest literacy skills live in",
      "start": 1139.46,
      "duration": 6.75
    },
    {
      "text": "poverty 17% of people with the lowest",
      "start": 1142.19,
      "duration": 8.4
    },
    {
      "text": "literacy skills receive food stamps 70",
      "start": 1146.21,
      "duration": 6.39
    },
    {
      "text": "percent of people with the lowest",
      "start": 1150.59,
      "duration": 4.589
    },
    {
      "text": "literacy skills have no full or",
      "start": 1152.6,
      "duration": 6.23
    },
    {
      "text": "part-time job literacy rates have also",
      "start": 1155.179,
      "duration": 6.031
    },
    {
      "text": "stagnated or fallen during a period in",
      "start": 1158.83,
      "duration": 6.12
    },
    {
      "text": "history when job requirements have grown",
      "start": 1161.21,
      "duration": 6.57
    },
    {
      "text": "one reason US manufacturing jobs have",
      "start": 1164.95,
      "duration": 6.19
    },
    {
      "text": "vanished is that in 1950 60 percent of",
      "start": 1167.78,
      "duration": 5.629
    },
    {
      "text": "manufacturing jobs were unskilled a",
      "start": 1171.14,
      "duration": 5.659
    },
    {
      "text": "number that plunged to 15 percent in",
      "start": 1173.409,
      "duration": 8.291
    },
    {
      "text": "subsequent decades the American",
      "start": 1176.799,
      "duration": 7.271
    },
    {
      "text": "Management Association reported that",
      "start": 1181.7,
      "duration": 5.67
    },
    {
      "text": "over 40 percent of job applicants lacked",
      "start": 1184.07,
      "duration": 5.849
    },
    {
      "text": "the basic reading writing and math",
      "start": 1187.37,
      "duration": 4.62
    },
    {
      "text": "skills needed to do the manufacturing",
      "start": 1189.919,
      "duration": 6.961
    },
    {
      "text": "jobs they wanted in a recent survey 90%",
      "start": 1191.99,
      "duration": 7.26
    },
    {
      "text": "of US manufacturers reported a shortage",
      "start": 1196.88,
      "duration": 5.07
    },
    {
      "text": "of qualified workers in at least one job",
      "start": 1199.25,
      "duration": 5.24
    },
    {
      "text": "category",
      "start": 1201.95,
      "duration": 2.54
    },
    {
      "text": "after over a century and a half of",
      "start": 1205.049,
      "duration": 4.651
    },
    {
      "text": "government controlled and enforced",
      "start": 1207.64,
      "duration": 5.31
    },
    {
      "text": "education the situation has become",
      "start": 1209.7,
      "duration": 8.92
    },
    {
      "text": "completely unrecoverable as fuel at",
      "start": 1212.95,
      "duration": 7.589
    },
    {
      "text": "surprise winning author Chris Hedges has",
      "start": 1218.62,
      "duration": 6.14
    },
    {
      "text": "noted in his book Empire evolution a",
      "start": 1220.539,
      "duration": 7.111
    },
    {
      "text": "third of high school graduates never",
      "start": 1224.76,
      "duration": 4.75
    },
    {
      "text": "read another book for the rest of their",
      "start": 1227.65,
      "duration": 5.279
    },
    {
      "text": "lives and neither do 42% of college",
      "start": 1229.51,
      "duration": 9.21
    },
    {
      "text": "graduates in 2007 80% of the families in",
      "start": 1232.929,
      "duration": 8.521
    },
    {
      "text": "the United States did not buy or read a",
      "start": 1238.72,
      "duration": 7.28
    },
    {
      "text": "book the Princeton Review analyzed",
      "start": 1241.45,
      "duration": 6.78
    },
    {
      "text": "transcripts of the gore Bush debates of",
      "start": 1246,
      "duration": 5.409
    },
    {
      "text": "2000 the Clinton Bush Perot debates of",
      "start": 1248.23,
      "duration": 7.17
    },
    {
      "text": "1992 the kennedy-nixon debate of 1960",
      "start": 1251.409,
      "duration": 7.791
    },
    {
      "text": "and the lincoln-douglas debates of 1858",
      "start": 1255.4,
      "duration": 6.48
    },
    {
      "text": "it reviewed these transcripts using a",
      "start": 1259.2,
      "duration": 5.17
    },
    {
      "text": "standard vocabulary test that indicates",
      "start": 1261.88,
      "duration": 4.409
    },
    {
      "text": "the minimum educational standards needed",
      "start": 1264.37,
      "duration": 5.309
    },
    {
      "text": "for a reader to grasp the text in the",
      "start": 1266.289,
      "duration": 5.611
    },
    {
      "text": "lincoln-douglas debates Lincoln spoke at",
      "start": 1269.679,
      "duration": 4.681
    },
    {
      "text": "the educational level of an 11th grader",
      "start": 1271.9,
      "duration": 5.34
    },
    {
      "text": "and Douglass addressed the crowd using a",
      "start": 1274.36,
      "duration": 4.86
    },
    {
      "text": "vocabulary suitable for a high school",
      "start": 1277.24,
      "duration": 5.64
    },
    {
      "text": "graduate in the Kennedy Nixon debate the",
      "start": 1279.22,
      "duration": 5.28
    },
    {
      "text": "candidates spoke in a language",
      "start": 1282.88,
      "duration": 5.76
    },
    {
      "text": "accessible to tenth graders in the 1992",
      "start": 1284.5,
      "duration": 6.51
    },
    {
      "text": "debates Clinton spoke at a seventh grade",
      "start": 1288.64,
      "duration": 5.34
    },
    {
      "text": "level while Bush spoke at his sixth",
      "start": 1291.01,
      "duration": 7.5
    },
    {
      "text": "grade level as did Perot during the 2000",
      "start": 1293.98,
      "duration": 6.72
    },
    {
      "text": "debates Bush spoke at a sixth grade",
      "start": 1298.51,
      "duration": 5.159
    },
    {
      "text": "level and Gore at a high seventh grade",
      "start": 1300.7,
      "duration": 4.969
    },
    {
      "text": "level",
      "start": 1303.669,
      "duration": 3.781
    },
    {
      "text": "how long before",
      "start": 1305.669,
      "duration": 3.49
    },
    {
      "text": "residential debates are performed with",
      "start": 1307.45,
      "duration": 4.89
    },
    {
      "text": "hand puppets sing-alongs and bouncing",
      "start": 1309.159,
      "duration": 11.431
    },
    {
      "text": "balls conclusion the decay of the mind",
      "start": 1312.34,
      "duration": 10.679
    },
    {
      "text": "and spirit that arises from universal",
      "start": 1320.59,
      "duration": 4.89
    },
    {
      "text": "compulsion it's truly the greatest",
      "start": 1323.019,
      "duration": 6.841
    },
    {
      "text": "tragedy of statism it is not so much",
      "start": 1325.48,
      "duration": 6.96
    },
    {
      "text": "that our bodies are taxed but that we",
      "start": 1329.86,
      "duration": 8.429
    },
    {
      "text": "slowly refused to tax our minds as the",
      "start": 1332.44,
      "duration": 8.04
    },
    {
      "text": "inevitably awful results of compulsion",
      "start": 1338.289,
      "duration": 4.831
    },
    {
      "text": "rise to the foreground for all but the",
      "start": 1340.48,
      "duration": 5.52
    },
    {
      "text": "most willfully self blinded to see the",
      "start": 1343.12,
      "duration": 5.85
    },
    {
      "text": "young no longer believe in the ideals of",
      "start": 1346,
      "duration": 5.669
    },
    {
      "text": "their society hold their elders in",
      "start": 1348.97,
      "duration": 4.679
    },
    {
      "text": "contempt for their mealy-mouthed",
      "start": 1351.669,
      "duration": 5.13
    },
    {
      "text": "hypocrisy z' and view with bottomless",
      "start": 1353.649,
      "duration": 5.971
    },
    {
      "text": "cynicism the social rules that they're",
      "start": 1356.799,
      "duration": 8.551
    },
    {
      "text": "supposed to follow as education income",
      "start": 1359.62,
      "duration": 8.039
    },
    {
      "text": "and opportunities for the young fall",
      "start": 1365.35,
      "duration": 5.73
    },
    {
      "text": "away the oldest social compact between",
      "start": 1367.659,
      "duration": 6.721
    },
    {
      "text": "generations obey your elders and receive",
      "start": 1371.08,
      "duration": 8.24
    },
    {
      "text": "the benefits disintegrates as well",
      "start": 1374.38,
      "duration": 7.169
    },
    {
      "text": "generations that used to benefit each",
      "start": 1379.32,
      "duration": 4.719
    },
    {
      "text": "other the vitality and creativity of the",
      "start": 1381.549,
      "duration": 4.081
    },
    {
      "text": "young combined with the savings and",
      "start": 1384.039,
      "duration": 4.62
    },
    {
      "text": "wisdom of the old now glare at each",
      "start": 1385.63,
      "duration": 5.429
    },
    {
      "text": "other with skeptical and distrustful",
      "start": 1388.659,
      "duration": 5.221
    },
    {
      "text": "eyes why should we pay for your",
      "start": 1391.059,
      "duration": 5.37
    },
    {
      "text": "retirement why should we pay for your",
      "start": 1393.88,
      "duration": 7.35
    },
    {
      "text": "postgraduate degree the greatest tragedy",
      "start": 1396.429,
      "duration": 7.97
    },
    {
      "text": "of statism is its destruction of",
      "start": 1401.23,
      "duration": 6.409
    },
    {
      "text": "communal trust and the rupture of",
      "start": 1404.399,
      "duration": 5.861
    },
    {
      "text": "cooperation among those with beneficial",
      "start": 1407.639,
      "duration": 6.581
    },
    {
      "text": "differences such as old and young rich",
      "start": 1410.26,
      "duration": 10.289
    },
    {
      "text": "and poor leaders and followers when we",
      "start": 1414.22,
      "duration": 9.87
    },
    {
      "text": "have locked our young year-after-year in",
      "start": 1420.549,
      "duration": 5.041
    },
    {
      "text": "dangerous prisons of state",
      "start": 1424.09,
      "duration": 5.01
    },
    {
      "text": "indoctrination and sold them into future",
      "start": 1425.59,
      "duration": 4.89
    },
    {
      "text": "serfdom for the sake of political",
      "start": 1429.1,
      "duration": 4.47
    },
    {
      "text": "bribery in the moment will they really",
      "start": 1430.48,
      "duration": 5.49
    },
    {
      "text": "listen to us when we tell them to be",
      "start": 1433.57,
      "duration": 5.459
    },
    {
      "text": "good to defer gratification to work hard",
      "start": 1435.97,
      "duration": 4.97
    },
    {
      "text": "when we have no",
      "start": 1439.029,
      "duration": 3.791
    },
    {
      "text": "Awards left to offer them neither",
      "start": 1440.94,
      "duration": 10.29
    },
    {
      "text": "financial nor spiritual of course not we",
      "start": 1442.82,
      "duration": 12.34
    },
    {
      "text": "must abandon our illusions of status to",
      "start": 1451.23,
      "duration": 6.87
    },
    {
      "text": "benevolence not to save ourselves from",
      "start": 1455.16,
      "duration": 6.36
    },
    {
      "text": "the state but from each other from the",
      "start": 1458.1,
      "duration": 5.7
    },
    {
      "text": "festering resentments and predations",
      "start": 1461.52,
      "duration": 4.59
    },
    {
      "text": "that inevitably grow among citizens",
      "start": 1463.8,
      "duration": 4.47
    },
    {
      "text": "clawing and biting for crumbs from the",
      "start": 1466.11,
      "duration": 7.23
    },
    {
      "text": "political table the future of freedom is",
      "start": 1468.27,
      "duration": 7.65
    },
    {
      "text": "the freedom of the young and the freedom",
      "start": 1473.34,
      "duration": 4.94
    },
    {
      "text": "of the young depends on the old",
      "start": 1475.92,
      "duration": 9
    },
    {
      "text": "abandoning their illusions I leave the",
      "start": 1478.28,
      "duration": 10.09
    },
    {
      "text": "last word to the great poet WH Auden in",
      "start": 1484.92,
      "duration": 6.3
    },
    {
      "text": "the hopes that his prophecy about the",
      "start": 1488.37,
      "duration": 10.35
    },
    {
      "text": "20th century proves false in the 21st we",
      "start": 1491.22,
      "duration": 9.6
    },
    {
      "text": "would rather be ruined",
      "start": 1498.72,
      "duration": 6.6
    },
    {
      "text": "than changed we would rather die in our",
      "start": 1500.82,
      "duration": 8.58
    },
    {
      "text": "dread then climb the cross of the moment",
      "start": 1505.32,
      "duration": 8.54
    },
    {
      "text": "and let our illusions",
      "start": 1509.4,
      "duration": 4.46
    },
    {
      "text": "you",
      "start": 1538.02,
      "duration": 2.06
    }
  ],
  "Errors": null,
  "TranscriptStderr": null
}