{
  "Title": "Kim Davis Jailed Over Gay Marriage Licenses | True News",
  "Id": "I6v8kBV9B8w",
  "Transcript": [
    {
      "text": "hi everybody this is defan molyneux from",
      "start": 0,
      "duration": 4.589
    },
    {
      "text": "freedomain radio welcome to the madness",
      "start": 1.979,
      "duration": 8.361
    },
    {
      "text": "of modern society so a Kentucky clerk",
      "start": 4.589,
      "duration": 9.241
    },
    {
      "text": "Kim Davis was jailed on Thursday as she",
      "start": 10.34,
      "duration": 5.44
    },
    {
      "text": "continued to define a court order that",
      "start": 13.83,
      "duration": 5.19
    },
    {
      "text": "she was supposed to begin issuing gay",
      "start": 15.78,
      "duration": 6.24
    },
    {
      "text": "marriage licenses she was called before",
      "start": 19.02,
      "duration": 7.829
    },
    {
      "text": "the US District Judge sick David Bunning",
      "start": 22.02,
      "duration": 6.48
    },
    {
      "text": "for a contempt of court hearing where",
      "start": 26.849,
      "duration": 3.541
    },
    {
      "text": "Bunning said well Davis you should be",
      "start": 28.5,
      "duration": 3.93
    },
    {
      "text": "jailed until you comply with the order",
      "start": 30.39,
      "duration": 3.87
    },
    {
      "text": "to begin issuing gay marriage licenses",
      "start": 32.43,
      "duration": 5.129
    },
    {
      "text": "and the cracks of the contempt case",
      "start": 34.26,
      "duration": 5.369
    },
    {
      "text": "against her involves Kentucky law which",
      "start": 37.559,
      "duration": 4.141
    },
    {
      "text": "unlike some states laws requires county",
      "start": 39.629,
      "duration": 6.18
    },
    {
      "text": "clerks to issue marriage licenses now",
      "start": 41.7,
      "duration": 6.99
    },
    {
      "text": "she inherited I guess was voted into the",
      "start": 45.809,
      "duration": 5.64
    },
    {
      "text": "position her mother had it her son has a",
      "start": 48.69,
      "duration": 5.22
    },
    {
      "text": "job in the clerk's office and she makes",
      "start": 51.449,
      "duration": 4.621
    },
    {
      "text": "eighty thousand dollars a year plus",
      "start": 53.91,
      "duration": 4.55
    },
    {
      "text": "benefits probably close to 110 120",
      "start": 56.07,
      "duration": 5.46
    },
    {
      "text": "thousand a year for doing this but deep",
      "start": 58.46,
      "duration": 6.04
    },
    {
      "text": "deep she can't really be fired because",
      "start": 61.53,
      "duration": 5.67
    },
    {
      "text": "she's elected and she has now elected of",
      "start": 64.5,
      "duration": 4.86
    },
    {
      "text": "course to follow her conscience and go",
      "start": 67.2,
      "duration": 5.22
    },
    {
      "text": "to jail now judge Bunning said her good",
      "start": 69.36,
      "duration": 5.46
    },
    {
      "text": "faith belief is simply not a viable",
      "start": 72.42,
      "duration": 5.22
    },
    {
      "text": "defense he did not believe that finds",
      "start": 74.82,
      "duration": 4.5
    },
    {
      "text": "would stop her from refusing to grant",
      "start": 77.64,
      "duration": 3.51
    },
    {
      "text": "gay marriage licenses because she makes",
      "start": 79.32,
      "duration": 4.71
    },
    {
      "text": "so much money as a government County",
      "start": 81.15,
      "duration": 6.87
    },
    {
      "text": "Clerk he said I don't do this lightly it",
      "start": 84.03,
      "duration": 9.479
    },
    {
      "text": "is necessary in this case now that's",
      "start": 88.02,
      "duration": 6.959
    },
    {
      "text": "fascinating because there's lots of",
      "start": 93.509,
      "duration": 2.61
    },
    {
      "text": "people who saying what she has to obey",
      "start": 94.979,
      "duration": 3.6
    },
    {
      "text": "the law or she has to go to jail",
      "start": 96.119,
      "duration": 6.031
    },
    {
      "text": "question if she has disobeyed a law why",
      "start": 98.579,
      "duration": 5.161
    },
    {
      "text": "not charge it with disobeying that law",
      "start": 102.15,
      "duration": 3.99
    },
    {
      "text": "rather than with contempt you see",
      "start": 103.74,
      "duration": 4.169
    },
    {
      "text": "contempt is you're not following the",
      "start": 106.14,
      "duration": 3.33
    },
    {
      "text": "rules of the court or not doing what the",
      "start": 107.909,
      "duration": 3.541
    },
    {
      "text": "judge says or refusing to do something",
      "start": 109.47,
      "duration": 5.25
    },
    {
      "text": "the judge demands during the process of",
      "start": 111.45,
      "duration": 5.309
    },
    {
      "text": "actually being accused of a specific",
      "start": 114.72,
      "duration": 5.52
    },
    {
      "text": "crime or breaking a specific law so if",
      "start": 116.759,
      "duration": 7.921
    },
    {
      "text": "you go to court for I don't know",
      "start": 120.24,
      "duration": 6.21
    },
    {
      "text": "strangling a cat and then you don't",
      "start": 124.68,
      "duration": 3.24
    },
    {
      "text": "answer questions or whatever you can be",
      "start": 126.45,
      "duration": 3.119
    },
    {
      "text": "held in contempt but that's because you",
      "start": 127.92,
      "duration": 3.089
    },
    {
      "text": "broke the laws against wrangling cats",
      "start": 129.569,
      "duration": 3.041
    },
    {
      "text": "which laws exactly has she",
      "start": 131.009,
      "duration": 4.301
    },
    {
      "text": "broken well that's an interesting",
      "start": 132.61,
      "duration": 4.53
    },
    {
      "text": "question that remains let's just say",
      "start": 135.31,
      "duration": 4.89
    },
    {
      "text": "somewhat up in the air so this clerk she",
      "start": 137.14,
      "duration": 4.98
    },
    {
      "text": "testified she came to Christ in 2011",
      "start": 140.2,
      "duration": 3.45
    },
    {
      "text": "following the death of her mother in law",
      "start": 142.12,
      "duration": 3.63
    },
    {
      "text": "I guess potential resurrection of said",
      "start": 143.65,
      "duration": 3.51
    },
    {
      "text": "mother-in-law before she appeared in",
      "start": 145.75,
      "duration": 3.51
    },
    {
      "text": "court she said that she was prepared to",
      "start": 147.16,
      "duration": 4.68
    },
    {
      "text": "go to jail and she is following the",
      "start": 149.26,
      "duration": 4.47
    },
    {
      "text": "strength of her convictions she said",
      "start": 151.84,
      "duration": 3.51
    },
    {
      "text": "I've weighed the cost i'm prepared to go",
      "start": 153.73,
      "duration": 3.78
    },
    {
      "text": "to jail I sure AM she said this has",
      "start": 155.35,
      "duration": 3.78
    },
    {
      "text": "never been a gay lesbian issue for me",
      "start": 157.51,
      "duration": 4.19
    },
    {
      "text": "this is about upholding the Word of God",
      "start": 159.13,
      "duration": 4.65
    },
    {
      "text": "she says I would either have to make a",
      "start": 161.7,
      "duration": 3.94
    },
    {
      "text": "decision to stand or I'd have to buckle",
      "start": 163.78,
      "duration": 3.84
    },
    {
      "text": "down and leave and if I left resigned a",
      "start": 165.64,
      "duration": 3.54
    },
    {
      "text": "chose to retire I would have no voice",
      "start": 167.62,
      "duration": 3.869
    },
    {
      "text": "through God's Word she called herself a",
      "start": 169.18,
      "duration": 4.38
    },
    {
      "text": "vessel that the Lord has chosen for this",
      "start": 171.489,
      "duration": 3.781
    },
    {
      "text": "time in place now I have to tell you I",
      "start": 173.56,
      "duration": 4.08
    },
    {
      "text": "admire that kind of conviction I really",
      "start": 175.27,
      "duration": 3.9
    },
    {
      "text": "do I wish there were a few people in",
      "start": 177.64,
      "duration": 4.7
    },
    {
      "text": "office who had that kind of conviction",
      "start": 179.17,
      "duration": 5.4
    },
    {
      "text": "judge Bunning also said that deputy",
      "start": 182.34,
      "duration": 4.63
    },
    {
      "text": "clerks in Davis's office could risk jail",
      "start": 184.57,
      "duration": 5.01
    },
    {
      "text": "times if they continued to deny decline",
      "start": 186.97,
      "duration": 5.22
    },
    {
      "text": "gay marriage licenses five of the",
      "start": 189.58,
      "duration": 4.56
    },
    {
      "text": "county's deputy clerks have agreed to",
      "start": 192.19,
      "duration": 4.049
    },
    {
      "text": "continue to issue licenses Davis's son",
      "start": 194.14,
      "duration": 4.17
    },
    {
      "text": "Nathan Davis who is the sixth deputy",
      "start": 196.239,
      "duration": 5.25
    },
    {
      "text": "clerk has not agreed to do so now of",
      "start": 198.31,
      "duration": 4.62
    },
    {
      "text": "course there were four couples to gain",
      "start": 201.489,
      "duration": 2.97
    },
    {
      "text": "two straight who filed suit against her",
      "start": 202.93,
      "duration": 4.05
    },
    {
      "text": "for refusing to issue marriage licenses",
      "start": 204.459,
      "duration": 5.041
    },
    {
      "text": "after the June super supreme court",
      "start": 206.98,
      "duration": 5.039
    },
    {
      "text": "ruling she argued well you know you can",
      "start": 209.5,
      "duration": 4.65
    },
    {
      "text": "go to other Kentucky counties I don't",
      "start": 212.019,
      "duration": 4.081
    },
    {
      "text": "mind the gay marriage thing I just can't",
      "start": 214.15,
      "duration": 3.869
    },
    {
      "text": "put my name on it because it's against",
      "start": 216.1,
      "duration": 7.59
    },
    {
      "text": "my religious convictions and they didn't",
      "start": 218.019,
      "duration": 7.021
    },
    {
      "text": "like that and they didn't want to I",
      "start": 223.69,
      "duration": 3.72
    },
    {
      "text": "guess go the extra 12 minutes elsewhere",
      "start": 225.04,
      "duration": 5.9
    },
    {
      "text": "so they started the ball rolling that",
      "start": 227.41,
      "duration": 6.24
    },
    {
      "text": "ended with this woman going to jail",
      "start": 230.94,
      "duration": 3.79
    },
    {
      "text": "following the strength of her",
      "start": 233.65,
      "duration": 2.52
    },
    {
      "text": "convictions of course that is the modern",
      "start": 234.73,
      "duration": 3.27
    },
    {
      "text": "state fundamentally that is the",
      "start": 236.17,
      "duration": 3.99
    },
    {
      "text": "fundamental reality of the modern state",
      "start": 238,
      "duration": 3.84
    },
    {
      "text": "do you have a conviction that goes",
      "start": 240.16,
      "duration": 3.78
    },
    {
      "text": "against what your rulers and masters",
      "start": 241.84,
      "duration": 5.94
    },
    {
      "text": "want too bad for you off to jail you go",
      "start": 243.94,
      "duration": 5.579
    },
    {
      "text": "hey don't feel like funding an unjust",
      "start": 247.78,
      "duration": 4.14
    },
    {
      "text": "war that is illegal under international",
      "start": 249.519,
      "duration": 6.301
    },
    {
      "text": "law that is the highest crime a leader",
      "start": 251.92,
      "duration": 4.92
    },
    {
      "text": "can commit which is the crime of",
      "start": 255.82,
      "duration": 2.46
    },
    {
      "text": "aggression of the invasion of another",
      "start": 256.84,
      "duration": 2.97
    },
    {
      "text": "sovereign country not in self-defense",
      "start": 258.28,
      "duration": 3.389
    },
    {
      "text": "hey you don't feel like funding an",
      "start": 259.81,
      "duration": 4.38
    },
    {
      "text": "unjust war too bad to jail with you do",
      "start": 261.669,
      "duration": 4.201
    },
    {
      "text": "you not like your money being given to",
      "start": 264.19,
      "duration": 2.31
    },
    {
      "text": "the government",
      "start": 265.87,
      "duration": 2.76
    },
    {
      "text": "and used as collateral to put your job",
      "start": 266.5,
      "duration": 4.02
    },
    {
      "text": "for children so deep into debt that",
      "start": 268.63,
      "duration": 3.78
    },
    {
      "text": "coming out literally in Chinese banks",
      "start": 270.52,
      "duration": 4.94
    },
    {
      "text": "I'm sorry too bad you have to go to jail",
      "start": 272.41,
      "duration": 5.58
    },
    {
      "text": "see most people are against the four",
      "start": 275.46,
      "duration": 4.75
    },
    {
      "text": "major bands of common law right old",
      "start": 277.99,
      "duration": 4.23
    },
    {
      "text": "developed private common law which was",
      "start": 280.21,
      "duration": 5.94
    },
    {
      "text": "no theft no rape no assault and no",
      "start": 282.22,
      "duration": 5.49
    },
    {
      "text": "murder I think we're all down with that",
      "start": 286.15,
      "duration": 3.39
    },
    {
      "text": "I got no problem with that however when",
      "start": 287.71,
      "duration": 3.87
    },
    {
      "text": "you get this positive activist kind of",
      "start": 289.54,
      "duration": 4.02
    },
    {
      "text": "government going on they have all their",
      "start": 291.58,
      "duration": 4.89
    },
    {
      "text": "plans everybody's got a plan to make the",
      "start": 293.56,
      "duration": 4.77
    },
    {
      "text": "world better and if you don't agree it's",
      "start": 296.47,
      "duration": 6.24
    },
    {
      "text": "us to jail with you and that is",
      "start": 298.33,
      "duration": 11.06
    },
    {
      "text": "absolutely brutal so the Supreme Court",
      "start": 302.71,
      "duration": 11.73
    },
    {
      "text": "has said that it is a violation of the",
      "start": 309.39,
      "duration": 7.96
    },
    {
      "text": "Constitution in or to deny a gay",
      "start": 314.44,
      "duration": 6.03
    },
    {
      "text": "marriage and the reality is that it was",
      "start": 317.35,
      "duration": 6.03
    },
    {
      "text": "a five-to-four decision and there were",
      "start": 320.47,
      "duration": 5.85
    },
    {
      "text": "lots of judges on the Supreme Court who",
      "start": 323.38,
      "duration": 5.73
    },
    {
      "text": "said it was very much aunty",
      "start": 326.32,
      "duration": 3.99
    },
    {
      "text": "constitutional we get to that in a",
      "start": 329.11,
      "duration": 3.809
    },
    {
      "text": "moment but this clerk she was elected to",
      "start": 330.31,
      "duration": 6.359
    },
    {
      "text": "take this job before scotus made law",
      "start": 332.919,
      "duration": 6.631
    },
    {
      "text": "which is arguably unconstitutional and",
      "start": 336.669,
      "duration": 5.401
    },
    {
      "text": "she this clerk took an oath to obey her",
      "start": 339.55,
      "duration": 5.1
    },
    {
      "text": "States Constitution see there are states",
      "start": 342.07,
      "duration": 4.38
    },
    {
      "text": "for a reason and the founders of course",
      "start": 344.65,
      "duration": 3.9
    },
    {
      "text": "put states because they wanted jostling",
      "start": 346.45,
      "duration": 3.96
    },
    {
      "text": "competitions between legal system as a",
      "start": 348.55,
      "duration": 4.05
    },
    {
      "text": "hope of limiting the growth of federal",
      "start": 350.41,
      "duration": 6.39
    },
    {
      "text": "power Mulligan let's try that one again",
      "start": 352.6,
      "duration": 6.6
    },
    {
      "text": "didn't seem to work too well so she took",
      "start": 356.8,
      "duration": 4.29
    },
    {
      "text": "an oath to obey her States Constitution",
      "start": 359.2,
      "duration": 4.26
    },
    {
      "text": "and in her state the state constitution",
      "start": 361.09,
      "duration": 6.63
    },
    {
      "text": "defines marriage as between a man and a",
      "start": 363.46,
      "duration": 7.83
    },
    {
      "text": "woman now the Supreme Court scotus is",
      "start": 367.72,
      "duration": 5.43
    },
    {
      "text": "not supposed to make law not supposed to",
      "start": 371.29,
      "duration": 3.18
    },
    {
      "text": "make law hey if they want to change the",
      "start": 373.15,
      "duration": 3.21
    },
    {
      "text": "constitution they can submit it to the",
      "start": 374.47,
      "duration": 4.59
    },
    {
      "text": "voodoo or witchery chicken bone ntral",
      "start": 376.36,
      "duration": 4.8
    },
    {
      "text": "reading attempt to summon witches",
      "start": 379.06,
      "duration": 3.84
    },
    {
      "text": "through your ass process of changing the",
      "start": 381.16,
      "duration": 3
    },
    {
      "text": "Constitution they're not supposed to",
      "start": 382.9,
      "duration": 2.55
    },
    {
      "text": "make law that you're supposed to say is",
      "start": 384.16,
      "duration": 3.78
    },
    {
      "text": "this law being validly followed or not",
      "start": 385.45,
      "duration": 6.12
    },
    {
      "text": "not supposed to make law and since",
      "start": 387.94,
      "duration": 6.3
    },
    {
      "text": "scotus kind of illegally made a law and",
      "start": 391.57,
      "duration": 4.32
    },
    {
      "text": "stomped all over the stunt states rights",
      "start": 394.24,
      "duration": 3.63
    },
    {
      "text": "I wonder maybe they should be the ones",
      "start": 395.89,
      "duration": 4.2
    },
    {
      "text": "who are resigning or being jailed",
      "start": 397.87,
      "duration": 3.6
    },
    {
      "text": "at least impeached you know if we had a",
      "start": 400.09,
      "duration": 4.23
    },
    {
      "text": "congress who actually took notice of the",
      "start": 401.47,
      "duration": 4.71
    },
    {
      "text": "oath they took to protect and uphold the",
      "start": 404.32,
      "duration": 5.64
    },
    {
      "text": "Constitution Justice Anthony Scalia when",
      "start": 406.18,
      "duration": 7.5
    },
    {
      "text": "the SCOTUS made opposition's to gay",
      "start": 409.96,
      "duration": 7.62
    },
    {
      "text": "marriage illegal he said the majority of",
      "start": 413.68,
      "duration": 5.82
    },
    {
      "text": "he accused the majority of writing quote",
      "start": 417.58,
      "duration": 3.69
    },
    {
      "text": "the mystical aphorisms of the fortune",
      "start": 419.5,
      "duration": 4.11
    },
    {
      "text": "cookie and said that it's quote opinion",
      "start": 421.27,
      "duration": 3.869
    },
    {
      "text": "is couched in the style that is as",
      "start": 423.61,
      "duration": 4.529
    },
    {
      "text": "pretentious as its content is egotistic",
      "start": 425.139,
      "duration": 5.431
    },
    {
      "text": "the opinions showy profundities he",
      "start": 428.139,
      "duration": 4.381
    },
    {
      "text": "writes are often profoundly incoherent",
      "start": 430.57,
      "duration": 3.569
    },
    {
      "text": "he also calls the ruling a quote threat",
      "start": 432.52,
      "duration": 4.44
    },
    {
      "text": "to American democracy Chief Justice John",
      "start": 434.139,
      "duration": 5.371
    },
    {
      "text": "Roberts pinned the principal dissent he",
      "start": 436.96,
      "duration": 4.35
    },
    {
      "text": "wrote that quote the majority's decision",
      "start": 439.51,
      "duration": 5.58
    },
    {
      "text": "is an act of will not legal judgment and",
      "start": 441.31,
      "duration": 7.02
    },
    {
      "text": "his dissent was written this way quote",
      "start": 445.09,
      "duration": 5.34
    },
    {
      "text": "if you were among the many Americans of",
      "start": 448.33,
      "duration": 3.839
    },
    {
      "text": "whatever sexual orientation who favor",
      "start": 450.43,
      "duration": 3.75
    },
    {
      "text": "expanding same-sex marriage then by all",
      "start": 452.169,
      "duration": 3.481
    },
    {
      "text": "means celebrate today's decision",
      "start": 454.18,
      "duration": 3.359
    },
    {
      "text": "celebrate the achievement of a desired",
      "start": 455.65,
      "duration": 3.9
    },
    {
      "text": "goal celebrate the opportunity for a new",
      "start": 457.539,
      "duration": 3.721
    },
    {
      "text": "expression of commitment to a partner",
      "start": 459.55,
      "duration": 3.51
    },
    {
      "text": "celebrate the availability of new",
      "start": 461.26,
      "duration": 3.96
    },
    {
      "text": "benefits but do not celebrate the",
      "start": 463.06,
      "duration": 5.46
    },
    {
      "text": "Constitution it had nothing to do with",
      "start": 465.22,
      "duration": 6.27
    },
    {
      "text": "it is it wrong to disobey the Supreme",
      "start": 468.52,
      "duration": 4.86
    },
    {
      "text": "Court well Texas governor Greg Abbott",
      "start": 471.49,
      "duration": 4.14
    },
    {
      "text": "vowed in a statement to defend the",
      "start": 473.38,
      "duration": 3.719
    },
    {
      "text": "religious liberties of those who believe",
      "start": 475.63,
      "duration": 3.42
    },
    {
      "text": "marriage is between one man and you know",
      "start": 477.099,
      "duration": 4.261
    },
    {
      "text": "Vaughn woman he quote he wrote who said",
      "start": 479.05,
      "duration": 4.08
    },
    {
      "text": "quote no taxon is required by the",
      "start": 481.36,
      "duration": 3.51
    },
    {
      "text": "Supreme Court's decision to act contrary",
      "start": 483.13,
      "duration": 2.849
    },
    {
      "text": "to his or her religious beliefs",
      "start": 484.87,
      "duration": 3.63
    },
    {
      "text": "regarding marriage hours after the",
      "start": 485.979,
      "duration": 4.891
    },
    {
      "text": "Supreme Court ruling Abbott issued a",
      "start": 488.5,
      "duration": 4.08
    },
    {
      "text": "directive to state agencies quote the",
      "start": 490.87,
      "duration": 3.6
    },
    {
      "text": "government must never pressure a person",
      "start": 492.58,
      "duration": 3.87
    },
    {
      "text": "to abandon or violate his or her",
      "start": 494.47,
      "duration": 3.36
    },
    {
      "text": "sincerely held religious beliefs",
      "start": 496.45,
      "duration": 4.649
    },
    {
      "text": "regarding a topic such as marriage this",
      "start": 497.83,
      "duration": 5.22
    },
    {
      "text": "directive he said applies to any agency",
      "start": 501.099,
      "duration": 3.781
    },
    {
      "text": "decision including granting or denying",
      "start": 503.05,
      "duration": 4.53
    },
    {
      "text": "benefits entering agency contracts or",
      "start": 504.88,
      "duration": 5.969
    },
    {
      "text": "enforcing state laws and regulations so",
      "start": 507.58,
      "duration": 8.19
    },
    {
      "text": "if this woman should go to court then",
      "start": 510.849,
      "duration": 7.291
    },
    {
      "text": "should not the governor of Texas also go",
      "start": 515.77,
      "duration": 4.86
    },
    {
      "text": "to court for commanding people to",
      "start": 518.14,
      "duration": 4.86
    },
    {
      "text": "disobey the law of the land try that as",
      "start": 520.63,
      "duration": 4.02
    },
    {
      "text": "a private citizen go tell people not to",
      "start": 523,
      "duration": 3.3
    },
    {
      "text": "pay their taxes or to disobey the law",
      "start": 524.65,
      "duration": 3.66
    },
    {
      "text": "and assuming you're not a protester in",
      "start": 526.3,
      "duration": 3.33
    },
    {
      "text": "Ferguson you're going to be in quite a",
      "start": 528.31,
      "duration": 3.42
    },
    {
      "text": "little bit of trouble and of course the",
      "start": 529.63,
      "duration": 4.08
    },
    {
      "text": "gay rights advocates were saying but",
      "start": 531.73,
      "duration": 4.56
    },
    {
      "text": "or you gotta obey the law really really",
      "start": 533.71,
      "duration": 5.55
    },
    {
      "text": "in 2003 the Supreme Court struck down",
      "start": 536.29,
      "duration": 6.39
    },
    {
      "text": "Texas's sodomy ban invalidating it and",
      "start": 539.26,
      "duration": 5.7
    },
    {
      "text": "similar laws across across the country",
      "start": 542.68,
      "duration": 6.18
    },
    {
      "text": "so until 2003 sodomy was illegal and",
      "start": 544.96,
      "duration": 5.82
    },
    {
      "text": "therefore according to the gay persons",
      "start": 548.86,
      "duration": 3.59
    },
    {
      "text": "argument that you have to obey the law",
      "start": 550.78,
      "duration": 5.55
    },
    {
      "text": "no gay sex was occurring in Texas",
      "start": 552.45,
      "duration": 5.98
    },
    {
      "text": "because it was illegal I'm sure and",
      "start": 556.33,
      "duration": 3.45
    },
    {
      "text": "rightly so because it's a horrible law",
      "start": 558.43,
      "duration": 3.78
    },
    {
      "text": "the gay people were happily if not",
      "start": 559.78,
      "duration": 4.26
    },
    {
      "text": "gleefully if not somewhat messily",
      "start": 562.21,
      "duration": 4.53
    },
    {
      "text": "disobeying the ban on sodomy in Texas",
      "start": 564.04,
      "duration": 4.95
    },
    {
      "text": "and so the idea that you just have to",
      "start": 566.74,
      "duration": 4.74
    },
    {
      "text": "obey the law no matter what I don't",
      "start": 568.99,
      "duration": 3.99
    },
    {
      "text": "think that that's a particularly strong",
      "start": 571.48,
      "duration": 6.06
    },
    {
      "text": "argument to make so why why this woman",
      "start": 572.98,
      "duration": 6.36
    },
    {
      "text": "who ran and was elected under a law that",
      "start": 577.54,
      "duration": 3.33
    },
    {
      "text": "said marriage was between a man and a",
      "start": 579.34,
      "duration": 4.56
    },
    {
      "text": "woman why should she be jailed but the",
      "start": 580.87,
      "duration": 4.92
    },
    {
      "text": "judges who don't even bother following",
      "start": 583.9,
      "duration": 4.29
    },
    {
      "text": "the Constitution and the Congress people",
      "start": 585.79,
      "duration": 4.01
    },
    {
      "text": "who don't have hold the oath or a",
      "start": 588.19,
      "duration": 3.93
    },
    {
      "text": "president who doesn't enforce the law Oh",
      "start": 589.8,
      "duration": 5.17
    },
    {
      "text": "see they're givin a fuck a complete pass",
      "start": 592.12,
      "duration": 7.47
    },
    {
      "text": "why because you see they have a lot of",
      "start": 594.97,
      "duration": 7.98
    },
    {
      "text": "power and this woman doesn't and so the",
      "start": 599.59,
      "duration": 5.61
    },
    {
      "text": "brave judiciary and the brave press are",
      "start": 602.95,
      "duration": 4.38
    },
    {
      "text": "piling all on this woman who's trying to",
      "start": 605.2,
      "duration": 5.61
    },
    {
      "text": "follow her moral conscience they're all",
      "start": 607.33,
      "duration": 5.97
    },
    {
      "text": "piling on this woman are they piling on",
      "start": 610.81,
      "duration": 4.62
    },
    {
      "text": "some significantly more important people",
      "start": 613.3,
      "duration": 4.56
    },
    {
      "text": "who refuse to uphold the law well now",
      "start": 615.43,
      "duration": 4.14
    },
    {
      "text": "you see because those other people have",
      "start": 617.86,
      "duration": 3.66
    },
    {
      "text": "a lot of power which only goes to show",
      "start": 619.57,
      "duration": 4.29
    },
    {
      "text": "you that the press and the media and the",
      "start": 621.52,
      "duration": 4.71
    },
    {
      "text": "judiciary to some degree are just a",
      "start": 623.86,
      "duration": 4.2
    },
    {
      "text": "bunch of cowards who pick on the",
      "start": 626.23,
      "duration": 3.81
    },
    {
      "text": "98-pound weakling rather than people who",
      "start": 628.06,
      "duration": 4.02
    },
    {
      "text": "actually doing damage to the country and",
      "start": 630.04,
      "duration": 6.15
    },
    {
      "text": "its freedoms it's the law of the land",
      "start": 632.08,
      "duration": 7.86
    },
    {
      "text": "now you must obey you must obey okay so",
      "start": 636.19,
      "duration": 5.34
    },
    {
      "text": "we have to obey the law of the land or",
      "start": 639.94,
      "duration": 3.48
    },
    {
      "text": "you go to jail you have to enforce the",
      "start": 641.53,
      "duration": 8.46
    },
    {
      "text": "laws or you go to jail well her official",
      "start": 643.42,
      "duration": 9.21
    },
    {
      "text": "position obligates her she's got to take",
      "start": 649.99,
      "duration": 4.44
    },
    {
      "text": "part in states licensing and recognition",
      "start": 652.63,
      "duration": 3.18
    },
    {
      "text": "to marriage but the state's definition",
      "start": 654.43,
      "duration": 5.22
    },
    {
      "text": "her states definition of marriage is man",
      "start": 655.81,
      "duration": 6.39
    },
    {
      "text": "and woman and so what she's supposed to",
      "start": 659.65,
      "duration": 5.51
    },
    {
      "text": "do disobey the state a pay obey the",
      "start": 662.2,
      "duration": 5.1
    },
    {
      "text": "activist Jude Jude",
      "start": 665.16,
      "duration": 6.01
    },
    {
      "text": "the SCOTUS who knows state of Kentucky",
      "start": 667.3,
      "duration": 7.94
    },
    {
      "text": "is who she sworn oath to defend not the",
      "start": 671.17,
      "duration": 9.96
    },
    {
      "text": "SCOTUS so Kentucky has not passed or",
      "start": 675.24,
      "duration": 9.01
    },
    {
      "text": "amended any marriage laws and the US",
      "start": 681.13,
      "duration": 6.149
    },
    {
      "text": "Congress has certainly passed no law",
      "start": 684.25,
      "duration": 5.97
    },
    {
      "text": "defining this so what law is she",
      "start": 687.279,
      "duration": 6.481
    },
    {
      "text": "supposed to have violated Supreme Court",
      "start": 690.22,
      "duration": 6.29
    },
    {
      "text": "doesn't have the power can't make a law",
      "start": 693.76,
      "duration": 6.15
    },
    {
      "text": "and yet it seems to have and no one has",
      "start": 696.51,
      "duration": 5.35
    },
    {
      "text": "any problem with that but this woman",
      "start": 699.91,
      "duration": 6
    },
    {
      "text": "acting her conscience well you're",
      "start": 701.86,
      "duration": 5.7
    },
    {
      "text": "supposed to have disobey the law you're",
      "start": 705.91,
      "duration": 3.06
    },
    {
      "text": "supposed to have a trial by jury and",
      "start": 707.56,
      "duration": 3.469
    },
    {
      "text": "you're supposed to have due process",
      "start": 708.97,
      "duration": 7.739
    },
    {
      "text": "Miranda rights no contempt off you go",
      "start": 711.029,
      "duration": 9.791
    },
    {
      "text": "off you go to jail this is Soviet in its",
      "start": 716.709,
      "duration": 7.711
    },
    {
      "text": "nature this is ruled by Fiat this is not",
      "start": 720.82,
      "duration": 9.269
    },
    {
      "text": "rule by law it is absolutely brutal and",
      "start": 724.42,
      "duration": 7.47
    },
    {
      "text": "the law that the courts that have the",
      "start": 730.089,
      "duration": 3.12
    },
    {
      "text": "power to simply jail you for disobeying",
      "start": 731.89,
      "duration": 3.569
    },
    {
      "text": "without due process that's tyrannical",
      "start": 733.209,
      "duration": 3.961
    },
    {
      "text": "this is banana republic dictatorship",
      "start": 735.459,
      "duration": 6.091
    },
    {
      "text": "stuff tell me people out there help me",
      "start": 737.17,
      "duration": 9.57
    },
    {
      "text": "understand this this woman has a",
      "start": 741.55,
      "duration": 9.59
    },
    {
      "text": "somewhat interesting case to make and",
      "start": 746.74,
      "duration": 7.2
    },
    {
      "text": "she's been jailed for refusing to carry",
      "start": 751.14,
      "duration": 5.139
    },
    {
      "text": "out her duties under a highly complex",
      "start": 753.94,
      "duration": 4.019
    },
    {
      "text": "and ambiguous and contradictory law",
      "start": 756.279,
      "duration": 5.641
    },
    {
      "text": "Kentucky vs colors so if you don't",
      "start": 757.959,
      "duration": 8.011
    },
    {
      "text": "enforce the law you go to jail and the",
      "start": 761.92,
      "duration": 5.729
    },
    {
      "text": "Obama administration has refused",
      "start": 765.97,
      "duration": 5.57
    },
    {
      "text": "basically to enforce immigration laws uh",
      "start": 767.649,
      "duration": 6.721
    },
    {
      "text": "anybody impeaching them anybody sending",
      "start": 771.54,
      "duration": 4.48
    },
    {
      "text": "them to jail oh no you see they've got a",
      "start": 774.37,
      "duration": 3.93
    },
    {
      "text": "lot of power and they're very big so",
      "start": 776.02,
      "duration": 4.14
    },
    {
      "text": "they're too big to take on let's pick on",
      "start": 778.3,
      "duration": 7.229
    },
    {
      "text": "this little lady oh how people say well",
      "start": 780.16,
      "duration": 8.669
    },
    {
      "text": "you see I'm elected officials yay you're",
      "start": 785.529,
      "duration": 5.281
    },
    {
      "text": "not supposed to choose which laws you",
      "start": 788.829,
      "duration": 4.141
    },
    {
      "text": "enforce him which laws you down I know",
      "start": 790.81,
      "duration": 3.81
    },
    {
      "text": "she doesn't like the laws that she's",
      "start": 792.97,
      "duration": 3.179
    },
    {
      "text": "supposed to enforce then she should just",
      "start": 794.62,
      "duration": 6
    },
    {
      "text": "resign haha Obama really doesn't want to",
      "start": 796.149,
      "duration": 5.041
    },
    {
      "text": "enforce it",
      "start": 800.62,
      "duration": 3.09
    },
    {
      "text": "migration laws so he should resign then",
      "start": 801.19,
      "duration": 4.92
    },
    {
      "text": "oh I've got an idea what about the",
      "start": 803.71,
      "duration": 3.54
    },
    {
      "text": "mayor's in charge of the so-called",
      "start": 806.11,
      "duration": 3.03
    },
    {
      "text": "sanctuary cities where they refuse to",
      "start": 807.25,
      "duration": 7.37
    },
    {
      "text": "deport illegal immigrants isn't that not",
      "start": 809.14,
      "duration": 8.4
    },
    {
      "text": "obeying the law oh you see but those are",
      "start": 814.62,
      "duration": 4.18
    },
    {
      "text": "the people that the leftists and the",
      "start": 817.54,
      "duration": 3.48
    },
    {
      "text": "leftist in the media like so they get a",
      "start": 818.8,
      "duration": 4.17
    },
    {
      "text": "free pass that you can get defended but",
      "start": 821.02,
      "duration": 4.92
    },
    {
      "text": "this woman this powerless largely woman",
      "start": 822.97,
      "duration": 4.68
    },
    {
      "text": "who's trying to follow her religious",
      "start": 825.94,
      "duration": 3.27
    },
    {
      "text": "conscience well you see the left doesn't",
      "start": 827.65,
      "duration": 4.38
    },
    {
      "text": "like her so she's got to go to jail this",
      "start": 829.21,
      "duration": 5.46
    },
    {
      "text": "is how arbitrary and brutal the system",
      "start": 832.03,
      "duration": 8.79
    },
    {
      "text": "has become Congress is supposed to",
      "start": 834.67,
      "duration": 8.4
    },
    {
      "text": "declare war you see how many times has",
      "start": 840.82,
      "duration": 5.22
    },
    {
      "text": "that happened in the US history somewhat",
      "start": 843.07,
      "duration": 10.7
    },
    {
      "text": "less than my phalanges so when let's say",
      "start": 846.04,
      "duration": 7.73
    },
    {
      "text": "Obama went to Congress and asked to",
      "start": 853.83,
      "duration": 5.11
    },
    {
      "text": "basically start bombing the living crap",
      "start": 857.05,
      "duration": 8.34
    },
    {
      "text": "out of Syria was that legal the",
      "start": 858.94,
      "duration": 9.3
    },
    {
      "text": "International Law Commission in 1951 was",
      "start": 865.39,
      "duration": 5.04
    },
    {
      "text": "tasked by the UN to develop a definition",
      "start": 868.24,
      "duration": 5.04
    },
    {
      "text": "of aggression aggression doesn't sound",
      "start": 870.43,
      "duration": 4.83
    },
    {
      "text": "that bad it sounds like you're just can",
      "start": 873.28,
      "duration": 5.13
    },
    {
      "text": "a choleric know it is the worst crime in",
      "start": 875.26,
      "duration": 5.1
    },
    {
      "text": "the world aggression this is a quote",
      "start": 878.41,
      "duration": 3.87
    },
    {
      "text": "aggression is the use of force by state",
      "start": 880.36,
      "duration": 3.42
    },
    {
      "text": "or government against another state or",
      "start": 882.28,
      "duration": 3.84
    },
    {
      "text": "government in any manner whatever the",
      "start": 883.78,
      "duration": 4.47
    },
    {
      "text": "weapons used and whether openly or",
      "start": 886.12,
      "duration": 5.64
    },
    {
      "text": "otherwise for any reason or for any",
      "start": 888.25,
      "duration": 5.31
    },
    {
      "text": "purpose other than individual or",
      "start": 891.76,
      "duration": 3.57
    },
    {
      "text": "collective self-defense or in pursuance",
      "start": 893.56,
      "duration": 4.77
    },
    {
      "text": "of a decision or recommendation by a",
      "start": 895.33,
      "duration": 5.93
    },
    {
      "text": "competent organ of the united nations so",
      "start": 898.33,
      "duration": 5.64
    },
    {
      "text": "according to international law if you",
      "start": 901.26,
      "duration": 4.84
    },
    {
      "text": "initiate the use of violence not an",
      "start": 903.97,
      "duration": 3.78
    },
    {
      "text": "immediate self-defense or not through",
      "start": 906.1,
      "duration": 5.73
    },
    {
      "text": "the UN you are guilty of a war crime",
      "start": 907.75,
      "duration": 6.93
    },
    {
      "text": "this is what they hung Nazi leaders for",
      "start": 911.83,
      "duration": 4.56
    },
    {
      "text": "oh wait that's because they run the war",
      "start": 914.68,
      "duration": 2.76
    },
    {
      "text": "and of course the whole point of winning",
      "start": 916.39,
      "duration": 3.15
    },
    {
      "text": "a war is to do pretty much what your",
      "start": 917.44,
      "duration": 3.72
    },
    {
      "text": "enemies did but get away with it that's",
      "start": 919.54,
      "duration": 4.98
    },
    {
      "text": "why you try so a Syria of course is",
      "start": 921.16,
      "duration": 7.29
    },
    {
      "text": "sovereign state and it's currently at",
      "start": 924.52,
      "duration": 5.4
    },
    {
      "text": "war with a huge number of external",
      "start": 928.45,
      "duration": 4.05
    },
    {
      "text": "enemies that have infiltrated the",
      "start": 929.92,
      "duration": 4.63
    },
    {
      "text": "country with the covert support",
      "start": 932.5,
      "duration": 3.37
    },
    {
      "text": "for all of these countries around the",
      "start": 934.55,
      "duration": 3.84
    },
    {
      "text": "world Syria is now subject to invasion",
      "start": 935.87,
      "duration": 5.04
    },
    {
      "text": "and bombardments and the arming of its",
      "start": 938.39,
      "duration": 4.319
    },
    {
      "text": "enemies and other forms of aggression by",
      "start": 940.91,
      "duration": 3.42
    },
    {
      "text": "the United States has it ever threatened",
      "start": 942.709,
      "duration": 3.241
    },
    {
      "text": "to attack the United States or its",
      "start": 944.33,
      "duration": 5.25
    },
    {
      "text": "allies or its interests why no it hasn't",
      "start": 945.95,
      "duration": 5.879
    },
    {
      "text": "so good luck with 12 million refugees",
      "start": 949.58,
      "duration": 5.16
    },
    {
      "text": "Jay a day Europe because it's really",
      "start": 951.829,
      "duration": 4.681
    },
    {
      "text": "important that when people disobey the",
      "start": 954.74,
      "duration": 5.25
    },
    {
      "text": "law they go to jail you see so important",
      "start": 956.51,
      "duration": 5.4
    },
    {
      "text": "because the county clerk who's not",
      "start": 959.99,
      "duration": 3.48
    },
    {
      "text": "rubber stamping something which people",
      "start": 961.91,
      "duration": 3.419
    },
    {
      "text": "can drive five more minutes to go and",
      "start": 963.47,
      "duration": 3.809
    },
    {
      "text": "get somewhere else that woman has to go",
      "start": 965.329,
      "duration": 4.741
    },
    {
      "text": "to jail but for the international war",
      "start": 967.279,
      "duration": 6.81
    },
    {
      "text": "crime of aggression Obama gets a free",
      "start": 970.07,
      "duration": 6.949
    },
    {
      "text": "pass and postage stamps in the future",
      "start": 974.089,
      "duration": 5.581
    },
    {
      "text": "the international military tribunal at",
      "start": 977.019,
      "duration": 4.931
    },
    {
      "text": "Nuremberg unequivocally stated 1948",
      "start": 979.67,
      "duration": 4.2
    },
    {
      "text": "quote to initiate a war of aggression is",
      "start": 981.95,
      "duration": 4.23
    },
    {
      "text": "not only an international crime it is",
      "start": 983.87,
      "duration": 4.23
    },
    {
      "text": "the supreme international crime",
      "start": 986.18,
      "duration": 4.469
    },
    {
      "text": "different only from other war crimes in",
      "start": 988.1,
      "duration": 4.02
    },
    {
      "text": "that it constitutes within itself the",
      "start": 990.649,
      "duration": 6.961
    },
    {
      "text": "accumulated evil of the whole the",
      "start": 992.12,
      "duration": 9.87
    },
    {
      "text": "resolution granted to Obama by Congress",
      "start": 997.61,
      "duration": 6.14
    },
    {
      "text": "gave him the authority to wage war",
      "start": 1001.99,
      "duration": 4.23
    },
    {
      "text": "inside Syria of course without the",
      "start": 1003.75,
      "duration": 6.27
    },
    {
      "text": "consent of the Syrian government and",
      "start": 1006.22,
      "duration": 7.559
    },
    {
      "text": "that actually gives the right of Syria",
      "start": 1010.02,
      "duration": 5.41
    },
    {
      "text": "the right of self-defense because it is",
      "start": 1013.779,
      "duration": 3.721
    },
    {
      "text": "being invaded in other words with",
      "start": 1015.43,
      "duration": 4.05
    },
    {
      "text": "regards to Syria the United States is",
      "start": 1017.5,
      "duration": 3.63
    },
    {
      "text": "the war criminal and Syria is the",
      "start": 1019.48,
      "duration": 4.38
    },
    {
      "text": "innocent defender of its property this",
      "start": 1021.13,
      "duration": 4.38
    },
    {
      "text": "is of course a bhama is a legal scholar",
      "start": 1023.86,
      "duration": 3.089
    },
    {
      "text": "he's supposed to have focus on",
      "start": 1025.51,
      "duration": 3.21
    },
    {
      "text": "international laws of ignorance of the",
      "start": 1026.949,
      "duration": 3.571
    },
    {
      "text": "law while no excuses even less of an",
      "start": 1028.72,
      "duration": 5.07
    },
    {
      "text": "excuse for him the inviolable right of",
      "start": 1030.52,
      "duration": 6.149
    },
    {
      "text": "self-defense chapters 7 article 51 of",
      "start": 1033.79,
      "duration": 4.889
    },
    {
      "text": "the UN Charter states that quote nothing",
      "start": 1036.669,
      "duration": 3.42
    },
    {
      "text": "in the present chadha shall impair the",
      "start": 1038.679,
      "duration": 3.03
    },
    {
      "text": "inherent right of collective or",
      "start": 1040.089,
      "duration": 3.72
    },
    {
      "text": "individual self defense if an armed",
      "start": 1041.709,
      "duration": 4.081
    },
    {
      "text": "attack occurs against a member of the",
      "start": 1043.809,
      "duration": 5.671
    },
    {
      "text": "United Nations and so Syria is well",
      "start": 1045.79,
      "duration": 6.21
    },
    {
      "text": "within its legal rights to defend itself",
      "start": 1049.48,
      "duration": 4.32
    },
    {
      "text": "with military force against the endless",
      "start": 1052,
      "duration": 3.9
    },
    {
      "text": "us aggression ground forces aerial",
      "start": 1053.8,
      "duration": 8.55
    },
    {
      "text": "bombardment doesn't matter so that to me",
      "start": 1055.9,
      "duration": 7.89
    },
    {
      "text": "would seem a little bit more important",
      "start": 1062.35,
      "duration": 2.73
    },
    {
      "text": "than whether somebody wants the rubber",
      "start": 1063.79,
      "duration": 4.41
    },
    {
      "text": "stamp a wedding",
      "start": 1065.08,
      "duration": 5.52
    },
    {
      "text": "didn't get UN Security Council",
      "start": 1068.2,
      "duration": 3.99
    },
    {
      "text": "resolution to authorize real war in",
      "start": 1070.6,
      "duration": 5.64
    },
    {
      "text": "Libya and he distorted the meaning of",
      "start": 1072.19,
      "duration": 7.979
    },
    {
      "text": "resolution 1973 there was supposed to be",
      "start": 1076.24,
      "duration": 6.12
    },
    {
      "text": "originally just a no-fly zone over Libya",
      "start": 1080.169,
      "duration": 3.781
    },
    {
      "text": "he transformed it into a de facto",
      "start": 1082.36,
      "duration": 4.47
    },
    {
      "text": "declaration of war the Obama",
      "start": 1083.95,
      "duration": 5.4
    },
    {
      "text": "administration has waged its secret wars",
      "start": 1086.83,
      "duration": 5.61
    },
    {
      "text": "in Somalia Pakistan Molly Yemen all over",
      "start": 1089.35,
      "duration": 5.37
    },
    {
      "text": "the world it fermented a civil war in",
      "start": 1092.44,
      "duration": 4.89
    },
    {
      "text": "Ukraine the disastrous foreign policy",
      "start": 1094.72,
      "duration": 4.439
    },
    {
      "text": "has brought the US and Russian direct",
      "start": 1097.33,
      "duration": 3.27
    },
    {
      "text": "confrontation for the first time since",
      "start": 1099.159,
      "duration": 5.431
    },
    {
      "text": "the Cold War the Obama led war on libya",
      "start": 1100.6,
      "duration": 6.27
    },
    {
      "text": "created a failed state and a breeding",
      "start": 1104.59,
      "duration": 4.98
    },
    {
      "text": "ground for terrorists drone war in",
      "start": 1106.87,
      "duration": 4.98
    },
    {
      "text": "pakistan killed endless amounts of",
      "start": 1109.57,
      "duration": 5.06
    },
    {
      "text": "civilians and created a new hotbed for",
      "start": 1111.85,
      "duration": 7.079
    },
    {
      "text": "terrorist recruitment massively",
      "start": 1114.63,
      "duration": 8.25
    },
    {
      "text": "horrendous Obama's policy in Somalia",
      "start": 1118.929,
      "duration": 7.47
    },
    {
      "text": "massive amounts of Somalis killed and a",
      "start": 1122.88,
      "duration": 7.029
    },
    {
      "text": "directly war crime criminal policy has",
      "start": 1126.399,
      "duration": 5.13
    },
    {
      "text": "led to the deaths of at least a quarter",
      "start": 1129.909,
      "duration": 6.931
    },
    {
      "text": "million Somalis from starvation oh but",
      "start": 1131.529,
      "duration": 7.591
    },
    {
      "text": "see via the important thing is that",
      "start": 1136.84,
      "duration": 4.469
    },
    {
      "text": "Obama get the Nobel Peace Prize",
      "start": 1139.12,
      "duration": 3.63
    },
    {
      "text": "apparently that's just affirmative",
      "start": 1141.309,
      "duration": 4.321
    },
    {
      "text": "action for evil still wearing it still",
      "start": 1142.75,
      "duration": 8.1
    },
    {
      "text": "says he should he's justified it so so",
      "start": 1145.63,
      "duration": 7.32
    },
    {
      "text": "basically we've got a wonderful",
      "start": 1150.85,
      "duration": 6.12
    },
    {
      "text": "precedent here from the judge you see if",
      "start": 1152.95,
      "duration": 7.949
    },
    {
      "text": "you don't obey the law then you must be",
      "start": 1156.97,
      "duration": 5.76
    },
    {
      "text": "thrown in jail for contempt and boy that",
      "start": 1160.899,
      "duration": 4.321
    },
    {
      "text": "happened really quickly didn't it Lois",
      "start": 1162.73,
      "duration": 4.799
    },
    {
      "text": "Lerner dragging on Hillary Clinton",
      "start": 1165.22,
      "duration": 4.559
    },
    {
      "text": "dragging on boy but if you're a clerk",
      "start": 1167.529,
      "duration": 3.721
    },
    {
      "text": "who doesn't want to rub stamp something",
      "start": 1169.779,
      "duration": 3.99
    },
    {
      "text": "because of her convictions boom boom",
      "start": 1171.25,
      "duration": 4.559
    },
    {
      "text": "boom you're in jail before the end of",
      "start": 1173.769,
      "duration": 4.26
    },
    {
      "text": "the day because remember legal",
      "start": 1175.809,
      "duration": 3.96
    },
    {
      "text": "consistency and the moral high ground is",
      "start": 1178.029,
      "duration": 5.28
    },
    {
      "text": "so so important I don't know maybe she",
      "start": 1179.769,
      "duration": 5.101
    },
    {
      "text": "just claimed to be an illegal immigrant",
      "start": 1183.309,
      "duration": 4.681
    },
    {
      "text": "just be released no matter what she did",
      "start": 1184.87,
      "duration": 7.88
    },
    {
      "text": "and everything would be completely fine",
      "start": 1187.99,
      "duration": 4.76
    },
    {
      "text": "ah oh the Democrats and all Republicans",
      "start": 1193.49,
      "duration": 5.64
    },
    {
      "text": "that every one of the internet uh",
      "start": 1198.32,
      "duration": 3.42
    },
    {
      "text": "there's woman should just resign mera",
      "start": 1199.13,
      "duration": 4.74
    },
    {
      "text": "San Francisco created a sanctuary City",
      "start": 1201.74,
      "duration": 5.79
    },
    {
      "text": "and that resulted in murder and crime",
      "start": 1203.87,
      "duration": 7.98
    },
    {
      "text": "and so on resign court we don't know",
      "start": 1207.53,
      "duration": 7.83
    },
    {
      "text": "okay just to clarify I don't think that",
      "start": 1211.85,
      "duration": 4.65
    },
    {
      "text": "the government should have anything to",
      "start": 1215.36,
      "duration": 2.43
    },
    {
      "text": "do with marriage the only reason the",
      "start": 1216.5,
      "duration": 2.85
    },
    {
      "text": "government has anything to do with",
      "start": 1217.79,
      "duration": 3.63
    },
    {
      "text": "marriage in America is because racism",
      "start": 1219.35,
      "duration": 4.38
    },
    {
      "text": "because the Democrats put forward",
      "start": 1221.42,
      "duration": 4.139
    },
    {
      "text": "marriage licensing laws designed to keep",
      "start": 1223.73,
      "duration": 3.57
    },
    {
      "text": "blacks and whites are marrying so it's a",
      "start": 1225.559,
      "duration": 5.071
    },
    {
      "text": "legacy of racism like segregation should",
      "start": 1227.3,
      "duration": 4.98
    },
    {
      "text": "be gotten rid of marriage licenses",
      "start": 1230.63,
      "duration": 2.94
    },
    {
      "text": "should be gotten rid of completely",
      "start": 1232.28,
      "duration": 2.49
    },
    {
      "text": "government should have nothing to do",
      "start": 1233.57,
      "duration": 2.76
    },
    {
      "text": "with it it's a private contract I have",
      "start": 1234.77,
      "duration": 3.3
    },
    {
      "text": "no problem with homosexual marrying I",
      "start": 1236.33,
      "duration": 3.84
    },
    {
      "text": "think that's fine i've got no problem",
      "start": 1238.07,
      "duration": 4.02
    },
    {
      "text": "with that whatsoever but the reality is",
      "start": 1240.17,
      "duration": 5.28
    },
    {
      "text": "we currently have a system where you go",
      "start": 1242.09,
      "duration": 5.58
    },
    {
      "text": "to jail for following your conscience",
      "start": 1245.45,
      "duration": 4.68
    },
    {
      "text": "that doesn't even happen in the military",
      "start": 1247.67,
      "duration": 4.62
    },
    {
      "text": "in the military you can get out of war",
      "start": 1250.13,
      "duration": 3.66
    },
    {
      "text": "if you're against war you can follow",
      "start": 1252.29,
      "duration": 2.79
    },
    {
      "text": "your conscience you can change your mind",
      "start": 1253.79,
      "duration": 3.86
    },
    {
      "text": "you and go to jail you don't go to jail",
      "start": 1255.08,
      "duration": 5.96
    },
    {
      "text": "it's women's following her conscience I",
      "start": 1257.65,
      "duration": 6.159
    },
    {
      "text": "don't agree with that with her cunt with",
      "start": 1261.04,
      "duration": 4.42
    },
    {
      "text": "with what she's following but I admire",
      "start": 1263.809,
      "duration": 4.5
    },
    {
      "text": "her for doing it and I think it stands",
      "start": 1265.46,
      "duration": 5.58
    },
    {
      "text": "revealed the revolting hypocrisy where",
      "start": 1268.309,
      "duration": 5.161
    },
    {
      "text": "the supposed brave moral warriors take",
      "start": 1271.04,
      "duration": 4.82
    },
    {
      "text": "on an insignificant County Clerk in",
      "start": 1273.47,
      "duration": 6.72
    },
    {
      "text": "Kentucky while leading leaving the war",
      "start": 1275.86,
      "duration": 5.56
    },
    {
      "text": "criminals at the top of the pyramid",
      "start": 1280.19,
      "duration": 6.26
    },
    {
      "text": "awash in flowers and blood and disaster",
      "start": 1281.42,
      "duration": 8.7
    },
    {
      "text": "that is a state we are living in we pick",
      "start": 1286.45,
      "duration": 6.19
    },
    {
      "text": "on the weak and call ourself heroes and",
      "start": 1290.12,
      "duration": 5.73
    },
    {
      "text": "we praise the powerful and the evil and",
      "start": 1292.64,
      "duration": 7.07
    },
    {
      "text": "call ourselves patriotic",
      "start": 1295.85,
      "duration": 3.86
    },
    {
      "text": "you",
      "start": 1306.95,
      "duration": 2.06
    }
  ],
  "Errors": null,
  "TranscriptStderr": null
}