[
    {
        "start": "0",
        "dur": "4.83",
        "text": "they used to come in the middle of the"
    },
    {
        "start": "1.319",
        "dur": "4.801",
        "text": "night they used to loudly or quietly"
    },
    {
        "start": "4.83",
        "dur": "2.489",
        "text": "loudly if they wanted to frighten her"
    },
    {
        "start": "6.12",
        "dur": "2.729",
        "text": "neighbors quietly if they wanted"
    },
    {
        "start": "7.319",
        "dur": "3.181",
        "text": "everyone to become even more paranoid"
    },
    {
        "start": "8.849",
        "dur": "2.881",
        "text": "and they would take you from your bed"
    },
    {
        "start": "10.5",
        "dur": "2.519",
        "text": "and they would drag you out into the"
    },
    {
        "start": "11.73",
        "dur": "3.329",
        "text": "cold they'd throw you into the back of a"
    },
    {
        "start": "13.019",
        "dur": "4.141",
        "text": "van they drive you to some detention"
    },
    {
        "start": "15.059",
        "dur": "3.991",
        "text": "facility you may or maynot not get some"
    },
    {
        "start": "17.16",
        "dur": "3.869",
        "text": "kind of show trial or some judges"
    },
    {
        "start": "19.05",
        "dur": "4.05",
        "text": "sentence would be handed down and then"
    },
    {
        "start": "21.029",
        "dur": "3.871",
        "text": "you would be whisked off to some gulag"
    },
    {
        "start": "23.1",
        "dur": "4.41",
        "text": "or concentration camp where you may"
    },
    {
        "start": "24.9",
        "dur": "3.75",
        "text": "survive you may not survive maybe you"
    },
    {
        "start": "27.51",
        "dur": "2.13",
        "text": "would have enough to eat maybe you"
    },
    {
        "start": "28.65",
        "dur": "3.449",
        "text": "wouldn't maybe you'd have enough"
    },
    {
        "start": "29.64",
        "dur": "4.68",
        "text": "clothing for Siberian winters maybe you"
    },
    {
        "start": "32.099",
        "dur": "3.811",
        "text": "wouldn't maybe you would have some"
    },
    {
        "start": "34.32",
        "dur": "4.829",
        "text": "medical needs that wouldn't be taken"
    },
    {
        "start": "35.91",
        "dur": "4.44",
        "text": "care of maybe you'd survive maybe you"
    },
    {
        "start": "39.149",
        "dur": "2.82",
        "text": "wouldn't that's how they used to do it"
    },
    {
        "start": "40.35",
        "dur": "5.52",
        "text": "behind they are in curtain in Nazi"
    },
    {
        "start": "41.969",
        "dur": "7.561",
        "text": "Germany in Mouse China wherever the"
    },
    {
        "start": "45.87",
        "dur": "5.82",
        "text": "steely pseudo legal tentacles of the"
    },
    {
        "start": "49.53",
        "dur": "5.459",
        "text": "fascist and police states close around"
    },
    {
        "start": "51.69",
        "dur": "4.58",
        "text": "the formerly open to speak throats of"
    },
    {
        "start": "54.989",
        "dur": "6.171",
        "text": "the general population"
    },
    {
        "start": "56.27",
        "dur": "7.21",
        "text": "Tom B Robinson was arrested today why"
    },
    {
        "start": "61.16",
        "dur": "5.2",
        "text": "there was suspicion of what is called"
    },
    {
        "start": "63.48",
        "dur": "4.95",
        "text": "breaching the peace now I'm no lawyer"
    },
    {
        "start": "66.36",
        "dur": "4.41",
        "text": "but from what I've read breaching the"
    },
    {
        "start": "68.43",
        "dur": "4.95",
        "text": "peace is you're engaged in an activity"
    },
    {
        "start": "70.77",
        "dur": "5.37",
        "text": "which is either immediately causing a"
    },
    {
        "start": "73.38",
        "dur": "4.32",
        "text": "violent situation or just might cause a"
    },
    {
        "start": "76.14",
        "dur": "4.53",
        "text": "violent situation which means of course"
    },
    {
        "start": "77.7",
        "dur": "5.07",
        "text": "given that law anytime you want to shut"
    },
    {
        "start": "80.67",
        "dur": "3.42",
        "text": "someone down who's doing something you"
    },
    {
        "start": "82.77",
        "dur": "1.709",
        "text": "don't like in public or speaking in"
    },
    {
        "start": "84.09",
        "dur": "2.25",
        "text": "public"
    },
    {
        "start": "84.479",
        "dur": "4.081",
        "text": "you simply threaten them with violence"
    },
    {
        "start": "86.34",
        "dur": "5.4",
        "text": "or threaten a violent situation and then"
    },
    {
        "start": "88.56",
        "dur": "6.57",
        "text": "they have no free speech Tommy reports"
    },
    {
        "start": "91.74",
        "dur": "4.949",
        "text": "that he himself was pushed was shoved"
    },
    {
        "start": "95.13",
        "dur": "3.69",
        "text": "but the police did nothing about it"
    },
    {
        "start": "96.689",
        "dur": "4.201",
        "text": "but they arrested him now what was he"
    },
    {
        "start": "98.82",
        "dur": "5.46",
        "text": "doing he was live-streaming reporting on"
    },
    {
        "start": "100.89",
        "dur": "6.269",
        "text": "the trial of a child rape gang and now"
    },
    {
        "start": "104.28",
        "dur": "6.69",
        "text": "he has been sent as far as I understand"
    },
    {
        "start": "107.159",
        "dur": "7.231",
        "text": "it straight to prison straight to prison"
    },
    {
        "start": "110.97",
        "dur": "7.23",
        "text": "he's going to have to serve out a prior"
    },
    {
        "start": "114.39",
        "dur": "6.45",
        "text": "suspended sentence why why what was his"
    },
    {
        "start": "118.2",
        "dur": "4.23",
        "text": "previous sentence so last year he was"
    },
    {
        "start": "120.84",
        "dur": "3.15",
        "text": "arrested for contempt of court after"
    },
    {
        "start": "122.43",
        "dur": "5.25",
        "text": "trying to film Muslims who'd been"
    },
    {
        "start": "123.99",
        "dur": "8.4",
        "text": "accused of these child rapes outside a"
    },
    {
        "start": "127.68",
        "dur": "6.24",
        "text": "court in Canterbury now the"
    },
    {
        "start": "132.39",
        "dur": "4.71",
        "text": "is terrible enough what happened to"
    },
    {
        "start": "133.92",
        "dur": "4.7",
        "text": "Tommy this morning in the UK but there"
    },
    {
        "start": "137.1",
        "dur": "5.73",
        "text": "is another dimension to the story that"
    },
    {
        "start": "138.62",
        "dur": "7.03",
        "text": "is I hate to say even more chilling but"
    },
    {
        "start": "142.83",
        "dur": "7.41",
        "text": "has let's just say wider ramifications"
    },
    {
        "start": "145.65",
        "dur": "6.84",
        "text": "so stories about this arrest and almost"
    },
    {
        "start": "150.24",
        "dur": "6.87",
        "text": "immediate imprisonment of Tommy Robinson"
    },
    {
        "start": "152.49",
        "dur": "6.06",
        "text": "are being in real-time erased from the"
    },
    {
        "start": "157.11",
        "dur": "2.9",
        "text": "internet why because the British"
    },
    {
        "start": "158.55",
        "dur": "7.04",
        "text": "government has put restrictions in place"
    },
    {
        "start": "160.01",
        "dur": "5.58",
        "text": "which bans any reporting on the matter"
    },
    {
        "start": "165.83",
        "dur": "5.62",
        "text": "so he was arrested though I mean I'm"
    },
    {
        "start": "170.37",
        "dur": "2.369",
        "text": "sure he would claim and I certainly"
    },
    {
        "start": "171.45",
        "dur": "3.66",
        "text": "didn't see him to see that he was doing"
    },
    {
        "start": "172.739",
        "dur": "5.641",
        "text": "anything to incite violence he was"
    },
    {
        "start": "175.11",
        "dur": "5.04",
        "text": "arrested and now you're not allowed to"
    },
    {
        "start": "178.38",
        "dur": "2.66",
        "text": "write about it not allowed to talk about"
    },
    {
        "start": "180.15",
        "dur": "3.15",
        "text": "it"
    },
    {
        "start": "181.04",
        "dur": "5.35",
        "text": "so articles from the Birmingham"
    },
    {
        "start": "183.3",
        "dur": "5.13",
        "text": "Birmingham live the mirror RT Breitbart"
    },
    {
        "start": "186.39",
        "dur": "5.01",
        "text": "news The Daily Record"
    },
    {
        "start": "188.43",
        "dur": "4.46",
        "text": "they've all been scrapped they've all"
    },
    {
        "start": "191.4",
        "dur": "5.49",
        "text": "been taken offline in the hours"
    },
    {
        "start": "192.89",
        "dur": "10.09",
        "text": "following Tommy Robinson's arrest and"
    },
    {
        "start": "196.89",
        "dur": "8.37",
        "text": "detention so by all indications he has"
    },
    {
        "start": "202.98",
        "dur": "5.94",
        "text": "been sent straight to jail"
    },
    {
        "start": "205.26",
        "dur": "6.449",
        "text": "do not pass go go straight to jail now"
    },
    {
        "start": "208.92",
        "dur": "5.18",
        "text": "jail is terrible enough but the jails"
    },
    {
        "start": "211.709",
        "dur": "4.62",
        "text": "the Tommy are going to are most likely"
    },
    {
        "start": "214.1",
        "dur": "5.5",
        "text": "filled with a lot of people who hate him"
    },
    {
        "start": "216.329",
        "dur": "5.761",
        "text": "and want him dead the last time the"
    },
    {
        "start": "219.6",
        "dur": "4.53",
        "text": "Tommy was jailed other prison inmates"
    },
    {
        "start": "222.09",
        "dur": "5.429",
        "text": "tried to dump a boiling sugar water on"
    },
    {
        "start": "224.13",
        "dur": "6.96",
        "text": "him and people have not fared well in"
    },
    {
        "start": "227.519",
        "dur": "5.431",
        "text": "jail 2016 there was a man who put bacon"
    },
    {
        "start": "231.09",
        "dur": "3.899",
        "text": "sandwiches outside a mosque he was"
    },
    {
        "start": "232.95",
        "dur": "4.319",
        "text": "jailed and less than a year into his"
    },
    {
        "start": "234.989",
        "dur": "4.081",
        "text": "sentence a year for a sandwich less than"
    },
    {
        "start": "237.269",
        "dur": "7.56",
        "text": "a year into his sentence he was found"
    },
    {
        "start": "239.07",
        "dur": "8.94",
        "text": "dead in his jail cell so what does this"
    },
    {
        "start": "244.829",
        "dur": "5.94",
        "text": "mean the man is a a father the man is an"
    },
    {
        "start": "248.01",
        "dur": "5.46",
        "text": "activist the man is a reporter and he"
    },
    {
        "start": "250.769",
        "dur": "5.881",
        "text": "was reporting on some of the most"
    },
    {
        "start": "253.47",
        "dur": "6.06",
        "text": "heinous crimes to have come out of the"
    },
    {
        "start": "256.65",
        "dur": "6.54",
        "text": "UK publicly since the Jimmy Savile"
    },
    {
        "start": "259.53",
        "dur": "6.48",
        "text": "multi-decade cover-up of unbelievable"
    },
    {
        "start": "263.19",
        "dur": "8.58",
        "text": "levels of child abuse"
    },
    {
        "start": "266.01",
        "dur": "15.48",
        "text": "and this is the absolute state of the UK"
    },
    {
        "start": "271.77",
        "dur": "11.61",
        "text": "I grew up in the UK and I would have at"
    },
    {
        "start": "281.49",
        "dur": "4.29",
        "text": "one time have fed my life to the wolves"
    },
    {
        "start": "283.38",
        "dur": "6.6",
        "text": "to protect it because it seemed such a"
    },
    {
        "start": "285.78",
        "dur": "7.56",
        "text": "noble ideal of fighting National"
    },
    {
        "start": "289.98",
        "dur": "9",
        "text": "Socialism of free speech of property"
    },
    {
        "start": "293.34",
        "dur": "11.63",
        "text": "rights of a civilized society and what"
    },
    {
        "start": "298.98",
        "dur": "9.35",
        "text": "has happened what has happened now that"
    },
    {
        "start": "304.97",
        "dur": "8.01",
        "text": "if you are trying to report on crimes"
    },
    {
        "start": "308.33",
        "dur": "9.28",
        "text": "against children that you are raised"
    },
    {
        "start": "312.98",
        "dur": "6.76",
        "text": "that you are vanished from society and"
    },
    {
        "start": "317.61",
        "dur": "5.7",
        "text": "thrown into a situation of almost"
    },
    {
        "start": "319.74",
        "dur": "5.85",
        "text": "bottomless danger and threat that if"
    },
    {
        "start": "323.31",
        "dur": "3.48",
        "text": "there's a journalist that is reporting"
    },
    {
        "start": "325.59",
        "dur": "3.24",
        "text": "on things the government doesn't want"
    },
    {
        "start": "326.79",
        "dur": "5.43",
        "text": "you to report on what happens to that"
    },
    {
        "start": "328.83",
        "dur": "6.05",
        "text": "journalist what happens to that"
    },
    {
        "start": "332.22",
        "dur": "6.95",
        "text": "journalist are there then arrested"
    },
    {
        "start": "334.88",
        "dur": "7.24",
        "text": "thrown in jail into an environment where"
    },
    {
        "start": "339.17",
        "dur": "4.54",
        "text": "the fellow inmates may be the one maybe"
    },
    {
        "start": "342.12",
        "dur": "2.79",
        "text": "the ones who hand out the death sentence"
    },
    {
        "start": "343.71",
        "dur": "6.66",
        "text": "that the government may just in fact"
    },
    {
        "start": "344.91",
        "dur": "7.01",
        "text": "prefer and so my question is now where"
    },
    {
        "start": "350.37",
        "dur": "4.83",
        "text": "of all the journalists around the world"
    },
    {
        "start": "351.92",
        "dur": "4.72",
        "text": "now that this has occurred where all the"
    },
    {
        "start": "355.2",
        "dur": "3.84",
        "text": "journalists who went completely mental"
    },
    {
        "start": "356.64",
        "dur": "5.97",
        "text": "when they were even vague allegations"
    },
    {
        "start": "359.04",
        "dur": "8.76",
        "text": "that Putin poisoned journalists you see"
    },
    {
        "start": "362.61",
        "dur": "9.05",
        "text": "who survived as Tommy may well not where"
    },
    {
        "start": "367.8",
        "dur": "6.33",
        "text": "is the outcry where is the pushback or"
    },
    {
        "start": "371.66",
        "dur": "4.48",
        "text": "is the government correct in its"
    },
    {
        "start": "374.13",
        "dur": "4.95",
        "text": "assessment in the UK is the government"
    },
    {
        "start": "376.14",
        "dur": "5.94",
        "text": "correct in its assessment that any"
    },
    {
        "start": "379.08",
        "dur": "4.53",
        "text": "protests will be full of sound and fury"
    },
    {
        "start": "382.08",
        "dur": "3.23",
        "text": "but signify nothing are they so"
    },
    {
        "start": "383.61",
        "dur": "4.1",
        "text": "confident in their capacity to shut down"
    },
    {
        "start": "385.31",
        "dur": "5.89",
        "text": "dissenting voices that they can do this"
    },
    {
        "start": "387.71",
        "dur": "8.77",
        "text": "and be certain that they can get away"
    },
    {
        "start": "391.2",
        "dur": "6.45",
        "text": "with it where are the reporters where"
    },
    {
        "start": "396.48",
        "dur": "3.71",
        "text": "are the activists where are the"
    },
    {
        "start": "397.65",
        "dur": "2.54",
        "text": "protesters"
    },
    {
        "start": "400.909",
        "dur": "7.451",
        "text": "the arrest occurs the judgment is Swift"
    },
    {
        "start": "405",
        "dur": "5.52",
        "text": "and terrible if you look at how long it"
    },
    {
        "start": "408.36",
        "dur": "6.809",
        "text": "took decades and decades for the British"
    },
    {
        "start": "410.52",
        "dur": "9.42",
        "text": "government to deal even to some small"
    },
    {
        "start": "415.169",
        "dur": "7.47",
        "text": "degree with these rapes and tortures and"
    },
    {
        "start": "419.94",
        "dur": "3.479",
        "text": "predations in trafficking upon little"
    },
    {
        "start": "422.639",
        "dur": "4.5",
        "text": "girls"
    },
    {
        "start": "423.419",
        "dur": "5.37",
        "text": "it took them decades to act and maybe"
    },
    {
        "start": "427.139",
        "dur": "5.221",
        "text": "even the advent of the Internet to shame"
    },
    {
        "start": "428.789",
        "dur": "11.041",
        "text": "them into action and look how quickly"
    },
    {
        "start": "432.36",
        "dur": "14.549",
        "text": "they acted in this instance the"
    },
    {
        "start": "439.83",
        "dur": "11.1",
        "text": "priorities I think are clear in 1984"
    },
    {
        "start": "446.909",
        "dur": "6.201",
        "text": "George Orwell wrote about the erasure of"
    },
    {
        "start": "450.93",
        "dur": "5.669",
        "text": "history about the rewriting of history"
    },
    {
        "start": "453.11",
        "dur": "7.44",
        "text": "he wrote the past was erased the erasure"
    },
    {
        "start": "456.599",
        "dur": "7.461",
        "text": "was forgotten the lie became the truth"
    },
    {
        "start": "460.55",
        "dur": "6.959",
        "text": "and now we are seeing the dismantling of"
    },
    {
        "start": "464.06",
        "dur": "6.82",
        "text": "civilizational protections in real time"
    },
    {
        "start": "467.509",
        "dur": "7.871",
        "text": "now we are seeing the undoing of rights"
    },
    {
        "start": "470.88",
        "dur": "7.529",
        "text": "and speech and voice in real time we are"
    },
    {
        "start": "475.38",
        "dur": "6.569",
        "text": "seeing the disappearing of people in"
    },
    {
        "start": "478.409",
        "dur": "6.091",
        "text": "real time in 1984 the sentence was the"
    },
    {
        "start": "481.949",
        "dur": "8.58",
        "text": "past was erased the eraser was forgotten"
    },
    {
        "start": "484.5",
        "dur": "8.33",
        "text": "and the lie became the truth now"
    },
    {
        "start": "490.529",
        "dur": "5.04",
        "text": "this is not even happening in the past"
    },
    {
        "start": "492.83",
        "dur": "5.32",
        "text": "now it is happening right now in front"
    },
    {
        "start": "495.569",
        "dur": "8.551",
        "text": "of us people are arrested articles"
    },
    {
        "start": "498.15",
        "dur": "10.28",
        "text": "vanished now it is the present that is"
    },
    {
        "start": "504.12",
        "dur": "8.43",
        "text": "erased and the erasure is buried and"
    },
    {
        "start": "508.43",
        "dur": "6.989",
        "text": "today it seems at least the truth hasn't"
    },
    {
        "start": "512.55",
        "dur": "2.869",
        "text": "got a fucking chance"
    }
]