{
  "Title": "The Pros and Cons of Bitcoin - What You Need to Know!",
  "Id": "j_sj6XGMVaw",
  "Transcript": [
    {
      "text": "hi everybody Savannah molyneux from",
      "start": 0,
      "duration": 2.399
    },
    {
      "text": "freedomain radio I hope you're doing",
      "start": 1.319,
      "duration": 3.661
    },
    {
      "text": "well so I wanted to respond to some of",
      "start": 2.399,
      "duration": 5.46
    },
    {
      "text": "the most common objections that I hear",
      "start": 4.98,
      "duration": 5.789
    },
    {
      "text": "about bitcoins the digital",
      "start": 7.859,
      "duration": 4.53
    },
    {
      "text": "cryptocurrency that is currently racing",
      "start": 10.769,
      "duration": 2.881
    },
    {
      "text": "northwards of six to seven hundred",
      "start": 12.389,
      "duration": 4.22
    },
    {
      "text": "dollars each so one of the most common",
      "start": 13.65,
      "duration": 5.37
    },
    {
      "text": "objections about this digital currency",
      "start": 16.609,
      "duration": 5.59
    },
    {
      "text": "is that it is not backed by anything",
      "start": 19.02,
      "duration": 6.509
    },
    {
      "text": "tangible or physical such as gold",
      "start": 22.199,
      "duration": 5.281
    },
    {
      "text": "now that's some truth in that certainly",
      "start": 25.529,
      "duration": 6.391
    },
    {
      "text": "it is the result of an investment of CPU",
      "start": 27.48,
      "duration": 6.57
    },
    {
      "text": "cycles and electricity which are used to",
      "start": 31.92,
      "duration": 6.11
    },
    {
      "text": "generate bitcoins bitcoins are created",
      "start": 34.05,
      "duration": 7.32
    },
    {
      "text": "when computers solve complex algorithms",
      "start": 38.03,
      "duration": 5.5
    },
    {
      "text": "and those algorithms get increasingly",
      "start": 41.37,
      "duration": 4.2
    },
    {
      "text": "complex as more and more bitcoins are",
      "start": 43.53,
      "duration": 4.89
    },
    {
      "text": "generated to a maximum of 21 million",
      "start": 45.57,
      "duration": 5.579
    },
    {
      "text": "which is hard-coded into the into the",
      "start": 48.42,
      "duration": 5.61
    },
    {
      "text": "software so there is an investment in",
      "start": 51.149,
      "duration": 5.39
    },
    {
      "text": "resources electricity CPU time and so on",
      "start": 54.03,
      "duration": 5.31
    },
    {
      "text": "that produces them but it certainly is",
      "start": 56.539,
      "duration": 4.18
    },
    {
      "text": "correct that there's not something like",
      "start": 59.34,
      "duration": 4.92
    },
    {
      "text": "a bar of gold that can be used now one",
      "start": 60.719,
      "duration": 4.83
    },
    {
      "text": "of the important things when you do",
      "start": 64.26,
      "duration": 4.32
    },
    {
      "text": "thinking in terms of economics is you",
      "start": 65.549,
      "duration": 5.061
    },
    {
      "text": "have to look at the whole picture so",
      "start": 68.58,
      "duration": 4.59
    },
    {
      "text": "saying that bitcoins are bad because",
      "start": 70.61,
      "duration": 5.2
    },
    {
      "text": "they're not backed by anything physical",
      "start": 73.17,
      "duration": 5.16
    },
    {
      "text": "it's like saying that renting is always",
      "start": 75.81,
      "duration": 5.04
    },
    {
      "text": "preferable to buying a house because",
      "start": 78.33,
      "duration": 5.67
    },
    {
      "text": "with renting you don't have to put down",
      "start": 80.85,
      "duration": 6.629
    },
    {
      "text": "a down payment well that's very true",
      "start": 84,
      "duration": 5.579
    },
    {
      "text": "with buying a house you have to put down",
      "start": 87.479,
      "duration": 4.441
    },
    {
      "text": "a down payment and usually the the",
      "start": 89.579,
      "duration": 4.231
    },
    {
      "text": "mortgage payments are more than you will",
      "start": 91.92,
      "duration": 4.739
    },
    {
      "text": "pay for renting but that's just looking",
      "start": 93.81,
      "duration": 6.57
    },
    {
      "text": "at the downside of buying a house if you",
      "start": 96.659,
      "duration": 5.701
    },
    {
      "text": "put in the full picture the upside of",
      "start": 100.38,
      "duration": 3.239
    },
    {
      "text": "course is that you actually get to keep",
      "start": 102.36,
      "duration": 4.68
    },
    {
      "text": "a house at the end so that's sort of",
      "start": 103.619,
      "duration": 5.761
    },
    {
      "text": "important and so when it comes to",
      "start": 107.04,
      "duration": 5.579
    },
    {
      "text": "bitcoins yes without a doubt they do not",
      "start": 109.38,
      "duration": 5.91
    },
    {
      "text": "have a physical backing in the same way",
      "start": 112.619,
      "duration": 6.481
    },
    {
      "text": "the gold does but that's just one aspect",
      "start": 115.29,
      "duration": 6.119
    },
    {
      "text": "of it the other aspect of bitcoins is",
      "start": 119.1,
      "duration": 3.9
    },
    {
      "text": "that you don't have to get giant",
      "start": 121.409,
      "duration": 3
    },
    {
      "text": "machines going into the ground pulling",
      "start": 123,
      "duration": 3.719
    },
    {
      "text": "out gold you don't have to pay all the",
      "start": 124.409,
      "duration": 6.41
    },
    {
      "text": "people to to find it to to dig it out to",
      "start": 126.719,
      "duration": 6.961
    },
    {
      "text": "separate it from the ore to",
      "start": 130.819,
      "duration": 5.351
    },
    {
      "text": "it down to purify it to ship it sir so",
      "start": 133.68,
      "duration": 5.13
    },
    {
      "text": "there's far less overhead in Bitcoin the",
      "start": 136.17,
      "duration": 4.439
    },
    {
      "text": "currency itself is cheaper when it comes",
      "start": 138.81,
      "duration": 4.23
    },
    {
      "text": "to storage bitcoins are stored in",
      "start": 140.609,
      "duration": 3.871
    },
    {
      "text": "wallets all over the world",
      "start": 143.04,
      "duration": 2.88
    },
    {
      "text": "everybody gets an update of everything",
      "start": 144.48,
      "duration": 3
    },
    {
      "text": "that's happening on the Bitcoin network",
      "start": 145.92,
      "duration": 2.76
    },
    {
      "text": "so as long as there's one computer",
      "start": 147.48,
      "duration": 3.119
    },
    {
      "text": "running everybody's still quote got",
      "start": 148.68,
      "duration": 3.479
    },
    {
      "text": "their bitcoins once other computers get",
      "start": 150.599,
      "duration": 4.62
    },
    {
      "text": "back onto the network and so the fact is",
      "start": 152.159,
      "duration": 5.31
    },
    {
      "text": "that bitcoin is far cheaper to produce",
      "start": 155.219,
      "duration": 3.621
    },
    {
      "text": "than gold",
      "start": 157.469,
      "duration": 4.591
    },
    {
      "text": "bitcoin is almost infinitely cheaper to",
      "start": 158.84,
      "duration": 6.729
    },
    {
      "text": "store than gold is and to transfer",
      "start": 162.06,
      "duration": 5.299
    },
    {
      "text": "bitcoins from one person to another is",
      "start": 165.569,
      "duration": 4.35
    },
    {
      "text": "essentially free whereas to transfer a",
      "start": 167.359,
      "duration": 3.731
    },
    {
      "text": "physical gold from one place to another",
      "start": 169.919,
      "duration": 4.38
    },
    {
      "text": "is quite expensive this is why you can",
      "start": 171.09,
      "duration": 4.89
    },
    {
      "text": "pay a multi-million dollar bill in",
      "start": 174.299,
      "duration": 5.401
    },
    {
      "text": "Bitcoin for nothing I mean practically",
      "start": 175.98,
      "duration": 4.379
    },
    {
      "text": "for nothing",
      "start": 179.7,
      "duration": 2.009
    },
    {
      "text": "whereas if you want to pay a",
      "start": 180.359,
      "duration": 3
    },
    {
      "text": "multi-million dollar bail by moving gold",
      "start": 181.709,
      "duration": 4.71
    },
    {
      "text": "then you have a lot of expenses on your",
      "start": 183.359,
      "duration": 5.641
    },
    {
      "text": "hand to to store gold costs money to",
      "start": 186.419,
      "duration": 6.15
    },
    {
      "text": "store Bitcoin costs virtually nothing",
      "start": 189,
      "duration": 6.06
    },
    {
      "text": "- of course bitcoins can be stolen is",
      "start": 192.569,
      "duration": 3.84
    },
    {
      "text": "there anything in the world can't be",
      "start": 195.06,
      "duration": 3.359
    },
    {
      "text": "stolen I mean apparently if you log in",
      "start": 196.409,
      "duration": 3.66
    },
    {
      "text": "to healthcare.gov your entire identity",
      "start": 198.419,
      "duration": 4.74
    },
    {
      "text": "can be stolen these days so your",
      "start": 200.069,
      "duration": 4.651
    },
    {
      "text": "identity can be stolen gold can be",
      "start": 203.159,
      "duration": 4.11
    },
    {
      "text": "stolen your car can be stolen your",
      "start": 204.72,
      "duration": 4.919
    },
    {
      "text": "wallet can be stolen your identity cards",
      "start": 207.269,
      "duration": 6.42
    },
    {
      "text": "can be stolen and so on so this happens",
      "start": 209.639,
      "duration": 5.611
    },
    {
      "text": "everything that exists can be stolen",
      "start": 213.689,
      "duration": 3.42
    },
    {
      "text": "there's a lot that you can do of course",
      "start": 215.25,
      "duration": 4.049
    },
    {
      "text": "to encrypt your wallet to put into cold",
      "start": 217.109,
      "duration": 3.541
    },
    {
      "text": "storage and you can look up all these",
      "start": 219.299,
      "duration": 2.671
    },
    {
      "text": "terms if you want there's a huge amount",
      "start": 220.65,
      "duration": 4.559
    },
    {
      "text": "that you can do to protect your Bitcoin",
      "start": 221.97,
      "duration": 6.479
    },
    {
      "text": "wallet so saying it's not backed by",
      "start": 225.209,
      "duration": 5.52
    },
    {
      "text": "anything tangible is actually an",
      "start": 228.449,
      "duration": 4.44
    },
    {
      "text": "advantage as well as if you can call it",
      "start": 230.729,
      "duration": 3.75
    },
    {
      "text": "a disadvantage sure but it's also an",
      "start": 232.889,
      "duration": 2.701
    },
    {
      "text": "advantage and that it's a friction-free",
      "start": 234.479,
      "duration": 2.521
    },
    {
      "text": "currency that you can use you can",
      "start": 235.59,
      "duration": 3.119
    },
    {
      "text": "transfer for nothing you can pay bills",
      "start": 237,
      "duration": 3.75
    },
    {
      "text": "with no overhead like visas a couple of",
      "start": 238.709,
      "duration": 4.05
    },
    {
      "text": "points on the bills gold you have to pay",
      "start": 240.75,
      "duration": 3.78
    },
    {
      "text": "for the storage and trust the people",
      "start": 242.759,
      "duration": 3.18
    },
    {
      "text": "you're storing and so on so there's",
      "start": 244.53,
      "duration": 2.879
    },
    {
      "text": "risks and benefits and costs to",
      "start": 245.939,
      "duration": 3.39
    },
    {
      "text": "everything that you do and simply",
      "start": 247.409,
      "duration": 3.42
    },
    {
      "text": "pointing out one of these supposed",
      "start": 249.329,
      "duration": 4.41
    },
    {
      "text": "negatives bitcoins without saying that",
      "start": 250.829,
      "duration": 5.041
    },
    {
      "text": "those very negatives are also part of",
      "start": 253.739,
      "duration": 5.101
    },
    {
      "text": "why it's so immensely valuable is not a",
      "start": 255.87,
      "duration": 4.679
    },
    {
      "text": "complete picture it's kind of dishonest",
      "start": 258.84,
      "duration": 4.02
    },
    {
      "text": "to simply point out the negatives rather",
      "start": 260.549,
      "duration": 5.401
    },
    {
      "text": "than rather than the positives it's like",
      "start": 262.86,
      "duration": 4.62
    },
    {
      "text": "saying well it's always better",
      "start": 265.95,
      "duration": 3.84
    },
    {
      "text": "to invest in bonds rather than stocks",
      "start": 267.48,
      "duration": 4.53
    },
    {
      "text": "because the bonds have a guaranteed rate",
      "start": 269.79,
      "duration": 3.63
    },
    {
      "text": "of return without mentioning that bonds",
      "start": 272.01,
      "duration": 2.7
    },
    {
      "text": "have a lower rate of return on average",
      "start": 273.42,
      "duration": 2.79
    },
    {
      "text": "than stocks you just you have to give",
      "start": 274.71,
      "duration": 3.09
    },
    {
      "text": "the full picture if you're going to talk",
      "start": 276.21,
      "duration": 3.99
    },
    {
      "text": "about financial things so if you of the",
      "start": 277.8,
      "duration": 4.95
    },
    {
      "text": "other objections that one is well you",
      "start": 280.2,
      "duration": 4.29
    },
    {
      "text": "see if the power grid goes out all",
      "start": 282.75,
      "duration": 4.56
    },
    {
      "text": "around the world then your bitcoins are",
      "start": 284.49,
      "duration": 4.5
    },
    {
      "text": "worthless well that certainly is true",
      "start": 287.31,
      "duration": 3.57
    },
    {
      "text": "but of course if a giant asteroid",
      "start": 288.99,
      "duration": 3.45
    },
    {
      "text": "destroys the whole planet then all of",
      "start": 290.88,
      "duration": 3.6
    },
    {
      "text": "your gold is worthless too if everyone",
      "start": 292.44,
      "duration": 3.48
    },
    {
      "text": "wakes up tomorrow morning and has a",
      "start": 294.48,
      "duration": 4.05
    },
    {
      "text": "heart attack then all human goods and",
      "start": 295.92,
      "duration": 4.2
    },
    {
      "text": "services are worthless because humans",
      "start": 298.53,
      "duration": 4.71
    },
    {
      "text": "have ceased to exist if a massive plague",
      "start": 300.12,
      "duration": 5.49
    },
    {
      "text": "anyway you get you get the idea of",
      "start": 303.24,
      "duration": 4.77
    },
    {
      "text": "course if there are catastrophes then",
      "start": 305.61,
      "duration": 5.07
    },
    {
      "text": "there are catastrophes I guarantee you",
      "start": 308.01,
      "duration": 3.96
    },
    {
      "text": "though that if the entire electricity",
      "start": 310.68,
      "duration": 3
    },
    {
      "text": "grid goes out for all of humanity",
      "start": 311.97,
      "duration": 3.45
    },
    {
      "text": "the vast majority of humanity will die",
      "start": 313.68,
      "duration": 4.98
    },
    {
      "text": "and I don't really think that access to",
      "start": 315.42,
      "duration": 4.56
    },
    {
      "text": "your bitcoins is going to be a primary",
      "start": 318.66,
      "duration": 3.66
    },
    {
      "text": "concern when people are trying to know",
      "start": 319.98,
      "duration": 4.5
    },
    {
      "text": "off your arm because they can't get food",
      "start": 322.32,
      "duration": 3.69
    },
    {
      "text": "delivered to them in cities from farms",
      "start": 324.48,
      "duration": 3.78
    },
    {
      "text": "so they don't think we really have to",
      "start": 326.01,
      "duration": 4.98
    },
    {
      "text": "worry about that as a practical reality",
      "start": 328.26,
      "duration": 5.49
    },
    {
      "text": "I mean in the late 80s the entire Soviet",
      "start": 330.99,
      "duration": 5.25
    },
    {
      "text": "Union communist system collapsed and was",
      "start": 333.75,
      "duration": 4.41
    },
    {
      "text": "replaced with some elements of the free",
      "start": 336.24,
      "duration": 4.02
    },
    {
      "text": "market gangster capitalism you could",
      "start": 338.16,
      "duration": 5.07
    },
    {
      "text": "call it and they kept the power grid up",
      "start": 340.26,
      "duration": 6.18
    },
    {
      "text": "so I don't think we really have to take",
      "start": 343.23,
      "duration": 6.63
    },
    {
      "text": "that as a practical problem so as far as",
      "start": 346.44,
      "duration": 4.74
    },
    {
      "text": "security goes tons of stuff you can do",
      "start": 349.86,
      "duration": 3.12
    },
    {
      "text": "to protect it I would argue to make it",
      "start": 351.18,
      "duration": 3.48
    },
    {
      "text": "even safer than stuff that's in your",
      "start": 352.98,
      "duration": 4.65
    },
    {
      "text": "house yes it's not backed by anything",
      "start": 354.66,
      "duration": 4.77
    },
    {
      "text": "physical but that doesn't matter because",
      "start": 357.63,
      "duration": 4.38
    },
    {
      "text": "that very lack of physicality is why",
      "start": 359.43,
      "duration": 5.04
    },
    {
      "text": "it's so cheap to create and to store and",
      "start": 362.01,
      "duration": 4.38
    },
    {
      "text": "to transfer and so on so this is you can",
      "start": 364.47,
      "duration": 3.15
    },
    {
      "text": "say it's a disadvantage I would argue",
      "start": 366.39,
      "duration": 2.49
    },
    {
      "text": "that it's one of the main reasons for",
      "start": 367.62,
      "duration": 3.78
    },
    {
      "text": "its value in fact less than there",
      "start": 368.88,
      "duration": 5.82
    },
    {
      "text": "there's a university in Greece that is",
      "start": 371.4,
      "duration": 6.9
    },
    {
      "text": "now taking bitcoins for tuition payments",
      "start": 374.7,
      "duration": 5.07
    },
    {
      "text": "to make it particularly easier for",
      "start": 378.3,
      "duration": 3.84
    },
    {
      "text": "foreign students and it's kind of cool",
      "start": 379.77,
      "duration": 4.92
    },
    {
      "text": "to have money as an investment of course",
      "start": 382.14,
      "duration": 4.53
    },
    {
      "text": "a lot of people have said get into gold",
      "start": 384.69,
      "duration": 4.26
    },
    {
      "text": "and avoid bitcoins the reality is the",
      "start": 386.67,
      "duration": 3.72
    },
    {
      "text": "gold has dropped significantly and",
      "start": 388.95,
      "duration": 3.39
    },
    {
      "text": "bitcoins have risen exponentially and it",
      "start": 390.39,
      "duration": 3.6
    },
    {
      "text": "could be argued by the investment",
      "start": 392.34,
      "duration": 3.18
    },
    {
      "text": "opportunity that comes around once every",
      "start": 393.99,
      "duration": 3.3
    },
    {
      "text": "generation your average Bitcoin now is",
      "start": 395.52,
      "duration": 3.87
    },
    {
      "text": "worth more than a share of Apple stock",
      "start": 397.29,
      "duration": 4.15
    },
    {
      "text": "this is significant it's",
      "start": 399.39,
      "duration": 5.83
    },
    {
      "text": "so I would argue you know continue to do",
      "start": 401.44,
      "duration": 5.67
    },
    {
      "text": "your research and don't take simplistic",
      "start": 405.22,
      "duration": 4.14
    },
    {
      "text": "negatives around Bitcoin don't take any",
      "start": 407.11,
      "duration": 3.81
    },
    {
      "text": "simplistic positives around it either of",
      "start": 409.36,
      "duration": 4.32
    },
    {
      "text": "course it's risky as as an investment",
      "start": 410.92,
      "duration": 4.74
    },
    {
      "text": "it's an unknown frontier but to me",
      "start": 413.68,
      "duration": 3.93
    },
    {
      "text": "that's where the excitement is that it's",
      "start": 415.66,
      "duration": 4.77
    },
    {
      "text": "kind of where I want to be and if you",
      "start": 417.61,
      "duration": 5.43
    },
    {
      "text": "invest in gold you are going into a",
      "start": 420.43,
      "duration": 3.99
    },
    {
      "text": "status paradigm government's control",
      "start": 423.04,
      "duration": 3.84
    },
    {
      "text": "gold if you invest in mining stocks",
      "start": 424.42,
      "duration": 4.86
    },
    {
      "text": "particularly small mining stocks you",
      "start": 426.88,
      "duration": 3.66
    },
    {
      "text": "could argue that there's more volatility",
      "start": 429.28,
      "duration": 4.74
    },
    {
      "text": "there even then in Bitcoin and that's",
      "start": 430.54,
      "duration": 4.83
    },
    {
      "text": "kind of a do-or-die thing the other",
      "start": 434.02,
      "duration": 2.43
    },
    {
      "text": "thing too of course is that if you",
      "start": 435.37,
      "duration": 3.06
    },
    {
      "text": "invest in gold you're supporting some",
      "start": 436.45,
      "duration": 3.39
    },
    {
      "text": "pretty corrupt regimes around the world",
      "start": 438.43,
      "duration": 4.17
    },
    {
      "text": "because gold claims taking and",
      "start": 439.84,
      "duration": 5.22
    },
    {
      "text": "exploration and extraction and shipping",
      "start": 442.6,
      "duration": 3.9
    },
    {
      "text": "and transport and storage are all very",
      "start": 445.06,
      "duration": 4.41
    },
    {
      "text": "heavily taxed by the state which further",
      "start": 446.5,
      "duration": 4.59
    },
    {
      "text": "and particularly since gold tends to",
      "start": 449.47,
      "duration": 4.44
    },
    {
      "text": "show up in some pretty politically",
      "start": 451.09,
      "duration": 4.65
    },
    {
      "text": "catastrophic realms in the world if you",
      "start": 453.91,
      "duration": 3.51
    },
    {
      "text": "invest in gold you are doing a lot to",
      "start": 455.74,
      "duration": 3.75
    },
    {
      "text": "support some pretty nasty dictators",
      "start": 457.42,
      "duration": 4.17
    },
    {
      "text": "whereas Bitcoin doesn't suffer from any",
      "start": 459.49,
      "duration": 3.72
    },
    {
      "text": "of those particular problems so there's",
      "start": 461.59,
      "duration": 3.24
    },
    {
      "text": "a morally positive aspect I would argue",
      "start": 463.21,
      "duration": 4.23
    },
    {
      "text": "to Bitcoin as well I'm a free-market",
      "start": 464.83,
      "duration": 4.95
    },
    {
      "text": "fanatic and therefore Bitcoin as a",
      "start": 467.44,
      "duration": 4.61
    },
    {
      "text": "spontaneously generated free market",
      "start": 469.78,
      "duration": 4.41
    },
    {
      "text": "solution to the problem of currency it",
      "start": 472.05,
      "duration": 5.38
    },
    {
      "text": "has my allegiance from a moral and",
      "start": 474.19,
      "duration": 5.13
    },
    {
      "text": "philosophical standpoint and I hope that",
      "start": 477.43,
      "duration": 3.69
    },
    {
      "text": "you will continue to explore the very",
      "start": 479.32,
      "duration": 4.08
    },
    {
      "text": "exciting world of bitcoins that thank",
      "start": 481.12,
      "duration": 3.6
    },
    {
      "text": "you very much this demand molyneux from",
      "start": 483.4,
      "duration": 3.74
    },
    {
      "text": "freedomain radio",
      "start": 484.72,
      "duration": 2.42
    },
    {
      "text": "you",
      "start": 512.719,
      "duration": 2.06
    }
  ],
  "Errors": null,
  "TranscriptStderr": null
}