[
    {
        "start": "0.63",
        "dur": "4.05",
        "text": "Molly's main radio he was a good friend"
    },
    {
        "start": "2.58",
        "dur": "3.779",
        "text": "Lauren Saturn an independent journalist"
    },
    {
        "start": "4.68",
        "dur": "3.36",
        "text": "in the author of barbarians how the"
    },
    {
        "start": "6.359",
        "dur": "3.721",
        "text": "baby-boomers immigration and Islam"
    },
    {
        "start": "8.04",
        "dur": "4.229",
        "text": "screwed my generation please follow her"
    },
    {
        "start": "10.08",
        "dur": "4.439",
        "text": "on Twitter twitter.com forward slash"
    },
    {
        "start": "12.269",
        "dur": "6.741",
        "text": "Lauren and Abbas southern also known as"
    },
    {
        "start": "14.519",
        "dur": "10.381",
        "text": "the chief Val Seri aka Queen Boadicea of"
    },
    {
        "start": "19.01",
        "dur": "7.48",
        "text": "the battle for Brookley Lauren nothing I"
    },
    {
        "start": "24.9",
        "dur": "3.42",
        "text": "can say is going to match what you have"
    },
    {
        "start": "26.49",
        "dur": "3.36",
        "text": "to say about what went down today just"
    },
    {
        "start": "28.32",
        "dur": "5.429",
        "text": "just give us the A to Z what what"
    },
    {
        "start": "29.85",
        "dur": "6.329",
        "text": "happened all right so we showed up ready"
    },
    {
        "start": "33.749",
        "dur": "3.81",
        "text": "for a rally for free speech honestly I"
    },
    {
        "start": "36.179",
        "dur": "3.991",
        "text": "wasn't even sure if I was going to be"
    },
    {
        "start": "37.559",
        "dur": "5.151",
        "text": "able to speak but I was and the police"
    },
    {
        "start": "40.17",
        "dur": "5.489",
        "text": "had assured us that there would be a"
    },
    {
        "start": "42.71",
        "dur": "4.66",
        "text": "abundant presence there and first while"
    },
    {
        "start": "45.659",
        "dur": "3.33",
        "text": "there I thought wow we're going to be"
    },
    {
        "start": "47.37",
        "dur": "3.84",
        "text": "totally fine the police are here we're"
    },
    {
        "start": "48.989",
        "dur": "3.66",
        "text": "good but as soon as aunty fuzz started"
    },
    {
        "start": "51.21",
        "dur": "4.41",
        "text": "setting off m-80s those little"
    },
    {
        "start": "52.649",
        "dur": "6.33",
        "text": "explosives where did the cops go oh"
    },
    {
        "start": "55.62",
        "dur": "5.699",
        "text": "they're all gone now and it was open"
    },
    {
        "start": "58.979",
        "dur": "4.02",
        "text": "season on Trump supporters but this time"
    },
    {
        "start": "61.319",
        "dur": "3.63",
        "text": "round unlike the other times in Berkeley"
    },
    {
        "start": "62.999",
        "dur": "3.481",
        "text": "Trump supporters came prepared despite"
    },
    {
        "start": "64.949",
        "dur": "3.061",
        "text": "the fact that police had disarms them"
    },
    {
        "start": "66.48",
        "dur": "3.78",
        "text": "for the most part they came prepared"
    },
    {
        "start": "68.01",
        "dur": "5.16",
        "text": "with their fists so while Anti Fog were"
    },
    {
        "start": "70.26",
        "dur": "4.65",
        "text": "throwing rocks at us were throwing m-80s"
    },
    {
        "start": "73.17",
        "dur": "3.66",
        "text": "and fireworks at us Trump supporters"
    },
    {
        "start": "74.91",
        "dur": "5.4",
        "text": "were running in there and fighting them"
    },
    {
        "start": "76.83",
        "dur": "7.35",
        "text": "fist for fists and everything seemed"
    },
    {
        "start": "80.31",
        "dur": "5.82",
        "text": "like it was pretty even going going"
    },
    {
        "start": "84.18",
        "dur": "3.57",
        "text": "steady it was just kind of no one was"
    },
    {
        "start": "86.13",
        "dur": "3.27",
        "text": "pushing either line until there was one"
    },
    {
        "start": "87.75",
        "dur": "5.22",
        "text": "turning point in the battle for Berkeley"
    },
    {
        "start": "89.4",
        "dur": "5.55",
        "text": "like any epic battle has where anti-shah"
    },
    {
        "start": "92.97",
        "dur": "4.62",
        "text": "set off a smoke bomb and it was supposed"
    },
    {
        "start": "94.95",
        "dur": "3.99",
        "text": "to be to come and surprise attack us"
    },
    {
        "start": "97.59",
        "dur": "4.47",
        "text": "they were going to flank us from the"
    },
    {
        "start": "98.94",
        "dur": "4.29",
        "text": "side but they they miscalculated because"
    },
    {
        "start": "102.06",
        "dur": "3.57",
        "text": "the wind was going in their direction"
    },
    {
        "start": "103.23",
        "dur": "5.13",
        "text": "and everyone realized at the same moment"
    },
    {
        "start": "105.63",
        "dur": "5.9",
        "text": "I think I heard someone beside me say"
    },
    {
        "start": "108.36",
        "dur": "7.2",
        "text": "those fucking moron and everyone"
    },
    {
        "start": "111.53",
        "dur": "6.91",
        "text": "sprinted forward and just do is it was a"
    },
    {
        "start": "115.56",
        "dur": "5.4",
        "text": "massacre with this this is quite frankly"
    },
    {
        "start": "118.44",
        "dur": "5.969",
        "text": "what it became now did you actually get"
    },
    {
        "start": "120.96",
        "dur": "5.19",
        "text": "a chance to speak to her I did get a"
    },
    {
        "start": "124.409",
        "dur": "3.811",
        "text": "chance to speak but there were only a"
    },
    {
        "start": "126.15",
        "dur": "3.899",
        "text": "few people that were listening and"
    },
    {
        "start": "128.22",
        "dur": "3.779",
        "text": "everyone else was kind of like on the"
    },
    {
        "start": "130.049",
        "dur": "4.111",
        "text": "battle lines just yelling at each other"
    },
    {
        "start": "131.999",
        "dur": "5.191",
        "text": "because it was pretty heated over there"
    },
    {
        "start": "134.16",
        "dur": "4.14",
        "text": "so if we didn't speak which was cool and"
    },
    {
        "start": "137.19",
        "dur": "2.61",
        "text": "I feel kind of bad for the event"
    },
    {
        "start": "138.3",
        "dur": "3.51",
        "text": "organisers who's obviously anti Seth"
    },
    {
        "start": "139.8",
        "dur": "3.18",
        "text": "brought their music to glass and we're"
    },
    {
        "start": "141.81",
        "dur": "3.42",
        "text": "throwing stuff so we're kind of"
    },
    {
        "start": "142.98",
        "dur": "3.56",
        "text": "distracted from the speaking but we did"
    },
    {
        "start": "145.23",
        "dur": "6.03",
        "text": "get to speak"
    },
    {
        "start": "146.54",
        "dur": "6.91",
        "text": "although briefly now so after you finish"
    },
    {
        "start": "151.26",
        "dur": "3.78",
        "text": "your speak I guess you you have a bit of"
    },
    {
        "start": "153.45",
        "dur": "4.05",
        "text": "a tendency as I see it on your videos"
    },
    {
        "start": "155.04",
        "dur": "4.41",
        "text": "Lorne to head towards the fire as the"
    },
    {
        "start": "157.5",
        "dur": "3.75",
        "text": "saying goes rather than away from it so"
    },
    {
        "start": "159.45",
        "dur": "3.51",
        "text": "what was your personal involvement what"
    },
    {
        "start": "161.25",
        "dur": "3.27",
        "text": "did you see and you know based on what's"
    },
    {
        "start": "162.96",
        "dur": "4.83",
        "text": "going on with your face what happened to"
    },
    {
        "start": "164.52",
        "dur": "5.1",
        "text": "you well I had amazing security first"
    },
    {
        "start": "167.79",
        "dur": "3.3",
        "text": "slide some guys that had volunteered"
    },
    {
        "start": "169.62",
        "dur": "4.2",
        "text": "from proud boys and a couple other"
    },
    {
        "start": "171.09",
        "dur": "4.44",
        "text": "groups that were staying there with me"
    },
    {
        "start": "173.82",
        "dur": "5.22",
        "text": "pushing anyone away who tried to come at"
    },
    {
        "start": "175.53",
        "dur": "7.29",
        "text": "me because there were people think I'm"
    },
    {
        "start": "179.04",
        "dur": "5.64",
        "text": "either saying yeah one guy was Richard"
    },
    {
        "start": "182.82",
        "dur": "3.75",
        "text": "Spencer and not just punch him she's an"
    },
    {
        "start": "184.68",
        "dur": "3.18",
        "text": "awful person got a bit of that reeking"
    },
    {
        "start": "186.57",
        "dur": "3.93",
        "text": "at me so they knew who I was why he's"
    },
    {
        "start": "187.86",
        "dur": "8.49",
        "text": "gotta protect me pull me away from the"
    },
    {
        "start": "190.5",
        "dur": "7.71",
        "text": "end and um so it was hard to avoid that"
    },
    {
        "start": "196.35",
        "dur": "3.57",
        "text": "their mates in the area and it's"
    },
    {
        "start": "198.21",
        "dur": "3.12",
        "text": "important to note media are going to"
    },
    {
        "start": "199.92",
        "dur": "2.73",
        "text": "report them here in the tear a smell"
    },
    {
        "start": "201.33",
        "dur": "3.9",
        "text": "that wasn't from the cops the cops"
    },
    {
        "start": "202.65",
        "dur": "5.28",
        "text": "apiece did at this point the bear mace"
    },
    {
        "start": "205.23",
        "dur": "4.44",
        "text": "was from the protesters was from"
    },
    {
        "start": "207.93",
        "dur": "3.63",
        "text": "anti-fog no-one on the Trump side had"
    },
    {
        "start": "209.67",
        "dur": "4.05",
        "text": "bear mace because the cops banned us"
    },
    {
        "start": "211.56",
        "dur": "3.9",
        "text": "from having their mates and anything to"
    },
    {
        "start": "213.72",
        "dur": "4.08",
        "text": "defend ourselves so it's basically the"
    },
    {
        "start": "215.46",
        "dur": "4.02",
        "text": "typical disarm the good guys kind of act"
    },
    {
        "start": "217.8",
        "dur": "4.08",
        "text": "we were all disarmed couldn't have made"
    },
    {
        "start": "219.48",
        "dur": "4.92",
        "text": "for anything all the anti I think Kyle"
    },
    {
        "start": "221.88",
        "dur": "4.17",
        "text": "Chapman got bear mace straight to the"
    },
    {
        "start": "224.4",
        "dur": "3.33",
        "text": "face was horrible there's women"
    },
    {
        "start": "226.05",
        "dur": "4.08",
        "text": "screaming with it all over their faces"
    },
    {
        "start": "227.73",
        "dur": "3.96",
        "text": "and everything so I brought I didn't"
    },
    {
        "start": "230.13",
        "dur": "4.86",
        "text": "even think this would come in handy but"
    },
    {
        "start": "231.69",
        "dur": "5.67",
        "text": "it did and my helmet and everything they"
    },
    {
        "start": "234.99",
        "dur": "4.77",
        "text": "were chucking along with the bear mates"
    },
    {
        "start": "237.36",
        "dur": "3.99",
        "text": "they were chucking giant rocks which was"
    },
    {
        "start": "239.76",
        "dur": "4.37",
        "text": "pretty horrifying so we had to be"
    },
    {
        "start": "241.35",
        "dur": "5.07",
        "text": "yelling Rock incoming brick incoming"
    },
    {
        "start": "244.13",
        "dur": "4.6",
        "text": "explosive incoming so people who clear"
    },
    {
        "start": "246.42",
        "dur": "4.53",
        "text": "the way one guy got hit in the head and"
    },
    {
        "start": "248.73",
        "dur": "3.96",
        "text": "blood which I was horrified there was"
    },
    {
        "start": "250.95",
        "dur": "4.08",
        "text": "blood literally spurting everywhere all"
    },
    {
        "start": "252.69",
        "dur": "3.57",
        "text": "over the cement and this guy was just"
    },
    {
        "start": "255.03",
        "dur": "2.4",
        "text": "like he's like I don't know what hit me"
    },
    {
        "start": "256.26",
        "dur": "3.69",
        "text": "I don't know what hit me and it's just"
    },
    {
        "start": "257.43",
        "dur": "5.85",
        "text": "all over his face it was actually like"
    },
    {
        "start": "259.95",
        "dur": "4.86",
        "text": "really really scary stuff going on there"
    },
    {
        "start": "263.28",
        "dur": "4.77",
        "text": "I'd get dragged out of a lot of"
    },
    {
        "start": "264.81",
        "dur": "4.289",
        "text": "situations I"
    },
    {
        "start": "268.05",
        "dur": "3.239",
        "text": "don't know what I would have done"
    },
    {
        "start": "269.099",
        "dur": "3.75",
        "text": "without my security there honestly so"
    },
    {
        "start": "271.289",
        "dur": "3.09",
        "text": "those guys were absolutely amazing but"
    },
    {
        "start": "272.849",
        "dur": "3.54",
        "text": "it was a battle zone it was a battle"
    },
    {
        "start": "274.379",
        "dur": "3.66",
        "text": "zone we were telling each other get to"
    },
    {
        "start": "276.389",
        "dur": "3.24",
        "text": "that position everyone back up everyone"
    },
    {
        "start": "278.039",
        "dur": "3.03",
        "text": "moved forward and Tito we're doing the"
    },
    {
        "start": "279.629",
        "dur": "8.1",
        "text": "same thing flanked them from the side it"
    },
    {
        "start": "281.069",
        "dur": "10.35",
        "text": "was a literal battle on the streets and"
    },
    {
        "start": "287.729",
        "dur": "5.22",
        "text": "person so I'm just waiting for the"
    },
    {
        "start": "291.419",
        "dur": "2.911",
        "text": "internet to catch up here for just a"
    },
    {
        "start": "292.949",
        "dur": "3.15",
        "text": "second we just did was a battle for the"
    },
    {
        "start": "294.33",
        "dur": "5.76",
        "text": "streets of okay and I've seen some of"
    },
    {
        "start": "296.099",
        "dur": "6.361",
        "text": "the videos of the of the rocks they're"
    },
    {
        "start": "300.09",
        "dur": "4.379",
        "text": "coming in from very high you know coming"
    },
    {
        "start": "302.46",
        "dur": "3.509",
        "text": "in from 20 or 30 feet big chunks of"
    },
    {
        "start": "304.469",
        "dur": "4.471",
        "text": "masonry and bricks I don't know what the"
    },
    {
        "start": "305.969",
        "dur": "4.621",
        "text": "hell they were but man I mean that lands"
    },
    {
        "start": "308.94",
        "dur": "4.379",
        "text": "on your head I mean you could very"
    },
    {
        "start": "310.59",
        "dur": "5.16",
        "text": "easily be killed and so there was any at"
    },
    {
        "start": "313.319",
        "dur": "3.931",
        "text": "least you know death the deathly"
    },
    {
        "start": "315.75",
        "dur": "4.53",
        "text": "ordinance floating around in the form of"
    },
    {
        "start": "317.25",
        "dur": "5.699",
        "text": "this stuff absolutely and it's what I"
    },
    {
        "start": "320.28",
        "dur": "4.439",
        "text": "was thinking about that I was I think"
    },
    {
        "start": "322.949",
        "dur": "3.481",
        "text": "I'm like I hate communists as much as"
    },
    {
        "start": "324.719",
        "dur": "4.141",
        "text": "the next person but I wouldn't want to"
    },
    {
        "start": "326.43",
        "dur": "5.19",
        "text": "kill one of them they may hate"
    },
    {
        "start": "328.86",
        "dur": "4.589",
        "text": "right-wingers but the idea that they"
    },
    {
        "start": "331.62",
        "dur": "4.049",
        "text": "would be okay with the idea of chucking"
    },
    {
        "start": "333.449",
        "dur": "4.71",
        "text": "a rock that could murder someone"
    },
    {
        "start": "335.669",
        "dur": "4.59",
        "text": "it's just unreal and I was I was walking"
    },
    {
        "start": "338.159",
        "dur": "4.171",
        "text": "through the streets of Berkeley then"
    },
    {
        "start": "340.259",
        "dur": "5.4",
        "text": "just before this event and there's a"
    },
    {
        "start": "342.33",
        "dur": "5.429",
        "text": "sickness here every all of the buildings"
    },
    {
        "start": "345.659",
        "dur": "4.23",
        "text": "everything around the campus all"
    },
    {
        "start": "347.759",
        "dur": "5.611",
        "text": "spray-painted anti fuzz oh this place"
    },
    {
        "start": "349.889",
        "dur": "6.361",
        "text": "has a sickness of extreme communism"
    },
    {
        "start": "353.37",
        "dur": "5.909",
        "text": "extreme radicalization unlike anywhere"
    },
    {
        "start": "356.25",
        "dur": "5.58",
        "text": "else and an opposition to it was"
    },
    {
        "start": "359.279",
        "dur": "4.89",
        "text": "necessary when the police won't stand up"
    },
    {
        "start": "361.83",
        "dur": "5.25",
        "text": "for people's free speech and right to"
    },
    {
        "start": "364.169",
        "dur": "4.411",
        "text": "assemble then you have to oppose it and"
    },
    {
        "start": "367.08",
        "dur": "3.989",
        "text": "that means with your fists so that's why"
    },
    {
        "start": "368.58",
        "dur": "4.38",
        "text": "when I saw well I'd like it to be with"
    },
    {
        "start": "371.069",
        "dur": "3.271",
        "text": "your words and I don't want this to be"
    },
    {
        "start": "372.96",
        "dur": "4.769",
        "text": "the state of political discourse right"
    },
    {
        "start": "374.34",
        "dur": "4.549",
        "text": "now but I I feel that all of the Trump"
    },
    {
        "start": "377.729",
        "dur": "3.9",
        "text": "supporters that were fighting back were"
    },
    {
        "start": "378.889",
        "dur": "5.981",
        "text": "completely justified in what they did"
    },
    {
        "start": "381.629",
        "dur": "4.951",
        "text": "today did you I mean it's hard to know"
    },
    {
        "start": "384.87",
        "dur": "3.299",
        "text": "for sure and maybe it will come out over"
    },
    {
        "start": "386.58",
        "dur": "2.61",
        "text": "time if people try and get the"
    },
    {
        "start": "388.169",
        "dur": "2.581",
        "text": "information from the cops"
    },
    {
        "start": "389.19",
        "dur": "4.14",
        "text": "but Lauren did you get the sense that"
    },
    {
        "start": "390.75",
        "dur": "4.11",
        "text": "the police were they had a stand down"
    },
    {
        "start": "393.33",
        "dur": "2.73",
        "text": "order I'm sure a lot of the police would"
    },
    {
        "start": "394.86",
        "dur": "3.539",
        "text": "like to deal with this because they know"
    },
    {
        "start": "396.06",
        "dur": "3.93",
        "text": "where it leads if they don't step in and"
    },
    {
        "start": "398.399",
        "dur": "2.64",
        "text": "whoever's initiating the force that they"
    },
    {
        "start": "399.99",
        "dur": "1.6",
        "text": "take those people away"
    },
    {
        "start": "401.039",
        "dur": "1.961",
        "text": "they know"
    },
    {
        "start": "401.59",
        "dur": "3.48",
        "text": "is going to be street fights is going to"
    },
    {
        "start": "403",
        "dur": "3.51",
        "text": "be why Mar site why Mar style street"
    },
    {
        "start": "405.07",
        "dur": "2.94",
        "text": "fights do you get the sense that the"
    },
    {
        "start": "406.51",
        "dur": "2.88",
        "text": "police wanted to help whether they had"
    },
    {
        "start": "408.01",
        "dur": "3.45",
        "text": "stand down orders or what what's your"
    },
    {
        "start": "409.39",
        "dur": "4.44",
        "text": "guest about that well they were"
    },
    {
        "start": "411.46",
        "dur": "4.98",
        "text": "arresting probably just as many Trump"
    },
    {
        "start": "413.83",
        "dur": "4.23",
        "text": "supporters as they were an tyfa based"
    },
    {
        "start": "416.44",
        "dur": "3.33",
        "text": "elbow man from Huntington Beach was"
    },
    {
        "start": "418.06",
        "dur": "3.39",
        "text": "arrested I'm not sure exactly what he"
    },
    {
        "start": "419.77",
        "dur": "4.53",
        "text": "was doing that stick man was arrested as"
    },
    {
        "start": "421.45",
        "dur": "4.26",
        "text": "well but you saw at one point that they"
    },
    {
        "start": "424.3",
        "dur": "3.27",
        "text": "all started waving get out get out"
    },
    {
        "start": "425.71",
        "dur": "4.02",
        "text": "there's a little siren that went off and"
    },
    {
        "start": "427.57",
        "dur": "5.28",
        "text": "I think they were probably given a stand"
    },
    {
        "start": "429.73",
        "dur": "5.13",
        "text": "down order I mean I can't imagine when"
    },
    {
        "start": "432.85",
        "dur": "4.32",
        "text": "they're all prepared and riot gear that"
    },
    {
        "start": "434.86",
        "dur": "4.23",
        "text": "they especially morale police officers"
    },
    {
        "start": "437.17",
        "dur": "3.09",
        "text": "would feel justified just sitting in"
    },
    {
        "start": "439.09",
        "dur": "2.58",
        "text": "their police car which they were they"
    },
    {
        "start": "440.26",
        "dur": "2.91",
        "text": "were all like in little busses just"
    },
    {
        "start": "441.67",
        "dur": "4.38",
        "text": "sitting there the entire time in their"
    },
    {
        "start": "443.17",
        "dur": "4.98",
        "text": "squad cars I can't imagine that there"
    },
    {
        "start": "446.05",
        "dur": "4.05",
        "text": "wouldn't be cops there that wanted to be"
    },
    {
        "start": "448.15",
        "dur": "4.47",
        "text": "out there protecting people because"
    },
    {
        "start": "450.1",
        "dur": "5.16",
        "text": "there were women and innocent people"
    },
    {
        "start": "452.62",
        "dur": "3.87",
        "text": "innocent people getting hit and maced in"
    },
    {
        "start": "455.26",
        "dur": "4.38",
        "text": "everything that were just walking down"
    },
    {
        "start": "456.49",
        "dur": "5.13",
        "text": "the street and I there's no doubt in my"
    },
    {
        "start": "459.64",
        "dur": "2.97",
        "text": "mind that there were cops that didn't"
    },
    {
        "start": "461.62",
        "dur": "4.05",
        "text": "want to be out there but they're"
    },
    {
        "start": "462.61",
        "dur": "5.82",
        "text": "probably giving a stand down order now"
    },
    {
        "start": "465.67",
        "dur": "6.36",
        "text": "you of course saw as did all of us the"
    },
    {
        "start": "468.43",
        "dur": "5.97",
        "text": "Gathering Storm around this free speech"
    },
    {
        "start": "472.03",
        "dur": "4.53",
        "text": "rally that was going on you thought you"
    },
    {
        "start": "474.4",
        "dur": "4.68",
        "text": "saw the posters the hysteria the Nazis"
    },
    {
        "start": "476.56",
        "dur": "4.53",
        "text": "the violence the threats what was it"
    },
    {
        "start": "479.08",
        "dur": "3.69",
        "text": "like for you Lauren to prepare yourself"
    },
    {
        "start": "481.09",
        "dur": "3.3",
        "text": "for this what we dose your mindset and"
    },
    {
        "start": "482.77",
        "dur": "3.42",
        "text": "your thoughts and feelings you know"
    },
    {
        "start": "484.39",
        "dur": "6.72",
        "text": "walking up to that microphone knowing"
    },
    {
        "start": "486.19",
        "dur": "6.72",
        "text": "what could go down it's crazy because a"
    },
    {
        "start": "491.11",
        "dur": "3.6",
        "text": "few days ago I was going out and I was"
    },
    {
        "start": "492.91",
        "dur": "5.22",
        "text": "laughing because I was at Home Depot"
    },
    {
        "start": "494.71",
        "dur": "6.33",
        "text": "picking up a freaking respirator and"
    },
    {
        "start": "498.13",
        "dur": "4.89",
        "text": "picking up a helmet and even thinking of"
    },
    {
        "start": "501.04",
        "dur": "3.54",
        "text": "picking up shin pads I was I was"
    },
    {
        "start": "503.02",
        "dur": "3.6",
        "text": "laughing because I'm like Lauren you're"
    },
    {
        "start": "504.58",
        "dur": "3.9",
        "text": "exaggerating what are you doing picking"
    },
    {
        "start": "506.62",
        "dur": "4.71",
        "text": "up this stuff here you're being dramatic"
    },
    {
        "start": "508.48",
        "dur": "6.69",
        "text": "and I was like I might as well have it I"
    },
    {
        "start": "511.33",
        "dur": "7.38",
        "text": "get there and I totally needed it 100%"
    },
    {
        "start": "515.17",
        "dur": "5.28",
        "text": "like there was I felt so bad for my"
    },
    {
        "start": "518.71",
        "dur": "3.69",
        "text": "security guys that didn't have masks"
    },
    {
        "start": "520.45",
        "dur": "2.61",
        "text": "because when the pepper spray came in at"
    },
    {
        "start": "522.4",
        "dur": "2.52",
        "text": "all of us"
    },
    {
        "start": "523.06",
        "dur": "3.87",
        "text": "I had my mask and I was still coming"
    },
    {
        "start": "524.92",
        "dur": "4.38",
        "text": "through it and I you can see my makeup"
    },
    {
        "start": "526.93",
        "dur": "5.37",
        "text": "is all down because it was painful as"
    },
    {
        "start": "529.3",
        "dur": "3.54",
        "text": "all hell when it got in my mask I and I"
    },
    {
        "start": "532.3",
        "dur": "2.94",
        "text": "needed"
    },
    {
        "start": "532.84",
        "dur": "5.46",
        "text": "the fact that I needed to go and hire a"
    },
    {
        "start": "535.24",
        "dur": "6.33",
        "text": "respirator a helmet and a face mask to"
    },
    {
        "start": "538.3",
        "dur": "4.83",
        "text": "go to a political event in America it"
    },
    {
        "start": "541.57",
        "dur": "3.87",
        "text": "just shocks me"
    },
    {
        "start": "543.13",
        "dur": "4.53",
        "text": "it's died I'm still trying to get over"
    },
    {
        "start": "545.44",
        "dur": "3.93",
        "text": "the fact that I just had to go and buy"
    },
    {
        "start": "547.66",
        "dur": "4.26",
        "text": "that stuff to go to a political that let"
    },
    {
        "start": "549.37",
        "dur": "4.7",
        "text": "alone will actually happen at this event"
    },
    {
        "start": "551.92",
        "dur": "4.65",
        "text": "that is now making nationwide headlines"
    },
    {
        "start": "554.07",
        "dur": "3.79",
        "text": "and a political event I was just talking"
    },
    {
        "start": "556.57",
        "dur": "3.209",
        "text": "with Mike Serna pitches well Lorne a"
    },
    {
        "start": "557.86",
        "dur": "3.87",
        "text": "political event where the air the"
    },
    {
        "start": "559.779",
        "dur": "4.351",
        "text": "arguments being put forward the ideas"
    },
    {
        "start": "561.73",
        "dur": "4.08",
        "text": "being put forward are far from radical"
    },
    {
        "start": "564.13",
        "dur": "3.12",
        "text": "or extreme what are we talking about"
    },
    {
        "start": "565.81",
        "dur": "3.87",
        "text": "free speech freedom of association"
    },
    {
        "start": "567.25",
        "dur": "4.71",
        "text": "freedom of assembly and so on this is"
    },
    {
        "start": "569.68",
        "dur": "4.409",
        "text": "not radical stuff nobody's talking about"
    },
    {
        "start": "571.96",
        "dur": "3.48",
        "text": "anything immoral or illegal or inciting"
    },
    {
        "start": "574.089",
        "dur": "3.601",
        "text": "riots or anything like that"
    },
    {
        "start": "575.44",
        "dur": "3.69",
        "text": "you know but people are talking about oh"
    },
    {
        "start": "577.69",
        "dur": "3.6",
        "text": "you know maybe it would be kind of cool"
    },
    {
        "start": "579.13",
        "dur": "3.84",
        "text": "if America decided to enforce its"
    },
    {
        "start": "581.29",
        "dur": "3.78",
        "text": "existing laws you know around"
    },
    {
        "start": "582.97",
        "dur": "3.75",
        "text": "immigration and other things the Overton"
    },
    {
        "start": "585.07",
        "dur": "3.48",
        "text": "Window in terms of how this debate has"
    },
    {
        "start": "586.72",
        "dur": "4.95",
        "text": "been moved you all are being portrayed"
    },
    {
        "start": "588.55",
        "dur": "5.789",
        "text": "as extremists when the majority of"
    },
    {
        "start": "591.67",
        "dur": "4.65",
        "text": "people in America voted for just these"
    },
    {
        "start": "594.339",
        "dur": "4.711",
        "text": "platforms this is not extremism that's"
    },
    {
        "start": "596.32",
        "dur": "4.65",
        "text": "being opposed but centrism yeah I mean"
    },
    {
        "start": "599.05",
        "dur": "3.9",
        "text": "you had gays for Trump speaking there"
    },
    {
        "start": "600.97",
        "dur": "3.54",
        "text": "and Hispanics for Trump speaking they're"
    },
    {
        "start": "602.95",
        "dur": "4.41",
        "text": "like the group's themselves and all"
    },
    {
        "start": "604.51",
        "dur": "5.82",
        "text": "sorts of people attending this event if"
    },
    {
        "start": "607.36",
        "dur": "5.43",
        "text": "you can't even you can't even try to"
    },
    {
        "start": "610.33",
        "dur": "4.2",
        "text": "pretend this is some sort of alright"
    },
    {
        "start": "612.79",
        "dur": "2.91",
        "text": "event because most of the people there"
    },
    {
        "start": "614.53",
        "dur": "3.36",
        "text": "would be kicked out of an all-right"
    },
    {
        "start": "615.7",
        "dur": "3.81",
        "text": "event that we're attending or a far"
    },
    {
        "start": "617.89",
        "dur": "7.53",
        "text": "alright event whatever you want to call"
    },
    {
        "start": "619.51",
        "dur": "7.829",
        "text": "it I I can't the only way that I can try"
    },
    {
        "start": "625.42",
        "dur": "3.9",
        "text": "to explain what has happened here is"
    },
    {
        "start": "627.339",
        "dur": "4.321",
        "text": "you've got all of these unstable"
    },
    {
        "start": "629.32",
        "dur": "5.67",
        "text": "mentally ill teenagers that have been"
    },
    {
        "start": "631.66",
        "dur": "5.52",
        "text": "radicalized by their media and by their"
    },
    {
        "start": "634.99",
        "dur": "5.34",
        "text": "school and by their government and they"
    },
    {
        "start": "637.18",
        "dur": "4.29",
        "text": "came out there and it was sick the the"
    },
    {
        "start": "640.33",
        "dur": "3.78",
        "text": "fact that they the people they were"
    },
    {
        "start": "641.47",
        "dur": "7.77",
        "text": "willing to murder someone and cheer it"
    },
    {
        "start": "644.11",
        "dur": "8.88",
        "text": "on along the way and they were yeah I I"
    },
    {
        "start": "649.24",
        "dur": "4.89",
        "text": "don't I can't even explain it was open"
    },
    {
        "start": "652.99",
        "dur": "2.969",
        "text": "up as well as the party they had music"
    },
    {
        "start": "654.13",
        "dur": "3.959",
        "text": "blasting the entire time they were"
    },
    {
        "start": "655.959",
        "dur": "3.691",
        "text": "dancing and saying fu we're going to"
    },
    {
        "start": "658.089",
        "dur": "3.75",
        "text": "punch you were going to it was so sick"
    },
    {
        "start": "659.65",
        "dur": "3.51",
        "text": "but I can't even describe it I mean you"
    },
    {
        "start": "661.839",
        "dur": "4.051",
        "text": "just have to watch the videos but being"
    },
    {
        "start": "663.16",
        "dur": "4.17",
        "text": "there in person is even more intense"
    },
    {
        "start": "665.89",
        "dur": "3.03",
        "text": "obviously"
    },
    {
        "start": "667.33",
        "dur": "3.689",
        "text": "and the thing is too I mean I don't"
    },
    {
        "start": "668.92",
        "dur": "4.349",
        "text": "think people really understand unless"
    },
    {
        "start": "671.019",
        "dur": "4.681",
        "text": "you're doing work in the intellectual"
    },
    {
        "start": "673.269",
        "dur": "5.281",
        "text": "field it doesn't have to be on the right"
    },
    {
        "start": "675.7",
        "dur": "4.8",
        "text": "it just has to be not far left whatever"
    },
    {
        "start": "678.55",
        "dur": "3.659",
        "text": "you're doing in the political field or"
    },
    {
        "start": "680.5",
        "dur": "4.68",
        "text": "as a public intellectual as a reporter"
    },
    {
        "start": "682.209",
        "dur": "6.511",
        "text": "that's not far left it's subject to just"
    },
    {
        "start": "685.18",
        "dur": "5.76",
        "text": "this kind of attack and assault and I'm"
    },
    {
        "start": "688.72",
        "dur": "4.41",
        "text": "really getting sick and tired of people"
    },
    {
        "start": "690.94",
        "dur": "3.75",
        "text": "not understanding this you know not"
    },
    {
        "start": "693.13",
        "dur": "3.06",
        "text": "understanding that the left to the"
    },
    {
        "start": "694.69",
        "dur": "4.29",
        "text": "Pharoah left is trying to dominate the"
    },
    {
        "start": "696.19",
        "dur": "4.95",
        "text": "discourse and drive centrists out of"
    },
    {
        "start": "698.98",
        "dur": "3.81",
        "text": "political discourse drive anybody they"
    },
    {
        "start": "701.14",
        "dur": "3.87",
        "text": "disagree without a political discourse"
    },
    {
        "start": "702.79",
        "dur": "4.83",
        "text": "through threats of violence death"
    },
    {
        "start": "705.01",
        "dur": "4.71",
        "text": "assault macing or even murder"
    },
    {
        "start": "707.62",
        "dur": "6.75",
        "text": "with this masonry coming down from on"
    },
    {
        "start": "709.72",
        "dur": "7.83",
        "text": "high the shutdown of contrary speech to"
    },
    {
        "start": "714.37",
        "dur": "5.19",
        "text": "leftist ideology is vicious it seems to"
    },
    {
        "start": "717.55",
        "dur": "3.57",
        "text": "be unrelenting I'm damn glad that there"
    },
    {
        "start": "719.56",
        "dur": "3.719",
        "text": "was a pushback today but I think people"
    },
    {
        "start": "721.12",
        "dur": "5.3",
        "text": "really need to wake up and understand"
    },
    {
        "start": "723.279",
        "dur": "5.701",
        "text": "the damn danger that's in their midst"
    },
    {
        "start": "726.42",
        "dur": "4.15",
        "text": "absolutely and it's going to be I think"
    },
    {
        "start": "728.98",
        "dur": "3.09",
        "text": "it's gonna be really scary to see how"
    },
    {
        "start": "730.57",
        "dur": "4.35",
        "text": "the media reports on this I've just"
    },
    {
        "start": "732.07",
        "dur": "5.55",
        "text": "turned on CNN a little bit and they're"
    },
    {
        "start": "734.92",
        "dur": "5.909",
        "text": "already reporting fake news saying that"
    },
    {
        "start": "737.62",
        "dur": "4.95",
        "text": "the police were there saw things that"
    },
    {
        "start": "740.829",
        "dur": "3.811",
        "text": "wasn't that didn't happen they were told"
    },
    {
        "start": "742.57",
        "dur": "3.93",
        "text": "to stand down they weren't there so"
    },
    {
        "start": "744.64",
        "dur": "3.3",
        "text": "interesting to see how the media spin"
    },
    {
        "start": "746.5",
        "dur": "3",
        "text": "this because you're right the wider"
    },
    {
        "start": "747.94",
        "dur": "3.18",
        "text": "public is not willing to admit that we"
    },
    {
        "start": "749.5",
        "dur": "2.7",
        "text": "have militant communists shutting down"
    },
    {
        "start": "751.12",
        "dur": "3.27",
        "text": "people that disagree with them in the"
    },
    {
        "start": "752.2",
        "dur": "4.17",
        "text": "street they aren't willing to talk about"
    },
    {
        "start": "754.39",
        "dur": "3.449",
        "text": "this sickness and problem that is on"
    },
    {
        "start": "756.37",
        "dur": "3.24",
        "text": "their side of the political spectrum and"
    },
    {
        "start": "757.839",
        "dur": "3.901",
        "text": "until that happens things are going to"
    },
    {
        "start": "759.61",
        "dur": "4.38",
        "text": "get worse and worse and worse and this"
    },
    {
        "start": "761.74",
        "dur": "3.48",
        "text": "Berkeley rally I think was just the"
    },
    {
        "start": "763.99",
        "dur": "4.289",
        "text": "beginning of where our political"
    },
    {
        "start": "765.22",
        "dur": "5.16",
        "text": "discourse in America is headed well of"
    },
    {
        "start": "768.279",
        "dur": "4.741",
        "text": "course it is going to expose the media"
    },
    {
        "start": "770.38",
        "dur": "4.05",
        "text": "because my guess is that the very best"
    },
    {
        "start": "773.02",
        "dur": "3.569",
        "text": "reporting you're going to get from the"
    },
    {
        "start": "774.43",
        "dur": "4.89",
        "text": "mainstream rapira media is something"
    },
    {
        "start": "776.589",
        "dur": "4.591",
        "text": "like violence mysteriously erupt at"
    },
    {
        "start": "779.32",
        "dur": "3.48",
        "text": "Berkeley free speech rally you know and"
    },
    {
        "start": "781.18",
        "dur": "3.75",
        "text": "it's going to be like well who could"
    },
    {
        "start": "782.8",
        "dur": "3.93",
        "text": "possibly unravel who started it it was a"
    },
    {
        "start": "784.93",
        "dur": "3.149",
        "text": "melee there's no way to know you like"
    },
    {
        "start": "786.73",
        "dur": "2.849",
        "text": "some exhausted parents with their kids"
    },
    {
        "start": "788.079",
        "dur": "3.63",
        "text": "are bickering I like I don't care you"
    },
    {
        "start": "789.579",
        "dur": "3.601",
        "text": "just both in the wrong the media"
    },
    {
        "start": "791.709",
        "dur": "4.081",
        "text": "literally came up to me and asked me"
    },
    {
        "start": "793.18",
        "dur": "4.89",
        "text": "they were like do you guys start these"
    },
    {
        "start": "795.79",
        "dur": "4.94",
        "text": "events just to make the left look bad"
    },
    {
        "start": "798.07",
        "dur": "4.519",
        "text": "you start these with hopes that the left"
    },
    {
        "start": "800.73",
        "dur": "4.74",
        "text": "we'll attack you I feel like you do that"
    },
    {
        "start": "802.589",
        "dur": "4.261",
        "text": "and I was just sitting there okay no"
    },
    {
        "start": "805.47",
        "dur": "3.359",
        "text": "matter what we do they're going to show"
    },
    {
        "start": "806.85",
        "dur": "3.479",
        "text": "up lady like it doesn't matter what we"
    },
    {
        "start": "808.829",
        "dur": "4.081",
        "text": "do it doesn't matter if I'm walking on"
    },
    {
        "start": "810.329",
        "dur": "4.95",
        "text": "the street they will show up it doesn't"
    },
    {
        "start": "812.91",
        "dur": "3.75",
        "text": "even matter if that is or isn't our goal"
    },
    {
        "start": "815.279",
        "dur": "3.81",
        "text": "they're showing up here and you should"
    },
    {
        "start": "816.66",
        "dur": "4.65",
        "text": "be reporting on that not trying to ask"
    },
    {
        "start": "819.089",
        "dur": "4.021",
        "text": "there's an insidious plan from our side"
    },
    {
        "start": "821.31",
        "dur": "3.389",
        "text": "because it always has to be our fault"
    },
    {
        "start": "823.11",
        "dur": "3.93",
        "text": "right"
    },
    {
        "start": "824.699",
        "dur": "3.481",
        "text": "but this is like asking the woman who's"
    },
    {
        "start": "827.04",
        "dur": "2.97",
        "text": "trying to get away from the abusive"
    },
    {
        "start": "828.18",
        "dur": "3.81",
        "text": "husband you just try to escape to make"
    },
    {
        "start": "830.01",
        "dur": "3.48",
        "text": "him angry do you just try and escape to"
    },
    {
        "start": "831.99",
        "dur": "3.779",
        "text": "make him look bad it's like are you"
    },
    {
        "start": "833.49",
        "dur": "3.57",
        "text": "kidding me I thought that you weren't"
    },
    {
        "start": "835.769",
        "dur": "3.271",
        "text": "supposed to be responsible for your own"
    },
    {
        "start": "837.06",
        "dur": "3.959",
        "text": "victimization oh right sorry"
    },
    {
        "start": "839.04",
        "dur": "3.479",
        "text": "if you run if you're not on the pharaoh"
    },
    {
        "start": "841.019",
        "dur": "3.391",
        "text": "left then you're always the instigator"
    },
    {
        "start": "842.519",
        "dur": "3.391",
        "text": "and you're always the aggressor and if"
    },
    {
        "start": "844.41",
        "dur": "3.15",
        "text": "you're on the pharaoh left well you're"
    },
    {
        "start": "845.91",
        "dur": "3.09",
        "text": "always a victim no matter what happens"
    },
    {
        "start": "847.56",
        "dur": "3.57",
        "text": "and I hope that this narrative is"
    },
    {
        "start": "849",
        "dur": "4.769",
        "text": "becoming clearer for people because man"
    },
    {
        "start": "851.13",
        "dur": "3.69",
        "text": "I mean if it escalates from here I mean"
    },
    {
        "start": "853.769",
        "dur": "3.06",
        "text": "I think people are going to be very"
    },
    {
        "start": "854.82",
        "dur": "3.449",
        "text": "surprised at how far this kind of stuff"
    },
    {
        "start": "856.829",
        "dur": "3.091",
        "text": "can go if the government won't enforce"
    },
    {
        "start": "858.269",
        "dur": "4.201",
        "text": "the laws if the First Amendment can't be"
    },
    {
        "start": "859.92",
        "dur": "4.409",
        "text": "exercised if people are going to submit"
    },
    {
        "start": "862.47",
        "dur": "4.14",
        "text": "to violence and justifies violence on"
    },
    {
        "start": "864.329",
        "dur": "3.661",
        "text": "the left and the mainstream media well"
    },
    {
        "start": "866.61",
        "dur": "2.669",
        "text": "where is this going to go I mean what"
    },
    {
        "start": "867.99",
        "dur": "3.18",
        "text": "choice do people have there's no way"
    },
    {
        "start": "869.279",
        "dur": "3.18",
        "text": "that people who want to express their"
    },
    {
        "start": "871.17",
        "dur": "3.029",
        "text": "political opinions are just going to"
    },
    {
        "start": "872.459",
        "dur": "2.961",
        "text": "tuck their tails under their legs and go"
    },
    {
        "start": "874.199",
        "dur": "4.861",
        "text": "home"
    },
    {
        "start": "875.42",
        "dur": "5.62",
        "text": "and this happens in a place where guns"
    },
    {
        "start": "879.06",
        "dur": "3.93",
        "text": "you're not allowed to carry guns what"
    },
    {
        "start": "881.04",
        "dur": "4.169",
        "text": "happens when this kind of ideology"
    },
    {
        "start": "882.99",
        "dur": "6.589",
        "text": "starts making its way to places where"
    },
    {
        "start": "885.209",
        "dur": "6.151",
        "text": "people are armed well that happens and I"
    },
    {
        "start": "889.579",
        "dur": "3.721",
        "text": "think there's only one logical"
    },
    {
        "start": "891.36",
        "dur": "8.01",
        "text": "conclusion of where this is going I had"
    },
    {
        "start": "893.3",
        "dur": "8.469",
        "text": "until this is addressed now where do you"
    },
    {
        "start": "899.37",
        "dur": "3.99",
        "text": "think there is where do you think the"
    },
    {
        "start": "901.769",
        "dur": "2.82",
        "text": "benefit can come out of in terms of what"
    },
    {
        "start": "903.36",
        "dur": "2.339",
        "text": "people can talk about I mean they're"
    },
    {
        "start": "904.589",
        "dur": "2.911",
        "text": "going to be people who watch this"
    },
    {
        "start": "905.699",
        "dur": "2.971",
        "text": "broadcast who are going to want to look"
    },
    {
        "start": "907.5",
        "dur": "2.519",
        "text": "away you're going to want to turn away"
    },
    {
        "start": "908.67",
        "dur": "2.94",
        "text": "who's going to want other people to do"
    },
    {
        "start": "910.019",
        "dur": "4.111",
        "text": "the fight for them but this is a"
    },
    {
        "start": "911.61",
        "dur": "3.99",
        "text": "societal wide verbal fight let's try and"
    },
    {
        "start": "914.13",
        "dur": "3.06",
        "text": "keep it in the verbal arena as long as"
    },
    {
        "start": "915.6",
        "dur": "4.289",
        "text": "humanly possible what would you suggest"
    },
    {
        "start": "917.19",
        "dur": "5.699",
        "text": "that people get out of this altercation"
    },
    {
        "start": "919.889",
        "dur": "4.531",
        "text": "of this conflict so that they can spread"
    },
    {
        "start": "922.889",
        "dur": "3.241",
        "text": "the right kind of message to those"
    },
    {
        "start": "924.42",
        "dur": "4.58",
        "text": "around them to begin to be legitimized"
    },
    {
        "start": "926.13",
        "dur": "8.43",
        "text": "some of this aggression from the left"
    },
    {
        "start": "929",
        "dur": "7.18",
        "text": "well I think I actually think that the"
    },
    {
        "start": "934.56",
        "dur": "2.85",
        "text": "amount of people that showed up to sign"
    },
    {
        "start": "936.18",
        "dur": "3.24",
        "text": "this is one of the first Wrigley rallies"
    },
    {
        "start": "937.41",
        "dur": "3.15",
        "text": "where anti felt were outnumbered by the"
    },
    {
        "start": "939.42",
        "dur": "2.609",
        "text": "right-wingers the amount of people that"
    },
    {
        "start": "940.56",
        "dur": "5.1",
        "text": "showed up to show their support for free"
    },
    {
        "start": "942.029",
        "dur": "7.411",
        "text": "speech caused for the right to be on the"
    },
    {
        "start": "945.66",
        "dur": "5.7",
        "text": "upper hand and Angie fell was able to"
    },
    {
        "start": "949.44",
        "dur": "3.66",
        "text": "and shut them up and beat people to the"
    },
    {
        "start": "951.36",
        "dur": "4.56",
        "text": "ground bloody they still got some people"
    },
    {
        "start": "953.1",
        "dur": "4.739",
        "text": "but it was certainly less horrible than"
    },
    {
        "start": "955.92",
        "dur": "3.18",
        "text": "other times where if they had been the"
    },
    {
        "start": "957.839",
        "dur": "2.94",
        "text": "majority so showing up to these events"
    },
    {
        "start": "959.1",
        "dur": "4.679",
        "text": "and showing your support of course don't"
    },
    {
        "start": "960.779",
        "dur": "4.291",
        "text": "bring your family kind of thing but this"
    },
    {
        "start": "963.779",
        "dur": "3.511",
        "text": "is something the free speech is a right"
    },
    {
        "start": "965.07",
        "dur": "3.48",
        "text": "that people have died before to make"
    },
    {
        "start": "967.29",
        "dur": "3.11",
        "text": "this nation and give us these rights"
    },
    {
        "start": "968.55",
        "dur": "5.07",
        "text": "getting punched or maced in the faces"
    },
    {
        "start": "970.4",
        "dur": "6.189",
        "text": "III personally for me it's something"
    },
    {
        "start": "973.62",
        "dur": "5.46",
        "text": "that is so little to give up for a right"
    },
    {
        "start": "976.589",
        "dur": "3.841",
        "text": "as big as 3 speech show so the numbers"
    },
    {
        "start": "979.08",
        "dur": "5.19",
        "text": "of your numbers that are showing up to"
    },
    {
        "start": "980.43",
        "dur": "5.58",
        "text": "these events to support our rights is so"
    },
    {
        "start": "984.27",
        "dur": "3.509",
        "text": "important and the fact that we overcame"
    },
    {
        "start": "986.01",
        "dur": "3.66",
        "text": "and we find we're able to defend"
    },
    {
        "start": "987.779",
        "dur": "6.241",
        "text": "ourselves without the police there I"
    },
    {
        "start": "989.67",
        "dur": "5.49",
        "text": "think is a fin de you know this kind of"
    },
    {
        "start": "994.02",
        "dur": "3.03",
        "text": "stuff isn't what I want to see but"
    },
    {
        "start": "995.16",
        "dur": "5.13",
        "text": "that's where antiva is going to take it"
    },
    {
        "start": "997.05",
        "dur": "4.17",
        "text": "then it's I'd say we can't stand down we"
    },
    {
        "start": "1000.29",
        "dur": "2.73",
        "text": "have to keep standing up for our rights"
    },
    {
        "start": "1001.22",
        "dur": "3.74",
        "text": "I really hate to say that but it's just"
    },
    {
        "start": "1003.02",
        "dur": "4.38",
        "text": "I think the fact of the matter"
    },
    {
        "start": "1004.96",
        "dur": "4.57",
        "text": "well appeasement now is going to lead to"
    },
    {
        "start": "1007.4",
        "dur": "3.42",
        "text": "far worse things down the road so you"
    },
    {
        "start": "1009.53",
        "dur": "2.37",
        "text": "know in general this is the lesson"
    },
    {
        "start": "1010.82",
        "dur": "2.85",
        "text": "that's been learned over and over again"
    },
    {
        "start": "1011.9",
        "dur": "3.54",
        "text": "through history that appeasement with"
    },
    {
        "start": "1013.67",
        "dur": "5.55",
        "text": "extremism only fuels extremism and"
    },
    {
        "start": "1015.44",
        "dur": "6.27",
        "text": "destroys the middle and if if the left"
    },
    {
        "start": "1019.22",
        "dur": "4.83",
        "text": "conquers the middle then then you will"
    },
    {
        "start": "1021.71",
        "dur": "3.84",
        "text": "start to see some extreme right and then"
    },
    {
        "start": "1024.05",
        "dur": "2.85",
        "text": "people will say oh my goodness this is"
    },
    {
        "start": "1025.55",
        "dur": "2.49",
        "text": "so shocking but it's been provoked by"
    },
    {
        "start": "1026.9",
        "dur": "2.49",
        "text": "the indifference of the media the"
    },
    {
        "start": "1028.04",
        "dur": "4.139",
        "text": "indifference of people as a whole and"
    },
    {
        "start": "1029.39",
        "dur": "4.35",
        "text": "the left's aggression and I just want to"
    },
    {
        "start": "1032.179",
        "dur": "3",
        "text": "remind people like when you hear about"
    },
    {
        "start": "1033.74",
        "dur": "3.48",
        "text": "this news people will be talking about"
    },
    {
        "start": "1035.179",
        "dur": "5.371",
        "text": "at the dinner table at the cooler on the"
    },
    {
        "start": "1037.22",
        "dur": "5.34",
        "text": "bus don't ever don't ever just say well"
    },
    {
        "start": "1040.55",
        "dur": "4.26",
        "text": "it's equal on both sides or there seems"
    },
    {
        "start": "1042.56",
        "dur": "4.019",
        "text": "to be this weird mysterious political"
    },
    {
        "start": "1044.81",
        "dur": "2.399",
        "text": "aggression it's very clear where it's"
    },
    {
        "start": "1046.579",
        "dur": "2.731",
        "text": "coming from"
    },
    {
        "start": "1047.209",
        "dur": "3.601",
        "text": "look at the posters for this free speech"
    },
    {
        "start": "1049.31",
        "dur": "3.3",
        "text": "event and look at the posters that were"
    },
    {
        "start": "1050.81",
        "dur": "3.81",
        "text": "put up in opposition to it the extremism"
    },
    {
        "start": "1052.61",
        "dur": "2.97",
        "text": "they're all they're all Nazis I mean"
    },
    {
        "start": "1054.62",
        "dur": "2.79",
        "text": "next we're going to have like baby"
    },
    {
        "start": "1055.58",
        "dur": "3.599",
        "text": "eaters Anonymous is going to be"
    },
    {
        "start": "1057.41",
        "dur": "3.99",
        "text": "considered where you guys congregate it"
    },
    {
        "start": "1059.179",
        "dur": "3.901",
        "text": "has to stop at the verbal degree sorry I"
    },
    {
        "start": "1061.4",
        "dur": "3.24",
        "text": "don't mean to overcome your experience"
    },
    {
        "start": "1063.08",
        "dur": "5.1",
        "text": "with my speechifying oh no no no it's"
    },
    {
        "start": "1064.64",
        "dur": "6.45",
        "text": "perfect even yeah even though far-right"
    },
    {
        "start": "1068.18",
        "dur": "5.25",
        "text": "do exist there are people like very few"
    },
    {
        "start": "1071.09",
        "dur": "4.74",
        "text": "but far-right people do exist white"
    },
    {
        "start": "1073.43",
        "dur": "6.24",
        "text": "nationalists Ku Klux Klan people sure"
    },
    {
        "start": "1075.83",
        "dur": "6.24",
        "text": "they exist but they're so small and it's"
    },
    {
        "start": "1079.67",
        "dur": "3.75",
        "text": "so you don't even see you never see"
    },
    {
        "start": "1082.07",
        "dur": "3.39",
        "text": "feminist art galleries or all these"
    },
    {
        "start": "1083.42",
        "dur": "3.96",
        "text": "things getting raided and shut down and"
    },
    {
        "start": "1085.46",
        "dur": "4.74",
        "text": "set on fire you never see this happen"
    },
    {
        "start": "1087.38",
        "dur": "4.38",
        "text": "the other way around you never see tons"
    },
    {
        "start": "1090.2",
        "dur": "4.26",
        "text": "of college students coming with"
    },
    {
        "start": "1091.76",
        "dur": "5.61",
        "text": "far-right views beating the crap out of"
    },
    {
        "start": "1094.46",
        "dur": "5.4",
        "text": "Hispanics it doesn't happen so this the"
    },
    {
        "start": "1097.37",
        "dur": "4.71",
        "text": "fact that anyone can say both sides are"
    },
    {
        "start": "1099.86",
        "dur": "4.26",
        "text": "in on this and the media will say that"
    },
    {
        "start": "1102.08",
        "dur": "3.54",
        "text": "they will I'm 100% confident they're"
    },
    {
        "start": "1104.12",
        "dur": "4.38",
        "text": "going to come out and say this is equal"
    },
    {
        "start": "1105.62",
        "dur": "3.93",
        "text": "stupidity from both sides but the fact"
    },
    {
        "start": "1108.5",
        "dur": "3.54",
        "text": "that anyone can say that it is a"
    },
    {
        "start": "1109.55",
        "dur": "5.31",
        "text": "complete and utter denial of reality and"
    },
    {
        "start": "1112.04",
        "dur": "5.34",
        "text": "the facts at hand right I mean it's it's"
    },
    {
        "start": "1114.86",
        "dur": "3.75",
        "text": "like the they're going to say well you"
    },
    {
        "start": "1117.38",
        "dur": "2.76",
        "text": "guys knew where you would go and you"
    },
    {
        "start": "1118.61",
        "dur": "3.48",
        "text": "knew what kind of provocation so you"
    },
    {
        "start": "1120.14",
        "dur": "3.36",
        "text": "deserve the violence but I never heard"
    },
    {
        "start": "1122.09",
        "dur": "3.06",
        "text": "that said about the people who went to"
    },
    {
        "start": "1123.5",
        "dur": "4.23",
        "text": "the south to register blacks to vote in"
    },
    {
        "start": "1125.15",
        "dur": "3.93",
        "text": "the civil rights era I mean the murders"
    },
    {
        "start": "1127.73",
        "dur": "2.76",
        "text": "of those people were horrendous and"
    },
    {
        "start": "1129.08",
        "dur": "2.4",
        "text": "horrifying and nobody would ever say"
    },
    {
        "start": "1130.49",
        "dur": "2.94",
        "text": "well they knew what they were getting"
    },
    {
        "start": "1131.48",
        "dur": "3.84",
        "text": "into they knew the culture they deserve"
    },
    {
        "start": "1133.43",
        "dur": "2.91",
        "text": "the violence it's it's a monstrous and I"
    },
    {
        "start": "1135.32",
        "dur": "2.13",
        "text": "was just thinking about the spread"
    },
    {
        "start": "1136.34",
        "dur": "3.69",
        "text": "posted about this the other day on"
    },
    {
        "start": "1137.45",
        "dur": "3.93",
        "text": "Twitter that um the last well the"
    },
    {
        "start": "1140.03",
        "dur": "3.33",
        "text": "mainstream media is always referring to"
    },
    {
        "start": "1141.38",
        "dur": "4.29",
        "text": "people like marine lepen and so on as as"
    },
    {
        "start": "1143.36",
        "dur": "4.08",
        "text": "far right but they'll never refer to"
    },
    {
        "start": "1145.67",
        "dur": "3.78",
        "text": "North Korea as communist which is"
    },
    {
        "start": "1147.44",
        "dur": "4.05",
        "text": "exactly what it is and I think that's"
    },
    {
        "start": "1149.45",
        "dur": "3.69",
        "text": "all you need to know so what's the"
    },
    {
        "start": "1151.49",
        "dur": "3.78",
        "text": "aftermath like for you Lauren how's it"
    },
    {
        "start": "1153.14",
        "dur": "4.65",
        "text": "for you I mean it's quite an adrenaline"
    },
    {
        "start": "1155.27",
        "dur": "5.28",
        "text": "high this is a lot of combat what's it"
    },
    {
        "start": "1157.79",
        "dur": "4.2",
        "text": "like afterwards because I think people"
    },
    {
        "start": "1160.55",
        "dur": "2.88",
        "text": "fear how they're going to feel after"
    },
    {
        "start": "1161.99",
        "dur": "2.76",
        "text": "this kind of altercation but I think"
    },
    {
        "start": "1163.43",
        "dur": "3.36",
        "text": "most people will find it's not ly as"
    },
    {
        "start": "1164.75",
        "dur": "4.08",
        "text": "nearly as bad as they think but how's it"
    },
    {
        "start": "1166.79",
        "dur": "5.49",
        "text": "been for you sort of coming down from"
    },
    {
        "start": "1168.83",
        "dur": "6.87",
        "text": "this level of intensity we're all going"
    },
    {
        "start": "1172.28",
        "dur": "6.24",
        "text": "out for drinks cuz I'll go into maybe"
    },
    {
        "start": "1175.7",
        "dur": "5.1",
        "text": "one we won the Battle of Berkeley this"
    },
    {
        "start": "1178.52",
        "dur": "3.72",
        "text": "is great and you know even the guy I"
    },
    {
        "start": "1180.8",
        "dur": "3.21",
        "text": "that got hit in the face was like a"
    },
    {
        "start": "1182.24",
        "dur": "4.32",
        "text": "brick and was bleeding everywhere he was"
    },
    {
        "start": "1184.01",
        "dur": "5.94",
        "text": "lying down like well I have to go to the"
    },
    {
        "start": "1186.56",
        "dur": "6.03",
        "text": "hospital no I don't I don't want to miss"
    },
    {
        "start": "1189.95",
        "dur": "4.2",
        "text": "a thing right yeah I just think I know"
    },
    {
        "start": "1192.59",
        "dur": "3",
        "text": "there was some damn Patriots out here"
    },
    {
        "start": "1194.15",
        "dur": "2.88",
        "text": "fighting their asses off the ones they"
    },
    {
        "start": "1195.59",
        "dur": "3.18",
        "text": "got pepper sprayed in the face they got"
    },
    {
        "start": "1197.03",
        "dur": "4.26",
        "text": "punched they got things thrown at them"
    },
    {
        "start": "1198.77",
        "dur": "3",
        "text": "and all of them are I be in real sports"
    },
    {
        "start": "1201.29",
        "dur": "2.13",
        "text": "about it"
    },
    {
        "start": "1201.77",
        "dur": "3.78",
        "text": "we're going out for drinks I think Serna"
    },
    {
        "start": "1203.42",
        "dur": "4.17",
        "text": "bitch is fine everyone around you sent"
    },
    {
        "start": "1205.55",
        "dur": "5.43",
        "text": "over some money to Baked Alaska that's"
    },
    {
        "start": "1207.59",
        "dur": "5.31",
        "text": "going to be I use a top lad it's going"
    },
    {
        "start": "1210.98",
        "dur": "3.99",
        "text": "to be a good day this was this is a"
    },
    {
        "start": "1212.9",
        "dur": "3.39",
        "text": "victory I mean it sucks that this is the"
    },
    {
        "start": "1214.97",
        "dur": "3.54",
        "text": "position we're in that we're having to"
    },
    {
        "start": "1216.29",
        "dur": "4.47",
        "text": "fight but nonetheless celebrate when you"
    },
    {
        "start": "1218.51",
        "dur": "3.54",
        "text": "can making it better now so later all"
    },
    {
        "start": "1220.76",
        "dur": "2.88",
        "text": "right well I won't interfere with your"
    },
    {
        "start": "1222.05",
        "dur": "3.48",
        "text": "your social plans for the evening"
    },
    {
        "start": "1223.64",
        "dur": "4.5",
        "text": "I'm very glad that you're relatively"
    },
    {
        "start": "1225.53",
        "dur": "5.07",
        "text": "well I'm glad that the the battle went"
    },
    {
        "start": "1228.14",
        "dur": "4.47",
        "text": "well and heroic all around for the"
    },
    {
        "start": "1230.6",
        "dur": "3.72",
        "text": "people involved who were on the right"
    },
    {
        "start": "1232.61",
        "dur": "3.54",
        "text": "side of this and on the right side of"
    },
    {
        "start": "1234.32",
        "dur": "4.08",
        "text": "history just wanted to remind people to"
    },
    {
        "start": "1236.15",
        "dur": "4.14",
        "text": "check out Lauren's great book barbarians"
    },
    {
        "start": "1238.4",
        "dur": "3.27",
        "text": "how the baby boomers baby boomers"
    },
    {
        "start": "1240.29",
        "dur": "3.63",
        "text": "immigration and Islam screwed my"
    },
    {
        "start": "1241.67",
        "dur": "4.02",
        "text": "generation twitter.com forward slash"
    },
    {
        "start": "1243.92",
        "dur": "3.45",
        "text": "Lauren southern thanks so much for your"
    },
    {
        "start": "1245.69",
        "dur": "3.63",
        "text": "time and I hope you stay safe for the"
    },
    {
        "start": "1247.37",
        "dur": "4.58",
        "text": "rest of your time out there thanks so"
    },
    {
        "start": "1249.32",
        "dur": "2.63",
        "text": "much for having me"
    }
]