{
  "Title": "STORMY DANIELS ON 60 MINUTES",
  "Id": "jEXPKgBO87o",
  "Transcript": [
    {
      "text": "so I knew that I was gonna cover it and",
      "start": 0.06,
      "duration": 6.81
    },
    {
      "text": "I knew I was gonna sit there and watch",
      "start": 5.7,
      "duration": 2.67
    },
    {
      "text": "the stormy Daniel's interview on 60",
      "start": 6.87,
      "duration": 6.72
    },
    {
      "text": "minutes last night and it's a long way",
      "start": 8.37,
      "duration": 7.38
    },
    {
      "text": "from John Locke it's a long way from",
      "start": 13.59,
      "duration": 4.29
    },
    {
      "text": "Aristotle but this is where discourse is",
      "start": 15.75,
      "duration": 3.42
    },
    {
      "text": "this is where the culture is and there",
      "start": 17.88,
      "duration": 5.25
    },
    {
      "text": "is a lot to be learned from this",
      "start": 19.17,
      "duration": 5.82
    },
    {
      "text": "interview but first of all of course I",
      "start": 23.13,
      "duration": 3.69
    },
    {
      "text": "knew that stormy Daniels had to vastly",
      "start": 24.99,
      "duration": 4.379
    },
    {
      "text": "outsized almost cartoonish aspects of",
      "start": 26.82,
      "duration": 5.43
    },
    {
      "text": "her Anatomy on her person I just didn't",
      "start": 29.369,
      "duration": 4.35
    },
    {
      "text": "quite realize that they were gonna her",
      "start": 32.25,
      "duration": 4.11
    },
    {
      "text": "be her pupils oh my god she looked like",
      "start": 33.719,
      "duration": 4.02
    },
    {
      "text": "an anime character undergoing eye",
      "start": 36.36,
      "duration": 3.93
    },
    {
      "text": "surgery my lord those were some frisbees",
      "start": 37.739,
      "duration": 5.07
    },
    {
      "text": "in her eyeballs but the reasons for that",
      "start": 40.29,
      "duration": 4.47
    },
    {
      "text": "are beyond my medical knowledge but",
      "start": 42.809,
      "duration": 4.561
    },
    {
      "text": "there are certainly some theories so for",
      "start": 44.76,
      "duration": 5.1
    },
    {
      "text": "those who don't know stormy Daniels is a",
      "start": 47.37,
      "duration": 5.79
    },
    {
      "text": "porn star no matter whether they say she",
      "start": 49.86,
      "duration": 7.35
    },
    {
      "text": "is a director of adult films she sucks",
      "start": 53.16,
      "duration": 8.34
    },
    {
      "text": "and F's on camera for money and she is",
      "start": 57.21,
      "duration": 6.149
    },
    {
      "text": "masturbatory material I'm sure to an",
      "start": 61.5,
      "duration": 5.85
    },
    {
      "text": "entire generation and that is where the",
      "start": 63.359,
      "duration": 5.76
    },
    {
      "text": "left is going for their character",
      "start": 67.35,
      "duration": 4.769
    },
    {
      "text": "assassinations now so what happened was",
      "start": 69.119,
      "duration": 6.961
    },
    {
      "text": "she was paid a hundred and thirty",
      "start": 72.119,
      "duration": 6.271
    },
    {
      "text": "thousand dollars by Trump's attorney",
      "start": 76.08,
      "duration": 5.52
    },
    {
      "text": "Cohen in order to not talk about this",
      "start": 78.39,
      "duration": 6.269
    },
    {
      "text": "alleged affair which she had also denied",
      "start": 81.6,
      "duration": 5.25
    },
    {
      "text": "in the past and she took the money and",
      "start": 84.659,
      "duration": 4.5
    },
    {
      "text": "was supposed to return all of the texts",
      "start": 86.85,
      "duration": 3.839
    },
    {
      "text": "and messages and basically scrub",
      "start": 89.159,
      "duration": 4.261
    },
    {
      "text": "everything clean of any contact she'd",
      "start": 90.689,
      "duration": 7.89
    },
    {
      "text": "had but Trump and she didn't do that now",
      "start": 93.42,
      "duration": 9.3
    },
    {
      "text": "she's out there talking about it and for",
      "start": 98.579,
      "duration": 5.311
    },
    {
      "text": "every so she signed a nondisclosure",
      "start": 102.72,
      "duration": 2.759
    },
    {
      "text": "agreement which says she wasn't allowed",
      "start": 103.89,
      "duration": 2.869
    },
    {
      "text": "to talk about it and she took the money",
      "start": 105.479,
      "duration": 6.241
    },
    {
      "text": "and now they're threatening her with the",
      "start": 106.759,
      "duration": 6.131
    },
    {
      "text": "Trump's team is threatening her at 20",
      "start": 111.72,
      "duration": 2.82
    },
    {
      "text": "million dollars because she has spoken",
      "start": 112.89,
      "duration": 3.06
    },
    {
      "text": "repeatedly in every infraction of the",
      "start": 114.54,
      "duration": 2.55
    },
    {
      "text": "non-disclosure agreements a million",
      "start": 115.95,
      "duration": 3.209
    },
    {
      "text": "dollars so this is when Anderson",
      "start": 117.09,
      "duration": 3.33
    },
    {
      "text": "Cooper's starts talking with her he says",
      "start": 119.159,
      "duration": 3.931
    },
    {
      "text": "for sitting here today sorry for sitting",
      "start": 120.42,
      "duration": 3.87
    },
    {
      "text": "here talking to me today you could be",
      "start": 123.09,
      "duration": 2.43
    },
    {
      "text": "fined a million dollars I mean aren't",
      "start": 124.29,
      "duration": 2.34
    },
    {
      "text": "you taking a big risk",
      "start": 125.52,
      "duration": 4.95
    },
    {
      "text": "I am Anderson Cooper says I guess I'm",
      "start": 126.63,
      "duration": 5.04
    },
    {
      "text": "not a hundred percent sure on why you",
      "start": 130.47,
      "duration": 2.74
    },
    {
      "text": "are doing this",
      "start": 131.67,
      "duration": 3.4
    },
    {
      "text": "she says because it was very important",
      "start": 133.21,
      "duration": 5.28
    },
    {
      "text": "for me to be able to defend myself",
      "start": 135.07,
      "duration": 8.46
    },
    {
      "text": "do you see she's concerned about her I'm",
      "start": 138.49,
      "duration": 11.34
    },
    {
      "text": "sorry hi see the porn star who's had",
      "start": 143.53,
      "duration": 7.98
    },
    {
      "text": "penises in just about every orifice",
      "start": 149.83,
      "duration": 3.84
    },
    {
      "text": "except her ears and I don't even know",
      "start": 151.51,
      "duration": 4.35
    },
    {
      "text": "about that is very concerned you see",
      "start": 153.67,
      "duration": 5.78
    },
    {
      "text": "about her good name being besmirched",
      "start": 155.86,
      "duration": 7.68
    },
    {
      "text": "because reputation is as important these",
      "start": 159.45,
      "duration": 9.4
    },
    {
      "text": "days so she wants to set the record",
      "start": 163.54,
      "duration": 8.61
    },
    {
      "text": "straight and he says why and she says",
      "start": 168.85,
      "duration": 5.16
    },
    {
      "text": "because people are just saying whatever",
      "start": 172.15,
      "duration": 3.42
    },
    {
      "text": "they wanted to say about me I was",
      "start": 174.01,
      "duration": 3.12
    },
    {
      "text": "perfectly fine saying nothing at all but",
      "start": 175.57,
      "duration": 3.15
    },
    {
      "text": "I'm not okay with being nada made out to",
      "start": 177.13,
      "duration": 3.93
    },
    {
      "text": "be a liar or people thinking that I did",
      "start": 178.72,
      "duration": 3.66
    },
    {
      "text": "this for money and people are like oh",
      "start": 181.06,
      "duration": 2.76
    },
    {
      "text": "you're an opportunist you're taking",
      "start": 182.38,
      "duration": 3.6
    },
    {
      "text": "advantage of this yes I'm getting more",
      "start": 183.82,
      "duration": 3.81
    },
    {
      "text": "job offers now but tell me one person",
      "start": 185.98,
      "duration": 3.6
    },
    {
      "text": "who would turn down a job offer making",
      "start": 187.63,
      "duration": 3.3
    },
    {
      "text": "more than they've been making doing the",
      "start": 189.58,
      "duration": 4.92
    },
    {
      "text": "same thing that they've always done it's",
      "start": 190.93,
      "duration": 6.57
    },
    {
      "text": "scattered thinking for sure I mean what",
      "start": 194.5,
      "duration": 4.53
    },
    {
      "text": "would you what would you expect rights a",
      "start": 197.5,
      "duration": 2.94
    },
    {
      "text": "fragmented personality I would assume",
      "start": 199.03,
      "duration": 6.36
    },
    {
      "text": "and so she's our guest perfectly happy",
      "start": 200.44,
      "duration": 7.14
    },
    {
      "text": "having sex on camera for 20 years but",
      "start": 205.39,
      "duration": 4.29
    },
    {
      "text": "but don't you call her a liar but of",
      "start": 207.58,
      "duration": 4.68
    },
    {
      "text": "course the did she is a liar because she",
      "start": 209.68,
      "duration": 4.89
    },
    {
      "text": "said that she didn't have any affair",
      "start": 212.26,
      "duration": 3.54
    },
    {
      "text": "with Donald Trump and now she's saying",
      "start": 214.57,
      "duration": 3.78
    },
    {
      "text": "that she is so I think the liars ship",
      "start": 215.8,
      "duration": 8.1
    },
    {
      "text": "has kind of sailed on that and so people",
      "start": 218.35,
      "duration": 7.47
    },
    {
      "text": "say she's offended that she might be",
      "start": 223.9,
      "duration": 3.93
    },
    {
      "text": "called an opportunist but she's",
      "start": 225.82,
      "duration": 3.81
    },
    {
      "text": "basically saying that she's gonna make",
      "start": 227.83,
      "duration": 2.37
    },
    {
      "text": "more money",
      "start": 229.63,
      "duration": 2.76
    },
    {
      "text": "I guess stripping or doing more porn I",
      "start": 230.2,
      "duration": 4.41
    },
    {
      "text": "don't know what the market is for women",
      "start": 232.39,
      "duration": 5.19
    },
    {
      "text": "in the late thirties for porn but yeah",
      "start": 234.61,
      "duration": 4.47
    },
    {
      "text": "she's saying I'm making a lot more money",
      "start": 237.58,
      "duration": 3.12
    },
    {
      "text": "by doing this how dare people call me an",
      "start": 239.08,
      "duration": 6.14
    },
    {
      "text": "opportunist I just that's very strange",
      "start": 240.7,
      "duration": 7.32
    },
    {
      "text": "but it gets stranger I'm gonna just jump",
      "start": 245.22,
      "duration": 6.52
    },
    {
      "text": "in stitch across some of this stuff so",
      "start": 248.02,
      "duration": 7.02
    },
    {
      "text": "she's sassy and in something that",
      "start": 251.74,
      "duration": 5.67
    },
    {
      "text": "actually sounds like a porn script I",
      "start": 255.04,
      "duration": 6.36
    },
    {
      "text": "suppose he's Donald she says Donald",
      "start": 257.41,
      "duration": 5.97
    },
    {
      "text": "Trump is showing her a picture of him on",
      "start": 261.4,
      "duration": 5.1
    },
    {
      "text": "a magazine and she says somebody ought",
      "start": 263.38,
      "duration": 3.78
    },
    {
      "text": "to spank you",
      "start": 266.5,
      "duration": 1.95
    },
    {
      "text": "that or you should be spanked with that",
      "start": 267.16,
      "duration": 4.26
    },
    {
      "text": "you know like the you know plumber",
      "start": 268.45,
      "duration": 5.28
    },
    {
      "text": "coming to work on the pipes anyway so",
      "start": 271.42,
      "duration": 4.23
    },
    {
      "text": "Anderson Cooper says you you told Donald",
      "start": 273.73,
      "duration": 3.12
    },
    {
      "text": "Trump to turn around and take off his",
      "start": 275.65,
      "duration": 3.36
    },
    {
      "text": "pants she said yes and Scoob said and",
      "start": 276.85,
      "duration": 4.53
    },
    {
      "text": "did he stole my dad I said yes so he",
      "start": 279.01,
      "duration": 3.69
    },
    {
      "text": "turned around pulled his pants down a",
      "start": 281.38,
      "duration": 3.72
    },
    {
      "text": "little you know he had underwear on and",
      "start": 282.7,
      "duration": 3.99
    },
    {
      "text": "stuff and I just gave him a couple",
      "start": 285.1,
      "duration": 2.19
    },
    {
      "text": "sweats",
      "start": 286.69,
      "duration": 6.51
    },
    {
      "text": "this was done in a joking manner yes it",
      "start": 287.29,
      "duration": 8.31
    },
    {
      "text": "tells me I guess maybe it's the circles",
      "start": 293.2,
      "duration": 8.73
    },
    {
      "text": "that Anderson Cooper moves in or I guess",
      "start": 295.6,
      "duration": 8.37
    },
    {
      "text": "well obviously stormy Daniels but sort",
      "start": 301.93,
      "duration": 3.9
    },
    {
      "text": "of the how do you break the ice when",
      "start": 303.97,
      "duration": 2.97
    },
    {
      "text": "things are a little bit uncomfortable",
      "start": 305.83,
      "duration": 3.21
    },
    {
      "text": "pull down your pants oh I'm gonna hit",
      "start": 306.94,
      "duration": 5.52
    },
    {
      "text": "you on the ass with a magazine is that",
      "start": 309.04,
      "duration": 5.07
    },
    {
      "text": "is that how you break the ice in some",
      "start": 312.46,
      "duration": 4.74
    },
    {
      "text": "circles I I feel like I've been a",
      "start": 314.11,
      "duration": 5.25
    },
    {
      "text": "Wallflower staying at home in the 19th",
      "start": 317.2,
      "duration": 3.47
    },
    {
      "text": "century that's wild",
      "start": 319.36,
      "duration": 5.85
    },
    {
      "text": "and so she sits yet was joking him from",
      "start": 320.67,
      "duration": 5.59
    },
    {
      "text": "that moment on he was a completely",
      "start": 325.21,
      "duration": 2.4
    },
    {
      "text": "different person he could talking about",
      "start": 326.26,
      "duration": 3
    },
    {
      "text": "himself he asked me things and I asked",
      "start": 327.61,
      "duration": 3.6
    },
    {
      "text": "him things and it just became like more",
      "start": 329.26,
      "duration": 10.08
    },
    {
      "text": "appropriate appropriate so you hit",
      "start": 331.21,
      "duration": 9.99
    },
    {
      "text": "someone if they pull down their pants",
      "start": 339.34,
      "duration": 4.98
    },
    {
      "text": "you hit them with a magazine with his",
      "start": 341.2,
      "duration": 5.28
    },
    {
      "text": "picture on it on the butt and that",
      "start": 344.32,
      "duration": 3.87
    },
    {
      "text": "breaks the ice and things become more",
      "start": 346.48,
      "duration": 5.25
    },
    {
      "text": "appropriate because you know you really",
      "start": 348.19,
      "duration": 5.04
    },
    {
      "text": "really want to go to porn stars for your",
      "start": 351.73,
      "duration": 3.51
    },
    {
      "text": "definition of appropriate and this is",
      "start": 353.23,
      "duration": 3.87
    },
    {
      "text": "all to me I mean I I don't particularly",
      "start": 355.24,
      "duration": 6.51
    },
    {
      "text": "believe any of it but so anyway so then",
      "start": 357.1,
      "duration": 7.8
    },
    {
      "text": "the big dangle is that he was going to",
      "start": 361.75,
      "duration": 4.62
    },
    {
      "text": "try and get her to be a contestant on",
      "start": 364.9,
      "duration": 7.71
    },
    {
      "text": "The Apprentice and she says she laughed",
      "start": 366.37,
      "duration": 8.4
    },
    {
      "text": "and said NBC's never gonna let you know",
      "start": 372.61,
      "duration": 5.82
    },
    {
      "text": "an adult film star Beyond and it's you",
      "start": 374.77,
      "duration": 5.46
    },
    {
      "text": "know he goes no no he goes that's why I",
      "start": 378.43,
      "duration": 3.03
    },
    {
      "text": "want you you're gonna shock a lot of",
      "start": 380.23,
      "duration": 2.55
    },
    {
      "text": "people you're smart and they won't know",
      "start": 381.46,
      "duration": 2.84
    },
    {
      "text": "what to expect",
      "start": 382.78,
      "duration": 4.47
    },
    {
      "text": "see she's saying NBC would never let a",
      "start": 384.3,
      "duration": 4.66
    },
    {
      "text": "porn star on the apprentice because you",
      "start": 387.25,
      "duration": 4.62
    },
    {
      "text": "see they have standards 60 minutes",
      "start": 388.96,
      "duration": 4.44
    },
    {
      "text": "though views her as a credible source",
      "start": 391.87,
      "duration": 3.12
    },
    {
      "text": "and they do this little thing and when",
      "start": 393.4,
      "duration": 3.6
    },
    {
      "text": "you see this you know you'd be alert to",
      "start": 394.99,
      "duration": 3.299
    },
    {
      "text": "the manipulations you'll see this all",
      "start": 397,
      "duration": 3.65
    },
    {
      "text": "over the place when you see this",
      "start": 398.289,
      "duration": 6.241
    },
    {
      "text": "so in order to pretend to be a tough",
      "start": 400.65,
      "duration": 7.12
    },
    {
      "text": "reporter what reporters do if they like",
      "start": 404.53,
      "duration": 4.53
    },
    {
      "text": "you and they want to promote your story",
      "start": 407.77,
      "duration": 3.5
    },
    {
      "text": "is they say some people would say",
      "start": 409.06,
      "duration": 4.26
    },
    {
      "text": "criticism and then they let you respond",
      "start": 411.27,
      "duration": 3.63
    },
    {
      "text": "to that and then they just move on and",
      "start": 413.32,
      "duration": 3.72
    },
    {
      "text": "then they can say well I asked you the",
      "start": 414.9,
      "duration": 2.98
    },
    {
      "text": "tough questions",
      "start": 417.04,
      "duration": 3.15
    },
    {
      "text": "some people say means enemies of yours",
      "start": 417.88,
      "duration": 3.33
    },
    {
      "text": "would say so you're framing it",
      "start": 420.19,
      "duration": 4.11
    },
    {
      "text": "immediately you give a question that is",
      "start": 421.21,
      "duration": 4.62
    },
    {
      "text": "kind of a softball question in the",
      "start": 424.3,
      "duration": 3.03
    },
    {
      "text": "third-person so it's not the reporter",
      "start": 425.83,
      "duration": 2.16
    },
    {
      "text": "who's asking",
      "start": 427.33,
      "duration": 3.089
    },
    {
      "text": "you know I'm asking on behalf of a",
      "start": 427.99,
      "duration": 5.07
    },
    {
      "text": "friend and then you let the person",
      "start": 430.419,
      "duration": 3.991
    },
    {
      "text": "answer and then you move on and then you",
      "start": 433.06,
      "duration": 2.7
    },
    {
      "text": "say hey man I asked her the tough",
      "start": 434.41,
      "duration": 5.55
    },
    {
      "text": "questions so then things get stranger",
      "start": 435.76,
      "duration": 5.52
    },
    {
      "text": "still McDaniel says I asked him if I",
      "start": 439.96,
      "duration": 2.76
    },
    {
      "text": "could use his restroom and he said yes",
      "start": 441.28,
      "duration": 2.669
    },
    {
      "text": "you know it's through there through the",
      "start": 442.72,
      "duration": 3.03
    },
    {
      "text": "bedroom you'll see it so I excused",
      "start": 443.949,
      "duration": 2.911
    },
    {
      "text": "myself and I went to the restroom you",
      "start": 445.75,
      "duration": 2.4
    },
    {
      "text": "know I was in there for a little bit and",
      "start": 446.86,
      "duration": 2.58
    },
    {
      "text": "came out and he was sitting you know on",
      "start": 448.15,
      "duration": 2.519
    },
    {
      "text": "the edge of the bed when I walked out",
      "start": 449.44,
      "duration": 4.08
    },
    {
      "text": "perched and it's in Cooper and when you",
      "start": 450.669,
      "duration": 6.021
    },
    {
      "text": "saw that what went through your mind not",
      "start": 453.52,
      "duration": 6.899
    },
    {
      "text": "is it true is there any objective",
      "start": 456.69,
      "duration": 5.53
    },
    {
      "text": "verification of one single thing that",
      "start": 460.419,
      "duration": 3.541
    },
    {
      "text": "stormy daniel says no what went through",
      "start": 462.22,
      "duration": 4.11
    },
    {
      "text": "your mind and that's inviting you into",
      "start": 463.96,
      "duration": 3.81
    },
    {
      "text": "the eyes of the person who may not be",
      "start": 466.33,
      "duration": 3.059
    },
    {
      "text": "telling the truth in order to disarm you",
      "start": 467.77,
      "duration": 4.26
    },
    {
      "text": "from being skeptical stormy daniel says",
      "start": 469.389,
      "duration": 5.311
    },
    {
      "text": "I realized exactly what I'd gotten",
      "start": 472.03,
      "duration": 4.17
    },
    {
      "text": "myself into",
      "start": 474.7,
      "duration": 6.17
    },
    {
      "text": "and I was like oh here we go",
      "start": 476.2,
      "duration": 4.67
    },
    {
      "text": "that's where female sexuality is these",
      "start": 481.47,
      "duration": 4.75
    },
    {
      "text": "days a man sits on the edge of the bed",
      "start": 484.21,
      "duration": 5.1
    },
    {
      "text": "and I guess like he'd urinal you're like",
      "start": 486.22,
      "duration": 5.12
    },
    {
      "text": "oh here we go",
      "start": 489.31,
      "duration": 5.4
    },
    {
      "text": "laughs and I just felt like maybe laughs",
      "start": 491.34,
      "duration": 5.859
    },
    {
      "text": "it was sort of I had it coming for",
      "start": 494.71,
      "duration": 4.38
    },
    {
      "text": "making a bad decision for going to",
      "start": 497.199,
      "duration": 3.541
    },
    {
      "text": "someone's room alone and I just heard",
      "start": 499.09,
      "duration": 3.48
    },
    {
      "text": "the voice in my head well you put",
      "start": 500.74,
      "duration": 3.45
    },
    {
      "text": "yourself in a bad situation and bad",
      "start": 502.57,
      "duration": 8.099
    },
    {
      "text": "things happen so you deserve this that",
      "start": 504.19,
      "duration": 9.75
    },
    {
      "text": "is I mean I don't even know what to say",
      "start": 510.669,
      "duration": 5.61
    },
    {
      "text": "I mean how how could you possibly figure",
      "start": 513.94,
      "duration": 4.44
    },
    {
      "text": "that out in any rational context for",
      "start": 516.279,
      "duration": 4.2
    },
    {
      "text": "standard you put yourself in a bad",
      "start": 518.38,
      "duration": 4.14
    },
    {
      "text": "situation and bad things happen so you",
      "start": 520.479,
      "duration": 4.951
    },
    {
      "text": "deserve this so that indicates of course",
      "start": 522.52,
      "duration": 7.37
    },
    {
      "text": "that she doesn't want to have sex",
      "start": 525.43,
      "duration": 4.46
    },
    {
      "text": "but then she says it was consensual",
      "start": 530.779,
      "duration": 4.641
    },
    {
      "text": "so she says basically I'm cornered I",
      "start": 535.99,
      "duration": 5.409
    },
    {
      "text": "have to do this because I went to his",
      "start": 539.959,
      "duration": 3.151
    },
    {
      "text": "room it's a bad situation bad things",
      "start": 541.399,
      "duration": 4.831
    },
    {
      "text": "happen I wasn't attracted to him because",
      "start": 543.11,
      "duration": 6.93
    },
    {
      "text": "she was 29 I think in he was 60 but bad",
      "start": 546.23,
      "duration": 5.82
    },
    {
      "text": "things happen I deserve this I made a",
      "start": 550.04,
      "duration": 3.599
    },
    {
      "text": "terrible mistake and terrible things are",
      "start": 552.05,
      "duration": 2.43
    },
    {
      "text": "gonna happen but it was totally",
      "start": 553.639,
      "duration": 6.42
    },
    {
      "text": "consensual and and it's in Cooper of",
      "start": 554.48,
      "duration": 9.269
    },
    {
      "text": "course he of the infamous old rope says",
      "start": 560.059,
      "duration": 6.361
    },
    {
      "text": "nothing so you know what I was kind of",
      "start": 563.749,
      "duration": 4.95
    },
    {
      "text": "looking for perhaps like water in the",
      "start": 566.42,
      "duration": 5.479
    },
    {
      "text": "desert or my Barbara for my mohawk I was",
      "start": 568.699,
      "duration": 8.041
    },
    {
      "text": "looking for the 60 Minutes team to have",
      "start": 571.899,
      "duration": 6.521
    },
    {
      "text": "done any kind of corroboration of any",
      "start": 576.74,
      "duration": 4.11
    },
    {
      "text": "part of her story was she in the right",
      "start": 578.42,
      "duration": 4.32
    },
    {
      "text": "place does she have any text messages",
      "start": 580.85,
      "duration": 5.37
    },
    {
      "text": "does she have any phone records does you",
      "start": 582.74,
      "duration": 5.159
    },
    {
      "text": "know it can you at least validate the",
      "start": 586.22,
      "duration": 3.809
    },
    {
      "text": "travel situation can you call up the",
      "start": 587.899,
      "duration": 3.81
    },
    {
      "text": "execs at NBC and asked if they ever",
      "start": 590.029,
      "duration": 3.091
    },
    {
      "text": "considered stormy Daniels for the",
      "start": 591.709,
      "duration": 2.88
    },
    {
      "text": "apprentice King like is there anything",
      "start": 593.12,
      "duration": 4.949
    },
    {
      "text": "that you can do to verify one thing that",
      "start": 594.589,
      "duration": 6.211
    },
    {
      "text": "this woman is saying even just in terms",
      "start": 598.069,
      "duration": 6.39
    },
    {
      "text": "of the circumstantial stuff you know she",
      "start": 600.8,
      "duration": 6.149
    },
    {
      "text": "says oh well like they had she says they",
      "start": 604.459,
      "duration": 6.891
    },
    {
      "text": "had sex once never had it again and I",
      "start": 606.949,
      "duration": 6.541
    },
    {
      "text": "mean just little things she says she",
      "start": 611.35,
      "duration": 3.459
    },
    {
      "text": "went over to his place and he was",
      "start": 613.49,
      "duration": 3.269
    },
    {
      "text": "watching it Shark Week special and made",
      "start": 614.809,
      "duration": 4.851
    },
    {
      "text": "made her you see made her watch a",
      "start": 616.759,
      "duration": 6.781
    },
    {
      "text": "documentary on shark attacks and okay",
      "start": 619.66,
      "duration": 5.169
    },
    {
      "text": "well what's that documentary playing at",
      "start": 623.54,
      "duration": 3.989
    },
    {
      "text": "that time can you mean anything anything",
      "start": 624.829,
      "duration": 4.44
    },
    {
      "text": "to corroborate but there's absolutely",
      "start": 627.529,
      "duration": 4.62
    },
    {
      "text": "nothing that is done by the 60 Minutes",
      "start": 629.269,
      "duration": 4.74
    },
    {
      "text": "team that I've seen where they",
      "start": 632.149,
      "duration": 4.17
    },
    {
      "text": "corroborate any of her story with",
      "start": 634.009,
      "duration": 4.291
    },
    {
      "text": "anything that she claims and that just",
      "start": 636.319,
      "duration": 3.24
    },
    {
      "text": "to me tells you that there's an agenda",
      "start": 638.3,
      "duration": 3.509
    },
    {
      "text": "it tells you that the purpose is now",
      "start": 639.559,
      "duration": 4.26
    },
    {
      "text": "that the Russia collusion investigation",
      "start": 641.809,
      "duration": 6.39
    },
    {
      "text": "is collapsing and I mean Trump is",
      "start": 643.819,
      "duration": 6.63
    },
    {
      "text": "expelling diplomats now and from Russia",
      "start": 648.199,
      "duration": 8.991
    },
    {
      "text": "so they need something new so they don't",
      "start": 650.449,
      "duration": 8.271
    },
    {
      "text": "try'n verify anything that I can see I",
      "start": 657.19,
      "duration": 2.79
    },
    {
      "text": "certainly hadn't reported on it that",
      "start": 658.72,
      "duration": 5.22
    },
    {
      "text": "I've seen so you understand this is just",
      "start": 659.98,
      "duration": 6.93
    },
    {
      "text": "the next thing so then this is hundred",
      "start": 663.94,
      "duration": 7.92
    },
    {
      "text": "and thirty thousand dollars and show",
      "start": 666.91,
      "duration": 6.78
    },
    {
      "text": "Trump's attorney Michael Cohen had her",
      "start": 671.86,
      "duration": 3.21
    },
    {
      "text": "sign this non-disclosure agreement paid",
      "start": 673.69,
      "duration": 2.61
    },
    {
      "text": "her hundred and thirty thousand dollars",
      "start": 675.07,
      "duration": 3.11
    },
    {
      "text": "through a limited liability corporation",
      "start": 676.3,
      "duration": 6.03
    },
    {
      "text": "and she says okay that's appealing she",
      "start": 678.18,
      "duration": 6.37
    },
    {
      "text": "would receive from some money but also",
      "start": 682.33,
      "duration": 3.9
    },
    {
      "text": "she said she would not have to worry",
      "start": 684.55,
      "duration": 3.66
    },
    {
      "text": "about the effect the revelation of the",
      "start": 686.23,
      "duration": 3.87
    },
    {
      "text": "affair would have on her child who was",
      "start": 688.21,
      "duration": 5.04
    },
    {
      "text": "now old enough to watch the news and she",
      "start": 690.1,
      "duration": 4.59
    },
    {
      "text": "signed the agreement eleven days before",
      "start": 693.25,
      "duration": 8.28
    },
    {
      "text": "the election again this is a woman who's",
      "start": 694.69,
      "duration": 11.84
    },
    {
      "text": "been on camera having sex for decades",
      "start": 701.53,
      "duration": 8.99
    },
    {
      "text": "but she's worried that her children",
      "start": 706.53,
      "duration": 7.33
    },
    {
      "text": "might have any kind of negative effect",
      "start": 710.52,
      "duration": 5.5
    },
    {
      "text": "from finding out that she had consensual",
      "start": 713.86,
      "duration": 3.81
    },
    {
      "text": "sex with the future president of the",
      "start": 716.02,
      "duration": 6.75
    },
    {
      "text": "United States any reporter would of",
      "start": 717.67,
      "duration": 6.63
    },
    {
      "text": "course for what the salt would have",
      "start": 722.77,
      "duration": 3.54
    },
    {
      "text": "asked her about this incredible",
      "start": 724.3,
      "duration": 3.72
    },
    {
      "text": "contribution hook a contradiction but of",
      "start": 726.31,
      "duration": 5.34
    },
    {
      "text": "course none of that is is going on now",
      "start": 728.02,
      "duration": 5.13
    },
    {
      "text": "what's fascinating to me as well is",
      "start": 731.65,
      "duration": 4.05
    },
    {
      "text": "seeing the mainstream media really",
      "start": 733.15,
      "duration": 4.53
    },
    {
      "text": "really suddenly concerned you see",
      "start": 735.7,
      "duration": 5.52
    },
    {
      "text": "because there's a problem with this",
      "start": 737.68,
      "duration": 7.91
    },
    {
      "text": "contribution 130 K which is was it a",
      "start": 741.22,
      "duration": 8.34
    },
    {
      "text": "political contribution and they go into",
      "start": 745.59,
      "duration": 5.38
    },
    {
      "text": "her you know it's worse if Trump didn't",
      "start": 749.56,
      "duration": 2.61
    },
    {
      "text": "paying back and so on because he's only",
      "start": 750.97,
      "duration": 2.46
    },
    {
      "text": "allowed to do a certain amount small",
      "start": 752.17,
      "duration": 2.46
    },
    {
      "text": "amount of money couple of grant and he",
      "start": 753.43,
      "duration": 3.06
    },
    {
      "text": "did a hundred and thirty thousand if",
      "start": 754.63,
      "duration": 3.84
    },
    {
      "text": "that's a political contribution then",
      "start": 756.49,
      "duration": 3.99
    },
    {
      "text": "there's a challenge so you see now it's",
      "start": 758.47,
      "duration": 5.58
    },
    {
      "text": "absolutely fascinating for me to see the",
      "start": 760.48,
      "duration": 5.67
    },
    {
      "text": "mainstream media very concerned about",
      "start": 764.05,
      "duration": 4.32
    },
    {
      "text": "contributions in kind that affect",
      "start": 766.15,
      "duration": 4.53
    },
    {
      "text": "political outcomes the fact that the",
      "start": 768.37,
      "duration": 3.51
    },
    {
      "text": "mainstream media can say this with a",
      "start": 770.68,
      "duration": 2.4
    },
    {
      "text": "straight face without looking in the",
      "start": 771.88,
      "duration": 4.14
    },
    {
      "text": "mirror and seeing the ridiculously",
      "start": 773.08,
      "duration": 4.35
    },
    {
      "text": "negative coverage that they provide for",
      "start": 776.02,
      "duration": 3.39
    },
    {
      "text": "Republican candidates with the glowing",
      "start": 777.43,
      "duration": 4.26
    },
    {
      "text": "cover-up coverage that they provide for",
      "start": 779.41,
      "duration": 4.2
    },
    {
      "text": "the Democrat candidates we're talking",
      "start": 781.69,
      "duration": 4.31
    },
    {
      "text": "about the mainstream media academia",
      "start": 783.61,
      "duration": 6.42
    },
    {
      "text": "Hollywood television you name it the",
      "start": 786,
      "duration": 4.899
    },
    {
      "text": "idea",
      "start": 790.03,
      "duration": 4.26
    },
    {
      "text": "that a hundred and thirty K is some",
      "start": 790.899,
      "duration": 5.821
    },
    {
      "text": "horrible in-kind contribution to effect",
      "start": 794.29,
      "duration": 4.739
    },
    {
      "text": "a political political outcome while the",
      "start": 796.72,
      "duration": 4.529
    },
    {
      "text": "ridiculously negative coverage of Trump",
      "start": 799.029,
      "duration": 3.81
    },
    {
      "text": "and the hate Geographic positive",
      "start": 801.249,
      "duration": 4.231
    },
    {
      "text": "coverage coverage of mrs. Clinton well",
      "start": 802.839,
      "duration": 4.53
    },
    {
      "text": "now you see they're very very concerned",
      "start": 805.48,
      "duration": 6.329
    },
    {
      "text": "about in-kind contributions now of",
      "start": 807.369,
      "duration": 6.51
    },
    {
      "text": "course nobody knows if this is true or",
      "start": 811.809,
      "duration": 3.39
    },
    {
      "text": "not there are no witnesses there's no",
      "start": 813.879,
      "duration": 3.031
    },
    {
      "text": "corroborating evidence that could",
      "start": 815.199,
      "duration": 4.08
    },
    {
      "text": "probably be gleaned there's no blue",
      "start": 816.91,
      "duration": 5.969
    },
    {
      "text": "dress Ella Bill Clinton and no witnesses",
      "start": 819.279,
      "duration": 6.75
    },
    {
      "text": "Clinton and no credible accusations of",
      "start": 822.879,
      "duration": 6.96
    },
    {
      "text": "rape against right like there was with",
      "start": 826.029,
      "duration": 5.631
    },
    {
      "text": "Bill Clinton from Juanita Broderick and",
      "start": 829.839,
      "duration": 4.59
    },
    {
      "text": "so there's I mean that the law can't",
      "start": 831.66,
      "duration": 4.269
    },
    {
      "text": "handle this the law can't deal with this",
      "start": 834.429,
      "duration": 3.09
    },
    {
      "text": "because there's no way to establish",
      "start": 835.929,
      "duration": 3.03
    },
    {
      "text": "objective evidence as he said she said",
      "start": 837.519,
      "duration": 3.781
    },
    {
      "text": "innocent until proven guilty the words",
      "start": 838.959,
      "duration": 3.87
    },
    {
      "text": "cancel each other out and everybody has",
      "start": 841.3,
      "duration": 3.87
    },
    {
      "text": "to move on and say well the whole point",
      "start": 842.829,
      "duration": 3.63
    },
    {
      "text": "of this kind of stuff is we used to have",
      "start": 845.17,
      "duration": 3.69
    },
    {
      "text": "sexual ethics that would prevent this",
      "start": 846.459,
      "duration": 3.87
    },
    {
      "text": "kind of stuff we've given up on all of",
      "start": 848.86,
      "duration": 4.44
    },
    {
      "text": "that to give endless whole access to the",
      "start": 850.329,
      "duration": 5.82
    },
    {
      "text": "are selected rabbits in society and so",
      "start": 853.3,
      "duration": 5.159
    },
    {
      "text": "we've given up on prevention and we have",
      "start": 856.149,
      "duration": 5.19
    },
    {
      "text": "no cure other than believing all women",
      "start": 858.459,
      "duration": 3.901
    },
    {
      "text": "and creating a witch-hunt",
      "start": 861.339,
      "duration": 2.521
    },
    {
      "text": "lowering the birth rates destroying",
      "start": 862.36,
      "duration": 3.329
    },
    {
      "text": "marriage and thus Western civilization",
      "start": 863.86,
      "duration": 4.74
    },
    {
      "text": "which seems you know looks somewhat of a",
      "start": 865.689,
      "duration": 5.01
    },
    {
      "text": "high price to pay and so we have no",
      "start": 868.6,
      "duration": 3.779
    },
    {
      "text": "sexual morality anymore there's no way",
      "start": 870.699,
      "duration": 3
    },
    {
      "text": "to prevent these kinds of things with",
      "start": 872.379,
      "duration": 3
    },
    {
      "text": "sensible behavior ahead of time no",
      "start": 873.699,
      "duration": 3.901
    },
    {
      "text": "capacity to ostracize no chaperones no",
      "start": 875.379,
      "duration": 3.69
    },
    {
      "text": "sexual instruction from the elders",
      "start": 877.6,
      "duration": 3.359
    },
    {
      "text": "because the elders themselves have",
      "start": 879.069,
      "duration": 4.08
    },
    {
      "text": "pursued this kind of nonsense and so we",
      "start": 880.959,
      "duration": 3.3
    },
    {
      "text": "have all of this ridiculous",
      "start": 883.149,
      "duration": 3.99
    },
    {
      "text": "weaponization of female accusations that",
      "start": 884.259,
      "duration": 6.3
    },
    {
      "text": "is going to end in well very badly",
      "start": 887.139,
      "duration": 7.531
    },
    {
      "text": "overall and it's also fascinating for me",
      "start": 890.559,
      "duration": 8.49
    },
    {
      "text": "to see the left as a whole I mean the",
      "start": 894.67,
      "duration": 6.18
    },
    {
      "text": "left as a whole which promotes teaching",
      "start": 899.049,
      "duration": 5.6
    },
    {
      "text": "anal sex to children and talking about",
      "start": 900.85,
      "duration": 6.75
    },
    {
      "text": "homosexuality versus heterosexuality to",
      "start": 904.649,
      "duration": 4.3
    },
    {
      "text": "little kids",
      "start": 907.6,
      "duration": 4.64
    },
    {
      "text": "now suddenly you see they're very very",
      "start": 908.949,
      "duration": 7.281
    },
    {
      "text": "concerned about sexual morality and",
      "start": 912.24,
      "duration": 6.699
    },
    {
      "text": "concerned that the president might have",
      "start": 916.23,
      "duration": 5.469
    },
    {
      "text": "had a consensual affair over ten years",
      "start": 918.939,
      "duration": 5.64
    },
    {
      "text": "ago and they're now taking the",
      "start": 921.699,
      "duration": 6.69
    },
    {
      "text": "word of my guess disgraced former FBI",
      "start": 924.579,
      "duration": 6.211
    },
    {
      "text": "agents like McCabe they're taking the",
      "start": 928.389,
      "duration": 4.771
    },
    {
      "text": "word of porn stars I mean this is who",
      "start": 930.79,
      "duration": 5.279
    },
    {
      "text": "they have to elevate to try and take",
      "start": 933.16,
      "duration": 7.739
    },
    {
      "text": "down Trump I mean it's it's crazy and",
      "start": 936.069,
      "duration": 6.63
    },
    {
      "text": "watching them put on this weird",
      "start": 940.899,
      "duration": 4.86
    },
    {
      "text": "Victorian corset of sexual morality it's",
      "start": 942.699,
      "duration": 6.411
    },
    {
      "text": "just bizarre it's just it's like those",
      "start": 945.759,
      "duration": 7.5
    },
    {
      "text": "weirdos who dress up their cats in three",
      "start": 949.11,
      "duration": 6.159
    },
    {
      "text": "musketeers outfits and you know it gets",
      "start": 953.259,
      "duration": 4.651
    },
    {
      "text": "just it just looks weird it's like it's",
      "start": 955.269,
      "duration": 7.97
    },
    {
      "text": "well it's inappropriate because the left",
      "start": 957.91,
      "duration": 9
    },
    {
      "text": "has endless pages of sexual deviancy in",
      "start": 963.239,
      "duration": 5.981
    },
    {
      "text": "their Bible and so the idea that and of",
      "start": 966.91,
      "duration": 3.929
    },
    {
      "text": "course presidents have been doing this",
      "start": 969.22,
      "duration": 5.669
    },
    {
      "text": "forever I mean the left loves John F",
      "start": 970.839,
      "duration": 7.381
    },
    {
      "text": "Kennedy well as reported in 2010 uh put",
      "start": 974.889,
      "duration": 4.591
    },
    {
      "text": "the links of this below the FBI was",
      "start": 978.22,
      "duration": 2.669
    },
    {
      "text": "tipped off tipped off that the three",
      "start": 979.48,
      "duration": 2.789
    },
    {
      "text": "Kennedy brothers Marilyn Monroe and",
      "start": 980.889,
      "duration": 3.54
    },
    {
      "text": "members of Frank Sinatra's Rat Pack held",
      "start": 982.269,
      "duration": 4.53
    },
    {
      "text": "sex parties orgies in John F Kennedy",
      "start": 984.429,
      "duration": 6.33
    },
    {
      "text": "suite at the Carlyle Hotel he was a",
      "start": 986.799,
      "duration": 6.27
    },
    {
      "text": "catastrophic relentless obsessive sex",
      "start": 990.759,
      "duration": 3.66
    },
    {
      "text": "addict and a drug addict",
      "start": 993.069,
      "duration": 4.71
    },
    {
      "text": "for various health ailments but he is to",
      "start": 994.419,
      "duration": 7.59
    },
    {
      "text": "be praised and lionized eisenhower one",
      "start": 997.779,
      "duration": 6.03
    },
    {
      "text": "of the great warriors of the Second",
      "start": 1002.009,
      "duration": 4.711
    },
    {
      "text": "World War he had an affair with Kay",
      "start": 1003.809,
      "duration": 7.22
    },
    {
      "text": "Somers be his secretary and driver and",
      "start": 1006.72,
      "duration": 6.779
    },
    {
      "text": "you know these are the details that are",
      "start": 1011.029,
      "duration": 5.23
    },
    {
      "text": "there that they finally tried to",
      "start": 1013.499,
      "duration": 4.791
    },
    {
      "text": "consummate their affair in the spring of",
      "start": 1016.259,
      "duration": 5.69
    },
    {
      "text": "1944 but Eisenhower was impotent",
      "start": 1018.29,
      "duration": 5.739
    },
    {
      "text": "confessing that marriage had quote",
      "start": 1021.949,
      "duration": 3.76
    },
    {
      "text": "killed something end quote",
      "start": 1024.029,
      "duration": 3
    },
    {
      "text": "in him so she had to take the lead and",
      "start": 1025.709,
      "duration": 3.69
    },
    {
      "text": "teach him about sex during their affair",
      "start": 1027.029,
      "duration": 4.92
    },
    {
      "text": "Woodrow Wilson had affairs James",
      "start": 1029.399,
      "duration": 4.5
    },
    {
      "text": "Garfield when he was in school obsessed",
      "start": 1031.949,
      "duration": 3.6
    },
    {
      "text": "with sax and masturbation homosexuality",
      "start": 1033.899,
      "duration": 4.41
    },
    {
      "text": "and he frequently took cold showers to",
      "start": 1035.549,
      "duration": 6.571
    },
    {
      "text": "ward off temptation Garfield was an",
      "start": 1038.309,
      "duration": 8.071
    },
    {
      "text": "unbelievable womanizer the 1880 election",
      "start": 1042.12,
      "duration": 6.209
    },
    {
      "text": "was rocked by the allegations that he",
      "start": 1046.38,
      "duration": 5
    },
    {
      "text": "had visited a New Orleans prostitute",
      "start": 1048.329,
      "duration": 8.941
    },
    {
      "text": "LBJ LBJ Linden's bein Johnson he had a",
      "start": 1051.38,
      "duration": 7
    },
    {
      "text": "wife Lady Bird Johnson",
      "start": 1057.27,
      "duration": 3.3
    },
    {
      "text": "she said my husband loved people he",
      "start": 1058.38,
      "duration": 3.99
    },
    {
      "text": "loved all people now half the people in",
      "start": 1060.57,
      "duration": 3.18
    },
    {
      "text": "the world two women you don't think I",
      "start": 1062.37,
      "duration": 2.4
    },
    {
      "text": "could have kept my husband away from",
      "start": 1063.75,
      "duration": 3.32
    },
    {
      "text": "half the people in the world do you",
      "start": 1064.77,
      "duration": 4.59
    },
    {
      "text": "LBJ didn't just have one affair he",
      "start": 1067.07,
      "duration": 4.63
    },
    {
      "text": "bragged once that he'd quote had more",
      "start": 1069.36,
      "duration": 4.23
    },
    {
      "text": "women by accident than Kennedy ever had",
      "start": 1071.7,
      "duration": 5.97
    },
    {
      "text": "on purpose and after his wife walked on",
      "start": 1073.59,
      "duration": 6.72
    },
    {
      "text": "in on her husband having sex with one of",
      "start": 1077.67,
      "duration": 5.04
    },
    {
      "text": "his secretaries in the Oval Office the",
      "start": 1080.31,
      "duration": 3.21
    },
    {
      "text": "Secret Service",
      "start": 1082.71,
      "duration": 3.27
    },
    {
      "text": "installed a push-button buzzer system to",
      "start": 1083.52,
      "duration": 3.78
    },
    {
      "text": "alert the president whenever his wife",
      "start": 1085.98,
      "duration": 8.82
    },
    {
      "text": "was near by Grover sorry Cleveland",
      "start": 1087.3,
      "duration": 10.17
    },
    {
      "text": "Cleveland was at this 1873 Cleveland was",
      "start": 1094.8,
      "duration": 4.74
    },
    {
      "text": "37 years old he was trying to bed a",
      "start": 1097.47,
      "duration": 4.67
    },
    {
      "text": "salesclerk nig named Maria help him and",
      "start": 1099.54,
      "duration": 6
    },
    {
      "text": "she was mum had a good reputation at",
      "start": 1102.14,
      "duration": 5.41
    },
    {
      "text": "church-going lady and so on he took her",
      "start": 1105.54,
      "duration": 3.36
    },
    {
      "text": "out for dinner and then assisted on",
      "start": 1107.55,
      "duration": 4.2
    },
    {
      "text": "accompanying her home December 15th 1873",
      "start": 1108.9,
      "duration": 5.85
    },
    {
      "text": "now according to Maria helping he then",
      "start": 1111.75,
      "duration": 5.43
    },
    {
      "text": "raped her quote by use of force and",
      "start": 1114.75,
      "duration": 5.49
    },
    {
      "text": "violence and without my consent she also",
      "start": 1117.18,
      "duration": 5.07
    },
    {
      "text": "claimed that he threatened to ruin her",
      "start": 1120.24,
      "duration": 5.1
    },
    {
      "text": "if she told anyone what had happened six",
      "start": 1122.25,
      "duration": 4.5
    },
    {
      "text": "weeks later she discovered that she was",
      "start": 1125.34,
      "duration": 3.6
    },
    {
      "text": "pregnant the victim of this accused rape",
      "start": 1126.75,
      "duration": 7.28
    },
    {
      "text": "and when the child was born Cleveland",
      "start": 1128.94,
      "duration": 8.49
    },
    {
      "text": "had Maria arrested and thrown into an",
      "start": 1134.03,
      "duration": 6.16
    },
    {
      "text": "insane asylum and put her his newborn",
      "start": 1137.43,
      "duration": 6.63
    },
    {
      "text": "son into an orphanage that's cold man I",
      "start": 1140.19,
      "duration": 6.42
    },
    {
      "text": "mean that's like Karl Marx level of",
      "start": 1144.06,
      "duration": 3.99
    },
    {
      "text": "banging you made thrown her out in the",
      "start": 1146.61,
      "duration": 4.02
    },
    {
      "text": "street when she gets pregnant cold now",
      "start": 1148.05,
      "duration": 4.47
    },
    {
      "text": "the asylum director said this is a",
      "start": 1150.63,
      "duration": 3.93
    },
    {
      "text": "terrible abuse of power and released the",
      "start": 1152.52,
      "duration": 5.16
    },
    {
      "text": "woman she had been he said she had been",
      "start": 1154.56,
      "duration": 4.65
    },
    {
      "text": "committed quote without warrant or form",
      "start": 1157.68,
      "duration": 3.86
    },
    {
      "text": "of law but she did not get her son back",
      "start": 1159.21,
      "duration": 4.44
    },
    {
      "text": "now when the scandal became public",
      "start": 1161.54,
      "duration": 4.12
    },
    {
      "text": "Cleveland spread a rumor that she was a",
      "start": 1163.65,
      "duration": 3.81
    },
    {
      "text": "drunk engaged in affairs with at least",
      "start": 1165.66,
      "duration": 4.71
    },
    {
      "text": "three married men and so on but she was",
      "start": 1167.46,
      "duration": 4.35
    },
    {
      "text": "a church-going widow two young kids and",
      "start": 1170.37,
      "duration": 3.2
    },
    {
      "text": "a pretty good reputation so yeah",
      "start": 1171.81,
      "duration": 4.14
    },
    {
      "text": "accused of rape tried to get the woman",
      "start": 1173.57,
      "duration": 4.21
    },
    {
      "text": "thrown into an asylum she was released",
      "start": 1175.95,
      "duration": 4.71
    },
    {
      "text": "only on the kindness of the asylum",
      "start": 1177.78,
      "duration": 8.09
    },
    {
      "text": "director and separated from her son FDR",
      "start": 1180.66,
      "duration": 7.83
    },
    {
      "text": "the New Deal guy big hero of the left",
      "start": 1185.87,
      "duration": 4.75
    },
    {
      "text": "well a lot of infidelity okay he had",
      "start": 1188.49,
      "duration": 3.75
    },
    {
      "text": "polio but that didn't seem to into",
      "start": 1190.62,
      "duration": 5.309
    },
    {
      "text": "with his designers and it's a pretty",
      "start": 1192.24,
      "duration": 5.6
    },
    {
      "text": "complicated marriage he had with Eleanor",
      "start": 1195.929,
      "duration": 6.301
    },
    {
      "text": "at one point both FDR and his wife Mae",
      "start": 1197.84,
      "duration": 6.31
    },
    {
      "text": "both have had mistresses living in the",
      "start": 1202.23,
      "duration": 6.12
    },
    {
      "text": "White House and just to touch back on",
      "start": 1204.15,
      "duration": 7.23
    },
    {
      "text": "Kennedy I mean he was possessed by penis",
      "start": 1208.35,
      "duration": 4.47
    },
    {
      "text": "talk about talking about being dick",
      "start": 1211.38,
      "duration": 2.76
    },
    {
      "text": "napped for the entire length of his",
      "start": 1212.82,
      "duration": 5.28
    },
    {
      "text": "presidency I mean you can't even list",
      "start": 1214.14,
      "duration": 5.7
    },
    {
      "text": "them all he had affairs with White House",
      "start": 1218.1,
      "duration": 3.87
    },
    {
      "text": "workers gangsters girlfriends reporters",
      "start": 1219.84,
      "duration": 5.19
    },
    {
      "text": "movie stars staff members a swarm of",
      "start": 1221.97,
      "duration": 4.8
    },
    {
      "text": "girls sometimes delivered to him by",
      "start": 1225.03,
      "duration": 5.01
    },
    {
      "text": "Sinatra he used The Secret Service to",
      "start": 1226.77,
      "duration": 4.83
    },
    {
      "text": "cover his tracks and make sure there was",
      "start": 1230.04,
      "duration": 3.57
    },
    {
      "text": "no evidence of any Affairs left for his",
      "start": 1231.6,
      "duration": 4.44
    },
    {
      "text": "wife to find he often participated",
      "start": 1233.61,
      "duration": 5.069
    },
    {
      "text": "reportedly in threesomes two women at",
      "start": 1236.04,
      "duration": 5.55
    },
    {
      "text": "the same time and that of course he's a",
      "start": 1238.679,
      "duration": 4.611
    },
    {
      "text": "hero there's no problem with that at all",
      "start": 1241.59,
      "duration": 7.26
    },
    {
      "text": "Bill Clinton huh well of course this was",
      "start": 1243.29,
      "duration": 10.54
    },
    {
      "text": "pretty wild and pretty clear in 1994 two",
      "start": 1248.85,
      "duration": 7.11
    },
    {
      "text": "arkansas state troopers who assisted in",
      "start": 1253.83,
      "duration": 3.84
    },
    {
      "text": "Clinton's extramarital affairs after",
      "start": 1255.96,
      "duration": 4.23
    },
    {
      "text": "then Governor Clinton say that they saw",
      "start": 1257.67,
      "duration": 4.8
    },
    {
      "text": "him in a delicate positions with dozens",
      "start": 1260.19,
      "duration": 5.28
    },
    {
      "text": "of different women one trooper said for",
      "start": 1262.47,
      "duration": 4.53
    },
    {
      "text": "seven years prior there were many",
      "start": 1265.47,
      "duration": 3.42
    },
    {
      "text": "long-term hookups with women now of",
      "start": 1267,
      "duration": 4.89
    },
    {
      "text": "course one of these was Jennifer flowers",
      "start": 1268.89,
      "duration": 4.68
    },
    {
      "text": "another was a staff member in Clinton's",
      "start": 1271.89,
      "duration": 3.87
    },
    {
      "text": "office another was a lawyer who was a",
      "start": 1273.57,
      "duration": 3.87
    },
    {
      "text": "Clinton appointee to a judgeship a",
      "start": 1275.76,
      "duration": 3.72
    },
    {
      "text": "prominent judge's wife a reporter and",
      "start": 1277.44,
      "duration": 3.69
    },
    {
      "text": "employee at an Arkansas Power Company",
      "start": 1279.48,
      "duration": 3.57
    },
    {
      "text": "and a sales clerk at a Little Rock",
      "start": 1281.13,
      "duration": 7.74
    },
    {
      "text": "department store and there was Sally",
      "start": 1283.05,
      "duration": 7.95
    },
    {
      "text": "Perdue came forward saying she had an",
      "start": 1288.87,
      "duration": 3.809
    },
    {
      "text": "affair with Clinton in 1983 when he was",
      "start": 1291,
      "duration": 4.41
    },
    {
      "text": "governor and right after her story",
      "start": 1292.679,
      "duration": 3.991
    },
    {
      "text": "appeared in the press she says a man",
      "start": 1295.41,
      "duration": 2.519
    },
    {
      "text": "claiming to represent the local",
      "start": 1296.67,
      "duration": 2.7
    },
    {
      "text": "Democratic Party offered her a lifetime",
      "start": 1297.929,
      "duration": 3.481
    },
    {
      "text": "federal job if she would be silent and",
      "start": 1299.37,
      "duration": 3.63
    },
    {
      "text": "threatened her with physical harm if she",
      "start": 1301.41,
      "duration": 3.39
    },
    {
      "text": "refused to cooperate the sexual",
      "start": 1303,
      "duration": 3.66
    },
    {
      "text": "harassment case with Paula Jones a state",
      "start": 1304.8,
      "duration": 3.05
    },
    {
      "text": "employee he ended up paying over",
      "start": 1306.66,
      "duration": 4.62
    },
    {
      "text": "$800,000 for that and of course Juanita",
      "start": 1307.85,
      "duration": 5.47
    },
    {
      "text": "Broderick who she claims that he raped",
      "start": 1311.28,
      "duration": 5.52
    },
    {
      "text": "her and then that she was a children's",
      "start": 1313.32,
      "duration": 5.58
    },
    {
      "text": "lives were threatened if she ever spoke",
      "start": 1316.8,
      "duration": 4.32
    },
    {
      "text": "if it chose to talk Monica Lewinsky of",
      "start": 1318.9,
      "duration": 4.2
    },
    {
      "text": "course young good-looking 21 year old",
      "start": 1321.12,
      "duration": 4.29
    },
    {
      "text": "intern who performed oral sex on Clinton",
      "start": 1323.1,
      "duration": 3.12
    },
    {
      "text": "in the Oval",
      "start": 1325.41,
      "duration": 3.55
    },
    {
      "text": "she ended up having address with Clinton",
      "start": 1326.22,
      "duration": 4.51
    },
    {
      "text": "sperm stains on it",
      "start": 1328.96,
      "duration": 4.47
    },
    {
      "text": "an Clinton reportedly took a cigar tube",
      "start": 1330.73,
      "duration": 7.35
    },
    {
      "text": "and inserted it into well sorry so I",
      "start": 1333.43,
      "duration": 6.18
    },
    {
      "text": "mean this is just the tip of the iceberg",
      "start": 1338.08,
      "duration": 3.15
    },
    {
      "text": "there is of course a lot of this kind of",
      "start": 1339.61,
      "duration": 3
    },
    {
      "text": "stuff going on and this is not to",
      "start": 1341.23,
      "duration": 2.85
    },
    {
      "text": "justify any of it it's simply to point",
      "start": 1342.61,
      "duration": 4.47
    },
    {
      "text": "out the double standard it's simply to",
      "start": 1344.08,
      "duration": 4.29
    },
    {
      "text": "point out that the left does not care",
      "start": 1347.08,
      "duration": 3.51
    },
    {
      "text": "about things like infidelity if this",
      "start": 1348.37,
      "duration": 4.53
    },
    {
      "text": "even occurs they don't care they care",
      "start": 1350.59,
      "duration": 4.23
    },
    {
      "text": "about it they'll weaponize infidelity if",
      "start": 1352.9,
      "duration": 3.81
    },
    {
      "text": "you are a Republican who might actually",
      "start": 1354.82,
      "duration": 3.41
    },
    {
      "text": "get something done",
      "start": 1356.71,
      "duration": 4.47
    },
    {
      "text": "and maybe that's why the 130k was paid",
      "start": 1358.23,
      "duration": 5.8
    },
    {
      "text": "to stormy Daniels not because the not",
      "start": 1361.18,
      "duration": 4.68
    },
    {
      "text": "because Cohen thought that there was",
      "start": 1364.03,
      "duration": 3.36
    },
    {
      "text": "actually an affair but he knew that if",
      "start": 1365.86,
      "duration": 3.9
    },
    {
      "text": "she came out with it well anyway you",
      "start": 1367.39,
      "duration": 3.33
    },
    {
      "text": "know what the media would've done with",
      "start": 1369.76,
      "duration": 7.73
    },
    {
      "text": "it I just asked where anymore right so",
      "start": 1370.72,
      "duration": 11.94
    },
    {
      "text": "then she says that a stormy Daniel said",
      "start": 1377.49,
      "duration": 6.9
    },
    {
      "text": "that a guy threatened the baby daughter",
      "start": 1382.66,
      "duration": 3.78
    },
    {
      "text": "and she says why didn't you go to the",
      "start": 1384.39,
      "duration": 3.22
    },
    {
      "text": "police because again that would be",
      "start": 1386.44,
      "duration": 4.17
    },
    {
      "text": "tangible evidence of at least that she'd",
      "start": 1387.61,
      "duration": 4.86
    },
    {
      "text": "gone to the police and she said well I",
      "start": 1390.61,
      "duration": 3.48
    },
    {
      "text": "didn't go to the police because I was",
      "start": 1392.47,
      "duration": 4.05
    },
    {
      "text": "scared now she wasn't so scared that she",
      "start": 1394.09,
      "duration": 4.02
    },
    {
      "text": "couldn't still go to the exercise class",
      "start": 1396.52,
      "duration": 3.6
    },
    {
      "text": "that she was going to but she didn't go",
      "start": 1398.11,
      "duration": 3.69
    },
    {
      "text": "to the police because she was scared but",
      "start": 1400.12,
      "duration": 3.99
    },
    {
      "text": "of course if you're terrified if you're",
      "start": 1401.8,
      "duration": 4.47
    },
    {
      "text": "scared if you're too scared to tell the",
      "start": 1404.11,
      "duration": 4.11
    },
    {
      "text": "police how on earth are you not scared",
      "start": 1406.27,
      "duration": 5.82
    },
    {
      "text": "to tell 60 minutes protip if you tell 60",
      "start": 1408.22,
      "duration": 5.34
    },
    {
      "text": "minutes more people are gonna hear about",
      "start": 1412.09,
      "duration": 2.79
    },
    {
      "text": "it and then if you talk to the police",
      "start": 1413.56,
      "duration": 4.26
    },
    {
      "text": "after you just terrified wine earth",
      "start": 1414.88,
      "duration": 4.26
    },
    {
      "text": "would you not go to the police but then",
      "start": 1417.82,
      "duration": 6.15
    },
    {
      "text": "would talk about it on 60 minutes and",
      "start": 1419.14,
      "duration": 12.03
    },
    {
      "text": "it's crazy right so this is the person",
      "start": 1423.97,
      "duration": 11.21
    },
    {
      "text": "who is supposed to be credible porn star",
      "start": 1431.17,
      "duration": 6.03
    },
    {
      "text": "somebody who's lied somebody who took",
      "start": 1435.18,
      "duration": 4.18
    },
    {
      "text": "money to keep quiet and then broke the",
      "start": 1437.2,
      "duration": 6.36
    },
    {
      "text": "agreements and somebody who says that",
      "start": 1439.36,
      "duration": 6.87
    },
    {
      "text": "she had well she basically had sex with",
      "start": 1443.56,
      "duration": 6.14
    },
    {
      "text": "a married man who had a baby at home and",
      "start": 1446.23,
      "duration": 6.27
    },
    {
      "text": "basically did it for reasons of ambition",
      "start": 1449.7,
      "duration": 6.91
    },
    {
      "text": "of context of hypergamy of the cool",
      "start": 1452.5,
      "duration": 5.94
    },
    {
      "text": "factorize she would say that when Donald",
      "start": 1456.61,
      "duration": 3.24
    },
    {
      "text": "Trump would call she put him on speaker",
      "start": 1458.44,
      "duration": 3.78
    },
    {
      "text": "people like wow the Donald again can't",
      "start": 1459.85,
      "duration": 3.6
    },
    {
      "text": "you find any of these people can't you",
      "start": 1462.22,
      "duration": 3.36
    },
    {
      "text": "cooperate any of this are there no facts",
      "start": 1463.45,
      "duration": 5.359
    },
    {
      "text": "that you can pursue in this quote",
      "start": 1465.58,
      "duration": 8.58
    },
    {
      "text": "reporting at all it's crazy that's crazy",
      "start": 1468.809,
      "duration": 8.261
    },
    {
      "text": "ah see you should totally believe the",
      "start": 1474.16,
      "duration": 6.57
    },
    {
      "text": "woman who has openly admitted that she",
      "start": 1477.07,
      "duration": 6.719
    },
    {
      "text": "was lying about the time that she last",
      "start": 1480.73,
      "duration": 7.829
    },
    {
      "text": "part lied about lying and of course",
      "start": 1483.789,
      "duration": 8.101
    },
    {
      "text": "there are pictures of Bill Clinton",
      "start": 1488.559,
      "duration": 5.011
    },
    {
      "text": "hanging out with porn stars and of",
      "start": 1491.89,
      "duration": 3.029
    },
    {
      "text": "course all the stuff that happened with",
      "start": 1493.57,
      "duration": 10.4
    },
    {
      "text": "Monica Lewinsky and it's crazy so who is",
      "start": 1494.919,
      "duration": 11.701
    },
    {
      "text": "who is being put forward to talk about",
      "start": 1503.97,
      "duration": 5.05
    },
    {
      "text": "big important issues these days now the",
      "start": 1506.62,
      "duration": 4.559
    },
    {
      "text": "media is promoting kids to talk about",
      "start": 1509.02,
      "duration": 7.38
    },
    {
      "text": "gun control porn stars to be credible",
      "start": 1511.179,
      "duration": 7.411
    },
    {
      "text": "witnesses and FBI agents who were caught",
      "start": 1516.4,
      "duration": 3.75
    },
    {
      "text": "lying are the ones who are going to tell",
      "start": 1518.59,
      "duration": 3.54
    },
    {
      "text": "the most truth in the known universe",
      "start": 1520.15,
      "duration": 4.139
    },
    {
      "text": "and here's the thing so this is sort of",
      "start": 1522.13,
      "duration": 7.169
    },
    {
      "text": "the philosophical aspect first of all we",
      "start": 1524.289,
      "duration": 6.481
    },
    {
      "text": "need to remember that we have to start",
      "start": 1529.299,
      "duration": 2.88
    },
    {
      "text": "working on prevention rather than cure",
      "start": 1530.77,
      "duration": 3.12
    },
    {
      "text": "when it comes to these kinds of issues",
      "start": 1532.179,
      "duration": 4.25
    },
    {
      "text": "the whole point the whole development of",
      "start": 1533.89,
      "duration": 5.55
    },
    {
      "text": "sexual relations in the West had to do",
      "start": 1536.429,
      "duration": 6.521
    },
    {
      "text": "with the fact that yes without witnesses",
      "start": 1539.44,
      "duration": 6.63
    },
    {
      "text": "it never can go well you can say",
      "start": 1542.95,
      "duration": 4.56
    },
    {
      "text": "anything you want you can't prove",
      "start": 1546.07,
      "duration": 3.359
    },
    {
      "text": "anything reputations can't get destroyed",
      "start": 1547.51,
      "duration": 4.59
    },
    {
      "text": "lives can get destroyed and it is too",
      "start": 1549.429,
      "duration": 4.351
    },
    {
      "text": "powerful a weapon to put in the hands of",
      "start": 1552.1,
      "duration": 3.84
    },
    {
      "text": "anyone which is why for thousands of",
      "start": 1553.78,
      "duration": 5.85
    },
    {
      "text": "years the development was you don't be",
      "start": 1555.94,
      "duration": 6.42
    },
    {
      "text": "alone right look Mike Pence says he",
      "start": 1559.63,
      "duration": 3.84
    },
    {
      "text": "doesn't have dinner with women who are",
      "start": 1562.36,
      "duration": 2.67
    },
    {
      "text": "not his wife people like oh that's crazy",
      "start": 1563.47,
      "duration": 4.41
    },
    {
      "text": "and after the me too it's like yeah that",
      "start": 1565.03,
      "duration": 6.57
    },
    {
      "text": "makes a good sense so it's around",
      "start": 1567.88,
      "duration": 5.64
    },
    {
      "text": "prevention just don't be in situations",
      "start": 1571.6,
      "duration": 4.02
    },
    {
      "text": "where you can be compromised and this is",
      "start": 1573.52,
      "duration": 2.61
    },
    {
      "text": "happening now",
      "start": 1575.62,
      "duration": 2.07
    },
    {
      "text": "anyway it's happening as a reaction",
      "start": 1576.13,
      "duration": 3
    },
    {
      "text": "right so the me2 movement has now",
      "start": 1577.69,
      "duration": 3.84
    },
    {
      "text": "produced an entire generation of men who",
      "start": 1579.13,
      "duration": 3.63
    },
    {
      "text": "are afraid to mentor women who are",
      "start": 1581.53,
      "duration": 2.73
    },
    {
      "text": "afraid to hire women who are afraid to",
      "start": 1582.76,
      "duration": 3.63
    },
    {
      "text": "travel with women who are afraid to ask",
      "start": 1584.26,
      "duration": 4.02
    },
    {
      "text": "women out for drinks if everyone else is",
      "start": 1586.39,
      "duration": 4.019
    },
    {
      "text": "going who are afraid to be alone with a",
      "start": 1588.28,
      "duration": 3.66
    },
    {
      "text": "woman there of course professors who",
      "start": 1590.409,
      "duration": 2.721
    },
    {
      "text": "will never",
      "start": 1591.94,
      "duration": 2.66
    },
    {
      "text": "anyone into the office without the door",
      "start": 1593.13,
      "duration": 3.12
    },
    {
      "text": "open without somebody else present and",
      "start": 1594.6,
      "duration": 5.96
    },
    {
      "text": "so this avoidance of situations wherein",
      "start": 1596.25,
      "duration": 7.05
    },
    {
      "text": "there's no way to determine the truth or",
      "start": 1600.56,
      "duration": 4.66
    },
    {
      "text": "the lie of an accusation but lives will",
      "start": 1603.3,
      "duration": 3.33
    },
    {
      "text": "be destroyed anyway we're kind of",
      "start": 1605.22,
      "duration": 3.63
    },
    {
      "text": "getting that sexual morality back it's",
      "start": 1606.63,
      "duration": 5.25
    },
    {
      "text": "um it's what was it Murray Rothbard",
      "start": 1608.85,
      "duration": 5.16
    },
    {
      "text": "called it the great relearning or",
      "start": 1611.88,
      "duration": 3.36
    },
    {
      "text": "something like that where he'd say you",
      "start": 1614.01,
      "duration": 3.21
    },
    {
      "text": "know in the 60s that be all these",
      "start": 1615.24,
      "duration": 3.57
    },
    {
      "text": "hippies who would say hey man let's just",
      "start": 1617.22,
      "duration": 3.18
    },
    {
      "text": "not wash and let's all live together and",
      "start": 1618.81,
      "duration": 2.88
    },
    {
      "text": "let's all sleep together and then they'd",
      "start": 1620.4,
      "duration": 3.36
    },
    {
      "text": "all get like scabies and and horrible",
      "start": 1621.69,
      "duration": 4.14
    },
    {
      "text": "things like oh yeah that's why we wash",
      "start": 1623.76,
      "duration": 3.36
    },
    {
      "text": "and that's why we don't all sleep",
      "start": 1625.83,
      "duration": 3.39
    },
    {
      "text": "together and the same things happening",
      "start": 1627.12,
      "duration": 3.6
    },
    {
      "text": "with STDs they say I mean there's just",
      "start": 1629.22,
      "duration": 2.46
    },
    {
      "text": "this great relearning",
      "start": 1630.72,
      "duration": 2.31
    },
    {
      "text": "same things happening with national debt",
      "start": 1631.68,
      "duration": 2.61
    },
    {
      "text": "like we never learned anything for",
      "start": 1633.03,
      "duration": 3.06
    },
    {
      "text": "currency debasement and open borders",
      "start": 1634.29,
      "duration": 3.81
    },
    {
      "text": "policies of the late Roman Empire anyway",
      "start": 1636.09,
      "duration": 4.02
    },
    {
      "text": "there is this great relearning and of",
      "start": 1638.1,
      "duration": 3.3
    },
    {
      "text": "course the goal of philosophy is so we",
      "start": 1640.11,
      "duration": 2.28
    },
    {
      "text": "don't have to learn from bitter",
      "start": 1641.4,
      "duration": 2.46
    },
    {
      "text": "experience but we can learn from sweet",
      "start": 1642.39,
      "duration": 3.96
    },
    {
      "text": "reason ahead of time but here's my Baker",
      "start": 1643.86,
      "duration": 3.9
    },
    {
      "text": "it's a basic issue this is what bothers",
      "start": 1646.35,
      "duration": 8.1
    },
    {
      "text": "me the most about all of this stuff the",
      "start": 1647.76,
      "duration": 8.7
    },
    {
      "text": "inability fundamentally for just people",
      "start": 1654.45,
      "duration": 5.22
    },
    {
      "text": "to tell the truth look we get it we all",
      "start": 1656.46,
      "duration": 5.25
    },
    {
      "text": "get it if you're against Donald Trump",
      "start": 1659.67,
      "duration": 4.98
    },
    {
      "text": "it's because you or someone close to you",
      "start": 1661.71,
      "duration": 4.71
    },
    {
      "text": "is getting free stuff from the",
      "start": 1664.65,
      "duration": 4.77
    },
    {
      "text": "government and that free stuff could be",
      "start": 1666.42,
      "duration": 4.23
    },
    {
      "text": "welfare could be military-industrial",
      "start": 1669.42,
      "duration": 3.66
    },
    {
      "text": "complex could be all the benefits that",
      "start": 1670.65,
      "duration": 4.26
    },
    {
      "text": "come if you cross the border illegally",
      "start": 1673.08,
      "duration": 4.71
    },
    {
      "text": "it could be citizenship it could be h-1b",
      "start": 1674.91,
      "duration": 4.98
    },
    {
      "text": "visas it could be any number of things",
      "start": 1677.79,
      "duration": 3.93
    },
    {
      "text": "that the politicians sell see the",
      "start": 1679.89,
      "duration": 3.63
    },
    {
      "text": "politicians ran out of poor people in",
      "start": 1681.72,
      "duration": 3.48
    },
    {
      "text": "the 50s and 60s and so they had to",
      "start": 1683.52,
      "duration": 3.66
    },
    {
      "text": "import and generate poor people through",
      "start": 1685.2,
      "duration": 3.3
    },
    {
      "text": "immigration in the welfare state in",
      "start": 1687.18,
      "duration": 2.85
    },
    {
      "text": "order to continue to have an underclass",
      "start": 1688.5,
      "duration": 4.11
    },
    {
      "text": "that they could sell the stolen goods of",
      "start": 1690.03,
      "duration": 4.32
    },
    {
      "text": "the rich and middle class in order to",
      "start": 1692.61,
      "duration": 3.57
    },
    {
      "text": "buy votes I mean they'd say it the",
      "start": 1694.35,
      "duration": 3.03
    },
    {
      "text": "government is in the business of giving",
      "start": 1696.18,
      "duration": 3.6
    },
    {
      "text": "away free stuff and if the population as",
      "start": 1697.38,
      "duration": 4.08
    },
    {
      "text": "a whole becomes wealthier they need the",
      "start": 1699.78,
      "duration": 3.24
    },
    {
      "text": "government to protect their property not",
      "start": 1701.46,
      "duration": 2.82
    },
    {
      "text": "give them free stuff and you can't have",
      "start": 1703.02,
      "duration": 2.58
    },
    {
      "text": "any of that so you've got to keep",
      "start": 1704.28,
      "duration": 4.71
    },
    {
      "text": "generating poor people and so you do",
      "start": 1705.6,
      "duration": 5.01
    },
    {
      "text": "that with that education you do that",
      "start": 1708.99,
      "duration": 3
    },
    {
      "text": "with the welfare state you do that with",
      "start": 1710.61,
      "duration": 3.3
    },
    {
      "text": "immigration from third world countries",
      "start": 1711.99,
      "duration": 3.9
    },
    {
      "text": "so you continue to have a dependent",
      "start": 1713.91,
      "duration": 3.69
    },
    {
      "text": "class of people you don't have to make",
      "start": 1715.89,
      "duration": 3.27
    },
    {
      "text": "any recent arguments - you just have to",
      "start": 1717.6,
      "duration": 3.96
    },
    {
      "text": "dangle the infinite explodey Santa Claus",
      "start": 1719.16,
      "duration": 5.07
    },
    {
      "text": "of free stuff read read also like",
      "start": 1721.56,
      "duration": 3.92
    },
    {
      "text": "communism",
      "start": 1724.23,
      "duration": 5.51
    },
    {
      "text": "and so there's like I have to hop the",
      "start": 1725.48,
      "duration": 5.85
    },
    {
      "text": "American households there now dependent",
      "start": 1729.74,
      "duration": 4.01
    },
    {
      "text": "either directly or indirectly either",
      "start": 1731.33,
      "duration": 4.89
    },
    {
      "text": "massively exclusively or significantly",
      "start": 1733.75,
      "duration": 3.97
    },
    {
      "text": "on the government for the rincon and",
      "start": 1736.22,
      "duration": 3.75
    },
    {
      "text": "with Donald Trump coming in there is",
      "start": 1737.72,
      "duration": 4.47
    },
    {
      "text": "this fear that he's going to interrupt",
      "start": 1739.97,
      "duration": 6.569
    },
    {
      "text": "the flow of free stuff we all understand",
      "start": 1742.19,
      "duration": 7.05
    },
    {
      "text": "that right there is this fear now that",
      "start": 1746.539,
      "duration": 4.62
    },
    {
      "text": "bothers to people that bothers people",
      "start": 1749.24,
      "duration": 3.24
    },
    {
      "text": "who are on the receiving end of the free",
      "start": 1751.159,
      "duration": 2.821
    },
    {
      "text": "stuff and it also bothers people who are",
      "start": 1752.48,
      "duration": 3.12
    },
    {
      "text": "on the delivery end of free stuff",
      "start": 1753.98,
      "duration": 3.96
    },
    {
      "text": "because that whole tight horrifying game",
      "start": 1755.6,
      "duration": 5.069
    },
    {
      "text": "that they play is being threatened so we",
      "start": 1757.94,
      "duration": 5.64
    },
    {
      "text": "get it we get it you're afraid that the",
      "start": 1760.669,
      "duration": 6.48
    },
    {
      "text": "scam the ride the bribe the consumption",
      "start": 1763.58,
      "duration": 5.849
    },
    {
      "text": "of stolen goods might come to an end but",
      "start": 1767.149,
      "duration": 4.89
    },
    {
      "text": "first first of all newsflash it's gonna",
      "start": 1769.429,
      "duration": 4.051
    },
    {
      "text": "come to an end anyway because math",
      "start": 1772.039,
      "duration": 3.35
    },
    {
      "text": "mathematics that which mathematically",
      "start": 1773.48,
      "duration": 4.98
    },
    {
      "text": "cannot continue shockingly will not",
      "start": 1775.389,
      "duration": 6.551
    },
    {
      "text": "continue so you want your free stuff now",
      "start": 1778.46,
      "duration": 4.89
    },
    {
      "text": "you have to make up all of this weird",
      "start": 1781.94,
      "duration": 4.41
    },
    {
      "text": "sexual morality stuff I get that you",
      "start": 1783.35,
      "duration": 4.35
    },
    {
      "text": "have you have to pretend that it's about",
      "start": 1786.35,
      "duration": 2.97
    },
    {
      "text": "sexual ethics and you have to pretend",
      "start": 1787.7,
      "duration": 3.359
    },
    {
      "text": "that it's about a protection of",
      "start": 1789.32,
      "duration": 3.449
    },
    {
      "text": "democracy and a desperate fear of",
      "start": 1791.059,
      "duration": 3.811
    },
    {
      "text": "rational collusion and a concern that",
      "start": 1792.769,
      "duration": 4.201
    },
    {
      "text": "he's this or that or the I like you have",
      "start": 1794.87,
      "duration": 5.939
    },
    {
      "text": "to make up all these lies to cover up",
      "start": 1796.97,
      "duration": 5.91
    },
    {
      "text": "the basic fact that you either would",
      "start": 1800.809,
      "duration": 3.571
    },
    {
      "text": "want to keep getting free stuff or you",
      "start": 1802.88,
      "duration": 4.639
    },
    {
      "text": "want to keep handing out free stuff",
      "start": 1804.38,
      "duration": 3.139
    },
    {
      "text": "right you we understand that this is",
      "start": 1807.82,
      "duration": 5.859
    },
    {
      "text": "this is completely clear to anybody with",
      "start": 1812.149,
      "duration": 4.111
    },
    {
      "text": "half a brain and what bothers me is the",
      "start": 1813.679,
      "duration": 4.62
    },
    {
      "text": "fundamental twisty-turny Ness and the",
      "start": 1816.26,
      "duration": 6.419
    },
    {
      "text": "fundamental falsification of that the",
      "start": 1818.299,
      "duration": 7.921
    },
    {
      "text": "left does not care that Donald Trump",
      "start": 1822.679,
      "duration": 6.151
    },
    {
      "text": "might have had sex with a porn star over",
      "start": 1826.22,
      "duration": 6.449
    },
    {
      "text": "ten years ago they don't because they're",
      "start": 1828.83,
      "duration": 6.12
    },
    {
      "text": "entirely behind other people with far",
      "start": 1832.669,
      "duration": 4.74
    },
    {
      "text": "worse sexual histories and so there's no",
      "start": 1834.95,
      "duration": 5.219
    },
    {
      "text": "principle there the principle is they",
      "start": 1837.409,
      "duration": 4.171
    },
    {
      "text": "hate on a Trump because he interferes",
      "start": 1840.169,
      "duration": 6.081
    },
    {
      "text": "with their thirst for power he is a",
      "start": 1841.58,
      "duration": 9.599
    },
    {
      "text": "white wealthy alpha male who treasures",
      "start": 1846.25,
      "duration": 7.169
    },
    {
      "text": "and values Western civilization",
      "start": 1851.179,
      "duration": 6.421
    },
    {
      "text": "nationalism borders and is growing the",
      "start": 1853.419,
      "duration": 6.251
    },
    {
      "text": "economy again you grow the economy",
      "start": 1857.6,
      "duration": 4.38
    },
    {
      "text": "you've more people get jobs that is a",
      "start": 1859.67,
      "duration": 3.75
    },
    {
      "text": "shift from people who are taking from",
      "start": 1861.98,
      "duration": 3.03
    },
    {
      "text": "the state to people who now want the",
      "start": 1863.42,
      "duration": 3.12
    },
    {
      "text": "state to protect their property rights",
      "start": 1865.01,
      "duration": 4.26
    },
    {
      "text": "you understand so he is stealing from",
      "start": 1866.54,
      "duration": 4.77
    },
    {
      "text": "the Democrat voting base by creating",
      "start": 1869.27,
      "duration": 5.07
    },
    {
      "text": "jobs so he must be stopped",
      "start": 1871.31,
      "duration": 6.72
    },
    {
      "text": "and like all pilferers and pickpockets",
      "start": 1874.34,
      "duration": 8.55
    },
    {
      "text": "and thieves and scam artists they can't",
      "start": 1878.03,
      "duration": 8.52
    },
    {
      "text": "ever be honest about what they do you",
      "start": 1882.89,
      "duration": 7.38
    },
    {
      "text": "know the Nigerian email prints of value",
      "start": 1886.55,
      "duration": 5.19
    },
    {
      "text": "is not gonna openly state that he wants",
      "start": 1890.27,
      "duration": 2.64
    },
    {
      "text": "to rip you off he's got to pretend that",
      "start": 1891.74,
      "duration": 3.48
    },
    {
      "text": "he has value to offer and this is what",
      "start": 1892.91,
      "duration": 5.97
    },
    {
      "text": "bothers me is this fundamental mmm oh",
      "start": 1895.22,
      "duration": 5.28
    },
    {
      "text": "it's almost psychotically delusional",
      "start": 1898.88,
      "duration": 7.97
    },
    {
      "text": "falsification of what's really going on",
      "start": 1900.5,
      "duration": 8.97
    },
    {
      "text": "they want free stuff they want to hand",
      "start": 1906.85,
      "duration": 5.89
    },
    {
      "text": "out free stuff they want to continue to",
      "start": 1909.47,
      "duration": 6.39
    },
    {
      "text": "steal from the productive and they can't",
      "start": 1912.74,
      "duration": 5.31
    },
    {
      "text": "tell the truth about any of that so you",
      "start": 1915.86,
      "duration": 5.19
    },
    {
      "text": "end up in this weird twisty psychotic",
      "start": 1918.05,
      "duration": 4.98
    },
    {
      "text": "brain tunnel of manipulation of pretend",
      "start": 1921.05,
      "duration": 7.37
    },
    {
      "text": "virtue and that makes telling the truth",
      "start": 1923.03,
      "duration": 7.32
    },
    {
      "text": "that much more challenging",
      "start": 1928.42,
      "duration": 4.57
    },
    {
      "text": "it makes lying potentially that much",
      "start": 1930.35,
      "duration": 6.42
    },
    {
      "text": "more profitable and it means that their",
      "start": 1932.99,
      "duration": 6.27
    },
    {
      "text": "fundamental enemy is not Donald Trump",
      "start": 1936.77,
      "duration": 4.26
    },
    {
      "text": "it's not math it's not reality it's not",
      "start": 1939.26,
      "duration": 3.96
    },
    {
      "text": "dead their fundamental energy their",
      "start": 1941.03,
      "duration": 6.03
    },
    {
      "text": "enemy is people like you and I their",
      "start": 1943.22,
      "duration": 8.55
    },
    {
      "text": "fundamental enemies not reality the",
      "start": 1947.06,
      "duration": 7.01
    },
    {
      "text": "truth",
      "start": 1951.77,
      "duration": 2.3
    },
    {
      "text": "you",
      "start": 1960.39,
      "duration": 2.06
    }
  ],
  "Errors": null,
  "TranscriptStderr": null
}