[
    {
        "start": "0.11",
        "dur": "3.849",
        "text": "hi everybody it's deven molyneux from"
    },
    {
        "start": "2.49",
        "dur": "4.98",
        "text": "freedomain radio I hope that you're"
    },
    {
        "start": "3.959",
        "dur": "5.941",
        "text": "doing very well this is the intro to the"
    },
    {
        "start": "7.47",
        "dur": "5.94",
        "text": "sunday Colin show 2 p.m. eastern"
    },
    {
        "start": "9.9",
        "dur": "7.65",
        "text": "standard time that would be sundaes it's"
    },
    {
        "start": "13.41",
        "dur": "6.84",
        "text": "July the 10th 2011 just a few points of"
    },
    {
        "start": "17.55",
        "dur": "6.27",
        "text": "business if you would like to sign up to"
    },
    {
        "start": "20.25",
        "dur": "5.22",
        "text": "see a Peter Schiff is coming and Tom"
    },
    {
        "start": "23.82",
        "dur": "4.289",
        "text": "Woods is coming and Adam Kokesh is"
    },
    {
        "start": "25.47",
        "dur": "5.639",
        "text": "coming and I will be helping clean up"
    },
    {
        "start": "28.109",
        "dur": "4.981",
        "text": "there crumbs at at lunchtime and I also"
    },
    {
        "start": "31.109",
        "dur": "3.751",
        "text": "may be doing a little speech actually I"
    },
    {
        "start": "33.09",
        "dur": "5.58",
        "text": "will be doing a speech at the Liberty"
    },
    {
        "start": "34.86",
        "dur": "5.609",
        "text": "fast to in New York City LF nyc.com you"
    },
    {
        "start": "38.67",
        "dur": "4.26",
        "text": "can get discounts that i'll post them on"
    },
    {
        "start": "40.469",
        "dur": "4.261",
        "text": "the on the freedomain radio message"
    },
    {
        "start": "42.93",
        "dur": "3.21",
        "text": "board and i hope that you will come by"
    },
    {
        "start": "44.73",
        "dur": "4.23",
        "text": "very very important to support these"
    },
    {
        "start": "46.14",
        "dur": "4.649",
        "text": "conferences and i think it's well worth"
    },
    {
        "start": "48.96",
        "dur": "3.06",
        "text": "coming to see people because most of the"
    },
    {
        "start": "50.789",
        "dur": "2.491",
        "text": "speakers and i certainly will be there"
    },
    {
        "start": "52.02",
        "dur": "3.179",
        "text": "all weekend so if you want to have a"
    },
    {
        "start": "53.28",
        "dur": "3.689",
        "text": "chance to chat sit down have a coffee I"
    },
    {
        "start": "55.199",
        "dur": "3.511",
        "text": "would love to always love to meet the"
    },
    {
        "start": "56.969",
        "dur": "7.501",
        "text": "the readers to hope you'll come by for"
    },
    {
        "start": "58.71",
        "dur": "8.61",
        "text": "that so news of the world one of the"
    },
    {
        "start": "64.47",
        "dur": "5.49",
        "text": "worst newspapers on record although a"
    },
    {
        "start": "67.32",
        "dur": "5.22",
        "text": "really great Queen album from the 1970s"
    },
    {
        "start": "69.96",
        "dur": "5.339",
        "text": "a news of the world has bitten the dust"
    },
    {
        "start": "72.54",
        "dur": "4.23",
        "text": "and what I think is interesting about"
    },
    {
        "start": "75.299",
        "dur": "5.581",
        "text": "this is the reason that they've gone out"
    },
    {
        "start": "76.77",
        "dur": "7.29",
        "text": "of bidness is because they hacked into"
    },
    {
        "start": "80.88",
        "dur": "5.79",
        "text": "some cell phones of some some people and"
    },
    {
        "start": "84.06",
        "dur": "4.23",
        "text": "I guess grab their voicemail messages or"
    },
    {
        "start": "86.67",
        "dur": "3.96",
        "text": "text messages or something like that and"
    },
    {
        "start": "88.29",
        "dur": "5.85",
        "text": "this was considered egregious enough"
    },
    {
        "start": "90.63",
        "dur": "5.879",
        "text": "that the population roused themselves"
    },
    {
        "start": "94.14",
        "dur": "5.28",
        "text": "from their torpid slumber rebelled"
    },
    {
        "start": "96.509",
        "dur": "5.281",
        "text": "against this malfeasance of journalistic"
    },
    {
        "start": "99.42",
        "dur": "4.44",
        "text": "integrity and have forced Rupert Murdoch"
    },
    {
        "start": "101.79",
        "dur": "4.859",
        "text": "to well not forced encouraged Rupert"
    },
    {
        "start": "103.86",
        "dur": "4.23",
        "text": "Murdoch to to close down the paper it's"
    },
    {
        "start": "106.649",
        "dur": "3.33",
        "text": "very interesting when you think about it"
    },
    {
        "start": "108.09",
        "dur": "3.48",
        "text": "the advertisers have pulled because of"
    },
    {
        "start": "109.979",
        "dur": "5.221",
        "text": "general hora and this is why this"
    },
    {
        "start": "111.57",
        "dur": "5.46",
        "text": "tabloid is with the toast it sleeps with"
    },
    {
        "start": "115.2",
        "dur": "6.84",
        "text": "the fishes what's fascinating about this"
    },
    {
        "start": "117.03",
        "dur": "7.159",
        "text": "is that this newspaper you put itself"
    },
    {
        "start": "122.04",
        "dur": "4.89",
        "text": "forward as a friend of the troops but"
    },
    {
        "start": "124.189",
        "dur": "4.871",
        "text": "blindly swallowed and reproduced and"
    },
    {
        "start": "126.93",
        "dur": "5.61",
        "text": "amplified the government propaganda"
    },
    {
        "start": "129.06",
        "dur": "4.68",
        "text": "about not one but two completely"
    },
    {
        "start": "132.54",
        "dur": "2.54",
        "text": "unnecessary Wars"
    },
    {
        "start": "133.74",
        "dur": "5.85",
        "text": "of course that England got themselves"
    },
    {
        "start": "135.08",
        "dur": "6.31",
        "text": "involved in after 911 and this doesn't"
    },
    {
        "start": "139.59",
        "dur": "3.84",
        "text": "speak so much to the integrity of the"
    },
    {
        "start": "141.39",
        "dur": "3.84",
        "text": "journalists because that's like speaking"
    },
    {
        "start": "143.43",
        "dur": "4.62",
        "text": "about the flight capacities of snails"
    },
    {
        "start": "145.23",
        "dur": "4.5",
        "text": "but what it does do is it speaks to the"
    },
    {
        "start": "148.05",
        "dur": "5.1",
        "text": "general ethics of the general public"
    },
    {
        "start": "149.73",
        "dur": "5.52",
        "text": "that the general public cheers and"
    },
    {
        "start": "153.15",
        "dur": "6.33",
        "text": "supports the newspaper when it blatantly"
    },
    {
        "start": "155.25",
        "dur": "6.09",
        "text": "reproduces very obvious lies about WMDs"
    },
    {
        "start": "159.48",
        "dur": "6.38",
        "text": "and the motivations for England to go to"
    },
    {
        "start": "161.34",
        "dur": "7.23",
        "text": "war in Afghanistan and Iraq people are"
    },
    {
        "start": "165.86",
        "dur": "4.3",
        "text": "a-okay with that they supported they"
    },
    {
        "start": "168.57",
        "dur": "4.89",
        "text": "cheer it and they continue to buy it but"
    },
    {
        "start": "170.16",
        "dur": "6.18",
        "text": "hack into a few cell phones and suddenly"
    },
    {
        "start": "173.46",
        "dur": "6.87",
        "text": "the mob turns ugly and the advertisers"
    },
    {
        "start": "176.34",
        "dur": "5.76",
        "text": "flee in panic and the newspaper sighs"
    },
    {
        "start": "180.33",
        "dur": "5.13",
        "text": "and falls over really quite fascinating"
    },
    {
        "start": "182.1",
        "dur": "7.68",
        "text": "if you look at the general category of"
    },
    {
        "start": "185.46",
        "dur": "7.02",
        "text": "human crimes the million-plus murders"
    },
    {
        "start": "189.78",
        "dur": "4.32",
        "text": "and the many millions of dislocations to"
    },
    {
        "start": "192.48",
        "dur": "3.36",
        "text": "shattering of an entire society the"
    },
    {
        "start": "194.1",
        "dur": "3.09",
        "text": "deaths of millions of children through"
    },
    {
        "start": "195.84",
        "dur": "3.45",
        "text": "malnutrition and lack of access to"
    },
    {
        "start": "197.19",
        "dur": "6.63",
        "text": "medical care that have characterized the"
    },
    {
        "start": "199.29",
        "dur": "7.38",
        "text": "wars in Afghanistan and Iraq it's sort"
    },
    {
        "start": "203.82",
        "dur": "4.77",
        "text": "of in one category of moral crime that"
    },
    {
        "start": "206.67",
        "dur": "6.45",
        "text": "this newspaper supported and encouraged"
    },
    {
        "start": "208.59",
        "dur": "7.17",
        "text": "and amplified hacking into a cell phone"
    },
    {
        "start": "213.12",
        "dur": "4.98",
        "text": "would not seem to me to be in the same"
    },
    {
        "start": "215.76",
        "dur": "4.98",
        "text": "or in a higher category of moral"
    },
    {
        "start": "218.1",
        "dur": "5.36",
        "text": "egregiousness but the British public in"
    },
    {
        "start": "220.74",
        "dur": "7.82",
        "text": "their moral wisdom and understanding"
    },
    {
        "start": "223.46",
        "dur": "8.41",
        "text": "have felt otherwise it's just a snapshot"
    },
    {
        "start": "228.56",
        "dur": "5.05",
        "text": "you know morale a society morality move"
    },
    {
        "start": "231.87",
        "dur": "3.3",
        "text": "very fast but every now and then you get"
    },
    {
        "start": "233.61",
        "dur": "5.4",
        "text": "a flashbulb stop-motion photography"
    },
    {
        "start": "235.17",
        "dur": "8.49",
        "text": "moment where you look at the true ethics"
    },
    {
        "start": "239.01",
        "dur": "6.72",
        "text": "of the species and it's pretty"
    },
    {
        "start": "243.66",
        "dur": "5.39",
        "text": "stomach-turning here's another one that"
    },
    {
        "start": "245.73",
        "dur": "5.67",
        "text": "I think is interesting so a researcher a"
    },
    {
        "start": "249.05",
        "dur": "3.88",
        "text": "professor of psychology at Southern"
    },
    {
        "start": "251.4",
        "dur": "2.55",
        "text": "Methodist University whose published"
    },
    {
        "start": "252.93",
        "dur": "3.48",
        "text": "five books on parenting and child"
    },
    {
        "start": "253.95",
        "dur": "4.53",
        "text": "development he went to daycares in"
    },
    {
        "start": "256.41",
        "dur": "3.329",
        "text": "Dallas to recruit recruit parents and he"
    },
    {
        "start": "258.48",
        "dur": "3",
        "text": "said listen I'm just going to record"
    },
    {
        "start": "259.739",
        "dur": "2.611",
        "text": "general parent-child interactions I'm"
    },
    {
        "start": "261.48",
        "dur": "6.92",
        "text": "not looking for anything in particular"
    },
    {
        "start": "262.35",
        "dur": "6.05",
        "text": "but he did exclude people parents who"
    },
    {
        "start": "268.58",
        "dur": "3.22",
        "text": "said that they never yelled at their"
    },
    {
        "start": "270.63",
        "dur": "4.379",
        "text": "kids and he said there really weren't"
    },
    {
        "start": "271.8",
        "dur": "5.1",
        "text": "very many of those at all but he said he"
    },
    {
        "start": "275.009",
        "dur": "3.511",
        "text": "wanted to he wanted to study yelling via"
    },
    {
        "start": "276.9",
        "dur": "3.48",
        "text": "voluntary audio recordings of parents"
    },
    {
        "start": "278.52",
        "dur": "3.66",
        "text": "conducting life at home the pedestrian"
    },
    {
        "start": "280.38",
        "dur": "6.659",
        "text": "stuff of parenting like meal prep bath"
    },
    {
        "start": "282.18",
        "dur": "7.32",
        "text": "time and lights out and so on so in the"
    },
    {
        "start": "287.039",
        "dur": "4.741",
        "text": "course of analyzing the data collected"
    },
    {
        "start": "289.5",
        "dur": "4.53",
        "text": "from 37 families 36 mothers and one"
    },
    {
        "start": "291.78",
        "dur": "4.25",
        "text": "father all of whom recorded up to 36"
    },
    {
        "start": "294.03",
        "dur": "4.32",
        "text": "hours of audio in six days of study"
    },
    {
        "start": "296.03",
        "dur": "4.3",
        "text": "researchers heard the sharp cracks and"
    },
    {
        "start": "298.35",
        "dur": "3.39",
        "text": "dull thuds of spanking followed in some"
    },
    {
        "start": "300.33",
        "dur": "3.36",
        "text": "cases by minutes of crying then"
    },
    {
        "start": "301.74",
        "dur": "3.27",
        "text": "inadvertently captured evidence of"
    },
    {
        "start": "303.69",
        "dur": "3.87",
        "text": "corporal punishment as well as the tense"
    },
    {
        "start": "305.01",
        "dur": "4.56",
        "text": "moments before and the resolution after"
    },
    {
        "start": "307.56",
        "dur": "3.51",
        "text": "leading researchers to believe they'd"
    },
    {
        "start": "309.57",
        "dur": "5.76",
        "text": "amassed the first ever cache of"
    },
    {
        "start": "311.07",
        "dur": "5.73",
        "text": "real-time spanking data the recordings"
    },
    {
        "start": "315.33",
        "dur": "3.51",
        "text": "feature a mother spanking her"
    },
    {
        "start": "316.8",
        "dur": "4.47",
        "text": "three-year-old son 11 times for fighting"
    },
    {
        "start": "318.84",
        "dur": "5.699",
        "text": "with his sister prompting a fit of"
    },
    {
        "start": "321.27",
        "dur": "4.679",
        "text": "crying and coughing another mom hits her"
    },
    {
        "start": "324.539",
        "dur": "3.63",
        "text": "5 year old when he won't clean up his"
    },
    {
        "start": "325.949",
        "dur": "3.571",
        "text": "room one mom slaps her child when he"
    },
    {
        "start": "328.169",
        "dur": "4.591",
        "text": "doesn't cooperate with the bedtime"
    },
    {
        "start": "329.52",
        "dur": "5.04",
        "text": "routine yet it's likely that the mothers"
    },
    {
        "start": "332.76",
        "dur": "4.86",
        "text": "in the study didn't consider spanking to"
    },
    {
        "start": "334.56",
        "dur": "6.51",
        "text": "be problematic parenting in the 90s"
    },
    {
        "start": "337.62",
        "dur": "4.799",
        "text": "Halden conducted research that showed"
    },
    {
        "start": "341.07",
        "dur": "4.17",
        "text": "seventy percent of college-educated"
    },
    {
        "start": "342.419",
        "dur": "4.201",
        "text": "women spank their children other studies"
    },
    {
        "start": "345.24",
        "dur": "4.04",
        "text": "have found that up to ninety percent of"
    },
    {
        "start": "346.62",
        "dur": "4.979",
        "text": "all parents use corporal punishment"
    },
    {
        "start": "349.28",
        "dur": "3.58",
        "text": "which is of course a spanking and"
    },
    {
        "start": "351.599",
        "dur": "2.911",
        "text": "corporal punishment just metaphors for"
    },
    {
        "start": "352.86",
        "dur": "3.929",
        "text": "hitting you can't be ten times somebody"
    },
    {
        "start": "354.51",
        "dur": "4.95",
        "text": "sighs and hit them and then use a"
    },
    {
        "start": "356.789",
        "dur": "7.021",
        "text": "euphemism with any sense of realism so"
    },
    {
        "start": "359.46",
        "dur": "6.42",
        "text": "in one a truly tragic example and this"
    },
    {
        "start": "363.81",
        "dur": "4.859",
        "text": "is remember this is parents who know"
    },
    {
        "start": "365.88",
        "dur": "4.23",
        "text": "that they're being recorded so this is"
    },
    {
        "start": "368.669",
        "dur": "3.901",
        "text": "not behavior that they're ashamed of or"
    },
    {
        "start": "370.11",
        "dur": "4.14",
        "text": "feel as negative and probably they"
    },
    {
        "start": "372.57",
        "dur": "4.89",
        "text": "limited their aggression because of the"
    },
    {
        "start": "374.25",
        "dur": "5.76",
        "text": "recordings but in one instance that was"
    },
    {
        "start": "377.46",
        "dur": "5.37",
        "text": "truly heartbreaking a mom was reading to"
    },
    {
        "start": "380.01",
        "dur": "5.129",
        "text": "her son who was I think three or four"
    },
    {
        "start": "382.83",
        "dur": "4.85",
        "text": "and her son was moving turning the pages"
    },
    {
        "start": "385.139",
        "dur": "8.131",
        "text": "too fast for his mother to keep up and"
    },
    {
        "start": "387.68",
        "dur": "9.039",
        "text": "she slapped him slapped him almost all"
    },
    {
        "start": "393.27",
        "dur": "5.06",
        "text": "parenting experts reject the value of"
    },
    {
        "start": "396.719",
        "dur": "3.331",
        "text": "spanking and scientifically it shows"
    },
    {
        "start": "398.33",
        "dur": "2.62",
        "text": "associated with significant behavioral"
    },
    {
        "start": "400.05",
        "dur": "3.72",
        "text": "problems"
    },
    {
        "start": "400.95",
        "dur": "4.8",
        "text": "rebellion lowered IQ points higher"
    },
    {
        "start": "403.77",
        "dur": "4.47",
        "text": "incidence of aggression it's incredibly"
    },
    {
        "start": "405.75",
        "dur": "3.99",
        "text": "destructive towards children but very"
    },
    {
        "start": "408.24",
        "dur": "3.6",
        "text": "few parenting experts will come out"
    },
    {
        "start": "409.74",
        "dur": "3.45",
        "text": "against spanking clearly as when you"
    },
    {
        "start": "411.84",
        "dur": "3.27",
        "text": "have parenting books they will dodge the"
    },
    {
        "start": "413.19",
        "dur": "6.3",
        "text": "question of spanking because it's just a"
    },
    {
        "start": "415.11",
        "dur": "9.33",
        "text": "volatile but to me it's very simple it's"
    },
    {
        "start": "419.49",
        "dur": "8.01",
        "text": "very simple and anyone with a tenth of"
    },
    {
        "start": "424.44",
        "dur": "5.13",
        "text": "an ounce of of moral empathy and"
    },
    {
        "start": "427.5",
        "dur": "4.38",
        "text": "compassion and integrity will understand"
    },
    {
        "start": "429.57",
        "dur": "6.29",
        "text": "this that the non-aggression principle"
    },
    {
        "start": "431.88",
        "dur": "6.59",
        "text": "applies first and foremost to children"
    },
    {
        "start": "435.86",
        "dur": "5.17",
        "text": "the non-aggression principle wrote"
    },
    {
        "start": "438.47",
        "dur": "6.04",
        "text": "applies first and foremost to children"
    },
    {
        "start": "441.03",
        "dur": "5.76",
        "text": "and if you children are hitting other"
    },
    {
        "start": "444.51",
        "dur": "5.22",
        "text": "children you have to ask them we have to"
    },
    {
        "start": "446.79",
        "dur": "9.24",
        "text": "ask yourselves why there was a dr. Phil"
    },
    {
        "start": "449.73",
        "dur": "10.17",
        "text": "recently blew my mind where a dad who's"
    },
    {
        "start": "456.03",
        "dur": "6.12",
        "text": "14 year old daughter was acting out what"
    },
    {
        "start": "459.9",
        "dur": "5.64",
        "text": "was being aggressive and and problematic"
    },
    {
        "start": "462.15",
        "dur": "5.28",
        "text": "and when I guess dr. Phil's team"
    },
    {
        "start": "465.54",
        "dur": "4.56",
        "text": "interviewed the teachers of sorry"
    },
    {
        "start": "467.43",
        "dur": "5.25",
        "text": "interviewed the family they found the"
    },
    {
        "start": "470.1",
        "dur": "7.95",
        "text": "following behaviors on the part of the"
    },
    {
        "start": "472.68",
        "dur": "7.26",
        "text": "father that he had hit her hard enough"
    },
    {
        "start": "478.05",
        "dur": "4.47",
        "text": "to cause deep bruising of which there"
    },
    {
        "start": "479.94",
        "dur": "4.35",
        "text": "were photographs that he had hit her"
    },
    {
        "start": "482.52",
        "dur": "4.2",
        "text": "hard enough to cause facial bleeding"
    },
    {
        "start": "484.29",
        "dur": "5.34",
        "text": "through the nose and that he had choked"
    },
    {
        "start": "486.72",
        "dur": "5.73",
        "text": "her hard enough while holding her up"
    },
    {
        "start": "489.63",
        "dur": "9.45",
        "text": "against the wall that she had lost"
    },
    {
        "start": "492.45",
        "dur": "10.23",
        "text": "consciousness dr. Phil actually said to"
    },
    {
        "start": "499.08",
        "dur": "8.07",
        "text": "the parents I know that you are loving"
    },
    {
        "start": "502.68",
        "dur": "6.24",
        "text": "concerned parents we're just picture"
    },
    {
        "start": "507.15",
        "dur": "5.13",
        "text": "saying that to a victim of spousal abuse"
    },
    {
        "start": "508.92",
        "dur": "5.61",
        "text": "he's got some husband who's twice the"
    },
    {
        "start": "512.28",
        "dur": "4.53",
        "text": "size of his wife who's beaten her up"
    },
    {
        "start": "514.53",
        "dur": "6.81",
        "text": "regularly screamed at her and the father"
    },
    {
        "start": "516.81",
        "dur": "7.2",
        "text": "admitted to calling his daughter a bitch"
    },
    {
        "start": "521.34",
        "dur": "4.05",
        "text": "a i think it was it's hard to say"
    },
    {
        "start": "524.01",
        "dur": "2.81",
        "text": "because they bleeped out the word but"
    },
    {
        "start": "525.39",
        "dur": "3.8",
        "text": "i'm pretty sure that's what it was and"
    },
    {
        "start": "526.82",
        "dur": "5.8",
        "text": "other words that were just staggeringly"
    },
    {
        "start": "529.19",
        "dur": "6.61",
        "text": "abusive and imagined that there's a"
    },
    {
        "start": "532.62",
        "dur": "5.04",
        "text": "a husband twice the size of a wife had"
    },
    {
        "start": "535.8",
        "dur": "3.51",
        "text": "beaten her nose bloody had put bruises"
    },
    {
        "start": "537.66",
        "dur": "3.119",
        "text": "on her a choker into unconsciousness and"
    },
    {
        "start": "539.31",
        "dur": "3.5",
        "text": "then someone saying to the husband I"
    },
    {
        "start": "540.779",
        "dur": "5.931",
        "text": "know that you're an attentive and loving"
    },
    {
        "start": "542.81",
        "dur": "8.469",
        "text": "husband who deeply cares about his wife"
    },
    {
        "start": "546.71",
        "dur": "6.76",
        "text": "it's unimaginable but we're still the"
    },
    {
        "start": "551.279",
        "dur": "5.161",
        "text": "distance is is almost interstellar we"
    },
    {
        "start": "553.47",
        "dur": "5.91",
        "text": "are still so far from being able to see"
    },
    {
        "start": "556.44",
        "dur": "4.89",
        "text": "children as moral equivalence to human"
    },
    {
        "start": "559.38",
        "dur": "3.51",
        "text": "beings and I to adults and I would"
    },
    {
        "start": "561.33",
        "dur": "3.84",
        "text": "absolutely an actively argue that"
    },
    {
        "start": "562.89",
        "dur": "5.34",
        "text": "children should have a far higher status"
    },
    {
        "start": "565.17",
        "dur": "5.609",
        "text": "of moral protection than any adult"
    },
    {
        "start": "568.23",
        "dur": "3.93",
        "text": "because there tend to youth and the"
    },
    {
        "start": "570.779",
        "dur": "5.041",
        "text": "effect that their parents and teachers"
    },
    {
        "start": "572.16",
        "dur": "5.55",
        "text": "and preachers have had upon them and it"
    },
    {
        "start": "575.82",
        "dur": "4.32",
        "text": "really is truly staggering to see what"
    },
    {
        "start": "577.71",
        "dur": "5.36",
        "text": "is going on in society about all of this"
    },
    {
        "start": "580.14",
        "dur": "6.12",
        "text": "and I hope I hope that if your parents"
    },
    {
        "start": "583.07",
        "dur": "4.81",
        "text": "you a visit notes bancnet or look at my"
    },
    {
        "start": "586.26",
        "dur": "3.66",
        "text": "philosophical parenting podcasts or"
    },
    {
        "start": "587.88",
        "dur": "3.959",
        "text": "whatever resource you need so that you"
    },
    {
        "start": "589.92",
        "dur": "6.33",
        "text": "do not raise your voice and you do not"
    },
    {
        "start": "591.839",
        "dur": "6.511",
        "text": "hit your children I know the parents say"
    },
    {
        "start": "596.25",
        "dur": "4.47",
        "text": "the children can be frustrating I don't"
    },
    {
        "start": "598.35",
        "dur": "3.72",
        "text": "find it myself I mean I I don't find it"
    },
    {
        "start": "600.72",
        "dur": "2.85",
        "text": "I find my son my daughter as a complete"
    },
    {
        "start": "602.07",
        "dur": "2.78",
        "text": "delight to spend time with and the idea"
    },
    {
        "start": "603.57",
        "dur": "3.42",
        "text": "of yelling at her or hitting her is just"
    },
    {
        "start": "604.85",
        "dur": "4.239",
        "text": "astonishing to me but I know the parent"
    },
    {
        "start": "606.99",
        "dur": "5.13",
        "text": "but really I mean if you want your"
    },
    {
        "start": "609.089",
        "dur": "4.5",
        "text": "children to be mature right then you"
    },
    {
        "start": "612.12",
        "dur": "2.94",
        "text": "need to be mature yourself if you want"
    },
    {
        "start": "613.589",
        "dur": "2.611",
        "text": "your children to avoid violence and"
    },
    {
        "start": "615.06",
        "dur": "2.58",
        "text": "shine aggression then you need to avoid"
    },
    {
        "start": "616.2",
        "dur": "3.57",
        "text": "violence and shown aggression yourself"
    },
    {
        "start": "617.64",
        "dur": "4.139",
        "text": "that's verbal or physical you know if"
    },
    {
        "start": "619.77",
        "dur": "6.509",
        "text": "you want your kids to eat vegetables you"
    },
    {
        "start": "621.779",
        "dur": "6.391",
        "text": "need to eat vegetables right if you want"
    },
    {
        "start": "626.279",
        "dur": "4.351",
        "text": "your children to be peaceful you need to"
    },
    {
        "start": "628.17",
        "dur": "4.46",
        "text": "be peaceful they learn what they see not"
    },
    {
        "start": "630.63",
        "dur": "6.66",
        "text": "what they hear they learn what they feel"
    },
    {
        "start": "632.63",
        "dur": "6.97",
        "text": "not what they listen to and then and"
    },
    {
        "start": "637.29",
        "dur": "6",
        "text": "then you will be rewarded with I think"
    },
    {
        "start": "639.6",
        "dur": "6.3",
        "text": "some just truly delightful behavior my"
    },
    {
        "start": "643.29",
        "dur": "5.34",
        "text": "daughter she's so funny and i don't mean"
    },
    {
        "start": "645.9",
        "dur": "4.11",
        "text": "funny like um you know it's so cute you"
    },
    {
        "start": "648.63",
        "dur": "4.13",
        "text": "mistakes words or whatever i mean that's"
    },
    {
        "start": "650.01",
        "dur": "6.75",
        "text": "that's funny in q2 but because she's i"
    },
    {
        "start": "652.76",
        "dur": "5.44",
        "text": "think 35 pounds now you know you get"
    },
    {
        "start": "656.76",
        "dur": "2.79",
        "text": "some clothes on her and and a few"
    },
    {
        "start": "658.2",
        "dur": "3.389",
        "text": "carrying her on your hip it can take"
    },
    {
        "start": "659.55",
        "dur": "3.48",
        "text": "quite a while sorry and you're walking"
    },
    {
        "start": "661.589",
        "dur": "4.831",
        "text": "for quite a while you can get sort of"
    },
    {
        "start": "663.03",
        "dur": "5.46",
        "text": "tiring and so I'm sort of saying to her"
    },
    {
        "start": "666.42",
        "dur": "3.27",
        "text": "cakes you're so heavy Oh gonna have to"
    },
    {
        "start": "668.49",
        "dur": "3.899",
        "text": "walk for a while because she's a real"
    },
    {
        "start": "669.69",
        "dur": "5.85",
        "text": "lat baby she loves to be she loves to be"
    },
    {
        "start": "672.389",
        "dur": "5.25",
        "text": "in in my my arms or my wife's eyes and"
    },
    {
        "start": "675.54",
        "dur": "6.51",
        "text": "so I sort of thing that there oh it's so"
    },
    {
        "start": "677.639",
        "dur": "6.75",
        "text": "heavy anyway so the other day she she"
    },
    {
        "start": "682.05",
        "dur": "4.349",
        "text": "wanted to be picked up I'm walking back"
    },
    {
        "start": "684.389",
        "dur": "3.421",
        "text": "from the park and then I picked her up"
    },
    {
        "start": "686.399",
        "dur": "2.701",
        "text": "and she looked at me for a moment and"
    },
    {
        "start": "687.81",
        "dur": "4.38",
        "text": "then she threw a head back and she said"
    },
    {
        "start": "689.1",
        "dur": "6.27",
        "text": "ah data Isabella so heavy oh I'm so"
    },
    {
        "start": "692.19",
        "dur": "5.73",
        "text": "heavy oh my goodness I'm so heavy in a"
    },
    {
        "start": "695.37",
        "dur": "5.55",
        "text": "perfect imitation like Tone perfect"
    },
    {
        "start": "697.92",
        "dur": "5.01",
        "text": "imitation of what I say and this a truly"
    },
    {
        "start": "700.92",
        "dur": "3.93",
        "text": "made me just fall down laughing it was"
    },
    {
        "start": "702.93",
        "dur": "2.82",
        "text": "just so funny and she's doing that stuff"
    },
    {
        "start": "704.85",
        "dur": "2.52",
        "text": "quite a bit I think she's got a"
    },
    {
        "start": "705.75",
        "dur": "4.23",
        "text": "delicious sense of humor and is a"
    },
    {
        "start": "707.37",
        "dur": "4.589",
        "text": "fantastic mimic and they really are a"
    },
    {
        "start": "709.98",
        "dur": "4.289",
        "text": "small mirror held up to your own nature"
    },
    {
        "start": "711.959",
        "dur": "3.81",
        "text": "so I hope that that is held out a little"
    },
    {
        "start": "714.269",
        "dur": "3.361",
        "text": "bit as a reward for parents who give up"
    },
    {
        "start": "715.769",
        "dur": "4.231",
        "text": "on aggression just that wonderfully"
    },
    {
        "start": "717.63",
        "dur": "4.259",
        "text": "playful kind of interaction with your"
    },
    {
        "start": "720",
        "dur": "3.269",
        "text": "children I'm sure you have that as well"
    },
    {
        "start": "721.889",
        "dur": "3.901",
        "text": "but I think you'll have it even more and"
    },
    {
        "start": "723.269",
        "dur": "4.351",
        "text": "more consistently so I hope that is is"
    },
    {
        "start": "725.79",
        "dur": "3.18",
        "text": "encouraging to parents and thank you to"
    },
    {
        "start": "727.62",
        "dur": "3.149",
        "text": "all the parents who write to me to say"
    },
    {
        "start": "728.97",
        "dur": "3.54",
        "text": "that they've given up on aggression as a"
    },
    {
        "start": "730.769",
        "dur": "3.291",
        "text": "result of what I've talked about I mean"
    },
    {
        "start": "732.51",
        "dur": "4.92",
        "text": "I just his incredible honor and I"
    },
    {
        "start": "734.06",
        "dur": "5.41",
        "text": "massively admire respect and praise I"
    },
    {
        "start": "737.43",
        "dur": "3.269",
        "text": "would kiss the feet of those parents yay"
    },
    {
        "start": "739.47",
        "dur": "2.58",
        "text": "verily though had they had walked"
    },
    {
        "start": "740.699",
        "dur": "3.061",
        "text": "through the valley of poo poo I would"
    },
    {
        "start": "742.05",
        "dur": "3.18",
        "text": "kiss their feet for the service that"
    },
    {
        "start": "743.76",
        "dur": "3.3",
        "text": "they're doing to the world to the"
    },
    {
        "start": "745.23",
        "dur": "3.69",
        "text": "children to the future and to the piece"
    },
    {
        "start": "747.06",
        "dur": "3.3",
        "text": "of this planet so thank you everybody so"
    },
    {
        "start": "748.92",
        "dur": "2.76",
        "text": "much we will now go to the listeners I"
    },
    {
        "start": "750.36",
        "dur": "3.8",
        "text": "hope you're having a wonderful week ever"
    },
    {
        "start": "751.68",
        "dur": "2.48",
        "text": "talk to you soon"
    }
]