[
    {
        "start": "0.03",
        "dur": "6.24",
        "text": "so President Obama has released his plan"
    },
    {
        "start": "3.27",
        "dur": "5.49",
        "text": "before deferring deportation threats"
    },
    {
        "start": "6.27",
        "dur": "4.619",
        "text": "against four to five million illegal"
    },
    {
        "start": "8.76",
        "dur": "4.14",
        "text": "immigrants within the US borders based"
    },
    {
        "start": "10.889",
        "dur": "3.811",
        "text": "upon a variety of criteria that you can"
    },
    {
        "start": "12.9",
        "dur": "4.62",
        "text": "look up if you want but what's"
    },
    {
        "start": "14.7",
        "dur": "6.36",
        "text": "interesting is how passionately he opens"
    },
    {
        "start": "17.52",
        "dur": "6.69",
        "text": "up his speech with regards to diversity"
    },
    {
        "start": "21.06",
        "dur": "5.49",
        "text": "so Obama starts off by saying for more"
    },
    {
        "start": "24.21",
        "dur": "3.809",
        "text": "than 200 years our tradition of"
    },
    {
        "start": "26.55",
        "dur": "2.45",
        "text": "welcoming immigrants from around the"
    },
    {
        "start": "28.019",
        "dur": "4.321",
        "text": "world has given us a tremendous"
    },
    {
        "start": "29",
        "dur": "7.079",
        "text": "advantage over other nations it's kept"
    },
    {
        "start": "32.34",
        "dur": "6.51",
        "text": "us youthful dynamic and entrepreneurial"
    },
    {
        "start": "36.079",
        "dur": "5.831",
        "text": "it has shaped our character as a people"
    },
    {
        "start": "38.85",
        "dur": "5.52",
        "text": "with limitless possibilities people not"
    },
    {
        "start": "41.91",
        "dur": "6.51",
        "text": "trapped by our past but able to remake"
    },
    {
        "start": "44.37",
        "dur": "5.79",
        "text": "ourselves as we choose now it's such a"
    },
    {
        "start": "48.42",
        "dur": "3.63",
        "text": "common trope that it's become sort of"
    },
    {
        "start": "50.16",
        "dur": "3.87",
        "text": "like gravity or breathing nobody what he"
    },
    {
        "start": "52.05",
        "dur": "4.47",
        "text": "thinks about it but why is"
    },
    {
        "start": "54.03",
        "dur": "4.079",
        "text": "multiculturalism considered to be so"
    },
    {
        "start": "56.52",
        "dur": "4.44",
        "text": "great it's always praised"
    },
    {
        "start": "58.109",
        "dur": "5.581",
        "text": "but with no facts whatsoever and there"
    },
    {
        "start": "60.96",
        "dur": "4.349",
        "text": "are considerable facts that point out"
    },
    {
        "start": "63.69",
        "dur": "3.51",
        "text": "the degree to which multiculturalism is"
    },
    {
        "start": "65.309",
        "dur": "4.321",
        "text": "really bad Harvard professor of"
    },
    {
        "start": "67.2",
        "dur": "4.169",
        "text": "political sciences Robert D Putnam"
    },
    {
        "start": "69.63",
        "dur": "4.26",
        "text": "conducted nearly a decade long study how"
    },
    {
        "start": "71.369",
        "dur": "5.551",
        "text": "diversity effects social trust surveyed"
    },
    {
        "start": "73.89",
        "dur": "5.07",
        "text": "over 26,000 people in 40 US communities"
    },
    {
        "start": "76.92",
        "dur": "3.69",
        "text": "and even when adjusting for class income"
    },
    {
        "start": "78.96",
        "dur": "3.089",
        "text": "and other factors the more racially"
    },
    {
        "start": "80.61",
        "dur": "3.48",
        "text": "diverse a community is the greater the"
    },
    {
        "start": "82.049",
        "dur": "3.331",
        "text": "loss of trust as he writes people in"
    },
    {
        "start": "84.09",
        "dur": "2.55",
        "text": "diverse communities don't trust the"
    },
    {
        "start": "85.38",
        "dur": "2.61",
        "text": "local mayor they don't trust the local"
    },
    {
        "start": "86.64",
        "dur": "3.869",
        "text": "paper they don't trust other people and"
    },
    {
        "start": "87.99",
        "dur": "4.05",
        "text": "they don't trust institutions he says in"
    },
    {
        "start": "90.509",
        "dur": "3.661",
        "text": "the presence of significant ethnic"
    },
    {
        "start": "92.04",
        "dur": "3.75",
        "text": "diversity quote we hunker down we act"
    },
    {
        "start": "94.17",
        "dur": "3.659",
        "text": "that turtles the effect of diversity is"
    },
    {
        "start": "95.79",
        "dur": "3.18",
        "text": "worse than had been imagined and it's"
    },
    {
        "start": "97.829",
        "dur": "2.58",
        "text": "not just that we don't trust people who"
    },
    {
        "start": "98.97",
        "dur": "3.03",
        "text": "are not like us in diverse communities"
    },
    {
        "start": "100.409",
        "dur": "4.441",
        "text": "we don't trust people who are looking"
    },
    {
        "start": "102",
        "dur": "5.07",
        "text": "like us relatively homogeneous societies"
    },
    {
        "start": "104.85",
        "dur": "3.659",
        "text": "according to ethologist Frank Salter he"
    },
    {
        "start": "107.07",
        "dur": "3.36",
        "text": "says they invest more in public goods"
    },
    {
        "start": "108.509",
        "dur": "2.581",
        "text": "indicating a higher level of public"
    },
    {
        "start": "110.43",
        "dur": "1.829",
        "text": "altruism"
    },
    {
        "start": "111.09",
        "dur": "2.819",
        "text": "the degree of ethnic homogeneity"
    },
    {
        "start": "112.259",
        "dur": "3",
        "text": "correlates with the government's share"
    },
    {
        "start": "113.909",
        "dur": "3.301",
        "text": "of gross domestic products as well as"
    },
    {
        "start": "115.259",
        "dur": "3.841",
        "text": "the average wealth of citizens case"
    },
    {
        "start": "117.21",
        "dur": "4.32",
        "text": "studies of the US find that multi-ethnic"
    },
    {
        "start": "119.1",
        "dur": "3.9",
        "text": "societies are less charitable and less"
    },
    {
        "start": "121.53",
        "dur": "3.78",
        "text": "able to cooperate to develop public"
    },
    {
        "start": "123",
        "dur": "3.899",
        "text": "infrastructure a recent multi-city study"
    },
    {
        "start": "125.31",
        "dur": "3.72",
        "text": "of municipal spending on public goods in"
    },
    {
        "start": "126.899",
        "dur": "3.931",
        "text": "the u.s. found that ethnically or"
    },
    {
        "start": "129.03",
        "dur": "3.36",
        "text": "racially diverse cities spend a smaller"
    },
    {
        "start": "130.83",
        "dur": "3",
        "text": "portion of their budgets and less per"
    },
    {
        "start": "132.39",
        "dur": "5.58",
        "text": "capita on public services"
    },
    {
        "start": "133.83",
        "dur": "6.5",
        "text": "than do more homogeneous cities how is"
    },
    {
        "start": "137.97",
        "dur": "4.5",
        "text": "this multicultural particularly"
    },
    {
        "start": "140.33",
        "dur": "4.81",
        "text": "multilingual Tower of Babel supposed to"
    },
    {
        "start": "142.47",
        "dur": "4.29",
        "text": "benefit society as a whole and why is it"
    },
    {
        "start": "145.14",
        "dur": "3.45",
        "text": "that only the white majority that is"
    },
    {
        "start": "146.76",
        "dur": "3.54",
        "text": "supposed to embrace diversity may"
    },
    {
        "start": "148.59",
        "dur": "3.63",
        "text": "Detroit is over 90 percent black have"
    },
    {
        "start": "150.3",
        "dur": "3.9",
        "text": "not seen anyone criticize Detroit for"
    },
    {
        "start": "152.22",
        "dur": "5.01",
        "text": "its lack of diversity or Japan or China"
    },
    {
        "start": "154.2",
        "dur": "5.07",
        "text": "or sub-saharan Africa or Egypt or Israel"
    },
    {
        "start": "157.23",
        "dur": "3.63",
        "text": "for that matter if diversity is such a"
    },
    {
        "start": "159.27",
        "dur": "3.6",
        "text": "good thing why not focus on the least"
    },
    {
        "start": "160.86",
        "dur": "4.08",
        "text": "diverse countries and nag them to import"
    },
    {
        "start": "162.87",
        "dur": "4.62",
        "text": "different races and cultures why always"
    },
    {
        "start": "164.94",
        "dur": "4.32",
        "text": "focus on America Canada Europe and so on"
    },
    {
        "start": "167.49",
        "dur": "4.02",
        "text": "these countries tend to be more diverse"
    },
    {
        "start": "169.26",
        "dur": "2.7",
        "text": "than most why continually push diversity"
    },
    {
        "start": "171.51",
        "dur": "2.1",
        "text": "there"
    },
    {
        "start": "171.96",
        "dur": "3.51",
        "text": "it certainly doesn't have anything to do"
    },
    {
        "start": "173.61",
        "dur": "4.17",
        "text": "with objectively promoting the value of"
    },
    {
        "start": "175.47",
        "dur": "4.83",
        "text": "diversity Obama then goes on to say that"
    },
    {
        "start": "177.78",
        "dur": "4.32",
        "text": "for the past six years illegal border"
    },
    {
        "start": "180.3",
        "dur": "3.86",
        "text": "crossings have been cut by more than"
    },
    {
        "start": "182.1",
        "dur": "2.06",
        "text": "half"
    },
    {
        "start": "184.29",
        "dur": "3.45",
        "text": "it's not because of any increased or"
    },
    {
        "start": "186.03",
        "dur": "3.24",
        "text": "better enforcement it's mostly to do"
    },
    {
        "start": "187.74",
        "dur": "6.18",
        "text": "with the fact that the US economy have"
    },
    {
        "start": "189.27",
        "dur": "6.3",
        "text": "collapsed in 2007 2008 in fact despite"
    },
    {
        "start": "193.92",
        "dur": "3.18",
        "text": "significant increases in the budgets and"
    },
    {
        "start": "195.57",
        "dur": "3.36",
        "text": "manpower of Border Patrol's the"
    },
    {
        "start": "197.1",
        "dur": "4.2",
        "text": "us-mexico border is about as porous as"
    },
    {
        "start": "198.93",
        "dur": "3.63",
        "text": "ever one day people will not mind us Lee"
    },
    {
        "start": "201.3",
        "dur": "2.97",
        "text": "except that increasing a government"
    },
    {
        "start": "202.56",
        "dur": "4.17",
        "text": "budget means automatically improving an"
    },
    {
        "start": "204.27",
        "dur": "4.62",
        "text": "outcome but it looks like that day was"
    },
    {
        "start": "206.73",
        "dur": "3.78",
        "text": "not yesterday now that's an interesting"
    },
    {
        "start": "208.89",
        "dur": "3.45",
        "text": "kind of doublespeak that shows up in a"
    },
    {
        "start": "210.51",
        "dur": "3.69",
        "text": "speech as well Obama talks about I'll"
    },
    {
        "start": "212.34",
        "dur": "4.56",
        "text": "make it easier and faster for"
    },
    {
        "start": "214.2",
        "dur": "4.65",
        "text": "high-skilled immigrants graduates and"
    },
    {
        "start": "216.9",
        "dur": "4.559",
        "text": "entrepreneurs to stay and contribute to"
    },
    {
        "start": "218.85",
        "dur": "4.47",
        "text": "our economy this is the beginning of a"
    },
    {
        "start": "221.459",
        "dur": "4.351",
        "text": "fascinating revolving door of high"
    },
    {
        "start": "223.32",
        "dur": "4.53",
        "text": "political doublespeak first of all Obama"
    },
    {
        "start": "225.81",
        "dur": "3.51",
        "text": "talks about high value immigrants ie"
    },
    {
        "start": "227.85",
        "dur": "4.139",
        "text": "those with skills and significant"
    },
    {
        "start": "229.32",
        "dur": "3.99",
        "text": "economic value this is designed to"
    },
    {
        "start": "231.989",
        "dur": "3.781",
        "text": "assuage the fears of those who are"
    },
    {
        "start": "233.31",
        "dur": "4.35",
        "text": "concerned about the possibility of"
    },
    {
        "start": "235.77",
        "dur": "3.78",
        "text": "low-skill migrants entering the u.s."
    },
    {
        "start": "237.66",
        "dur": "4.2",
        "text": "perhaps squatting at the welfare trough"
    },
    {
        "start": "239.55",
        "dur": "6.87",
        "text": "and further breaking the backs of state"
    },
    {
        "start": "241.86",
        "dur": "10.83",
        "text": "and federal budgets and this of course"
    },
    {
        "start": "246.42",
        "dur": "9.78",
        "text": "comes on the heels of studies which talk"
    },
    {
        "start": "252.69",
        "dur": "5.01",
        "text": "about how each illegal immigrant costs"
    },
    {
        "start": "256.2",
        "dur": "3.45",
        "text": "the country about twenty four thousand"
    },
    {
        "start": "257.7",
        "dur": "3.659",
        "text": "dollars a year but an average each of"
    },
    {
        "start": "259.65",
        "dur": "4.59",
        "text": "course only pays ten thousand dollars a"
    },
    {
        "start": "261.359",
        "dur": "4.111",
        "text": "year in taxes so each illegal really"
    },
    {
        "start": "264.24",
        "dur": "3.179",
        "text": "adds about fourteen thousand dollars a"
    },
    {
        "start": "265.47",
        "dur": "2.73",
        "text": "year to the country's debt burden here"
    },
    {
        "start": "267.419",
        "dur": "2.371",
        "text": "at 14"
    },
    {
        "start": "268.2",
        "dur": "3.63",
        "text": "thousand by five million illegal"
    },
    {
        "start": "269.79",
        "dur": "4.86",
        "text": "immigrants who might get amnesty and"
    },
    {
        "start": "271.83",
        "dur": "5.07",
        "text": "that's seventy billion billion dollars"
    },
    {
        "start": "274.65",
        "dur": "3.78",
        "text": "and if you think that the average"
    },
    {
        "start": "276.9",
        "dur": "3.99",
        "text": "full-time worker in the u.s. earns about"
    },
    {
        "start": "278.43",
        "dur": "3.9",
        "text": "fifty grand a year in taxes pays twenty"
    },
    {
        "start": "280.89",
        "dur": "4.02",
        "text": "five percent or twelve thousand five"
    },
    {
        "start": "282.33",
        "dur": "4.65",
        "text": "hundred and income taxes how many jobs"
    },
    {
        "start": "284.91",
        "dur": "3.96",
        "text": "need to be created to offset the seventy"
    },
    {
        "start": "286.98",
        "dur": "3.48",
        "text": "billion that will have to be paid if the"
    },
    {
        "start": "288.87",
        "dur": "3.96",
        "text": "president grants amnesty to five million"
    },
    {
        "start": "290.46",
        "dur": "4.02",
        "text": "illegal immigrants and Etsy divides"
    },
    {
        "start": "292.83",
        "dur": "3.24",
        "text": "seventy billion by twelve thousand five"
    },
    {
        "start": "294.48",
        "dur": "3.72",
        "text": "hundred and you get five point six"
    },
    {
        "start": "296.07",
        "dur": "6.45",
        "text": "million new full-time jobs is that"
    },
    {
        "start": "298.2",
        "dur": "7.14",
        "text": "really possible of course not since 2009"
    },
    {
        "start": "302.52",
        "dur": "5.04",
        "text": "the US economy is only added about six"
    },
    {
        "start": "305.34",
        "dur": "5.31",
        "text": "million jobs you get five million new"
    },
    {
        "start": "307.56",
        "dur": "4.17",
        "text": "workers you've got 1 million work visas"
    },
    {
        "start": "310.65",
        "dur": "3.69",
        "text": "already granted by the Obama"
    },
    {
        "start": "311.73",
        "dur": "4.41",
        "text": "administration and you cannot possibly"
    },
    {
        "start": "314.34",
        "dur": "4.2",
        "text": "make a dent in unemployment particularly"
    },
    {
        "start": "316.14",
        "dur": "5.94",
        "text": "unemployment among the poor lower"
    },
    {
        "start": "318.54",
        "dur": "6.27",
        "text": "classes with this kind of situation so"
    },
    {
        "start": "322.08",
        "dur": "5.04",
        "text": "of course Obama has to talk about"
    },
    {
        "start": "324.81",
        "dur": "4.59",
        "text": "high-skilled immigrants graduates and"
    },
    {
        "start": "327.12",
        "dur": "6.08",
        "text": "entrepreneurs so the people don't worry"
    },
    {
        "start": "329.4",
        "dur": "6.75",
        "text": "about people who if you make like"
    },
    {
        "start": "333.2",
        "dur": "4.75",
        "text": "$24,000 a year then you're not going to"
    },
    {
        "start": "336.15",
        "dur": "4.77",
        "text": "be paying any federal income taxes at"
    },
    {
        "start": "337.95",
        "dur": "5.46",
        "text": "all but pretty much so he has to talk"
    },
    {
        "start": "340.92",
        "dur": "5.37",
        "text": "about high value immigrants to us watch"
    },
    {
        "start": "343.41",
        "dur": "4.47",
        "text": "people's fear about people coming in who"
    },
    {
        "start": "346.29",
        "dur": "3.6",
        "text": "are going to be a drain on government"
    },
    {
        "start": "347.88",
        "dur": "3.42",
        "text": "Treasuries but of course it's hard to"
    },
    {
        "start": "349.89",
        "dur": "3.51",
        "text": "drum up the necessary socialist"
    },
    {
        "start": "351.3",
        "dur": "4.26",
        "text": "sympathies for Mexican engineers doctors"
    },
    {
        "start": "353.4",
        "dur": "3.6",
        "text": "and entrepreneurs so Obama needs to"
    },
    {
        "start": "355.56",
        "dur": "3.21",
        "text": "reverse the imagery for the second half"
    },
    {
        "start": "357",
        "dur": "4.35",
        "text": "of his speech and he starts talking"
    },
    {
        "start": "358.77",
        "dur": "6.57",
        "text": "about immigrants who work hard often in"
    },
    {
        "start": "361.35",
        "dur": "5.94",
        "text": "tough low-paying jobs he mentions single"
    },
    {
        "start": "365.34",
        "dur": "3.51",
        "text": "mothers well ok which is it these"
    },
    {
        "start": "367.29",
        "dur": "3.24",
        "text": "immigrants high-skilled entrepreneurs"
    },
    {
        "start": "368.85",
        "dur": "3.48",
        "text": "who will create jobs and add value or"
    },
    {
        "start": "370.53",
        "dur": "4.68",
        "text": "are they single mothers and manual"
    },
    {
        "start": "372.33",
        "dur": "4.59",
        "text": "laborers later he says are we a nation"
    },
    {
        "start": "375.21",
        "dur": "3.87",
        "text": "that tolerates the hypocrisy of the"
    },
    {
        "start": "376.92",
        "dur": "5.67",
        "text": "system where workers who pick our fruit"
    },
    {
        "start": "379.08",
        "dur": "5.67",
        "text": "and make our beds never have a chance to"
    },
    {
        "start": "382.59",
        "dur": "3.66",
        "text": "get right with the law well actually"
    },
    {
        "start": "384.75",
        "dur": "2.97",
        "text": "they do have a chance to get right with"
    },
    {
        "start": "386.25",
        "dur": "5.21",
        "text": "the law which is to not enter the"
    },
    {
        "start": "387.72",
        "dur": "5.79",
        "text": "country illegally so that's one answer"
    },
    {
        "start": "391.46",
        "dur": "3.52",
        "text": "so now the entrepreneurs are not high"
    },
    {
        "start": "393.51",
        "dur": "4.35",
        "text": "skilled entrepreneurs but motel maids"
    },
    {
        "start": "394.98",
        "dur": "4.17",
        "text": "and fruit pickers so this is a big"
    },
    {
        "start": "397.86",
        "dur": "3.48",
        "text": "problem if he's talking about how"
    },
    {
        "start": "399.15",
        "dur": "4.11",
        "text": "valuable they are to the economy"
    },
    {
        "start": "401.34",
        "dur": "3.21",
        "text": "then you should need to grab the"
    },
    {
        "start": "403.26",
        "dur": "3.6",
        "text": "Manistee they should be able to come in"
    },
    {
        "start": "404.55",
        "dur": "4.56",
        "text": "pretty easily because they're high value"
    },
    {
        "start": "406.86",
        "dur": "4.47",
        "text": "and they're gonna add money and taxes"
    },
    {
        "start": "409.11",
        "dur": "3.63",
        "text": "and create jobs and so on so it's hard"
    },
    {
        "start": "411.33",
        "dur": "2.52",
        "text": "to have sympathy for those people and of"
    },
    {
        "start": "412.74",
        "dur": "3.03",
        "text": "course those people would do pretty well"
    },
    {
        "start": "413.85",
        "dur": "3.33",
        "text": "in Mexico or other countries as well"
    },
    {
        "start": "415.77",
        "dur": "5.1",
        "text": "well-educated entrepreneurial"
    },
    {
        "start": "417.18",
        "dur": "4.98",
        "text": "intelligence and so on but hmm doesn't"
    },
    {
        "start": "420.87",
        "dur": "3.78",
        "text": "make sense then why they'd be in the"
    },
    {
        "start": "422.16",
        "dur": "6.09",
        "text": "country illegally working as fruit"
    },
    {
        "start": "424.65",
        "dur": "5.31",
        "text": "pickers and bed makers in motel sixes so"
    },
    {
        "start": "428.25",
        "dur": "3.87",
        "text": "he's got a play both sides of the fence"
    },
    {
        "start": "429.96",
        "dur": "3.42",
        "text": "oh don't worry they are really great"
    },
    {
        "start": "432.12",
        "dur": "3.51",
        "text": "entrepreneurs gonna create a lot of jobs"
    },
    {
        "start": "433.38",
        "dur": "4.38",
        "text": "oh but you see they're hardworking"
    },
    {
        "start": "435.63",
        "dur": "3.84",
        "text": "people who have no skills whatsoever so"
    },
    {
        "start": "437.76",
        "dur": "4.23",
        "text": "we need to cut them some slack"
    },
    {
        "start": "439.47",
        "dur": "4.05",
        "text": "Obama then as usual in the speech starts"
    },
    {
        "start": "441.99",
        "dur": "3.899",
        "text": "playing sentimental heartstrings like a"
    },
    {
        "start": "443.52",
        "dur": "3.899",
        "text": "master harpist are we a nation that"
    },
    {
        "start": "445.889",
        "dur": "4.681",
        "text": "accepts the cruelty of ripping children"
    },
    {
        "start": "447.419",
        "dur": "5.851",
        "text": "from their parents arms or are we a"
    },
    {
        "start": "450.57",
        "dur": "6.99",
        "text": "nation that values families and works"
    },
    {
        "start": "453.27",
        "dur": "6.149",
        "text": "together to keep them together so here"
    },
    {
        "start": "457.56",
        "dur": "5.49",
        "text": "Obama is all about keeping families"
    },
    {
        "start": "459.419",
        "dur": "5.131",
        "text": "together and he also quotes scripture"
    },
    {
        "start": "463.05",
        "dur": "2.7",
        "text": "saying you know we should be kind to"
    },
    {
        "start": "464.55",
        "dur": "4.4",
        "text": "strangers were we not strangers"
    },
    {
        "start": "465.75",
        "dur": "5.85",
        "text": "ourselves once and so on well in his"
    },
    {
        "start": "468.95",
        "dur": "4.6",
        "text": "autobiographies he talks a lot about his"
    },
    {
        "start": "471.6",
        "dur": "4.05",
        "text": "fairly extensive drug use when he was"
    },
    {
        "start": "473.55",
        "dur": "4.14",
        "text": "younger so he actually was that stranger"
    },
    {
        "start": "475.65",
        "dur": "3.96",
        "text": "wouldn't it be easier for him to refuse"
    },
    {
        "start": "477.69",
        "dur": "2.81",
        "text": "to prosecute and enforce the insane war"
    },
    {
        "start": "479.61",
        "dur": "3.39",
        "text": "on drugs"
    },
    {
        "start": "480.5",
        "dur": "4.09",
        "text": "Vindictus almost infinitely more to rip"
    },
    {
        "start": "483",
        "dur": "2.94",
        "text": "apart families than anything related to"
    },
    {
        "start": "484.59",
        "dur": "3.48",
        "text": "immigration because he's all about"
    },
    {
        "start": "485.94",
        "dur": "3.93",
        "text": "keeping families together right so why"
    },
    {
        "start": "488.07",
        "dur": "3.569",
        "text": "not abandon the war on drugs which"
    },
    {
        "start": "489.87",
        "dur": "4.47",
        "text": "regularly puts hundreds of thousands of"
    },
    {
        "start": "491.639",
        "dur": "4.53",
        "text": "people in prison the significant portion"
    },
    {
        "start": "494.34",
        "dur": "4.92",
        "text": "of whom are parents and ripping families"
    },
    {
        "start": "496.169",
        "dur": "4.861",
        "text": "apart well you know he's only four"
    },
    {
        "start": "499.26",
        "dur": "3.659",
        "text": "keeping families together when those"
    },
    {
        "start": "501.03",
        "dur": "5.22",
        "text": "families I guess are gonna significantly"
    },
    {
        "start": "502.919",
        "dur": "5.25",
        "text": "vote Democrat or you know if he wants"
    },
    {
        "start": "506.25",
        "dur": "4.26",
        "text": "family cohesion and family unity"
    },
    {
        "start": "508.169",
        "dur": "3.601",
        "text": "why not reform the welfare system so at"
    },
    {
        "start": "510.51",
        "dur": "3.209",
        "text": "least it doesn't penalize couples who"
    },
    {
        "start": "511.77",
        "dur": "3.99",
        "text": "have children while married I mean"
    },
    {
        "start": "513.719",
        "dur": "4.2",
        "text": "particularly in the black community"
    },
    {
        "start": "515.76",
        "dur": "4.44",
        "text": "where I imagine he has some significant"
    },
    {
        "start": "517.919",
        "dur": "3.99",
        "text": "credibility illegitimate see is over"
    },
    {
        "start": "520.2",
        "dur": "3.089",
        "text": "seventy percent has he ever tried at"
    },
    {
        "start": "521.909",
        "dur": "2.731",
        "text": "black men and women for having children"
    },
    {
        "start": "523.289",
        "dur": "3.871",
        "text": "out of wedlock if it's all about keeping"
    },
    {
        "start": "524.64",
        "dur": "5.4",
        "text": "families together well"
    },
    {
        "start": "527.16",
        "dur": "5.01",
        "text": "now I'm not suggesting it as a moral"
    },
    {
        "start": "530.04",
        "dur": "4.95",
        "text": "course of action but he says the idea of"
    },
    {
        "start": "532.17",
        "dur": "4.26",
        "text": "course that you can't round up and kick"
    },
    {
        "start": "534.99",
        "dur": "3.09",
        "text": "out illegal immigrants well that's not"
    },
    {
        "start": "536.43",
        "dur": "3.12",
        "text": "true under President Eisenhower a mere"
    },
    {
        "start": "538.08",
        "dur": "2.91",
        "text": "seven hundred federal agents were able"
    },
    {
        "start": "539.55",
        "dur": "3.84",
        "text": "to kick out hundreds of thousands of"
    },
    {
        "start": "540.99",
        "dur": "4.59",
        "text": "illegal immigrants in the 1950s it's not"
    },
    {
        "start": "543.39",
        "dur": "3.39",
        "text": "that hard to do so it certainly could be"
    },
    {
        "start": "545.58",
        "dur": "2.16",
        "text": "done I'm not saying it should be but"
    },
    {
        "start": "546.78",
        "dur": "6.63",
        "text": "when he says it can't be done"
    },
    {
        "start": "547.74",
        "dur": "7.98",
        "text": "oh I guess he's lying now this appeal to"
    },
    {
        "start": "553.41",
        "dur": "3.63",
        "text": "gosh America was founded on immigrants"
    },
    {
        "start": "555.72",
        "dur": "4.83",
        "text": "and that makes a strong and wonderful"
    },
    {
        "start": "557.04",
        "dur": "5.97",
        "text": "and great as he talks about so he talks"
    },
    {
        "start": "560.55",
        "dur": "4.41",
        "text": "about over the past 200 years and so on"
    },
    {
        "start": "563.01",
        "dur": "3.54",
        "text": "we've had all this wonderful immigration"
    },
    {
        "start": "564.96",
        "dur": "3.27",
        "text": "but the most important fact the most"
    },
    {
        "start": "566.55",
        "dur": "2.76",
        "text": "salient fact the fact that is the"
    },
    {
        "start": "568.23",
        "dur": "3.72",
        "text": "greatest sticking point for those"
    },
    {
        "start": "569.31",
        "dur": "5.46",
        "text": "fearful of new ways of immigration for"
    },
    {
        "start": "571.95",
        "dur": "5.22",
        "text": "most of those past 200 years in America"
    },
    {
        "start": "574.77",
        "dur": "5.55",
        "text": "there was no massive redistributionist"
    },
    {
        "start": "577.17",
        "dur": "6.15",
        "text": "welfare state and this is why people"
    },
    {
        "start": "580.32",
        "dur": "5.13",
        "text": "care about immigration you know which in"
    },
    {
        "start": "583.32",
        "dur": "4.14",
        "text": "a free world is just called moving why"
    },
    {
        "start": "585.45",
        "dur": "3.21",
        "text": "do people care about immigration they"
    },
    {
        "start": "587.46",
        "dur": "2.91",
        "text": "care about immigration because"
    },
    {
        "start": "588.66",
        "dur": "4.08",
        "text": "immigration because of the welfare state"
    },
    {
        "start": "590.37",
        "dur": "4.86",
        "text": "affects their pocketbooks affects their"
    },
    {
        "start": "592.74",
        "dur": "4.38",
        "text": "job opportunities most people don't care"
    },
    {
        "start": "595.23",
        "dur": "3.93",
        "text": "who comes to a country and who lives"
    },
    {
        "start": "597.12",
        "dur": "3.78",
        "text": "there or here but they do care about"
    },
    {
        "start": "599.16",
        "dur": "3.48",
        "text": "their taxes and national debts and"
    },
    {
        "start": "600.9",
        "dur": "4.32",
        "text": "deficits and endless unfunded"
    },
    {
        "start": "602.64",
        "dur": "4.35",
        "text": "liabilities as we mentioned illegal"
    },
    {
        "start": "605.22",
        "dur": "4.23",
        "text": "immigrants cost about 24 K a year"
    },
    {
        "start": "606.99",
        "dur": "5.61",
        "text": "contributing about 10 K a year in taxes"
    },
    {
        "start": "609.45",
        "dur": "5.19",
        "text": "of $14,000 deficit per immigrant has to"
    },
    {
        "start": "612.6",
        "dur": "4.44",
        "text": "be paid for by someone somewhere somehow"
    },
    {
        "start": "614.64",
        "dur": "5.34",
        "text": "and given all of this kick the can down"
    },
    {
        "start": "617.04",
        "dur": "4.05",
        "text": "the road deferrals of democracies it's"
    },
    {
        "start": "619.98",
        "dur": "2.91",
        "text": "likely that our children or"
    },
    {
        "start": "621.09",
        "dur": "3.9",
        "text": "grandchildren will have to pay some"
    },
    {
        "start": "622.89",
        "dur": "4.23",
        "text": "multiple of that $14,000 deficit"
    },
    {
        "start": "624.99",
        "dur": "5.79",
        "text": "counting interest in inflation what"
    },
    {
        "start": "627.12",
        "dur": "5.07",
        "text": "happens when huge waves of non-english"
    },
    {
        "start": "630.78",
        "dur": "4.86",
        "text": "speaking immigrants in particular come"
    },
    {
        "start": "632.19",
        "dur": "6",
        "text": "into a town well I mean it's pretty"
    },
    {
        "start": "635.64",
        "dur": "5.43",
        "text": "expensive to have government schools"
    },
    {
        "start": "638.19",
        "dur": "5.43",
        "text": "that have to deal with a lot of"
    },
    {
        "start": "641.07",
        "dur": "4.05",
        "text": "different languages in native English"
    },
    {
        "start": "643.62",
        "dur": "2.19",
        "text": "speakers who see the property taxes go"
    },
    {
        "start": "645.12",
        "dur": "2.55",
        "text": "up considerably"
    },
    {
        "start": "645.81",
        "dur": "3.42",
        "text": "so that multilingual teachers can"
    },
    {
        "start": "647.67",
        "dur": "2.97",
        "text": "somehow struggle to teach classes full"
    },
    {
        "start": "649.23",
        "dur": "3.39",
        "text": "of children who speak some language"
    },
    {
        "start": "650.64",
        "dur": "3.33",
        "text": "other than English multi language"
    },
    {
        "start": "652.62",
        "dur": "2.79",
        "text": "schools are going to spend less time"
    },
    {
        "start": "653.97",
        "dur": "2.49",
        "text": "teaching kids in any particular language"
    },
    {
        "start": "655.41",
        "dur": "3.69",
        "text": "because they have to try and teach"
    },
    {
        "start": "656.46",
        "dur": "4.02",
        "text": "children in many languages that's"
    },
    {
        "start": "659.1",
        "dur": "3.539",
        "text": "English speakers again"
    },
    {
        "start": "660.48",
        "dur": "4.349",
        "text": "paying significantly more for a"
    },
    {
        "start": "662.639",
        "dur": "2.671",
        "text": "significantly worse education for their"
    },
    {
        "start": "664.829",
        "dur": "2.431",
        "text": "children"
    },
    {
        "start": "665.31",
        "dur": "4.889",
        "text": "that's not something they're going to"
    },
    {
        "start": "667.26",
        "dur": "4.35",
        "text": "want to do because of the welfare state"
    },
    {
        "start": "670.199",
        "dur": "3.091",
        "text": "it's a different situation yeah most"
    },
    {
        "start": "671.61",
        "dur": "3.659",
        "text": "people don't care who moves where on the"
    },
    {
        "start": "673.29",
        "dur": "3.63",
        "text": "other side of town but most people do"
    },
    {
        "start": "675.269",
        "dur": "3.301",
        "text": "care who in effect moves into their"
    },
    {
        "start": "676.92",
        "dur": "3.15",
        "text": "house and starts eating at their table"
    },
    {
        "start": "678.57",
        "dur": "4.019",
        "text": "and taking their food and playing loud"
    },
    {
        "start": "680.07",
        "dur": "4.53",
        "text": "music late at night the modern welfare"
    },
    {
        "start": "682.589",
        "dur": "7.921",
        "text": "state has put us all in the same house"
    },
    {
        "start": "684.6",
        "dur": "7.739",
        "text": "so to speak so yes it it matters now"
    },
    {
        "start": "690.51",
        "dur": "4.439",
        "text": "another aspect of Obama speech that I"
    },
    {
        "start": "692.339",
        "dur": "4.201",
        "text": "think is fairly important is this basic"
    },
    {
        "start": "694.949",
        "dur": "3.781",
        "text": "reality he's creating a Democrat"
    },
    {
        "start": "696.54",
        "dur": "3.72",
        "text": "dependent class of political serfs so"
    },
    {
        "start": "698.73",
        "dur": "3.229",
        "text": "he's only deferring deportations for"
    },
    {
        "start": "700.26",
        "dur": "4.11",
        "text": "three years starting early next year"
    },
    {
        "start": "701.959",
        "dur": "3.81",
        "text": "he's not providing an amnesty that would"
    },
    {
        "start": "704.37",
        "dur": "5.01",
        "text": "free immigrants from any particular"
    },
    {
        "start": "705.769",
        "dur": "6.31",
        "text": "political allegiance now whether"
    },
    {
        "start": "709.38",
        "dur": "6.389",
        "text": "non-citizens can vote well it's being"
    },
    {
        "start": "712.079",
        "dur": "6.091",
        "text": "toyed around with in various political"
    },
    {
        "start": "715.769",
        "dur": "4.351",
        "text": "or venues that used to actually be the"
    },
    {
        "start": "718.17",
        "dur": "4.26",
        "text": "case in the 19th century municipalities"
    },
    {
        "start": "720.12",
        "dur": "3.57",
        "text": "would attract immigrants by saying well"
    },
    {
        "start": "722.43",
        "dur": "2.88",
        "text": "you can vote even if you're not not a"
    },
    {
        "start": "723.69",
        "dur": "5.22",
        "text": "citizen it sort of fell out of favor in"
    },
    {
        "start": "725.31",
        "dur": "4.589",
        "text": "the 1920s but it's still not"
    },
    {
        "start": "728.91",
        "dur": "3.75",
        "text": "inconsiderable"
    },
    {
        "start": "729.899",
        "dur": "4.44",
        "text": "in its effects and there is a problem"
    },
    {
        "start": "732.66",
        "dur": "4.619",
        "text": "you know that some estimates are that I"
    },
    {
        "start": "734.339",
        "dur": "4.891",
        "text": "think in oh wait over six percent of the"
    },
    {
        "start": "737.279",
        "dur": "4.651",
        "text": "votes cast per vote votes cast by"
    },
    {
        "start": "739.23",
        "dur": "5.07",
        "text": "illegals and given how close Al"
    },
    {
        "start": "741.93",
        "dur": "5.61",
        "text": "Franken's election was just a couple of"
    },
    {
        "start": "744.3",
        "dur": "6.24",
        "text": "hundred votes it's very plausible if not"
    },
    {
        "start": "747.54",
        "dur": "4.89",
        "text": "downright virtually certain that given"
    },
    {
        "start": "750.54",
        "dur": "3.63",
        "text": "how many illegal immigrants and how many"
    },
    {
        "start": "752.43",
        "dur": "4.68",
        "text": "recent immigrants vote Democrats a"
    },
    {
        "start": "754.17",
        "dur": "5.219",
        "text": "massive majority vote Democrat that Al"
    },
    {
        "start": "757.11",
        "dur": "6",
        "text": "Franken and others got into power"
    },
    {
        "start": "759.389",
        "dur": "6.331",
        "text": "because of votes from illegal immigrants"
    },
    {
        "start": "763.11",
        "dur": "5.31",
        "text": "and he cast a deciding vote for"
    },
    {
        "start": "765.72",
        "dur": "5.76",
        "text": "Obamacare and so for those who don't"
    },
    {
        "start": "768.42",
        "dur": "4.95",
        "text": "like Obamacare a very strong case can be"
    },
    {
        "start": "771.48",
        "dur": "4.56",
        "text": "made that the reason you have it is"
    },
    {
        "start": "773.37",
        "dur": "4.949",
        "text": "because of votes from illegal immigrants"
    },
    {
        "start": "776.04",
        "dur": "5.159",
        "text": "and of course I mean for a lot of the"
    },
    {
        "start": "778.319",
        "dur": "4.89",
        "text": "Mexicans it's family ties so if your"
    },
    {
        "start": "781.199",
        "dur": "4.531",
        "text": "sister or brother or father or mother"
    },
    {
        "start": "783.209",
        "dur": "3.601",
        "text": "are there because of Democrats aren't"
    },
    {
        "start": "785.73",
        "dur": "2.25",
        "text": "able to stay because the Democrats"
    },
    {
        "start": "786.81",
        "dur": "2.459",
        "text": "you're going to vote Democrat if you're"
    },
    {
        "start": "787.98",
        "dur": "3.479",
        "text": "a citizen and they're not are there in"
    },
    {
        "start": "789.269",
        "dur": "5.161",
        "text": "these deferred deportation and vortexes"
    },
    {
        "start": "791.459",
        "dur": "7.561",
        "text": "so there is a vote by"
    },
    {
        "start": "794.43",
        "dur": "6.15",
        "text": "aspect to what Obama is doing so he's"
    },
    {
        "start": "799.02",
        "dur": "3.69",
        "text": "not giving people a clear path to"
    },
    {
        "start": "800.58",
        "dur": "4.59",
        "text": "citizenship and course citizenship can't"
    },
    {
        "start": "802.71",
        "dur": "3.93",
        "text": "easily be revoked so instead he's kind"
    },
    {
        "start": "805.17",
        "dur": "3",
        "text": "of giving you a three-year leash so the"
    },
    {
        "start": "806.64",
        "dur": "3.81",
        "text": "leashes let out a little bit longer but"
    },
    {
        "start": "808.17",
        "dur": "3.87",
        "text": "it's not removed so Obama is kind of"
    },
    {
        "start": "810.45",
        "dur": "3.329",
        "text": "ensuring the allegiance of generations"
    },
    {
        "start": "812.04",
        "dur": "5.58",
        "text": "of illegal immigrants essentially it's"
    },
    {
        "start": "813.779",
        "dur": "6.12",
        "text": "buying votes this is really cheating in"
    },
    {
        "start": "817.62",
        "dur": "4.71",
        "text": "any democracy but particularly in the"
    },
    {
        "start": "819.899",
        "dur": "4.171",
        "text": "vestiges of the Republic so of course"
    },
    {
        "start": "822.33",
        "dur": "3.75",
        "text": "ideally both Democrats and Republicans"
    },
    {
        "start": "824.07",
        "dur": "3.81",
        "text": "and third parties if they were even"
    },
    {
        "start": "826.08",
        "dur": "3.3",
        "text": "remotely allowed should make their"
    },
    {
        "start": "827.88",
        "dur": "3.6",
        "text": "intellectual economic and ideological"
    },
    {
        "start": "829.38",
        "dur": "4.14",
        "text": "cases to the American people who would"
    },
    {
        "start": "831.48",
        "dur": "3.419",
        "text": "then cast their votes based on their"
    },
    {
        "start": "833.52",
        "dur": "3.72",
        "text": "acceptance or rejection of those"
    },
    {
        "start": "834.899",
        "dur": "3.69",
        "text": "arguments however this is not really how"
    },
    {
        "start": "837.24",
        "dur": "3.48",
        "text": "the Democrats want to do it the"
    },
    {
        "start": "838.589",
        "dur": "3.661",
        "text": "Democrats get most of their funding or"
    },
    {
        "start": "840.72",
        "dur": "4.35",
        "text": "significant portions of their funding"
    },
    {
        "start": "842.25",
        "dur": "4.98",
        "text": "from Hollywood's and forced union dues"
    },
    {
        "start": "845.07",
        "dur": "4.29",
        "text": "and recent immigrants the Democrats"
    },
    {
        "start": "847.23",
        "dur": "4.049",
        "text": "don't really want to engage in a public"
    },
    {
        "start": "849.36",
        "dur": "4.44",
        "text": "discussion of ideals and values rather"
    },
    {
        "start": "851.279",
        "dur": "4.5",
        "text": "they want to import voters funnel money"
    },
    {
        "start": "853.8",
        "dur": "3.36",
        "text": "from forced union dues and play touch a"
    },
    {
        "start": "855.779",
        "dur": "3.361",
        "text": "celebrity at massively expensive"
    },
    {
        "start": "857.16",
        "dur": "3.72",
        "text": "fundraising dinners they don't really"
    },
    {
        "start": "859.14",
        "dur": "5.37",
        "text": "want to appeal to the American public"
    },
    {
        "start": "860.88",
        "dur": "5.7",
        "text": "so for Obama this amnesty occurs right"
    },
    {
        "start": "864.51",
        "dur": "4.019",
        "text": "after a a significant electoral defeat"
    },
    {
        "start": "866.58",
        "dur": "3.3",
        "text": "so to me at least it's a clear case of"
    },
    {
        "start": "868.529",
        "dur": "4.111",
        "text": "failure rampant vote-buying"
    },
    {
        "start": "869.88",
        "dur": "3.99",
        "text": "now there's some people I guess a lot of"
    },
    {
        "start": "872.64",
        "dur": "3.36",
        "text": "people are sort of rumbling about"
    },
    {
        "start": "873.87",
        "dur": "4.89",
        "text": "whether what Obama has done is legal and"
    },
    {
        "start": "876",
        "dur": "4.29",
        "text": "I don't know why does that possibly even"
    },
    {
        "start": "878.76",
        "dur": "3.09",
        "text": "matter just look at the Jonathan Gruber"
    },
    {
        "start": "880.29",
        "dur": "3.12",
        "text": "revelations recently that the"
    },
    {
        "start": "881.85",
        "dur": "3.929",
        "text": "administration has basically lied about"
    },
    {
        "start": "883.41",
        "dur": "4.17",
        "text": "Obama care has changed the law dozens of"
    },
    {
        "start": "885.779",
        "dur": "4.381",
        "text": "times even after Congress has passed it"
    },
    {
        "start": "887.58",
        "dur": "4.02",
        "text": "which is not valid not allowed it's been"
    },
    {
        "start": "890.16",
        "dur": "3.09",
        "text": "able to fulfill almost none of the"
    },
    {
        "start": "891.6",
        "dur": "4.41",
        "text": "promised savings remember you're gonna"
    },
    {
        "start": "893.25",
        "dur": "5.279",
        "text": "save 2,400 dollars on your health care"
    },
    {
        "start": "896.01",
        "dur": "4.23",
        "text": "costs it's not gonna add a dime to the"
    },
    {
        "start": "898.529",
        "dur": "3.841",
        "text": "deficit and you get to keep your dog to"
    },
    {
        "start": "900.24",
        "dur": "4.95",
        "text": "keep your plan and all lies it's all"
    },
    {
        "start": "902.37",
        "dur": "4.98",
        "text": "lies so president who's shown such a"
    },
    {
        "start": "905.19",
        "dur": "3.839",
        "text": "passionate commitment to dishonesty hmm"
    },
    {
        "start": "907.35",
        "dur": "3.42",
        "text": "what does it matter whether it's legal"
    },
    {
        "start": "909.029",
        "dur": "3.901",
        "text": "or not what he does like Bill Clinton"
    },
    {
        "start": "910.77",
        "dur": "3.96",
        "text": "before him but in far more serious ways"
    },
    {
        "start": "912.93",
        "dur": "3.81",
        "text": "Obama has lied to the American public so"
    },
    {
        "start": "914.73",
        "dur": "3.81",
        "text": "repeatedly so passionately and with such"
    },
    {
        "start": "916.74",
        "dur": "3.75",
        "text": "a straight face that anyone who cares to"
    },
    {
        "start": "918.54",
        "dur": "3.63",
        "text": "examine his integrity is as great a fool"
    },
    {
        "start": "920.49",
        "dur": "3.69",
        "text": "as anyone who cares to examine Bernie"
    },
    {
        "start": "922.17",
        "dur": "5.77",
        "text": "Madoff secound system for any potential"
    },
    {
        "start": "924.18",
        "dur": "5.38",
        "text": "discrepancies oh I'm not sure"
    },
    {
        "start": "927.94",
        "dur": "3.66",
        "text": "if this part is narcissism or"
    },
    {
        "start": "929.56",
        "dur": "3.69",
        "text": "megalomania or just again outright"
    },
    {
        "start": "931.6",
        "dur": "3.66",
        "text": "bold-faced line but the fact that Obama"
    },
    {
        "start": "933.25",
        "dur": "3.57",
        "text": "says with a straight face that no one"
    },
    {
        "start": "935.26",
        "dur": "3.66",
        "text": "who has been here for less than five"
    },
    {
        "start": "936.82",
        "dur": "4.26",
        "text": "years gets to stay that that's amazing"
    },
    {
        "start": "938.92",
        "dur": "3.9",
        "text": "and it shows a staggering lack of"
    },
    {
        "start": "941.08",
        "dur": "3.87",
        "text": "insight into basic human cause and"
    },
    {
        "start": "942.82",
        "dur": "4.2",
        "text": "effect does Obama really think that"
    },
    {
        "start": "944.95",
        "dur": "4.11",
        "text": "someone who's only been here for four"
    },
    {
        "start": "947.02",
        "dur": "3.48",
        "text": "years and 11 months is not going to try"
    },
    {
        "start": "949.06",
        "dur": "3.27",
        "text": "and take advantage of this proposed plan"
    },
    {
        "start": "950.5",
        "dur": "4.5",
        "text": "well you know boy another month I'd be"
    },
    {
        "start": "952.33",
        "dur": "5.52",
        "text": "in but I guess you know it's it's a deal"
    },
    {
        "start": "955",
        "dur": "3.69",
        "text": "it's yeah come on we all know what's"
    },
    {
        "start": "957.85",
        "dur": "2.94",
        "text": "gonna happen it's the same thing that"
    },
    {
        "start": "958.69",
        "dur": "3.78",
        "text": "happened to under Reagan a staggering"
    },
    {
        "start": "960.79",
        "dur": "3.99",
        "text": "amount of backdating forgery is gonna"
    },
    {
        "start": "962.47",
        "dur": "5.1",
        "text": "spring up in the wake of this proposed"
    },
    {
        "start": "964.78",
        "dur": "4.8",
        "text": "amnesty an entire industry come to life"
    },
    {
        "start": "967.57",
        "dur": "3.69",
        "text": "overnight they get a masterfully forged"
    },
    {
        "start": "969.58",
        "dur": "4.74",
        "text": "whatever documentation is required to"
    },
    {
        "start": "971.26",
        "dur": "5.19",
        "text": "pass this amnesty test news of this new"
    },
    {
        "start": "974.32",
        "dur": "4.08",
        "text": "forgery industry is gonna spread south"
    },
    {
        "start": "976.45",
        "dur": "4.02",
        "text": "of the border and pre-packaged five-year"
    },
    {
        "start": "978.4",
        "dur": "4.32",
        "text": "amnesty kits will be sold on mass to"
    },
    {
        "start": "980.47",
        "dur": "4.2",
        "text": "potential immigrants the idea that you"
    },
    {
        "start": "982.72",
        "dur": "3.96",
        "text": "can somehow freeze time and rely on the"
    },
    {
        "start": "984.67",
        "dur": "3.87",
        "text": "forthright honesty of people who have"
    },
    {
        "start": "986.68",
        "dur": "4.5",
        "text": "tragically had to adopt subterfuge as a"
    },
    {
        "start": "988.54",
        "dur": "4.83",
        "text": "way of life is complete madness so it's"
    },
    {
        "start": "991.18",
        "dur": "3.99",
        "text": "going to be far more than four or five"
    },
    {
        "start": "993.37",
        "dur": "3.18",
        "text": "million people who are going to end up"
    },
    {
        "start": "995.17",
        "dur": "2.7",
        "text": "being part of this plan and because of"
    },
    {
        "start": "996.55",
        "dur": "3.06",
        "text": "the volume no one's going to be able to"
    },
    {
        "start": "997.87",
        "dur": "3.12",
        "text": "verify the fistful of authentic-looking"
    },
    {
        "start": "999.61",
        "dur": "3.27",
        "text": "documents that they're going to provide"
    },
    {
        "start": "1000.99",
        "dur": "3.3",
        "text": "and so that people are just gonna be"
    },
    {
        "start": "1002.88",
        "dur": "3.99",
        "text": "rubber stamped and it's going to be"
    },
    {
        "start": "1004.29",
        "dur": "3.75",
        "text": "vastly different from it is from what's"
    },
    {
        "start": "1006.87",
        "dur": "2.64",
        "text": "proposed it's just another government"
    },
    {
        "start": "1008.04",
        "dur": "3.18",
        "text": "program which means it's gonna be vastly"
    },
    {
        "start": "1009.51",
        "dur": "3",
        "text": "worse vastly more expensive and vastly"
    },
    {
        "start": "1011.22",
        "dur": "4.11",
        "text": "more inefficient than anyone can"
    },
    {
        "start": "1012.51",
        "dur": "4.17",
        "text": "conceivably guess now I mean I've talked"
    },
    {
        "start": "1015.33",
        "dur": "2.85",
        "text": "a lot of thought about consequences and"
    },
    {
        "start": "1016.68",
        "dur": "3.45",
        "text": "so on I mean just just on a personal"
    },
    {
        "start": "1018.18",
        "dur": "4.02",
        "text": "note I just wanted to say like it's"
    },
    {
        "start": "1020.13",
        "dur": "3.9",
        "text": "incredibly tragic that millions of"
    },
    {
        "start": "1022.2",
        "dur": "4.08",
        "text": "people have to live life in these"
    },
    {
        "start": "1024.03",
        "dur": "4.98",
        "text": "shadows and afraid to drive afraid of"
    },
    {
        "start": "1026.28",
        "dur": "4.2",
        "text": "every police car their heart jolts when"
    },
    {
        "start": "1029.01",
        "dur": "3.12",
        "text": "they hear a siren they're afraid"
    },
    {
        "start": "1030.48",
        "dur": "3.63",
        "text": "sometimes even to see a doctor or"
    },
    {
        "start": "1032.13",
        "dur": "5.1",
        "text": "dentist to go to a hospital that is a"
    },
    {
        "start": "1034.11",
        "dur": "5.76",
        "text": "tragic and harsh existence but it's an"
    },
    {
        "start": "1037.23",
        "dur": "4.2",
        "text": "inevitable result of prior expansions of"
    },
    {
        "start": "1039.87",
        "dur": "3.15",
        "text": "government powers free market economists"
    },
    {
        "start": "1041.43",
        "dur": "3.3",
        "text": "have noted for centuries expansions of"
    },
    {
        "start": "1043.02",
        "dur": "3.14",
        "text": "government power always tend to lead to"
    },
    {
        "start": "1044.73",
        "dur": "3.48",
        "text": "further expansions of government power"
    },
    {
        "start": "1046.16",
        "dur": "4.03",
        "text": "the creation of the welfare state has"
    },
    {
        "start": "1048.21",
        "dur": "3.42",
        "text": "led to restrictions on immigration since"
    },
    {
        "start": "1050.19",
        "dur": "3",
        "text": "it has become impossible to determine"
    },
    {
        "start": "1051.63",
        "dur": "2.91",
        "text": "who is coming for work and who is coming"
    },
    {
        "start": "1053.19",
        "dur": "3.72",
        "text": "to milk the system for government"
    },
    {
        "start": "1054.54",
        "dur": "4.41",
        "text": "benefits and because when you have a"
    },
    {
        "start": "1056.91",
        "dur": "4.23",
        "text": "free market there's natural limits on"
    },
    {
        "start": "1058.95",
        "dur": "3.42",
        "text": "immigration because if jobs will dry up"
    },
    {
        "start": "1061.14",
        "dur": "2.97",
        "text": "people tend not to come"
    },
    {
        "start": "1062.37",
        "dur": "3.3",
        "text": "we can even see that with the reduction"
    },
    {
        "start": "1064.11",
        "dur": "3.99",
        "text": "in border crossings as a result of the"
    },
    {
        "start": "1065.67",
        "dur": "3.63",
        "text": "somewhat collapse of the US economy in a"
    },
    {
        "start": "1068.1",
        "dur": "1.59",
        "text": "free market that would sort of be the"
    },
    {
        "start": "1069.3",
        "dur": "2.94",
        "text": "case"
    },
    {
        "start": "1069.69",
        "dur": "3.96",
        "text": "right people would come in they drive"
    },
    {
        "start": "1072.24",
        "dur": "3.12",
        "text": "down wages to the point where they'd"
    },
    {
        "start": "1073.65",
        "dur": "2.97",
        "text": "achieve equilibrium to some degree with"
    },
    {
        "start": "1075.36",
        "dur": "2.58",
        "text": "their home countries and that would stem"
    },
    {
        "start": "1076.62",
        "dur": "2.97",
        "text": "the tide of immigration that's what of"
    },
    {
        "start": "1077.94",
        "dur": "3.21",
        "text": "course happened with the Western"
    },
    {
        "start": "1079.59",
        "dur": "4.23",
        "text": "European and Eastern European"
    },
    {
        "start": "1081.15",
        "dur": "3.87",
        "text": "immigration of the 19th century but"
    },
    {
        "start": "1083.82",
        "dur": "2.58",
        "text": "that's not the way it works anymore now"
    },
    {
        "start": "1085.02",
        "dur": "3.24",
        "text": "there's these artificial incentives for"
    },
    {
        "start": "1086.4",
        "dur": "4.8",
        "text": "people to come and get what they"
    },
    {
        "start": "1088.26",
        "dur": "3.9",
        "text": "perceive as free stuff so that's become"
    },
    {
        "start": "1091.2",
        "dur": "2.37",
        "text": "a huge problem"
    },
    {
        "start": "1092.16",
        "dur": "2.58",
        "text": "I believe that immigration is a"
    },
    {
        "start": "1093.57",
        "dur": "2.94",
        "text": "wonderful thing I believe that open"
    },
    {
        "start": "1094.74",
        "dur": "4.939",
        "text": "borders are a wonderful thing but you"
    },
    {
        "start": "1096.51",
        "dur": "5.52",
        "text": "cannot have open borders plus a massive"
    },
    {
        "start": "1099.679",
        "dur": "4.75",
        "text": "redistributionist deficit financed"
    },
    {
        "start": "1102.03",
        "dur": "4.32",
        "text": "welfare state you cannot have open"
    },
    {
        "start": "1104.429",
        "dur": "4.261",
        "text": "borders and publicly funded government"
    },
    {
        "start": "1106.35",
        "dur": "3.66",
        "text": "schools you cannot have open borders and"
    },
    {
        "start": "1108.69",
        "dur": "5.34",
        "text": "Medicare and Medicaid and Social"
    },
    {
        "start": "1110.01",
        "dur": "7.049",
        "text": "Security and Obamacare and all of this"
    },
    {
        "start": "1114.03",
        "dur": "5.16",
        "text": "stuff because then you don't know who's"
    },
    {
        "start": "1117.059",
        "dur": "4.741",
        "text": "coming to work and who's coming to milk"
    },
    {
        "start": "1119.19",
        "dur": "4.26",
        "text": "the system and this is just another"
    },
    {
        "start": "1121.8",
        "dur": "4.23",
        "text": "example of government controls leading"
    },
    {
        "start": "1123.45",
        "dur": "4.53",
        "text": "to more government controls it is tragic"
    },
    {
        "start": "1126.03",
        "dur": "4.35",
        "text": "the degree to which the war on drugs has"
    },
    {
        "start": "1127.98",
        "dur": "4.68",
        "text": "destroyed a lot of the vestigial"
    },
    {
        "start": "1130.38",
        "dur": "3.78",
        "text": "integrity of the Mexican government the"
    },
    {
        "start": "1132.66",
        "dur": "4.14",
        "text": "degree to which America's war on drugs"
    },
    {
        "start": "1134.16",
        "dur": "4.8",
        "text": "has destroyed the Mexican farmers"
    },
    {
        "start": "1136.8",
        "dur": "3.629",
        "text": "capacity for economically efficient"
    },
    {
        "start": "1138.96",
        "dur": "3.78",
        "text": "farming it's horrible the degree to"
    },
    {
        "start": "1140.429",
        "dur": "5.941",
        "text": "which agricultural dumping of produce in"
    },
    {
        "start": "1142.74",
        "dur": "5.46",
        "text": "markets such as Africa and Mexico has"
    },
    {
        "start": "1146.37",
        "dur": "3.78",
        "text": "undercut the capacity destroyed the"
    },
    {
        "start": "1148.2",
        "dur": "2.729",
        "text": "capacity for Mexican farmers to make a"
    },
    {
        "start": "1150.15",
        "dur": "2.9",
        "text": "decent living"
    },
    {
        "start": "1150.929",
        "dur": "4.741",
        "text": "it's a horrible the degree to which"
    },
    {
        "start": "1153.05",
        "dur": "5.2",
        "text": "corruption has invaded Mexico as a"
    },
    {
        "start": "1155.67",
        "dur": "5.55",
        "text": "result of America's war on drugs if you"
    },
    {
        "start": "1158.25",
        "dur": "4.29",
        "text": "really wanted to help Mexico of course"
    },
    {
        "start": "1161.22",
        "dur": "2.7",
        "text": "you end the war drugs if you really"
    },
    {
        "start": "1162.54",
        "dur": "3.389",
        "text": "wanted to keep families together and"
    },
    {
        "start": "1163.92",
        "dur": "4.2",
        "text": "these are families of citizens well you"
    },
    {
        "start": "1165.929",
        "dur": "4.561",
        "text": "would end the war on drugs but Obama is"
    },
    {
        "start": "1168.12",
        "dur": "4.08",
        "text": "not about to do that at least does not"
    },
    {
        "start": "1170.49",
        "dur": "4.17",
        "text": "appear to be able to do that that would"
    },
    {
        "start": "1172.2",
        "dur": "4.979",
        "text": "be a massive step forward and would do a"
    },
    {
        "start": "1174.66",
        "dur": "3.78",
        "text": "huge amount to deal with the immigration"
    },
    {
        "start": "1177.179",
        "dur": "2.281",
        "text": "problem that mean they're fleeing"
    },
    {
        "start": "1178.44",
        "dur": "3.3",
        "text": "corruption and economically"
    },
    {
        "start": "1179.46",
        "dur": "3.33",
        "text": "unsustainable situations back in Mexico"
    },
    {
        "start": "1181.74",
        "dur": "3.72",
        "text": "which is tragic"
    },
    {
        "start": "1182.79",
        "dur": "4.17",
        "text": "horrifying horrible but it looks like"
    },
    {
        "start": "1185.46",
        "dur": "3.78",
        "text": "that this is just gonna have to play"
    },
    {
        "start": "1186.96",
        "dur": "4.35",
        "text": "itself and that government controls like"
    },
    {
        "start": "1189.24",
        "dur": "2.939",
        "text": "these ever spreading Domino effects are"
    },
    {
        "start": "1191.31",
        "dur": "2.94",
        "text": "just gonna have to lead to more"
    },
    {
        "start": "1192.179",
        "dur": "4.051",
        "text": "government controls until the system"
    },
    {
        "start": "1194.25",
        "dur": "5.1",
        "text": "hits a wall and we can finally hit Reese"
    },
    {
        "start": "1196.23",
        "dur": "5.4",
        "text": "abandon this madness of the infinite"
    },
    {
        "start": "1199.35",
        "dur": "4.38",
        "text": "waving gun of virtue the government"
    },
    {
        "start": "1201.63",
        "dur": "3.75",
        "text": "power will lead to positive outcomes we"
    },
    {
        "start": "1203.73",
        "dur": "4.74",
        "text": "can reset we can get back to the freedom"
    },
    {
        "start": "1205.38",
        "dur": "4.679",
        "text": "club of a smaller minimal state and true"
    },
    {
        "start": "1208.47",
        "dur": "3.209",
        "text": "human freedom but at the moment it just"
    },
    {
        "start": "1210.059",
        "dur": "4.201",
        "text": "looks like this is gonna have to play"
    },
    {
        "start": "1211.679",
        "dur": "4.86",
        "text": "out and people were gonna have to deal"
    },
    {
        "start": "1214.26",
        "dur": "3.659",
        "text": "with very sadly the massive expansions"
    },
    {
        "start": "1216.539",
        "dur": "3.571",
        "text": "in this immigration program the"
    },
    {
        "start": "1217.919",
        "dur": "3.99",
        "text": "resulting waves of a fraud and"
    },
    {
        "start": "1220.11",
        "dur": "4.26",
        "text": "criminality and so on that is going to"
    },
    {
        "start": "1221.909",
        "dur": "4.801",
        "text": "result from all of this and then at some"
    },
    {
        "start": "1224.37",
        "dur": "4.32",
        "text": "point we will wise up if not through"
    },
    {
        "start": "1226.71",
        "dur": "4.709",
        "text": "reason and evidence through tragic and"
    },
    {
        "start": "1228.69",
        "dur": "3.959",
        "text": "bitter experience this is stefan"
    },
    {
        "start": "1231.419",
        "dur": "2.581",
        "text": "molyneux for freedomain radio have"
    },
    {
        "start": "1232.649",
        "dur": "4.071",
        "text": "yourselves a wonderful wonderful day I"
    },
    {
        "start": "1234",
        "dur": "2.72",
        "text": "will talk to you soon"
    }
]