[
    {
        "start": "0",
        "dur": "3.09",
        "text": "hi everybody's depending on do from"
    },
    {
        "start": "1.53",
        "dur": "4.68",
        "text": "freedomain radio great question from a"
    },
    {
        "start": "3.09",
        "dur": "4.95",
        "text": "listener Steph if people do not have"
    },
    {
        "start": "6.21",
        "dur": "3.96",
        "text": "control over their government then why"
    },
    {
        "start": "8.04",
        "dur": "4.26",
        "text": "in the recent past have you placed a"
    },
    {
        "start": "10.17",
        "dur": "3.75",
        "text": "huge amount blame on USA's current"
    },
    {
        "start": "12.3",
        "dur": "3.539",
        "text": "financial situation on the baby-boomers"
    },
    {
        "start": "13.92",
        "dur": "5.85",
        "text": "I don't disagree with you but it seems"
    },
    {
        "start": "15.839",
        "dur": "5.971",
        "text": "like an inconsistent position and Adam"
    },
    {
        "start": "19.77",
        "dur": "4.95",
        "text": "thank you great great question I will"
    },
    {
        "start": "21.81",
        "dur": "5.37",
        "text": "seek to clarify it here so when you look"
    },
    {
        "start": "24.72",
        "dur": "5.79",
        "text": "at the world objectively you see a"
    },
    {
        "start": "27.18",
        "dur": "6.71",
        "text": "pyramid and at the top other people who"
    },
    {
        "start": "30.51",
        "dur": "6.5",
        "text": "have financial political religious power"
    },
    {
        "start": "33.89",
        "dur": "5.5",
        "text": "you know people like politicians and"
    },
    {
        "start": "37.01",
        "dur": "4.299",
        "text": "people on Wall Street who used the power"
    },
    {
        "start": "39.39",
        "dur": "5.22",
        "text": "of the state to generally rip off the"
    },
    {
        "start": "41.309",
        "dur": "4.651",
        "text": "population as central bankers and people"
    },
    {
        "start": "44.61",
        "dur": "2.67",
        "text": "very high up in the media and their"
    },
    {
        "start": "45.96",
        "dur": "4.14",
        "text": "collusion with the state which is almost"
    },
    {
        "start": "47.28",
        "dur": "5.58",
        "text": "non-stop and then there are people who"
    },
    {
        "start": "50.1",
        "dur": "4.439",
        "text": "kind of hang off that kind of power you"
    },
    {
        "start": "52.86",
        "dur": "3.39",
        "text": "know public sector workers who get you"
    },
    {
        "start": "54.539",
        "dur": "3.18",
        "text": "know 40 percent extra pay and massive"
    },
    {
        "start": "56.25",
        "dur": "4.109",
        "text": "pensions free health care and so on"
    },
    {
        "start": "57.719",
        "dur": "5.401",
        "text": "cops and and soldiers and so on people"
    },
    {
        "start": "60.359",
        "dur": "5.341",
        "text": "who profiting from our belief in the"
    },
    {
        "start": "63.12",
        "dur": "4.679",
        "text": "virtue and necessity of the state as a"
    },
    {
        "start": "65.7",
        "dur": "4.169",
        "text": "central organizing principle to society"
    },
    {
        "start": "67.799",
        "dur": "4.171",
        "text": "so that's what you look at when you see"
    },
    {
        "start": "69.869",
        "dur": "4.581",
        "text": "the world you see this pyramid and"
    },
    {
        "start": "71.97",
        "dur": "4.59",
        "text": "people think that the way that you"
    },
    {
        "start": "74.45",
        "dur": "4.12",
        "text": "resolve this pyramid the way that you"
    },
    {
        "start": "76.56",
        "dur": "4.71",
        "text": "make things more fair more equal more"
    },
    {
        "start": "78.57",
        "dur": "5.61",
        "text": "free more egalitarian is that you attack"
    },
    {
        "start": "81.27",
        "dur": "5.849",
        "text": "the very tip of the pyramid and that is"
    },
    {
        "start": "84.18",
        "dur": "7.2",
        "text": "false and that doesn't work at all the"
    },
    {
        "start": "87.119",
        "dur": "7.021",
        "text": "way that you deal with a hierarchy is"
    },
    {
        "start": "91.38",
        "dur": "5.07",
        "text": "you recognize how it is enforced and now"
    },
    {
        "start": "94.14",
        "dur": "4.409",
        "text": "the hierarchy is not enforced"
    },
    {
        "start": "96.45",
        "dur": "3.959",
        "text": "fundamentally through violence because"
    },
    {
        "start": "98.549",
        "dur": "4.951",
        "text": "people are kind of shocked and recoil"
    },
    {
        "start": "100.409",
        "dur": "4.561",
        "text": "from violence and so if the state has"
    },
    {
        "start": "103.5",
        "dur": "3.84",
        "text": "two naked lis aggress against its"
    },
    {
        "start": "104.97",
        "dur": "3.719",
        "text": "citizens at least in the West attend to"
    },
    {
        "start": "107.34",
        "dur": "3.779",
        "text": "recall from that and the true nature of"
    },
    {
        "start": "108.689",
        "dur": "4.921",
        "text": "the state is revealed so that's not how"
    },
    {
        "start": "111.119",
        "dur": "4.351",
        "text": "the state profitably rules you the way"
    },
    {
        "start": "113.61",
        "dur": "5.039",
        "text": "that the state profitably rules you is"
    },
    {
        "start": "115.47",
        "dur": "4.95",
        "text": "to program your peers through government"
    },
    {
        "start": "118.649",
        "dur": "5.4",
        "text": "education and the media and other things"
    },
    {
        "start": "120.42",
        "dur": "5.64",
        "text": "to program your peers into attacking you"
    },
    {
        "start": "124.049",
        "dur": "5.16",
        "text": "if you speak the truth about the system"
    },
    {
        "start": "126.06",
        "dur": "6.179",
        "text": "that is how the system is maintained and"
    },
    {
        "start": "129.209",
        "dur": "4.591",
        "text": "there's no other way that the system can"
    },
    {
        "start": "132.239",
        "dur": "3.271",
        "text": "be maintained"
    },
    {
        "start": "133.8",
        "dur": "5.58",
        "text": "so when you think about something like"
    },
    {
        "start": "135.51",
        "dur": "6.6",
        "text": "freedom of speech in most Western"
    },
    {
        "start": "139.38",
        "dur": "5.85",
        "text": "countries with some exceptions there is"
    },
    {
        "start": "142.11",
        "dur": "5.91",
        "text": "generally freedom of speech now when I"
    },
    {
        "start": "145.23",
        "dur": "4.29",
        "text": "say to people through this medium off"
    },
    {
        "start": "148.02",
        "dur": "3.21",
        "text": "the internet when I say to people listen"
    },
    {
        "start": "149.52",
        "dur": "4.29",
        "text": "you should really sit down with your"
    },
    {
        "start": "151.23",
        "dur": "4.8",
        "text": "loved ones and talk about truth virtue"
    },
    {
        "start": "153.81",
        "dur": "4.47",
        "text": "non-aggression principle whatever it is"
    },
    {
        "start": "156.03",
        "dur": "3.78",
        "text": "that's on your mind food currency the"
    },
    {
        "start": "158.28",
        "dur": "3.48",
        "text": "military-industrial complex the prison"
    },
    {
        "start": "159.81",
        "dur": "3.39",
        "text": "industrial complex on your mind"
    },
    {
        "start": "161.76",
        "dur": "2.85",
        "text": "you should sit down and speak with"
    },
    {
        "start": "163.2",
        "dur": "4.2",
        "text": "people about that the majority of people"
    },
    {
        "start": "164.61",
        "dur": "4.98",
        "text": "I say that to Ric oil they think it's"
    },
    {
        "start": "167.4",
        "dur": "4.05",
        "text": "horrifying and terrifying and they say"
    },
    {
        "start": "169.59",
        "dur": "3.57",
        "text": "well it's not been trying for years they"
    },
    {
        "start": "171.45",
        "dur": "4.26",
        "text": "they yell at me they ostracize me they"
    },
    {
        "start": "173.16",
        "dur": "3.99",
        "text": "ignore me they mock me I've gotten fired"
    },
    {
        "start": "175.71",
        "dur": "3.21",
        "text": "and all these kinds of things right and"
    },
    {
        "start": "177.15",
        "dur": "5.07",
        "text": "I've really really sympathized with that"
    },
    {
        "start": "178.92",
        "dur": "6.27",
        "text": "and that is the state that is the state"
    },
    {
        "start": "182.22",
        "dur": "4.35",
        "text": "as horizontal it only profits vertically"
    },
    {
        "start": "185.19",
        "dur": "3.87",
        "text": "because we're willing to attack each"
    },
    {
        "start": "186.57",
        "dur": "5.52",
        "text": "other horizontally so imagine if you're"
    },
    {
        "start": "189.06",
        "dur": "6.57",
        "text": "a slave owner and you can get your"
    },
    {
        "start": "192.09",
        "dur": "8.57",
        "text": "slaves to attack any slave who even"
    },
    {
        "start": "195.63",
        "dur": "7.74",
        "text": "questions the morality of owning slaves"
    },
    {
        "start": "200.66",
        "dur": "5.11",
        "text": "100 slaves and they will turn on each"
    },
    {
        "start": "203.37",
        "dur": "5.22",
        "text": "other viciously attack ignore ostracize"
    },
    {
        "start": "205.77",
        "dur": "5.42",
        "text": "and bully and reject any slave who"
    },
    {
        "start": "208.59",
        "dur": "5.01",
        "text": "questions the morality of slavery that"
    },
    {
        "start": "211.19",
        "dur": "4.36",
        "text": "reduces what in business is called total"
    },
    {
        "start": "213.6",
        "dur": "3.72",
        "text": "cost of ownership because the"
    },
    {
        "start": "215.55",
        "dur": "4.02",
        "text": "enforcement is horizontal which allows"
    },
    {
        "start": "217.32",
        "dur": "3.66",
        "text": "you to profit vertically you don't need"
    },
    {
        "start": "219.57",
        "dur": "2.79",
        "text": "a whole bunch of fences you don't need a"
    },
    {
        "start": "220.98",
        "dur": "2.97",
        "text": "whole bunch of guys with whips you don't"
    },
    {
        "start": "222.36",
        "dur": "3.12",
        "text": "need any of this stuff because the"
    },
    {
        "start": "223.95",
        "dur": "3.3",
        "text": "slaves are doing the job of enforcement"
    },
    {
        "start": "225.48",
        "dur": "5.19",
        "text": "for you which means that it's extremely"
    },
    {
        "start": "227.25",
        "dur": "5.34",
        "text": "profitable to own slaves so if you are a"
    },
    {
        "start": "230.67",
        "dur": "3.84",
        "text": "human farmer as the elites are"
    },
    {
        "start": "232.59",
        "dur": "4.44",
        "text": "fundamentally we live on not countries"
    },
    {
        "start": "234.51",
        "dur": "3.54",
        "text": "but tax farms as I argue about in my"
    },
    {
        "start": "237.03",
        "dur": "3.27",
        "text": "video the story of your enslavement"
    },
    {
        "start": "238.05",
        "dur": "5.7",
        "text": "which you should check out still my"
    },
    {
        "start": "240.3",
        "dur": "5.19",
        "text": "number one video of many years but we"
    },
    {
        "start": "243.75",
        "dur": "4.74",
        "text": "don't live in countries we live in in"
    },
    {
        "start": "245.49",
        "dur": "7.41",
        "text": "tax farms or tax and zoos is probably"
    },
    {
        "start": "248.49",
        "dur": "7.32",
        "text": "more more accuracy and the only way that"
    },
    {
        "start": "252.9",
        "dur": "4.17",
        "text": "these tax farms can remain profitable or"
    },
    {
        "start": "255.81",
        "dur": "3.96",
        "text": "at least the way that they remain the"
    },
    {
        "start": "257.07",
        "dur": "5.19",
        "text": "most profitable is to program everyone"
    },
    {
        "start": "259.77",
        "dur": "4.26",
        "text": "to attack each other any everyone to"
    },
    {
        "start": "262.26",
        "dur": "3.81",
        "text": "attack anyone who speaks out about any"
    },
    {
        "start": "264.03",
        "dur": "3.09",
        "text": "kind of human liberty human freedom true"
    },
    {
        "start": "266.07",
        "dur": "3.36",
        "text": "egalitarianism"
    },
    {
        "start": "267.12",
        "dur": "4.079",
        "text": "so people get distracted by attacking"
    },
    {
        "start": "269.43",
        "dur": "4.86",
        "text": "the top while the true enforcement"
    },
    {
        "start": "271.199",
        "dur": "8.491",
        "text": "mechanism is horizontal so when I speak"
    },
    {
        "start": "274.29",
        "dur": "7.26",
        "text": "the truth that is recent that is has"
    },
    {
        "start": "279.69",
        "dur": "4.41",
        "text": "evidence behind it that is data-driven"
    },
    {
        "start": "281.55",
        "dur": "4.98",
        "text": "that is rationale when I speak the truth"
    },
    {
        "start": "284.1",
        "dur": "5.73",
        "text": "and I get attacked for it that is the"
    },
    {
        "start": "286.53",
        "dur": "4.889",
        "text": "state that is the state the state is not"
    },
    {
        "start": "289.83",
        "dur": "3.27",
        "text": "these guys at the top the guys at the"
    },
    {
        "start": "291.419",
        "dur": "3.271",
        "text": "top or just profiting from our"
    },
    {
        "start": "293.1",
        "dur": "2.849",
        "text": "willingness to attack each other for"
    },
    {
        "start": "294.69",
        "dur": "2.91",
        "text": "speaking the truth and of course it's"
    },
    {
        "start": "295.949",
        "dur": "3.451",
        "text": "become so hysterical now people have"
    },
    {
        "start": "297.6",
        "dur": "3.33",
        "text": "become so hypersensitive to any kind of"
    },
    {
        "start": "299.4",
        "dur": "3.12",
        "text": "truth or any kind of contrary opinion"
    },
    {
        "start": "300.93",
        "dur": "4.14",
        "text": "that you've got this rampant political"
    },
    {
        "start": "302.52",
        "dur": "4.53",
        "text": "campus a political correctness going"
    },
    {
        "start": "305.07",
        "dur": "4.14",
        "text": "across campus and so on and the purpose"
    },
    {
        "start": "307.05",
        "dur": "4.08",
        "text": "of that of course is to get you to give"
    },
    {
        "start": "309.21",
        "dur": "3.36",
        "text": "up speaking the truth so that if you"
    },
    {
        "start": "311.13",
        "dur": "5.099",
        "text": "lose freedom of speech it won't really"
    },
    {
        "start": "312.57",
        "dur": "5.01",
        "text": "matter because your peers have taken"
    },
    {
        "start": "316.229",
        "dur": "3.271",
        "text": "away freedom of speech from you anyway"
    },
    {
        "start": "317.58",
        "dur": "3.33",
        "text": "and nobody particularly mind losing a"
    },
    {
        "start": "319.5",
        "dur": "3.539",
        "text": "right that they never intend to exercise"
    },
    {
        "start": "320.91",
        "dur": "3.9",
        "text": "anyway and so the purpose of viciously"
    },
    {
        "start": "323.039",
        "dur": "3.66",
        "text": "attacking people who speak the truth is"
    },
    {
        "start": "324.81",
        "dur": "4.2",
        "text": "to make people not want to speak the"
    },
    {
        "start": "326.699",
        "dur": "4.621",
        "text": "truth so that if freedom of speech is"
    },
    {
        "start": "329.01",
        "dur": "3.87",
        "text": "taken away people are like well they're"
    },
    {
        "start": "331.32",
        "dur": "3.54",
        "text": "taking it's like taking away my right to"
    },
    {
        "start": "332.88",
        "dur": "3.96",
        "text": "fly I can't do it and I'm gonna exercise"
    },
    {
        "start": "334.86",
        "dur": "3.9",
        "text": "it anyway so it doesn't really matter"
    },
    {
        "start": "336.84",
        "dur": "3.69",
        "text": "and so that's really the foundational"
    },
    {
        "start": "338.76",
        "dur": "3.51",
        "text": "principle so as far as the baby boomers"
    },
    {
        "start": "340.53",
        "dur": "3.42",
        "text": "go well the baby boomers code has spoken"
    },
    {
        "start": "342.27",
        "dur": "3.66",
        "text": "out about the growing power of the state"
    },
    {
        "start": "343.95",
        "dur": "6",
        "text": "and if they had spoken out and"
    },
    {
        "start": "345.93",
        "dur": "5.28",
        "text": "encouraged people to speak out against"
    },
    {
        "start": "349.95",
        "dur": "3.48",
        "text": "the growing power of the state rather"
    },
    {
        "start": "351.21",
        "dur": "3.99",
        "text": "than viciously attack both personally"
    },
    {
        "start": "353.43",
        "dur": "3.6",
        "text": "and through the media viciously attack"
    },
    {
        "start": "355.2",
        "dur": "3.36",
        "text": "people who want to speak booth about the"
    },
    {
        "start": "357.03",
        "dur": "3.93",
        "text": "state then the government would have"
    },
    {
        "start": "358.56",
        "dur": "4.38",
        "text": "been very different from where it is"
    },
    {
        "start": "360.96",
        "dur": "4.38",
        "text": "currently so it's true they don't have"
    },
    {
        "start": "362.94",
        "dur": "3.99",
        "text": "any power over the state but when you"
    },
    {
        "start": "365.34",
        "dur": "3.57",
        "text": "understand that the state is the shadow"
    },
    {
        "start": "366.93",
        "dur": "3.78",
        "text": "cast by a willingness to attack each"
    },
    {
        "start": "368.91",
        "dur": "3.09",
        "text": "other for speaking the truth that our"
    },
    {
        "start": "370.71",
        "dur": "4.38",
        "text": "willingness to viciously attack people"
    },
    {
        "start": "372",
        "dur": "4.65",
        "text": "who speak the truth creates the value of"
    },
    {
        "start": "375.09",
        "dur": "4.44",
        "text": "the state that is what creates the value"
    },
    {
        "start": "376.65",
        "dur": "4.92",
        "text": "of the states the profitability of tax"
    },
    {
        "start": "379.53",
        "dur": "6.96",
        "text": "farming through through governments so"
    },
    {
        "start": "381.57",
        "dur": "6.39",
        "text": "once people truly truly understand how"
    },
    {
        "start": "386.49",
        "dur": "4.47",
        "text": "important it is to encourage truth"
    },
    {
        "start": "387.96",
        "dur": "4.29",
        "text": "seekers and to deal with in an"
    },
    {
        "start": "390.96",
        "dur": "2.61",
        "text": "emotionally mature fashion that"
    },
    {
        "start": "392.25",
        "dur": "3.3",
        "text": "discomfort that is sometimes brought"
    },
    {
        "start": "393.57",
        "dur": "4.5",
        "text": "about by truth terrorists the state will"
    },
    {
        "start": "395.55",
        "dur": "4.45",
        "text": "continue to expand and this hysteria"
    },
    {
        "start": "398.07",
        "dur": "3.28",
        "text": "political correctness and this Gen"
    },
    {
        "start": "400",
        "dur": "4.14",
        "text": "attacks of people who speak the truth"
    },
    {
        "start": "401.35",
        "dur": "5.01",
        "text": "that is part of human farming that is"
    },
    {
        "start": "404.14",
        "dur": "4.56",
        "text": "the really the essence of human farming"
    },
    {
        "start": "406.36",
        "dur": "4.55",
        "text": "so a rejection of attacking each other"
    },
    {
        "start": "408.7",
        "dur": "4.11",
        "text": "for speaking the truth that is"
    },
    {
        "start": "410.91",
        "dur": "4.65",
        "text": "fundamentally the only way that we can"
    },
    {
        "start": "412.81",
        "dur": "5.61",
        "text": "combat this day because once we are free"
    },
    {
        "start": "415.56",
        "dur": "4.45",
        "text": "to speak the truth in the world once we"
    },
    {
        "start": "418.42",
        "dur": "5.01",
        "text": "are free to speak the truth in society"
    },
    {
        "start": "420.01",
        "dur": "8.09",
        "text": "then the state which is a rejection of"
    },
    {
        "start": "423.43",
        "dur": "7.35",
        "text": "ethics and virtue will fall just as when"
    },
    {
        "start": "428.1",
        "dur": "6.99",
        "text": "you crumble down a statue the shadow of"
    },
    {
        "start": "430.78",
        "dur": "4.31",
        "text": "itself must necessarily dissolve"
    }
]