{
  "Title": "Socialist Economics 101 | YouTube Comments - Rebutted!",
  "Id": "kNPIpbPrIDM",
  "Transcript": [
    {
      "text": "oh yes the oh I know how this videos",
      "start": 0,
      "duration": 11.55
    },
    {
      "text": "gonna go I haven't watched this video",
      "start": 10.17,
      "duration": 3.96
    },
    {
      "text": "yet but let me take a guess he's a cop",
      "start": 11.55,
      "duration": 6.69
    },
    {
      "text": "defender he's like whatever right so guy",
      "start": 14.13,
      "duration": 6.09
    },
    {
      "text": "wrote on the truth about video the truth",
      "start": 18.24,
      "duration": 3.209
    },
    {
      "text": "about poverty I've not watched this",
      "start": 20.22,
      "duration": 2.819
    },
    {
      "text": "video yet but I think I have started to",
      "start": 21.449,
      "duration": 3.301
    },
    {
      "text": "into it a few things about the way this",
      "start": 23.039,
      "duration": 4.23
    },
    {
      "text": "guy thinks his conclusion will probably",
      "start": 24.75,
      "duration": 3.96
    },
    {
      "text": "be that we need to double down on the",
      "start": 27.269,
      "duration": 3.481
    },
    {
      "text": "disastrous economic policies of the",
      "start": 28.71,
      "duration": 3.81
    },
    {
      "text": "Republicans oh yeah because I'm such a",
      "start": 30.75,
      "duration": 4.11
    },
    {
      "text": "Republican like more tax cuts loopholes",
      "start": 32.52,
      "duration": 4.74
    },
    {
      "text": "and giveaways to the super-rich and then",
      "start": 34.86,
      "duration": 3.87
    },
    {
      "text": "the cutting back or elimination of all",
      "start": 37.26,
      "duration": 3.15
    },
    {
      "text": "governmental assistant Assistance",
      "start": 38.73,
      "duration": 3.72
    },
    {
      "text": "Programs to the poor regardless of any",
      "start": 40.41,
      "duration": 3.809
    },
    {
      "text": "political ideologies of the country the",
      "start": 42.45,
      "duration": 3.78
    },
    {
      "text": "economic facts are there such government",
      "start": 44.219,
      "duration": 3.211
    },
    {
      "text": "assistance programs are one of the most",
      "start": 46.23,
      "duration": 3.059
    },
    {
      "text": "effective ways to stimulate the economy",
      "start": 47.43,
      "duration": 4.199
    },
    {
      "text": "as opposed to the failed trickle-down",
      "start": 49.289,
      "duration": 4.531
    },
    {
      "text": "policies that were concocted by Reagan",
      "start": 51.629,
      "duration": 7.32
    },
    {
      "text": "and his ilk so give a poor person money",
      "start": 53.82,
      "duration": 7.14
    },
    {
      "text": "and he or she goes right out and spends",
      "start": 58.949,
      "duration": 5.061
    },
    {
      "text": "it on badly needed goods and services oh",
      "start": 60.96,
      "duration": 9.15
    },
    {
      "text": "man oh god are you typing with you you",
      "start": 64.01,
      "duration": 7.719
    },
    {
      "text": "could net for head small enough to type",
      "start": 70.11,
      "duration": 3.18
    },
    {
      "text": "with I contained a little ball-peen",
      "start": 71.729,
      "duration": 1.951
    },
    {
      "text": "hammer",
      "start": 73.29,
      "duration": 3.17
    },
    {
      "text": "slowly eradicating reason from the world",
      "start": 73.68,
      "duration": 6.27
    },
    {
      "text": "so give a poor person money and he goes",
      "start": 76.46,
      "duration": 4.99
    },
    {
      "text": "out and spends it and that stimulates",
      "start": 79.95,
      "duration": 3.48
    },
    {
      "text": "economic activity you know that's great",
      "start": 81.45,
      "duration": 3.54
    },
    {
      "text": "about that it's like I need a blood",
      "start": 83.43,
      "duration": 3.15
    },
    {
      "text": "transfusion can you take it from my left",
      "start": 84.99,
      "duration": 3.09
    },
    {
      "text": "arm and put it in my right arm because",
      "start": 86.58,
      "duration": 3.06
    },
    {
      "text": "even though you'll spill a lot along the",
      "start": 88.08,
      "duration": 3.649
    },
    {
      "text": "way I guess I'll end up with more blood",
      "start": 89.64,
      "duration": 3.839
    },
    {
      "text": "this is madness",
      "start": 91.729,
      "duration": 4.75
    },
    {
      "text": "well you know you giving that poor",
      "start": 93.479,
      "duration": 4.081
    },
    {
      "text": "person money where's it coming from",
      "start": 96.479,
      "duration": 4.261
    },
    {
      "text": "where is it coming from come on think",
      "start": 97.56,
      "duration": 6.08
    },
    {
      "text": "just a tiny bit just a tiny little bit",
      "start": 100.74,
      "duration": 6.059
    },
    {
      "text": "look I have a swimming pool it's half",
      "start": 103.64,
      "duration": 5.29
    },
    {
      "text": "full I need to be more full so I'm going",
      "start": 106.799,
      "duration": 3.631
    },
    {
      "text": "to take water from the deep end and I'm",
      "start": 108.93,
      "duration": 3.24
    },
    {
      "text": "gonna put it scoop it out from the deep",
      "start": 110.43,
      "duration": 3.09
    },
    {
      "text": "end and pour it into the shallow end",
      "start": 112.17,
      "duration": 3.12
    },
    {
      "text": "while spilling a lot along the way I'm",
      "start": 113.52,
      "duration": 3.33
    },
    {
      "text": "sure that's gonna raise the level of",
      "start": 115.29,
      "duration": 4.71
    },
    {
      "text": "them Oh God people people you just need",
      "start": 116.85,
      "duration": 4.769
    },
    {
      "text": "to think a little tiny bit where are the",
      "start": 120,
      "duration": 2.67
    },
    {
      "text": "poor people getting the money from",
      "start": 121.619,
      "duration": 2.64
    },
    {
      "text": "you're taxing it from other people which",
      "start": 122.67,
      "duration": 3.51
    },
    {
      "text": "is reducing demand somewhere else or",
      "start": 124.259,
      "duration": 4.081
    },
    {
      "text": "you're printing the money which is",
      "start": 126.18,
      "duration": 4.23
    },
    {
      "text": "causing inflation which is harmful for",
      "start": 128.34,
      "duration": 3.869
    },
    {
      "text": "the economy or you're borrowing the",
      "start": 130.41,
      "duration": 3.45
    },
    {
      "text": "money which means you're stimulating",
      "start": 132.209,
      "duration": 3.241
    },
    {
      "text": "we demand in the here-and-now while",
      "start": 133.86,
      "duration": 3.15
    },
    {
      "text": "further suppressing it down the route",
      "start": 135.45,
      "duration": 3.6
    },
    {
      "text": "you're either doing it of across class",
      "start": 137.01,
      "duration": 5.55
    },
    {
      "text": "or across time or through inflation",
      "start": 139.05,
      "duration": 6.63
    },
    {
      "text": "that's where you are reducing demand so",
      "start": 142.56,
      "duration": 6.03
    },
    {
      "text": "this idea that yeah I mean and it's not",
      "start": 145.68,
      "duration": 4.5
    },
    {
      "text": "hard the reason I'm so contemptuous",
      "start": 148.59,
      "duration": 3.12
    },
    {
      "text": "about this stuff it is not hard to",
      "start": 150.18,
      "duration": 3.63
    },
    {
      "text": "figure out read any little Henry Hazlitt",
      "start": 151.71,
      "duration": 4.47
    },
    {
      "text": "you know introduction it economics and",
      "start": 153.81,
      "duration": 4.17
    },
    {
      "text": "you know anything like that just dissing",
      "start": 156.18,
      "duration": 4.16
    },
    {
      "text": "the past yeah I mean a little pamphlet",
      "start": 157.98,
      "duration": 4.47
    },
    {
      "text": "anything just read it and read a little",
      "start": 160.34,
      "duration": 4.45
    },
    {
      "text": "bit outside of the state is propaganda",
      "start": 162.45,
      "duration": 4.14
    },
    {
      "text": "of Keynesianism and so on just a tiny",
      "start": 164.79,
      "duration": 4.98
    },
    {
      "text": "tiny little bit that's all you need to",
      "start": 166.59,
      "duration": 4.92
    },
    {
      "text": "do I mean just think about it just think",
      "start": 169.77,
      "duration": 3.93
    },
    {
      "text": "about it if a guy comes into your store",
      "start": 171.51,
      "duration": 4.62
    },
    {
      "text": "and says hey man give me $100 from your",
      "start": 173.7,
      "duration": 4.08
    },
    {
      "text": "till and I promise to spend it in your",
      "start": 176.13,
      "duration": 3.72
    },
    {
      "text": "store would you do that and say look I'm",
      "start": 177.78,
      "duration": 3.51
    },
    {
      "text": "a hundred dollars richer it's like no",
      "start": 179.85,
      "duration": 2.85
    },
    {
      "text": "you're not you exactly the same way you",
      "start": 181.29,
      "duration": 2.97
    },
    {
      "text": "were before but now you've lost some",
      "start": 182.7,
      "duration": 2.73
    },
    {
      "text": "goods and all the time and energy it",
      "start": 184.26,
      "duration": 2.88
    },
    {
      "text": "money took to get those goods into your",
      "start": 185.43,
      "duration": 4.08
    },
    {
      "text": "store ah",
      "start": 187.14,
      "duration": 5.46
    },
    {
      "text": "oh and the idea that W I get this from",
      "start": 189.51,
      "duration": 5.49
    },
    {
      "text": "the resource-based economy people - it's",
      "start": 192.6,
      "duration": 4.41
    },
    {
      "text": "like man you just stuck in your little",
      "start": 195,
      "duration": 4.26
    },
    {
      "text": "box you know you just you can't expand",
      "start": 197.01,
      "duration": 4.44
    },
    {
      "text": "your paradigm you just truncated",
      "start": 199.26,
      "duration": 5.759
    },
    {
      "text": "something-or-other right and I don't",
      "start": 201.45,
      "duration": 6.81
    },
    {
      "text": "know as a radical anarchist atheist I",
      "start": 205.019,
      "duration": 5.431
    },
    {
      "text": "don't really think that I could be",
      "start": 208.26,
      "duration": 3.84
    },
    {
      "text": "accused of being in some predefined",
      "start": 210.45,
      "duration": 5.94
    },
    {
      "text": "little box anyway so he says contrary to",
      "start": 212.1,
      "duration": 6
    },
    {
      "text": "that propaganda the rich or not the job",
      "start": 216.39,
      "duration": 3.09
    },
    {
      "text": "creators the poor and working-class",
      "start": 218.1,
      "duration": 2.85
    },
    {
      "text": "people who consume the goods and",
      "start": 219.48,
      "duration": 4.34
    },
    {
      "text": "services they provide are",
      "start": 220.95,
      "duration": 2.87
    },
    {
      "text": "that's like saying if I go to a",
      "start": 224.989,
      "duration": 3.551
    },
    {
      "text": "prostitute I've created a woman",
      "start": 226.92,
      "duration": 4.52
    },
    {
      "text": "I'm just consuming I'm not creating ah",
      "start": 228.54,
      "duration": 5.85
    },
    {
      "text": "that the job tree is simply having",
      "start": 231.44,
      "duration": 6.25
    },
    {
      "text": "demand does not create jobs gone just",
      "start": 234.39,
      "duration": 4.65
    },
    {
      "text": "think a little bit about human history",
      "start": 237.69,
      "duration": 2.82
    },
    {
      "text": "for God's sakes do you think that we",
      "start": 239.04,
      "duration": 3.63
    },
    {
      "text": "only have new demand since the",
      "start": 240.51,
      "duration": 3.6
    },
    {
      "text": "Industrial Revolution people before that",
      "start": 242.67,
      "duration": 3.87
    },
    {
      "text": "but completely then I need nothing well",
      "start": 244.11,
      "duration": 4.14
    },
    {
      "text": "maybe a little as small parts that would",
      "start": 246.54,
      "duration": 3.75
    },
    {
      "text": "be nice maybe a little as war and famine",
      "start": 248.25,
      "duration": 3.959
    },
    {
      "text": "that would be lovely Oh black death",
      "start": 250.29,
      "duration": 3.69
    },
    {
      "text": "bubonic plague maybe a little bit Oh",
      "start": 252.209,
      "duration": 3.301
    },
    {
      "text": "Ganga scant maybe a little bit less of",
      "start": 253.98,
      "duration": 3.15
    },
    {
      "text": "that but I'm completely content for the",
      "start": 255.51,
      "duration": 4.14
    },
    {
      "text": "most part I have no desires people",
      "start": 257.13,
      "duration": 3.81
    },
    {
      "text": "always have desires throughout history",
      "start": 259.65,
      "duration": 4.56
    },
    {
      "text": "desires do not create jobs I want a jet",
      "start": 260.94,
      "duration": 7.38
    },
    {
      "text": "pack I want a jet pack hey anyone see a",
      "start": 264.21,
      "duration": 6.6
    },
    {
      "text": "jet pack anywhere jet pack no look I",
      "start": 268.32,
      "duration": 5.52
    },
    {
      "text": "have a demand doesn't if demand created",
      "start": 270.81,
      "duration": 5.7
    },
    {
      "text": "supply there'd be no such thing as",
      "start": 273.84,
      "duration": 4.71
    },
    {
      "text": "pornography because everybody would want",
      "start": 276.51,
      "duration": 4.95
    },
    {
      "text": "it but just it appears when you want it",
      "start": 278.55,
      "duration": 5.19
    },
    {
      "text": "cause it's magic I mean that's a",
      "start": 281.46,
      "duration": 4.05
    },
    {
      "text": "relationship of baby hairs to the",
      "start": 283.74,
      "duration": 2.73
    },
    {
      "text": "mother's nipple",
      "start": 285.51,
      "duration": 3.18
    },
    {
      "text": "for God's sakes not a mature adult in",
      "start": 286.47,
      "duration": 6.93
    },
    {
      "text": "relation to economic reality oh man give",
      "start": 288.69,
      "duration": 6.36
    },
    {
      "text": "extra money to the rich who don't need",
      "start": 293.4,
      "duration": 2.97
    },
    {
      "text": "the money and it will sit in a Swiss",
      "start": 295.05,
      "duration": 2.82
    },
    {
      "text": "bank account or fund risky and in a",
      "start": 296.37,
      "duration": 4.08
    },
    {
      "text": "responsible speculation on Wall Street",
      "start": 297.87,
      "duration": 3.96
    },
    {
      "text": "what the hell does Wall Street have to",
      "start": 300.45,
      "duration": 3.24
    },
    {
      "text": "do with the free market I've yet to",
      "start": 301.83,
      "duration": 3.089
    },
    {
      "text": "understand any of that sort of stuff",
      "start": 303.69,
      "duration": 2.94
    },
    {
      "text": "give extra money to the poor and it will",
      "start": 304.919,
      "duration": 3.181
    },
    {
      "text": "be recycled right back into the economy",
      "start": 306.63,
      "duration": 3.75
    },
    {
      "text": "to stimulate consumer demand which is",
      "start": 308.1,
      "duration": 4.379
    },
    {
      "text": "the real engine on the economic growth",
      "start": 310.38,
      "duration": 3.48
    },
    {
      "text": "ah",
      "start": 312.479,
      "duration": 6.121
    },
    {
      "text": "crazy crazy yeah I don't know maybe this",
      "start": 313.86,
      "duration": 6.45
    },
    {
      "text": "idea that that Wall Street in its",
      "start": 318.6,
      "duration": 3.36
    },
    {
      "text": "current incarnation has anything to do",
      "start": 320.31,
      "duration": 3.96
    },
    {
      "text": "with the free market is just so deranged",
      "start": 321.96,
      "duration": 5.13
    },
    {
      "text": "I mean it's like saying well penis goes",
      "start": 324.27,
      "duration": 4.59
    },
    {
      "text": "into vagina both during lovemaking and",
      "start": 327.09,
      "duration": 2.1
    },
    {
      "text": "rape",
      "start": 328.86,
      "duration": 2.67
    },
    {
      "text": "therefore rape and lovemaking are",
      "start": 329.19,
      "duration": 4.229
    },
    {
      "text": "exactly the same except for the knife to",
      "start": 331.53,
      "duration": 3.42
    },
    {
      "text": "the throat which is kind of an important",
      "start": 333.419,
      "duration": 3.93
    },
    {
      "text": "distinction the only way you know if a",
      "start": 334.95,
      "duration": 4.41
    },
    {
      "text": "free market is genuinely occurring is if",
      "start": 337.349,
      "duration": 4.951
    },
    {
      "text": "there is a free market in money is there",
      "start": 339.36,
      "duration": 4.739
    },
    {
      "text": "a free market in money there used to be",
      "start": 342.3,
      "duration": 3.72
    },
    {
      "text": "in the 19th century in America there was",
      "start": 344.099,
      "duration": 3.57
    },
    {
      "text": "a free market and money with some",
      "start": 346.02,
      "duration": 4.49
    },
    {
      "text": "interruptions and of course the massive",
      "start": 347.669,
      "duration": 6
    },
    {
      "text": "civil war but there was in general a",
      "start": 350.51,
      "duration": 4.69
    },
    {
      "text": "free market and money banks competed",
      "start": 353.669,
      "duration": 3.031
    },
    {
      "text": "with the stability of their currency",
      "start": 355.2,
      "duration": 2.46
    },
    {
      "text": "with the mnemonic",
      "start": 356.7,
      "duration": 2.58
    },
    {
      "text": "all reserves and there was incredible",
      "start": 357.66,
      "duration": 3.63
    },
    {
      "text": "price stability and there was in fact a",
      "start": 359.28,
      "duration": 4.65
    },
    {
      "text": "decline in prices a deflation over the",
      "start": 361.29,
      "duration": 6.66
    },
    {
      "text": "course of that century and so if there's",
      "start": 363.93,
      "duration": 5.46
    },
    {
      "text": "no free market and money in other words",
      "start": 367.95,
      "duration": 3.3
    },
    {
      "text": "if government controls currency and as a",
      "start": 369.39,
      "duration": 3.51
    },
    {
      "text": "proxy then has to control interest rates",
      "start": 371.25,
      "duration": 3.66
    },
    {
      "text": "if government controls currency there is",
      "start": 372.9,
      "duration": 5.13
    },
    {
      "text": "no free market yes it's true that people",
      "start": 374.91,
      "duration": 5.13
    },
    {
      "text": "buy and sell things absolutely and you",
      "start": 378.03,
      "duration": 3.96
    },
    {
      "text": "know what people traded in the Soviet",
      "start": 380.04,
      "duration": 4.05
    },
    {
      "text": "Union one razor blade for one sock you",
      "start": 381.99,
      "duration": 3.9
    },
    {
      "text": "name it they traded in the Soviet Union",
      "start": 384.09,
      "duration": 3.42
    },
    {
      "text": "that did not make the Soviet Union under",
      "start": 385.89,
      "duration": 3.27
    },
    {
      "text": "communism a bastion of free market",
      "start": 387.51,
      "duration": 3.24
    },
    {
      "text": "capitalism the fact that there's buying",
      "start": 389.16,
      "duration": 3.27
    },
    {
      "text": "and selling going on for their stocks",
      "start": 390.75,
      "duration": 3.36
    },
    {
      "text": "and so on has nothing to do with a free",
      "start": 392.43,
      "duration": 3.54
    },
    {
      "text": "market if the government controls the",
      "start": 394.11,
      "duration": 3.69
    },
    {
      "text": "currency because the currency is that",
      "start": 395.97,
      "duration": 3.48
    },
    {
      "text": "which is common in almost all free",
      "start": 397.8,
      "duration": 3.06
    },
    {
      "text": "market interactions if that is",
      "start": 399.45,
      "duration": 2.67
    },
    {
      "text": "controlled by the government there is",
      "start": 400.86,
      "duration": 4.2
    },
    {
      "text": "nothing left of the free market but a",
      "start": 402.12,
      "duration": 6.12
    },
    {
      "text": "tiny tiny after shadow you got to get",
      "start": 405.06,
      "duration": 4.74
    },
    {
      "text": "away from the cave and the flickering",
      "start": 408.24,
      "duration": 3.48
    },
    {
      "text": "fire to use that platonic metaphor and",
      "start": 409.8,
      "duration": 3.42
    },
    {
      "text": "get out into the world and look at the",
      "start": 411.72,
      "duration": 3.12
    },
    {
      "text": "way things really are government",
      "start": 413.22,
      "duration": 2.91
    },
    {
      "text": "controls money government controls",
      "start": 414.84,
      "duration": 3.75
    },
    {
      "text": "interest rates no free market only the",
      "start": 416.13,
      "duration": 6.81
    },
    {
      "text": "vestiges of a free market so I don't",
      "start": 418.59,
      "duration": 5.55
    },
    {
      "text": "know whether the rich or poor create",
      "start": 422.94,
      "duration": 3.69
    },
    {
      "text": "more jobs or not I have no idea I mean",
      "start": 424.14,
      "duration": 4.26
    },
    {
      "text": "I'd like to live in a world where I",
      "start": 426.63,
      "duration": 3.09
    },
    {
      "text": "don't care doesn't matter",
      "start": 428.4,
      "duration": 3.27
    },
    {
      "text": "some rich people are parasites some poor",
      "start": 429.72,
      "duration": 3.36
    },
    {
      "text": "people the parasites some rich people",
      "start": 431.67,
      "duration": 2.94
    },
    {
      "text": "are hardworking some poor people are",
      "start": 433.08,
      "duration": 3.6
    },
    {
      "text": "hardworking doesn't matter but the idea",
      "start": 434.61,
      "duration": 3.48
    },
    {
      "text": "that you simply take a bunch of money",
      "start": 436.68,
      "duration": 3.84
    },
    {
      "text": "from rich people and put it into the",
      "start": 438.09,
      "duration": 3.78
    },
    {
      "text": "hands of poor people and that stimulates",
      "start": 440.52,
      "duration": 3.87
    },
    {
      "text": "a massive amount of economic growth is",
      "start": 441.87,
      "duration": 4.2
    },
    {
      "text": "simply delusory",
      "start": 444.39,
      "duration": 4.83
    },
    {
      "text": "poor people tend to spend money on",
      "start": 446.07,
      "duration": 4.77
    },
    {
      "text": "things which they consume because",
      "start": 449.22,
      "duration": 3.99
    },
    {
      "text": "they're poor right and so they buy food",
      "start": 450.84,
      "duration": 5.16
    },
    {
      "text": "which they consume and they buy other",
      "start": 453.21,
      "duration": 4.41
    },
    {
      "text": "goods and services which they tend to",
      "start": 456,
      "duration": 4.14
    },
    {
      "text": "consume they don't tend to save up a lot",
      "start": 457.62,
      "duration": 3.84
    },
    {
      "text": "of money and invest it in building a",
      "start": 460.14,
      "duration": 3.27
    },
    {
      "text": "business right you don't get investment",
      "start": 461.46,
      "duration": 3.48
    },
    {
      "text": "in capital goods capital growth and so",
      "start": 463.41,
      "duration": 3.63
    },
    {
      "text": "on nothing wrong with that it's just the",
      "start": 464.94,
      "duration": 2.67
    },
    {
      "text": "reality",
      "start": 467.04,
      "duration": 2.49
    },
    {
      "text": "so the idea goods will stimulate sorry",
      "start": 467.61,
      "duration": 3.45
    },
    {
      "text": "the poor will stimulate demand for",
      "start": 469.53,
      "duration": 2.79
    },
    {
      "text": "consumable goods but they will not",
      "start": 471.06,
      "duration": 4.08
    },
    {
      "text": "generally invest in increases in",
      "start": 472.32,
      "duration": 5.19
    },
    {
      "text": "productivity in the long run so I'm",
      "start": 475.14,
      "duration": 5.64
    },
    {
      "text": "sorry you just need to get your head out",
      "start": 477.51,
      "duration": 6.21
    },
    {
      "text": "of hurt your socialist econ 101 and just",
      "start": 480.78,
      "duration": 4.139
    },
    {
      "text": "take a look at the real world and put",
      "start": 483.72,
      "duration": 3.5
    },
    {
      "text": "yourself in that situation Spacek and",
      "start": 484.919,
      "duration": 4.261
    },
    {
      "text": "economics is basic empathy",
      "start": 487.22,
      "duration": 3.89
    },
    {
      "text": "you know what would I do in that",
      "start": 489.18,
      "duration": 3.7
    },
    {
      "text": "situation mall you know if somebody came",
      "start": 491.11,
      "duration": 3.18
    },
    {
      "text": "into my store said let me hundred bucks",
      "start": 492.88,
      "duration": 2.94
    },
    {
      "text": "and I'll but spend it in your store with",
      "start": 494.29,
      "duration": 2.85
    },
    {
      "text": "that drive economic it's just basic",
      "start": 495.82,
      "duration": 3.84
    },
    {
      "text": "empathy which is why tragically it is so",
      "start": 497.14,
      "duration": 9.86
    },
    {
      "text": "scarce to see Stefan please grow a beard",
      "start": 499.66,
      "duration": 10.11
    },
    {
      "text": "um I don't know first of all I'm not gay",
      "start": 507,
      "duration": 4.15
    },
    {
      "text": "I don't know how to grow a human being",
      "start": 509.77,
      "duration": 4.41
    },
    {
      "text": "that makes me look less gay but ya know",
      "start": 511.15,
      "duration": 4.53
    },
    {
      "text": "I had I was little bit self-conscious",
      "start": 514.18,
      "duration": 3.72
    },
    {
      "text": "about my cancer surgery scar so I grew a",
      "start": 515.68,
      "duration": 3.57
    },
    {
      "text": "beard because of that plastic was a",
      "start": 517.9,
      "duration": 2.64
    },
    {
      "text": "really damn cold winter up here in",
      "start": 519.25,
      "duration": 3.84
    },
    {
      "text": "Canada the weather has warmed up plus I",
      "start": 520.54,
      "duration": 4.02
    },
    {
      "text": "can only ask my wife to take so many",
      "start": 523.09,
      "duration": 3.69
    },
    {
      "text": "brillo pad man hairs up the nose when",
      "start": 524.56,
      "duration": 4.23
    },
    {
      "text": "she kisses me so I'm afraid to her back",
      "start": 526.78,
      "duration": 4.92
    },
    {
      "text": "to baby bottom cheek ville but perhaps",
      "start": 528.79,
      "duration": 5.82
    },
    {
      "text": "if the winter is bad I will resist atop",
      "start": 531.7,
      "duration": 6.48
    },
    {
      "text": "myself but yeah fascinating to see the",
      "start": 534.61,
      "duration": 6.75
    },
    {
      "text": "number of garments about the beard so a",
      "start": 538.18,
      "duration": 5.37
    },
    {
      "text": "video I did called climate change in 12",
      "start": 541.36,
      "duration": 2.58
    },
    {
      "text": "minutes",
      "start": 543.55,
      "duration": 2.58
    },
    {
      "text": "somebody wrote on your last point on the",
      "start": 543.94,
      "duration": 4.53
    },
    {
      "text": "politics if the science here were to be",
      "start": 546.13,
      "duration": 4.2
    },
    {
      "text": "corrupted by the influence of power and",
      "start": 548.47,
      "duration": 3.84
    },
    {
      "text": "money why on earth do you think it would",
      "start": 550.33,
      "duration": 4.65
    },
    {
      "text": "be corrupted in favor of climate change",
      "start": 552.31,
      "duration": 4.5
    },
    {
      "text": "if the scientific community were",
      "start": 554.98,
      "duration": 3.39
    },
    {
      "text": "corruptible in this area then it would",
      "start": 556.81,
      "duration": 3.12
    },
    {
      "text": "most certainly have been done by the",
      "start": 558.37,
      "duration": 2.52
    },
    {
      "text": "vastly wealthy and powerful",
      "start": 559.93,
      "duration": 2.67
    },
    {
      "text": "establishment of billionaires and oil",
      "start": 560.89,
      "duration": 3.27
    },
    {
      "text": "barons who have an enormous interest in",
      "start": 562.6,
      "duration": 4.47
    },
    {
      "text": "maintaining fossil fuel dependence as if",
      "start": 564.16,
      "duration": 5.49
    },
    {
      "text": "to prove my point they already have done",
      "start": 567.07,
      "duration": 4.5
    },
    {
      "text": "this to the political elite over whom",
      "start": 569.65,
      "duration": 4.02
    },
    {
      "text": "they exert their vast influence to the",
      "start": 571.57,
      "duration": 3.81
    },
    {
      "text": "end of opposing any action on climate",
      "start": 573.67,
      "duration": 4.17
    },
    {
      "text": "change if this were also possible for",
      "start": 575.38,
      "duration": 4.02
    },
    {
      "text": "the scientific community don't you think",
      "start": 577.84,
      "duration": 5.04
    },
    {
      "text": "it would have been done so the argument",
      "start": 579.4,
      "duration": 5.04
    },
    {
      "text": "and it's not an argument that is of",
      "start": 582.88,
      "duration": 3.39
    },
    {
      "text": "course scientific it's not an argument",
      "start": 584.44,
      "duration": 4.05
    },
    {
      "text": "that is conclusive but when people say",
      "start": 586.27,
      "duration": 4.59
    },
    {
      "text": "ah you know but the the people who are",
      "start": 588.49,
      "duration": 5.22
    },
    {
      "text": "skeptical of catastrophic anthropogenic",
      "start": 590.86,
      "duration": 4.8
    },
    {
      "text": "global warming which requires massive",
      "start": 593.71,
      "duration": 3.51
    },
    {
      "text": "expansions of government power to solve",
      "start": 595.66,
      "duration": 2.85
    },
    {
      "text": "people who are skeptical of that are",
      "start": 597.22,
      "duration": 3.69
    },
    {
      "text": "just bought off by the oil interests or",
      "start": 598.51,
      "duration": 3.87
    },
    {
      "text": "the rich people who make money off oil",
      "start": 600.91,
      "duration": 4.89
    },
    {
      "text": "and so on well if if that argument is",
      "start": 602.38,
      "duration": 5.52
    },
    {
      "text": "made then far more money is thrown it",
      "start": 605.8,
      "duration": 4.19
    },
    {
      "text": "flowing from the government to pro",
      "start": 607.9,
      "duration": 4.2
    },
    {
      "text": "catastrophic anthropogenic global",
      "start": 609.99,
      "duration": 3.88
    },
    {
      "text": "warming that requires massive political",
      "start": 612.1,
      "duration": 4.98
    },
    {
      "text": "power expansions solve much more money",
      "start": 613.87,
      "duration": 4.35
    },
    {
      "text": "as flowing from the government to those",
      "start": 617.08,
      "duration": 3.42
    },
    {
      "text": "right so we're talking billions and",
      "start": 618.22,
      "duration": 3.99
    },
    {
      "text": "billions and billions of dollars going",
      "start": 620.5,
      "duration": 4.18
    },
    {
      "text": "from government to upload Pro",
      "start": 622.21,
      "duration": 5.379
    },
    {
      "text": "promised climate change research as",
      "start": 624.68,
      "duration": 5.31
    },
    {
      "text": "opposed to far far less money going in",
      "start": 627.589,
      "duration": 4.291
    },
    {
      "text": "the opposite direction so that's really",
      "start": 629.99,
      "duration": 5.07
    },
    {
      "text": "the case for that more fundamentally",
      "start": 631.88,
      "duration": 7.08
    },
    {
      "text": "much more fundamentally if nothing is",
      "start": 635.06,
      "duration": 8.46
    },
    {
      "text": "broken it's hard to sell people a fix if",
      "start": 638.96,
      "duration": 6.66
    },
    {
      "text": "you're not sick it's hard to tell you a",
      "start": 643.52,
      "duration": 4.08
    },
    {
      "text": "cure if you're not lost it's hard to",
      "start": 645.62,
      "duration": 4.35
    },
    {
      "text": "sell you a map if you have no friends",
      "start": 647.6,
      "duration": 6.6
    },
    {
      "text": "how to sell yourself so people have to",
      "start": 649.97,
      "duration": 5.76
    },
    {
      "text": "convince you that the system that you're",
      "start": 654.2,
      "duration": 3.68
    },
    {
      "text": "living in is fundamentally broken",
      "start": 655.73,
      "duration": 4.02
    },
    {
      "text": "fundamentally dangerous that there are",
      "start": 657.88,
      "duration": 4.06
    },
    {
      "text": "powerful vast conspiratorial shadow",
      "start": 659.75,
      "duration": 5.31
    },
    {
      "text": "dangerous chemtrail laced forces that",
      "start": 661.94,
      "duration": 5.28
    },
    {
      "text": "are working against your long-term",
      "start": 665.06,
      "duration": 4.14
    },
    {
      "text": "happiness and survival and freedom and",
      "start": 667.22,
      "duration": 3.929
    },
    {
      "text": "so on and therefore you need powerful",
      "start": 669.2,
      "duration": 5.49
    },
    {
      "text": "protector gavotte transformatron from",
      "start": 671.149,
      "duration": 7.081
    },
    {
      "text": "democracy to obsidian sword wielder of",
      "start": 674.69,
      "duration": 5.64
    },
    {
      "text": "the black magic of state power against",
      "start": 678.23,
      "duration": 3.93
    },
    {
      "text": "the lava but right so you need this",
      "start": 680.33,
      "duration": 4.35
    },
    {
      "text": "mythical fairy tale where in the system",
      "start": 682.16,
      "duration": 5.36
    },
    {
      "text": "that you're in is horrendously unjust",
      "start": 684.68,
      "duration": 7.08
    },
    {
      "text": "unfair wrong bad naughty broken and",
      "start": 687.52,
      "duration": 7.03
    },
    {
      "text": "we've been sold this bill of goods over",
      "start": 691.76,
      "duration": 5.37
    },
    {
      "text": "the last say 40 or 50 years which is",
      "start": 694.55,
      "duration": 5.15
    },
    {
      "text": "that the free market freedom to trade is",
      "start": 697.13,
      "duration": 6.36
    },
    {
      "text": "fundamentally broken and unjust and in",
      "start": 699.7,
      "duration": 6.91
    },
    {
      "text": "been sold in three major ways number one",
      "start": 703.49,
      "duration": 6.349
    },
    {
      "text": "that it is it's bad for the environment",
      "start": 706.61,
      "duration": 6.78
    },
    {
      "text": "that a free trade is terrible for the",
      "start": 709.839,
      "duration": 6.581
    },
    {
      "text": "environment and therefore we need",
      "start": 713.39,
      "duration": 5.16
    },
    {
      "text": "massive amounts of government power in",
      "start": 716.42,
      "duration": 3.39
    },
    {
      "text": "order to protect me from the",
      "start": 718.55,
      "duration": 3.51
    },
    {
      "text": "consequences of unbridled consumerism",
      "start": 719.81,
      "duration": 4.26
    },
    {
      "text": "free trade the rape of the planet and so",
      "start": 722.06,
      "duration": 4.649
    },
    {
      "text": "on and the second is that the free",
      "start": 724.07,
      "duration": 6.15
    },
    {
      "text": "market is inherently unjust to women",
      "start": 726.709,
      "duration": 5.761
    },
    {
      "text": "right that women and sixty-seven cents",
      "start": 730.22,
      "duration": 4.32
    },
    {
      "text": "on the dollar and so on and and all of",
      "start": 732.47,
      "duration": 5.28
    },
    {
      "text": "that and the third is that the free",
      "start": 734.54,
      "duration": 5.039
    },
    {
      "text": "market is fundamentally unjust to blacks",
      "start": 737.75,
      "duration": 4.8
    },
    {
      "text": "right you can't say minorities because",
      "start": 739.579,
      "duration": 5.191
    },
    {
      "text": "Asians are a minority and Asians have a",
      "start": 742.55,
      "duration": 3.57
    },
    {
      "text": "higher per capita income than whites",
      "start": 744.77,
      "duration": 3.39
    },
    {
      "text": "Jews are a minority and Jews have a",
      "start": 746.12,
      "duration": 4.55
    },
    {
      "text": "higher per capita income than whites and",
      "start": 748.16,
      "duration": 6.39
    },
    {
      "text": "that you have to say that it is unjust",
      "start": 750.67,
      "duration": 6.039
    },
    {
      "text": "to blacks in particular so there's",
      "start": 754.55,
      "duration": 3.9
    },
    {
      "text": "there's patriarchy there's races",
      "start": 756.709,
      "duration": 3.121
    },
    {
      "text": "against blacks there's environmental",
      "start": 758.45,
      "duration": 4.02
    },
    {
      "text": "predation and that's why we need this",
      "start": 759.83,
      "duration": 4.46
    },
    {
      "text": "massive government now each of these",
      "start": 762.47,
      "duration": 6.78
    },
    {
      "text": "arguments is well let's just say it's",
      "start": 764.29,
      "duration": 7.18
    },
    {
      "text": "potentially susceptible to empirical",
      "start": 769.25,
      "duration": 3.87
    },
    {
      "text": "rebuttal right to empirical and",
      "start": 771.47,
      "duration": 3.18
    },
    {
      "text": "philosophical rebuttal and I've done",
      "start": 773.12,
      "duration": 2.88
    },
    {
      "text": "that in a variety of shows we don't need",
      "start": 774.65,
      "duration": 3.87
    },
    {
      "text": "to get into it here but this idea that",
      "start": 776,
      "duration": 4.05
    },
    {
      "text": "something is desperately wrong with",
      "start": 778.52,
      "duration": 5.76
    },
    {
      "text": "freedom and therefore we need the state",
      "start": 780.05,
      "duration": 6.06
    },
    {
      "text": "to protect us from freedom we need",
      "start": 784.28,
      "duration": 3.39
    },
    {
      "text": "affirmative action we need equal pay",
      "start": 786.11,
      "duration": 4.08
    },
    {
      "text": "laws we need the EPA we need you know",
      "start": 787.67,
      "duration": 6.24
    },
    {
      "text": "all of this sort of stuff and it's just",
      "start": 790.19,
      "duration": 5.25
    },
    {
      "text": "a bill of goods it's been sold it's like",
      "start": 793.91,
      "duration": 3.54
    },
    {
      "text": "the people are still repeating this myth",
      "start": 795.44,
      "duration": 6
    },
    {
      "text": "that the 2007 2008 financial crash had",
      "start": 797.45,
      "duration": 5.88
    },
    {
      "text": "something to do with deregulation",
      "start": 801.44,
      "duration": 3.42
    },
    {
      "text": "deregulation produced",
      "start": 803.33,
      "duration": 3.96
    },
    {
      "text": "how would you Harlow hello right of",
      "start": 804.86,
      "duration": 3.99
    },
    {
      "text": "course it's all nonsense I mean I have",
      "start": 807.29,
      "duration": 3.12
    },
    {
      "text": "gone over this in a variety of videos",
      "start": 808.85,
      "duration": 3.78
    },
    {
      "text": "you can look at house m.d. for for one",
      "start": 810.41,
      "duration": 4.82
    },
    {
      "text": "of them it's a video on this channel and",
      "start": 812.63,
      "duration": 5.34
    },
    {
      "text": "it's it's all just complete nonsense in",
      "start": 815.23,
      "duration": 5.47
    },
    {
      "text": "financial regulation went up ah but you",
      "start": 817.97,
      "duration": 4.5
    },
    {
      "text": "know glass-steagall Act well last you",
      "start": 820.7,
      "duration": 3.96
    },
    {
      "text": "lacked was also repealed in Canada",
      "start": 822.47,
      "duration": 3.93
    },
    {
      "text": "Canada didn't have the same thing it was",
      "start": 824.66,
      "duration": 3.81
    },
    {
      "text": "federal reserve over printing of money a",
      "start": 826.4,
      "duration": 4.02
    },
    {
      "text": "little tiny thing called giant",
      "start": 828.47,
      "duration": 4.86
    },
    {
      "text": "imperialistic Wars and of course the",
      "start": 830.42,
      "duration": 7.5
    },
    {
      "text": "massive promotion of home ownership",
      "start": 833.33,
      "duration": 6.6
    },
    {
      "text": "among those who had little capacity to",
      "start": 837.92,
      "duration": 5.31
    },
    {
      "text": "sustain own own home ownership in the",
      "start": 839.93,
      "duration": 5.28
    },
    {
      "text": "long run so zero money down massive",
      "start": 843.23,
      "duration": 4.68
    },
    {
      "text": "subsidies and so on so the printing of",
      "start": 845.21,
      "duration": 4.32
    },
    {
      "text": "federal money caused house prices to go",
      "start": 847.91,
      "duration": 3.15
    },
    {
      "text": "up which made everyone think that houses",
      "start": 849.53,
      "duration": 3
    },
    {
      "text": "was some sort of productive investment",
      "start": 851.06,
      "duration": 3
    },
    {
      "text": "rather than a consumption good that ages",
      "start": 852.53,
      "duration": 3.6
    },
    {
      "text": "and gets worse over time so that made",
      "start": 854.06,
      "duration": 4.29
    },
    {
      "text": "people want to buy houses and then you",
      "start": 856.13,
      "duration": 5.46
    },
    {
      "text": "know no money down mortgages a variable",
      "start": 858.35,
      "duration": 4.47
    },
    {
      "text": "rate for people who maybe didn't",
      "start": 861.59,
      "duration": 3.03
    },
    {
      "text": "understand how variable rates could",
      "start": 862.82,
      "duration": 4.14
    },
    {
      "text": "happen could change in the future",
      "start": 864.62,
      "duration": 4.47
    },
    {
      "text": "combined with you know the massive",
      "start": 866.96,
      "duration": 5.73
    },
    {
      "text": "amount of money printing driven by the",
      "start": 869.09,
      "duration": 5.46
    },
    {
      "text": "need to cover up the cost of war and all",
      "start": 872.69,
      "duration": 3.63
    },
    {
      "text": "this sort of artificial suppression of",
      "start": 874.55,
      "duration": 3.33
    },
    {
      "text": "interest rates you name it this is all",
      "start": 876.32,
      "duration": 4.35
    },
    {
      "text": "government power but the idea is you see",
      "start": 877.88,
      "duration": 4.98
    },
    {
      "text": "how you see a little crack of freedom",
      "start": 880.67,
      "duration": 5.4
    },
    {
      "text": "got into the financial sector and that",
      "start": 882.86,
      "duration": 5.58
    },
    {
      "text": "blew the whole thing up I'm the idea of",
      "start": 886.07,
      "duration": 5.04
    },
    {
      "text": "course that deregulation caused in",
      "start": 888.44,
      "duration": 3.17
    },
    {
      "text": "financial",
      "start": 891.11,
      "duration": 2.36
    },
    {
      "text": "- is nonsense the financial crash",
      "start": 891.61,
      "duration": 4.71
    },
    {
      "text": "fundamentally was caused by the lack of",
      "start": 893.47,
      "duration": 4.17
    },
    {
      "text": "moral hazard that the government was",
      "start": 896.32,
      "duration": 3.12
    },
    {
      "text": "going to come in and bail out these",
      "start": 897.64,
      "duration": 3.93
    },
    {
      "text": "companies and anyone who can tell me how",
      "start": 899.44,
      "duration": 3.99
    },
    {
      "text": "government bailouts for failure has",
      "start": 901.57,
      "duration": 3.69
    },
    {
      "text": "anything to do with the free market is",
      "start": 903.43,
      "duration": 4.5
    },
    {
      "text": "somebody I would like to I would like to",
      "start": 905.26,
      "duration": 4.38
    },
    {
      "text": "see try and navigate a zipper crossing",
      "start": 907.93,
      "duration": 5.7
    },
    {
      "text": "so that's my argument I hope that it",
      "start": 909.64,
      "duration": 6.23
    },
    {
      "text": "helps",
      "start": 913.63,
      "duration": 2.24
    }
  ],
  "Errors": null,
  "TranscriptStderr": null
}