[
    {
        "start": "4.399",
        "dur": "3.79",
        "text": "hi everybody it's uh stefan molyneux"
    },
    {
        "start": "6.689",
        "dur": "4.291",
        "text": "from freedomain radio I hope that you're"
    },
    {
        "start": "8.189",
        "dur": "5.37",
        "text": "doing very well this is a take actually"
    },
    {
        "start": "10.98",
        "dur": "6",
        "text": "take three but I'm doing monopolies and"
    },
    {
        "start": "13.559",
        "dur": "3.72",
        "text": "how the free market keeps monopolies at"
    },
    {
        "start": "16.98",
        "dur": "2.459",
        "text": "bay"
    },
    {
        "start": "17.279",
        "dur": "4.051",
        "text": "keeps monopolies from forming because"
    },
    {
        "start": "19.439",
        "dur": "4.771",
        "text": "standard criticism of the free market is"
    },
    {
        "start": "21.33",
        "dur": "4.74",
        "text": "that it has monopolies within it and"
    },
    {
        "start": "24.21",
        "dur": "3.63",
        "text": "those monopolies are going to form and"
    },
    {
        "start": "26.07",
        "dur": "3.449",
        "text": "in the absence of a government to"
    },
    {
        "start": "27.84",
        "dur": "4.98",
        "text": "control and regulate and keep those"
    },
    {
        "start": "29.519",
        "dur": "5.101",
        "text": "monopolies apart then monopolies are"
    },
    {
        "start": "32.82",
        "dur": "4.26",
        "text": "just going to grow and take over their"
    },
    {
        "start": "34.62",
        "dur": "4.53",
        "text": "huge industries and end up crushing the"
    },
    {
        "start": "37.08",
        "dur": "4.86",
        "text": "consumer with limited choices and very"
    },
    {
        "start": "39.15",
        "dur": "6.78",
        "text": "high prices so I'm going to take an"
    },
    {
        "start": "41.94",
        "dur": "5.7",
        "text": "example of a monopoly attempt within a"
    },
    {
        "start": "45.93",
        "dur": "5.1",
        "text": "free market and just show how it's"
    },
    {
        "start": "47.64",
        "dur": "5.55",
        "text": "impossible to have a monopoly in a free"
    },
    {
        "start": "51.03",
        "dur": "4.83",
        "text": "market for anything but the briefest of"
    },
    {
        "start": "53.19",
        "dur": "4.049",
        "text": "moments and how the natural laws of"
    },
    {
        "start": "55.86",
        "dur": "3.42",
        "text": "economics are going to work to break up"
    },
    {
        "start": "57.239",
        "dur": "5.46",
        "text": "any conceivable monopolies that might"
    },
    {
        "start": "59.28",
        "dur": "6.12",
        "text": "occur so for our example we're going to"
    },
    {
        "start": "62.699",
        "dur": "4.861",
        "text": "take a nefarious cabal of milk producers"
    },
    {
        "start": "65.4",
        "dur": "5.1",
        "text": "you know those evil calcium pushers and"
    },
    {
        "start": "67.56",
        "dur": "7.32",
        "text": "we're gonna show how no matter what they"
    },
    {
        "start": "70.5",
        "dur": "6.63",
        "text": "try to do to combine together to to"
    },
    {
        "start": "74.88",
        "dur": "5.19",
        "text": "create a monopoly to inflate prices to"
    },
    {
        "start": "77.13",
        "dur": "4.95",
        "text": "shaft the consumer that it's just not"
    },
    {
        "start": "80.07",
        "dur": "4.2",
        "text": "gonna work and then we'll talk about how"
    },
    {
        "start": "82.08",
        "dur": "6.24",
        "text": "a government in fact is what aids and"
    },
    {
        "start": "84.27",
        "dur": "6.78",
        "text": "controls and phosphorus the the creation"
    },
    {
        "start": "88.32",
        "dur": "4.26",
        "text": "of monopolies within a free-market"
    },
    {
        "start": "91.05",
        "dur": "3.27",
        "text": "system what generally happens is the"
    },
    {
        "start": "92.58",
        "dur": "4.079",
        "text": "government will create a problem by"
    },
    {
        "start": "94.32",
        "dur": "3.87",
        "text": "increasing its power and then because"
    },
    {
        "start": "96.659",
        "dur": "3.841",
        "text": "that problem has been and created it"
    },
    {
        "start": "98.19",
        "dur": "4.44",
        "text": "further increases its power to quote"
    },
    {
        "start": "100.5",
        "dur": "3.69",
        "text": "solve the problem which then leads to"
    },
    {
        "start": "102.63",
        "dur": "3.54",
        "text": "further increases in power this is the"
    },
    {
        "start": "104.19",
        "dur": "3.87",
        "text": "spiral that we see where we go from say"
    },
    {
        "start": "106.17",
        "dur": "4.26",
        "text": "the founding of the american republic to"
    },
    {
        "start": "108.06",
        "dur": "5.19",
        "text": "the current gargantuan Leviathan mess"
    },
    {
        "start": "110.43",
        "dur": "5.37",
        "text": "that we have now so let's have a look at"
    },
    {
        "start": "113.25",
        "dur": "5.85",
        "text": "this evil milk cabal producer so we're"
    },
    {
        "start": "115.8",
        "dur": "6.179",
        "text": "going to use the magic whiteboard"
    },
    {
        "start": "119.1",
        "dur": "5.37",
        "text": "through which we step sort of like the"
    },
    {
        "start": "121.979",
        "dur": "5.301",
        "text": "back of a closet into another world of"
    },
    {
        "start": "124.47",
        "dur": "6.299",
        "text": "economic and philosophical truth so"
    },
    {
        "start": "127.28",
        "dur": "6.61",
        "text": "let's start with a pretty simple example"
    },
    {
        "start": "130.769",
        "dur": "5.321",
        "text": "a sort of basic situation milk is being"
    },
    {
        "start": "133.89",
        "dur": "4.45",
        "text": "sold for a buck a leader"
    },
    {
        "start": "136.09",
        "dur": "5.369",
        "text": "or a gallon for our medieval us friends"
    },
    {
        "start": "138.34",
        "dur": "4.47",
        "text": "in their Imperial system and finally"
    },
    {
        "start": "141.459",
        "dur": "3",
        "text": "fight off the British and keep the"
    },
    {
        "start": "142.81",
        "dur": "3.6",
        "text": "system model British move on anyway we"
    },
    {
        "start": "144.459",
        "dur": "4.201",
        "text": "can talk about that another time but we"
    },
    {
        "start": "146.41",
        "dur": "4.859",
        "text": "have this evil cabal of milk producers"
    },
    {
        "start": "148.66",
        "dur": "5.04",
        "text": "so milk is being sold and a buck a"
    },
    {
        "start": "151.269",
        "dur": "5.671",
        "text": "gallon and the evil mr. burns type"
    },
    {
        "start": "153.7",
        "dur": "5.31",
        "text": "capitalists say not good it's lit let us"
    },
    {
        "start": "156.94",
        "dur": "4.439",
        "text": "move to a system where we can really"
    },
    {
        "start": "159.01",
        "dur": "5.1",
        "text": "pump up the price right so you got a"
    },
    {
        "start": "161.379",
        "dur": "5.401",
        "text": "whole bunch of milk producers well just"
    },
    {
        "start": "164.11",
        "dur": "4.5",
        "text": "put it together here make sure that you"
    },
    {
        "start": "166.78",
        "dur": "3.39",
        "text": "can see that yep so we've got this cabal"
    },
    {
        "start": "168.61",
        "dur": "3.719",
        "text": "of milk producers they get together and"
    },
    {
        "start": "170.17",
        "dur": "6.27",
        "text": "they say we're gonna push up the price"
    },
    {
        "start": "172.329",
        "dur": "7.111",
        "text": "of milk and and really exploit a"
    },
    {
        "start": "176.44",
        "dur": "4.769",
        "text": "children's needs to develop bones say"
    },
    {
        "start": "179.44",
        "dur": "6.75",
        "text": "and we're gonna take the price of milk"
    },
    {
        "start": "181.209",
        "dur": "8.191",
        "text": "from a $1 dollar dunno"
    },
    {
        "start": "186.19",
        "dur": "4.74",
        "text": "all the way to dollar duo right so that"
    },
    {
        "start": "189.4",
        "dur": "3.6",
        "text": "they all get together and they say we're"
    },
    {
        "start": "190.93",
        "dur": "4.589",
        "text": "gonna start pushing up our prices"
    },
    {
        "start": "193",
        "dur": "3.93",
        "text": "together right so they all meet in some"
    },
    {
        "start": "195.519",
        "dur": "3.141",
        "text": "that back alley and they all agree"
    },
    {
        "start": "196.93",
        "dur": "5.369",
        "text": "that's not raising their prices together"
    },
    {
        "start": "198.66",
        "dur": "5.979",
        "text": "now I don't mind given the complete"
    },
    {
        "start": "202.299",
        "dur": "4.711",
        "text": "weight of the argument to the the"
    },
    {
        "start": "204.639",
        "dur": "4.981",
        "text": "opponents side to say let's say that"
    },
    {
        "start": "207.01",
        "dur": "4.229",
        "text": "this is like 80% of the market right 80%"
    },
    {
        "start": "209.62",
        "dur": "3.81",
        "text": "of the market all get together and all"
    },
    {
        "start": "211.239",
        "dur": "4.381",
        "text": "decide to start raising their prices at"
    },
    {
        "start": "213.43",
        "dur": "3.69",
        "text": "the same time because obviously they're"
    },
    {
        "start": "215.62",
        "dur": "3.869",
        "text": "making money at a buck right maybe it"
    },
    {
        "start": "217.12",
        "dur": "3.869",
        "text": "costs 90 or 95 cents corporate profits"
    },
    {
        "start": "219.489",
        "dur": "4.62",
        "text": "you should rent reach range three to six"
    },
    {
        "start": "220.989",
        "dur": "4.65",
        "text": "percent in a free market so they're"
    },
    {
        "start": "224.109",
        "dur": "3.21",
        "text": "making money a ninety five cents they're"
    },
    {
        "start": "225.639",
        "dur": "3.331",
        "text": "making a nickel if they get it to two"
    },
    {
        "start": "227.319",
        "dur": "2.79",
        "text": "bucks they're making a buck five which"
    },
    {
        "start": "228.97",
        "dur": "3.21",
        "text": "is you know they might as well have a"
    },
    {
        "start": "230.109",
        "dur": "5.671",
        "text": "license to print money so this is what"
    },
    {
        "start": "232.18",
        "dur": "6.929",
        "text": "it is they're trying to do so what we"
    },
    {
        "start": "235.78",
        "dur": "5.19",
        "text": "can see is that when this occurs the"
    },
    {
        "start": "239.109",
        "dur": "3.091",
        "text": "first thing that occurs and let's just"
    },
    {
        "start": "240.97",
        "dur": "2.549",
        "text": "say they're gonna scale up the price"
    },
    {
        "start": "242.2",
        "dur": "3.48",
        "text": "they don't just bump it from one day to"
    },
    {
        "start": "243.519",
        "dur": "3.951",
        "text": "the next they're gonna scale up the"
    },
    {
        "start": "245.68",
        "dur": "4.08",
        "text": "price so let's have a look and make sure"
    },
    {
        "start": "247.47",
        "dur": "4.18",
        "text": "and we have a little bit more room for"
    },
    {
        "start": "249.76",
        "dur": "5.779",
        "text": "that so let me just make that a little"
    },
    {
        "start": "251.65",
        "dur": "6.149",
        "text": "larger they're gonna scale up the price"
    },
    {
        "start": "255.539",
        "dur": "5.5",
        "text": "so for those who may have slept through"
    },
    {
        "start": "257.799",
        "dur": "7.691",
        "text": "UConn 101 here's the famous supply"
    },
    {
        "start": "261.039",
        "dur": "7.671",
        "text": "demand right so this is the"
    },
    {
        "start": "265.49",
        "dur": "5.5",
        "text": "so this is one dollar it's not stolen"
    },
    {
        "start": "268.71",
        "dur": "4.98",
        "text": "yet it's over so this is one dollar and"
    },
    {
        "start": "270.99",
        "dur": "5.07",
        "text": "this is two dollars and this is the"
    },
    {
        "start": "273.69",
        "dur": "3.81",
        "text": "demand right so there's lots of the fair"
    },
    {
        "start": "276.06",
        "dur": "4.35",
        "text": "amount you can make this zero at beyond"
    },
    {
        "start": "277.5",
        "dur": "5.4",
        "text": "this infinite demand right so at a buck"
    },
    {
        "start": "280.41",
        "dur": "5.7",
        "text": "we'll just say there's units ten of"
    },
    {
        "start": "282.9",
        "dur": "8.06",
        "text": "demand and then as the price increases"
    },
    {
        "start": "286.11",
        "dur": "4.85",
        "text": "the demand is going to decrease"
    },
    {
        "start": "291.41",
        "dur": "4.62",
        "text": "somewhere it may not be down at zero at"
    },
    {
        "start": "294.03",
        "dur": "4.44",
        "text": "2 bucks but it's going to be lower right"
    },
    {
        "start": "296.03",
        "dur": "5.65",
        "text": "now the interesting thing of course is"
    },
    {
        "start": "298.47",
        "dur": "5.729",
        "text": "that as the price increases the amount"
    },
    {
        "start": "301.68",
        "dur": "5.25",
        "text": "of goods that you're selling again in a"
    },
    {
        "start": "304.199",
        "dur": "4.741",
        "text": "free market it's gonna go down right so"
    },
    {
        "start": "306.93",
        "dur": "4.109",
        "text": "are you really making a whole lot more"
    },
    {
        "start": "308.94",
        "dur": "3.75",
        "text": "money right if you are making a nickel"
    },
    {
        "start": "311.039",
        "dur": "4.861",
        "text": "and selling a million units but at 2"
    },
    {
        "start": "312.69",
        "dur": "5.849",
        "text": "bucks you only sell 10,000 units you're"
    },
    {
        "start": "315.9",
        "dur": "5.37",
        "text": "making a buck per unit but your actual"
    },
    {
        "start": "318.539",
        "dur": "4.171",
        "text": "total profit is going to be less so this"
    },
    {
        "start": "321.27",
        "dur": "3.81",
        "text": "is sort of an interesting phenomenon"
    },
    {
        "start": "322.71",
        "dur": "4.16",
        "text": "that occurs now the other thing that"
    },
    {
        "start": "325.08",
        "dur": "3.69",
        "text": "occurs is that this is just milk"
    },
    {
        "start": "326.87",
        "dur": "4.329",
        "text": "production sorry this is milk"
    },
    {
        "start": "328.77",
        "dur": "6.24",
        "text": "consumption the interesting thing is"
    },
    {
        "start": "331.199",
        "dur": "5.19",
        "text": "that when you put this kind of a system"
    },
    {
        "start": "335.01",
        "dur": "4.05",
        "text": "in place where you're raising the price"
    },
    {
        "start": "336.389",
        "dur": "4.471",
        "text": "of milk people's need or demand for"
    },
    {
        "start": "339.06",
        "dur": "3.3",
        "text": "certain aspects of milk right something"
    },
    {
        "start": "340.86",
        "dur": "6.27",
        "text": "nice to drink that's relatively healthy"
    },
    {
        "start": "342.36",
        "dur": "6.39",
        "text": "that has calcium in it and so on they're"
    },
    {
        "start": "347.13",
        "dur": "3.27",
        "text": "still going to be a demand for it right"
    },
    {
        "start": "348.75",
        "dur": "4.199",
        "text": "so this is just the milk future in lose"
    },
    {
        "start": "350.4",
        "dur": "4.32",
        "text": "the muse of massive so this is just the"
    },
    {
        "start": "352.949",
        "dur": "3.84",
        "text": "milk but the demand is gonna continue"
    },
    {
        "start": "354.72",
        "dur": "4.56",
        "text": "right for things that people need to"
    },
    {
        "start": "356.789",
        "dur": "3.72",
        "text": "drink something right so if they're not"
    },
    {
        "start": "359.28",
        "dur": "3.87",
        "text": "drinking milk they're gonna drink"
    },
    {
        "start": "360.509",
        "dur": "5.101",
        "text": "something else it's gonna be soy milk or"
    },
    {
        "start": "363.15",
        "dur": "6.299",
        "text": "it's going to be some sort of coca-cola"
    },
    {
        "start": "365.61",
        "dur": "5.67",
        "text": "substitute that has calcium enrichment"
    },
    {
        "start": "369.449",
        "dur": "3.81",
        "text": "in it or something like that it's gonna"
    },
    {
        "start": "371.28",
        "dur": "4.05",
        "text": "be that blue liquid from Star Wars"
    },
    {
        "start": "373.259",
        "dur": "4.711",
        "text": "or maybe people who really want milk"
    },
    {
        "start": "375.33",
        "dur": "5.19",
        "text": "will just go up to pregnant or or go up"
    },
    {
        "start": "377.97",
        "dur": "4.319",
        "text": "to to breastfeeding women with 5 bucks"
    },
    {
        "start": "380.52",
        "dur": "3.81",
        "text": "and a winning handsome a winning smile"
    },
    {
        "start": "382.289",
        "dur": "3.091",
        "text": "and so all of this kind of stuff is"
    },
    {
        "start": "384.33",
        "dur": "3.119",
        "text": "still gonna cut people are still gonna"
    },
    {
        "start": "385.38",
        "dur": "3.99",
        "text": "drink this stuff it's just that there's"
    },
    {
        "start": "387.449",
        "dur": "4.381",
        "text": "gonna be substitutes that are going to"
    },
    {
        "start": "389.37",
        "dur": "4.83",
        "text": "come in right so basically by raising"
    },
    {
        "start": "391.83",
        "dur": "4.139",
        "text": "the price beyond what people are willing"
    },
    {
        "start": "394.2",
        "dur": "3.66",
        "text": "to pay for milk what you're doing is"
    },
    {
        "start": "395.969",
        "dur": "4.711",
        "text": "you're inviting other people to"
    },
    {
        "start": "397.86",
        "dur": "6.089",
        "text": "and supply that demand so if we have a"
    },
    {
        "start": "400.68",
        "dur": "6.66",
        "text": "look at this supply demand curve right"
    },
    {
        "start": "403.949",
        "dur": "5.761",
        "text": "so at a buck 10 people will buy it at 2"
    },
    {
        "start": "407.34",
        "dur": "4.74",
        "text": "bucks I don't know maybe 2 people will"
    },
    {
        "start": "409.71",
        "dur": "3.989",
        "text": "buy it right so there's 8 people who"
    },
    {
        "start": "412.08",
        "dur": "3.839",
        "text": "formerly would have bought milk who now"
    },
    {
        "start": "413.699",
        "dur": "3.361",
        "text": "wants something other than milk and it"
    },
    {
        "start": "415.919",
        "dur": "2.31",
        "text": "may be a completely different stuff"
    },
    {
        "start": "417.06",
        "dur": "2.43",
        "text": "subdued maybe they'll just take calcium"
    },
    {
        "start": "418.229",
        "dur": "3.511",
        "text": "pills and they'll go and buy a pair of"
    },
    {
        "start": "419.49",
        "dur": "3.69",
        "text": "shoes but somewhere are people that are"
    },
    {
        "start": "421.74",
        "dur": "2.6",
        "text": "no longer spending money on milk and"
    },
    {
        "start": "423.18",
        "dur": "3.63",
        "text": "they're spending money on other things"
    },
    {
        "start": "424.34",
        "dur": "4.329",
        "text": "so what you're basically doing is you're"
    },
    {
        "start": "426.81",
        "dur": "3.599",
        "text": "taking money that used to come to you"
    },
    {
        "start": "428.669",
        "dur": "3.06",
        "text": "and you're putting it elsewhere into the"
    },
    {
        "start": "430.409",
        "dur": "2.581",
        "text": "market probably in the form of some"
    },
    {
        "start": "431.729",
        "dur": "3.09",
        "text": "other milk substitute but it could be"
    },
    {
        "start": "432.99",
        "dur": "3.51",
        "text": "anything else right so you're really"
    },
    {
        "start": "434.819",
        "dur": "4.291",
        "text": "just driving customers away when you all"
    },
    {
        "start": "436.5",
        "dur": "4.8",
        "text": "get together to raise the price so"
    },
    {
        "start": "439.11",
        "dur": "4.529",
        "text": "that's sort of one basic thing that"
    },
    {
        "start": "441.3",
        "dur": "3.78",
        "text": "occurs right so so this Delta between"
    },
    {
        "start": "443.639",
        "dur": "3.12",
        "text": "the 10 and the 2 of the 10 and the 5"
    },
    {
        "start": "445.08",
        "dur": "3.51",
        "text": "however many people are no longer buying"
    },
    {
        "start": "446.759",
        "dur": "4.321",
        "text": "milk is just an invitation for other"
    },
    {
        "start": "448.59",
        "dur": "7.109",
        "text": "people to come in now earlier I"
    },
    {
        "start": "451.08",
        "dur": "6.329",
        "text": "mentioned that it was 80% of the"
    },
    {
        "start": "455.699",
        "dur": "4.53",
        "text": "marketplace was taken up with this evil"
    },
    {
        "start": "457.409",
        "dur": "5.97",
        "text": "cabal of the milk producers right so the"
    },
    {
        "start": "460.229",
        "dur": "7.141",
        "text": "challenge of course is that there's"
    },
    {
        "start": "463.379",
        "dur": "5.701",
        "text": "still 20% of the milk producers who"
    },
    {
        "start": "467.37",
        "dur": "4.049",
        "text": "aren't in the Cabal and it really"
    },
    {
        "start": "469.08",
        "dur": "5.04",
        "text": "doesn't matter whether it's 20% or 10%"
    },
    {
        "start": "471.419",
        "dur": "5.4",
        "text": "or 5% there's always someone who's not"
    },
    {
        "start": "474.12",
        "dur": "5.519",
        "text": "in the cabal right because the"
    },
    {
        "start": "476.819",
        "dur": "5.731",
        "text": "interesting thing is that as the price"
    },
    {
        "start": "479.639",
        "dur": "4.83",
        "text": "is raised by the Cabal of evil milk"
    },
    {
        "start": "482.55",
        "dur": "5.13",
        "text": "producers right so as the price"
    },
    {
        "start": "484.469",
        "dur": "4.861",
        "text": "increases the opportunity for other"
    },
    {
        "start": "487.68",
        "dur": "4.62",
        "text": "people to come in and undercut them"
    },
    {
        "start": "489.33",
        "dur": "5.639",
        "text": "becomes quite quite quite significant"
    },
    {
        "start": "492.3",
        "dur": "6.81",
        "text": "right so if we have a look at you know"
    },
    {
        "start": "494.969",
        "dur": "6.81",
        "text": "just let's just do price right so here"
    },
    {
        "start": "499.11",
        "dur": "4.079",
        "text": "shouldn't you just let me stop it again"
    },
    {
        "start": "501.779",
        "dur": "6.301",
        "text": "so here let's just say the price"
    },
    {
        "start": "503.189",
        "dur": "7.29",
        "text": "originally is a dollar right that's zero"
    },
    {
        "start": "508.08",
        "dur": "5.28",
        "text": "that's one dollar and then what they do"
    },
    {
        "start": "510.479",
        "dur": "5.73",
        "text": "is they boost the price up to 2 bucks so"
    },
    {
        "start": "513.36",
        "dur": "4.919",
        "text": "what's going to happen is of course that"
    },
    {
        "start": "516.209",
        "dur": "4.14",
        "text": "all of the people who would not spend"
    },
    {
        "start": "518.279",
        "dur": "4.44",
        "text": "much more than a dollar are going to"
    },
    {
        "start": "520.349",
        "dur": "3.81",
        "text": "need their milk and of course what"
    },
    {
        "start": "522.719",
        "dur": "2.341",
        "text": "they'd rather do is just get milk and we"
    },
    {
        "start": "524.159",
        "dur": "5.281",
        "text": "know that because there"
    },
    {
        "start": "525.06",
        "dur": "6.33",
        "text": "by it in a buck so let's say that 80% of"
    },
    {
        "start": "529.44",
        "dur": "2.58",
        "text": "the market or 90 percent or 95 doesn't"
    },
    {
        "start": "531.39",
        "dur": "3.78",
        "text": "really matter"
    },
    {
        "start": "532.02",
        "dur": "5.94",
        "text": "raises the price to 2 bucks right what"
    },
    {
        "start": "535.17",
        "dur": "5.609",
        "text": "that means of course is that someone"
    },
    {
        "start": "537.96",
        "dur": "7.14",
        "text": "from outside the Cabal is now going to"
    },
    {
        "start": "540.779",
        "dur": "6.481",
        "text": "come in and raise and because the price"
    },
    {
        "start": "545.1",
        "dur": "3.78",
        "text": "is gone for 2 bucks as a whole they're"
    },
    {
        "start": "547.26",
        "dur": "3.81",
        "text": "gonna come in and they're gonna offer a"
    },
    {
        "start": "548.88",
        "dur": "3.69",
        "text": "dollar ninety or a dollar 80 well"
    },
    {
        "start": "551.07",
        "dur": "3.72",
        "text": "whatever it is they may even offer it at"
    },
    {
        "start": "552.57",
        "dur": "4.8",
        "text": "a dollar 10 they may even continue to"
    },
    {
        "start": "554.79",
        "dur": "4.23",
        "text": "offer it at a dog so the problem is as"
    },
    {
        "start": "557.37",
        "dur": "3.3",
        "text": "the prices artificially raised you"
    },
    {
        "start": "559.02",
        "dur": "3.96",
        "text": "increase the incentive and the"
    },
    {
        "start": "560.67",
        "dur": "4.29",
        "text": "motivation for other people to come in"
    },
    {
        "start": "562.98",
        "dur": "3.42",
        "text": "and and undercut you even if you've"
    },
    {
        "start": "564.96",
        "dur": "2.76",
        "text": "worked in a consulting field or as I"
    },
    {
        "start": "566.4",
        "dur": "3.45",
        "text": "have in the software field you can see"
    },
    {
        "start": "567.72",
        "dur": "3.93",
        "text": "this happening a fairly regularly when"
    },
    {
        "start": "569.85",
        "dur": "4.46",
        "text": "you raise the prices you're inviting"
    },
    {
        "start": "571.65",
        "dur": "5.64",
        "text": "other people to come in and undercut you"
    },
    {
        "start": "574.31",
        "dur": "5.62",
        "text": "so what happens is these people have 80%"
    },
    {
        "start": "577.29",
        "dur": "5.489",
        "text": "of the market when they start but when"
    },
    {
        "start": "579.93",
        "dur": "4.71",
        "text": "they raise the price right what is gonna"
    },
    {
        "start": "582.779",
        "dur": "3.451",
        "text": "happen immediately is they're gonna"
    },
    {
        "start": "584.64",
        "dur": "4.44",
        "text": "start losing market share and they're"
    },
    {
        "start": "586.23",
        "dur": "4.8",
        "text": "gonna start losing market share to"
    },
    {
        "start": "589.08",
        "dur": "4.259",
        "text": "everybody who's not in the Cabal right"
    },
    {
        "start": "591.03",
        "dur": "4.26",
        "text": "this is why it's short-circuits right"
    },
    {
        "start": "593.339",
        "dur": "4.411",
        "text": "the more people you get in the Cabal to"
    },
    {
        "start": "595.29",
        "dur": "5.31",
        "text": "raise the prices of milk the more"
    },
    {
        "start": "597.75",
        "dur": "4.77",
        "text": "incentive there is not to join the cabal"
    },
    {
        "start": "600.6",
        "dur": "4.44",
        "text": "but rather to let them raise the prices"
    },
    {
        "start": "602.52",
        "dur": "4.14",
        "text": "and undercut people who are doing that"
    },
    {
        "start": "605.04",
        "dur": "4.77",
        "text": "right so so that's a particular"
    },
    {
        "start": "606.66",
        "dur": "5.07",
        "text": "challenge that can't really be solved in"
    },
    {
        "start": "609.81",
        "dur": "6.09",
        "text": "a free market other than by not joining"
    },
    {
        "start": "611.73",
        "dur": "5.97",
        "text": "a cabal and even if we say a hundred"
    },
    {
        "start": "615.9",
        "dur": "3.66",
        "text": "percent of milk producers in the United"
    },
    {
        "start": "617.7",
        "dur": "3.57",
        "text": "States join this cabal well somebody's"
    },
    {
        "start": "619.56",
        "dur": "3.75",
        "text": "just going to import milk from overseas"
    },
    {
        "start": "621.27",
        "dur": "3.45",
        "text": "from Canada from Mexico whatever still"
    },
    {
        "start": "623.31",
        "dur": "5.91",
        "text": "going to undercut these people you just"
    },
    {
        "start": "624.72",
        "dur": "7.53",
        "text": "you can't guess this kind of monopoly at"
    },
    {
        "start": "629.22",
        "dur": "5.22",
        "text": "all very easily right but let's say that"
    },
    {
        "start": "632.25",
        "dur": "3.959",
        "text": "again will will give the strongest"
    },
    {
        "start": "634.44",
        "dur": "9.269",
        "text": "conceivable arguments to the anti free"
    },
    {
        "start": "636.209",
        "dur": "10.32",
        "text": "market ideas so let's say that you get a"
    },
    {
        "start": "643.709",
        "dur": "5.941",
        "text": "hundred percent of people of milk"
    },
    {
        "start": "646.529",
        "dur": "6.06",
        "text": "producers in this cabal"
    },
    {
        "start": "649.65",
        "dur": "4.5",
        "text": "my rickety set up here so you get a"
    },
    {
        "start": "652.589",
        "dur": "4.201",
        "text": "hundred percent of Milk Producers"
    },
    {
        "start": "654.15",
        "dur": "5.43",
        "text": "running the big ones the little ones the"
    },
    {
        "start": "656.79",
        "dur": "4.739",
        "text": "whole constellation of Milk Producers in"
    },
    {
        "start": "659.58",
        "dur": "4.11",
        "text": "a particular geographical region has"
    },
    {
        "start": "661.529",
        "dur": "5.491",
        "text": "joined this cabal they're all absolutely"
    },
    {
        "start": "663.69",
        "dur": "6.6",
        "text": "determined to raise the price to $2"
    },
    {
        "start": "667.02",
        "dur": "5.55",
        "text": "right and let's say that they can snap"
    },
    {
        "start": "670.29",
        "dur": "4.29",
        "text": "their fingers and create magical walls"
    },
    {
        "start": "672.57",
        "dur": "3.57",
        "text": "without a government to any possible"
    },
    {
        "start": "674.58",
        "dur": "4.199",
        "text": "foreign competition coming in and"
    },
    {
        "start": "676.14",
        "dur": "5.449",
        "text": "undercutting it and let's even say that"
    },
    {
        "start": "678.779",
        "dur": "5.161",
        "text": "they can somehow magically prevent the"
    },
    {
        "start": "681.589",
        "dur": "4.901",
        "text": "substitution of other drinks the soy"
    },
    {
        "start": "683.94",
        "dur": "4.41",
        "text": "milk and so on to to their stuff to"
    },
    {
        "start": "686.49",
        "dur": "3.3",
        "text": "their milk price so let's just say they"
    },
    {
        "start": "688.35",
        "dur": "3.87",
        "text": "can and would never happen but let's say"
    },
    {
        "start": "689.79",
        "dur": "4.02",
        "text": "they can get the price of milk to 2"
    },
    {
        "start": "692.22",
        "dur": "3.09",
        "text": "bucks universally in a geographical"
    },
    {
        "start": "693.81",
        "dur": "3.56",
        "text": "region or something like that without a"
    },
    {
        "start": "695.31",
        "dur": "5.85",
        "text": "government we'll get into that and say"
    },
    {
        "start": "697.37",
        "dur": "7.11",
        "text": "well you're going to have a problem"
    },
    {
        "start": "701.16",
        "dur": "6",
        "text": "right and you're gonna have a problem"
    },
    {
        "start": "704.48",
        "dur": "4.12",
        "text": "because each one of these companies is"
    },
    {
        "start": "707.16",
        "dur": "2.67",
        "text": "no cabal as a whole right there's"
    },
    {
        "start": "708.6",
        "dur": "3.51",
        "text": "companies as individuals and as"
    },
    {
        "start": "709.83",
        "dur": "6.57",
        "text": "individuals within those companies who"
    },
    {
        "start": "712.11",
        "dur": "5.91",
        "text": "are making decisions to maximize their"
    },
    {
        "start": "716.4",
        "dur": "4.439",
        "text": "profit these are individuals so they"
    },
    {
        "start": "718.02",
        "dur": "4.23",
        "text": "join the cabal because they're evil"
    },
    {
        "start": "720.839",
        "dur": "3.331",
        "text": "capitalists and they want to make as"
    },
    {
        "start": "722.25",
        "dur": "3.66",
        "text": "much money as humanly possible which i"
    },
    {
        "start": "724.17",
        "dur": "3.6",
        "text": "think is i love it when people want my"
    },
    {
        "start": "725.91",
        "dur": "3.81",
        "text": "money because that means that they're"
    },
    {
        "start": "727.77",
        "dur": "3.78",
        "text": "gonna serve me well right I mean that's"
    },
    {
        "start": "729.72",
        "dur": "4.47",
        "text": "so the greed is good right in that sense"
    },
    {
        "start": "731.55",
        "dur": "4.83",
        "text": "so let's say you've got all this evil"
    },
    {
        "start": "734.19",
        "dur": "9.78",
        "text": "cabal and they're all together and they"
    },
    {
        "start": "736.38",
        "dur": "14.12",
        "text": "all manage to get the price up to $2"
    },
    {
        "start": "743.97",
        "dur": "9.21",
        "text": "right so here's the interesting thing"
    },
    {
        "start": "750.5",
        "dur": "4.6",
        "text": "each company joined the Cabal because"
    },
    {
        "start": "753.18",
        "dur": "4.02",
        "text": "they want to make a lot of money"
    },
    {
        "start": "755.1",
        "dur": "4.89",
        "text": "so if everyone is selling milk at 2"
    },
    {
        "start": "757.2",
        "dur": "6.66",
        "text": "bucks what happens if I come in as evil"
    },
    {
        "start": "759.99",
        "dur": "9.06",
        "text": "cabal member number 666 I come in and I"
    },
    {
        "start": "763.86",
        "dur": "10.229",
        "text": "say I'm gonna sell my milk at buck knife"
    },
    {
        "start": "769.05",
        "dur": "8.82",
        "text": "right here right so I'm in the cabal but"
    },
    {
        "start": "774.089",
        "dur": "7.051",
        "text": "I decide to undercut the cabal by $0.10"
    },
    {
        "start": "777.87",
        "dur": "5.219",
        "text": "I am going to make a killing right"
    },
    {
        "start": "781.14",
        "dur": "3.93",
        "text": "because everybody in the economic system"
    },
    {
        "start": "783.089",
        "dur": "4.141",
        "text": "has the same motive right to maximize"
    },
    {
        "start": "785.07",
        "dur": "3.33",
        "text": "their resources minimum of effort so the"
    },
    {
        "start": "787.23",
        "dur": "2.85",
        "text": "consumers are going to want to pay less"
    },
    {
        "start": "788.4",
        "dur": "4.71",
        "text": "right so whoever is gonna offer them"
    },
    {
        "start": "790.08",
        "dur": "4.89",
        "text": "less it's going to capture the market"
    },
    {
        "start": "793.11",
        "dur": "4.5",
        "text": "right so if I offered a buck 90 or a"
    },
    {
        "start": "794.97",
        "dur": "5.73",
        "text": "buck 80 there is going to be a massive"
    },
    {
        "start": "797.61",
        "dur": "4.979",
        "text": "flood so to speak of consumer demand in"
    },
    {
        "start": "800.7",
        "dur": "3.51",
        "text": "my direction right and this is the real"
    },
    {
        "start": "802.589",
        "dur": "3.391",
        "text": "challenge that occurs whenever you have"
    },
    {
        "start": "804.21",
        "dur": "3.569",
        "text": "a kebab and you're gonna say well yes"
    },
    {
        "start": "805.98",
        "dur": "4.109",
        "text": "but the Cabal is gonna make sure that"
    },
    {
        "start": "807.779",
        "dur": "4.651",
        "text": "nobody under cats the price but this of"
    },
    {
        "start": "810.089",
        "dur": "3.841",
        "text": "course doesn't really happen because I"
    },
    {
        "start": "812.43",
        "dur": "3.599",
        "text": "mean when you're getting together as a"
    },
    {
        "start": "813.93",
        "dur": "3.96",
        "text": "Cabal to the shop the consumer there's"
    },
    {
        "start": "816.029",
        "dur": "3.691",
        "text": "no honor among thieves so to speak so"
    },
    {
        "start": "817.89",
        "dur": "4.17",
        "text": "what always happens and this is true"
    },
    {
        "start": "819.72",
        "dur": "3.869",
        "text": "historically is that everybody joins the"
    },
    {
        "start": "822.06",
        "dur": "2.76",
        "text": "Cabal saying yes we're going to raise"
    },
    {
        "start": "823.589",
        "dur": "2.491",
        "text": "the prices and we're going to restrict"
    },
    {
        "start": "824.82",
        "dur": "3.93",
        "text": "supply we're going to do X we're gonna"
    },
    {
        "start": "826.08",
        "dur": "4.5",
        "text": "do y we're gonna do Zed but the same"
    },
    {
        "start": "828.75",
        "dur": "3.27",
        "text": "greed which drew them together a core"
    },
    {
        "start": "830.58",
        "dur": "3.93",
        "text": "system to start undercutting each other"
    },
    {
        "start": "832.02",
        "dur": "5.009",
        "text": "secretly so I'm evil cabal member number"
    },
    {
        "start": "834.51",
        "dur": "5.04",
        "text": "666 everybody's selling milk at two"
    },
    {
        "start": "837.029",
        "dur": "5.041",
        "text": "bucks a gallon or a leader I come in and"
    },
    {
        "start": "839.55",
        "dur": "4.83",
        "text": "say that dude you know just between you"
    },
    {
        "start": "842.07",
        "dur": "3.93",
        "text": "and me to one of my major customers"
    },
    {
        "start": "844.38",
        "dur": "3.66",
        "text": "right some grocery store or something"
    },
    {
        "start": "846",
        "dur": "3.66",
        "text": "like that I came in as a dude just"
    },
    {
        "start": "848.04",
        "dur": "3.09",
        "text": "between you and me I'm gonna give it to"
    },
    {
        "start": "849.66",
        "dur": "3.179",
        "text": "you for a buck 90 and we'll keep the"
    },
    {
        "start": "851.13",
        "dur": "2.88",
        "text": "secret between ourselves right I mean"
    },
    {
        "start": "852.839",
        "dur": "2.911",
        "text": "because obviously people don't publish"
    },
    {
        "start": "854.01",
        "dur": "4.32",
        "text": "their contracts out into the wide world"
    },
    {
        "start": "855.75",
        "dur": "5.04",
        "text": "and so what happens as I say I'm gonna"
    },
    {
        "start": "858.33",
        "dur": "4.259",
        "text": "start selling it at a buck 90 and what"
    },
    {
        "start": "860.79",
        "dur": "3.9",
        "text": "happens is people only notice this for"
    },
    {
        "start": "862.589",
        "dur": "4.171",
        "text": "two reasons one they can't sell as much"
    },
    {
        "start": "864.69",
        "dur": "4.35",
        "text": "milk anymore they don't know why but"
    },
    {
        "start": "866.76",
        "dur": "3.78",
        "text": "people just aren't interested in them in"
    },
    {
        "start": "869.04",
        "dur": "3.33",
        "text": "buying the milk at 2 bucks anymore"
    },
    {
        "start": "870.54",
        "dur": "3.9",
        "text": "because it's out there that someone's"
    },
    {
        "start": "872.37",
        "dur": "3.57",
        "text": "willing to deal at a buck 90 so people"
    },
    {
        "start": "874.44",
        "dur": "3.69",
        "text": "notice that at 2 bucks they can't sell"
    },
    {
        "start": "875.94",
        "dur": "4.47",
        "text": "as much so their market share is"
    },
    {
        "start": "878.13",
        "dur": "4.53",
        "text": "starting to diminish price begins to"
    },
    {
        "start": "880.41",
        "dur": "3.84",
        "text": "sort of soften out and drop market share"
    },
    {
        "start": "882.66",
        "dur": "2.82",
        "text": "begins to diminish that's the only way"
    },
    {
        "start": "884.25",
        "dur": "3.209",
        "text": "and they don't even know who's doing it"
    },
    {
        "start": "885.48",
        "dur": "3.84",
        "text": "right if there's 100 companies in the"
    },
    {
        "start": "887.459",
        "dur": "4.081",
        "text": "milk cabal they don't know which one is"
    },
    {
        "start": "889.32",
        "dur": "3.84",
        "text": "suddenly making side deals at a buck 90"
    },
    {
        "start": "891.54",
        "dur": "3.239",
        "text": "right the same greed - drew them"
    },
    {
        "start": "893.16",
        "dur": "4.44",
        "text": "together is the same brief dream that is"
    },
    {
        "start": "894.779",
        "dur": "5.011",
        "text": "beginning to drive them apart so what"
    },
    {
        "start": "897.6",
        "dur": "3.78",
        "text": "happens is because they can't sell milk"
    },
    {
        "start": "899.79",
        "dur": "3.72",
        "text": "at two bucks because some evil cabal"
    },
    {
        "start": "901.38",
        "dur": "2.61",
        "text": "breaker is out there selling it at about"
    },
    {
        "start": "903.51",
        "dur": "2.61",
        "text": "9:00"
    },
    {
        "start": "903.99",
        "dur": "3.84",
        "text": "nobody knows who or why or sorry they"
    },
    {
        "start": "906.12",
        "dur": "4.77",
        "text": "know why they don't know who what"
    },
    {
        "start": "907.83",
        "dur": "4.77",
        "text": "happens this everybody says uh okay I"
    },
    {
        "start": "910.89",
        "dur": "3.6",
        "text": "got all this milk it's certainly gonna"
    },
    {
        "start": "912.6",
        "dur": "3.81",
        "text": "go off if I don't get rid of it somehow"
    },
    {
        "start": "914.49",
        "dur": "3.48",
        "text": "I can't sell it at two bucks because"
    },
    {
        "start": "916.41",
        "dur": "3.299",
        "text": "some asshole is out there selling it at"
    },
    {
        "start": "917.97",
        "dur": "3.57",
        "text": "a buck ninety so what am I gonna do I'm"
    },
    {
        "start": "919.709",
        "dur": "3.661",
        "text": "gonna start and I don't know who's I"
    },
    {
        "start": "921.54",
        "dur": "3.419",
        "text": "don't even know if it's a buck 90 it's"
    },
    {
        "start": "923.37",
        "dur": "3.659",
        "text": "just some price less than two bucks"
    },
    {
        "start": "924.959",
        "dur": "3.211",
        "text": "because it's all secret right so what"
    },
    {
        "start": "927.029",
        "dur": "3.151",
        "text": "I'm gonna have to do is have to stop"
    },
    {
        "start": "928.17",
        "dur": "3.18",
        "text": "cutting my prices because I got to get"
    },
    {
        "start": "930.18",
        "dur": "3.12",
        "text": "rid of this milk or it's you know"
    },
    {
        "start": "931.35",
        "dur": "4.56",
        "text": "otherwise I get zero for it but you know"
    },
    {
        "start": "933.3",
        "dur": "4.14",
        "text": "double plus I'm good from businesses so"
    },
    {
        "start": "935.91",
        "dur": "3.27",
        "text": "I'm gonna have to say okay well I'm"
    },
    {
        "start": "937.44",
        "dur": "3.95",
        "text": "gonna have to bring my price down hey"
    },
    {
        "start": "939.18",
        "dur": "4.29",
        "text": "you know what at a buck eighty-five"
    },
    {
        "start": "941.39",
        "dur": "3.67",
        "text": "suddenly I find that I can sell milk"
    },
    {
        "start": "943.47",
        "dur": "3.9",
        "text": "again the people are willing to buy my"
    },
    {
        "start": "945.06",
        "dur": "4.17",
        "text": "milk right so now the guy who's got at"
    },
    {
        "start": "947.37",
        "dur": "4.05",
        "text": "selling it at a buck ninety finds he"
    },
    {
        "start": "949.23",
        "dur": "5.85",
        "text": "can't sell his milk at a buck an ID so"
    },
    {
        "start": "951.42",
        "dur": "5.669",
        "text": "he has to stop going down and basically"
    },
    {
        "start": "955.08",
        "dur": "3.569",
        "text": "in a couple of days I mean particularly"
    },
    {
        "start": "957.089",
        "dur": "3.69",
        "text": "in when there's a stock market or a"
    },
    {
        "start": "958.649",
        "dur": "3.931",
        "text": "futures market involved the price is"
    },
    {
        "start": "960.779",
        "dur": "3.511",
        "text": "going to go back down to a buck it never"
    },
    {
        "start": "962.58",
        "dur": "4.5",
        "text": "works historically it's completely"
    },
    {
        "start": "964.29",
        "dur": "5.48",
        "text": "impossible before this artificial price"
    },
    {
        "start": "967.08",
        "dur": "4.59",
        "text": "to be maintained at a high level without"
    },
    {
        "start": "969.77",
        "dur": "5.259",
        "text": "government I'm just talking about in a"
    },
    {
        "start": "971.67",
        "dur": "4.83",
        "text": "purely free market now there's some"
    },
    {
        "start": "975.029",
        "dur": "3.451",
        "text": "other things that have occurred though"
    },
    {
        "start": "976.5",
        "dur": "7.5",
        "text": "which is around the stabilization right"
    },
    {
        "start": "978.48",
        "dur": "7.2",
        "text": "so right there's a general pool of"
    },
    {
        "start": "984",
        "dur": "4.38",
        "text": "capital and resources that are available"
    },
    {
        "start": "985.68",
        "dur": "5.21",
        "text": "within an economy right so this is this"
    },
    {
        "start": "988.38",
        "dur": "6.42",
        "text": "is dollars this is labor"
    },
    {
        "start": "990.89",
        "dur": "6.49",
        "text": "this is materials had a typo in my last"
    },
    {
        "start": "994.8",
        "dur": "5.88",
        "text": "month's up from you kettle so this is"
    },
    {
        "start": "997.38",
        "dur": "6.12",
        "text": "the general pool of economic juju that's"
    },
    {
        "start": "1000.68",
        "dur": "5.73",
        "text": "available within a market right so when"
    },
    {
        "start": "1003.5",
        "dur": "4.74",
        "text": "milk is being sold at a dollar right a"
    },
    {
        "start": "1006.41",
        "dur": "6.71",
        "text": "certain amount of those resources are"
    },
    {
        "start": "1008.24",
        "dur": "7.88",
        "text": "flowing into you know got milk right so"
    },
    {
        "start": "1013.12",
        "dur": "7.12",
        "text": "when the price is artificially raised"
    },
    {
        "start": "1016.12",
        "dur": "5.589",
        "text": "what happens is this shrinks right to a"
    },
    {
        "start": "1020.24",
        "dur": "4.29",
        "text": "much smaller which means that fewer"
    },
    {
        "start": "1021.709",
        "dur": "4.291",
        "text": "resources are being diverted from the"
    },
    {
        "start": "1024.53",
        "dur": "2.789",
        "text": "general pool of labor and materials"
    },
    {
        "start": "1026",
        "dur": "3.03",
        "text": "which can go anywhere and whose"
    },
    {
        "start": "1027.319",
        "dur": "2.971",
        "text": "allocation is determined by price which"
    },
    {
        "start": "1029.03",
        "dur": "5.039",
        "text": "is determined by demand which is"
    },
    {
        "start": "1030.29",
        "dur": "5.61",
        "text": "determined by designer so fewer"
    },
    {
        "start": "1034.069",
        "dur": "2.391",
        "text": "resources are going from the general"
    },
    {
        "start": "1035.9",
        "dur": "3.55",
        "text": "pool"
    },
    {
        "start": "1036.46",
        "dur": "5.85",
        "text": "labor and materials into milk because"
    },
    {
        "start": "1039.45",
        "dur": "4.96",
        "text": "farmers are asari at the the people who"
    },
    {
        "start": "1042.31",
        "dur": "3.81",
        "text": "drive trucks used to drive in the five"
    },
    {
        "start": "1044.41",
        "dur": "4.65",
        "text": "trucks dedicated to driving milk around"
    },
    {
        "start": "1046.12",
        "dur": "4.17",
        "text": "but now because the demand for milk has"
    },
    {
        "start": "1049.06",
        "dur": "2.82",
        "text": "gone down they're taking a bunch of"
    },
    {
        "start": "1050.29",
        "dur": "3.6",
        "text": "those trucks and they're doing something"
    },
    {
        "start": "1051.88",
        "dur": "4.02",
        "text": "else with them right so what happens is"
    },
    {
        "start": "1053.89",
        "dur": "3.48",
        "text": "you're then reducing the amount of"
    },
    {
        "start": "1055.9",
        "dur": "2.67",
        "text": "infrastructure that supports the"
    },
    {
        "start": "1057.37",
        "dur": "3.78",
        "text": "distribution of milk because the price"
    },
    {
        "start": "1058.57",
        "dur": "4.77",
        "text": "has gone up so so what happens is your"
    },
    {
        "start": "1061.15",
        "dur": "5.04",
        "text": "profit goes down right because the more"
    },
    {
        "start": "1063.34",
        "dur": "5.91",
        "text": "resources you can get funneled into a"
    },
    {
        "start": "1066.19",
        "dur": "4.92",
        "text": "particular area the cheaper it's going"
    },
    {
        "start": "1069.25",
        "dur": "3.24",
        "text": "to be to produce whatever it is right"
    },
    {
        "start": "1071.11",
        "dur": "3.03",
        "text": "like if there's only one person writing"
    },
    {
        "start": "1072.49",
        "dur": "3.21",
        "text": "software software it's going to be very"
    },
    {
        "start": "1074.14",
        "dur": "3.09",
        "text": "expensive if you've got 10 million"
    },
    {
        "start": "1075.7",
        "dur": "4.05",
        "text": "people writing software software's gonna"
    },
    {
        "start": "1077.23",
        "dur": "4.47",
        "text": "be that much cheaper so this is another"
    },
    {
        "start": "1079.75",
        "dur": "4.44",
        "text": "thing that occurs right so you are"
    },
    {
        "start": "1081.7",
        "dur": "4.29",
        "text": "drawing you're diminishing your market"
    },
    {
        "start": "1084.19",
        "dur": "3.18",
        "text": "share immediately over time you're going"
    },
    {
        "start": "1085.99",
        "dur": "3",
        "text": "to be reducing your profits because"
    },
    {
        "start": "1087.37",
        "dur": "2.7",
        "text": "you're alienating people from supporting"
    },
    {
        "start": "1088.99",
        "dur": "2.34",
        "text": "your infrastructure because it sill"
    },
    {
        "start": "1090.07",
        "dur": "3.78",
        "text": "whatever the infrastructure that"
    },
    {
        "start": "1091.33",
        "dur": "4.5",
        "text": "supports what you do because you're just"
    },
    {
        "start": "1093.85",
        "dur": "3.72",
        "text": "reducing the demand for it and you're"
    },
    {
        "start": "1095.83",
        "dur": "2.97",
        "text": "encouraging other people to come in and"
    },
    {
        "start": "1097.57",
        "dur": "3.57",
        "text": "sell to your market and you're"
    },
    {
        "start": "1098.8",
        "dur": "4.05",
        "text": "encouraging consumers to switch from"
    },
    {
        "start": "1101.14",
        "dur": "3.99",
        "text": "milk to something else alright so maybe"
    },
    {
        "start": "1102.85",
        "dur": "3.9",
        "text": "you try you say well melts the buck and"
    },
    {
        "start": "1105.13",
        "dur": "5.25",
        "text": "Saima is like a buck sorry milk is 2"
    },
    {
        "start": "1106.75",
        "dur": "4.83",
        "text": "bucks so I'm on Sony about 10 so I'm"
    },
    {
        "start": "1110.38",
        "dur": "3.03",
        "text": "gonna switch this my milk and then you"
    },
    {
        "start": "1111.58",
        "dur": "3.51",
        "text": "you find that maybe it tastes better or"
    },
    {
        "start": "1113.41",
        "dur": "3.57",
        "text": "you get used to it or whatever plus you"
    },
    {
        "start": "1115.09",
        "dur": "3.51",
        "text": "kind of resent and there's an emotional"
    },
    {
        "start": "1116.98",
        "dur": "3.75",
        "text": "scientist to where and when people Jack"
    },
    {
        "start": "1118.6",
        "dur": "4.02",
        "text": "out the price of something artificially"
    },
    {
        "start": "1120.73",
        "dur": "3.03",
        "text": "you're kind of resentment right so you"
    },
    {
        "start": "1122.62",
        "dur": "2.52",
        "text": "just don't want to do business with them"
    },
    {
        "start": "1123.76",
        "dur": "3.6",
        "text": "again even if they drop the price back"
    },
    {
        "start": "1125.14",
        "dur": "5.52",
        "text": "down you may not switch back because you"
    },
    {
        "start": "1127.36",
        "dur": "4.8",
        "text": "don't know if it's going to if it's"
    },
    {
        "start": "1130.66",
        "dur": "4.14",
        "text": "gonna be jacked up again maybe you get"
    },
    {
        "start": "1132.16",
        "dur": "4.11",
        "text": "used to the taste of soy milk and you"
    },
    {
        "start": "1134.8",
        "dur": "2.91",
        "text": "don't want to drink regular milk anymore"
    },
    {
        "start": "1136.27",
        "dur": "2.82",
        "text": "doesn't taste as good to you or maybe"
    },
    {
        "start": "1137.71",
        "dur": "3.39",
        "text": "you find there are other health benefits"
    },
    {
        "start": "1139.09",
        "dur": "3.93",
        "text": "and so on so raising the price is really"
    },
    {
        "start": "1141.1",
        "dur": "3.57",
        "text": "risky you alienate consumers both from a"
    },
    {
        "start": "1143.02",
        "dur": "4.74",
        "text": "practical consumption standpoint and"
    },
    {
        "start": "1144.67",
        "dur": "4.86",
        "text": "from a resentment getting shafted"
    },
    {
        "start": "1147.76",
        "dur": "4.65",
        "text": "standpoint which you know most people"
    },
    {
        "start": "1149.53",
        "dur": "4.29",
        "text": "don't like so much so how does the"
    },
    {
        "start": "1152.41",
        "dur": "3.36",
        "text": "government fit into all of this because"
    },
    {
        "start": "1153.82",
        "dur": "3.24",
        "text": "we can certainly see monopolies right"
    },
    {
        "start": "1155.77",
        "dur": "2.85",
        "text": "and of course the government is the"
    },
    {
        "start": "1157.06",
        "dur": "2.82",
        "text": "greatest monopolies underdose it's"
    },
    {
        "start": "1158.62",
        "dur": "4.17",
        "text": "always sort of surprise me that people"
    },
    {
        "start": "1159.88",
        "dur": "4.05",
        "text": "say monopolies you see are really bad so"
    },
    {
        "start": "1162.79",
        "dur": "2.43",
        "text": "what we need is the government because"
    },
    {
        "start": "1163.93",
        "dur": "3.69",
        "text": "of course government is the ultimate"
    },
    {
        "start": "1165.22",
        "dur": "3.15",
        "text": "monopoly monopoly of Taxation monopoly"
    },
    {
        "start": "1167.62",
        "dur": "4.26",
        "text": "if the"
    },
    {
        "start": "1168.37",
        "dur": "5.67",
        "text": "the rule of law monopoly of of armies"
    },
    {
        "start": "1171.88",
        "dur": "4.65",
        "text": "and and ages and F was is so I don't"
    },
    {
        "start": "1174.04",
        "dur": "4.35",
        "text": "really see the the the solution to"
    },
    {
        "start": "1176.53",
        "dur": "3.87",
        "text": "monopolies being the creation of a super"
    },
    {
        "start": "1178.39",
        "dur": "4.26",
        "text": "monopolies that tends to ignore its"
    },
    {
        "start": "1180.4",
        "dur": "4.74",
        "text": "constituents it's like saying I have a"
    },
    {
        "start": "1182.65",
        "dur": "6.63",
        "text": "migraine so the solution is to behead me"
    },
    {
        "start": "1185.14",
        "dur": "5.73",
        "text": "but that's just me so here's the way"
    },
    {
        "start": "1189.28",
        "dur": "4.86",
        "text": "that the government's really help people"
    },
    {
        "start": "1190.87",
        "dur": "4.83",
        "text": "to support this right so what do you"
    },
    {
        "start": "1194.14",
        "dur": "4.23",
        "text": "have when you when you create a cabal"
    },
    {
        "start": "1195.7",
        "dur": "9.05",
        "text": "what you have is a problem is outside"
    },
    {
        "start": "1198.37",
        "dur": "9.09",
        "text": "competition right outside competition"
    },
    {
        "start": "1204.75",
        "dur": "5.44",
        "text": "outside there we go almost almost did"
    },
    {
        "start": "1207.46",
        "dur": "5.16",
        "text": "that did May so with outside competition"
    },
    {
        "start": "1210.19",
        "dur": "3.48",
        "text": "this is when other people come in and"
    },
    {
        "start": "1212.62",
        "dur": "2.34",
        "text": "just start selling right because the"
    },
    {
        "start": "1213.67",
        "dur": "2.88",
        "text": "more you raise the price the higher you"
    },
    {
        "start": "1214.96",
        "dur": "2.969",
        "text": "make the profits the more you want"
    },
    {
        "start": "1216.55",
        "dur": "2.67",
        "text": "people to enter the field like the more"
    },
    {
        "start": "1217.929",
        "dur": "4.321",
        "text": "you're encouraging people to enter the"
    },
    {
        "start": "1219.22",
        "dur": "4.98",
        "text": "field so if you only made a nickel on a"
    },
    {
        "start": "1222.25",
        "dur": "3.39",
        "text": "liter of milk a certain number of people"
    },
    {
        "start": "1224.2",
        "dur": "3.21",
        "text": "will come in to the field and stay in"
    },
    {
        "start": "1225.64",
        "dur": "3.12",
        "text": "the field when the profit is now a buck"
    },
    {
        "start": "1227.41",
        "dur": "2.88",
        "text": "five because you've raised it to two"
    },
    {
        "start": "1228.76",
        "dur": "3.57",
        "text": "bucks then you're just going to be this"
    },
    {
        "start": "1230.29",
        "dur": "5.07",
        "text": "to use a cow a metaphor a man Stampede"
    },
    {
        "start": "1232.33",
        "dur": "4.62",
        "text": "into the milk production area so which"
    },
    {
        "start": "1235.36",
        "dur": "3.54",
        "text": "is gonna drive the price back down so"
    },
    {
        "start": "1236.95",
        "dur": "3.57",
        "text": "you have to keep people out of the"
    },
    {
        "start": "1238.9",
        "dur": "4.529",
        "text": "market right so governments are"
    },
    {
        "start": "1240.52",
        "dur": "5.07",
        "text": "fantastic for this right so the way that"
    },
    {
        "start": "1243.429",
        "dur": "6.121",
        "text": "you deal with outside competition is you"
    },
    {
        "start": "1245.59",
        "dur": "5.52",
        "text": "have licensing right so you have to have"
    },
    {
        "start": "1249.55",
        "dur": "2.7",
        "text": "a milk producing license from the"
    },
    {
        "start": "1251.11",
        "dur": "3.15",
        "text": "government and you make sure that the"
    },
    {
        "start": "1252.25",
        "dur": "4.26",
        "text": "price of that is very high so that you"
    },
    {
        "start": "1254.26",
        "dur": "4.02",
        "text": "keep people apt right you can also have"
    },
    {
        "start": "1256.51",
        "dur": "3.299",
        "text": "government created monopolies certain"
    },
    {
        "start": "1258.28",
        "dur": "4.56",
        "text": "kinds of unions particularly public"
    },
    {
        "start": "1259.809",
        "dur": "4.681",
        "text": "sector unions teachers unions and cost"
    },
    {
        "start": "1262.84",
        "dur": "4.05",
        "text": "the American Medical Association lots of"
    },
    {
        "start": "1264.49",
        "dur": "4.17",
        "text": "monopolies created and enforced through"
    },
    {
        "start": "1266.89",
        "dur": "4.77",
        "text": "the government right so you have"
    },
    {
        "start": "1268.66",
        "dur": "6.99",
        "text": "licensing you also have barriers right"
    },
    {
        "start": "1271.66",
        "dur": "5.34",
        "text": "of various kinds so this is if you're"
    },
    {
        "start": "1275.65",
        "dur": "3.3",
        "text": "worried about foreign milk producers"
    },
    {
        "start": "1277",
        "dur": "3.78",
        "text": "coming in relatively simple all you do"
    },
    {
        "start": "1278.95",
        "dur": "3.72",
        "text": "is tell them it's the government creates"
    },
    {
        "start": "1280.78",
        "dur": "3.36",
        "text": "a tariff wall right so if you're gonna"
    },
    {
        "start": "1282.67",
        "dur": "3.18",
        "text": "Jack your price from a back to two bucks"
    },
    {
        "start": "1284.14",
        "dur": "3.51",
        "text": "all that happens is that you get the"
    },
    {
        "start": "1285.85",
        "dur": "3.48",
        "text": "government to put a tariff of a buck"
    },
    {
        "start": "1287.65",
        "dur": "3.21",
        "text": "fifty per liter of milk and suddenly you"
    },
    {
        "start": "1289.33",
        "dur": "3",
        "text": "don't have to worry about foreign"
    },
    {
        "start": "1290.86",
        "dur": "3.42",
        "text": "competition in a free market in a"
    },
    {
        "start": "1292.33",
        "dur": "4.5",
        "text": "stateless society you can't do that"
    },
    {
        "start": "1294.28",
        "dur": "4.21",
        "text": "because you can't enforce every port"
    },
    {
        "start": "1296.83",
        "dur": "3.01",
        "text": "making sure nobody brings any far"
    },
    {
        "start": "1298.49",
        "dur": "3.689",
        "text": "Milka it's just not economically"
    },
    {
        "start": "1299.84",
        "dur": "4.14",
        "text": "practical so you need a government right"
    },
    {
        "start": "1302.179",
        "dur": "3.331",
        "text": "with the government you get to offload"
    },
    {
        "start": "1303.98",
        "dur": "2.88",
        "text": "the cost of enforcement on the very"
    },
    {
        "start": "1305.51",
        "dur": "2.85",
        "text": "people that you're screwing I need the"
    },
    {
        "start": "1306.86",
        "dur": "3.21",
        "text": "average citizens because they pay for"
    },
    {
        "start": "1308.36",
        "dur": "3",
        "text": "the enforcement of these taxes and"
    },
    {
        "start": "1310.07",
        "dur": "3.27",
        "text": "tariffs and licensing through their"
    },
    {
        "start": "1311.36",
        "dur": "4.29",
        "text": "taxes which is then used to raise the"
    },
    {
        "start": "1313.34",
        "dur": "5.04",
        "text": "price of whatever is being supplied to"
    },
    {
        "start": "1315.65",
        "dur": "5.37",
        "text": "them so that's another way that that"
    },
    {
        "start": "1318.38",
        "dur": "4.47",
        "text": "governments will help keep this out the"
    },
    {
        "start": "1321.02",
        "dur": "10.02",
        "text": "other thing of course you have is fixed"
    },
    {
        "start": "1322.85",
        "dur": "10.02",
        "text": "or public pricing pricing right so the"
    },
    {
        "start": "1331.04",
        "dur": "3.75",
        "text": "problem is of course if everybody in the"
    },
    {
        "start": "1332.87",
        "dur": "3.36",
        "text": "evil cabal is selling milk at two bucks"
    },
    {
        "start": "1334.79",
        "dur": "2.76",
        "text": "and someone's going to undercut undercut"
    },
    {
        "start": "1336.23",
        "dur": "3.42",
        "text": "undercut and drive the price back down"
    },
    {
        "start": "1337.55",
        "dur": "3.84",
        "text": "what you need is government mandated"
    },
    {
        "start": "1339.65",
        "dur": "3.81",
        "text": "pricing so that anybody who goes below"
    },
    {
        "start": "1341.39",
        "dur": "4.05",
        "text": "that particular pricing gets thrown in"
    },
    {
        "start": "1343.46",
        "dur": "5.7",
        "text": "jail where they are introduced to a"
    },
    {
        "start": "1345.44",
        "dur": "5.31",
        "text": "rather aggressive cellmate named biffo"
    },
    {
        "start": "1349.16",
        "dur": "4.41",
        "text": "or something like that who is going to"
    },
    {
        "start": "1350.75",
        "dur": "5.67",
        "text": "make them his girlfriend I think is the"
    },
    {
        "start": "1353.57",
        "dur": "4.95",
        "text": "key phrase so given that you don't want"
    },
    {
        "start": "1356.42",
        "dur": "3.6",
        "text": "to share a cell with Bubba you're not"
    },
    {
        "start": "1358.52",
        "dur": "3.15",
        "text": "going to undercut you're going to make"
    },
    {
        "start": "1360.02",
        "dur": "5.22",
        "text": "public pricing and of course this occurs"
    },
    {
        "start": "1361.67",
        "dur": "5.94",
        "text": "in in farm subsidies in fixed farm"
    },
    {
        "start": "1365.24",
        "dur": "4.439",
        "text": "prices this occurs with the minimum wage"
    },
    {
        "start": "1367.61",
        "dur": "4.53",
        "text": "right which is strongly supported by"
    },
    {
        "start": "1369.679",
        "dur": "4.051",
        "text": "unions to keep labor compare competition"
    },
    {
        "start": "1372.14",
        "dur": "3.63",
        "text": "out of the marketplace and to keep the"
    },
    {
        "start": "1373.73",
        "dur": "3.54",
        "text": "prices relatively high for labor you can"
    },
    {
        "start": "1375.77",
        "dur": "3.03",
        "text": "only do this for the government doesn't"
    },
    {
        "start": "1377.27",
        "dur": "2.909",
        "text": "really occur at all in the free market"
    },
    {
        "start": "1378.8",
        "dur": "3.96",
        "text": "so these are just a few of the"
    },
    {
        "start": "1380.179",
        "dur": "3.75",
        "text": "strategies that you you can deal with if"
    },
    {
        "start": "1382.76",
        "dur": "3.12",
        "text": "you have a government to create a"
    },
    {
        "start": "1383.929",
        "dur": "3.661",
        "text": "monopoly but in a free market they're"
    },
    {
        "start": "1385.88",
        "dur": "3.09",
        "text": "completely unsustainable and there's no"
    },
    {
        "start": "1387.59",
        "dur": "2.7",
        "text": "historical example that they've ever"
    },
    {
        "start": "1388.97",
        "dur": "2.94",
        "text": "read and I've read on this quite a bit"
    },
    {
        "start": "1390.29",
        "dur": "4.29",
        "text": "but it's may be able to tell perhaps too"
    },
    {
        "start": "1391.91",
        "dur": "4.649",
        "text": "much there's no historical example of"
    },
    {
        "start": "1394.58",
        "dur": "4.14",
        "text": "any monopoly being able to be created"
    },
    {
        "start": "1396.559",
        "dur": "3.841",
        "text": "and sustained in the absence of a"
    },
    {
        "start": "1398.72",
        "dur": "3",
        "text": "government so I hope that this helps at"
    },
    {
        "start": "1400.4",
        "dur": "3.87",
        "text": "least to answer some of the questions"
    },
    {
        "start": "1401.72",
        "dur": "4.62",
        "text": "that have occurred or accrued relative"
    },
    {
        "start": "1404.27",
        "dur": "3.72",
        "text": "to monopolies and a free market thank"
    },
    {
        "start": "1406.34",
        "dur": "5.219",
        "text": "you so much for watching and for your"
    },
    {
        "start": "1407.99",
        "dur": "5.31",
        "text": "donations please drop by at WWF Reda"
    },
    {
        "start": "1411.559",
        "dur": "3.391",
        "text": "main radio.com you can click on"
    },
    {
        "start": "1413.3",
        "dur": "4.73",
        "text": "subscribe for a couple of bucks a month"
    },
    {
        "start": "1414.95",
        "dur": "6.18",
        "text": "less than half a cup of coffee a day and"
    },
    {
        "start": "1418.03",
        "dur": "5.74",
        "text": "you can just throw me some cash straight"
    },
    {
        "start": "1421.13",
        "dur": "5.46",
        "text": "which I'd really appreciate I'm doing"
    },
    {
        "start": "1423.77",
        "dur": "3.93",
        "text": "this full time now so me philosopher"
    },
    {
        "start": "1426.59",
        "dur": "4.01",
        "text": "like to eat thank you so much for"
    },
    {
        "start": "1427.7",
        "dur": "2.9",
        "text": "watching I will talk to you soon"
    },
    {
        "start": "1437.539",
        "dur": "2.061",
        "text": "you"
    }
]