{
  "Title": "Hatred of the Market",
  "Id": "Lt3QQ3H6SZY",
  "Transcript": [
    {
      "text": "so after we did this debate errand from",
      "start": 0.06,
      "duration": 7.08
    },
    {
      "text": "stone clouds gathering he of the fiery",
      "start": 4.049,
      "duration": 6.211
    },
    {
      "text": "interface on YouTube I was thinking",
      "start": 7.14,
      "duration": 6.57
    },
    {
      "text": "about this pervasive notion that your",
      "start": 10.26,
      "duration": 5.579
    },
    {
      "text": "corporations are all powerful and they",
      "start": 13.71,
      "duration": 4.56
    },
    {
      "text": "dictate things and they're mean and",
      "start": 15.839,
      "duration": 5.551
    },
    {
      "text": "nasty and all this debt in the other and",
      "start": 18.27,
      "duration": 7.47
    },
    {
      "text": "I sort of rounding up all the thousands",
      "start": 21.39,
      "duration": 6.299
    },
    {
      "text": "of people I've talked to over the years",
      "start": 25.74,
      "duration": 5.31
    },
    {
      "text": "about this issue there seems to be a",
      "start": 27.689,
      "duration": 5.251
    },
    {
      "text": "pattern that I think does kind of make",
      "start": 31.05,
      "duration": 5.52
    },
    {
      "text": "sense and the pattern runs a little",
      "start": 32.94,
      "duration": 4.459
    },
    {
      "text": "something like this",
      "start": 36.57,
      "duration": 2.91
    },
    {
      "text": "most of the people that I've talked to",
      "start": 37.399,
      "duration": 6.581
    },
    {
      "text": "who are anti corporate or who argue that",
      "start": 39.48,
      "duration": 6.84
    },
    {
      "text": "corporations are tyrannies or you know",
      "start": 43.98,
      "duration": 3.93
    },
    {
      "text": "the corporations have vast amounts of",
      "start": 46.32,
      "duration": 2.46
    },
    {
      "text": "power and so on",
      "start": 47.91,
      "duration": 3.39
    },
    {
      "text": "I think are saying something that's",
      "start": 48.78,
      "duration": 6.02
    },
    {
      "text": "quite true but only in a very limited",
      "start": 51.3,
      "duration": 7.829
    },
    {
      "text": "circumstance or it feels true I should",
      "start": 54.8,
      "duration": 5.89
    },
    {
      "text": "probably say it but only in a limited",
      "start": 59.129,
      "duration": 3.301
    },
    {
      "text": "circumstance and and that's something is",
      "start": 60.69,
      "duration": 5.49
    },
    {
      "text": "like this so when you start in the",
      "start": 62.43,
      "duration": 8.16
    },
    {
      "text": "workforce you don't have you know any",
      "start": 66.18,
      "duration": 6.33
    },
    {
      "text": "real skills for the most part I got my",
      "start": 70.59,
      "duration": 4.17
    },
    {
      "text": "first job when I was I don't know nine",
      "start": 72.51,
      "duration": 5.07
    },
    {
      "text": "or so painting plaques I got my first",
      "start": 74.76,
      "duration": 5.07
    },
    {
      "text": "more real job when I was 11 in a book",
      "start": 77.58,
      "duration": 3.99
    },
    {
      "text": "store or they have a paper route and",
      "start": 79.83,
      "duration": 4.14
    },
    {
      "text": "then I worked cleaning offices and then",
      "start": 81.57,
      "duration": 3.6
    },
    {
      "text": "I worked as a waiter for a number of",
      "start": 83.97,
      "duration": 2.46
    },
    {
      "text": "years and then he started tamping and",
      "start": 85.17,
      "duration": 2.58
    },
    {
      "text": "then ended up computer programming and",
      "start": 86.43,
      "duration": 3.689
    },
    {
      "text": "many other founding a company so and I",
      "start": 87.75,
      "duration": 4.2
    },
    {
      "text": "course was a gold panner and prospector",
      "start": 90.119,
      "duration": 4.021
    },
    {
      "text": "and so on and the one thing that was",
      "start": 91.95,
      "duration": 7.43
    },
    {
      "text": "true when I was younger was that I",
      "start": 94.14,
      "duration": 8.79
    },
    {
      "text": "didn't have much hold over the companies",
      "start": 99.38,
      "duration": 6.64
    },
    {
      "text": "that I was doing business with that I",
      "start": 102.93,
      "duration": 4.68
    },
    {
      "text": "was the employee because and the reason",
      "start": 106.02,
      "duration": 7.29
    },
    {
      "text": "why was because I didn't have any real",
      "start": 107.61,
      "duration": 9.06
    },
    {
      "text": "value to them like Kwame right so how",
      "start": 113.31,
      "duration": 6.059
    },
    {
      "text": "many people can you get to carry food",
      "start": 116.67,
      "duration": 4.949
    },
    {
      "text": "out to a table and to tell people about",
      "start": 119.369,
      "duration": 5.371
    },
    {
      "text": "the specials well a lot rice legs a cab",
      "start": 121.619,
      "duration": 5.131
    },
    {
      "text": "driver I mean how many people can you",
      "start": 124.74,
      "duration": 3.9
    },
    {
      "text": "get to drive a car what a lot how many",
      "start": 126.75,
      "duration": 4.2
    },
    {
      "text": "people can you get to clean offices well",
      "start": 128.64,
      "duration": 4.83
    },
    {
      "text": "a lot because it's very low",
      "start": 130.95,
      "duration": 6.78
    },
    {
      "text": "labor and so I think for people",
      "start": 133.47,
      "duration": 5.85
    },
    {
      "text": "particularly if they were treated badly",
      "start": 137.73,
      "duration": 3.15
    },
    {
      "text": "by their parents in other words if they",
      "start": 139.32,
      "duration": 4.14
    },
    {
      "text": "felt unimportant and inconsequential to",
      "start": 140.88,
      "duration": 4.65
    },
    {
      "text": "their parents and then when they get",
      "start": 143.46,
      "duration": 5.76
    },
    {
      "text": "their jobs when they're young they feel",
      "start": 145.53,
      "duration": 6.75
    },
    {
      "text": "inconsequential with regard to the",
      "start": 149.22,
      "duration": 4.26
    },
    {
      "text": "people who were employing them as well",
      "start": 152.28,
      "duration": 3.56
    },
    {
      "text": "because they don't really have any sway",
      "start": 153.48,
      "duration": 5.94
    },
    {
      "text": "right I mean if you if you have a movie",
      "start": 155.84,
      "duration": 5.5
    },
    {
      "text": "starring Brad Pitt and Brad Pitt doesn't",
      "start": 159.42,
      "duration": 3.81
    },
    {
      "text": "want to do the movie suddenly that's a",
      "start": 161.34,
      "duration": 3.3
    },
    {
      "text": "big problem for you right like huge",
      "start": 163.23,
      "duration": 2.61
    },
    {
      "text": "amounts of funding you're gonna fall",
      "start": 164.64,
      "duration": 2.19
    },
    {
      "text": "through and this and that the other",
      "start": 165.84,
      "duration": 3.06
    },
    {
      "text": "right and and you're marking the",
      "start": 166.83,
      "duration": 3.33
    },
    {
      "text": "marketability marketability of your",
      "start": 168.9,
      "duration": 4.559
    },
    {
      "text": "movie is gonna go way down and so on but",
      "start": 170.16,
      "duration": 5.04
    },
    {
      "text": "if there's some extra who doesn't show",
      "start": 173.459,
      "duration": 5.341
    },
    {
      "text": "up I mean you don't care you don't care",
      "start": 175.2,
      "duration": 5.79
    },
    {
      "text": "I also did extra work once or twice re",
      "start": 178.8,
      "duration": 3.96
    },
    {
      "text": "you you just matter it's just a face in",
      "start": 180.99,
      "duration": 2.9
    },
    {
      "text": "the crowd",
      "start": 182.76,
      "duration": 5.97
    },
    {
      "text": "Ryan Spalding Gray in the Cambodian film",
      "start": 183.89,
      "duration": 7.39
    },
    {
      "text": "killing fields could be anyone not not",
      "start": 188.73,
      "duration": 6.87
    },
    {
      "text": "particularly important who it is and I",
      "start": 191.28,
      "duration": 5.79
    },
    {
      "text": "think that's something really important",
      "start": 195.6,
      "duration": 4.98
    },
    {
      "text": "to to understand if you come from an",
      "start": 197.07,
      "duration": 6.63
    },
    {
      "text": "environment where your parents have not",
      "start": 200.58,
      "duration": 5.73
    },
    {
      "text": "treated you as important in almost all",
      "start": 203.7,
      "duration": 3.93
    },
    {
      "text": "public school environments that you can",
      "start": 206.31,
      "duration": 3.06
    },
    {
      "text": "imagine the teachers do not treat you as",
      "start": 207.63,
      "duration": 3.48
    },
    {
      "text": "important and certainly all the ones I",
      "start": 209.37,
      "duration": 4.92
    },
    {
      "text": "experienced you're sort of a an irritant",
      "start": 211.11,
      "duration": 5.04
    },
    {
      "text": "in their shell that doesn't even produce",
      "start": 214.29,
      "duration": 7.229
    },
    {
      "text": "a pearl if that occurs for you then",
      "start": 216.15,
      "duration": 7.8
    },
    {
      "text": "you've had two experiences right the",
      "start": 221.519,
      "duration": 4.561
    },
    {
      "text": "home and your school where you're",
      "start": 223.95,
      "duration": 3.78
    },
    {
      "text": "treated as inconsequential and",
      "start": 226.08,
      "duration": 4.439
    },
    {
      "text": "unimportant and frankly a burden on",
      "start": 227.73,
      "duration": 4.259
    },
    {
      "text": "people perhaps or whatever it is if",
      "start": 230.519,
      "duration": 3.72
    },
    {
      "text": "you've gone to church I mean maybe you",
      "start": 231.989,
      "duration": 5.611
    },
    {
      "text": "had a nice warm fuzzy priest or but you",
      "start": 234.239,
      "duration": 5.881
    },
    {
      "text": "know more likely you know certainly the",
      "start": 237.6,
      "duration": 3.9
    },
    {
      "text": "priests review your rational questions",
      "start": 240.12,
      "duration": 3.27
    },
    {
      "text": "and skepticism with annoyance and so on",
      "start": 241.5,
      "duration": 4.53
    },
    {
      "text": "I mean for the most part and so there's",
      "start": 243.39,
      "duration": 3.99
    },
    {
      "text": "another situation where as you where",
      "start": 246.03,
      "duration": 4.709
    },
    {
      "text": "you're not really treated as as really",
      "start": 247.38,
      "duration": 8.15
    },
    {
      "text": "important as someone who has great value",
      "start": 250.739,
      "duration": 7.141
    },
    {
      "text": "and maybe this occurred in college where",
      "start": 255.53,
      "duration": 3.94
    },
    {
      "text": "you're you know one of 10,000",
      "start": 257.88,
      "duration": 3.329
    },
    {
      "text": "undergraduates and it doesn't matter if",
      "start": 259.47,
      "duration": 3.18
    },
    {
      "text": "you show up or not nobody really cares",
      "start": 261.209,
      "duration": 3.811
    },
    {
      "text": "they have all the power because you know",
      "start": 262.65,
      "duration": 3.69
    },
    {
      "text": "they can give you a passing or failing",
      "start": 265.02,
      "duration": 2.28
    },
    {
      "text": "grade",
      "start": 266.34,
      "duration": 3.96
    },
    {
      "text": "and based on a some pretty subjective",
      "start": 267.3,
      "duration": 5.19
    },
    {
      "text": "criteria particularly in the arts and so",
      "start": 270.3,
      "duration": 4.429
    },
    {
      "text": "on so you know it's like obey or be",
      "start": 272.49,
      "duration": 6.81
    },
    {
      "text": "squashed academically and so then you",
      "start": 274.729,
      "duration": 8.56
    },
    {
      "text": "get a job and you know maybe you're some",
      "start": 279.3,
      "duration": 6.269
    },
    {
      "text": "Juna person or you're a fry cook or",
      "start": 283.289,
      "duration": 3.63
    },
    {
      "text": "something yeah you know and you're",
      "start": 285.569,
      "duration": 3.09
    },
    {
      "text": "interchangeable I mean anybody could",
      "start": 286.919,
      "duration": 4.981
    },
    {
      "text": "kind of step in and do what it is that",
      "start": 288.659,
      "duration": 6.391
    },
    {
      "text": "you're doing and so again you don't feel",
      "start": 291.9,
      "duration": 8.009
    },
    {
      "text": "like you have any sway over your",
      "start": 295.05,
      "duration": 8.22
    },
    {
      "text": "employer right like you go in and say I",
      "start": 299.909,
      "duration": 5.581
    },
    {
      "text": "want a 10% raise or I'm gonna quit",
      "start": 303.27,
      "duration": 4.679
    },
    {
      "text": "they're gonna say yeah by you know don't",
      "start": 305.49,
      "duration": 4.23
    },
    {
      "text": "let you stay old saying goes don't let",
      "start": 307.949,
      "duration": 3.06
    },
    {
      "text": "the door hit your ass all the way out",
      "start": 309.72,
      "duration": 6.81
    },
    {
      "text": "right and the people that I've spoken to",
      "start": 311.009,
      "duration": 9.361
    },
    {
      "text": "who believe that you know corporations",
      "start": 316.53,
      "duration": 7.289
    },
    {
      "text": "are these sort of all-powerful don't",
      "start": 320.37,
      "duration": 5.639
    },
    {
      "text": "care about their employees greedy mean",
      "start": 323.819,
      "duration": 6.9
    },
    {
      "text": "whatever right well they tend to be",
      "start": 326.009,
      "duration": 8.31
    },
    {
      "text": "people who have not been successful in",
      "start": 330.719,
      "duration": 6.6
    },
    {
      "text": "the economic realm at least not",
      "start": 334.319,
      "duration": 5.521
    },
    {
      "text": "successful in any kind of structured",
      "start": 337.319,
      "duration": 4.201
    },
    {
      "text": "environment a corporate environment and",
      "start": 339.84,
      "duration": 2.759
    },
    {
      "text": "structure doesn't mean good right now",
      "start": 341.52,
      "duration": 1.32
    },
    {
      "text": "man",
      "start": 342.599,
      "duration": 2.07
    },
    {
      "text": "am i structured no not particularly but",
      "start": 342.84,
      "duration": 3.359
    },
    {
      "text": "it doesn't mean good or bad it just",
      "start": 344.669,
      "duration": 4.711
    },
    {
      "text": "means that they have not made a success",
      "start": 346.199,
      "duration": 5.011
    },
    {
      "text": "of themselves in that realm because of",
      "start": 349.38,
      "duration": 3.33
    },
    {
      "text": "course an interesting thing happens when",
      "start": 351.21,
      "duration": 3.179
    },
    {
      "text": "you make a success of yourself in the",
      "start": 352.71,
      "duration": 4.17
    },
    {
      "text": "business world then suddenly these",
      "start": 354.389,
      "duration": 5.37
    },
    {
      "text": "all-powerful corporations are kind of",
      "start": 356.88,
      "duration": 4.469
    },
    {
      "text": "fawning and begging for you to join them",
      "start": 359.759,
      "duration": 3.571
    },
    {
      "text": "right like if you're the top sales rep",
      "start": 361.349,
      "duration": 5.19
    },
    {
      "text": "at Oracle and you know si you sort of",
      "start": 363.33,
      "duration": 4.829
    },
    {
      "text": "put out that you're interested si P is",
      "start": 366.539,
      "duration": 4.951
    },
    {
      "text": "gonna or whoever I the IBM Microsoft",
      "start": 368.159,
      "duration": 4.921
    },
    {
      "text": "they're gonna take you for lunch they're",
      "start": 371.49,
      "duration": 4.079
    },
    {
      "text": "going to offer you signing bonuses",
      "start": 373.08,
      "duration": 4.079
    },
    {
      "text": "they're gonna ask your offering they're",
      "start": 375.569,
      "duration": 3.66
    },
    {
      "text": "gonna offer you moving expense payments",
      "start": 377.159,
      "duration": 3.63
    },
    {
      "text": "and so on right so they're gonna will",
      "start": 379.229,
      "duration": 3.84
    },
    {
      "text": "you and suddenly these like all-powerful",
      "start": 380.789,
      "duration": 4.171
    },
    {
      "text": "corporations that just strut around and",
      "start": 383.069,
      "duration": 5.701
    },
    {
      "text": "dictate to everyone look like you know",
      "start": 384.96,
      "duration": 6.15
    },
    {
      "text": "homely guys at a bar trying to get with",
      "start": 388.77,
      "duration": 3.66
    },
    {
      "text": "the cheerleaders right they just look",
      "start": 391.11,
      "duration": 5.07
    },
    {
      "text": "all kinds of subservient and needy and",
      "start": 392.43,
      "duration": 6.299
    },
    {
      "text": "and then it's the employee who has the",
      "start": 396.18,
      "duration": 3.81
    },
    {
      "text": "potential employee really in this",
      "start": 398.729,
      "duration": 2.061
    },
    {
      "text": "situation",
      "start": 399.99,
      "duration": 5.48
    },
    {
      "text": "who has the power and that's a very very",
      "start": 400.79,
      "duration": 6.65
    },
    {
      "text": "important thing to sort of process and",
      "start": 405.47,
      "duration": 6.24
    },
    {
      "text": "understand that the people I've talked",
      "start": 407.44,
      "duration": 6.94
    },
    {
      "text": "to again this is not you understand this",
      "start": 411.71,
      "duration": 5.42
    },
    {
      "text": "is not scientific but it has I think",
      "start": 414.38,
      "duration": 6.12
    },
    {
      "text": "psychological validity rational validity",
      "start": 417.13,
      "duration": 5.29
    },
    {
      "text": "and certainly it has as far as I can",
      "start": 420.5,
      "duration": 6.78
    },
    {
      "text": "tell a hundred percent consistency in my",
      "start": 422.42,
      "duration": 6.48
    },
    {
      "text": "empirical experience of dealing with",
      "start": 427.28,
      "duration": 6.27
    },
    {
      "text": "people now if you've had a tough",
      "start": 428.9,
      "duration": 5.94
    },
    {
      "text": "childhood then you're gonna have a",
      "start": 433.55,
      "duration": 3.21
    },
    {
      "text": "problem with authority figures I mean",
      "start": 434.84,
      "duration": 3.72
    },
    {
      "text": "that's you know tragically that's just",
      "start": 436.76,
      "duration": 3.03
    },
    {
      "text": "the way it is you're just gonna have a",
      "start": 438.56,
      "duration": 3.99
    },
    {
      "text": "problem with authority figures it's",
      "start": 439.79,
      "duration": 4.05
    },
    {
      "text": "gonna be all kinds of challenging for",
      "start": 442.55,
      "duration": 6.48
    },
    {
      "text": "you in that realm right and so if you",
      "start": 443.84,
      "duration": 6.36
    },
    {
      "text": "have a problem with authority figures",
      "start": 449.03,
      "duration": 5.85
    },
    {
      "text": "then that's going to condition the kind",
      "start": 450.2,
      "duration": 6.06
    },
    {
      "text": "of authority figures you're going to be",
      "start": 454.88,
      "duration": 5.37
    },
    {
      "text": "in touch with right so if you think you",
      "start": 456.26,
      "duration": 5.64
    },
    {
      "text": "know authority figures wrassles let's",
      "start": 460.25,
      "duration": 5.52
    },
    {
      "text": "say if you think that then is it more or",
      "start": 461.9,
      "duration": 5.28
    },
    {
      "text": "less likely that you're going to end up",
      "start": 465.77,
      "duration": 3.9
    },
    {
      "text": "with such a hole for a boss well I would",
      "start": 467.18,
      "duration": 4.76
    },
    {
      "text": "argue it's more likely right because",
      "start": 469.67,
      "duration": 5.52
    },
    {
      "text": "existing biases come with their own set",
      "start": 471.94,
      "duration": 5.83
    },
    {
      "text": "of confirmation principles of",
      "start": 475.19,
      "duration": 7.41
    },
    {
      "text": "confirmation bias right and if you come",
      "start": 477.77,
      "duration": 8.7
    },
    {
      "text": "in with an attitude and of an astute",
      "start": 482.6,
      "duration": 5.97
    },
    {
      "text": "manager like a good manager will",
      "start": 486.47,
      "duration": 3.75
    },
    {
      "text": "immediately recognize someone who has a",
      "start": 488.57,
      "duration": 6.06
    },
    {
      "text": "problem with authority and will not hire",
      "start": 490.22,
      "duration": 6.48
    },
    {
      "text": "that person whereas somebody who's a bad",
      "start": 494.63,
      "duration": 4.17
    },
    {
      "text": "manager and a bully will probably like",
      "start": 496.7,
      "duration": 3.33
    },
    {
      "text": "someone who has a problem with authority",
      "start": 498.8,
      "duration": 3.15
    },
    {
      "text": "because they get to get into some",
      "start": 500.03,
      "duration": 4.31
    },
    {
      "text": "ancient historical Simon the boxer style",
      "start": 501.95,
      "duration": 5.22
    },
    {
      "text": "tassel with that person thus reaffirming",
      "start": 504.34,
      "duration": 7.96
    },
    {
      "text": "all the habits of their history and so",
      "start": 507.17,
      "duration": 8.28
    },
    {
      "text": "if you've had this experience as a child",
      "start": 512.3,
      "duration": 7.4
    },
    {
      "text": "of being bullied or being treated as",
      "start": 515.45,
      "duration": 6.66
    },
    {
      "text": "inconsequential and that sort of stuff",
      "start": 519.7,
      "duration": 5.71
    },
    {
      "text": "then when you grow up you will very",
      "start": 522.11,
      "duration": 5.94
    },
    {
      "text": "likely end up with very little human",
      "start": 525.41,
      "duration": 4.35
    },
    {
      "text": "capital and the human capital I'm",
      "start": 528.05,
      "duration": 3.63
    },
    {
      "text": "talking about is basic sort of",
      "start": 529.76,
      "duration": 4.83
    },
    {
      "text": "negotiation my daughter and",
      "start": 531.68,
      "duration": 4.68
    },
    {
      "text": "I have been negotiating since since she",
      "start": 534.59,
      "duration": 3.27
    },
    {
      "text": "was about eighteen months of age so by",
      "start": 536.36,
      "duration": 3.99
    },
    {
      "text": "the time you know she gets to be 18 she",
      "start": 537.86,
      "duration": 6.96
    },
    {
      "text": "has 16 and a half years of negotiating",
      "start": 540.35,
      "duration": 6
    },
    {
      "text": "experience where she's treated with",
      "start": 544.82,
      "duration": 3.96
    },
    {
      "text": "respect and dignity and curiosity and",
      "start": 546.35,
      "duration": 4.38
    },
    {
      "text": "win-win negotiations I you can't just",
      "start": 548.78,
      "duration": 4.35
    },
    {
      "text": "sort of graph that under someone else",
      "start": 550.73,
      "duration": 5.46
    },
    {
      "text": "right it's it's a it's a very complex",
      "start": 553.13,
      "duration": 5.16
    },
    {
      "text": "language of negotiation and there's a",
      "start": 556.19,
      "duration": 3.66
    },
    {
      "text": "lot of skills that are being learned",
      "start": 558.29,
      "duration": 3.69
    },
    {
      "text": "during the process of negotiation but if",
      "start": 559.85,
      "duration": 4.86
    },
    {
      "text": "you treat it as a thing by your parents",
      "start": 561.98,
      "duration": 4.62
    },
    {
      "text": "if you treat it as an object you",
      "start": 564.71,
      "duration": 2.85
    },
    {
      "text": "certainly treated it that way in public",
      "start": 566.6,
      "duration": 2.34
    },
    {
      "text": "school and I mean nobody frankly gives a",
      "start": 567.56,
      "duration": 2.67
    },
    {
      "text": "shit what you want you just do what they",
      "start": 568.94,
      "duration": 4.29
    },
    {
      "text": "say then you are missing out on a huge",
      "start": 570.23,
      "duration": 5.31
    },
    {
      "text": "amount of emotional skills and I would",
      "start": 573.23,
      "duration": 4.5
    },
    {
      "text": "argue particularly in the modern economy",
      "start": 575.54,
      "duration": 4.29
    },
    {
      "text": "are failing to negotiate with children",
      "start": 577.73,
      "duration": 4.47
    },
    {
      "text": "for failure of parents to negotiate with",
      "start": 579.83,
      "duration": 5.58
    },
    {
      "text": "children is is really destructive to",
      "start": 582.2,
      "duration": 5.88
    },
    {
      "text": "their potential economically as human",
      "start": 585.41,
      "duration": 4.77
    },
    {
      "text": "beings and of course you know when you",
      "start": 588.08,
      "duration": 6.75
    },
    {
      "text": "get into the realm of when you get into",
      "start": 590.18,
      "duration": 5.88
    },
    {
      "text": "the realm of negotiating in personal",
      "start": 594.83,
      "duration": 3.87
    },
    {
      "text": "relationships and so on then it's also",
      "start": 596.06,
      "duration": 5.79
    },
    {
      "text": "you know pretty bad for you if you've",
      "start": 598.7,
      "duration": 5.37
    },
    {
      "text": "not had these sixteen and a half years",
      "start": 601.85,
      "duration": 3.93
    },
    {
      "text": "of negotiation and this doesn't even",
      "start": 604.07,
      "duration": 4.17
    },
    {
      "text": "count the negotiation that my daughter",
      "start": 605.78,
      "duration": 4.14
    },
    {
      "text": "sees my wife and I doing and my friends",
      "start": 608.24,
      "duration": 3.3
    },
    {
      "text": "and I doing and so on right so she sees",
      "start": 609.92,
      "duration": 3.75
    },
    {
      "text": "that she experiences it and this is a",
      "start": 611.54,
      "duration": 3.51
    },
    {
      "text": "huge amount of human capital that's",
      "start": 613.67,
      "duration": 3.6
    },
    {
      "text": "being injected so to speak or she's",
      "start": 615.05,
      "duration": 5.34
    },
    {
      "text": "being exposed to be injected into her so",
      "start": 617.27,
      "duration": 8.18
    },
    {
      "text": "if you emerge from a neglected abused or",
      "start": 620.39,
      "duration": 8.84
    },
    {
      "text": "dysfunctional household then you are I",
      "start": 625.45,
      "duration": 6.64
    },
    {
      "text": "mean pretty crippled in terms of",
      "start": 629.23,
      "duration": 6.13
    },
    {
      "text": "economic skills basic negotiation skills",
      "start": 632.09,
      "duration": 6.12
    },
    {
      "text": "self confidence skills positive reaction",
      "start": 635.36,
      "duration": 4.95
    },
    {
      "text": "to legitimate Authority capacity to be",
      "start": 638.21,
      "duration": 4.17
    },
    {
      "text": "mentored capacity for deferral and",
      "start": 640.31,
      "duration": 4.89
    },
    {
      "text": "subjugation to that which is true and",
      "start": 642.38,
      "duration": 4.32
    },
    {
      "text": "valuable and useful and so on an",
      "start": 645.2,
      "duration": 4.77
    },
    {
      "text": "inability to admit false and inability",
      "start": 646.7,
      "duration": 6.36
    },
    {
      "text": "to self correct an inability to sort of",
      "start": 649.97,
      "duration": 4.92
    },
    {
      "text": "talk comfortably with people in terms of",
      "start": 653.06,
      "duration": 3.51
    },
    {
      "text": "social ease you know all that kind of",
      "start": 654.89,
      "duration": 4.53
    },
    {
      "text": "stuff that is not I mean that that's how",
      "start": 656.57,
      "duration": 4.23
    },
    {
      "text": "you should be raised and if you're not",
      "start": 659.42,
      "duration": 3.12
    },
    {
      "text": "raised with that I mean you're crippled",
      "start": 660.8,
      "duration": 2.52
    },
    {
      "text": "it doesn't mean you're permanently",
      "start": 662.54,
      "duration": 2.37
    },
    {
      "text": "cripples I mean I did a lot of work to",
      "start": 663.32,
      "duration": 4.5
    },
    {
      "text": "bring that stuff back into being",
      "start": 664.91,
      "duration": 5.34
    },
    {
      "text": "in myself but it means that you're gonna",
      "start": 667.82,
      "duration": 5.48
    },
    {
      "text": "have a significant problem with that now",
      "start": 670.25,
      "duration": 8.7
    },
    {
      "text": "is somebody who lacks a huge amount of",
      "start": 673.3,
      "duration": 8.17
    },
    {
      "text": "human capital as a result of their",
      "start": 678.95,
      "duration": 4.77
    },
    {
      "text": "upbringing and you know probably a lack",
      "start": 681.47,
      "duration": 3.63
    },
    {
      "text": "of work and a lack of awareness on their",
      "start": 683.72,
      "duration": 6.06
    },
    {
      "text": "upbringing is going to be far less",
      "start": 685.1,
      "duration": 7.26
    },
    {
      "text": "valuable in an economic environment",
      "start": 689.78,
      "duration": 6
    },
    {
      "text": "right I mean good employees sorry good",
      "start": 692.36,
      "duration": 5.85
    },
    {
      "text": "employers want employees who can",
      "start": 695.78,
      "duration": 4.17
    },
    {
      "text": "negotiate who can self-corrects who are",
      "start": 698.21,
      "duration": 3.75
    },
    {
      "text": "mature who all that kind of stuff who",
      "start": 699.95,
      "duration": 3.78
    },
    {
      "text": "don't pointlessly fight who aren't",
      "start": 701.96,
      "duration": 3.24
    },
    {
      "text": "resentful to don't pick fights with",
      "start": 703.73,
      "duration": 3.69
    },
    {
      "text": "co-workers who don't alienate people who",
      "start": 705.2,
      "duration": 3.54
    },
    {
      "text": "don't lose their temper who don't slam",
      "start": 707.42,
      "duration": 3
    },
    {
      "text": "doors who don't sullen who aren't right",
      "start": 708.74,
      "duration": 3.72
    },
    {
      "text": "all the things that can come out of a",
      "start": 710.42,
      "duration": 6.11
    },
    {
      "text": "you know a tragically negative history",
      "start": 712.46,
      "duration": 8.76
    },
    {
      "text": "and so the good employers employees the",
      "start": 716.53,
      "duration": 6.52
    },
    {
      "text": "good employers won't hire the bad",
      "start": 721.22,
      "duration": 5.1
    },
    {
      "text": "employees and so you end up in a kind of",
      "start": 723.05,
      "duration": 6.48
    },
    {
      "text": "self-perpetuating cycle where you say",
      "start": 726.32,
      "duration": 5.28
    },
    {
      "text": "well you know Authority people in",
      "start": 729.53,
      "duration": 4.29
    },
    {
      "text": "authority at jerks and you know bosses",
      "start": 731.6,
      "duration": 3.78
    },
    {
      "text": "are jerks and corporations are jerks and",
      "start": 733.82,
      "duration": 3.84
    },
    {
      "text": "that's because there's a tragic",
      "start": 735.38,
      "duration": 7.56
    },
    {
      "text": "historical imbalance in your value right",
      "start": 737.66,
      "duration": 10.68
    },
    {
      "text": "and so people who have these bad",
      "start": 742.94,
      "duration": 10.77
    },
    {
      "text": "histories end up with vastly diminished",
      "start": 748.34,
      "duration": 9.48
    },
    {
      "text": "human capital end up with worse bosses",
      "start": 753.71,
      "duration": 6.57
    },
    {
      "text": "bad bosses main bosses dysfunctional",
      "start": 757.82,
      "duration": 6.12
    },
    {
      "text": "bosses and so once and usually they will",
      "start": 760.28,
      "duration": 5.52
    },
    {
      "text": "have dysfunctional relationships in",
      "start": 763.94,
      "duration": 2.34
    },
    {
      "text": "every sphere",
      "start": 765.8,
      "duration": 4.13
    },
    {
      "text": "I mean it's unprocessed history is the",
      "start": 766.28,
      "duration": 6.66
    },
    {
      "text": "second greatest universality after",
      "start": 769.93,
      "duration": 9.69
    },
    {
      "text": "ethics or reason and so there's this",
      "start": 772.94,
      "duration": 10.29
    },
    {
      "text": "sense of not my experience has",
      "start": 779.62,
      "duration": 9.3
    },
    {
      "text": "conditioned me to X but the world is X",
      "start": 783.23,
      "duration": 5.69
    },
    {
      "text": "corporations have all the power and",
      "start": 789.37,
      "duration": 7.81
    },
    {
      "text": "corporations bully workers I mean just",
      "start": 792.55,
      "duration": 6.7
    },
    {
      "text": "look at Marx right name and angles to",
      "start": 797.18,
      "duration": 3.24
    },
    {
      "text": "some degree angle",
      "start": 799.25,
      "duration": 2.76
    },
    {
      "text": "angles were just inherited all of his",
      "start": 800.42,
      "duration": 4.62
    },
    {
      "text": "wealth and and Marx was ridiculously",
      "start": 802.01,
      "duration": 4.5
    },
    {
      "text": "incompetent I couldn't even get a job as",
      "start": 805.04,
      "duration": 4.08
    },
    {
      "text": "a railway clerk couldn't make any money",
      "start": 806.51,
      "duration": 4.05
    },
    {
      "text": "on the stock market I mean it was just",
      "start": 809.12,
      "duration": 5.54
    },
    {
      "text": "hopelessly incompetent and and therefore",
      "start": 810.56,
      "duration": 6.75
    },
    {
      "text": "felt that you know corporations had all",
      "start": 814.66,
      "duration": 5.97
    },
    {
      "text": "the power and and the workers were",
      "start": 817.31,
      "duration": 6.18
    },
    {
      "text": "useless to them and could be exchanged",
      "start": 820.63,
      "duration": 7
    },
    {
      "text": "at will and were inconsequential and so",
      "start": 823.49,
      "duration": 5.37
    },
    {
      "text": "on but the question is well why are the",
      "start": 827.63,
      "duration": 7.769
    },
    {
      "text": "workers inconsequential why the work is",
      "start": 828.86,
      "duration": 8.839
    },
    {
      "text": "inconsequential",
      "start": 835.399,
      "duration": 2.3
    },
    {
      "text": "you know Steve Jobs was raised without",
      "start": 838.06,
      "duration": 8.32
    },
    {
      "text": "being hit but you know how rare that was",
      "start": 842.75,
      "duration": 7.47
    },
    {
      "text": "in the 50s it's crazy he was raised",
      "start": 846.38,
      "duration": 5.639
    },
    {
      "text": "without being hit and his father was a",
      "start": 850.22,
      "duration": 3.929
    },
    {
      "text": "gentle enough to to look out for the",
      "start": 852.019,
      "duration": 3.091
    },
    {
      "text": "welfare of other children in the",
      "start": 854.149,
      "duration": 6.3
    },
    {
      "text": "neighborhood as well I mean still a kind",
      "start": 855.11,
      "duration": 7.38
    },
    {
      "text": "of dysfunctional guy I had a kid and",
      "start": 860.449,
      "duration": 3.721
    },
    {
      "text": "this virtually disarmed its butt but the",
      "start": 862.49,
      "duration": 4.56
    },
    {
      "text": "reality is that his economic value was",
      "start": 864.17,
      "duration": 5.34
    },
    {
      "text": "enhanced certainly by not being hit",
      "start": 867.05,
      "duration": 4.17
    },
    {
      "text": "because not being hit isn't just like",
      "start": 869.51,
      "duration": 7.11
    },
    {
      "text": "being hit - hitting right like having",
      "start": 871.22,
      "duration": 8.19
    },
    {
      "text": "making love it's not just sexual",
      "start": 876.62,
      "duration": 4.44
    },
    {
      "text": "penetration it's not the same as sexual",
      "start": 879.41,
      "duration": 3.48
    },
    {
      "text": "penetration with rape with rape without",
      "start": 881.06,
      "duration": 3.36
    },
    {
      "text": "the rape right I mean it's a completely",
      "start": 882.89,
      "duration": 3.27
    },
    {
      "text": "opposite experience because if you're",
      "start": 884.42,
      "duration": 4.38
    },
    {
      "text": "not hitting your children then you are",
      "start": 886.16,
      "duration": 4.369
    },
    {
      "text": "doubtless negotiating with them right",
      "start": 888.8,
      "duration": 3.63
    },
    {
      "text": "you have to find some other way of",
      "start": 890.529,
      "duration": 2.981
    },
    {
      "text": "interacting with them if you're not",
      "start": 892.43,
      "duration": 3.149
    },
    {
      "text": "hitting them while bullying them and so",
      "start": 893.51,
      "duration": 4.68
    },
    {
      "text": "now it's not just like being hit it's",
      "start": 895.579,
      "duration": 4.88
    },
    {
      "text": "not the same as being hit and then",
      "start": 898.19,
      "duration": 3.959
    },
    {
      "text": "everything's the same except you're not",
      "start": 900.459,
      "duration": 3.521
    },
    {
      "text": "being hit it's it's the complete",
      "start": 902.149,
      "duration": 8.701
    },
    {
      "text": "opposite experience so I would certainly",
      "start": 903.98,
      "duration": 10.62
    },
    {
      "text": "put forward the thesis that people who",
      "start": 910.85,
      "duration": 7.049
    },
    {
      "text": "have abused histories",
      "start": 914.6,
      "duration": 5.489
    },
    {
      "text": "abusive histories within their families",
      "start": 917.899,
      "duration": 3.68
    },
    {
      "text": "within their schools within their",
      "start": 920.089,
      "duration": 3.631
    },
    {
      "text": "religious institutions within their",
      "start": 921.579,
      "duration": 5.351
    },
    {
      "text": "environment as a whole we are naturally",
      "start": 923.72,
      "duration": 5.849
    },
    {
      "text": "drawn to find substitutes for the wrongs",
      "start": 926.93,
      "duration": 5.61
    },
    {
      "text": "we have received we are naturally drawn",
      "start": 929.569,
      "duration": 4.891
    },
    {
      "text": "to find substitutes for the wrong",
      "start": 932.54,
      "duration": 9.239
    },
    {
      "text": "we have received so for instance if our",
      "start": 934.46,
      "duration": 10.47
    },
    {
      "text": "parents were mean to us but we can say",
      "start": 941.779,
      "duration": 6.351
    },
    {
      "text": "that meanness is somehow human nature",
      "start": 944.93,
      "duration": 8.31
    },
    {
      "text": "then our parents weren't bad right right",
      "start": 948.13,
      "duration": 7.09
    },
    {
      "text": "if I say my father died young he was",
      "start": 953.24,
      "duration": 5.46
    },
    {
      "text": "only 97 people are gonna say well sorry",
      "start": 955.22,
      "duration": 6.27
    },
    {
      "text": "that's not young right you know if I",
      "start": 958.7,
      "duration": 4.62
    },
    {
      "text": "think that the people live to be 400",
      "start": 961.49,
      "duration": 4.95
    },
    {
      "text": "years old then 97 is young but if I",
      "start": 963.32,
      "duration": 4.769
    },
    {
      "text": "accept that that's not doing too bad at",
      "start": 966.44,
      "duration": 3.39
    },
    {
      "text": "the age category then that's quite a",
      "start": 968.089,
      "duration": 8.581
    },
    {
      "text": "different matter right and so if what my",
      "start": 969.83,
      "duration": 9.27
    },
    {
      "text": "parents did is somehow human nature all",
      "start": 976.67,
      "duration": 5.58
    },
    {
      "text": "the way people are then you know my",
      "start": 979.1,
      "duration": 5.37
    },
    {
      "text": "parents are off the hook right cuz it's",
      "start": 982.25,
      "duration": 3.66
    },
    {
      "text": "like like blaming my parents for being",
      "start": 984.47,
      "duration": 3.36
    },
    {
      "text": "bipeds or carbon-based life-forms it's",
      "start": 985.91,
      "duration": 4.16
    },
    {
      "text": "like well that's just the deal all right",
      "start": 987.83,
      "duration": 8.25
    },
    {
      "text": "that's just the way it is and so the",
      "start": 990.07,
      "duration": 7.87
    },
    {
      "text": "desire to extrapolate what my parents",
      "start": 996.08,
      "duration": 6.21
    },
    {
      "text": "did to human nature as a whole is the",
      "start": 997.94,
      "duration": 7.1
    },
    {
      "text": "route the defense mechanism of",
      "start": 1002.29,
      "duration": 8.34
    },
    {
      "text": "normalizing my experience right like if",
      "start": 1005.04,
      "duration": 8.2
    },
    {
      "text": "I say all women are crazy bitches then",
      "start": 1010.63,
      "duration": 4.68
    },
    {
      "text": "okay so my mom gets off the hook because",
      "start": 1013.24,
      "duration": 4.92
    },
    {
      "text": "all women tonight but the problem is",
      "start": 1015.31,
      "duration": 4.44
    },
    {
      "text": "that then I have confirmation bias I",
      "start": 1018.16,
      "duration": 3.81
    },
    {
      "text": "have to really limit my exposure to",
      "start": 1019.75,
      "duration": 3.779
    },
    {
      "text": "empirical evidence that contradicts my",
      "start": 1021.97,
      "duration": 2.79
    },
    {
      "text": "thesis which is why I tend to hang",
      "start": 1023.529,
      "duration": 2.4
    },
    {
      "text": "around women who would only be the",
      "start": 1024.76,
      "duration": 3.96
    },
    {
      "text": "aforementioned crazy bitches right and",
      "start": 1025.929,
      "duration": 4.831
    },
    {
      "text": "since you can find crazy bitches in the",
      "start": 1028.72,
      "duration": 3.9
    },
    {
      "text": "world and crazy bastards and all that",
      "start": 1030.76,
      "duration": 4.049
    },
    {
      "text": "kind of stuff you will have no shortage",
      "start": 1032.62,
      "duration": 4.29
    },
    {
      "text": "of people willing to act as a junk",
      "start": 1034.809,
      "duration": 5.491
    },
    {
      "text": "confirmation bias mechanisms to continue",
      "start": 1036.91,
      "duration": 5.37
    },
    {
      "text": "to keep your parents off the hook to to",
      "start": 1040.3,
      "duration": 3.72
    },
    {
      "text": "allow you to pretend that your parents",
      "start": 1042.28,
      "duration": 6.96
    },
    {
      "text": "right won't work bad right another way",
      "start": 1044.02,
      "duration": 7.11
    },
    {
      "text": "that this shows up is in this you know",
      "start": 1049.24,
      "duration": 3.36
    },
    {
      "text": "sort of the forgiveness kamat Ben Riley",
      "start": 1051.13,
      "duration": 2.79
    },
    {
      "text": "New York you have to forgive or there's",
      "start": 1052.6,
      "duration": 2.85
    },
    {
      "text": "some ancient Pharaoh curse put on you",
      "start": 1053.92,
      "duration": 3.96
    },
    {
      "text": "around your happiness and so on and",
      "start": 1055.45,
      "duration": 4.38
    },
    {
      "text": "that's you know I think that's silly",
      "start": 1057.88,
      "duration": 3.27
    },
    {
      "text": "forgiveness is something that's earned",
      "start": 1059.83,
      "duration": 3.63
    },
    {
      "text": "it's like laughs it's earned it's not",
      "start": 1061.15,
      "duration": 3.69
    },
    {
      "text": "something you just will and bestow on",
      "start": 1063.46,
      "duration": 2.81
    },
    {
      "text": "people I don't think we have that",
      "start": 1064.84,
      "duration": 3.709
    },
    {
      "text": "capacity",
      "start": 1066.27,
      "duration": 5.23
    },
    {
      "text": "but we like to be in control of that and",
      "start": 1068.549,
      "duration": 4.661
    },
    {
      "text": "imagine that we can make things better",
      "start": 1071.5,
      "duration": 2.97
    },
    {
      "text": "with our parents simply through our own",
      "start": 1073.21,
      "duration": 3.27
    },
    {
      "text": "willpower and I don't think that's true",
      "start": 1074.47,
      "duration": 3.99
    },
    {
      "text": "I think acceptance is important but",
      "start": 1076.48,
      "duration": 4.77
    },
    {
      "text": "acceptance usually is quite opposed to",
      "start": 1078.46,
      "duration": 5.01
    },
    {
      "text": "the magical thinking which extrapolates",
      "start": 1081.25,
      "duration": 4.399
    },
    {
      "text": "our parents immorality into other",
      "start": 1083.47,
      "duration": 4.53
    },
    {
      "text": "environments completely right into sort",
      "start": 1085.649,
      "duration": 4.691
    },
    {
      "text": "of universalization that aren't aren't",
      "start": 1088,
      "duration": 6.96
    },
    {
      "text": "valid so that's one way that it happens",
      "start": 1090.34,
      "duration": 6.27
    },
    {
      "text": "now another way that it happens is",
      "start": 1094.96,
      "duration": 6.419
    },
    {
      "text": "because because when you when you say",
      "start": 1096.61,
      "duration": 6.779
    },
    {
      "text": "well it's just human nature to be mean",
      "start": 1101.379,
      "duration": 6.811
    },
    {
      "text": "or greedy or whatever it is the pain",
      "start": 1103.389,
      "duration": 6.331
    },
    {
      "text": "doesn't go away right II understand it",
      "start": 1108.19,
      "duration": 2.91
    },
    {
      "text": "just gets buried it has to find its way",
      "start": 1109.72,
      "duration": 3.539
    },
    {
      "text": "out somewhere right the unconscious is",
      "start": 1111.1,
      "duration": 3.329
    },
    {
      "text": "always crying out for truth the",
      "start": 1113.259,
      "duration": 2.731
    },
    {
      "text": "unconscious is always striving for truth",
      "start": 1114.429,
      "duration": 3.181
    },
    {
      "text": "because that's what we tell it to do",
      "start": 1115.99,
      "duration": 4.049
    },
    {
      "text": "like we tell our unconscious if there's",
      "start": 1117.61,
      "duration": 4.559
    },
    {
      "text": "a door in front of tell me right now we",
      "start": 1120.039,
      "duration": 3.99
    },
    {
      "text": "tell our unconscious if there's an",
      "start": 1122.169,
      "duration": 3.75
    },
    {
      "text": "animal chasing me let me know and I'm",
      "start": 1124.029,
      "duration": 3.36
    },
    {
      "text": "gonna run away so you do that with the",
      "start": 1125.919,
      "duration": 3.51
    },
    {
      "text": "leg so we're constantly striving for a",
      "start": 1127.389,
      "duration": 3.331
    },
    {
      "text": "unconscious to tell us the truth about",
      "start": 1129.429,
      "duration": 3.541
    },
    {
      "text": "reality and it gets a little baffled",
      "start": 1130.72,
      "duration": 3.72
    },
    {
      "text": "when it says okay but lie about my",
      "start": 1132.97,
      "duration": 2.85
    },
    {
      "text": "emotional history rely about the",
      "start": 1134.44,
      "duration": 3.479
    },
    {
      "text": "morality that I grew up in right so it's",
      "start": 1135.82,
      "duration": 4.65
    },
    {
      "text": "constantly striving towards truth and if",
      "start": 1137.919,
      "duration": 6.301
    },
    {
      "text": "you make up a lie wouldn't you know I",
      "start": 1140.47,
      "duration": 4.86
    },
    {
      "text": "say this was all sympathy but if you",
      "start": 1144.22,
      "duration": 4.11
    },
    {
      "text": "make up a lie to pretend that what was",
      "start": 1145.33,
      "duration": 5.28
    },
    {
      "text": "painful and shocking to you was not",
      "start": 1148.33,
      "duration": 3.87
    },
    {
      "text": "painful and shocking or that it was",
      "start": 1150.61,
      "duration": 3.12
    },
    {
      "text": "immature to find it painful and shocking",
      "start": 1152.2,
      "duration": 3.089
    },
    {
      "text": "or that was just naivete and that's the",
      "start": 1153.73,
      "duration": 2.789
    },
    {
      "text": "way the world is if you develop that",
      "start": 1155.289,
      "duration": 3.39
    },
    {
      "text": "hard exoskeleton that hallows you out",
      "start": 1156.519,
      "duration": 3.54
    },
    {
      "text": "and originally it's designed to protect",
      "start": 1158.679,
      "duration": 2.97
    },
    {
      "text": "your softer heart and eventually eats it",
      "start": 1160.059,
      "duration": 4.131
    },
    {
      "text": "becomes an empty black echo chamber of",
      "start": 1161.649,
      "duration": 5.01
    },
    {
      "text": "past justifications or justifications",
      "start": 1164.19,
      "duration": 5.89
    },
    {
      "text": "for the past then that's really really",
      "start": 1166.659,
      "duration": 7.171
    },
    {
      "text": "tragic because the paint still has to",
      "start": 1170.08,
      "duration": 5.069
    },
    {
      "text": "find some way out and of course when you",
      "start": 1173.83,
      "duration": 2.309
    },
    {
      "text": "work here if your parents were mean to",
      "start": 1175.149,
      "duration": 2.73
    },
    {
      "text": "you you don't have this human nature",
      "start": 1176.139,
      "duration": 3.691
    },
    {
      "text": "argument as a kid it just hurts but just",
      "start": 1177.879,
      "duration": 3.66
    },
    {
      "text": "hurts just it's frightening it's it's",
      "start": 1179.83,
      "duration": 4.5
    },
    {
      "text": "it's a it's it's horrifying it's you",
      "start": 1181.539,
      "duration": 4.02
    },
    {
      "text": "know all these kinds of things right so",
      "start": 1184.33,
      "duration": 4.349
    },
    {
      "text": "that all occurs now you can come up with",
      "start": 1185.559,
      "duration": 4.891
    },
    {
      "text": "these adult justifications if you want",
      "start": 1188.679,
      "duration": 3.12
    },
    {
      "text": "later but that certainly was not your",
      "start": 1190.45,
      "duration": 2.939
    },
    {
      "text": "original experience like there's no kid",
      "start": 1191.799,
      "duration": 3.781
    },
    {
      "text": "who gets hit by a parent and then says",
      "start": 1193.389,
      "duration": 3.39
    },
    {
      "text": "well that's human nature to hit",
      "start": 1195.58,
      "duration": 2.61
    },
    {
      "text": "therefore this doesn't hurt this isn't",
      "start": 1196.779,
      "duration": 2.791
    },
    {
      "text": "shocking this is not setting this isn't",
      "start": 1198.19,
      "duration": 3.03
    },
    {
      "text": "any kind of problem right so whatever",
      "start": 1199.57,
      "duration": 2.52
    },
    {
      "text": "you come",
      "start": 1201.22,
      "duration": 2.459
    },
    {
      "text": "but later doesn't do you any good in",
      "start": 1202.09,
      "duration": 3.3
    },
    {
      "text": "terms of processing the original pain of",
      "start": 1203.679,
      "duration": 3.811
    },
    {
      "text": "the original problem and so the original",
      "start": 1205.39,
      "duration": 3.419
    },
    {
      "text": "pain and problem is still there and it",
      "start": 1207.49,
      "duration": 3.39
    },
    {
      "text": "comes out in somewhere and so I think",
      "start": 1208.809,
      "duration": 5.37
    },
    {
      "text": "that for a lot of people they rail",
      "start": 1210.88,
      "duration": 6.419
    },
    {
      "text": "against corporations because they can't",
      "start": 1214.179,
      "duration": 5.581
    },
    {
      "text": "or haven't been helped or have avoided",
      "start": 1217.299,
      "duration": 3.901
    },
    {
      "text": "making the connection with their own",
      "start": 1219.76,
      "duration": 2.58
    },
    {
      "text": "histories you know but they're teachers",
      "start": 1221.2,
      "duration": 2.67
    },
    {
      "text": "preachers and parents who may have",
      "start": 1222.34,
      "duration": 4.589
    },
    {
      "text": "harmed them and when you combine that",
      "start": 1223.87,
      "duration": 7.62
    },
    {
      "text": "with the really tragic stripping down of",
      "start": 1226.929,
      "duration": 6.691
    },
    {
      "text": "economic capital of human capital that",
      "start": 1231.49,
      "duration": 3.929
    },
    {
      "text": "comes from say hitting your kids or",
      "start": 1233.62,
      "duration": 4.08
    },
    {
      "text": "ignoring them rather than engaging them",
      "start": 1235.419,
      "duration": 4.441
    },
    {
      "text": "and negotiating with them then I think",
      "start": 1237.7,
      "duration": 4.109
    },
    {
      "text": "it all starts to make a lot of sense as",
      "start": 1239.86,
      "duration": 4.799
    },
    {
      "text": "to why there is this anti corporatist",
      "start": 1241.809,
      "duration": 4.74
    },
    {
      "text": "mentality and again I'm happy to hear",
      "start": 1244.659,
      "duration": 3.87
    },
    {
      "text": "about this of course from career",
      "start": 1246.549,
      "duration": 2.911
    },
    {
      "text": "experience before other people's",
      "start": 1248.529,
      "duration": 7.111
    },
    {
      "text": "experience one way to to rebut this",
      "start": 1249.46,
      "duration": 7.77
    },
    {
      "text": "would be you know if you're really",
      "start": 1255.64,
      "duration": 3.18
    },
    {
      "text": "successful if you've been really",
      "start": 1257.23,
      "duration": 2.88
    },
    {
      "text": "successful in corporations but still",
      "start": 1258.82,
      "duration": 2.43
    },
    {
      "text": "think that they're you know monstrous",
      "start": 1260.11,
      "duration": 2.85
    },
    {
      "text": "and so on you call me and I'd be really",
      "start": 1261.25,
      "duration": 3
    },
    {
      "text": "happy to talk about this further thank",
      "start": 1262.96,
      "duration": 3.599
    },
    {
      "text": "you so much for listening as always lots",
      "start": 1264.25,
      "duration": 5.899
    },
    {
      "text": "of left talk to you soon Stefan Molyneux",
      "start": 1266.559,
      "duration": 3.59
    }
  ],
  "Errors": null,
  "TranscriptStderr": null
}