{
  "Title": "An Open Letter to Russell Brand - Let's Start a Revolution!",
  "Id": "ltiviifnA_E",
  "Transcript": [
    {
      "text": "Hi, Russell. It's Stefan Molyneux from Freedomain\nRadio. I hope you're doing well. I watched",
      "start": 0.799,
      "duration": 3.761
    },
    {
      "text": "your interview tonight with that pompous,\npubic hair-faced, British twerp and I must",
      "start": 4.56,
      "duration": 5.7
    },
    {
      "text": "say that was incandescent. That was magnificent.\nAnd I just wanted to applaud you for your",
      "start": 10.26,
      "duration": 6.22
    },
    {
      "text": "passion, your commitment and your justified\nmammalian homicidal outrage at the way in",
      "start": 16.48,
      "duration": 6.769
    },
    {
      "text": "which the underclasses are treated in the\ncurrent system. I share, for what it's worth,",
      "start": 23.249,
      "duration": 5.391
    },
    {
      "text": "your massive hostility and skepticism towards\nvoting. It really is like voting for the man",
      "start": 28.64,
      "duration": 7
    },
    {
      "text": "who doesn't get the bullet in the firing squad.\nYou're going to end up with no head anyway,",
      "start": 36.67,
      "duration": 3.68
    },
    {
      "text": "and it is a ridiculous farce to participate\nin.",
      "start": 40.35,
      "duration": 2.95
    },
    {
      "text": "The only thing that I would say and this may\nseem odd to those who watched the video is",
      "start": 43.3,
      "duration": 5.219
    },
    {
      "text": "that, my brother, you just didn't go quite\nfar enough. I wanted to point that out because,",
      "start": 48.519,
      "duration": 7
    },
    {
      "text": "yeah, the entire system is a massive and dimensional\nMobius strip clusterfrak of the poor and particularly",
      "start": 57.26,
      "duration": 7
    },
    {
      "text": "of the unborn through national debts. And\nit is a warmongering, hate-filled, deceptive,",
      "start": 66,
      "duration": 6.22
    },
    {
      "text": "lying, manipulative, sociopathic system that\nwe live in. But the temptation that I would",
      "start": 72.22,
      "duration": 7
    },
    {
      "text": "invite you to look at is the temptation to\nbelieve that more power is going to solve",
      "start": 79.69,
      "duration": 7
    },
    {
      "text": "the problem of great power.",
      "start": 87.76,
      "duration": 3.13
    },
    {
      "text": "There is always this belief that if we just\nhit the gas a little more, that if we just",
      "start": 90.89,
      "duration": 5.16
    },
    {
      "text": "take more power and give more power to control\nothers into the hands of some angelic godlike,",
      "start": 96.05,
      "duration": 7
    },
    {
      "text": "unselfish, beautiful people that we can make\nthe world a paradise. But I think that history",
      "start": 104.07,
      "duration": 6.67
    },
    {
      "text": "facts and experience will show if you think\nabout it in a particular that it's just not",
      "start": 110.74,
      "duration": 5.42
    },
    {
      "text": "true.",
      "start": 116.16,
      "duration": 1.59
    },
    {
      "text": "What is true, for instance, is that America\nhas spent $4 to $5 trillion dollars -- trillion",
      "start": 117.75,
      "duration": 5.41
    },
    {
      "text": "dollars -- over the past five years on the\nwelfare state and the poor are in a worse",
      "start": 123.16,
      "duration": 6.099
    },
    {
      "text": "place. America has tried to get the poor into\nhouses with a variety of beneficial schemes",
      "start": 129.259,
      "duration": 4.861
    },
    {
      "text": "which causes a massive housing crash. More\npower in the state won't work. More power",
      "start": 134.12,
      "duration": 7
    },
    {
      "text": "to redistribute, more power to tax, more power\nto control, more power to fence in and box",
      "start": 141.49,
      "duration": 4.93
    },
    {
      "text": "in all of the special interests that you see\nusing the government to slowly club the poor",
      "start": 146.42,
      "duration": 5.87
    },
    {
      "text": "into a proletariat bloody mass; more power\nwill only attract more sociopaths; more power",
      "start": 152.29,
      "duration": 6.81
    },
    {
      "text": "will only attract more evil; more taxation\nwill only attract more exploiters; more control",
      "start": 159.1,
      "duration": 6.3
    },
    {
      "text": "will only attract more controllers.",
      "start": 165.4,
      "duration": 3.48
    },
    {
      "text": "The US in the last five years has spent more\nmoney on the poor that probably existed for",
      "start": 168.88,
      "duration": 7
    },
    {
      "text": "the first 10,000 years of human history, and\nthe poor are worse off than they were before.",
      "start": 176.27,
      "duration": 6.87
    },
    {
      "text": "Since the 1960s your dream of tax the rich\nand control the corporations and give the",
      "start": 183.14,
      "duration": 5.9
    },
    {
      "text": "money to the poor has been tried repeatedly,\nextravagantly, violently, viciously, bottomlessly;",
      "start": 189.04,
      "duration": 7
    },
    {
      "text": "and it doesn't work. The nature of what you\ncalled for, the redistribution of income which",
      "start": 199.1,
      "duration": 6.64
    },
    {
      "text": "is a completely understandable impasse, this\nman, his plate is so full of food he can't",
      "start": 205.74,
      "duration": 6.53
    },
    {
      "text": "possibly finish it for five generations. This\nman is rail thin and starving and eating a",
      "start": 212.27,
      "duration": 6.43
    },
    {
      "text": "constant buffet of his own fingernails. The\ndesire to take a little bit of food or money",
      "start": 218.7,
      "duration": 5.79
    },
    {
      "text": "or power from this man's plate and give it\nto this man is almost overwhelming and it",
      "start": 224.49,
      "duration": 5.3
    },
    {
      "text": "is the greatest temptation and the greatest\npit to fall into when you really want to change",
      "start": 229.79,
      "duration": 4.37
    },
    {
      "text": "the world.",
      "start": 234.16,
      "duration": 1.97
    },
    {
      "text": "The world does not suffer from a deficiency\nof power, my friend. The world does not suffer",
      "start": 236.13,
      "duration": 5.189
    },
    {
      "text": "from a deficiency of income redistribution\nin America. Those who are on the receiving",
      "start": 241.319,
      "duration": 6.401
    },
    {
      "text": "end of government handouts can't really outnumber\nthose who are paying taxes, including those",
      "start": 247.72,
      "duration": 5.53
    },
    {
      "text": "who are government workers who you can argue\nis kind of in both camps. This is not because",
      "start": 253.25,
      "duration": 6.039
    },
    {
      "text": "there hasn't been enough money. It's not because\nthere hasn't been enough power.",
      "start": 259.289,
      "duration": 3.171
    },
    {
      "text": "The dream of ending poverty has been pursued\nover the past 40 or 50 years with more resources",
      "start": 262.46,
      "duration": 7
    },
    {
      "text": "than those who started the war on poverty\nunder LBJ could have possibly dreamed of.",
      "start": 271.569,
      "duration": 5.611
    },
    {
      "text": "The amount of wealth that has run through\nthe government with the attempt and goal of",
      "start": 277.18,
      "duration": 3.94
    },
    {
      "text": "trying to save the poor is more wealth than\nhas been dreamt of by anyone who has ever",
      "start": 281.12,
      "duration": 5.289
    },
    {
      "text": "wanted to help the poor and the poor are worse\noff after all of that.",
      "start": 286.409,
      "duration": 7
    },
    {
      "text": "You're not quite far enough. I say this with\nall humility and with all respect. I mean,",
      "start": 293.8,
      "duration": 6.679
    },
    {
      "text": "again, your passion and your eloquence and\nthe fiery dedication of your drive for equality",
      "start": 300.479,
      "duration": 6.201
    },
    {
      "text": "and egalitarianism I find absolutely admirable.\nI actually had a full head of hair before",
      "start": 306.68,
      "duration": 4.359
    },
    {
      "text": "watching the interview. But you're not going\nfar enough.",
      "start": 311.039,
      "duration": 5.421
    },
    {
      "text": "The problem, my friend, is the state. Whatever\nmechanism you want to put in place to do this",
      "start": 316.46,
      "duration": 7
    },
    {
      "text": "redistribution to achieve this change that\nyou want is going to be an agency of coercion,",
      "start": 324.229,
      "duration": 7
    },
    {
      "text": "and it's going to have to have a monopoly\non coercion. You want to increase taxes on",
      "start": 332.099,
      "duration": 3.13
    },
    {
      "text": "the rich? Who's going to do that? The state.\nWho are the people most likely to inhabit",
      "start": 335.229,
      "duration": 5.201
    },
    {
      "text": "the state? The rich. And the rich will use\nthe state to enhance their own income. No",
      "start": 340.43,
      "duration": 5.97
    },
    {
      "text": "matter what you ask the state to do, it is\nfallible, greedy, corruptible. Human beings",
      "start": 346.4,
      "duration": 5.769
    },
    {
      "text": "who will inhabit whatever sort of power you\ndraw to behead your enemies will be seized",
      "start": 352.169,
      "duration": 6.101
    },
    {
      "text": "by those enemies and used against your friends.",
      "start": 358.27,
      "duration": 2.31
    },
    {
      "text": "This is the nature of power. This is the nature\nof violence. Whatever you want to do in the",
      "start": 360.58,
      "duration": 4.6
    },
    {
      "text": "world that involves force and taxation is\ntheft. Whatever you want to do in the world",
      "start": 365.18,
      "duration": 4.519
    },
    {
      "text": "that involves force will require you to grant\na monopoly of violence to a minority of people.",
      "start": 369.699,
      "duration": 7
    },
    {
      "text": "And that will always and forever lead to the\nsame thing. They will not attempt to solve",
      "start": 377.699,
      "duration": 5.131
    },
    {
      "text": "the problem of poverty. They will attempt\nto create a permanent dependent class. This",
      "start": 382.83,
      "duration": 4.28
    },
    {
      "text": "permanent underclass that you spoke of so\nbeautifully in the interview is kept by the",
      "start": 387.11,
      "duration": 6.149
    },
    {
      "text": "powers to be to justify the continued escalation\nof taxation and debt.",
      "start": 393.259,
      "duration": 4.86
    },
    {
      "text": "A farmer who domesticates cattle keeps them\ndomesticated. And if you set up a system wherein",
      "start": 398.119,
      "duration": 6.85
    },
    {
      "text": "the power of the state relies upon the existence\nof the poor, the poor will be fenced in and",
      "start": 404.969,
      "duration": 5.45
    },
    {
      "text": "controlled and kept as livestock to milk the\ntax cattle with by pointing \"Do you care about",
      "start": 410.419,
      "duration": 6.4
    },
    {
      "text": "the poor? Give me your goddamn money then.\"\nAnd then anybody who questions that, well",
      "start": 416.819,
      "duration": 5.13
    },
    {
      "text": "you just don't care about the poor.",
      "start": 421.949,
      "duration": 3.131
    },
    {
      "text": "The government does not care about the poor\nas anything other than hostages to shame and",
      "start": 425.08,
      "duration": 7
    },
    {
      "text": "capture the guilt of the innocent and force\nthem to hand over additional money, rights,",
      "start": 432.439,
      "duration": 5.551
    },
    {
      "text": "and children to the government. The government\nis the most ancient of evils. It is the most",
      "start": 437.99,
      "duration": 5.78
    },
    {
      "text": "predictable of evils, and it is the most central\nto evils. The control the government has of",
      "start": 443.77,
      "duration": 5.69
    },
    {
      "text": "money is central to the very thing that you're\ntalking about. It's called regulatory capture",
      "start": 449.46,
      "duration": 5.079
    },
    {
      "text": "or tax capture. Whatever rules you want to\nput in place to control the rich, the rich",
      "start": 454.539,
      "duration": 4.22
    },
    {
      "text": "will simply use to control everybody else.\nGovernments listen to small concentrated powerful",
      "start": 458.759,
      "duration": 5.31
    },
    {
      "text": "people a lot more than they do to diffuse\npoor people. Whatever you put in place, the",
      "start": 464.069,
      "duration": 6.58
    },
    {
      "text": "end result will be concentrated omnipotent\nevil at the center of society, and that's",
      "start": 470.649,
      "duration": 5.63
    },
    {
      "text": "what you're facing.",
      "start": 476.279,
      "duration": 2.69
    },
    {
      "text": "So you're going to be guest editing a political\nmagazine; I think that's fantastic. I think",
      "start": 478.969,
      "duration": 4.65
    },
    {
      "text": "you're your immense language skills should\nbe put to the good of society if that's your",
      "start": 483.619,
      "duration": 5.48
    },
    {
      "text": "intention and your goal. I think you certainly\nhave, in my humble opinion, the capacity.",
      "start": 489.099,
      "duration": 6.111
    },
    {
      "text": "But make sure you target the right thing.\nThe right thing is a violation of peace. Notice",
      "start": 495.21,
      "duration": 5.259
    },
    {
      "text": "the initiation of the use of force. It occurs\nat every level in society. It occurred against",
      "start": 500.469,
      "duration": 4.9
    },
    {
      "text": "you when you were a child, when you were abused.\nIt occurred against you when you were a child",
      "start": 505.369,
      "duration": 4.39
    },
    {
      "text": "and you were sexually molested which is, I\nwould argue, the real source of drug addiction,",
      "start": 509.759,
      "duration": 4.851
    },
    {
      "text": "not mere poverty.",
      "start": 514.61,
      "duration": 2.039
    },
    {
      "text": "Drugs is so often what we use to attempt to\nheal the open wound left by an evil that everyone",
      "start": 516.649,
      "duration": 7
    },
    {
      "text": "refuses to see around us and that has in fact\npenetrated us. But whenever you try to solve",
      "start": 523.75,
      "duration": 7
    },
    {
      "text": "problems by giving more power to individuals\nto initiate the use of violence, you end up",
      "start": 531.519,
      "duration": 6.19
    },
    {
      "text": "not with sort of moonlight of evil but with\nthe laser of evil pointed at everyone's forehead.",
      "start": 537.709,
      "duration": 6.13
    },
    {
      "text": "I think that's what you want to fight, not\nthe corporations. The corporations are the",
      "start": 543.839,
      "duration": 5.471
    },
    {
      "text": "shadows cast by the evil of the state. They\nare creations of the state, and they're already",
      "start": 549.31,
      "duration": 5.459
    },
    {
      "text": "taxed a fairly massive amounts anyway. You\ntax them more; all they'll do is further control",
      "start": 554.769,
      "duration": 4.231
    },
    {
      "text": "the government and strangle the poor and the\nopportunities of the intelligent.",
      "start": 559,
      "duration": 4.37
    },
    {
      "text": "So thank you again for your passion, for you\ncommitment. I absolutely applaud it for what",
      "start": 563.37,
      "duration": 4.8
    },
    {
      "text": "that's worth and come on my show. We'll chat.\noperations@freedomainradio.com. Just came",
      "start": 568.17,
      "duration": 7
    },
    {
      "text": "off Joe Rogan. Might as well chat with you.\nThank you very much.",
      "start": 577.199,
      "duration": 3.101
    }
  ],
  "Errors": null,
  "TranscriptStderr": null
}