[
    {
        "start": "0.12",
        "dur": "7.32",
        "text": "oh man you and I will never ever ever"
    },
    {
        "start": "4.38",
        "dur": "5.549",
        "text": "know what it's like to just have this"
    },
    {
        "start": "7.44",
        "dur": "6.51",
        "text": "kind of privilege so in a black face"
    },
    {
        "start": "9.929",
        "dur": "8.371",
        "text": "blow that would shred the political"
    },
    {
        "start": "13.95",
        "dur": "8.37",
        "text": "chances of any less famous less wealthy"
    },
    {
        "start": "18.3",
        "dur": "7.319",
        "text": "less pretty candidate Justin Trudeau has"
    },
    {
        "start": "22.32",
        "dur": "6.42",
        "text": "been revealed as somebody who almost at"
    },
    {
        "start": "25.619",
        "dur": "6.62",
        "text": "the age of thirty back in 2001 did this"
    },
    {
        "start": "28.74",
        "dur": "7.08",
        "text": "right so this is the picture of him in"
    },
    {
        "start": "32.239",
        "dur": "5.921",
        "text": "2001 that's him there in full-on"
    },
    {
        "start": "35.82",
        "dur": "4.29",
        "text": "blackface and this is a very very odd"
    },
    {
        "start": "38.16",
        "dur": "3.93",
        "text": "thing I mean it's an offensive and"
    },
    {
        "start": "40.11",
        "dur": "3",
        "text": "horrible thing of course right and and"
    },
    {
        "start": "42.09",
        "dur": "3.66",
        "text": "it was known to be offensive and"
    },
    {
        "start": "43.11",
        "dur": "7.37",
        "text": "horrible back in 2001 I remember clearly"
    },
    {
        "start": "45.75",
        "dur": "6.51",
        "text": "there were kids getting thrown out of"
    },
    {
        "start": "50.48",
        "dur": "3.61",
        "text": "universities right that there are"
    },
    {
        "start": "52.26",
        "dur": "4.08",
        "text": "potential academic careers their lives"
    },
    {
        "start": "54.09",
        "dur": "3.08",
        "text": "disrupted undermined overturned perhaps"
    },
    {
        "start": "56.34",
        "dur": "3.69",
        "text": "even destroyed"
    },
    {
        "start": "57.17",
        "dur": "5.879",
        "text": "just because someone may have dug up a"
    },
    {
        "start": "60.03",
        "dur": "7.409",
        "text": "picture of them in blackface in like"
    },
    {
        "start": "63.049",
        "dur": "6.971",
        "text": "grade 11 or or or grade 12 or grade 10"
    },
    {
        "start": "67.439",
        "dur": "3.811",
        "text": "and so this is when they were sort of"
    },
    {
        "start": "70.02",
        "dur": "2.61",
        "text": "mid-teens and so on and it was"
    },
    {
        "start": "71.25",
        "dur": "2.57",
        "text": "considered to be egregious enough that"
    },
    {
        "start": "72.63",
        "dur": "3.9",
        "text": "you just got kicked out of university"
    },
    {
        "start": "73.82",
        "dur": "4.45",
        "text": "this is more than a decade after that"
    },
    {
        "start": "76.53",
        "dur": "3.69",
        "text": "this is guys almost thirty right this is"
    },
    {
        "start": "78.27",
        "dur": "4.95",
        "text": "what he's doing right and there's a lot"
    },
    {
        "start": "80.22",
        "dur": "5.28",
        "text": "that's very strange about this so you"
    },
    {
        "start": "83.22",
        "dur": "4.11",
        "text": "know the giggling girls whatever I mean"
    },
    {
        "start": "85.5",
        "dur": "3.689",
        "text": "who in ranking women who knows what what"
    },
    {
        "start": "87.33",
        "dur": "3.39",
        "text": "that I guess we all will talk about what"
    },
    {
        "start": "89.189",
        "dur": "3.331",
        "text": "that means but here's a funny thing so"
    },
    {
        "start": "90.72",
        "dur": "2.009",
        "text": "this is an Arabian Nights theme right"
    },
    {
        "start": "92.52",
        "dur": "3.989",
        "text": "now"
    },
    {
        "start": "92.729",
        "dur": "5.43",
        "text": "why is he full-on sub-sahara Nubian for"
    },
    {
        "start": "96.509",
        "dur": "3.93",
        "text": "an Arabian Nights I mean Arabs don't"
    },
    {
        "start": "98.159",
        "dur": "6.051",
        "text": "look like that Arabs Arabs are olive"
    },
    {
        "start": "100.439",
        "dur": "6.031",
        "text": "skinned and I don't I mean that's not"
    },
    {
        "start": "104.21",
        "dur": "3.369",
        "text": "that's not even accurate so it's"
    },
    {
        "start": "106.47",
        "dur": "4.079",
        "text": "offensive on many levels"
    },
    {
        "start": "107.579",
        "dur": "4.381",
        "text": "because that's not what Arabs look like"
    },
    {
        "start": "110.549",
        "dur": "4.32",
        "text": "it's supposed to be Arabian Nights party"
    },
    {
        "start": "111.96",
        "dur": "4.5",
        "text": "why he's going for Midnight Sun"
    },
    {
        "start": "114.869",
        "dur": "4.591",
        "text": "blackface I mean it's just I don't know"
    },
    {
        "start": "116.46",
        "dur": "4.439",
        "text": "I mean whatever he put on his skin there"
    },
    {
        "start": "119.46",
        "dur": "4.11",
        "text": "enough shoe polish or the acre that"
    },
    {
        "start": "120.899",
        "dur": "3.991",
        "text": "remains where his heart compassion and"
    },
    {
        "start": "123.57",
        "dur": "2.579",
        "text": "conscience should be I don't know here's"
    },
    {
        "start": "124.89",
        "dur": "3.539",
        "text": "the other thing too like look at this"
    },
    {
        "start": "126.149",
        "dur": "5.191",
        "text": "this hand right this hand that's half on"
    },
    {
        "start": "128.429",
        "dur": "4.361",
        "text": "this woman's breasts it's reaching"
    },
    {
        "start": "131.34",
        "dur": "4.239",
        "text": "around like some terrain"
    },
    {
        "start": "132.79",
        "dur": "4.14",
        "text": "offensiveness that's something I mean"
    },
    {
        "start": "135.579",
        "dur": "2.91",
        "text": "this woman here look at this I think"
    },
    {
        "start": "136.93",
        "dur": "3.69",
        "text": "she's Asian or whatever but she's you"
    },
    {
        "start": "138.489",
        "dur": "3.661",
        "text": "didn't put blackface on she's she's at"
    },
    {
        "start": "140.62",
        "dur": "3.839",
        "text": "an Arabian she's guessed dressed as"
    },
    {
        "start": "142.15",
        "dur": "6.6",
        "text": "Princess Jasmine or whatever so why is"
    },
    {
        "start": "144.459",
        "dur": "6.45",
        "text": "why is he I didn't even make any"
    },
    {
        "start": "148.75",
        "dur": "5.159",
        "text": "defensive it doesn't make any sense or"
    },
    {
        "start": "150.909",
        "dur": "6.42",
        "text": "anything like that so anyway that's hard"
    },
    {
        "start": "153.909",
        "dur": "4.8",
        "text": "enough to put it mildly now he did come"
    },
    {
        "start": "157.329",
        "dur": "4.261",
        "text": "out and he gave an apology I think it"
    },
    {
        "start": "158.709",
        "dur": "4.23",
        "text": "was on a plane and he says and it's you"
    },
    {
        "start": "161.59",
        "dur": "4.019",
        "text": "know it's amazing right because he knows"
    },
    {
        "start": "162.939",
        "dur": "5.431",
        "text": "he knows that dangling this six hundred"
    },
    {
        "start": "165.609",
        "dur": "5.46",
        "text": "million dollars a year over the gaping"
    },
    {
        "start": "168.37",
        "dur": "5.339",
        "text": "vacuous press acute more of Canadian"
    },
    {
        "start": "171.069",
        "dur": "4.711",
        "text": "mainstream media that he's got them by"
    },
    {
        "start": "173.709",
        "dur": "6.84",
        "text": "the short and curlies if they are old"
    },
    {
        "start": "175.78",
        "dur": "6.45",
        "text": "enough to have those mentally but so he"
    },
    {
        "start": "180.549",
        "dur": "3.84",
        "text": "can come out and kind of smirks Rice's"
    },
    {
        "start": "182.23",
        "dur": "6.479",
        "text": "uh you know it was a mistake it was it"
    },
    {
        "start": "184.389",
        "dur": "6.72",
        "text": "was wrong I was young I regret it it was"
    },
    {
        "start": "188.709",
        "dur": "5.521",
        "text": "bad you know to make he'd refer to it as"
    },
    {
        "start": "191.109",
        "dur": "6.541",
        "text": "make up make up something make up anyway"
    },
    {
        "start": "194.23",
        "dur": "5.49",
        "text": "and he can smirk right he can smirk why"
    },
    {
        "start": "197.65",
        "dur": "4.019",
        "text": "because he knows that the media is gonna"
    },
    {
        "start": "199.72",
        "dur": "3.78",
        "text": "cover up for him because the media is"
    },
    {
        "start": "201.669",
        "dur": "4.47",
        "text": "terrified that if the Conservatives get"
    },
    {
        "start": "203.5",
        "dur": "4.65",
        "text": "in next month in Canada that they might"
    },
    {
        "start": "206.139",
        "dur": "4.53",
        "text": "cancel the six hundred million dollars"
    },
    {
        "start": "208.15",
        "dur": "4.53",
        "text": "that is being showered on the media from"
    },
    {
        "start": "210.669",
        "dur": "3.481",
        "text": "the Liberals so I mean they're just"
    },
    {
        "start": "212.68",
        "dur": "4.019",
        "text": "completely bought and paid for they're"
    },
    {
        "start": "214.15",
        "dur": "3.869",
        "text": "being dragged along like a tail after a"
    },
    {
        "start": "216.699",
        "dur": "7.53",
        "text": "vacuous empty-headed"
    },
    {
        "start": "218.019",
        "dur": "8.011",
        "text": "blackface kite and they know they know"
    },
    {
        "start": "224.229",
        "dur": "3.84",
        "text": "this is their you know they either have"
    },
    {
        "start": "226.03",
        "dur": "5.129",
        "text": "to to pursue the Liberals money or they"
    },
    {
        "start": "228.069",
        "dur": "6.961",
        "text": "have to become honest one day have the"
    },
    {
        "start": "231.159",
        "dur": "5.61",
        "text": "capability of doing and yeah this is a"
    },
    {
        "start": "235.03",
        "dur": "3.989",
        "text": "terrible stuff and again it would fell a"
    },
    {
        "start": "236.769",
        "dur": "3.87",
        "text": "lesser politician but he can just smirk"
    },
    {
        "start": "239.019",
        "dur": "3.18",
        "text": "because he knows that the media is gonna"
    },
    {
        "start": "240.639",
        "dur": "5.82",
        "text": "go after him like it's interesting too"
    },
    {
        "start": "242.199",
        "dur": "7.79",
        "text": "because this is racist right but when a"
    },
    {
        "start": "246.459",
        "dur": "6.93",
        "text": "woman some time ago asked Justin Trudeau"
    },
    {
        "start": "249.989",
        "dur": "4.9",
        "text": "how the costs of all the people Justin"
    },
    {
        "start": "253.389",
        "dur": "3.6",
        "text": "Trudeau had invited over the border by"
    },
    {
        "start": "254.889",
        "dur": "4.171",
        "text": "basically zinc and we're open come on in"
    },
    {
        "start": "256.989",
        "dur": "3.691",
        "text": "right so all the people who came in I"
    },
    {
        "start": "259.06",
        "dur": "3.87",
        "text": "think it was Quebec and she said why"
    },
    {
        "start": "260.68",
        "dur": "3.599",
        "text": "how's this gonna be paid for how's this"
    },
    {
        "start": "262.93",
        "dur": "2.669",
        "text": "how's it going to be these expensive you"
    },
    {
        "start": "264.279",
        "dur": "1.95",
        "text": "put people up in hotels you got to pay"
    },
    {
        "start": "265.599",
        "dur": "1.171",
        "text": "for their meals"
    },
    {
        "start": "266.229",
        "dur": "3.331",
        "text": "their hell"
    },
    {
        "start": "266.77",
        "dur": "4.98",
        "text": "keya dental care I mean it's expensive"
    },
    {
        "start": "269.56",
        "dur": "3.479",
        "text": "very expensive and she asked how this"
    },
    {
        "start": "271.75",
        "dur": "3.36",
        "text": "was gonna be paid for and Justin Trudeau"
    },
    {
        "start": "273.039",
        "dur": "5.34",
        "text": "you know put that narrow-eyed"
    },
    {
        "start": "275.11",
        "dur": "7.41",
        "text": "shock sniffing a wounded baby seal in"
    },
    {
        "start": "278.379",
        "dur": "7.26",
        "text": "the Arctic and he just tore into her oh"
    },
    {
        "start": "282.52",
        "dur": "4.739",
        "text": "it's racist it's unacceptable it should"
    },
    {
        "start": "285.639",
        "dur": "3.421",
        "text": "not be tolerated right which is a big"
    },
    {
        "start": "287.259",
        "dur": "3.72",
        "text": "bad signal for the press to go"
    },
    {
        "start": "289.06",
        "dur": "4.319",
        "text": "DOCSIS woman dig up her life destroy her"
    },
    {
        "start": "290.979",
        "dur": "5.101",
        "text": "life you know as having the temerity as"
    },
    {
        "start": "293.379",
        "dur": "5.28",
        "text": "a citizen to ask something of the great"
    },
    {
        "start": "296.08",
        "dur": "4.559",
        "text": "and noble and castle haired leader and"
    },
    {
        "start": "298.659",
        "dur": "4.801",
        "text": "they did of course you know he was"
    },
    {
        "start": "300.639",
        "dur": "5.701",
        "text": "Daxton and life was turned upside down"
    },
    {
        "start": "303.46",
        "dur": "4.679",
        "text": "and possibly even ruined right and so it"
    },
    {
        "start": "306.34",
        "dur": "4.259",
        "text": "was racist for her to I asked how do you"
    },
    {
        "start": "308.139",
        "dur": "3.481",
        "text": "pay for this invitation of people to"
    },
    {
        "start": "310.599",
        "dur": "4.051",
        "text": "break the law and just wander into"
    },
    {
        "start": "311.62",
        "dur": "5.01",
        "text": "Canada how do you pay for this she was"
    },
    {
        "start": "314.65",
        "dur": "3.66",
        "text": "racist but he you know he was feed put"
    },
    {
        "start": "316.63",
        "dur": "3.12",
        "text": "some makeup on it was a mistake it was a"
    },
    {
        "start": "318.31",
        "dur": "2.579",
        "text": "bit insensitive and this is the double"
    },
    {
        "start": "319.75",
        "dur": "2.099",
        "text": "standards right we got to stop being"
    },
    {
        "start": "320.889",
        "dur": "5.49",
        "text": "surprised at these double standards"
    },
    {
        "start": "321.849",
        "dur": "7.081",
        "text": "right asking those addicted to power for"
    },
    {
        "start": "326.379",
        "dur": "3.991",
        "text": "consistency is like asking for integrity"
    },
    {
        "start": "328.93",
        "dur": "4.049",
        "text": "from a drug addict like a drug addict"
    },
    {
        "start": "330.37",
        "dur": "4.59",
        "text": "we'll just say whatever to get the drug"
    },
    {
        "start": "332.979",
        "dur": "3.481",
        "text": "you know if the drug addict shows up at"
    },
    {
        "start": "334.96",
        "dur": "2.88",
        "text": "a drug dealers house drug addict doesn't"
    },
    {
        "start": "336.46",
        "dur": "3.329",
        "text": "have any money they'll laugh they'll"
    },
    {
        "start": "337.84",
        "dur": "4.139",
        "text": "pretend to hang out they'll know you're"
    },
    {
        "start": "339.789",
        "dur": "4.111",
        "text": "so witty and I mean just all they want"
    },
    {
        "start": "341.979",
        "dur": "4.021",
        "text": "is the drug they'll just say whatever to"
    },
    {
        "start": "343.9",
        "dur": "4.62",
        "text": "get the drug and for the left in"
    },
    {
        "start": "346",
        "dur": "5.639",
        "text": "particular the drug is power and they'll"
    },
    {
        "start": "348.52",
        "dur": "4.679",
        "text": "just say whatever to get to get a hold"
    },
    {
        "start": "351.639",
        "dur": "3.12",
        "text": "of the power now this is the thing too"
    },
    {
        "start": "353.199",
        "dur": "3.541",
        "text": "like he's gonna he's gonna get away with"
    },
    {
        "start": "354.759",
        "dur": "3.84",
        "text": "it right I mean we'll the first thing"
    },
    {
        "start": "356.74",
        "dur": "4.859",
        "text": "the media does of course is they they"
    },
    {
        "start": "358.599",
        "dur": "4.261",
        "text": "drop all of this reality you know mid"
    },
    {
        "start": "361.599",
        "dur": "2.79",
        "text": "they'll fuss about it and write a couple"
    },
    {
        "start": "362.86",
        "dur": "2.609",
        "text": "of articles about it and then they'll"
    },
    {
        "start": "364.389",
        "dur": "2.671",
        "text": "drop it down the memory hole and then"
    },
    {
        "start": "365.469",
        "dur": "3.151",
        "text": "what happens of course is if you bring"
    },
    {
        "start": "367.06",
        "dur": "4.02",
        "text": "it up again or you try to keep the story"
    },
    {
        "start": "368.62",
        "dur": "4.169",
        "text": "alive then you're obsessed about it"
    },
    {
        "start": "371.08",
        "dur": "3.389",
        "text": "you're a hater you're living in the past"
    },
    {
        "start": "372.789",
        "dur": "3.481",
        "text": "it's time to move on there are more"
    },
    {
        "start": "374.469",
        "dur": "3.54",
        "text": "important issues to deal with let's talk"
    },
    {
        "start": "376.27",
        "dur": "3.6",
        "text": "about the substance bla bla right that's"
    },
    {
        "start": "378.009",
        "dur": "3.991",
        "text": "the way the game works right they drop"
    },
    {
        "start": "379.87",
        "dur": "3.99",
        "text": "it and if you try to keep it going then"
    },
    {
        "start": "382",
        "dur": "4.319",
        "text": "you're just obsessive and weirdo and a"
    },
    {
        "start": "383.86",
        "dur": "3.899",
        "text": "loser and all that whereas of course if"
    },
    {
        "start": "386.319",
        "dur": "4.32",
        "text": "it's the other way around right I mean"
    },
    {
        "start": "387.759",
        "dur": "5.16",
        "text": "this to me is much worse than Trump's"
    },
    {
        "start": "390.639",
        "dur": "6.421",
        "text": "private and certainly course comment"
    },
    {
        "start": "392.919",
        "dur": "6.06",
        "text": "about how women will let you grab them"
    },
    {
        "start": "397.06",
        "dur": "3.14",
        "text": "by the if you're sort of rich"
    },
    {
        "start": "398.979",
        "dur": "3.441",
        "text": "famous and powerful and so on"
    },
    {
        "start": "400.2",
        "dur": "5.46",
        "text": "yes Lord knows Harvey Weinstein"
    },
    {
        "start": "402.42",
        "dur": "5.34",
        "text": "disproved that entire thesis right but"
    },
    {
        "start": "405.66",
        "dur": "3.99",
        "text": "this worse write a better and they kept"
    },
    {
        "start": "407.76",
        "dur": "3.18",
        "text": "the with the private conversation which"
    },
    {
        "start": "409.65",
        "dur": "3.12",
        "text": "nobody ever figured out how it got"
    },
    {
        "start": "410.94",
        "dur": "5.25",
        "text": "leaked from NBC because nobody wanted to"
    },
    {
        "start": "412.77",
        "dur": "5.55",
        "text": "but now this is the public situation"
    },
    {
        "start": "416.19",
        "dur": "5.7",
        "text": "this is this is a photo at a public"
    },
    {
        "start": "418.32",
        "dur": "5.85",
        "text": "party and so on and so the way it works"
    },
    {
        "start": "421.89",
        "dur": "3.69",
        "text": "the other way is if then you say well"
    },
    {
        "start": "424.17",
        "dur": "3.06",
        "text": "you know the Trump comment was course it"
    },
    {
        "start": "425.58",
        "dur": "3.99",
        "text": "was unpleasant but you know it has a"
    },
    {
        "start": "427.23",
        "dur": "4.53",
        "text": "grain of cynical truth in it for some in"
    },
    {
        "start": "429.57",
        "dur": "4.02",
        "text": "some circles of society particularly"
    },
    {
        "start": "431.76",
        "dur": "2.88",
        "text": "some of the circles the Trump moves into"
    },
    {
        "start": "433.59",
        "dur": "2.79",
        "text": "in the entertainment circles"
    },
    {
        "start": "434.64",
        "dur": "3.48",
        "text": "so it's crude and it was unpleasant and"
    },
    {
        "start": "436.38",
        "dur": "3.78",
        "text": "so on but you know let's get on to the"
    },
    {
        "start": "438.12",
        "dur": "4.53",
        "text": "sort of bigger issues then if you do"
    },
    {
        "start": "440.16",
        "dur": "5.01",
        "text": "that and try and move on past Trump's"
    },
    {
        "start": "442.65",
        "dur": "4.2",
        "text": "comment where you see then you you hate"
    },
    {
        "start": "445.17",
        "dur": "3.03",
        "text": "women you don't care about sexual"
    },
    {
        "start": "446.85",
        "dur": "2.49",
        "text": "assault you're a massage you see it's"
    },
    {
        "start": "448.2",
        "dur": "3.51",
        "text": "just it's great I mean they've they"
    },
    {
        "start": "449.34",
        "dur": "3.87",
        "text": "really got it every which way they want"
    },
    {
        "start": "451.71",
        "dur": "3.03",
        "text": "it or at least they did I mean you know"
    },
    {
        "start": "453.21",
        "dur": "3.78",
        "text": "alternative media will try and keep this"
    },
    {
        "start": "454.74",
        "dur": "3.42",
        "text": "up but you know there's only a couple of"
    },
    {
        "start": "456.99",
        "dur": "2.52",
        "text": "sticks and there's about a thousand"
    },
    {
        "start": "458.16",
        "dur": "3.93",
        "text": "balloons so it's kind of kind to have to"
    },
    {
        "start": "459.51",
        "dur": "5.01",
        "text": "keep things aloft but no it's it's"
    },
    {
        "start": "462.09",
        "dur": "4.44",
        "text": "really quite a a powerful moment as well"
    },
    {
        "start": "464.52",
        "dur": "4.08",
        "text": "and the other thing too is that it's"
    },
    {
        "start": "466.53",
        "dur": "3.66",
        "text": "gonna skate to large degree and I don't"
    },
    {
        "start": "468.6",
        "dur": "4.2",
        "text": "want to collectivise women here but this"
    },
    {
        "start": "470.19",
        "dur": "5.31",
        "text": "trends enough to to figure it out he's"
    },
    {
        "start": "472.8",
        "dur": "4.25",
        "text": "gonna stay skate in part because the"
    },
    {
        "start": "475.5",
        "dur": "4.26",
        "text": "majority of voters were female and"
    },
    {
        "start": "477.05",
        "dur": "5.59",
        "text": "anybody who stared into the black heart"
    },
    {
        "start": "479.76",
        "dur": "4.68",
        "text": "of half demonic female sexuality in the"
    },
    {
        "start": "482.64",
        "dur": "3.24",
        "text": "modern world and not traditionally and"
    },
    {
        "start": "484.44",
        "dur": "3.15",
        "text": "not for all women certainly by any"
    },
    {
        "start": "485.88",
        "dur": "4.41",
        "text": "stretch of the imagination and has"
    },
    {
        "start": "487.59",
        "dur": "5.76",
        "text": "stepped over the you know triple hell"
    },
    {
        "start": "490.29",
        "dur": "5.43",
        "text": "layer Rubicon fifty shades of gray like"
    },
    {
        "start": "493.35",
        "dur": "3.96",
        "text": "recognize that if you're a rich pretty"
    },
    {
        "start": "495.72",
        "dur": "2.52",
        "text": "boy man you can do just about anything"
    },
    {
        "start": "497.31",
        "dur": "3.36",
        "text": "like what's the difference between"
    },
    {
        "start": "498.24",
        "dur": "6.12",
        "text": "Christian Bray Eagle gray and a wife"
    },
    {
        "start": "500.67",
        "dur": "5.97",
        "text": "beater well a six pack and seven figures"
    },
    {
        "start": "504.36",
        "dur": "5.07",
        "text": "right I mean he's not your parent you"
    },
    {
        "start": "506.64",
        "dur": "4.71",
        "text": "can't beat your wife if you can play"
    },
    {
        "start": "509.43",
        "dur": "2.97",
        "text": "piano do sit-ups and you have a"
    },
    {
        "start": "511.35",
        "dur": "4.26",
        "text": "helicopter I mean it's just the way"
    },
    {
        "start": "512.4",
        "dur": "4.62",
        "text": "things are in sort of modern female"
    },
    {
        "start": "515.61",
        "dur": "3.72",
        "text": "sexuality and it's the most popular book"
    },
    {
        "start": "517.02",
        "dur": "4.11",
        "text": "ever written if I are ever bored to some"
    },
    {
        "start": "519.33",
        "dur": "4.56",
        "text": "of popular book and and and just opens"
    },
    {
        "start": "521.13",
        "dur": "4.35",
        "text": "the lid into female sexuality where"
    },
    {
        "start": "523.89",
        "dur": "3.36",
        "text": "looks are important resources are"
    },
    {
        "start": "525.48",
        "dur": "3.33",
        "text": "important because they signal genetic"
    },
    {
        "start": "527.25",
        "dur": "4.55",
        "text": "fitness in terms of looks intellectual"
    },
    {
        "start": "528.81",
        "dur": "5.37",
        "text": "fitness in terms of money making and"
    },
    {
        "start": "531.8",
        "dur": "6.22",
        "text": "this is why it's going to see"
    },
    {
        "start": "534.18",
        "dur": "5.67",
        "text": "because he's pretty and he's wealthy and"
    },
    {
        "start": "538.02",
        "dur": "3.27",
        "text": "then he has all of this cocky confidence"
    },
    {
        "start": "539.85",
        "dur": "5.25",
        "text": "that comes you know it's hard having"
    },
    {
        "start": "541.29",
        "dur": "5.67",
        "text": "confidence if the medias going for you"
    },
    {
        "start": "545.1",
        "dur": "4.38",
        "text": "every which way but loose right it's"
    },
    {
        "start": "546.96",
        "dur": "4.35",
        "text": "fairly easy to have a confidence if"
    },
    {
        "start": "549.48",
        "dur": "4.71",
        "text": "you've fully supported by the media and"
    },
    {
        "start": "551.31",
        "dur": "4.92",
        "text": "so on so I think you know it's important"
    },
    {
        "start": "554.19",
        "dur": "3.63",
        "text": "to see the nature of the man is"
    },
    {
        "start": "556.23",
        "dur": "4.26",
        "text": "vindictiveness is pettiness his"
    },
    {
        "start": "557.82",
        "dur": "4.019",
        "text": "hypocrisy and so on but to me you know"
    },
    {
        "start": "560.49",
        "dur": "4.11",
        "text": "there's another story which you should"
    },
    {
        "start": "561.839",
        "dur": "4.081",
        "text": "definitely look into that you know the"
    },
    {
        "start": "564.6",
        "dur": "3.6",
        "text": "left de saucé play this guilt by"
    },
    {
        "start": "565.92",
        "dur": "4.52",
        "text": "association stuff right well Justin"
    },
    {
        "start": "568.2",
        "dur": "4.8",
        "text": "Trudeau has had as a roommate and as a"
    },
    {
        "start": "570.44",
        "dur": "7.089",
        "text": "best friend for for many many years a"
    },
    {
        "start": "573",
        "dur": "8.58",
        "text": "guy who later pled guilty to child"
    },
    {
        "start": "577.529",
        "dur": "7.201",
        "text": "pornography charges that's you know"
    },
    {
        "start": "581.58",
        "dur": "4.68",
        "text": "that's really horrible right I mean"
    },
    {
        "start": "584.73",
        "dur": "3.06",
        "text": "David Duke retweets me once and"
    },
    {
        "start": "586.26",
        "dur": "4.26",
        "text": "apparently we have some big relationship"
    },
    {
        "start": "587.79",
        "dur": "4.02",
        "text": "and I'm implicated and so on I mean this"
    },
    {
        "start": "590.52",
        "dur": "2.91",
        "text": "was his roommate and his best friend"
    },
    {
        "start": "591.81",
        "dur": "4.71",
        "text": "voluntarily of course for many years"
    },
    {
        "start": "593.43",
        "dur": "7.82",
        "text": "child pornography you should look into"
    },
    {
        "start": "596.52",
        "dur": "4.73",
        "text": "that because that speaks prims to"
    }
]