{
  "Title": "RICHARD DAWKINS IS HORRIBLY WRONG ABOUT EUGENICS!",
  "Id": "mW3-1L_BSPQ",
  "Transcript": [
    {
      "text": "boy I hope I don't ever disappoint you",
      "start": 0,
      "duration": 4.83
    },
    {
      "text": "guys wait that some people disappoint me",
      "start": 1.949,
      "duration": 5.31
    },
    {
      "text": "so Richard Dawkins pushing back against",
      "start": 4.83,
      "duration": 4.08
    },
    {
      "text": "the stereotype that atheists end up",
      "start": 7.259,
      "duration": 3.811
    },
    {
      "text": "amoral Richard Dawkins who's defended",
      "start": 8.91,
      "duration": 4.349
    },
    {
      "text": "mild pedophilia and who has mused about",
      "start": 11.07,
      "duration": 4.29
    },
    {
      "text": "breaking the taboo and human cannibalism",
      "start": 13.259,
      "duration": 5.161
    },
    {
      "text": "said on Twitter it's one thing to deploy",
      "start": 15.36,
      "duration": 5.1
    },
    {
      "text": "eugenics on ideological political moral",
      "start": 18.42,
      "duration": 4.08
    },
    {
      "text": "grounds it's quite another to conclude",
      "start": 20.46,
      "duration": 3.6
    },
    {
      "text": "that it wouldn't work in practice of",
      "start": 22.5,
      "duration": 2.64
    },
    {
      "text": "course it would",
      "start": 24.06,
      "duration": 3.12
    },
    {
      "text": "it works for cows horses pigs dogs and",
      "start": 25.14,
      "duration": 3.66
    },
    {
      "text": "roses why on earth wouldn't it work for",
      "start": 27.18,
      "duration": 4.53
    },
    {
      "text": "humans facts ignore ideology okay that's",
      "start": 28.8,
      "duration": 5.91
    },
    {
      "text": "just freaky and and nasty beyond words",
      "start": 31.71,
      "duration": 4.86
    },
    {
      "text": "so first of all eugenics doesn't refer",
      "start": 34.71,
      "duration": 5.25
    },
    {
      "text": "to you choose to marry a smart spouse it",
      "start": 36.57,
      "duration": 4.68
    },
    {
      "text": "means you have smart children that's not",
      "start": 39.96,
      "duration": 3.18
    },
    {
      "text": "eugenics that's just marriage that's",
      "start": 41.25,
      "duration": 3.42
    },
    {
      "text": "just voluntary human interactions",
      "start": 43.14,
      "duration": 3.419
    },
    {
      "text": "eugenics is a specific government",
      "start": 44.67,
      "duration": 4.08
    },
    {
      "text": "program that gives individuals within",
      "start": 46.559,
      "duration": 4.651
    },
    {
      "text": "the state the right to forcibly",
      "start": 48.75,
      "duration": 4.739
    },
    {
      "text": "sterilized people and promote the",
      "start": 51.21,
      "duration": 4.529
    },
    {
      "text": "breeding of others it turns human beings",
      "start": 53.489,
      "duration": 4.771
    },
    {
      "text": "into cattle into livestock and gives",
      "start": 55.739,
      "duration": 4.681
    },
    {
      "text": "minorities within the government the",
      "start": 58.26,
      "duration": 4.5
    },
    {
      "text": "enormous power to determine the genetic",
      "start": 60.42,
      "duration": 5.04
    },
    {
      "text": "drift of the population and now the idea",
      "start": 62.76,
      "duration": 4.74
    },
    {
      "text": "of course it's immoral and a violation",
      "start": 65.46,
      "duration": 3.15
    },
    {
      "text": "of the non-aggression principle that",
      "start": 67.5,
      "duration": 2.25
    },
    {
      "text": "perhaps the most fundamental level",
      "start": 68.61,
      "duration": 2.97
    },
    {
      "text": "that's first and foremost second of",
      "start": 69.75,
      "duration": 3.57
    },
    {
      "text": "course it wouldn't work of course it",
      "start": 71.58,
      "duration": 5.13
    },
    {
      "text": "wouldn't work listen dogs have the wolf",
      "start": 73.32,
      "duration": 4.65
    },
    {
      "text": "bred out of them and they're made",
      "start": 76.71,
      "duration": 2.97
    },
    {
      "text": "compliant and they enter into a state of",
      "start": 77.97,
      "duration": 3.509
    },
    {
      "text": "neoteny armors permanent puppyhood",
      "start": 79.68,
      "duration": 3.27
    },
    {
      "text": "to the point where they're not biting",
      "start": 81.479,
      "duration": 2.761
    },
    {
      "text": "the faces off children on a regular",
      "start": 82.95,
      "duration": 4.26
    },
    {
      "text": "basis so the whole point of eugenics is",
      "start": 84.24,
      "duration": 5.28
    },
    {
      "text": "to produce a compliant domesticated",
      "start": 87.21,
      "duration": 4.409
    },
    {
      "text": "livestock that's productive for the",
      "start": 89.52,
      "duration": 3.63
    },
    {
      "text": "farmer this exact same thing would",
      "start": 91.619,
      "duration": 3.75
    },
    {
      "text": "happen with any monstrously evil",
      "start": 93.15,
      "duration": 4.679
    },
    {
      "text": "eugenics program of the state they would",
      "start": 95.369,
      "duration": 6.841
    },
    {
      "text": "choose to yell or fix the smart",
      "start": 97.829,
      "duration": 6.091
    },
    {
      "text": "skeptical people who oppose state power",
      "start": 102.21,
      "duration": 3.36
    },
    {
      "text": "and they would subsidize or promote the",
      "start": 103.92,
      "duration": 4.019
    },
    {
      "text": "breeding of dullards and spineless",
      "start": 105.57,
      "duration": 4.86
    },
    {
      "text": "people who smile and clap and cheer and",
      "start": 107.939,
      "duration": 5.101
    },
    {
      "text": "watch this boats ball and produce taxes",
      "start": 110.43,
      "duration": 4.77
    },
    {
      "text": "for the wealthy so not only is the",
      "start": 113.04,
      "duration": 3.63
    },
    {
      "text": "desperately immoral but of course it",
      "start": 115.2,
      "duration": 3.26
    },
    {
      "text": "would never work because the motives of",
      "start": 116.67,
      "duration": 4.879
    },
    {
      "text": "eugenics is to produce a productive in",
      "start": 118.46,
      "duration": 6.07
    },
    {
      "text": "compliant and empty-headed population so",
      "start": 121.549,
      "duration": 4.78
    },
    {
      "text": "yeah I guess government programs",
      "start": 124.53,
      "duration": 5.089
    },
    {
      "text": "government schools and Welfare",
      "start": 126.329,
      "duration": 3.29
    }
  ],
  "Errors": null,
  "TranscriptStderr": null
}