{
  "Title": "The Federal Reserve: There Will Be No Economic Recovery.",
  "Id": "n_lDIZshVXs",
  "Transcript": [
    {
      "text": "hi everybody's - fan molyneux from",
      "start": 0,
      "duration": 2.909
    },
    {
      "text": "freedomain radio gonna do a quick tour",
      "start": 1.29,
      "duration": 3.589
    },
    {
      "text": "through some of the very exciting",
      "start": 2.909,
      "duration": 3.87
    },
    {
      "text": "economic news that has been cooking",
      "start": 4.879,
      "duration": 4.93
    },
    {
      "text": "particularly in the US lately on October",
      "start": 6.779,
      "duration": 6.831
    },
    {
      "text": "the 19th 2014 the Federal Reserve ceased",
      "start": 9.809,
      "duration": 6.47
    },
    {
      "text": "the third round of quantitative easing",
      "start": 13.61,
      "duration": 5.8
    },
    {
      "text": "QE 3 and all but promised to raise the",
      "start": 16.279,
      "duration": 6.16
    },
    {
      "text": "interest rate by the end of 2015 so the",
      "start": 19.41,
      "duration": 5.34
    },
    {
      "text": "general idea is the economy slows down",
      "start": 22.439,
      "duration": 6.42
    },
    {
      "text": "and you reduce interest rates which is",
      "start": 24.75,
      "duration": 5.609
    },
    {
      "text": "trying to supposed to stimulate economic",
      "start": 28.859,
      "duration": 3.301
    },
    {
      "text": "activity in the here and now no point",
      "start": 30.359,
      "duration": 2.941
    },
    {
      "text": "saving the money if you're not getting",
      "start": 32.16,
      "duration": 2.37
    },
    {
      "text": "anything back in interest and",
      "start": 33.3,
      "duration": 3.09
    },
    {
      "text": "particularly if interest rates are lower",
      "start": 34.53,
      "duration": 3.99
    },
    {
      "text": "than the inflation rates then you might",
      "start": 36.39,
      "duration": 3.54
    },
    {
      "text": "as well spend the money now because your",
      "start": 38.52,
      "duration": 4.02
    },
    {
      "text": "money is being eaten away by inflation",
      "start": 39.93,
      "duration": 4.949
    },
    {
      "text": "as times go forward so the idea is",
      "start": 42.54,
      "duration": 4.17
    },
    {
      "text": "economic slowdown of course in the Oh",
      "start": 44.879,
      "duration": 4.441
    },
    {
      "text": "708 housing crash lower interest rates",
      "start": 46.71,
      "duration": 4.47
    },
    {
      "text": "but if you keep interest rates low",
      "start": 49.32,
      "duration": 3.95
    },
    {
      "text": "you're signaling to the world as a whole",
      "start": 51.18,
      "duration": 6.69
    },
    {
      "text": "that your economy Duff suck because if",
      "start": 53.27,
      "duration": 6.07
    },
    {
      "text": "you not gonna raise interest rates it's",
      "start": 57.87,
      "duration": 2.939
    },
    {
      "text": "because the economic indicators are",
      "start": 59.34,
      "duration": 4.77
    },
    {
      "text": "still really bad so it was widely",
      "start": 60.809,
      "duration": 4.951
    },
    {
      "text": "speculated that an increase in the",
      "start": 64.11,
      "duration": 3.96
    },
    {
      "text": "interest rate would occur in September",
      "start": 65.76,
      "duration": 4.77
    },
    {
      "text": "but the month came and went without",
      "start": 68.07,
      "duration": 6.39
    },
    {
      "text": "change it was reported of course that",
      "start": 70.53,
      "duration": 5.31
    },
    {
      "text": "the Federal Reserve wanted to see more",
      "start": 74.46,
      "duration": 3.78
    },
    {
      "text": "improvement in the economy before",
      "start": 75.84,
      "duration": 5.819
    },
    {
      "text": "raising the key interest rate right so",
      "start": 78.24,
      "duration": 6.09
    },
    {
      "text": "low interest rate means bad economy if",
      "start": 81.659,
      "duration": 4.561
    },
    {
      "text": "you raise the interest rate and things",
      "start": 84.33,
      "duration": 3.42
    },
    {
      "text": "get really bad all you're doing is",
      "start": 86.22,
      "duration": 3.03
    },
    {
      "text": "revealing not only that you have a bad",
      "start": 87.75,
      "duration": 3.299
    },
    {
      "text": "economy but you don't even know what to",
      "start": 89.25,
      "duration": 3.84
    },
    {
      "text": "do about your bad economy which is even",
      "start": 91.049,
      "duration": 9.721
    },
    {
      "text": "worse despite approximately 3.5 trillion",
      "start": 93.09,
      "duration": 9.77
    },
    {
      "text": "dollars worth of asset purchases since",
      "start": 100.77,
      "duration": 5.669
    },
    {
      "text": "2007 and the unprecedented and prolonged",
      "start": 102.86,
      "duration": 5.95
    },
    {
      "text": "decrease of the effective federal funds",
      "start": 106.439,
      "duration": 5.551
    },
    {
      "text": "rate to a historic low basically zero",
      "start": 108.81,
      "duration": 5.339
    },
    {
      "text": "percent to borrow money the economy had",
      "start": 111.99,
      "duration": 5.04
    },
    {
      "text": "yet to recover enough to warrant a rate",
      "start": 114.149,
      "duration": 8.07
    },
    {
      "text": "increase with their hey the economy is",
      "start": 117.03,
      "duration": 8.25
    },
    {
      "text": "improving we promise credibility on the",
      "start": 122.219,
      "duration": 4.68
    },
    {
      "text": "line of Federal Reserve did decide to",
      "start": 125.28,
      "duration": 4.349
    },
    {
      "text": "increase the interest rate 0.25 percent",
      "start": 126.899,
      "duration": 5.7
    },
    {
      "text": "on December 16th effectively adjusting",
      "start": 129.629,
      "duration": 3.871
    },
    {
      "text": "it in named own",
      "start": 132.599,
      "duration": 5.881
    },
    {
      "text": "and leaving it at historic lows ah what",
      "start": 133.5,
      "duration": 6.54
    },
    {
      "text": "happened well the Dow Jones Industrial",
      "start": 138.48,
      "duration": 7.56
    },
    {
      "text": "Average fell by 367 points in the days",
      "start": 140.04,
      "duration": 9.6
    },
    {
      "text": "following of course this didn't stop the",
      "start": 146.04,
      "duration": 5.28
    },
    {
      "text": "fact that there's a teeny tiny sliver of",
      "start": 149.64,
      "duration": 3.54
    },
    {
      "text": "a rate increase didn't stop the",
      "start": 151.32,
      "duration": 3.24
    },
    {
      "text": "mainstream media from proclaiming the",
      "start": 153.18,
      "duration": 4.62
    },
    {
      "text": "dawning of a new era announcing an end",
      "start": 154.56,
      "duration": 6.36
    },
    {
      "text": "to an era of easy money that helped save",
      "start": 157.8,
      "duration": 4.94
    },
    {
      "text": "the nation from another Great Depression",
      "start": 160.92,
      "duration": 4.53
    },
    {
      "text": "actually it just saved the bankers from",
      "start": 162.74,
      "duration": 4.63
    },
    {
      "text": "going bankrupt the economically",
      "start": 165.45,
      "duration": 4.02
    },
    {
      "text": "illiterate Empire cheerleaders made",
      "start": 167.37,
      "duration": 5.46
    },
    {
      "text": "these claims despite the near 2% annual",
      "start": 169.47,
      "duration": 4.77
    },
    {
      "text": "rate of inflation reported by the",
      "start": 172.83,
      "duration": 4.41
    },
    {
      "text": "government a figure which is far higher",
      "start": 174.24,
      "duration": 5.46
    },
    {
      "text": "for those of us actually living in",
      "start": 177.24,
      "duration": 4.77
    },
    {
      "text": "economic reality say buying things from",
      "start": 179.7,
      "duration": 4.95
    },
    {
      "text": "stores rather than from misleading",
      "start": 182.01,
      "duration": 8.34
    },
    {
      "text": "government reports so this is effective",
      "start": 184.65,
      "duration": 11.25
    },
    {
      "text": "federal funds rate 1954 to 2015 now if",
      "start": 190.35,
      "duration": 7.02
    },
    {
      "text": "you're just listening to the audio I'm",
      "start": 195.9,
      "duration": 3.03
    },
    {
      "text": "sorry you're going to miss the roller",
      "start": 197.37,
      "duration": 4.26
    },
    {
      "text": "coaster bump at the right so the federal",
      "start": 198.93,
      "duration": 4.5
    },
    {
      "text": "funds rate is the interest rate at which",
      "start": 201.63,
      "duration": 4.47
    },
    {
      "text": "banks trade federal funds the balances",
      "start": 203.43,
      "duration": 5.64
    },
    {
      "text": "held at federal reserve banks so when",
      "start": 206.1,
      "duration": 4.68
    },
    {
      "text": "people talk about the interest rate set",
      "start": 209.07,
      "duration": 3.09
    },
    {
      "text": "by the Federal Reserve this is basically",
      "start": 210.78,
      "duration": 6.27
    },
    {
      "text": "what they're talking about and I mean",
      "start": 212.16,
      "duration": 7.56
    },
    {
      "text": "there's no free market left in the world",
      "start": 217.05,
      "duration": 4.98
    },
    {
      "text": "if there's no free market and money",
      "start": 219.72,
      "duration": 5.16
    },
    {
      "text": "there's no free market and the effective",
      "start": 222.03,
      "duration": 5.76
    },
    {
      "text": "takeover of money by the government in",
      "start": 224.88,
      "duration": 6.09
    },
    {
      "text": "1913 means that everything else has just",
      "start": 227.79,
      "duration": 5.91
    },
    {
      "text": "been you know you shoot the giant in the",
      "start": 230.97,
      "duration": 5.7
    },
    {
      "text": "kneecap and he falls slowly but he ain't",
      "start": 233.7,
      "duration": 4.53
    },
    {
      "text": "getting back up and that's really what's",
      "start": 236.67,
      "duration": 3.66
    },
    {
      "text": "happened to the free market since the",
      "start": 238.23,
      "duration": 3.95
    },
    {
      "text": "government took over money if there's no",
      "start": 240.33,
      "duration": 4.53
    },
    {
      "text": "free market and money then basically",
      "start": 242.18,
      "duration": 4.059
    },
    {
      "text": "there can't be any free market in",
      "start": 244.86,
      "duration": 2.73
    },
    {
      "text": "interest rates and interest rates it's",
      "start": 246.239,
      "duration": 3.961
    },
    {
      "text": "one of these things that's so important",
      "start": 247.59,
      "duration": 6.39
    },
    {
      "text": "in the economy because if people are",
      "start": 250.2,
      "duration": 6.599
    },
    {
      "text": "saving a lot right then money can be",
      "start": 253.98,
      "duration": 4.68
    },
    {
      "text": "lent out more cheaply because there's an",
      "start": 256.799,
      "duration": 3.271
    },
    {
      "text": "excess of money sitting in banks that",
      "start": 258.66,
      "duration": 2.67
    },
    {
      "text": "they want to lend it out that drives the",
      "start": 260.07,
      "duration": 3.69
    },
    {
      "text": "interest rates down which stimulates",
      "start": 261.33,
      "duration": 3.7
    },
    {
      "text": "people's buying",
      "start": 263.76,
      "duration": 3.58
    },
    {
      "text": "and that sort of it's the balance that",
      "start": 265.03,
      "duration": 5.67
    },
    {
      "text": "goes back and forth if people are saving",
      "start": 267.34,
      "duration": 6.9
    },
    {
      "text": "too little then banks will pay you more",
      "start": 270.7,
      "duration": 5.49
    },
    {
      "text": "money to put money in the bank because",
      "start": 274.24,
      "duration": 3.69
    },
    {
      "text": "there's a lack of it which they need to",
      "start": 276.19,
      "duration": 3.81
    },
    {
      "text": "lend out and so if people are spending",
      "start": 277.93,
      "duration": 5.459
    },
    {
      "text": "too too little then interest rates will",
      "start": 280,
      "duration": 6.6
    },
    {
      "text": "tend to go up and there's a lot of other",
      "start": 283.389,
      "duration": 4.711
    },
    {
      "text": "factors but there's a self-regulatory",
      "start": 286.6,
      "duration": 3.45
    },
    {
      "text": "mechanism that occurs in a free market",
      "start": 288.1,
      "duration": 4.77
    },
    {
      "text": "with regards to interest rates that once",
      "start": 290.05,
      "duration": 4.89
    },
    {
      "text": "the government steps in gets completely",
      "start": 292.87,
      "duration": 3.99
    },
    {
      "text": "haywire and there's no longer any",
      "start": 294.94,
      "duration": 3.93
    },
    {
      "text": "rational calculation for money as a",
      "start": 296.86,
      "duration": 4.38
    },
    {
      "text": "whole and whether you save or whether",
      "start": 298.87,
      "duration": 4.83
    },
    {
      "text": "you spend as a whole and of course the",
      "start": 301.24,
      "duration": 3.87
    },
    {
      "text": "government has to control interest rates",
      "start": 303.7,
      "duration": 3.21
    },
    {
      "text": "because what happens is when the",
      "start": 305.11,
      "duration": 3.69
    },
    {
      "text": "government gains control of the printing",
      "start": 306.91,
      "duration": 6.12
    },
    {
      "text": "presses in the economy what it does is",
      "start": 308.8,
      "duration": 5.76
    },
    {
      "text": "it starts printing money to buy votes",
      "start": 313.03,
      "duration": 2.97
    },
    {
      "text": "right because when it prints money or",
      "start": 314.56,
      "duration": 3.96
    },
    {
      "text": "borrows then what I can do is give you",
      "start": 316,
      "duration": 5.49
    },
    {
      "text": "goodies that seem free in the moment but",
      "start": 318.52,
      "duration": 5.01
    },
    {
      "text": "then what happens is 18 months to 24",
      "start": 321.49,
      "duration": 4.98
    },
    {
      "text": "months later inflation hits inflation is",
      "start": 323.53,
      "duration": 4.23
    },
    {
      "text": "actually the increase in the money",
      "start": 326.47,
      "duration": 3.18
    },
    {
      "text": "supply the price increase is just a",
      "start": 327.76,
      "duration": 4.32
    },
    {
      "text": "result of that so inflation hits and",
      "start": 329.65,
      "duration": 3.57
    },
    {
      "text": "then people are like wow this is",
      "start": 332.08,
      "duration": 2.73
    },
    {
      "text": "terrible but there's the solution of",
      "start": 333.22,
      "duration": 3.84
    },
    {
      "text": "free stuff at least for the election",
      "start": 334.81,
      "duration": 4.05
    },
    {
      "text": "cycle and so government stopped printing",
      "start": 337.06,
      "duration": 3.09
    },
    {
      "text": "money but of course printing money",
      "start": 338.86,
      "duration": 2.82
    },
    {
      "text": "drives up prices driving up prices",
      "start": 340.15,
      "duration": 4.11
    },
    {
      "text": "drives up inflation because if you want",
      "start": 341.68,
      "duration": 4.38
    },
    {
      "text": "to lend money and get 5 percent back but",
      "start": 344.26,
      "duration": 3.27
    },
    {
      "text": "inflation is running at 10 percent you",
      "start": 346.06,
      "duration": 3.75
    },
    {
      "text": "need to lend money at 15 percent because",
      "start": 347.53,
      "duration": 3.54
    },
    {
      "text": "you have to take into account inflation",
      "start": 349.81,
      "duration": 4.71
    },
    {
      "text": "and so this terrible stuff happens the",
      "start": 351.07,
      "duration": 5.73
    },
    {
      "text": "inflation starts to go up the interest",
      "start": 354.52,
      "duration": 3.54
    },
    {
      "text": "rates start to go up and then all the",
      "start": 356.8,
      "duration": 2.31
    },
    {
      "text": "money that the government has borrowed",
      "start": 358.06,
      "duration": 2.85
    },
    {
      "text": "has to be repaid back at higher interest",
      "start": 359.11,
      "duration": 3.48
    },
    {
      "text": "rates so the moment government takes",
      "start": 360.91,
      "duration": 2.85
    },
    {
      "text": "control of the money supply starts",
      "start": 362.59,
      "duration": 3.18
    },
    {
      "text": "printing money to buy votes it then has",
      "start": 363.76,
      "duration": 4.98
    },
    {
      "text": "to take control of the interest rates to",
      "start": 365.77,
      "duration": 5.16
    },
    {
      "text": "keep them artificially low to hide the",
      "start": 368.74,
      "duration": 3.81
    },
    {
      "text": "actual effects of all its money",
      "start": 370.93,
      "duration": 3.299
    },
    {
      "text": "borrowing and money printing and this",
      "start": 372.55,
      "duration": 5.1
    },
    {
      "text": "qe1 qe2 qe3 the ocean liners that all",
      "start": 374.229,
      "duration": 5.221
    },
    {
      "text": "end up with the movie Titanic and we are",
      "start": 377.65,
      "duration": 4.139
    },
    {
      "text": "the guys hitting the propeller that has",
      "start": 379.45,
      "duration": 4.35
    },
    {
      "text": "been one of the biggest expansions of",
      "start": 381.789,
      "duration": 4.921
    },
    {
      "text": "the money supply in human history and so",
      "start": 383.8,
      "duration": 4.56
    },
    {
      "text": "they have to keep it a tight lid on",
      "start": 386.71,
      "duration": 3.72
    },
    {
      "text": "interest rates to cover up all the",
      "start": 388.36,
      "duration": 5.46
    },
    {
      "text": "inflation that is occurring so here we",
      "start": 390.43,
      "duration": 4.89
    },
    {
      "text": "can see effective federal funds rate",
      "start": 393.82,
      "duration": 5.08
    },
    {
      "text": "1954 to 2015",
      "start": 395.32,
      "duration": 5.349
    },
    {
      "text": "now you can I won't go into all the",
      "start": 398.9,
      "duration": 3.239
    },
    {
      "text": "detailed history of all of this kind of",
      "start": 400.669,
      "duration": 2.551
    },
    {
      "text": "stuff but there was a series of",
      "start": 402.139,
      "duration": 3.511
    },
    {
      "text": "decoupling dollar from the remnants of",
      "start": 403.22,
      "duration": 3.99
    },
    {
      "text": "the limitations of the gold standard",
      "start": 405.65,
      "duration": 4.29
    },
    {
      "text": "that happened in the 70s under Nixon but",
      "start": 407.21,
      "duration": 5.64
    },
    {
      "text": "down here you can see that it was fairly",
      "start": 409.94,
      "duration": 4.62
    },
    {
      "text": "high when the economic crash happens it",
      "start": 412.85,
      "duration": 3.659
    },
    {
      "text": "goes way down now you see this little",
      "start": 414.56,
      "duration": 3.449
    },
    {
      "text": "bottom right of the corner here there's",
      "start": 416.509,
      "duration": 3.66
    },
    {
      "text": "a little look well it goes up a tiny",
      "start": 418.009,
      "duration": 4.561
    },
    {
      "text": "tiny little bit this is the dawn of a",
      "start": 420.169,
      "duration": 4.831
    },
    {
      "text": "new era and the end of cheap money that",
      "start": 422.57,
      "duration": 4.53
    },
    {
      "text": "saved us from the ha right this is what",
      "start": 425,
      "duration": 3.96
    },
    {
      "text": "people are cheerleading this tiny tiny",
      "start": 427.1,
      "duration": 5.46
    },
    {
      "text": "little blip if people are cheering this",
      "start": 428.96,
      "duration": 5.459
    },
    {
      "text": "tiny tiny little blip which is a",
      "start": 432.56,
      "duration": 5.25
    },
    {
      "text": "complete deviation from history as some",
      "start": 434.419,
      "duration": 6.201
    },
    {
      "text": "sort of new era they're just willfully",
      "start": 437.81,
      "duration": 5.28
    },
    {
      "text": "misinforming it because this not this",
      "start": 440.62,
      "duration": 6.609
    },
    {
      "text": "day is not that hard to find Federal",
      "start": 443.09,
      "duration": 7.23
    },
    {
      "text": "Reserve manipulation so major stock",
      "start": 447.229,
      "duration": 6.031
    },
    {
      "text": "indices versus Federal Reserve interest",
      "start": 450.32,
      "duration": 6.15
    },
    {
      "text": "rate so Federal Reserve costs drop the",
      "start": 453.26,
      "duration": 5.879
    },
    {
      "text": "rate to near zero and instead of",
      "start": 456.47,
      "duration": 4.59
    },
    {
      "text": "crashing this artificially cheap money",
      "start": 459.139,
      "duration": 3.421
    },
    {
      "text": "provided the illusion of growth and",
      "start": 461.06,
      "duration": 6.06
    },
    {
      "text": "recovery so as you can see here things",
      "start": 462.56,
      "duration": 6.24
    },
    {
      "text": "kind of cooking along the the red is the",
      "start": 467.12,
      "duration": 5.16
    },
    {
      "text": "effect of federal funds rate and when",
      "start": 468.8,
      "duration": 6.089
    },
    {
      "text": "the crash happened they dropped the rate",
      "start": 472.28,
      "duration": 4.68
    },
    {
      "text": "way way down the rate is on the right",
      "start": 474.889,
      "duration": 4.201
    },
    {
      "text": "hand side the drop the rate way down and",
      "start": 476.96,
      "duration": 3.69
    },
    {
      "text": "as you can see when they dropped the",
      "start": 479.09,
      "duration": 4.77
    },
    {
      "text": "rate way down what happened is there's",
      "start": 480.65,
      "duration": 5.519
    },
    {
      "text": "this illusion of a recovery but the",
      "start": 483.86,
      "duration": 6.38
    },
    {
      "text": "illusion is entirely artificial because",
      "start": 486.169,
      "duration": 6.481
    },
    {
      "text": "when you take your interest rate down to",
      "start": 490.24,
      "duration": 5.709
    },
    {
      "text": "zero people will spend money rather than",
      "start": 492.65,
      "duration": 6.21
    },
    {
      "text": "save money no point putting money in the",
      "start": 495.949,
      "duration": 4.561
    },
    {
      "text": "bank if you not getting any money back",
      "start": 498.86,
      "duration": 4.799
    },
    {
      "text": "in interest and so what happens is",
      "start": 500.51,
      "duration": 4.649
    },
    {
      "text": "people spend money it creates certain",
      "start": 503.659,
      "duration": 3.451
    },
    {
      "text": "amount of economic stimulus but the",
      "start": 505.159,
      "duration": 4.111
    },
    {
      "text": "reality is people actually need to save",
      "start": 507.11,
      "duration": 5.04
    },
    {
      "text": "money in order to have a sustainable and",
      "start": 509.27,
      "duration": 4.649
    },
    {
      "text": "growing economy you put your money in",
      "start": 512.15,
      "duration": 3.059
    },
    {
      "text": "the bank or you save you money that",
      "start": 513.919,
      "duration": 2.821
    },
    {
      "text": "money is then available for",
      "start": 515.209,
      "duration": 3.601
    },
    {
      "text": "entrepreneurs to invest in capital",
      "start": 516.74,
      "duration": 3.599
    },
    {
      "text": "improvements the stuff you don't see",
      "start": 518.81,
      "duration": 3.09
    },
    {
      "text": "business-to-business stuff like",
      "start": 520.339,
      "duration": 4.471
    },
    {
      "text": "upgrading a factory or building a new",
      "start": 521.9,
      "duration": 4.2
    },
    {
      "text": "office building the stuff that doesn't",
      "start": 524.81,
      "duration": 3.87
    },
    {
      "text": "really show up as fliers in your mailbox",
      "start": 526.1,
      "duration": 4.77
    },
    {
      "text": "but it's kind of essential to economic",
      "start": 528.68,
      "duration": 3.72
    },
    {
      "text": "growth buying new machinery to improve",
      "start": 530.87,
      "duration": 1.89
    },
    {
      "text": "the",
      "start": 532.4,
      "duration": 2.67
    },
    {
      "text": "tivity of workers and so on all of that",
      "start": 532.76,
      "duration": 5.16
    },
    {
      "text": "requires a significant amount of savings",
      "start": 535.07,
      "duration": 5.43
    },
    {
      "text": "right and we basically in the West for",
      "start": 537.92,
      "duration": 4.23
    },
    {
      "text": "the past two generations ever since the",
      "start": 540.5,
      "duration": 2.91
    },
    {
      "text": "welfare war for estate really got",
      "start": 542.15,
      "duration": 3.36
    },
    {
      "text": "cranked up in the 60s we've been eating",
      "start": 543.41,
      "duration": 4.44
    },
    {
      "text": "our seed crop right so in winter you",
      "start": 545.51,
      "duration": 4.44
    },
    {
      "text": "have to save your crop so you have stuff",
      "start": 547.85,
      "duration": 3.75
    },
    {
      "text": "to plant in the spring and no matter how",
      "start": 549.95,
      "duration": 4.08
    },
    {
      "text": "hungry you get you can't eat your seed",
      "start": 551.6,
      "duration": 4.2
    },
    {
      "text": "crop but we've been eating our seed crop",
      "start": 554.03,
      "duration": 3.03
    },
    {
      "text": "we've been bleeding off for savings",
      "start": 555.8,
      "duration": 2.58
    },
    {
      "text": "we've been kicking the can down the road",
      "start": 557.06,
      "duration": 2.94
    },
    {
      "text": "we've been indebting the next generation",
      "start": 558.38,
      "duration": 4.95
    },
    {
      "text": "and so all of this is in my view an",
      "start": 560,
      "duration": 6.33
    },
    {
      "text": "artificial bubble and the longer the",
      "start": 563.33,
      "duration": 6.21
    },
    {
      "text": "bubble goes on the more it's going to",
      "start": 566.33,
      "duration": 5.28
    },
    {
      "text": "pop and the latter a bang it's going to",
      "start": 569.54,
      "duration": 3.99
    },
    {
      "text": "make when it all starts running down so",
      "start": 571.61,
      "duration": 2.88
    },
    {
      "text": "you see they've crashed down the",
      "start": 573.53,
      "duration": 3.45
    },
    {
      "text": "interest rates and the Industrial",
      "start": 574.49,
      "duration": 5.31
    },
    {
      "text": "Average has gone up yeah why not invest",
      "start": 576.98,
      "duration": 5.31
    },
    {
      "text": "in stocks because sticking money in the",
      "start": 579.8,
      "duration": 4.23
    },
    {
      "text": "bank isn't gonna do you any good so more",
      "start": 582.29,
      "duration": 6.69
    },
    {
      "text": "money flows into stocks and you've got",
      "start": 584.03,
      "duration": 6.45
    },
    {
      "text": "huge amount of money chasing a small",
      "start": 588.98,
      "duration": 3.42
    },
    {
      "text": "amount of stock profit I've called it",
      "start": 590.48,
      "duration": 3.81
    },
    {
      "text": "the supercharged stock market market how",
      "start": 592.4,
      "duration": 3.24
    },
    {
      "text": "many people out there you listening to",
      "start": 594.29,
      "duration": 3.12
    },
    {
      "text": "this do you really want to be in the",
      "start": 595.64,
      "duration": 3.36
    },
    {
      "text": "stock market I bet you down the stock",
      "start": 597.41,
      "duration": 3.06
    },
    {
      "text": "market is supposed to be for people who",
      "start": 599,
      "duration": 3.3
    },
    {
      "text": "are experts in a particular field who",
      "start": 600.47,
      "duration": 3.54
    },
    {
      "text": "understand a particular kind of business",
      "start": 602.3,
      "duration": 3.09
    },
    {
      "text": "who can do the research to figure out",
      "start": 604.01,
      "duration": 3.66
    },
    {
      "text": "what's going on in that business what's",
      "start": 605.39,
      "duration": 3.93
    },
    {
      "text": "happened now is a lot of your money gets",
      "start": 607.67,
      "duration": 3.42
    },
    {
      "text": "herded into the stock market against",
      "start": 609.32,
      "duration": 3.6
    },
    {
      "text": "your will through pension plans through",
      "start": 611.09,
      "duration": 3.63
    },
    {
      "text": "401k through a variety of other",
      "start": 612.92,
      "duration": 3.75
    },
    {
      "text": "mechanisms that force you to put your",
      "start": 614.72,
      "duration": 3.45
    },
    {
      "text": "money into the stock market whether you",
      "start": 616.67,
      "duration": 3.42
    },
    {
      "text": "want to or not just to avoid the taxman",
      "start": 618.17,
      "duration": 4.11
    },
    {
      "text": "of course corporations love that because",
      "start": 620.09,
      "duration": 3.57
    },
    {
      "text": "it drives up the price of their stock",
      "start": 622.28,
      "duration": 3.45
    },
    {
      "text": "but of course you're in the stock market",
      "start": 623.66,
      "duration": 3.39
    },
    {
      "text": "and I'm in the stock market without",
      "start": 625.73,
      "duration": 3.3
    },
    {
      "text": "exactly much of a clue what's going on",
      "start": 627.05,
      "duration": 3.84
    },
    {
      "text": "in any kind of detail just handing your",
      "start": 629.03,
      "duration": 4.32
    },
    {
      "text": "money to silver suited guys with",
      "start": 630.89,
      "duration": 5.64
    },
    {
      "text": "monocles and hoping for the best and",
      "start": 633.35,
      "duration": 5.01
    },
    {
      "text": "this is what's changed the stock market",
      "start": 636.53,
      "duration": 3.12
    },
    {
      "text": "from a sort of rational investment",
      "start": 638.36,
      "duration": 4.2
    },
    {
      "text": "scenario to this hyperkinetic hysterical",
      "start": 639.65,
      "duration": 6.45
    },
    {
      "text": "anime cartoon of people jumping on any",
      "start": 642.56,
      "duration": 5.43
    },
    {
      "text": "variation in stock price to make or gain",
      "start": 646.1,
      "duration": 4.89
    },
    {
      "text": "or lose potentially millions of dollars",
      "start": 647.99,
      "duration": 4.62
    },
    {
      "text": "in a few minutes and this is why people",
      "start": 650.99,
      "duration": 4.26
    },
    {
      "text": "move their computers closer to the hub",
      "start": 652.61,
      "duration": 4.38
    },
    {
      "text": "of the internet to gain a millisecond of",
      "start": 655.25,
      "duration": 3.69
    },
    {
      "text": "stock trading time it's because there's",
      "start": 656.99,
      "duration": 3.33
    },
    {
      "text": "way too much money in the stock market",
      "start": 658.94,
      "duration": 3.51
    },
    {
      "text": "it's all been herded there by the",
      "start": 660.32,
      "duration": 3.51
    },
    {
      "text": "government and part of its direct and",
      "start": 662.45,
      "duration": 2.55
    },
    {
      "text": "part of its indirect just by crushing",
      "start": 663.83,
      "duration": 2.35
    },
    {
      "text": "interest rates",
      "start": 665,
      "duration": 5.35
    },
    {
      "text": "so just looking at this this can't be",
      "start": 666.18,
      "duration": 6.69
    },
    {
      "text": "sustainable and of course we see if you",
      "start": 670.35,
      "duration": 4.46
    },
    {
      "text": "look on the right-hand side this is the",
      "start": 672.87,
      "duration": 6.63
    },
    {
      "text": "percentage the rate has gone up 0.25 and",
      "start": 674.81,
      "duration": 8.86
    },
    {
      "text": "we've already had a slight crash in the",
      "start": 679.5,
      "duration": 6.63
    },
    {
      "text": "stock prices right so this is how you",
      "start": 683.67,
      "duration": 4.14
    },
    {
      "text": "know if this if as soon as the federal",
      "start": 686.13,
      "duration": 4.05
    },
    {
      "text": "funds rate goes up stock prices are",
      "start": 687.81,
      "duration": 5.81
    },
    {
      "text": "going to go down in my humble opinion",
      "start": 690.18,
      "duration": 9.45
    },
    {
      "text": "some US Treasury securities these are",
      "start": 693.62,
      "duration": 7.72
    },
    {
      "text": "the debt obligations of the United",
      "start": 699.63,
      "duration": 3.9
    },
    {
      "text": "States government or as it's also called",
      "start": 701.34,
      "duration": 5.85
    },
    {
      "text": "you me and every unborn child for the",
      "start": 703.53,
      "duration": 8.01
    },
    {
      "text": "next 10,000 generations now the Treasury",
      "start": 707.19,
      "duration": 5.67
    },
    {
      "text": "securities they come in various forms",
      "start": 711.54,
      "duration": 5.43
    },
    {
      "text": "again bonds or notes so in essence when",
      "start": 712.86,
      "duration": 6.39
    },
    {
      "text": "you buy US Treasury securities you're",
      "start": 716.97,
      "duration": 4.94
    },
    {
      "text": "lending money to the government for a",
      "start": 719.25,
      "duration": 5.52
    },
    {
      "text": "specified period of time now",
      "start": 721.91,
      "duration": 5.41
    },
    {
      "text": "mortgage-backed securities are bonds",
      "start": 724.77,
      "duration": 5.13
    },
    {
      "text": "that are backed by mortgage loans and",
      "start": 727.32,
      "duration": 4.38
    },
    {
      "text": "these are the toxic assets that float",
      "start": 729.9,
      "duration": 3.57
    },
    {
      "text": "around the world in the early to mid",
      "start": 731.7,
      "duration": 5.61
    },
    {
      "text": "part of the 2000s and of course all of",
      "start": 733.47,
      "duration": 7.02
    },
    {
      "text": "this cascading cat-astrophies around the",
      "start": 737.31,
      "duration": 6.5
    },
    {
      "text": "world so here if you look at",
      "start": 740.49,
      "duration": 6.27
    },
    {
      "text": "mortgage-backed securities and this is",
      "start": 743.81,
      "duration": 4.99
    },
    {
      "text": "these are assets held by the Federal",
      "start": 746.76,
      "duration": 4.38
    },
    {
      "text": "Reserve in billions of dollars 2003 to",
      "start": 748.8,
      "duration": 5.97
    },
    {
      "text": "2008 2009 then really happening now of",
      "start": 751.14,
      "duration": 4.86
    },
    {
      "text": "course then they had to buy up a bunch",
      "start": 754.77,
      "duration": 2.64
    },
    {
      "text": "of these mortgage-backed securities",
      "start": 756,
      "duration": 3.24
    },
    {
      "text": "because their banks to friends on Wall",
      "start": 757.41,
      "duration": 4.2
    },
    {
      "text": "Street were facing a complete cluster",
      "start": 759.24,
      "duration": 4.74
    },
    {
      "text": "frack of disintegration of the value of",
      "start": 761.61,
      "duration": 4.17
    },
    {
      "text": "these mortgage-backed securities partly",
      "start": 763.98,
      "duration": 3.63
    },
    {
      "text": "because some rating agencies seem to",
      "start": 765.78,
      "duration": 5.61
    },
    {
      "text": "have embellished the creditworthiness of",
      "start": 767.61,
      "duration": 6.75
    },
    {
      "text": "these mortgage-backed securities and so",
      "start": 771.39,
      "duration": 4.77
    },
    {
      "text": "the Fed began buying up all these",
      "start": 774.36,
      "duration": 4.02
    },
    {
      "text": "mortgage-backed securities not exactly",
      "start": 776.16,
      "duration": 5.25
    },
    {
      "text": "part of its mandate and here we can see",
      "start": 778.38,
      "duration": 6.09
    },
    {
      "text": "US Treasury securities it's just being",
      "start": 781.41,
      "duration": 5.25
    },
    {
      "text": "bought up and bought up and bought up so",
      "start": 784.47,
      "duration": 3.72
    },
    {
      "text": "the Federal Reserve is buying assets",
      "start": 786.66,
      "duration": 3.87
    },
    {
      "text": "made out of thin air basically by the",
      "start": 788.19,
      "duration": 3.99
    },
    {
      "text": "government debt obligations made out of",
      "start": 790.53,
      "duration": 4.68
    },
    {
      "text": "thin air and you can see that the",
      "start": 792.18,
      "duration": 6.48
    },
    {
      "text": "Federal Reserve is just wrapping a whole",
      "start": 795.21,
      "duration": 4.62
    },
    {
      "text": "bunch of ass",
      "start": 798.66,
      "duration": 3
    },
    {
      "text": "which are you buy a bond all you're",
      "start": 799.83,
      "duration": 3.3
    },
    {
      "text": "doing is saying hey would you mind",
      "start": 801.66,
      "duration": 3.57
    },
    {
      "text": "raising my taxes in the future to pay me",
      "start": 803.13,
      "duration": 4.29
    },
    {
      "text": "the principal and interest of this bond",
      "start": 805.23,
      "duration": 3.33
    },
    {
      "text": "because the government doesn't have any",
      "start": 807.42,
      "duration": 2.61
    },
    {
      "text": "money it doesn't invest in things that",
      "start": 808.56,
      "duration": 5.58
    },
    {
      "text": "make money other than I guess voters",
      "start": 810.03,
      "duration": 6.99
    },
    {
      "text": "from time to time it just makes votes so",
      "start": 814.14,
      "duration": 6.09
    },
    {
      "text": "you when you buy a government bond all",
      "start": 817.02,
      "duration": 5.16
    },
    {
      "text": "you're doing is saying please raise my",
      "start": 820.23,
      "duration": 3.51
    },
    {
      "text": "taxes in the future of course a minority",
      "start": 822.18,
      "duration": 4.05
    },
    {
      "text": "of people buy these bonds and so the tax",
      "start": 823.74,
      "duration": 4.17
    },
    {
      "text": "increases are pushed on to other people",
      "start": 826.23,
      "duration": 4.65
    },
    {
      "text": "usually the poor because that's the way",
      "start": 827.91,
      "duration": 5.31
    },
    {
      "text": "that often works so this chart doesn't",
      "start": 830.88,
      "duration": 4.23
    },
    {
      "text": "show bank debt or other quote assets",
      "start": 833.22,
      "duration": 3.15
    },
    {
      "text": "held by the Federal Reserve's the",
      "start": 835.11,
      "duration": 2.55
    },
    {
      "text": "Federal Reserve's just buying up a whole",
      "start": 836.37,
      "duration": 6.18
    },
    {
      "text": "bunch of assets and that's not that's",
      "start": 837.66,
      "duration": 6.75
    },
    {
      "text": "not great again bowing out things",
      "start": 842.55,
      "duration": 3.36
    },
    {
      "text": "propping things up making them look like",
      "start": 844.41,
      "duration": 6.63
    },
    {
      "text": "they're solvent when they really not so",
      "start": 845.91,
      "duration": 7.59
    },
    {
      "text": "Federal Reserve total assets in",
      "start": 851.04,
      "duration": 5.31
    },
    {
      "text": "trillions of dollars so you can see here",
      "start": 853.5,
      "duration": 6.51
    },
    {
      "text": "point eight point nine trillion 2007 QE",
      "start": 856.35,
      "duration": 5.43
    },
    {
      "text": "one begins and they just start buying up",
      "start": 860.01,
      "duration": 5.82
    },
    {
      "text": "massive amounts of assets QE two more QE",
      "start": 861.78,
      "duration": 5.82
    },
    {
      "text": "three begins and they're just buying all",
      "start": 865.83,
      "duration": 8.07
    },
    {
      "text": "kinds of assets so since 2007 it's crazy",
      "start": 867.6,
      "duration": 9.66
    },
    {
      "text": "I mean four or five hundred percent",
      "start": 873.9,
      "duration": 6.24
    },
    {
      "text": "increase in the assets held by the",
      "start": 877.26,
      "duration": 4.26
    },
    {
      "text": "Federal Reserve now of course when the",
      "start": 880.14,
      "duration": 2.82
    },
    {
      "text": "Federal Reserve is buying up assets its",
      "start": 881.52,
      "duration": 3.75
    },
    {
      "text": "artificially driving up their prices you",
      "start": 882.96,
      "duration": 3.96
    },
    {
      "text": "know if the if the Federal Reserve comes",
      "start": 885.27,
      "duration": 3.87
    },
    {
      "text": "to your used car lot and buys everything",
      "start": 886.92,
      "duration": 6.15
    },
    {
      "text": "well that drives up the value because",
      "start": 889.14,
      "duration": 5.42
    },
    {
      "text": "it's taking them out of the market and",
      "start": 893.07,
      "duration": 3.69
    },
    {
      "text": "driving up the price is artificial",
      "start": 894.56,
      "duration": 3.55
    },
    {
      "text": "demise it's not real demand is not",
      "start": 896.76,
      "duration": 2.61
    },
    {
      "text": "consumer demand it's not satisfying",
      "start": 898.11,
      "duration": 3.78
    },
    {
      "text": "anyone's particular needs or wishes in",
      "start": 899.37,
      "duration": 4.59
    },
    {
      "text": "the general market place is just moving",
      "start": 901.89,
      "duration": 3.87
    },
    {
      "text": "up a bunch of assets and driving up",
      "start": 903.96,
      "duration": 3.3
    },
    {
      "text": "their prices and thus propping up the",
      "start": 905.76,
      "duration": 3.78
    },
    {
      "text": "value of the bank so the banks have all",
      "start": 907.26,
      "duration": 3.93
    },
    {
      "text": "these assets and then trading companies",
      "start": 909.54,
      "duration": 3.12
    },
    {
      "text": "in particular have all these assets and",
      "start": 911.19,
      "duration": 3.21
    },
    {
      "text": "they're allowed to lend out a certain",
      "start": 912.66,
      "duration": 4.44
    },
    {
      "text": "multiple of their asset value right so",
      "start": 914.4,
      "duration": 5.34
    },
    {
      "text": "if your asset value declines you have to",
      "start": 917.1,
      "duration": 5.1
    },
    {
      "text": "start calling in loans now if you call",
      "start": 919.74,
      "duration": 4.05
    },
    {
      "text": "in those loans and a lot of those loans",
      "start": 922.2,
      "duration": 3.6
    },
    {
      "text": "can't be repaid then you have to further",
      "start": 923.79,
      "duration": 3.6
    },
    {
      "text": "write down your asset value because the",
      "start": 925.8,
      "duration": 3.06
    },
    {
      "text": "value of the loans declines which means",
      "start": 927.39,
      "duration": 3.18
    },
    {
      "text": "you have to call in all kinds of loans",
      "start": 928.86,
      "duration": 4.8
    },
    {
      "text": "and that creates this domino cascading",
      "start": 930.57,
      "duration": 5.069
    },
    {
      "text": "end of sodom and gomorrah effect that",
      "start": 933.66,
      "duration": 4.739
    },
    {
      "text": "occurs so by propping up the value of",
      "start": 935.639,
      "duration": 4.471
    },
    {
      "text": "the bank's assets and the trading",
      "start": 938.399,
      "duration": 4.411
    },
    {
      "text": "companies asset stock market trading",
      "start": 940.11,
      "duration": 4.5
    },
    {
      "text": "company assets it's allowing them to",
      "start": 942.81,
      "duration": 5.31
    },
    {
      "text": "continue to put on this crazy leverage",
      "start": 944.61,
      "duration": 6.93
    },
    {
      "text": "right there's a margin stuff so this is",
      "start": 948.12,
      "duration": 4.649
    },
    {
      "text": "another reason why it's happening and",
      "start": 951.54,
      "duration": 3.359
    },
    {
      "text": "it's all just a shell game with your",
      "start": 952.769,
      "duration": 5.221
    },
    {
      "text": "children's futures as the ball under the",
      "start": 954.899,
      "duration": 8.161
    },
    {
      "text": "cap that will never materialize so Dow",
      "start": 957.99,
      "duration": 7.8
    },
    {
      "text": "Jones in federal assets the federal",
      "start": 963.06,
      "duration": 4.92
    },
    {
      "text": "asset a Federal Reserve assets the",
      "start": 965.79,
      "duration": 3.359
    },
    {
      "text": "amount of stuff that the Federal Reserve",
      "start": 967.98,
      "duration": 4.59
    },
    {
      "text": "is buying up versus the Dow Jones now as",
      "start": 969.149,
      "duration": 6.841
    },
    {
      "text": "you can see in the market crash the Dow",
      "start": 972.57,
      "duration": 10.04
    },
    {
      "text": "Jones was crashing it was crashing and",
      "start": 975.99,
      "duration": 9.209
    },
    {
      "text": "this is why they started doing QE 1",
      "start": 982.61,
      "duration": 5.26
    },
    {
      "text": "right started printing a bunch of money",
      "start": 985.199,
      "duration": 4.08
    },
    {
      "text": "now they love to print the money to buy",
      "start": 987.87,
      "duration": 2.88
    },
    {
      "text": "the assets of the bankers because if",
      "start": 989.279,
      "duration": 3.631
    },
    {
      "text": "they send you a tax bill for $2000",
      "start": 990.75,
      "duration": 4.41
    },
    {
      "text": "saying we need to prop up bankers values",
      "start": 992.91,
      "duration": 3.78
    },
    {
      "text": "well you're gonna get kind of upset so",
      "start": 995.16,
      "duration": 3.75
    },
    {
      "text": "it's all the shell game where we walk",
      "start": 996.69,
      "duration": 4.86
    },
    {
      "text": "through life being rained on by tiny",
      "start": 998.91,
      "duration": 4.95
    },
    {
      "text": "mosquitoes with fiery Lance's but we're",
      "start": 1001.55,
      "duration": 3.899
    },
    {
      "text": "drugged by fiat currency so we don't",
      "start": 1003.86,
      "duration": 4.159
    },
    {
      "text": "even really feel it until it's possibly",
      "start": 1005.449,
      "duration": 5.401
    },
    {
      "text": "arguably too late so here you can see",
      "start": 1008.019,
      "duration": 5.5
    },
    {
      "text": "the Dow Jones is going up lockstep with",
      "start": 1010.85,
      "duration": 4.44
    },
    {
      "text": "the buying up of the Federal Reserve",
      "start": 1013.519,
      "duration": 4.831
    },
    {
      "text": "assets of course right this is the whole",
      "start": 1015.29,
      "duration": 6.72
    },
    {
      "text": "point behind it the correlation is 0.75",
      "start": 1018.35,
      "duration": 5.28
    },
    {
      "text": "right so at one point now is a perfect",
      "start": 1022.01,
      "duration": 3.99
    },
    {
      "text": "correlation and zero is no correlation",
      "start": 1023.63,
      "duration": 3.62
    },
    {
      "text": "so there's a very strong correlation",
      "start": 1026,
      "duration": 3.63
    },
    {
      "text": "between the Federal Reserve buying up",
      "start": 1027.25,
      "duration": 4.6
    },
    {
      "text": "all these assets and the stock price and",
      "start": 1029.63,
      "duration": 3.569
    },
    {
      "text": "what that means of course is if the",
      "start": 1031.85,
      "duration": 2.819
    },
    {
      "text": "Federal Reserve starts buying all of",
      "start": 1033.199,
      "duration": 3.321
    },
    {
      "text": "these assets or starts to sell them the",
      "start": 1034.669,
      "duration": 3.871
    },
    {
      "text": "likelihood is that the Dow Jones is",
      "start": 1036.52,
      "duration": 3.939
    },
    {
      "text": "going to go out now please I'm not an",
      "start": 1038.54,
      "duration": 3.06
    },
    {
      "text": "investment expert these are just my",
      "start": 1040.459,
      "duration": 2.37
    },
    {
      "text": "thoughts this is nothing to do with",
      "start": 1041.6,
      "duration": 2.459
    },
    {
      "text": "anything you should buy or sell these",
      "start": 1042.829,
      "duration": 2.821
    },
    {
      "text": "are just my particular opinions you know",
      "start": 1044.059,
      "duration": 6.961
    },
    {
      "text": "backed up with some and some data and",
      "start": 1045.65,
      "duration": 8.82
    },
    {
      "text": "even and even stronger correlation this",
      "start": 1051.02,
      "duration": 6.06
    },
    {
      "text": "is the Nasdaq and the Federal Reserve",
      "start": 1054.47,
      "duration": 4.77
    },
    {
      "text": "asset so as you can see here the same",
      "start": 1057.08,
      "duration": 5.7
    },
    {
      "text": "pattern Nasdaq is crashing in Oh 708 QE",
      "start": 1059.24,
      "duration": 6.21
    },
    {
      "text": "1 starts they start cranking all of",
      "start": 1062.78,
      "duration": 4.29
    },
    {
      "text": "these purchases through the",
      "start": 1065.45,
      "duration": 4.56
    },
    {
      "text": "economy and this props up the value of",
      "start": 1067.07,
      "duration": 5.76
    },
    {
      "text": "the Nasdaq the correlation here is zero",
      "start": 1070.01,
      "duration": 4.38
    },
    {
      "text": "point eight six which is even stronger",
      "start": 1072.83,
      "duration": 4.05
    },
    {
      "text": "than the previous graph",
      "start": 1074.39,
      "duration": 3.87
    },
    {
      "text": "so again Federal Reserve buying up a",
      "start": 1076.88,
      "duration": 2.79
    },
    {
      "text": "bunch of stuff propped up the value of",
      "start": 1078.26,
      "duration": 3.63
    },
    {
      "text": "the Nasdaq which means that most likely",
      "start": 1079.67,
      "duration": 3.51
    },
    {
      "text": "when they stop doing that which they",
      "start": 1081.89,
      "duration": 3.81
    },
    {
      "text": "have to do eventually it's going to",
      "start": 1083.18,
      "duration": 4.79
    },
    {
      "text": "crash",
      "start": 1085.7,
      "duration": 2.27
    },
    {
      "text": "so here S\u0026P 500 this is Standard \u0026 Poor",
      "start": 1088.15,
      "duration": 8.92
    },
    {
      "text": "500 top stocks around the world in",
      "start": 1092.57,
      "duration": 7.92
    },
    {
      "text": "America S\u0026P 500 and Fed assets so",
      "start": 1097.07,
      "duration": 6.15
    },
    {
      "text": "Federal Reserve total assets in S\u0026P 500",
      "start": 1100.49,
      "duration": 6.42
    },
    {
      "text": "index and again here you can see market",
      "start": 1103.22,
      "duration": 8.07
    },
    {
      "text": "is crashing and QE one comes into here",
      "start": 1106.91,
      "duration": 6.06
    },
    {
      "text": "here Elvis have another upper if you're",
      "start": 1111.29,
      "duration": 3.3
    },
    {
      "text": "feeling sleepy right I mean this is",
      "start": 1112.97,
      "duration": 3.27
    },
    {
      "text": "what's going on and you can see here",
      "start": 1114.59,
      "duration": 3.77
    },
    {
      "text": "goes lockstep this is a correlation of",
      "start": 1116.24,
      "duration": 6.12
    },
    {
      "text": "0.76 between these two things so my",
      "start": 1118.36,
      "duration": 5.26
    },
    {
      "text": "argument is you know if you want to know",
      "start": 1122.36,
      "duration": 2.64
    },
    {
      "text": "what's gonna happen to stock prices in",
      "start": 1123.62,
      "duration": 3.63
    },
    {
      "text": "the future watch what the Fed is buying",
      "start": 1125,
      "duration": 5.1
    },
    {
      "text": "and make your conclusions I guess",
      "start": 1127.25,
      "duration": 5.07
    },
    {
      "text": "accordingly but this is again all",
      "start": 1130.1,
      "duration": 5.55
    },
    {
      "text": "propped up I would argue by the the",
      "start": 1132.32,
      "duration": 4.89
    },
    {
      "text": "Federal Reserve right and as you can see",
      "start": 1135.65,
      "duration": 3.09
    },
    {
      "text": "here the reason I'm saying is course all",
      "start": 1137.21,
      "duration": 4.23
    },
    {
      "text": "mine if you look at QE one here in 2008",
      "start": 1138.74,
      "duration": 5.07
    },
    {
      "text": "they start buying and that later",
      "start": 1141.44,
      "duration": 4.44
    },
    {
      "text": "reverses right so they the stock price",
      "start": 1143.81,
      "duration": 4.14
    },
    {
      "text": "is going down the Fed starts buying up",
      "start": 1145.88,
      "duration": 5.07
    },
    {
      "text": "assets and then it starts to go up later",
      "start": 1147.95,
      "duration": 4.68
    },
    {
      "text": "it's not like it was recovering and then",
      "start": 1150.95,
      "duration": 3.09
    },
    {
      "text": "the Fed started ient so the Fed buying",
      "start": 1152.63,
      "duration": 3.24
    },
    {
      "text": "the asset see this big spike of QE one",
      "start": 1154.04,
      "duration": 4.59
    },
    {
      "text": "the Fed buying the assets slowly over",
      "start": 1155.87,
      "duration": 3.99
    },
    {
      "text": "time over a couple of months starts to",
      "start": 1158.63,
      "duration": 6.11
    },
    {
      "text": "reverse the S\u0026P 500",
      "start": 1159.86,
      "duration": 4.88
    },
    {
      "text": "now let's look at Bitcoin I've done a",
      "start": 1165.98,
      "duration": 7.27
    },
    {
      "text": "lot of conversations had a lot of",
      "start": 1171.93,
      "duration": 6.03
    },
    {
      "text": "conversations about bitcoins and here",
      "start": 1173.25,
      "duration": 6.6
    },
    {
      "text": "you can see I'm cooking around 300 to",
      "start": 1177.96,
      "duration": 4.44
    },
    {
      "text": "200 and January 2015 they have recently",
      "start": 1179.85,
      "duration": 5.76
    },
    {
      "text": "climbed in US dollars at a lower 450 and",
      "start": 1182.4,
      "duration": 6.72
    },
    {
      "text": "it is you know where it's going to go",
      "start": 1185.61,
      "duration": 7.53
    },
    {
      "text": "who knows but certainly as fiat currency",
      "start": 1189.12,
      "duration": 6.09
    },
    {
      "text": "becomes more unstable there is a strong",
      "start": 1193.14,
      "duration": 4.44
    },
    {
      "text": "argument to put assets in Bitcoin",
      "start": 1195.21,
      "duration": 3.9
    },
    {
      "text": "because Bitcoin or other digital",
      "start": 1197.58,
      "duration": 4.14
    },
    {
      "text": "currencies because they are limited in",
      "start": 1199.11,
      "duration": 4.47
    },
    {
      "text": "terms of how much can be produced right",
      "start": 1201.72,
      "duration": 3.27
    },
    {
      "text": "whatever is limited in terms of its",
      "start": 1203.58,
      "duration": 3.06
    },
    {
      "text": "production is going to be more stable",
      "start": 1204.99,
      "duration": 4.44
    },
    {
      "text": "over time one of the reasons why gold",
      "start": 1206.64,
      "duration": 5.22
    },
    {
      "text": "remains relatively stable I don't mean",
      "start": 1209.43,
      "duration": 3.87
    },
    {
      "text": "in terms of fiat currency I mean in",
      "start": 1211.86,
      "duration": 2.94
    },
    {
      "text": "terms of things that can buy one of the",
      "start": 1213.3,
      "duration": 2.67
    },
    {
      "text": "reasons the gold remains relatively",
      "start": 1214.8,
      "duration": 3.6
    },
    {
      "text": "stable is the amount of gold mined in",
      "start": 1215.97,
      "duration": 6.78
    },
    {
      "text": "any particular year tends to mirror the",
      "start": 1218.4,
      "duration": 7.02
    },
    {
      "text": "amount of increase in GDP right so if",
      "start": 1222.75,
      "duration": 4.08
    },
    {
      "text": "the world that's 2 percent GDP in",
      "start": 1225.42,
      "duration": 2.58
    },
    {
      "text": "general there's about two percent of",
      "start": 1226.83,
      "duration": 2.82
    },
    {
      "text": "gold added every year so gold remains",
      "start": 1228,
      "duration": 5.61
    },
    {
      "text": "relatively stable over time Bitcoin the",
      "start": 1229.65,
      "duration": 5.58
    },
    {
      "text": "argument will be of course and I was",
      "start": 1233.61,
      "duration": 4.47
    },
    {
      "text": "talking about Bitcoin way back in the",
      "start": 1235.23,
      "duration": 5.13
    },
    {
      "text": "day when it was pennies and recommending",
      "start": 1238.08,
      "duration": 4.32
    },
    {
      "text": "it back then so one of the things that",
      "start": 1240.36,
      "duration": 3.72
    },
    {
      "text": "you can look at here is where you think",
      "start": 1242.4,
      "duration": 3.99
    },
    {
      "text": "bitcoin is going to go as fiat currency",
      "start": 1244.08,
      "duration": 5.88
    },
    {
      "text": "the euro and the dollar in particular as",
      "start": 1246.39,
      "duration": 5.67
    },
    {
      "text": "they become more unstable and if the Fed",
      "start": 1249.96,
      "duration": 4.26
    },
    {
      "text": "stops doing these crazy asset purchases",
      "start": 1252.06,
      "duration": 3.56
    },
    {
      "text": "you're going to see a big crash in",
      "start": 1254.22,
      "duration": 4.11
    },
    {
      "text": "perhaps a crash in stock prices what's",
      "start": 1255.62,
      "duration": 6.13
    },
    {
      "text": "going to happen with bitcoins and this",
      "start": 1258.33,
      "duration": 5.76
    },
    {
      "text": "is yes it's important stuff to to",
      "start": 1261.75,
      "duration": 4.23
    },
    {
      "text": "understand I mean it's it's annoying to",
      "start": 1264.09,
      "duration": 3.99
    },
    {
      "text": "even have to know this stuff it really",
      "start": 1265.98,
      "duration": 6.09
    },
    {
      "text": "is but you know if if the wizard is",
      "start": 1268.08,
      "duration": 5.88
    },
    {
      "text": "calling fireballs to rain down randomly",
      "start": 1272.07,
      "duration": 3.9
    },
    {
      "text": "on your livestock well you kinda gonna",
      "start": 1273.96,
      "duration": 3.36
    },
    {
      "text": "have to study a little bit of magic to",
      "start": 1275.97,
      "duration": 3.27
    },
    {
      "text": "know what's coming next so this is all",
      "start": 1277.32,
      "duration": 3.69
    },
    {
      "text": "stuff it would be wonderful to not have",
      "start": 1279.24,
      "duration": 4.4
    },
    {
      "text": "to know absolutely anything about but",
      "start": 1281.01,
      "duration": 5.34
    },
    {
      "text": "unfortunately you do have to learn this",
      "start": 1283.64,
      "duration": 4.06
    },
    {
      "text": "stuff and you do have to talk about this",
      "start": 1286.35,
      "duration": 3.75
    },
    {
      "text": "stuff with people because it is it is",
      "start": 1287.7,
      "duration": 5.64
    },
    {
      "text": "important and so this cover-up right",
      "start": 1290.1,
      "duration": 6.09
    },
    {
      "text": "this big financial fraud and cover-up",
      "start": 1293.34,
      "duration": 3.99
    },
    {
      "text": "that is occurring throughout the world",
      "start": 1296.19,
      "duration": 2.58
    },
    {
      "text": "we're just talking particular in the you",
      "start": 1297.33,
      "duration": 4.59
    },
    {
      "text": "at the moment which is what is the value",
      "start": 1298.77,
      "duration": 6.48
    },
    {
      "text": "of your money what is the value of your",
      "start": 1301.92,
      "duration": 5.42
    },
    {
      "text": "money well the value of your money is",
      "start": 1305.25,
      "duration": 5.61
    },
    {
      "text": "that it's paper with ink it's not even",
      "start": 1307.34,
      "duration": 6.01
    },
    {
      "text": "that great to wipe your ass with unless",
      "start": 1310.86,
      "duration": 4.02
    },
    {
      "text": "you want to stay George Washington on",
      "start": 1313.35,
      "duration": 3.3
    },
    {
      "text": "your rectum it's not that great look at",
      "start": 1314.88,
      "duration": 3.36
    },
    {
      "text": "Zimbabwe with that billion-dollar",
      "start": 1316.65,
      "duration": 3.21
    },
    {
      "text": "multi-billion dollar bills look at why",
      "start": 1318.24,
      "duration": 4.53
    },
    {
      "text": "my Republic with the wheelbarrows of",
      "start": 1319.86,
      "duration": 4.29
    },
    {
      "text": "money to go buy a bread in the fact that",
      "start": 1322.77,
      "duration": 3.69
    },
    {
      "text": "people found it cheaper to burn their",
      "start": 1324.15,
      "duration": 4.05
    },
    {
      "text": "money for heat rather than go out and",
      "start": 1326.46,
      "duration": 4.98
    },
    {
      "text": "buy firewood if you look at what",
      "start": 1328.2,
      "duration": 4.41
    },
    {
      "text": "happened around the time of the French",
      "start": 1331.44,
      "duration": 3.72
    },
    {
      "text": "Revolution or with the money as soon as",
      "start": 1332.61,
      "duration": 5.01
    },
    {
      "text": "the government decouples money from any",
      "start": 1335.16,
      "duration": 4.08
    },
    {
      "text": "fixed commodity like gold or even",
      "start": 1337.62,
      "duration": 4.98
    },
    {
      "text": "Bitcoin what happens is they just go",
      "start": 1339.24,
      "duration": 7.53
    },
    {
      "text": "hog-wild on spending it is a unstoppable",
      "start": 1342.6,
      "duration": 6.12
    },
    {
      "text": "addiction at least unstoppable within",
      "start": 1346.77,
      "duration": 4.23
    },
    {
      "text": "the paradigm it stops eventually like",
      "start": 1348.72,
      "duration": 4.53
    },
    {
      "text": "even an addled coke addict stop stops",
      "start": 1351,
      "duration": 3.81
    },
    {
      "text": "when his heart stops hope it's gonna",
      "start": 1353.25,
      "duration": 2.88
    },
    {
      "text": "stop beforehand but it's not hugely",
      "start": 1354.81,
      "duration": 3.66
    },
    {
      "text": "likely in the later stages of addiction",
      "start": 1356.13,
      "duration": 5.15
    },
    {
      "text": "and we can see this with Paul Ryan's",
      "start": 1358.47,
      "duration": 5.61
    },
    {
      "text": "support an omnibus spending bill that",
      "start": 1361.28,
      "duration": 3.97
    },
    {
      "text": "added over a trillion dollars of",
      "start": 1364.08,
      "duration": 2.4
    },
    {
      "text": "spending at a time when the government",
      "start": 1365.25,
      "duration": 3.9
    },
    {
      "text": "is around 20 trillion dollars already in",
      "start": 1366.48,
      "duration": 5.1
    },
    {
      "text": "debt and the US government has some",
      "start": 1369.15,
      "duration": 5.34
    },
    {
      "text": "people have calculated up to 150 to 180",
      "start": 1371.58,
      "duration": 5.25
    },
    {
      "text": "trillion dollars of unfunded liabilities",
      "start": 1374.49,
      "duration": 3.69
    },
    {
      "text": "promises it made that it doesn't have",
      "start": 1376.83,
      "duration": 5.04
    },
    {
      "text": "the coin to cover and so you can only",
      "start": 1378.18,
      "duration": 6.45
    },
    {
      "text": "stave off reality for so long and the",
      "start": 1381.87,
      "duration": 5.52
    },
    {
      "text": "longer you stay off reality the worse it",
      "start": 1384.63,
      "duration": 5.55
    },
    {
      "text": "is if you have some strange lump in your",
      "start": 1387.39,
      "duration": 4.77
    },
    {
      "text": "body the longer you take to get to the",
      "start": 1390.18,
      "duration": 4.11
    },
    {
      "text": "doctor the worse your prognosis is most",
      "start": 1392.16,
      "duration": 5.01
    },
    {
      "text": "likely to be and so you really do need",
      "start": 1394.29,
      "duration": 4.74
    },
    {
      "text": "to examine this kind of stuff and talk",
      "start": 1397.17,
      "duration": 3.96
    },
    {
      "text": "about it with stuff talk about this",
      "start": 1399.03,
      "duration": 3.81
    },
    {
      "text": "stuff with people MIT it's Christmas",
      "start": 1401.13,
      "duration": 3.3
    },
    {
      "text": "time for getting together but really",
      "start": 1402.84,
      "duration": 3.48
    },
    {
      "text": "talk about stuff this is really",
      "start": 1404.43,
      "duration": 3.09
    },
    {
      "text": "important this is the foundation of",
      "start": 1406.32,
      "duration": 2.99
    },
    {
      "text": "civilization when money dies",
      "start": 1407.52,
      "duration": 3.99
    },
    {
      "text": "civilization dies because you go back to",
      "start": 1409.31,
      "duration": 5.11
    },
    {
      "text": "this Fight Club hunting deer in the",
      "start": 1411.51,
      "duration": 4.74
    },
    {
      "text": "canyons of abandoned office buildings",
      "start": 1414.42,
      "duration": 4.38
    },
    {
      "text": "trading sex for deer meat I mean it's",
      "start": 1416.25,
      "duration": 4.35
    },
    {
      "text": "just brutal but has the Dark Age is what",
      "start": 1418.8,
      "duration": 3.06
    },
    {
      "text": "happens when money dies and then the",
      "start": 1420.6,
      "duration": 2.22
    },
    {
      "text": "fall of the Roman Empire",
      "start": 1421.86,
      "duration": 2.61
    },
    {
      "text": "they also watered down the money by",
      "start": 1422.82,
      "duration": 3.36
    },
    {
      "text": "adding a bunch of junk metals to the",
      "start": 1424.47,
      "duration": 4.02
    },
    {
      "text": "silver and gold coins and this caused",
      "start": 1426.18,
      "duration": 4.95
    },
    {
      "text": "one of the big problems in the economy",
      "start": 1428.49,
      "duration": 3.67
    },
    {
      "text": "which ended up in the deep",
      "start": 1431.13,
      "duration": 2.86
    },
    {
      "text": "population of the city of Rome from a",
      "start": 1432.16,
      "duration": 4.35
    },
    {
      "text": "million to 18,000 in space of a year or",
      "start": 1433.99,
      "duration": 6.48
    },
    {
      "text": "two and so money is the foundation of",
      "start": 1436.51,
      "duration": 5.88
    },
    {
      "text": "civilization and the stability of money",
      "start": 1440.47,
      "duration": 3.99
    },
    {
      "text": "is the stability of civilization in all",
      "start": 1442.39,
      "duration": 6.63
    },
    {
      "text": "of these games and tricks that the Fed",
      "start": 1444.46,
      "duration": 6.54
    },
    {
      "text": "is doing to cover up the fact that the",
      "start": 1449.02,
      "duration": 3.99
    },
    {
      "text": "economic system has to put it mildly",
      "start": 1451,
      "duration": 5.22
    },
    {
      "text": "wildly miss allocated its capital and",
      "start": 1453.01,
      "duration": 5.55
    },
    {
      "text": "it's really tough when money starts to",
      "start": 1456.22,
      "duration": 4.98
    },
    {
      "text": "really lose its value what happens is",
      "start": 1458.56,
      "duration": 4.59
    },
    {
      "text": "people on welfare and people on fixed",
      "start": 1461.2,
      "duration": 4.29
    },
    {
      "text": "incomes start to run out of the capacity",
      "start": 1463.15,
      "duration": 5.79
    },
    {
      "text": "to eat it is it is really that serious",
      "start": 1465.49,
      "duration": 6.05
    },
    {
      "text": "and then what happens is they riot and",
      "start": 1468.94,
      "duration": 6.66
    },
    {
      "text": "then what happens is what what happens",
      "start": 1471.54,
      "duration": 5.89
    },
    {
      "text": "do you let the cities return to some",
      "start": 1475.6,
      "duration": 5.1
    },
    {
      "text": "escape from New York feral zone of Mad",
      "start": 1477.43,
      "duration": 5.13
    },
    {
      "text": "Max Thunder blades weapon across the sky",
      "start": 1480.7,
      "duration": 5.19
    },
    {
      "text": "who knows do you violate Posse Comitatus",
      "start": 1482.56,
      "duration": 5.4
    },
    {
      "text": "and have the army deploy to quell",
      "start": 1485.89,
      "duration": 3.54
    },
    {
      "text": "rioting in the inner cities or wherever",
      "start": 1487.96,
      "duration": 3.72
    },
    {
      "text": "it's occurring I don't know you get",
      "start": 1489.43,
      "duration": 3.63
    },
    {
      "text": "roving bands of people ranging through",
      "start": 1491.68,
      "duration": 3.21
    },
    {
      "text": "the countryside looking for any ear of",
      "start": 1493.06,
      "duration": 3.3
    },
    {
      "text": "corn they can rip out of a child's mouth",
      "start": 1494.89,
      "duration": 5.7
    },
    {
      "text": "I don't know but we must must must work",
      "start": 1496.36,
      "duration": 6.78
    },
    {
      "text": "to educate people on what money means",
      "start": 1500.59,
      "duration": 6.33
    },
    {
      "text": "and what happens when money dies human",
      "start": 1503.14,
      "duration": 8.91
    },
    {
      "text": "beings are an ecosystem of life held",
      "start": 1506.92,
      "duration": 8.99
    },
    {
      "text": "aloft solely by the stability of money",
      "start": 1512.05,
      "duration": 7.44
    },
    {
      "text": "in other words we have so many people in",
      "start": 1515.91,
      "duration": 6.06
    },
    {
      "text": "the world because at least there some",
      "start": 1519.49,
      "duration": 5.88
    },
    {
      "text": "even now illusory stability in terms of",
      "start": 1521.97,
      "duration": 6.67
    },
    {
      "text": "the value of money when the value of",
      "start": 1525.37,
      "duration": 6.87
    },
    {
      "text": "money collapses it's not just a I'll cut",
      "start": 1528.64,
      "duration": 9.51
    },
    {
      "text": "back its millions of people may die and",
      "start": 1532.24,
      "duration": 8.07
    },
    {
      "text": "this is not hyperbole this is an actual",
      "start": 1538.15,
      "duration": 3.93
    },
    {
      "text": "fact gleaned from the repetition of this",
      "start": 1540.31,
      "duration": 4.34
    },
    {
      "text": "kind of stuff throughout history people",
      "start": 1542.08,
      "duration": 4.95
    },
    {
      "text": "can't afford medicine people can't",
      "start": 1544.65,
      "duration": 5.82
    },
    {
      "text": "afford food people can't afford heating",
      "start": 1547.03,
      "duration": 7.47
    },
    {
      "text": "and my concern is that because people",
      "start": 1550.47,
      "duration": 6.19
    },
    {
      "text": "believe that the government is supposed",
      "start": 1554.5,
      "duration": 4.83
    },
    {
      "text": "to run money and everything else that",
      "start": 1556.66,
      "duration": 4.74
    },
    {
      "text": "happens is the free market people will",
      "start": 1559.33,
      "duration": 5.07
    },
    {
      "text": "blame the intermediaries between the",
      "start": 1561.4,
      "duration": 4.11
    },
    {
      "text": "consumer and the government",
      "start": 1564.4,
      "duration": 3.6
    },
    {
      "text": "right so when the government screws up",
      "start": 1565.51,
      "duration": 4.74
    },
    {
      "text": "the value of money then the prices at",
      "start": 1568,
      "duration": 3.96
    },
    {
      "text": "your local grocery store and the prices",
      "start": 1570.25,
      "duration": 3.6
    },
    {
      "text": "for your heating and all of that they",
      "start": 1571.96,
      "duration": 3.24
    },
    {
      "text": "will go up and you'll get mad at those",
      "start": 1573.85,
      "duration": 2.819
    },
    {
      "text": "companies who are merely passing along",
      "start": 1575.2,
      "duration": 3.18
    },
    {
      "text": "the costs of collapsing and raped",
      "start": 1576.669,
      "duration": 4.591
    },
    {
      "text": "government money value then people will",
      "start": 1578.38,
      "duration": 7.32
    },
    {
      "text": "then say freedom has failed what we need",
      "start": 1581.26,
      "duration": 7.98
    },
    {
      "text": "now is the Iron Fist of government to",
      "start": 1585.7,
      "duration": 8.46
    },
    {
      "text": "set things right what happened after the",
      "start": 1589.24,
      "duration": 9.51
    },
    {
      "text": "Weimar Republic was Hitler and the only",
      "start": 1594.16,
      "duration": 7.019
    },
    {
      "text": "way to stave off that descent into",
      "start": 1598.75,
      "duration": 5.34
    },
    {
      "text": "fascism or the communism is to educate",
      "start": 1601.179,
      "duration": 5.011
    },
    {
      "text": "people and say that the problem when the",
      "start": 1604.09,
      "duration": 4.41
    },
    {
      "text": "value of money collapses is not money",
      "start": 1606.19,
      "duration": 4.67
    },
    {
      "text": "and it's not freedom",
      "start": 1608.5,
      "duration": 5.61
    },
    {
      "text": "it is the absolute political horror of",
      "start": 1610.86,
      "duration": 6.49
    },
    {
      "text": "allowing sociopaths with bottomless",
      "start": 1614.11,
      "duration": 6.689
    },
    {
      "text": "satanic greed to control money to",
      "start": 1617.35,
      "duration": 5.97
    },
    {
      "text": "control people and to destroy freedom",
      "start": 1620.799,
      "duration": 4.111
    },
    {
      "text": "and we must pry that power from the",
      "start": 1623.32,
      "duration": 3.84
    },
    {
      "text": "hands of the state with arguments with",
      "start": 1624.91,
      "duration": 6.72
    },
    {
      "text": "reason with compassion in order to pass",
      "start": 1627.16,
      "duration": 6.99
    },
    {
      "text": "along the freedoms that we inherited",
      "start": 1631.63,
      "duration": 6.419
    },
    {
      "text": "from our parents to our own children and",
      "start": 1634.15,
      "duration": 7.08
    },
    {
      "text": "if we fail in that task not only well",
      "start": 1638.049,
      "duration": 5.691
    },
    {
      "text": "history never forgive us",
      "start": 1641.23,
      "duration": 4.62
    },
    {
      "text": "but we will have no right to forgive",
      "start": 1643.74,
      "duration": 5.67
    },
    {
      "text": "ourselves either",
      "start": 1645.85,
      "duration": 3.56
    }
  ],
  "Errors": null,
  "TranscriptStderr": null
}