[
    {
        "start": "2.389",
        "dur": "2.561",
        "text": "good morning everybody hope you're doing"
    },
    {
        "start": "4.65",
        "dur": "4.56",
        "text": "well"
    },
    {
        "start": "4.95",
        "dur": "7.14",
        "text": "Steph it is the 29th of December 2006"
    },
    {
        "start": "9.21",
        "dur": "5.639",
        "text": "hello back to the YouTube people i"
    },
    {
        "start": "12.09",
        "dur": "6.33",
        "text": "posting again i've done quite a series"
    },
    {
        "start": "14.849",
        "dur": "7.02",
        "text": "of audio only podcasts but i thought"
    },
    {
        "start": "18.42",
        "dur": "8.24",
        "text": "that today the topic was interesting and"
    },
    {
        "start": "21.869",
        "dur": "8.371",
        "text": "important enough to throw back a few"
    },
    {
        "start": "26.66",
        "dur": "6.04",
        "text": "pictures on the web so welcome back to"
    },
    {
        "start": "30.24",
        "dur": "4.44",
        "text": "the big chatty forehead's morning drive"
    },
    {
        "start": "32.7",
        "dur": "5.129",
        "text": "I hope that you're doing well I hope you"
    },
    {
        "start": "34.68",
        "dur": "5.85",
        "text": "had a lovely Christmas and the best of a"
    },
    {
        "start": "37.829",
        "dur": "5.401",
        "text": "best Happy New Year to everyone out"
    },
    {
        "start": "40.53",
        "dur": "6.029",
        "text": "there on the internet who strives for"
    },
    {
        "start": "43.23",
        "dur": "4.44",
        "text": "truth wisdom and understanding so the"
    },
    {
        "start": "46.559",
        "dur": "3.84",
        "text": "topic I'd like to chat about this"
    },
    {
        "start": "47.67",
        "dur": "5.13",
        "text": "morning is what some people have"
    },
    {
        "start": "50.399",
        "dur": "5.55",
        "text": "described and I think quite accurately"
    },
    {
        "start": "52.8",
        "dur": "6",
        "text": "as the single best idea in the history"
    },
    {
        "start": "55.949",
        "dur": "6.691",
        "text": "of the planet and it is an absolutely"
    },
    {
        "start": "58.8",
        "dur": "5.91",
        "text": "wonderful idea I would say that it is"
    },
    {
        "start": "62.64",
        "dur": "3.51",
        "text": "the second best in some way maybe the"
    },
    {
        "start": "64.71",
        "dur": "3.12",
        "text": "third best I would say number one is"
    },
    {
        "start": "66.15",
        "dur": "6.09",
        "text": "logic number two is the free market but"
    },
    {
        "start": "67.83",
        "dur": "6.06",
        "text": "number three not so much for any of the"
    },
    {
        "start": "72.24",
        "dur": "4.71",
        "text": "multifarious benefits that it is"
    },
    {
        "start": "73.89",
        "dur": "7.85",
        "text": "bestowed upon humanity directly but as a"
    },
    {
        "start": "76.95",
        "dur": "7.23",
        "text": "way of illuminating the world and are"
    },
    {
        "start": "81.74",
        "dur": "5.53",
        "text": "providing a powerful answer to the"
    },
    {
        "start": "84.18",
        "dur": "7.5",
        "text": "argument from design and that is the"
    },
    {
        "start": "87.27",
        "dur": "7.2",
        "text": "theory of evolution one see Darwin from"
    },
    {
        "start": "91.68",
        "dur": "5.009",
        "text": "the Beagle that's given us an incredible"
    },
    {
        "start": "94.47",
        "dur": "6.829",
        "text": "intellectual treasure in the theory of"
    },
    {
        "start": "96.689",
        "dur": "7.5",
        "text": "evolution and it is something that I"
    },
    {
        "start": "101.299",
        "dur": "6.61",
        "text": "leaned quite a bit upon Richard Dawkins"
    },
    {
        "start": "104.189",
        "dur": "5.491",
        "text": "and near-perfect atheist who's written"
    },
    {
        "start": "107.909",
        "dur": "3.96",
        "text": "some wonderful books on this topic The"
    },
    {
        "start": "109.68",
        "dur": "4.799",
        "text": "Selfish Gene the blind watchmaker and"
    },
    {
        "start": "111.869",
        "dur": "6.451",
        "text": "currently you might want to have a"
    },
    {
        "start": "114.479",
        "dur": "7.041",
        "text": "listen to or a read of a fine book"
    },
    {
        "start": "118.32",
        "dur": "7.589",
        "text": "called The God Delusion"
    },
    {
        "start": "121.52",
        "dur": "6.82",
        "text": "which he takes a a very good run at"
    },
    {
        "start": "125.909",
        "dur": "5.431",
        "text": "religion I don't think that he's quite"
    },
    {
        "start": "128.34",
        "dur": "6",
        "text": "successful that could be my era and"
    },
    {
        "start": "131.34",
        "dur": "5.009",
        "text": "he willing to be wrong in the face of"
    },
    {
        "start": "134.34",
        "dur": "5.34",
        "text": "somebody like Richard Dawkins but we'll"
    },
    {
        "start": "136.349",
        "dur": "6.631",
        "text": "talk about that another time but what he"
    },
    {
        "start": "139.68",
        "dur": "4.919",
        "text": "does do is explain the theory of"
    },
    {
        "start": "142.98",
        "dur": "4.38",
        "text": "evolution with some wonderful metaphors"
    },
    {
        "start": "144.599",
        "dur": "4.381",
        "text": "and I'll throw in some of my own and"
    },
    {
        "start": "147.36",
        "dur": "4.26",
        "text": "we'll talk a little bit about this"
    },
    {
        "start": "148.98",
        "dur": "8.009",
        "text": "absolutely astounding and and and"
    },
    {
        "start": "151.62",
        "dur": "8.46",
        "text": "wonderful intellectual construct the"
    },
    {
        "start": "156.989",
        "dur": "7.461",
        "text": "great challenge of course for those who"
    },
    {
        "start": "160.08",
        "dur": "6.749",
        "text": "wish to explain the complexities and the"
    },
    {
        "start": "164.45",
        "dur": "5.44",
        "text": "delicate ecosystem of the natural world"
    },
    {
        "start": "166.829",
        "dur": "4.531",
        "text": "the challenge has always been well how"
    },
    {
        "start": "169.89",
        "dur": "2.159",
        "text": "can we have a watch without a mobile"
    },
    {
        "start": "171.36",
        "dur": "2.58",
        "text": "watchmaker"
    },
    {
        "start": "172.049",
        "dur": "3.601",
        "text": "that's why Richard Dawkins entitled one"
    },
    {
        "start": "173.94",
        "dur": "3.329",
        "text": "of his books the blind watchmaker one"
    },
    {
        "start": "175.65",
        "dur": "8.699",
        "text": "sec I have to clean my glasses all kind"
    },
    {
        "start": "177.269",
        "dur": "13.31",
        "text": "of thing see there's a reason I'm in a"
    },
    {
        "start": "184.349",
        "dur": "6.23",
        "text": "car or not a studio but"
    },
    {
        "start": "191.98",
        "dur": "3.899",
        "text": "the idea that something is complex and"
    },
    {
        "start": "194.709",
        "dur": "2.791",
        "text": "there's things that are always put"
    },
    {
        "start": "195.879",
        "dur": "3.69",
        "text": "forward at these kinds of contexts such"
    },
    {
        "start": "197.5",
        "dur": "4.44",
        "text": "as the human eye and it's incredible"
    },
    {
        "start": "199.569",
        "dur": "4.471",
        "text": "ability to adjust to light to focus on"
    },
    {
        "start": "201.94",
        "dur": "5.31",
        "text": "different objects to resist disease and"
    },
    {
        "start": "204.04",
        "dur": "6.57",
        "text": "so on the human eye is given as an"
    },
    {
        "start": "207.25",
        "dur": "4.98",
        "text": "example of the fact that there must have"
    },
    {
        "start": "210.61",
        "dur": "3.75",
        "text": "been a designer you can't have something"
    },
    {
        "start": "212.23",
        "dur": "3.6",
        "text": "as complex as the human eye or let alone"
    },
    {
        "start": "214.36",
        "dur": "3.9",
        "text": "the human brain without there being a"
    },
    {
        "start": "215.83",
        "dur": "6.84",
        "text": "designer some physicist who's not a"
    },
    {
        "start": "218.26",
        "dur": "9.539",
        "text": "biologist put it Vesely he said that the"
    },
    {
        "start": "222.67",
        "dur": "6.51",
        "text": "chances of random selection of what he"
    },
    {
        "start": "227.799",
        "dur": "2.97",
        "text": "termed evolution which is an incorrect"
    },
    {
        "start": "229.18",
        "dur": "5.73",
        "text": "characterization which we'll get to in a"
    },
    {
        "start": "230.769",
        "dur": "6.991",
        "text": "second what he termed random selection"
    },
    {
        "start": "234.91",
        "dur": "5.189",
        "text": "the chances of that assembling a living"
    },
    {
        "start": "237.76",
        "dur": "5.339",
        "text": "organism that can reproduce and feed and"
    },
    {
        "start": "240.099",
        "dur": "7.911",
        "text": "excrete and so on it's about the same as"
    },
    {
        "start": "243.099",
        "dur": "12.091",
        "text": "of a wind blowing through a scrapyard"
    },
    {
        "start": "248.01",
        "dur": "10.5",
        "text": "assembling a giant 747 because many"
    },
    {
        "start": "255.19",
        "dur": "5.639",
        "text": "people look upon evolution as chance and"
    },
    {
        "start": "258.51",
        "dur": "3.19",
        "text": "evolution is not random and evolution is"
    },
    {
        "start": "260.829",
        "dur": "6.681",
        "text": "not chance"
    },
    {
        "start": "261.7",
        "dur": "8.64",
        "text": "evolution is entirely purposeful and"
    },
    {
        "start": "267.51",
        "dur": "6.73",
        "text": "while no biologist I think I can at"
    },
    {
        "start": "270.34",
        "dur": "5.85",
        "text": "least get some of the basic straight the"
    },
    {
        "start": "274.24",
        "dur": "4.86",
        "text": "basics of life of course is replicating"
    },
    {
        "start": "276.19",
        "dur": "4.949",
        "text": "DNA DNA is that you know four strand"
    },
    {
        "start": "279.1",
        "dur": "5.97",
        "text": "double helix that Watson and Crick"
    },
    {
        "start": "281.139",
        "dur": "5.851",
        "text": "discovered in the 50s and which we all"
    },
    {
        "start": "285.07",
        "dur": "6.09",
        "text": "had to learn in high school for reasons"
    },
    {
        "start": "286.99",
        "dur": "6.36",
        "text": "that we could not understand and this"
    },
    {
        "start": "291.16",
        "dur": "5.069",
        "text": "replicating DNA is really the entire"
    },
    {
        "start": "293.35",
        "dur": "5.01",
        "text": "purpose of life and many people get this"
    },
    {
        "start": "296.229",
        "dur": "3.991",
        "text": "confused and they say well human race"
    },
    {
        "start": "298.36",
        "dur": "3.6",
        "text": "the human race has a desire to reproduce"
    },
    {
        "start": "300.22",
        "dur": "4.08",
        "text": "itself and I mean that's true at a sort"
    },
    {
        "start": "301.96",
        "dur": "5.639",
        "text": "of emotional level but that's not what's"
    },
    {
        "start": "304.3",
        "dur": "5.22",
        "text": "actually occurring your little toe wants"
    },
    {
        "start": "307.599",
        "dur": "5.311",
        "text": "to reproduce itself or more specifically"
    },
    {
        "start": "309.52",
        "dur": "4.829",
        "text": "the genes which go into producing your"
    },
    {
        "start": "312.91",
        "dur": "5.28",
        "text": "little toe want to reproduce themselves"
    },
    {
        "start": "314.349",
        "dur": "5.451",
        "text": "and your little toe is using you to"
    },
    {
        "start": "318.19",
        "dur": "4.59",
        "text": "reproduce more little toes"
    },
    {
        "start": "319.8",
        "dur": "5.53",
        "text": "so it's each one of our genes that"
    },
    {
        "start": "322.78",
        "dur": "4.77",
        "text": "wishes to reproduce itself and we am"
    },
    {
        "start": "325.33",
        "dur": "6.869",
        "text": "the most efficient mechanism for doing"
    },
    {
        "start": "327.55",
        "dur": "6.66",
        "text": "so and that's a very very important"
    },
    {
        "start": "332.199",
        "dur": "3.81",
        "text": "thing to understand it's the gene in"
    },
    {
        "start": "334.21",
        "dur": "3.81",
        "text": "your little toe that wants to make more"
    },
    {
        "start": "336.009",
        "dur": "3.84",
        "text": "little toes it doesn't care about"
    },
    {
        "start": "338.02",
        "dur": "4.59",
        "text": "anything else the gene in your little"
    },
    {
        "start": "339.849",
        "dur": "4.801",
        "text": "toe doesn't care about the liver and it"
    },
    {
        "start": "342.61",
        "dur": "3.54",
        "text": "will serve the liver if it can simply"
    },
    {
        "start": "344.65",
        "dur": "4.32",
        "text": "because that will help it reproduce"
    },
    {
        "start": "346.15",
        "dur": "6.69",
        "text": "itself all the better so it is a really"
    },
    {
        "start": "348.97",
        "dur": "6.479",
        "text": "micro atomic level that the theory of"
    },
    {
        "start": "352.84",
        "dur": "4.47",
        "text": "natural selection works it doesn't work"
    },
    {
        "start": "355.449",
        "dur": "3.451",
        "text": "in terms of species it doesn't work in"
    },
    {
        "start": "357.31",
        "dur": "6.75",
        "text": "terms of eyeballs it doesn't but it"
    },
    {
        "start": "358.9",
        "dur": "7.62",
        "text": "works in terms of DNA so this desire for"
    },
    {
        "start": "364.06",
        "dur": "5.46",
        "text": "of DNA to reproduce itself over and over"
    },
    {
        "start": "366.52",
        "dur": "5.19",
        "text": "and over again and for the most"
    },
    {
        "start": "369.52",
        "dur": "4.56",
        "text": "successful methodologies for reproducing"
    },
    {
        "start": "371.71",
        "dur": "6.209",
        "text": "itself to win out over a multi billion"
    },
    {
        "start": "374.08",
        "dur": "5.67",
        "text": "year time frame is really the basis I"
    },
    {
        "start": "377.919",
        "dur": "3.75",
        "text": "mean that's not the basis that Darwin"
    },
    {
        "start": "379.75",
        "dur": "4.65",
        "text": "put forward because he didn't know about"
    },
    {
        "start": "381.669",
        "dur": "7.071",
        "text": "DNA of course but it is the real basis"
    },
    {
        "start": "384.4",
        "dur": "6.75",
        "text": "of the theory of evolution is this"
    },
    {
        "start": "388.74",
        "dur": "4.87",
        "text": "reproducibility the desire for DNA to"
    },
    {
        "start": "391.15",
        "dur": "6.15",
        "text": "reproduce itself and desire in the in"
    },
    {
        "start": "393.61",
        "dur": "10.77",
        "text": "the most loosely used term way of using"
    },
    {
        "start": "397.3",
        "dur": "11.64",
        "text": "it now the reason that this is not"
    },
    {
        "start": "404.38",
        "dur": "9.33",
        "text": "random is there are two three major"
    },
    {
        "start": "408.94",
        "dur": "6.93",
        "text": "factors that inhibit invite the"
    },
    {
        "start": "413.71",
        "dur": "4.62",
        "text": "biological organisms from failing to"
    },
    {
        "start": "415.87",
        "dur": "4.259",
        "text": "reproduce inhibit from failing there's a"
    },
    {
        "start": "418.33",
        "dur": "4.23",
        "text": "double negative sorry about that"
    },
    {
        "start": "420.129",
        "dur": "4.921",
        "text": "let me weed that one out as far as a"
    },
    {
        "start": "422.56",
        "dur": "6.21",
        "text": "metaphor goes in the ecosystem of my"
    },
    {
        "start": "425.05",
        "dur": "5.07",
        "text": "metaphor creation there's no intelligent"
    },
    {
        "start": "428.77",
        "dur": "4.259",
        "text": "design sometimes there I'll tell you"
    },
    {
        "start": "430.12",
        "dur": "4.59",
        "text": "that much there are three things which"
    },
    {
        "start": "433.029",
        "dur": "5.551",
        "text": "are going to largely inhibit now this is"
    },
    {
        "start": "434.71",
        "dur": "5.73",
        "text": "I mean there's if there is the internal"
    },
    {
        "start": "438.58",
        "dur": "5.639",
        "text": "ailment illness or ailments right so"
    },
    {
        "start": "440.44",
        "dur": "5.81",
        "text": "those organisms which do not create an"
    },
    {
        "start": "444.219",
        "dur": "4.41",
        "text": "immune system or some way of repelling"
    },
    {
        "start": "446.25",
        "dur": "4.9",
        "text": "invasions from viruses and bacteria and"
    },
    {
        "start": "448.629",
        "dur": "3.991",
        "text": "so on are going to fail the bacteria are"
    },
    {
        "start": "451.15",
        "dur": "4.46",
        "text": "going to do nicely in the same way that"
    },
    {
        "start": "452.62",
        "dur": "6.3",
        "text": "an antelope fails when a lion succeeds"
    },
    {
        "start": "455.61",
        "dur": "5.77",
        "text": "so there's internal threats"
    },
    {
        "start": "458.92",
        "dur": "4.29",
        "text": "the environment itself so just think of"
    },
    {
        "start": "461.38",
        "dur": "5.07",
        "text": "the woolly mammoth in a global warming"
    },
    {
        "start": "463.21",
        "dur": "8.19",
        "text": "situation it either loses its massive"
    },
    {
        "start": "466.45",
        "dur": "6.63",
        "text": "fur or it's going to overheat and die so"
    },
    {
        "start": "471.4",
        "dur": "3.6",
        "text": "when there is a change in the"
    },
    {
        "start": "473.08",
        "dur": "2.94",
        "text": "environment mammals of course do"
    },
    {
        "start": "475",
        "dur": "2.55",
        "text": "slightly better because they can"
    },
    {
        "start": "476.02",
        "dur": "5.58",
        "text": "regulate their own body temperatures in"
    },
    {
        "start": "477.55",
        "dur": "5.73",
        "text": "a way that reptiles and fish cannot if"
    },
    {
        "start": "481.6",
        "dur": "3.24",
        "text": "you've ever had those really sensitive"
    },
    {
        "start": "483.28",
        "dur": "3.51",
        "text": "tropical fish you have like two degrees"
    },
    {
        "start": "484.84",
        "dur": "4.59",
        "text": "of variance allowable in their water you"
    },
    {
        "start": "486.79",
        "dur": "4.77",
        "text": "know what I'm talking about and then of"
    },
    {
        "start": "489.43",
        "dur": "5.76",
        "text": "course there's predators right those"
    },
    {
        "start": "491.56",
        "dur": "5.31",
        "text": "sharks and antelopes and viruses which"
    },
    {
        "start": "495.19",
        "dur": "3.45",
        "text": "are going to attack and attempt to eat"
    },
    {
        "start": "496.87",
        "dur": "7.98",
        "text": "the organism flesh-eating virus isn't"
    },
    {
        "start": "498.64",
        "dur": "7.83",
        "text": "this sort of stuff and this I guess is a"
    },
    {
        "start": "504.85",
        "dur": "3.93",
        "text": "fourth interacting with the environment"
    },
    {
        "start": "506.47",
        "dur": "4.89",
        "text": "right so all of these things can both"
    },
    {
        "start": "508.78",
        "dur": "5.16",
        "text": "negatively and positively select the"
    },
    {
        "start": "511.36",
        "dur": "7.109",
        "text": "carrier for an individual DNA for"
    },
    {
        "start": "513.94",
        "dur": "6.18",
        "text": "reproductive success it's not the human"
    },
    {
        "start": "518.469",
        "dur": "3.661",
        "text": "being that is selected for reproductive"
    },
    {
        "start": "520.12",
        "dur": "3.99",
        "text": "success it is the DNA that constitutes"
    },
    {
        "start": "522.13",
        "dur": "4.29",
        "text": "the human being that is selected for"
    },
    {
        "start": "524.11",
        "dur": "3.72",
        "text": "reproductive success so it occurs that"
    },
    {
        "start": "526.42",
        "dur": "2.58",
        "text": "are much more you know there's"
    },
    {
        "start": "527.83",
        "dur": "4.05",
        "text": "macroeconomics and there's"
    },
    {
        "start": "529",
        "dur": "4.35",
        "text": "microeconomics macroeconomics is just"
    },
    {
        "start": "531.88",
        "dur": "2.94",
        "text": "another way of describing microeconomics"
    },
    {
        "start": "533.35",
        "dur": "2.67",
        "text": "except to the degree that it's"
    },
    {
        "start": "534.82",
        "dur": "3.45",
        "text": "government intervention in which case"
    },
    {
        "start": "536.02",
        "dur": "6.72",
        "text": "it's women based totalitarianism but get"
    },
    {
        "start": "538.27",
        "dur": "5.88",
        "text": "into that another time and so evolution"
    },
    {
        "start": "542.74",
        "dur": "6.33",
        "text": "is really occurring at the micro level"
    },
    {
        "start": "544.15",
        "dur": "7.56",
        "text": "at the DNA level so the reason that"
    },
    {
        "start": "549.07",
        "dur": "4.95",
        "text": "people use these metaphors like a"
    },
    {
        "start": "551.71",
        "dur": "7.23",
        "text": "junkyard blowing together as scraps of"
    },
    {
        "start": "554.02",
        "dur": "7.08",
        "text": "junk in order to and have it create a"
    },
    {
        "start": "558.94",
        "dur": "4.14",
        "text": "747 and the absurdity of all of that is"
    },
    {
        "start": "561.1",
        "dur": "3.75",
        "text": "thinking that the eyeball is just"
    },
    {
        "start": "563.08",
        "dur": "4.56",
        "text": "assembled randomly by Nature"
    },
    {
        "start": "564.85",
        "dur": "4.2",
        "text": "and that's not the case at all of course"
    },
    {
        "start": "567.64",
        "dur": "2.67",
        "text": "right I mean everybody who's read up on"
    },
    {
        "start": "569.05",
        "dur": "3.6",
        "text": "evolution knows that but it's worth"
    },
    {
        "start": "570.31",
        "dur": "3.93",
        "text": "going over again briefly Richard Dawkins"
    },
    {
        "start": "572.65",
        "dur": "4.2",
        "text": "uses a metaphor that I think is quite"
    },
    {
        "start": "574.24",
        "dur": "5.16",
        "text": "good look at me blowing every metaphor"
    },
    {
        "start": "576.85",
        "dur": "4.71",
        "text": "in the podcast and then putting forward"
    },
    {
        "start": "579.4",
        "dur": "4.17",
        "text": "cautious praise for a very good one by"
    },
    {
        "start": "581.56",
        "dur": "7.5",
        "text": "Richard Dawkins so apologies to all"
    },
    {
        "start": "583.57",
        "dur": "7.62",
        "text": "Dickey D mmm Dickie Dee's"
    },
    {
        "start": "589.06",
        "dur": "3.75",
        "text": "I've only had one coffee this morning so"
    },
    {
        "start": "591.19",
        "dur": "7.26",
        "text": "my focus is a little off but I shall"
    },
    {
        "start": "592.81",
        "dur": "8.01",
        "text": "survive so he says that the reason that"
    },
    {
        "start": "598.45",
        "dur": "4.41",
        "text": "people get confused is they think that"
    },
    {
        "start": "600.82",
        "dur": "8.28",
        "text": "there's this plateau like a very high"
    },
    {
        "start": "602.86",
        "dur": "9.63",
        "text": "mountain called VI ball and in this very"
    },
    {
        "start": "609.1",
        "dur": "8.13",
        "text": "high mountain to to achieve the summit"
    },
    {
        "start": "612.49",
        "dur": "7.17",
        "text": "of this very high mountain you have one"
    },
    {
        "start": "617.23",
        "dur": "4.77",
        "text": "of two ways of getting up there just you"
    },
    {
        "start": "619.66",
        "dur": "6.06",
        "text": "as a human being so on one side is a"
    },
    {
        "start": "622",
        "dur": "6.63",
        "text": "sheer cliff face that goes up for 5,000"
    },
    {
        "start": "625.72",
        "dur": "5.76",
        "text": "feet and it's icy and there are Eagles"
    },
    {
        "start": "628.63",
        "dur": "6.36",
        "text": "pecking at you and it's hellishly windy"
    },
    {
        "start": "631.48",
        "dur": "5.04",
        "text": "and it hails and so on and you're"
    },
    {
        "start": "634.99",
        "dur": "3.69",
        "text": "standing at the top at the bottom of"
    },
    {
        "start": "636.52",
        "dur": "4.14",
        "text": "that looking up at this 5000 foot crag"
    },
    {
        "start": "638.68",
        "dur": "3.96",
        "text": "face with attacking Eagles and"
    },
    {
        "start": "640.66",
        "dur": "3.42",
        "text": "hailstones saying well you can't just"
    },
    {
        "start": "642.64",
        "dur": "4.05",
        "text": "jump up to the top of that it's"
    },
    {
        "start": "644.08",
        "dur": "6.08",
        "text": "absolutely impossible so anything that's"
    },
    {
        "start": "646.69",
        "dur": "3.47",
        "text": "up there must have been put there by God"
    },
    {
        "start": "650.64",
        "dur": "4.8",
        "text": "where it's on the other side if you walk"
    },
    {
        "start": "652.93",
        "dur": "6.42",
        "text": "around the mountain on the other side"
    },
    {
        "start": "655.44",
        "dur": "5.53",
        "text": "it's a very gentle slope that goes on"
    },
    {
        "start": "659.35",
        "dur": "4.8",
        "text": "for miles and miles which allows you to"
    },
    {
        "start": "660.97",
        "dur": "6.69",
        "text": "walk very easily up to the top fairly"
    },
    {
        "start": "664.15",
        "dur": "5.31",
        "text": "easily the only problem I have with the"
    },
    {
        "start": "667.66",
        "dur": "5.4",
        "text": "metaphor is that it should actually be"
    },
    {
        "start": "669.46",
        "dur": "5.1",
        "text": "downhill somehow because uphill is still"
    },
    {
        "start": "673.06",
        "dur": "7.53",
        "text": "an effort whereas natural selection is"
    },
    {
        "start": "674.56",
        "dur": "9.06",
        "text": "like a ball rolling downhill so people"
    },
    {
        "start": "680.59",
        "dur": "5.1",
        "text": "look at natural selection as if it"
    },
    {
        "start": "683.62",
        "dur": "5.4",
        "text": "randomly blows together junk to create a"
    },
    {
        "start": "685.69",
        "dur": "6.21",
        "text": "747 or randomly blows together chemicals"
    },
    {
        "start": "689.02",
        "dur": "5.42",
        "text": "and cells to create the eye the optic"
    },
    {
        "start": "691.9",
        "dur": "4.65",
        "text": "nerve the optic centerís and so on and"
    },
    {
        "start": "694.44",
        "dur": "5.11",
        "text": "they say well that's just not possible"
    },
    {
        "start": "696.55",
        "dur": "4.17",
        "text": "you you look at the final product or not"
    },
    {
        "start": "699.55",
        "dur": "5.28",
        "text": "the final product of course we're still"
    },
    {
        "start": "700.72",
        "dur": "6.96",
        "text": "evolving you look at the current product"
    },
    {
        "start": "704.83",
        "dur": "4.38",
        "text": "of a multi billion year evolutionary"
    },
    {
        "start": "707.68",
        "dur": "3.42",
        "text": "process I think it's five billion years"
    },
    {
        "start": "709.21",
        "dur": "3.81",
        "text": "or so on there's been going on and you"
    },
    {
        "start": "711.1",
        "dur": "3.9",
        "text": "say this incredible complexity cannot"
    },
    {
        "start": "713.02",
        "dur": "8.22",
        "text": "have arise in arisen out of blind chance"
    },
    {
        "start": "715",
        "dur": "9.67",
        "text": "well of course it doesn't in evolution"
    },
    {
        "start": "721.24",
        "dur": "7.18",
        "text": "everything which succeeds slightly more"
    },
    {
        "start": "724.67",
        "dur": "8.909",
        "text": "than that which came before is selected"
    },
    {
        "start": "728.42",
        "dur": "13.709",
        "text": "for a slight increase in reproductive"
    },
    {
        "start": "733.579",
        "dur": "14.61",
        "text": "success so if you are G here I'm good"
    },
    {
        "start": "742.129",
        "dur": "7.051",
        "text": "too freely here I'm really going to hear"
    },
    {
        "start": "748.189",
        "dur": "6.031",
        "text": "I'm really going to show my ignorance"
    },
    {
        "start": "749.18",
        "dur": "7.11",
        "text": "right but let's just say that you are a"
    },
    {
        "start": "754.22",
        "dur": "2.52",
        "text": "fish you somewhere between a fish and a"
    },
    {
        "start": "756.29",
        "dur": "2.219",
        "text": "shock"
    },
    {
        "start": "756.74",
        "dur": "4.589",
        "text": "I know sharks the kind of fish but and"
    },
    {
        "start": "758.509",
        "dur": "4.231",
        "text": "you have a dorsal you have no dorsal fin"
    },
    {
        "start": "761.329",
        "dur": "3.961",
        "text": "and that means that you kind of roll"
    },
    {
        "start": "762.74",
        "dur": "4.23",
        "text": "around in the ocean it's tougher for you"
    },
    {
        "start": "765.29",
        "dur": "3.479",
        "text": "to zero in on your prey and it's harder"
    },
    {
        "start": "766.97",
        "dur": "7.289",
        "text": "for you to avoid any other predators"
    },
    {
        "start": "768.769",
        "dur": "7.17",
        "text": "particularly when you are young so if"
    },
    {
        "start": "774.259",
        "dur": "3.83",
        "text": "you get a slightly if there's some"
    },
    {
        "start": "775.939",
        "dur": "5.19",
        "text": "mutation that produces a slightly stubby"
    },
    {
        "start": "778.089",
        "dur": "8.531",
        "text": "dorsal fin that gives you a 2% chance"
    },
    {
        "start": "781.129",
        "dur": "7.32",
        "text": "better survival rate then there's going"
    },
    {
        "start": "786.62",
        "dur": "3.329",
        "text": "to be 2% more of those genes that get"
    },
    {
        "start": "788.449",
        "dur": "2.82",
        "text": "reproduced and again if you look at this"
    },
    {
        "start": "789.949",
        "dur": "3.421",
        "text": "over a couple of generations it means"
    },
    {
        "start": "791.269",
        "dur": "4.5",
        "text": "nothing but if you look at it over"
    },
    {
        "start": "793.37",
        "dur": "5.63",
        "text": "billions and billions of years then it's"
    },
    {
        "start": "795.769",
        "dur": "7.92",
        "text": "not to mean something quite important"
    },
    {
        "start": "799",
        "dur": "6.009",
        "text": "and so there's an optimum size for the"
    },
    {
        "start": "803.689",
        "dur": "5.791",
        "text": "dorsal fin and maybe it's been reached"
    },
    {
        "start": "805.009",
        "dur": "6.27",
        "text": "and maybe it hasn't but if the shark so"
    },
    {
        "start": "809.48",
        "dur": "3.479",
        "text": "every shot gets a larger dorsal fin gets"
    },
    {
        "start": "811.279",
        "dur": "3.42",
        "text": "greater accuracy and so on but then at"
    },
    {
        "start": "812.959",
        "dur": "3.57",
        "text": "some point the dorsal fin just gets too"
    },
    {
        "start": "814.699",
        "dur": "5.791",
        "text": "large or there are two dorsal fins or"
    },
    {
        "start": "816.529",
        "dur": "7.821",
        "text": "something like that in which case then"
    },
    {
        "start": "820.49",
        "dur": "5.969",
        "text": "you become negatively selected for"
    },
    {
        "start": "824.35",
        "dur": "5.109",
        "text": "survival in which case the dorsal fin"
    },
    {
        "start": "826.459",
        "dur": "4.141",
        "text": "size sort of stabilizes if you think"
    },
    {
        "start": "829.459",
        "dur": "2.75",
        "text": "about this of course in terms of"
    },
    {
        "start": "830.6",
        "dur": "5.429",
        "text": "giraffes as well giraffes have long"
    },
    {
        "start": "832.209",
        "dur": "5.17",
        "text": "necks because you've got a ep you're"
    },
    {
        "start": "836.029",
        "dur": "4.141",
        "text": "doing a lot better if you can eat the"
    },
    {
        "start": "837.379",
        "dur": "6.33",
        "text": "higher hanging fruit or leaves I think"
    },
    {
        "start": "840.17",
        "dur": "5.909",
        "text": "they eat leaves but there's some optimal"
    },
    {
        "start": "843.709",
        "dur": "3.42",
        "text": "size for a giraffe's neck so for"
    },
    {
        "start": "846.079",
        "dur": "4.921",
        "text": "instance when if you've seen those"
    },
    {
        "start": "847.129",
        "dur": "5.491",
        "text": "pictures of giraffes eating out sorry"
    },
    {
        "start": "851",
        "dur": "3.41",
        "text": "drinking they spread their front legs"
    },
    {
        "start": "852.62",
        "dur": "3.71",
        "text": "and they dip their heads down"
    },
    {
        "start": "854.41",
        "dur": "4.26",
        "text": "and there's quite a complicated valve"
    },
    {
        "start": "856.33",
        "dur": "6.3",
        "text": "mechanism that goes on between the heart"
    },
    {
        "start": "858.67",
        "dur": "8.28",
        "text": "and the head of the giraffe we're in the"
    },
    {
        "start": "862.63",
        "dur": "5.58",
        "text": "giraffe is because normally it has to"
    },
    {
        "start": "866.95",
        "dur": "2.91",
        "text": "pump an enormous amount of blood up to"
    },
    {
        "start": "868.21",
        "dur": "3.51",
        "text": "the top of the head that's a quite a"
    },
    {
        "start": "869.86",
        "dur": "4.17",
        "text": "gravity well to go up the giraffe's neck"
    },
    {
        "start": "871.72",
        "dur": "4.02",
        "text": "so when it puts its head down why"
    },
    {
        "start": "874.03",
        "dur": "5.97",
        "text": "doesn't it pump way too much blood and"
    },
    {
        "start": "875.74",
        "dur": "6.12",
        "text": "the drafts heads explode well because"
    },
    {
        "start": "880",
        "dur": "4.26",
        "text": "when the head goes down a complicated"
    },
    {
        "start": "881.86",
        "dur": "4.2",
        "text": "set of volved reduces the blood flow to"
    },
    {
        "start": "884.26",
        "dur": "3.03",
        "text": "the head so that gravity does the work"
    },
    {
        "start": "886.06",
        "dur": "3.03",
        "text": "of getting the blood to the head and you"
    },
    {
        "start": "887.29",
        "dur": "4.11",
        "text": "don't need to keep use gravity plus all"
    },
    {
        "start": "889.09",
        "dur": "4.97",
        "text": "of the stuff to make the head blow up"
    },
    {
        "start": "891.4",
        "dur": "6.81",
        "text": "right and all of this sort of stuff is"
    },
    {
        "start": "894.06",
        "dur": "6.16",
        "text": "selected and there is a cost and a"
    },
    {
        "start": "898.21",
        "dur": "7.08",
        "text": "benefit to each of these particular"
    },
    {
        "start": "900.22",
        "dur": "9.05",
        "text": "selections so a giraffe it that has a"
    },
    {
        "start": "905.29",
        "dur": "6.12",
        "text": "slightly longer head is going to do well"
    },
    {
        "start": "909.27",
        "dur": "5.95",
        "text": "because it's going to be able to get to"
    },
    {
        "start": "911.41",
        "dur": "8.04",
        "text": "higher leaves on a tree however a"
    },
    {
        "start": "915.22",
        "dur": "6.39",
        "text": "giraffe with a 90 foot long neck is not"
    },
    {
        "start": "919.45",
        "dur": "4.7",
        "text": "going to have the muscular strength or"
    },
    {
        "start": "921.61",
        "dur": "4.68",
        "text": "it's going to consume more energy in"
    },
    {
        "start": "924.15",
        "dur": "3.49",
        "text": "keeping the head erect then it's going"
    },
    {
        "start": "926.29",
        "dur": "3.6",
        "text": "to gain from the additional leaves"
    },
    {
        "start": "927.64",
        "dur": "4.44",
        "text": "because I'm guessing but when the neck"
    },
    {
        "start": "929.89",
        "dur": "3.96",
        "text": "gets longer the energy consumption goes"
    },
    {
        "start": "932.08",
        "dur": "7.89",
        "text": "up not in a linear but more in an"
    },
    {
        "start": "933.85",
        "dur": "7.83",
        "text": "asymptotic fashion so there is a kind of"
    },
    {
        "start": "939.97",
        "dur": "3.93",
        "text": "stability that is arrived at in just"
    },
    {
        "start": "941.68",
        "dur": "3.66",
        "text": "about any ecosystem just as in the"
    },
    {
        "start": "943.9",
        "dur": "3.03",
        "text": "absence of government intervention there"
    },
    {
        "start": "945.34",
        "dur": "3.87",
        "text": "is a stability that has arrived at with"
    },
    {
        "start": "946.93",
        "dur": "6.05",
        "text": "individual exceptions and overall in an"
    },
    {
        "start": "949.21",
        "dur": "3.77",
        "text": "economic system in a free market system"
    },
    {
        "start": "953.16",
        "dur": "5.86",
        "text": "now the other metaphor that is - other"
    },
    {
        "start": "957.13",
        "dur": "4.32",
        "text": "metaphors the Dawkins uses that I would"
    },
    {
        "start": "959.02",
        "dur": "4.32",
        "text": "really sort of pass along to you with"
    },
    {
        "start": "961.45",
        "dur": "3.84",
        "text": "all respect to Dickey D and also with"
    },
    {
        "start": "963.34",
        "dur": "4.08",
        "text": "the suggestion to read his books which"
    },
    {
        "start": "965.29",
        "dur": "4.17",
        "text": "are just fascinating and his his"
    },
    {
        "start": "967.42",
        "dur": "3.63",
        "text": "presentation skills are very very good"
    },
    {
        "start": "969.46",
        "dur": "5.94",
        "text": "as well he's a very warm and pleasant"
    },
    {
        "start": "971.05",
        "dur": "7.02",
        "text": "presenter and a very good writer but he"
    },
    {
        "start": "975.4",
        "dur": "5.31",
        "text": "says that if there's some incredibly"
    },
    {
        "start": "978.07",
        "dur": "5.63",
        "text": "complicated bank vault that has some"
    },
    {
        "start": "980.71",
        "dur": "2.99",
        "text": "incredibly complicated"
    },
    {
        "start": "984.139",
        "dur": "7.781",
        "text": "dial mechanism for getting into it"
    },
    {
        "start": "986.939",
        "dur": "6.661",
        "text": "combination lock then expecting and you"
    },
    {
        "start": "991.92",
        "dur": "5.219",
        "text": "have to go through 50 sequences"
    },
    {
        "start": "993.6",
        "dur": "4.89",
        "text": "correctly to get it right expecting that"
    },
    {
        "start": "997.139",
        "dur": "3.901",
        "text": "people are just gonna randomly spin the"
    },
    {
        "start": "998.49",
        "dur": "6.57",
        "text": "dial and get into the vault of course is"
    },
    {
        "start": "1001.04",
        "dur": "5.609",
        "text": "absurd right because each of the 50 I"
    },
    {
        "start": "1005.06",
        "dur": "3.66",
        "text": "think it's squared I've been a while"
    },
    {
        "start": "1006.649",
        "dur": "3.75",
        "text": "since I've taken any stats but I think"
    },
    {
        "start": "1008.72",
        "dur": "3.15",
        "text": "they're squared so the chance is 50"
    },
    {
        "start": "1010.399",
        "dur": "5.13",
        "text": "times 50 times 50 but it becomes"
    },
    {
        "start": "1011.87",
        "dur": "6.42",
        "text": "ridiculously bad that you are going to"
    },
    {
        "start": "1015.529",
        "dur": "6",
        "text": "be able to do it so bad so that when I"
    },
    {
        "start": "1018.29",
        "dur": "6.84",
        "text": "go to the gym I have a lock that has 60"
    },
    {
        "start": "1021.529",
        "dur": "5.13",
        "text": "and 360 does 18 hundred times so that's"
    },
    {
        "start": "1025.13",
        "dur": "3.029",
        "text": "that's all you need for reasonable"
    },
    {
        "start": "1026.659",
        "dur": "3.54",
        "text": "levels of security at a gym and a bank"
    },
    {
        "start": "1028.159",
        "dur": "3.721",
        "text": "vault with 50 and of course an I has"
    },
    {
        "start": "1030.199",
        "dur": "5.521",
        "text": "like five thousand or five million or"
    },
    {
        "start": "1031.88",
        "dur": "6.63",
        "text": "whatever expecting people to spin these"
    },
    {
        "start": "1035.72",
        "dur": "6.479",
        "text": "in sequence all at once with no feedback"
    },
    {
        "start": "1038.51",
        "dur": "6.12",
        "text": "is to leap from single cells to human"
    },
    {
        "start": "1042.199",
        "dur": "4.201",
        "text": "brain right to leap up that cliff face"
    },
    {
        "start": "1044.63",
        "dur": "4.409",
        "text": "to go from single cell to human brain"
    },
    {
        "start": "1046.4",
        "dur": "4.55",
        "text": "and clearly that doesn't make any sense"
    },
    {
        "start": "1049.039",
        "dur": "7.111",
        "text": "I mean the odds of that occurring are"
    },
    {
        "start": "1050.95",
        "dur": "6.55",
        "text": "slim to none but that's not what happens"
    },
    {
        "start": "1056.15",
        "dur": "8.22",
        "text": "with evolution what happens with"
    },
    {
        "start": "1057.5",
        "dur": "10.799",
        "text": "evolution is that every time somebody"
    },
    {
        "start": "1064.37",
        "dur": "6.75",
        "text": "spins that dial they hear a click if"
    },
    {
        "start": "1068.299",
        "dur": "5.701",
        "text": "it's the right number right"
    },
    {
        "start": "1071.12",
        "dur": "4.38",
        "text": "it works incrementally and yes the odds"
    },
    {
        "start": "1074",
        "dur": "3.99",
        "text": "are spinning that dial and landing on"
    },
    {
        "start": "1075.5",
        "dur": "5.1",
        "text": "the 50 each time is only one in 50 but"
    },
    {
        "start": "1077.99",
        "dur": "4.89",
        "text": "we're talking billions of years small"
    },
    {
        "start": "1080.6",
        "dur": "6.15",
        "text": "but possible chances accumulated over"
    },
    {
        "start": "1082.88",
        "dur": "9.84",
        "text": "billions of years can result in enormous"
    },
    {
        "start": "1086.75",
        "dur": "7.71",
        "text": "complexity and a seeming watchmaker the"
    },
    {
        "start": "1092.72",
        "dur": "5.329",
        "text": "complexity I if the complexity of the AI"
    },
    {
        "start": "1094.46",
        "dur": "3.589",
        "text": "is a seeming watchmaker"
    },
    {
        "start": "1099.259",
        "dur": "10.39",
        "text": "and so if our imaginary evolutionary"
    },
    {
        "start": "1104.07",
        "dur": "7.8",
        "text": "bank vault thief guy is listening and"
    },
    {
        "start": "1109.649",
        "dur": "3.99",
        "text": "spinning that dial and he hears he spins"
    },
    {
        "start": "1111.87",
        "dur": "5.909",
        "text": "randomly right he doesn't get to turn it"
    },
    {
        "start": "1113.639",
        "dur": "6.75",
        "text": "in check he spins randomly but when it's"
    },
    {
        "start": "1117.779",
        "dur": "5.4",
        "text": "the correct number he hears a click he"
    },
    {
        "start": "1120.389",
        "dur": "7.77",
        "text": "writes it down and that number is not"
    },
    {
        "start": "1123.179",
        "dur": "6.151",
        "text": "lost again he's past that hurdle so he's"
    },
    {
        "start": "1128.159",
        "dur": "3.811",
        "text": "done number one so then he spins"
    },
    {
        "start": "1129.33",
        "dur": "4.41",
        "text": "randomly again and after roughly 50"
    },
    {
        "start": "1131.97",
        "dur": "4.35",
        "text": "tries he hears another click and he gets"
    },
    {
        "start": "1133.74",
        "dur": "5.85",
        "text": "to move on how long is it going to take"
    },
    {
        "start": "1136.32",
        "dur": "5.64",
        "text": "him to get into the vault well not very"
    },
    {
        "start": "1139.59",
        "dur": "5.13",
        "text": "long an hour maybe an hour half"
    },
    {
        "start": "1141.96",
        "dur": "5.459",
        "text": "something that became that was initially"
    },
    {
        "start": "1144.72",
        "dur": "4.199",
        "text": "impossible which is without any feedback"
    },
    {
        "start": "1147.419",
        "dur": "6.151",
        "text": "getting all the numbers in sequence"
    },
    {
        "start": "1148.919",
        "dur": "8.041",
        "text": "correct to get into the bank vault has"
    },
    {
        "start": "1153.57",
        "dur": "4.859",
        "text": "now become inevitable and frankly"
    },
    {
        "start": "1156.96",
        "dur": "3.63",
        "text": "relatively easy I think most bank"
    },
    {
        "start": "1158.429",
        "dur": "3.6",
        "text": "robbers would be very happy if that was"
    },
    {
        "start": "1160.59",
        "dur": "3.66",
        "text": "the case in fact I think that they get"
    },
    {
        "start": "1162.029",
        "dur": "4.801",
        "text": "those if Hollywood movies are to be"
    },
    {
        "start": "1164.25",
        "dur": "6.179",
        "text": "believed and I'm sure that they are then"
    },
    {
        "start": "1166.83",
        "dur": "5.04",
        "text": "bank robbers get those stethoscopes and"
    },
    {
        "start": "1170.429",
        "dur": "3.95",
        "text": "listen for the click of the tumblers"
    },
    {
        "start": "1171.87",
        "dur": "4.74",
        "text": "that tell them they're on the right path"
    },
    {
        "start": "1174.379",
        "dur": "4.27",
        "text": "that's what makes it easy and I'm sure"
    },
    {
        "start": "1176.61",
        "dur": "3.63",
        "text": "that there are massive sound dampeners"
    },
    {
        "start": "1178.649",
        "dur": "5.4",
        "text": "and felt and whatever they put in there"
    },
    {
        "start": "1180.24",
        "dur": "8.669",
        "text": "to make them inaudible right the clicks"
    },
    {
        "start": "1184.049",
        "dur": "6.33",
        "text": "of the lock so something which against"
    },
    {
        "start": "1188.909",
        "dur": "2.61",
        "text": "which the odds were enormous and the"
    },
    {
        "start": "1190.379",
        "dur": "3.42",
        "text": "chances of success were almost"
    },
    {
        "start": "1191.519",
        "dur": "5.01",
        "text": "infinitesimal one indepth trillion or"
    },
    {
        "start": "1193.799",
        "dur": "5.61",
        "text": "something like that suddenly becomes the"
    },
    {
        "start": "1196.529",
        "dur": "7.85",
        "text": "tidy work of an hour or so and eminently"
    },
    {
        "start": "1199.409",
        "dur": "8.25",
        "text": "possible because with evolution it's not"
    },
    {
        "start": "1204.379",
        "dur": "5.231",
        "text": "everything happening in sequence and the"
    },
    {
        "start": "1207.659",
        "dur": "5.691",
        "text": "odds accumulated all at once it's just"
    },
    {
        "start": "1209.61",
        "dur": "6.179",
        "text": "every single step that moves forward"
    },
    {
        "start": "1213.35",
        "dur": "6.22",
        "text": "that is selected for success has to be"
    },
    {
        "start": "1215.789",
        "dur": "5.311",
        "text": "the basis of any other step and that's"
    },
    {
        "start": "1219.57",
        "dur": "4.41",
        "text": "why one of the negative tests for"
    },
    {
        "start": "1221.1",
        "dur": "4.77",
        "text": "evolution that intelligent design"
    },
    {
        "start": "1223.98",
        "dur": "5.789",
        "text": "advocates are constantly searching for"
    },
    {
        "start": "1225.87",
        "dur": "6.57",
        "text": "is an organ or an organism or a"
    },
    {
        "start": "1229.769",
        "dur": "6.991",
        "text": "biological attribute without precedence"
    },
    {
        "start": "1232.44",
        "dur": "7.2",
        "text": "without precedence so yeah the human"
    },
    {
        "start": "1236.76",
        "dur": "4.98",
        "text": "brain monkey has a brain duckbill"
    },
    {
        "start": "1239.64",
        "dur": "5.34",
        "text": "platypus has a brain mosquito has a"
    },
    {
        "start": "1241.74",
        "dur": "4.86",
        "text": "brain so there's there's there's"
    },
    {
        "start": "1244.98",
        "dur": "3.99",
        "text": "precedence for it and you can see the"
    },
    {
        "start": "1246.6",
        "dur": "8.67",
        "text": "step ups in evolutionary terms of the"
    },
    {
        "start": "1248.97",
        "dur": "8.16",
        "text": "brain and every organ that you can find"
    },
    {
        "start": "1255.27",
        "dur": "5.63",
        "text": "every biological attribute that you can"
    },
    {
        "start": "1257.13",
        "dur": "6.75",
        "text": "find you can find some level of"
    },
    {
        "start": "1260.9",
        "dur": "6.7",
        "text": "precedent for it some simpler form of it"
    },
    {
        "start": "1263.88",
        "dur": "6.39",
        "text": "some preform of it if a computer popped"
    },
    {
        "start": "1267.6",
        "dur": "4.23",
        "text": "into existence I mean let's get really"
    },
    {
        "start": "1270.27",
        "dur": "4.2",
        "text": "gross and say that some duck-billed"
    },
    {
        "start": "1271.83",
        "dur": "6.15",
        "text": "platypus gave birth to a working"
    },
    {
        "start": "1274.47",
        "dur": "5.88",
        "text": "computer then a biologist would have a"
    },
    {
        "start": "1277.98",
        "dur": "5.1",
        "text": "bit of a tricky time that would be a"
    },
    {
        "start": "1280.35",
        "dur": "4.59",
        "text": "little bit tough to explain how a fully"
    },
    {
        "start": "1283.08",
        "dur": "4.47",
        "text": "assembled computer came out of the womb"
    },
    {
        "start": "1284.94",
        "dur": "6.62",
        "text": "of a duckbill platypus because there's"
    },
    {
        "start": "1287.55",
        "dur": "7.11",
        "text": "no precedents for it and there are some"
    },
    {
        "start": "1291.56",
        "dur": "6.46",
        "text": "little wheels and little you know pseudo"
    },
    {
        "start": "1294.66",
        "dur": "7.02",
        "text": "motors that occur in bacteria and so on"
    },
    {
        "start": "1298.02",
        "dur": "5.73",
        "text": "but each of those component parts has"
    },
    {
        "start": "1301.68",
        "dur": "3.93",
        "text": "precedence and the combination is"
    },
    {
        "start": "1303.75",
        "dur": "5.04",
        "text": "economic is it's a biologically viable"
    },
    {
        "start": "1305.61",
        "dur": "5.07",
        "text": "and beneficial so this does not dispute"
    },
    {
        "start": "1308.79",
        "dur": "3.33",
        "text": "the theory of evolution at all by the"
    },
    {
        "start": "1310.68",
        "dur": "3.96",
        "text": "way it's a little bit more than a theory"
    },
    {
        "start": "1312.12",
        "dur": "4.2",
        "text": "right now it's called the theory right I"
    },
    {
        "start": "1314.64",
        "dur": "3.06",
        "text": "mean this is people get confused and"
    },
    {
        "start": "1316.32",
        "dur": "2.82",
        "text": "they're creationists will say ah but"
    },
    {
        "start": "1317.7",
        "dur": "3.48",
        "text": "it's only a theory and it's like well"
    },
    {
        "start": "1319.14",
        "dur": "3.57",
        "text": "that's true and there are theories of"
    },
    {
        "start": "1321.18",
        "dur": "2.97",
        "text": "gravity as well but that doesn't mean"
    },
    {
        "start": "1322.71",
        "dur": "2.88",
        "text": "that gravity doesn't exist there are"
    },
    {
        "start": "1324.15",
        "dur": "3.09",
        "text": "theories of evolution there is a theory"
    },
    {
        "start": "1325.59",
        "dur": "4.17",
        "text": "of evolution but that doesn't mean that"
    },
    {
        "start": "1327.24",
        "dur": "4.32",
        "text": "it's not proven the theory of evolution"
    },
    {
        "start": "1329.76",
        "dur": "5.34",
        "text": "is about as proven as things get in"
    },
    {
        "start": "1331.56",
        "dur": "6.66",
        "text": "science there has been no instance found"
    },
    {
        "start": "1335.1",
        "dur": "5.01",
        "text": "despite about 150 plus years of"
    },
    {
        "start": "1338.22",
        "dur": "4.5",
        "text": "searching there has been no instance"
    },
    {
        "start": "1340.11",
        "dur": "5.19",
        "text": "found of something which has accrued in"
    },
    {
        "start": "1342.72",
        "dur": "6.66",
        "text": "an evolutionary sense which did not have"
    },
    {
        "start": "1345.3",
        "dur": "5.34",
        "text": "a prior precedent and the proofs you"
    },
    {
        "start": "1349.38",
        "dur": "2.46",
        "text": "could go on and on right and I've"
    },
    {
        "start": "1350.64",
        "dur": "4.44",
        "text": "mentioned some of these before in the"
    },
    {
        "start": "1351.84",
        "dur": "6.33",
        "text": "show but there is the fact that whales"
    },
    {
        "start": "1355.08",
        "dur": "4.83",
        "text": "have hind quarters hind legs even though"
    },
    {
        "start": "1358.17",
        "dur": "4.08",
        "text": "they haven't walked on land in hundreds"
    },
    {
        "start": "1359.91",
        "dur": "5.13",
        "text": "of millions of years human beings of"
    },
    {
        "start": "1362.25",
        "dur": "4.14",
        "text": "course have appendices despite the fact"
    },
    {
        "start": "1365.04",
        "dur": "4.02",
        "text": "that we haven't used them"
    },
    {
        "start": "1366.39",
        "dur": "4.59",
        "text": "for our diet in Lord knows how long Lord"
    },
    {
        "start": "1369.06",
        "dur": "7.95",
        "text": "does probably know how long let's let's"
    },
    {
        "start": "1370.98",
        "dur": "9.93",
        "text": "go back to that that evolution in terms"
    },
    {
        "start": "1377.01",
        "dur": "6.06",
        "text": "of moths has been observed such as when"
    },
    {
        "start": "1380.91",
        "dur": "4.38",
        "text": "in England when the coal factories in"
    },
    {
        "start": "1383.07",
        "dur": "5.52",
        "text": "the 19th century began belching forth"
    },
    {
        "start": "1385.29",
        "dur": "6.48",
        "text": "their satanic soot there was a natural"
    },
    {
        "start": "1388.59",
        "dur": "5.52",
        "text": "selection towards moths on a docker"
    },
    {
        "start": "1391.77",
        "dur": "3.48",
        "text": "trees I'm sorry dr. moths on trees"
    },
    {
        "start": "1394.11",
        "dur": "2.58",
        "text": "because the trees themselves were"
    },
    {
        "start": "1395.25",
        "dur": "3.48",
        "text": "getting darker because of the coating of"
    },
    {
        "start": "1396.69",
        "dur": "4.2",
        "text": "soot and so it's very easy to see that"
    },
    {
        "start": "1398.73",
        "dur": "4.37",
        "text": "as the environment changed the moths"
    },
    {
        "start": "1400.89",
        "dur": "4.8",
        "text": "that were naturally darker and thus more"
    },
    {
        "start": "1403.1",
        "dur": "4.18",
        "text": "invisible to predators were the ones"
    },
    {
        "start": "1405.69",
        "dur": "4.17",
        "text": "naturally selected for survival and you"
    },
    {
        "start": "1407.28",
        "dur": "5.01",
        "text": "could watch relatively quickly the moths"
    },
    {
        "start": "1409.86",
        "dur": "3.84",
        "text": "becoming darker right which means"
    },
    {
        "start": "1412.29",
        "dur": "3.15",
        "text": "doesn't mean that the gene for lightness"
    },
    {
        "start": "1413.7",
        "dur": "4.38",
        "text": "completely disappears completely it just"
    },
    {
        "start": "1415.44",
        "dur": "4.05",
        "text": "means that it becomes recessive or you"
    },
    {
        "start": "1418.08",
        "dur": "3.54",
        "text": "know I guess at some point maybe it does"
    },
    {
        "start": "1419.49",
        "dur": "4.14",
        "text": "I don't know enough about biology to be"
    },
    {
        "start": "1421.62",
        "dur": "4.74",
        "text": "able to answer that but you can see this"
    },
    {
        "start": "1423.63",
        "dur": "3.93",
        "text": "kind of stuff occurring all the time you"
    },
    {
        "start": "1426.36",
        "dur": "2.49",
        "text": "can even see it in the development of"
    },
    {
        "start": "1427.56",
        "dur": "2.76",
        "text": "the human fetus and we all code through"
    },
    {
        "start": "1428.85",
        "dur": "4.32",
        "text": "this fish stage we actually have gills"
    },
    {
        "start": "1430.32",
        "dur": "5.34",
        "text": "for time before we settle on being human"
    },
    {
        "start": "1433.17",
        "dur": "4.71",
        "text": "and then finally on our gender we all"
    },
    {
        "start": "1435.66",
        "dur": "5.58",
        "text": "start as women and then a massive dose"
    },
    {
        "start": "1437.88",
        "dur": "5.13",
        "text": "of hormones turns us into men if that is"
    },
    {
        "start": "1441.24",
        "dur": "6.54",
        "text": "if such as to be our destiny to have the"
    },
    {
        "start": "1443.01",
        "dur": "6.78",
        "text": "dangly bits but that is really the most"
    },
    {
        "start": "1447.78",
        "dur": "5.85",
        "text": "powerful explanation of the complexity"
    },
    {
        "start": "1449.79",
        "dur": "6.95",
        "text": "of the world that we know of the last"
    },
    {
        "start": "1453.63",
        "dur": "5.61",
        "text": "thing that I'll say relative to this"
    },
    {
        "start": "1456.74",
        "dur": "3.67",
        "text": "this topic just just for now I mean it's"
    },
    {
        "start": "1459.24",
        "dur": "3.87",
        "text": "definitely worth looking into it is"
    },
    {
        "start": "1460.41",
        "dur": "4.92",
        "text": "absolutely a crowning triumph of human"
    },
    {
        "start": "1463.11",
        "dur": "4.35",
        "text": "intellectual achievement and possibly"
    },
    {
        "start": "1465.33",
        "dur": "3.81",
        "text": "one of the most non intuitive leaps of"
    },
    {
        "start": "1467.46",
        "dur": "3.87",
        "text": "logic in the history of the planet other"
    },
    {
        "start": "1469.14",
        "dur": "4.2",
        "text": "than the free market right everyone"
    },
    {
        "start": "1471.33",
        "dur": "5.31",
        "text": "likes to think that there's central"
    },
    {
        "start": "1473.34",
        "dur": "5.16",
        "text": "organization before the distribution or"
    },
    {
        "start": "1476.64",
        "dur": "3.9",
        "text": "the dissemination of goods and services"
    },
    {
        "start": "1478.5",
        "dur": "3.54",
        "text": "and capital central organization is"
    },
    {
        "start": "1480.54",
        "dur": "3.21",
        "text": "going to make things work when it's"
    },
    {
        "start": "1482.04",
        "dur": "3.72",
        "text": "quite the opposite central organization"
    },
    {
        "start": "1483.75",
        "dur": "5.52",
        "text": "destroys the wealth creating capacities"
    },
    {
        "start": "1485.76",
        "dur": "6.51",
        "text": "of capitalism and the free market not"
    },
    {
        "start": "1489.27",
        "dur": "5.13",
        "text": "only is it morally beneficial but it"
    },
    {
        "start": "1492.27",
        "dur": "4.71",
        "text": "also creates the most efficient and"
    },
    {
        "start": "1494.4",
        "dur": "4.47",
        "text": "positive allocation of resources whether"
    },
    {
        "start": "1496.98",
        "dur": "2.16",
        "text": "those resources are leisure or capital"
    },
    {
        "start": "1498.87",
        "dur": "1.98",
        "text": "or"
    },
    {
        "start": "1499.14",
        "dur": "6.81",
        "text": "or whatever doesn't really matter as"
    },
    {
        "start": "1500.85",
        "dur": "6.81",
        "text": "much but this theory of evolution it's"
    },
    {
        "start": "1505.95",
        "dur": "3.66",
        "text": "well worth simmering on and thinking"
    },
    {
        "start": "1507.66",
        "dur": "3.48",
        "text": "about and mulling over and going over in"
    },
    {
        "start": "1509.61",
        "dur": "4.71",
        "text": "your mind it is just an absolutely"
    },
    {
        "start": "1511.14",
        "dur": "4.95",
        "text": "magical it is magical I mean insofar as"
    },
    {
        "start": "1514.32",
        "dur": "3.359",
        "text": "if you don't mind me using the term not"
    },
    {
        "start": "1516.09",
        "dur": "4.41",
        "text": "in any sort of mystical or superstitious"
    },
    {
        "start": "1517.679",
        "dur": "5.011",
        "text": "sense but just in terms of how amazingly"
    },
    {
        "start": "1520.5",
        "dur": "3.78",
        "text": "non-intuitive it is I mean it is not"
    },
    {
        "start": "1522.69",
        "dur": "2.88",
        "text": "intuitive in a sense as the world is"
    },
    {
        "start": "1524.28",
        "dur": "3.09",
        "text": "round and spinning through the galaxy"
    },
    {
        "start": "1525.57",
        "dur": "3.989",
        "text": "which is one of a hundred billion"
    },
    {
        "start": "1527.37",
        "dur": "3.6",
        "text": "galaxies and the Sun and the moon of the"
    },
    {
        "start": "1529.559",
        "dur": "3.541",
        "text": "same size and all the stuff that comes"
    },
    {
        "start": "1530.97",
        "dur": "2.85",
        "text": "from the heliocentric model of the solar"
    },
    {
        "start": "1533.1",
        "dur": "3.3",
        "text": "system"
    },
    {
        "start": "1533.82",
        "dur": "4.59",
        "text": "that's pretty non-intuitive to the fact"
    },
    {
        "start": "1536.4",
        "dur": "4.32",
        "text": "that not controlling how people use"
    },
    {
        "start": "1538.41",
        "dur": "4.22",
        "text": "their property results as Adam Smith"
    },
    {
        "start": "1540.72",
        "dur": "4.65",
        "text": "says in the invisible hand which guides"
    },
    {
        "start": "1542.63",
        "dur": "5.83",
        "text": "capital labor and goods to their best"
    },
    {
        "start": "1545.37",
        "dur": "4.65",
        "text": "and most productive uses that doesn't"
    },
    {
        "start": "1548.46",
        "dur": "3.69",
        "text": "really make any sense right to be"
    },
    {
        "start": "1550.02",
        "dur": "4.17",
        "text": "selfish with your property in the long"
    },
    {
        "start": "1552.15",
        "dur": "3.51",
        "text": "run helps the poor more than to give"
    },
    {
        "start": "1554.19",
        "dur": "2.94",
        "text": "away your property totally non-intuitive"
    },
    {
        "start": "1555.66",
        "dur": "3.3",
        "text": "but of course if you know if the world"
    },
    {
        "start": "1557.13",
        "dur": "4.53",
        "text": "were easy we wouldn't need science and"
    },
    {
        "start": "1558.96",
        "dur": "5.88",
        "text": "we wouldn't need logic so it is a very"
    },
    {
        "start": "1561.66",
        "dur": "9.2",
        "text": "non-intuitive thing to say that there is"
    },
    {
        "start": "1564.84",
        "dur": "9.36",
        "text": "incredible complexity that arises from a"
    },
    {
        "start": "1570.86",
        "dur": "6.76",
        "text": "long long long series of minor"
    },
    {
        "start": "1574.2",
        "dur": "5.13",
        "text": "advantageous mutations or chances now"
    },
    {
        "start": "1577.62",
        "dur": "4.439",
        "text": "the last thing which I care I'll mention"
    },
    {
        "start": "1579.33",
        "dur": "5.7",
        "text": "about this is the answer that's put"
    },
    {
        "start": "1582.059",
        "dur": "5.601",
        "text": "forward by religious types is this"
    },
    {
        "start": "1585.03",
        "dur": "5.25",
        "text": "intelligent design creationism and so on"
    },
    {
        "start": "1587.66",
        "dur": "3.94",
        "text": "well as there are two major problems"
    },
    {
        "start": "1590.28",
        "dur": "4.07",
        "text": "with it one is of course that it's not"
    },
    {
        "start": "1591.6",
        "dur": "5.4",
        "text": "an answer nothing that is put forward as"
    },
    {
        "start": "1594.35",
        "dur": "5.01",
        "text": "God is ever an answer I mean to say to"
    },
    {
        "start": "1597",
        "dur": "5.19",
        "text": "any question some incomprehensible"
    },
    {
        "start": "1599.36",
        "dur": "4.689",
        "text": "unknowable being in ways that we could"
    },
    {
        "start": "1602.19",
        "dur": "5.82",
        "text": "never fathom and we'll never understand"
    },
    {
        "start": "1604.049",
        "dur": "5.221",
        "text": "achieved or did or created X for reasons"
    },
    {
        "start": "1608.01",
        "dur": "3.57",
        "text": "that we will never be able to fathom"
    },
    {
        "start": "1609.27",
        "dur": "4.32",
        "text": "that's not an answer I mean that's just"
    },
    {
        "start": "1611.58",
        "dur": "5.76",
        "text": "a non answer it's like on a math quiz"
    },
    {
        "start": "1613.59",
        "dur": "6.03",
        "text": "you say well this answer exists but on"
    },
    {
        "start": "1617.34",
        "dur": "3.81",
        "text": "in a different dimension in numbers that"
    },
    {
        "start": "1619.62",
        "dur": "3.09",
        "text": "I can't write down here because they"
    },
    {
        "start": "1621.15",
        "dur": "3.54",
        "text": "would make the page explode well try"
    },
    {
        "start": "1622.71",
        "dur": "3.839",
        "text": "getting a good mark in math based on"
    },
    {
        "start": "1624.69",
        "dur": "3.42",
        "text": "that it's just a basically an argument"
    },
    {
        "start": "1626.549",
        "dur": "4.471",
        "text": "from an intimidation and an appeal to"
    },
    {
        "start": "1628.11",
        "dur": "5.37",
        "text": "insecurity and ignorance insecurity more"
    },
    {
        "start": "1631.02",
        "dur": "4.14",
        "text": "so than ignorance so there's no"
    },
    {
        "start": "1633.48",
        "dur": "3.9",
        "text": "means no answer if you say well God did"
    },
    {
        "start": "1635.16",
        "dur": "4.5",
        "text": "X I mean there's just no answer at all I"
    },
    {
        "start": "1637.38",
        "dur": "3.84",
        "text": "mean you might as well just say elves"
    },
    {
        "start": "1639.66",
        "dur": "3.21",
        "text": "dreamed up the world and that's my"
    },
    {
        "start": "1641.22",
        "dur": "3",
        "text": "answer to the Big Bang well it's not"
    },
    {
        "start": "1642.87",
        "dur": "4.049",
        "text": "really an answer at all it's just a"
    },
    {
        "start": "1644.22",
        "dur": "4.29",
        "text": "species of fairy tale without even the"
    },
    {
        "start": "1646.919",
        "dur": "5.851",
        "text": "psychological insight sometimes found"
    },
    {
        "start": "1648.51",
        "dur": "6.45",
        "text": "within good fairy tales so it's not an"
    },
    {
        "start": "1652.77",
        "dur": "4.529",
        "text": "answer to say that God did anything but"
    },
    {
        "start": "1654.96",
        "dur": "5.19",
        "text": "more importantly God is far more complex"
    },
    {
        "start": "1657.299",
        "dur": "8.721",
        "text": "than creation I mean without a doubt God"
    },
    {
        "start": "1660.15",
        "dur": "10.14",
        "text": "is far more complex than creation and"
    },
    {
        "start": "1666.02",
        "dur": "6.75",
        "text": "the theory of evolution explicitly and"
    },
    {
        "start": "1670.29",
        "dur": "5.7",
        "text": "clearly argues then proves I would say"
    },
    {
        "start": "1672.77",
        "dur": "8.279",
        "text": "that the only way that complexity can"
    },
    {
        "start": "1675.99",
        "dur": "7.53",
        "text": "arise in the world is through evolution"
    },
    {
        "start": "1681.049",
        "dur": "5.411",
        "text": "therefore God cannot be the first cause"
    },
    {
        "start": "1683.52",
        "dur": "6.21",
        "text": "of the universe or of life because"
    },
    {
        "start": "1686.46",
        "dur": "5.66",
        "text": "something that is complex and as complex"
    },
    {
        "start": "1689.73",
        "dur": "7.829",
        "text": "has got the most complex thing around"
    },
    {
        "start": "1692.12",
        "dur": "8.17",
        "text": "can only arise out of a very long"
    },
    {
        "start": "1697.559",
        "dur": "4.051",
        "text": "process of evolution let's just say in a"
    },
    {
        "start": "1700.29",
        "dur": "2.639",
        "text": "billion years human beings either"
    },
    {
        "start": "1701.61",
        "dur": "3.93",
        "text": "through technology or some other"
    },
    {
        "start": "1702.929",
        "dur": "4.111",
        "text": "methodology find a way to we can leave"
    },
    {
        "start": "1705.54",
        "dur": "3.21",
        "text": "her bodies from the universe at will we"
    },
    {
        "start": "1707.04",
        "dur": "4.019",
        "text": "can create whatever matter and energy"
    },
    {
        "start": "1708.75",
        "dur": "4.08",
        "text": "doesn't making stuff up well that would"
    },
    {
        "start": "1711.059",
        "dur": "5.641",
        "text": "be sort of godlike but that would only"
    },
    {
        "start": "1712.83",
        "dur": "4.88",
        "text": "be the result of billions of years of"
    },
    {
        "start": "1716.7",
        "dur": "4.979",
        "text": "evolution"
    },
    {
        "start": "1717.71",
        "dur": "5.74",
        "text": "so God who is infinitely complex cannot"
    },
    {
        "start": "1721.679",
        "dur": "4.441",
        "text": "be the first cause of anything because"
    },
    {
        "start": "1723.45",
        "dur": "5.609",
        "text": "complexity as the theory of evolution"
    },
    {
        "start": "1726.12",
        "dur": "5.189",
        "text": "has proven can only arise through ink"
    },
    {
        "start": "1729.059",
        "dur": "4.401",
        "text": "infinitesimal improvements and the"
    },
    {
        "start": "1731.309",
        "dur": "5.071",
        "text": "optimization of gene reproducibility"
    },
    {
        "start": "1733.46",
        "dur": "5.589",
        "text": "over a long long long long period of"
    },
    {
        "start": "1736.38",
        "dur": "8.24",
        "text": "time so complexity is the result of"
    },
    {
        "start": "1739.049",
        "dur": "9.931",
        "text": "evolution plus time natural selection"
    },
    {
        "start": "1744.62",
        "dur": "7.559",
        "text": "complexity is not cannot be the course"
    },
    {
        "start": "1748.98",
        "dur": "3.199",
        "text": "of these things"
    },
    {
        "start": "1752.52",
        "dur": "5.11",
        "text": "because for God to exist God can only"
    },
    {
        "start": "1754.99",
        "dur": "4.71",
        "text": "exist in terms of complexity as a result"
    },
    {
        "start": "1757.63",
        "dur": "5.76",
        "text": "of evolution so God cannot be the first"
    },
    {
        "start": "1759.7",
        "dur": "6.75",
        "text": "course or any kind of mover of evolution"
    },
    {
        "start": "1763.39",
        "dur": "7.23",
        "text": "God can only result from an evolutionary"
    },
    {
        "start": "1766.45",
        "dur": "7.92",
        "text": "process and since God doesn't have any"
    },
    {
        "start": "1770.62",
        "dur": "6.18",
        "text": "genes God is not subject to the"
    },
    {
        "start": "1774.37",
        "dur": "5.22",
        "text": "evolutionary process and therefore of"
    },
    {
        "start": "1776.8",
        "dur": "3.96",
        "text": "course God can't exist at all so I hope"
    },
    {
        "start": "1779.59",
        "dur": "2.55",
        "text": "that this has been helpful I look"
    },
    {
        "start": "1780.76",
        "dur": "2.7",
        "text": "forward to your donations I wish you the"
    },
    {
        "start": "1782.14",
        "dur": "2.94",
        "text": "very happiest of happy new years"
    },
    {
        "start": "1783.46",
        "dur": "3.33",
        "text": "everybody out there in YouTube land and"
    },
    {
        "start": "1785.08",
        "dur": "4.83",
        "text": "on freedomain radio which you can find"
    },
    {
        "start": "1786.79",
        "dur": "5.16",
        "text": "at WWF Reda main radio calm thank you so"
    },
    {
        "start": "1789.91",
        "dur": "4.85",
        "text": "much for listening and all the best for"
    },
    {
        "start": "1791.95",
        "dur": "2.81",
        "text": "2007"
    }
]