{
  "Title": "Barack Obama: Get Off Julia!",
  "Id": "Of-q6kFVbeg",
  "Transcript": [
    {
      "text": "hi everybody its Devan molyneux from",
      "start": 0,
      "duration": 3.21
    },
    {
      "text": "freedomain radio I hope you're doing",
      "start": 1.77,
      "duration": 4.049
    },
    {
      "text": "well let's take a quick tour through the",
      "start": 3.21,
      "duration": 6.12
    },
    {
      "text": "life of Julia of the Barack Obama",
      "start": 5.819,
      "duration": 5.311
    },
    {
      "text": "campaign that recently came out really",
      "start": 9.33,
      "duration": 3.479
    },
    {
      "text": "gritty quite a fascinating fascinating",
      "start": 11.13,
      "duration": 3.959
    },
    {
      "text": "insight into the way that political",
      "start": 12.809,
      "duration": 4.98
    },
    {
      "text": "manipulation works so this is how a",
      "start": 15.089,
      "duration": 4.471
    },
    {
      "text": "woman is affected by Barack Obama's",
      "start": 17.789,
      "duration": 3.871
    },
    {
      "text": "policies assuming that he is president",
      "start": 19.56,
      "duration": 7.86
    },
    {
      "text": "for the next say 70 or 80 years so the",
      "start": 21.66,
      "duration": 7.98
    },
    {
      "text": "first slide is at the age of three Julia",
      "start": 27.42,
      "duration": 4.349
    },
    {
      "text": "sir under President Obama Julia is",
      "start": 29.64,
      "duration": 5.31
    },
    {
      "text": "enrolled in a headstart program to help",
      "start": 31.769,
      "duration": 5.941
    },
    {
      "text": "get her ready for school because of",
      "start": 34.95,
      "duration": 4.5
    },
    {
      "text": "steps President Obama has taken to",
      "start": 37.71,
      "duration": 3.63
    },
    {
      "text": "improve programs like this one julia",
      "start": 39.45,
      "duration": 3.75
    },
    {
      "text": "joins thousands of students across the",
      "start": 41.34,
      "duration": 3.239
    },
    {
      "text": "country who will start kindergarten",
      "start": 43.2,
      "duration": 5.76
    },
    {
      "text": "ready to learn and succeed one of the",
      "start": 44.579,
      "duration": 6.3
    },
    {
      "text": "major themes of this political campaign",
      "start": 48.96,
      "duration": 5.88
    },
    {
      "text": "is that you don't need a dad if you have",
      "start": 50.879,
      "duration": 6.75
    },
    {
      "text": "a state Barack Obama has a harem of",
      "start": 54.84,
      "duration": 5.519
    },
    {
      "text": "approximately 150 million women who he",
      "start": 57.629,
      "duration": 4.741
    },
    {
      "text": "can parent very effectively he can help",
      "start": 60.359,
      "duration": 4.921
    },
    {
      "text": "get them ready for school because you",
      "start": 62.37,
      "duration": 4.65
    },
    {
      "text": "know one group that used to actually get",
      "start": 65.28,
      "duration": 3.36
    },
    {
      "text": "children ready for school to to get",
      "start": 67.02,
      "duration": 4.2
    },
    {
      "text": "ready to learn were parents",
      "start": 68.64,
      "duration": 6.03
    },
    {
      "text": "but I guess Julia's parents aren't",
      "start": 71.22,
      "duration": 5.399
    },
    {
      "text": "around they're probably out as the tax",
      "start": 74.67,
      "duration": 3.839
    },
    {
      "text": "farms work in a way to make sure that",
      "start": 76.619,
      "duration": 3.091
    },
    {
      "text": "the government coffers are filled so",
      "start": 78.509,
      "duration": 2.671
    },
    {
      "text": "that they can use that as collateral to",
      "start": 79.71,
      "duration": 4.949
    },
    {
      "text": "sell off children like Julia to foreign",
      "start": 81.18,
      "duration": 6.21
    },
    {
      "text": "bankers but this is the way that it",
      "start": 84.659,
      "duration": 6.14
    },
    {
      "text": "works now of course the Head Start thing",
      "start": 87.39,
      "duration": 5.97
    },
    {
      "text": "is complete lie it's complete lie this",
      "start": 90.799,
      "duration": 5.411
    },
    {
      "text": "has been going on since the 60s hundreds",
      "start": 93.36,
      "duration": 4.259
    },
    {
      "text": "of billions of dollars poured into this",
      "start": 96.21,
      "duration": 4.589
    },
    {
      "text": "nonsense a contract to study the actual",
      "start": 97.619,
      "duration": 5.371
    },
    {
      "text": "results results of Head Start was issued",
      "start": 100.799,
      "duration": 3.871
    },
    {
      "text": "in 1998 by the US Department of Health",
      "start": 102.99,
      "duration": 4.989
    },
    {
      "text": "and Human Services links are below",
      "start": 104.67,
      "duration": 6.04
    },
    {
      "text": "by 2006 Wow 8 years to analyzing data",
      "start": 107.979,
      "duration": 4.14
    },
    {
      "text": "that's pretty fast for the government",
      "start": 110.71,
      "duration": 3.78
    },
    {
      "text": "you know those abacuses can really give",
      "start": 112.119,
      "duration": 5.25
    },
    {
      "text": "you some blisters by 2006 work on data",
      "start": 114.49,
      "duration": 3.9
    },
    {
      "text": "for kindergarten and first grade",
      "start": 117.369,
      "duration": 2.911
    },
    {
      "text": "students was completed and made",
      "start": 118.39,
      "duration": 4.229
    },
    {
      "text": "available to the Department of Health",
      "start": 120.28,
      "duration": 4.289
    },
    {
      "text": "and Human Services the results remained",
      "start": 122.619,
      "duration": 4.2
    },
    {
      "text": "buried in the bureaucracy however even",
      "start": 124.569,
      "duration": 4.05
    },
    {
      "text": "as Bush and Obama successively pumped",
      "start": 126.819,
      "duration": 3.091
    },
    {
      "text": "increasingly more billions of tax",
      "start": 128.619,
      "duration": 3.211
    },
    {
      "text": "dollars into Head Start but now the",
      "start": 129.91,
      "duration": 3.359
    },
    {
      "text": "results are finally available as",
      "start": 131.83,
      "duration": 3.33
    },
    {
      "text": "Brookings whitehurst explains the study",
      "start": 133.269,
      "duration": 6.5
    },
    {
      "text": "found that Head Start quote has no",
      "start": 135.16,
      "duration": 6.96
    },
    {
      "text": "demonstrable impact on students academic",
      "start": 139.769,
      "duration": 5.111
    },
    {
      "text": "socio-emotional or health status at the",
      "start": 142.12,
      "duration": 6.709
    },
    {
      "text": "end of first grade no demonstrable",
      "start": 144.88,
      "duration": 6.949
    },
    {
      "text": "impact",
      "start": 148.829,
      "duration": 3
    },
    {
      "text": "no wonder release was delayed for",
      "start": 152.31,
      "duration": 4.14
    },
    {
      "text": "several years as quote contractors were",
      "start": 154.11,
      "duration": 4.59
    },
    {
      "text": "pushed to try different analytic",
      "start": 156.45,
      "duration": 3.72
    },
    {
      "text": "techniques in the hope that something",
      "start": 158.7,
      "duration": 4.5
    },
    {
      "text": "positive a head start could be found ha",
      "start": 160.17,
      "duration": 5.94
    },
    {
      "text": "Head Start is best but the bureaucracies",
      "start": 163.2,
      "duration": 4.59
    },
    {
      "text": "who manage it bureaucrats who managed it",
      "start": 166.11,
      "duration": 3.42
    },
    {
      "text": "is Ellis Li protected as politicians in",
      "start": 167.79,
      "duration": 3.63
    },
    {
      "text": "both parties lavishly funded and Head",
      "start": 169.53,
      "duration": 4.17
    },
    {
      "text": "Start is just one of 69 closely related",
      "start": 171.42,
      "duration": 4.5
    },
    {
      "text": "federal federal preschool programs that",
      "start": 173.7,
      "duration": 4.7
    },
    {
      "text": "now consume more than 25 billion dollars",
      "start": 175.92,
      "duration": 7.679
    },
    {
      "text": "annually that's quite impressive and so",
      "start": 178.4,
      "duration": 6.61
    },
    {
      "text": "under Mitt Romney according to this life",
      "start": 183.599,
      "duration": 3.511
    },
    {
      "text": "of Julia slide the Romney plan a Ryan",
      "start": 185.01,
      "duration": 4.41
    },
    {
      "text": "budget would cut programs like Head",
      "start": 187.11,
      "duration": 4.53
    },
    {
      "text": "Start by 20 percent meaning that",
      "start": 189.42,
      "duration": 4.08
    },
    {
      "text": "programs would offer 200,000 fewer slots",
      "start": 191.64,
      "duration": 5.099
    },
    {
      "text": "per year this is part of a general lie",
      "start": 193.5,
      "duration": 4.29
    },
    {
      "text": "that you will hear from the government",
      "start": 196.739,
      "duration": 3.06
    },
    {
      "text": "whenever they talk about cutting a",
      "start": 197.79,
      "duration": 3.96
    },
    {
      "text": "government program by 20 percent they",
      "start": 199.799,
      "duration": 4.711
    },
    {
      "text": "automatically translate that into 20",
      "start": 201.75,
      "duration": 6.03
    },
    {
      "text": "percent less service provided to to the",
      "start": 204.51,
      "duration": 5.72
    },
    {
      "text": "citizens",
      "start": 207.78,
      "duration": 2.45
    },
    {
      "text": "which is of course implying though not",
      "start": 210.29,
      "duration": 4.71
    },
    {
      "text": "stating that there is zero waste zero",
      "start": 212.45,
      "duration": 3.72
    },
    {
      "text": "fat zero",
      "start": 215,
      "duration": 2.909
    },
    {
      "text": "excessive overhead no excessive",
      "start": 216.17,
      "duration": 3.959
    },
    {
      "text": "bureaucrats no private Mandarin fiefdom",
      "start": 217.909,
      "duration": 4.731
    },
    {
      "text": "that it's all going you see directly",
      "start": 220.129,
      "duration": 6.091
    },
    {
      "text": "directly to the recipients you know",
      "start": 222.64,
      "duration": 6.01
    },
    {
      "text": "eighty percent of every dollar that's",
      "start": 226.22,
      "duration": 6.84
    },
    {
      "text": "spent on welfare in America goes to the",
      "start": 228.65,
      "duration": 7.08
    },
    {
      "text": "bureaucrats twenty percent maybe",
      "start": 233.06,
      "duration": 5.789
    },
    {
      "text": "trickles down to the poor and so really",
      "start": 235.73,
      "duration": 4.95
    },
    {
      "text": "you could cut about seventy eight",
      "start": 238.849,
      "duration": 3.871
    },
    {
      "text": "percent of it and still have the same",
      "start": 240.68,
      "duration": 3.059
    },
    {
      "text": "amount of funding to the poor but what",
      "start": 242.72,
      "duration": 2.189
    },
    {
      "text": "they say is oh well if you're gonna cut",
      "start": 243.739,
      "duration": 2.61
    },
    {
      "text": "me by five percent you cut into the poor",
      "start": 244.909,
      "duration": 4.86
    },
    {
      "text": "by five percent because they really care",
      "start": 246.349,
      "duration": 7.191
    },
    {
      "text": "about the poor and not so much the truth",
      "start": 249.769,
      "duration": 7.081
    },
    {
      "text": "so for those of us with strong stomachs",
      "start": 253.54,
      "duration": 6.789
    },
    {
      "text": "let's follow Julia forward seventeen",
      "start": 256.85,
      "duration": 5.97
    },
    {
      "text": "years and what is going on in Julia's",
      "start": 260.329,
      "duration": 5.281
    },
    {
      "text": "life under President Obama Julia takes",
      "start": 262.82,
      "duration": 6.39
    },
    {
      "text": "the SAT and is on track to start her",
      "start": 265.61,
      "duration": 6.6
    },
    {
      "text": "college application her high school is",
      "start": 269.21,
      "duration": 4.739
    },
    {
      "text": "part of the race to the top program",
      "start": 272.21,
      "duration": 5.579
    },
    {
      "text": "implemented by President Obama their new",
      "start": 273.949,
      "duration": 7.351
    },
    {
      "text": "college and career-ready standards mean",
      "start": 277.789,
      "duration": 6.63
    },
    {
      "text": "Julia can take the classes she needs to",
      "start": 281.3,
      "duration": 6.089
    },
    {
      "text": "do well you see President Obama has",
      "start": 284.419,
      "duration": 4.5
    },
    {
      "text": "recently over the first over the last",
      "start": 287.389,
      "duration": 4.611
    },
    {
      "text": "year or two has implemented this program",
      "start": 288.919,
      "duration": 8.31
    },
    {
      "text": "to make sure that students in high",
      "start": 292,
      "duration": 7.27
    },
    {
      "text": "schools are actually taking classes that",
      "start": 297.229,
      "duration": 5.101
    },
    {
      "text": "will help them do well see we've only",
      "start": 299.27,
      "duration": 5.22
    },
    {
      "text": "had you see we've only had government",
      "start": 302.33,
      "duration": 4.26
    },
    {
      "text": "education for about a hundred and fifty",
      "start": 304.49,
      "duration": 4.89
    },
    {
      "text": "or a hundred and sixty years and at a",
      "start": 306.59,
      "duration": 5.07
    },
    {
      "text": "hundred and sixty years and two hundred",
      "start": 309.38,
      "duration": 4.56
    },
    {
      "text": "and sixty two years you see now we",
      "start": 311.66,
      "duration": 4.56
    },
    {
      "text": "finally got it figured out that we need",
      "start": 313.94,
      "duration": 4.469
    },
    {
      "text": "to implement classes that will help the",
      "start": 316.22,
      "duration": 4.65
    },
    {
      "text": "children to do well this is something",
      "start": 318.409,
      "duration": 6.181
    },
    {
      "text": "that is it's so astounding that nobody",
      "start": 320.87,
      "duration": 6.18
    },
    {
      "text": "points this out that every time they say",
      "start": 324.59,
      "duration": 4.65
    },
    {
      "text": "we have made a vast improvement in a",
      "start": 327.05,
      "duration": 3.899
    },
    {
      "text": "government program they are damming",
      "start": 329.24,
      "duration": 3.84
    },
    {
      "text": "everything that came before hand as",
      "start": 330.949,
      "duration": 4.051
    },
    {
      "text": "ridiculously incompetent and so what are",
      "start": 333.08,
      "duration": 3
    },
    {
      "text": "they saying for the last hundred and",
      "start": 335,
      "duration": 2.699
    },
    {
      "text": "sixty years they've been enrolled in",
      "start": 336.08,
      "duration": 3.089
    },
    {
      "text": "classes that they don't need to do well",
      "start": 337.699,
      "duration": 4.851
    },
    {
      "text": "or the classes that make them do badly",
      "start": 339.169,
      "duration": 3.381
    },
    {
      "text": "it's like every time they put icing on",
      "start": 344.83,
      "duration": 3.43
    },
    {
      "text": "this cake they just reminds you that",
      "start": 347.12,
      "duration": 2.61
    },
    {
      "text": "this is shit sandwich all the way down",
      "start": 348.26,
      "duration": 3.92
    },
    {
      "text": "to the root",
      "start": 349.73,
      "duration": 2.45
    },
    {
      "text": "the romney-ryan budget would cut funding",
      "start": 352.49,
      "duration": 4.049
    },
    {
      "text": "for public education to pay for tax cuts",
      "start": 354.319,
      "duration": 6.241
    },
    {
      "text": "for millionaires cut funding for public",
      "start": 356.539,
      "duration": 6.451
    },
    {
      "text": "education can you imagine say back in",
      "start": 360.56,
      "duration": 5.46
    },
    {
      "text": "the 1960s when government spending was",
      "start": 362.99,
      "duration": 5.25
    },
    {
      "text": "about 15 to 20 percent what it is now",
      "start": 366.02,
      "duration": 4.38
    },
    {
      "text": "remember how nobody got educated they",
      "start": 368.24,
      "duration": 5.179
    },
    {
      "text": "all just had to learn by doing",
      "start": 370.4,
      "duration": 5.009
    },
    {
      "text": "hieroglyphics and cave paintings and",
      "start": 373.419,
      "duration": 4.271
    },
    {
      "text": "attempting to write on the surface of a",
      "start": 375.409,
      "duration": 5.521
    },
    {
      "text": "lake oh it's tragic and horrible um so",
      "start": 377.69,
      "duration": 4.5
    },
    {
      "text": "you know if they're really concerned",
      "start": 380.93,
      "duration": 4.68
    },
    {
      "text": "about spending in education I've got an",
      "start": 382.19,
      "duration": 5.219
    },
    {
      "text": "idea I've got a suggestion I've got",
      "start": 385.61,
      "duration": 4.95
    },
    {
      "text": "something that might help in 2008",
      "start": 387.409,
      "duration": 5.01
    },
    {
      "text": "government public sector unions spent",
      "start": 390.56,
      "duration": 5.449
    },
    {
      "text": "almost half a trillion trillion dollars",
      "start": 392.419,
      "duration": 6.631
    },
    {
      "text": "getting Obama elected to protect their",
      "start": 396.009,
      "duration": 6.34
    },
    {
      "text": "unholy gains and their massive 40% or",
      "start": 399.05,
      "duration": 5.64
    },
    {
      "text": "more wage increase over those in the",
      "start": 402.349,
      "duration": 5.31
    },
    {
      "text": "private sector and maybe we could take",
      "start": 404.69,
      "duration": 4.14
    },
    {
      "text": "some of that Union money because the",
      "start": 407.659,
      "duration": 2.97
    },
    {
      "text": "union's obviously care so much about the",
      "start": 408.83,
      "duration": 4.139
    },
    {
      "text": "kids and the service recipients of their",
      "start": 410.629,
      "duration": 4.561
    },
    {
      "text": "wonderful benevolence and so just take",
      "start": 412.969,
      "duration": 3.75
    },
    {
      "text": "some of that money and maybe use it to",
      "start": 415.19,
      "duration": 3.75
    },
    {
      "text": "providing better services to us you know",
      "start": 416.719,
      "duration": 3.6
    },
    {
      "text": "the parents whose kids are trapped in",
      "start": 418.94,
      "duration": 3.21
    },
    {
      "text": "these horrible institutions half a",
      "start": 420.319,
      "duration": 3.481
    },
    {
      "text": "trillion dollars 400 billion a million",
      "start": 422.15,
      "duration": 2.85
    },
    {
      "text": "or more give it a shot",
      "start": 423.8,
      "duration": 3.7
    },
    {
      "text": "why not is never gonna happen",
      "start": 425,
      "duration": 6.28
    },
    {
      "text": "so now she's 18 years old AAHA Julia and",
      "start": 427.5,
      "duration": 5.34
    },
    {
      "text": "and Julia lives a life of peculiar",
      "start": 431.28,
      "duration": 4.15
    },
    {
      "text": "isolation you see",
      "start": 432.84,
      "duration": 4.72
    },
    {
      "text": "she doesn't have parents who have saved",
      "start": 435.43,
      "duration": 5.31
    },
    {
      "text": "for her education she doesn't have a dad",
      "start": 437.56,
      "duration": 4.47
    },
    {
      "text": "who's gonna sit her down and say hey",
      "start": 440.74,
      "duration": 2.519
    },
    {
      "text": "what is it you want to do with your life",
      "start": 442.03,
      "duration": 2.97
    },
    {
      "text": "let me help guide you towards the right",
      "start": 443.259,
      "duration": 3.481
    },
    {
      "text": "courses let's go talk to people let's",
      "start": 445,
      "duration": 3.81
    },
    {
      "text": "figure these things out she is like a",
      "start": 446.74,
      "duration": 4.83
    },
    {
      "text": "test-tube baby with no family her family",
      "start": 448.81,
      "duration": 3.99
    },
    {
      "text": "is mentioned once in a very interesting",
      "start": 451.57,
      "duration": 3.39
    },
    {
      "text": "way down the road but you see this is",
      "start": 452.8,
      "duration": 5.04
    },
    {
      "text": "the reality if you lack community you",
      "start": 454.96,
      "duration": 5.22
    },
    {
      "text": "become dependent on the state the state",
      "start": 457.84,
      "duration": 5.16
    },
    {
      "text": "displaces community the state displaces",
      "start": 460.18,
      "duration": 4.47
    },
    {
      "text": "friendly societies and volunteerism and",
      "start": 463,
      "duration": 4.08
    },
    {
      "text": "charity and puts itself as the sole",
      "start": 464.65,
      "duration": 6.63
    },
    {
      "text": "provider of that which can only only be",
      "start": 467.08,
      "duration": 7.82
    },
    {
      "text": "provided by communities",
      "start": 471.28,
      "duration": 3.62
    },
    {
      "text": "under President Obama as she prepares",
      "start": 475.009,
      "duration": 4.301
    },
    {
      "text": "for her first semester of college Julia",
      "start": 477.33,
      "duration": 5.13
    },
    {
      "text": "and her family qualify for President",
      "start": 479.31,
      "duration": 6.65
    },
    {
      "text": "Obama's American Opportunity Tax Credit",
      "start": 482.46,
      "duration": 7.29
    },
    {
      "text": "worth up to $10,000 over four years",
      "start": 485.96,
      "duration": 6.4
    },
    {
      "text": "julia is also one of millions of",
      "start": 489.75,
      "duration": 4.08
    },
    {
      "text": "students who receive a Pell Grant to",
      "start": 492.36,
      "duration": 3.33
    },
    {
      "text": "help put a college education within",
      "start": 493.83,
      "duration": 3.98
    },
    {
      "text": "reach",
      "start": 495.69,
      "duration": 2.12
    },
    {
      "text": "I don't know if many women have been",
      "start": 499.06,
      "duration": 6
    },
    {
      "text": "unbelievably insulted by this campaign",
      "start": 502.87,
      "duration": 4.44
    },
    {
      "text": "if not they should be and their lack of",
      "start": 505.06,
      "duration": 5.25
    },
    {
      "text": "insult is itself a genuine insult where",
      "start": 507.31,
      "duration": 4.8
    },
    {
      "text": "did the people think that this money is",
      "start": 510.31,
      "duration": 2.49
    },
    {
      "text": "coming from",
      "start": 512.11,
      "duration": 3.33
    },
    {
      "text": "do you think that Obama is gonna dip",
      "start": 512.8,
      "duration": 6.57
    },
    {
      "text": "deep into his khakis and pull out from",
      "start": 515.44,
      "duration": 7.349
    },
    {
      "text": "his skinny bottom the $10,000 and just",
      "start": 519.37,
      "duration": 4.68
    },
    {
      "text": "hand it to you no he's got no money",
      "start": 522.789,
      "duration": 3.931
    },
    {
      "text": "government has no money where is all of",
      "start": 524.05,
      "duration": 4.26
    },
    {
      "text": "this money coming from well it's coming",
      "start": 526.72,
      "duration": 3.059
    },
    {
      "text": "from Julia it's coming from Julia's",
      "start": 528.31,
      "duration": 3.27
    },
    {
      "text": "family if she has any if she's not some",
      "start": 529.779,
      "duration": 3.81
    },
    {
      "text": "prisoner or a test-tube baby it's coming",
      "start": 531.58,
      "duration": 3.24
    },
    {
      "text": "from her future it's coming from her",
      "start": 533.589,
      "duration": 2.491
    },
    {
      "text": "future children it's coming from her",
      "start": 534.82,
      "duration": 3.93
    },
    {
      "text": "community it's being sucked out soaked",
      "start": 536.08,
      "duration": 4.86
    },
    {
      "text": "up like a sponge by a massive amount of",
      "start": 538.75,
      "duration": 4.29
    },
    {
      "text": "bureaucracy and then you get a few drops",
      "start": 540.94,
      "duration": 4.71
    },
    {
      "text": "that come back and it's just quite",
      "start": 543.04,
      "duration": 5.52
    },
    {
      "text": "amazing it's such an insult to women's",
      "start": 545.65,
      "duration": 4.56
    },
    {
      "text": "intelligence to be told that they can",
      "start": 548.56,
      "duration": 3.36
    },
    {
      "text": "have stuff for free from the state I",
      "start": 550.21,
      "duration": 6.02
    },
    {
      "text": "mean it anyway",
      "start": 551.92,
      "duration": 6.74
    },
    {
      "text": "so let's have a look at her at the age",
      "start": 556.23,
      "duration": 5.55
    },
    {
      "text": "of 22 during college Giulia undergoes",
      "start": 558.66,
      "duration": 3.81
    },
    {
      "text": "surgery",
      "start": 561.78,
      "duration": 2.52
    },
    {
      "text": "it is thankfully covered by her",
      "start": 562.47,
      "duration": 3.48
    },
    {
      "text": "insurance due to a provision in",
      "start": 564.3,
      "duration": 3.24
    },
    {
      "text": "healthcare reform that lets her stay on",
      "start": 565.95,
      "duration": 4.97
    },
    {
      "text": "her parents coverage until she turns 26",
      "start": 567.54,
      "duration": 6.38
    },
    {
      "text": "well",
      "start": 570.92,
      "duration": 3
    },
    {
      "text": "it's um it's actually not covered by her",
      "start": 573.98,
      "duration": 6.12
    },
    {
      "text": "insurance this is again the the lack of",
      "start": 577.4,
      "duration": 4.95
    },
    {
      "text": "economic intelligence that this is not",
      "start": 580.1,
      "duration": 4.14
    },
    {
      "text": "surprising but the fact that not more",
      "start": 582.35,
      "duration": 4.11
    },
    {
      "text": "people to pick up on it is well Who am I",
      "start": 584.24,
      "duration": 6.09
    },
    {
      "text": "kidding not that surprising but your",
      "start": 586.46,
      "duration": 7.74
    },
    {
      "text": "insurance does not cover your health",
      "start": 590.33,
      "duration": 5.7
    },
    {
      "text": "care costs your insurance premiums it's",
      "start": 594.2,
      "duration": 3.48
    },
    {
      "text": "quite different your insurance premiums",
      "start": 596.03,
      "duration": 5.67
    },
    {
      "text": "cover your healthcare costs and so one",
      "start": 597.68,
      "duration": 6.72
    },
    {
      "text": "of the reasons that Julia some parents",
      "start": 601.7,
      "duration": 4.5
    },
    {
      "text": "if they exist don't have the money to",
      "start": 604.4,
      "duration": 3.6
    },
    {
      "text": "send Julia to school is because their",
      "start": 606.2,
      "duration": 3.15
    },
    {
      "text": "insurance premiums are so high because",
      "start": 608,
      "duration": 4.23
    },
    {
      "text": "they have to keep insuring people past a",
      "start": 609.35,
      "duration": 5.24
    },
    {
      "text": "quarter century and also in what sane",
      "start": 612.23,
      "duration": 5.64
    },
    {
      "text": "economic universe would insurance for a",
      "start": 614.59,
      "duration": 7.03
    },
    {
      "text": "young healthy 20 how old is she a young",
      "start": 617.87,
      "duration": 7.8
    },
    {
      "text": "healthy 22 year old be cheaper I sorry",
      "start": 621.62,
      "duration": 5.52
    },
    {
      "text": "be more expensive than for her parents",
      "start": 625.67,
      "duration": 3.15
    },
    {
      "text": "in other words if I can stay my parents",
      "start": 627.14,
      "duration": 3.24
    },
    {
      "text": "maybe her parents are like 55 or",
      "start": 628.82,
      "duration": 3.57
    },
    {
      "text": "whatever right so in what same economic",
      "start": 630.38,
      "duration": 4.53
    },
    {
      "text": "universe is it cheaper for a 22 year old",
      "start": 632.39,
      "duration": 3.6
    },
    {
      "text": "not to get their own health insurance",
      "start": 634.91,
      "duration": 3.48
    },
    {
      "text": "but rather to get the health insurance",
      "start": 635.99,
      "duration": 4.08
    },
    {
      "text": "of her parents who are much older well",
      "start": 638.39,
      "duration": 3.36
    },
    {
      "text": "of course in a state controlled state",
      "start": 640.07,
      "duration": 4.62
    },
    {
      "text": "protected cartel monopoly bullshit",
      "start": 641.75,
      "duration": 6.09
    },
    {
      "text": "system which is the u.s. with private",
      "start": 644.69,
      "duration": 5.19
    },
    {
      "text": "funding in public profits mmm",
      "start": 647.84,
      "duration": 4.59
    },
    {
      "text": "textbook definition of fascism in that",
      "start": 649.88,
      "duration": 4.59
    },
    {
      "text": "universe it's like saying health and",
      "start": 652.43,
      "duration": 4.59
    },
    {
      "text": "life insurance should be way cheaper for",
      "start": 654.47,
      "duration": 4.41
    },
    {
      "text": "people who are 55 then it should be for",
      "start": 657.02,
      "duration": 4.25
    },
    {
      "text": "people who are 20",
      "start": 658.88,
      "duration": 4.64
    },
    {
      "text": "all right so as she scales up in years",
      "start": 661.27,
      "duration": 6.92
    },
    {
      "text": "23 how's she doing at the age of 23 well",
      "start": 663.52,
      "duration": 7.47
    },
    {
      "text": "so under freedom and the President Obama",
      "start": 668.19,
      "duration": 4.39
    },
    {
      "text": "because of steps like the lilly",
      "start": 670.99,
      "duration": 4.11
    },
    {
      "text": "Ledbetter Fair Pay Act julia is one of",
      "start": 672.58,
      "duration": 3.84
    },
    {
      "text": "millions of women across the country who",
      "start": 675.1,
      "duration": 3.03
    },
    {
      "text": "knows that she'll always be able to",
      "start": 676.42,
      "duration": 3.66
    },
    {
      "text": "stand up for her right to equal pay she",
      "start": 678.13,
      "duration": 5.42
    },
    {
      "text": "starts a career as a web designer",
      "start": 680.08,
      "duration": 3.47
    },
    {
      "text": "in what universe do you have to go to a",
      "start": 685.48,
      "duration": 6.91
    },
    {
      "text": "four-year college and accumulate twenty",
      "start": 689.18,
      "duration": 5.1
    },
    {
      "text": "to thirty thousand dollars in debt to be",
      "start": 692.39,
      "duration": 4.17
    },
    {
      "text": "a web designer is notepad that difficult",
      "start": 694.28,
      "duration": 3.72
    },
    {
      "text": "to open is a couple of codes and that",
      "start": 696.56,
      "duration": 3.09
    },
    {
      "text": "too difficult to open or too difficult",
      "start": 698,
      "duration": 2.73
    },
    {
      "text": "to figure out it's learning on the job",
      "start": 699.65,
      "duration": 3.3
    },
    {
      "text": "too hard to figure out Wow",
      "start": 700.73,
      "duration": 4.08
    },
    {
      "text": "so let's say average web designers",
      "start": 702.95,
      "duration": 4.05
    },
    {
      "text": "salary you know 40 50 60 K depending on",
      "start": 704.81,
      "duration": 3.69
    },
    {
      "text": "where you are low end when you're",
      "start": 707,
      "duration": 4.38
    },
    {
      "text": "starting so let's say she could have got",
      "start": 708.5,
      "duration": 5.13
    },
    {
      "text": "an average of 50 to 60 K which means",
      "start": 711.38,
      "duration": 5.55
    },
    {
      "text": "that her four-year college degree at 50",
      "start": 713.63,
      "duration": 6.81
    },
    {
      "text": "K a year has cost her $200,000 in lost",
      "start": 716.93,
      "duration": 7.23
    },
    {
      "text": "income and she's gonna graduate if she's",
      "start": 720.44,
      "duration": 5.81
    },
    {
      "text": "an average u.s. student with about 25",
      "start": 724.16,
      "duration": 5.52
    },
    {
      "text": "$26,000 in debt which if she's got a 6.8",
      "start": 726.25,
      "duration": 5.62
    },
    {
      "text": "interest rate he's gonna take her about",
      "start": 729.68,
      "duration": 4.41
    },
    {
      "text": "10 years to pay off at about 300 bucks a",
      "start": 731.87,
      "duration": 5.7
    },
    {
      "text": "month or 15% or 20% of her after-tax",
      "start": 734.09,
      "duration": 5.97
    },
    {
      "text": "salary every month she's gonna end up",
      "start": 737.57,
      "duration": 4.26
    },
    {
      "text": "paying about $10,000 and interest if",
      "start": 740.06,
      "duration": 2.79
    },
    {
      "text": "that's why the student loans are so",
      "start": 741.83,
      "duration": 2.16
    },
    {
      "text": "profitable to people because they're",
      "start": 742.85,
      "duration": 2.43
    },
    {
      "text": "underwritten by the government and you",
      "start": 743.99,
      "duration": 3.21
    },
    {
      "text": "can't get out of them through bankruptcy",
      "start": 745.28,
      "duration": 3.57
    },
    {
      "text": "so this is really not a very good",
      "start": 747.2,
      "duration": 4.41
    },
    {
      "text": "economic proposition for her give up two",
      "start": 748.85,
      "duration": 4.35
    },
    {
      "text": "hundred thousand dollars in income and",
      "start": 751.61,
      "duration": 5.01
    },
    {
      "text": "have the lowered entry-level salary rise",
      "start": 753.2,
      "duration": 5.22
    },
    {
      "text": "for the rest of her career yeah I know",
      "start": 756.62,
      "duration": 3.03
    },
    {
      "text": "that there's benefits to having a",
      "start": 758.42,
      "duration": 2.82
    },
    {
      "text": "college degree I wouldn't say",
      "start": 759.65,
      "duration": 4.83
    },
    {
      "text": "necessarily for a web designer but hey",
      "start": 761.24,
      "duration": 6.06
    },
    {
      "text": "ah and of course this is also insulting",
      "start": 764.48,
      "duration": 5.849
    },
    {
      "text": "see women can women are first of all the",
      "start": 767.3,
      "duration": 4.2
    },
    {
      "text": "idea that women are not doing well in",
      "start": 770.329,
      "duration": 3.091
    },
    {
      "text": "society is ridiculous women a majority",
      "start": 771.5,
      "duration": 4.11
    },
    {
      "text": "of college graduates women are doing",
      "start": 773.42,
      "duration": 3.51
    },
    {
      "text": "very well highly represented",
      "start": 775.61,
      "duration": 3
    },
    {
      "text": "over-represented relative to men in the",
      "start": 776.93,
      "duration": 3.3
    },
    {
      "text": "professions their scores in just about",
      "start": 778.61,
      "duration": 3.3
    },
    {
      "text": "every aspect of education are better",
      "start": 780.23,
      "duration": 3.9
    },
    {
      "text": "because over the past 20 years all of",
      "start": 781.91,
      "duration": 3.81
    },
    {
      "text": "the education efforts have been focused",
      "start": 784.13,
      "duration": 4.23
    },
    {
      "text": "on on women and girls so the idea that",
      "start": 785.72,
      "duration": 5.01
    },
    {
      "text": "they sort of these trembling delicate",
      "start": 788.36,
      "duration": 4.979
    },
    {
      "text": "lily pads and and hibiscus have to go",
      "start": 790.73,
      "duration": 3.87
    },
    {
      "text": "out in the marketplace and can't",
      "start": 793.339,
      "duration": 3.06
    },
    {
      "text": "conceivably negotiate for themselves for",
      "start": 794.6,
      "duration": 4.979
    },
    {
      "text": "good pay but need to wave you know angry",
      "start": 796.399,
      "duration": 5.49
    },
    {
      "text": "Obama faces at people to get them to pay",
      "start": 799.579,
      "duration": 5.431
    },
    {
      "text": "them a decent wage is ridiculous women a",
      "start": 801.889,
      "duration": 6
    },
    {
      "text": "college aged women who have the same",
      "start": 805.01,
      "duration": 4.949
    },
    {
      "text": "length of time in the workforce in",
      "start": 807.889,
      "duration": 4.291
    },
    {
      "text": "similar fields almost on almost exactly",
      "start": 809.959,
      "duration": 5.161
    },
    {
      "text": "what college aged men earn the reason",
      "start": 812.18,
      "duration": 4.92
    },
    {
      "text": "that women earn less overall is because",
      "start": 815.12,
      "duration": 3.57
    },
    {
      "text": "they have children they stay home they",
      "start": 817.1,
      "duration": 3.39
    },
    {
      "text": "work part-time and this is where the",
      "start": 818.69,
      "duration": 3.24
    },
    {
      "text": "averages if you compare apples to apples",
      "start": 820.49,
      "duration": 4.62
    },
    {
      "text": "they're almost exactly the same size so",
      "start": 821.93,
      "duration": 5.01
    },
    {
      "text": "again not only do women not need this",
      "start": 825.11,
      "duration": 3.69
    },
    {
      "text": "but they it's insulting to women to say",
      "start": 826.94,
      "duration": 3.3
    },
    {
      "text": "well you need big laws to be able to",
      "start": 828.8,
      "duration": 4.37
    },
    {
      "text": "negotiate for yourselves",
      "start": 830.24,
      "duration": 2.93
    },
    {
      "text": "ah so now she graduates at the age of 25",
      "start": 834.1,
      "duration": 5.76
    },
    {
      "text": "under President Obama after graduation",
      "start": 837.699,
      "duration": 4.681
    },
    {
      "text": "Julius federal student loans are more",
      "start": 839.86,
      "duration": 4.44
    },
    {
      "text": "manageable since President Obama camped",
      "start": 842.38,
      "duration": 3.269
    },
    {
      "text": "income based federal student loan",
      "start": 844.3,
      "duration": 3.36
    },
    {
      "text": "payments and kept interest rates low",
      "start": 845.649,
      "duration": 5.461
    },
    {
      "text": "Wow he's magical isn't he she makes her",
      "start": 847.66,
      "duration": 6.45
    },
    {
      "text": "payments on time every month keeping her",
      "start": 851.11,
      "duration": 4.8
    },
    {
      "text": "on the track to repay her student loans",
      "start": 854.11,
      "duration": 4.64
    },
    {
      "text": "well",
      "start": 855.91,
      "duration": 2.84
    },
    {
      "text": "why are her student loans so expensive",
      "start": 858.829,
      "duration": 5.07
    },
    {
      "text": "why is college so expensive with all the",
      "start": 861.649,
      "duration": 4.56
    },
    {
      "text": "technology that has grown and increased",
      "start": 863.899,
      "duration": 3.93
    },
    {
      "text": "over the past 20 years",
      "start": 866.209,
      "duration": 3.511
    },
    {
      "text": "why is it still so expensive to get a",
      "start": 867.829,
      "duration": 3.44
    },
    {
      "text": "few basic facts between your ears",
      "start": 869.72,
      "duration": 3.599
    },
    {
      "text": "because there's been all of this",
      "start": 871.269,
      "duration": 4.091
    },
    {
      "text": "subsidies and and money that's been",
      "start": 873.319,
      "duration": 4.02
    },
    {
      "text": "handed to these universities and so",
      "start": 875.36,
      "duration": 3.509
    },
    {
      "text": "they've gone on hog wild spending spree",
      "start": 877.339,
      "duration": 3.271
    },
    {
      "text": "overpaying professors setting up fiefdom",
      "start": 878.869,
      "duration": 4.71
    },
    {
      "text": "of renovating buildings that mean of",
      "start": 880.61,
      "duration": 4.439
    },
    {
      "text": "course they're gonna spend more if a guy",
      "start": 883.579,
      "duration": 3.961
    },
    {
      "text": "wins the lottery he doesn't switch to to",
      "start": 885.049,
      "duration": 5.931
    },
    {
      "text": "skim milk anyway",
      "start": 887.54,
      "duration": 3.44
    },
    {
      "text": "at the age of 27 Julia gets horny under",
      "start": 891.84,
      "duration": 9.32
    },
    {
      "text": "President Obama for the past four years",
      "start": 897.96,
      "duration": 5.22
    },
    {
      "text": "julia has worked full-time as a web",
      "start": 901.16,
      "duration": 3.76
    },
    {
      "text": "designer thanks to Obamacare her health",
      "start": 903.18,
      "duration": 3.78
    },
    {
      "text": "insurance is required to cover birth",
      "start": 904.92,
      "duration": 4.08
    },
    {
      "text": "control and preventive care",
      "start": 906.96,
      "duration": 3.78
    },
    {
      "text": "letting Julia focus on her work rather",
      "start": 909,
      "duration": 4.17
    },
    {
      "text": "than worry about her health now I",
      "start": 910.74,
      "duration": 3.599
    },
    {
      "text": "understand women with endometriosis",
      "start": 913.17,
      "duration": 3.15
    },
    {
      "text": "women who have particular issues may",
      "start": 914.339,
      "duration": 3.391
    },
    {
      "text": "need birth control to control medical",
      "start": 916.32,
      "duration": 3.66
    },
    {
      "text": "issues minority of the population birth",
      "start": 917.73,
      "duration": 3.72
    },
    {
      "text": "control is not a health issue",
      "start": 919.98,
      "duration": 3.27
    },
    {
      "text": "repeat after me birth control is not a",
      "start": 921.45,
      "duration": 4.05
    },
    {
      "text": "health issue birth control is a fun",
      "start": 923.25,
      "duration": 4.14
    },
    {
      "text": "issue for the most part for most women",
      "start": 925.5,
      "duration": 5.18
    },
    {
      "text": "and for most men and the idea that",
      "start": 927.39,
      "duration": 5.97
    },
    {
      "text": "insurance should cover birth control is",
      "start": 930.68,
      "duration": 8.04
    },
    {
      "text": "a bribe is a mere bribe to women and",
      "start": 933.36,
      "duration": 8.24
    },
    {
      "text": "women should be insulted at being bribed",
      "start": 938.72,
      "duration": 5.619
    },
    {
      "text": "women should be insulted at being bribed",
      "start": 941.6,
      "duration": 6.67
    },
    {
      "text": "but of course Obama is playing to his",
      "start": 944.339,
      "duration": 6.091
    },
    {
      "text": "space right I mean majority of women",
      "start": 948.27,
      "duration": 3.03
    },
    {
      "text": "vote for Obama",
      "start": 950.43,
      "duration": 2.82
    },
    {
      "text": "except for married women single women",
      "start": 951.3,
      "duration": 4.56
    },
    {
      "text": "and single moms vote for Democrats and",
      "start": 953.25,
      "duration": 4.61
    },
    {
      "text": "married women tend to vote Republican",
      "start": 955.86,
      "duration": 4.8
    },
    {
      "text": "it's not massive but it's significant",
      "start": 957.86,
      "duration": 4.84
    },
    {
      "text": "the difference here and we'll get into",
      "start": 960.66,
      "duration": 7.26
    },
    {
      "text": "why in a moment at the age of 31 under",
      "start": 962.7,
      "duration": 6.56
    },
    {
      "text": "President Obama",
      "start": 967.92,
      "duration": 3.39
    },
    {
      "text": "Julia decides to have a child while I",
      "start": 969.26,
      "duration": 4.18
    },
    {
      "text": "guess we can at least figure out what",
      "start": 971.31,
      "duration": 3.99
    },
    {
      "text": "position they were in and the President",
      "start": 973.44,
      "duration": 3.45
    },
    {
      "text": "Obama Julia decides to have a child",
      "start": 975.3,
      "duration": 3.48
    },
    {
      "text": "throughout her pregnancy she benefits",
      "start": 976.89,
      "duration": 3.66
    },
    {
      "text": "from maternal checkups prenatal care and",
      "start": 978.78,
      "duration": 5.24
    },
    {
      "text": "free screenings under health care reform",
      "start": 980.55,
      "duration": 8.789
    },
    {
      "text": "yeah free stuff is nice but it's not",
      "start": 984.02,
      "duration": 7.51
    },
    {
      "text": "free and of course it only takes a",
      "start": 989.339,
      "duration": 2.791
    },
    {
      "text": "moment's thought",
      "start": 991.53,
      "duration": 3.21
    },
    {
      "text": "but the Democrat I mean the Republicans",
      "start": 992.13,
      "duration": 3.9
    },
    {
      "text": "appealed to baser instincts in other",
      "start": 994.74,
      "duration": 3.75
    },
    {
      "text": "areas but the Democrats really do appeal",
      "start": 996.03,
      "duration": 3.929
    },
    {
      "text": "to the base of greedy instincts the",
      "start": 998.49,
      "duration": 6.45
    },
    {
      "text": "entitlement instincts why can she not",
      "start": 999.959,
      "duration": 7.741
    },
    {
      "text": "get money from her husband's income to",
      "start": 1004.94,
      "duration": 4.8
    },
    {
      "text": "pay for this because Julia you see is",
      "start": 1007.7,
      "duration": 3.96
    },
    {
      "text": "deciding to have a child this is the",
      "start": 1009.74,
      "duration": 3.36
    },
    {
      "text": "code single motherhood a single",
      "start": 1011.66,
      "duration": 3.75
    },
    {
      "text": "motherhood single motherhood this is the",
      "start": 1013.1,
      "duration": 3.48
    },
    {
      "text": "key if you don't see single motherhood",
      "start": 1015.41,
      "duration": 3.21
    },
    {
      "text": "you do not see society in the West you",
      "start": 1016.58,
      "duration": 3.42
    },
    {
      "text": "do not see the majority of the",
      "start": 1018.62,
      "duration": 3.78
    },
    {
      "text": "dysfunctions of society in the West",
      "start": 1020,
      "duration": 5.31
    },
    {
      "text": "what about under President Obama Julia",
      "start": 1022.4,
      "duration": 5.43
    },
    {
      "text": "decides to have a child in consultation",
      "start": 1025.31,
      "duration": 4.08
    },
    {
      "text": "with her husband or Julia and her",
      "start": 1027.83,
      "duration": 5.27
    },
    {
      "text": "husband decide to have a child now see",
      "start": 1029.39,
      "duration": 7.44
    },
    {
      "text": "President Obama like squeaky keen no",
      "start": 1033.1,
      "duration": 5.32
    },
    {
      "text": "crumbs in the beer Jesus is going to be",
      "start": 1036.83,
      "duration": 3
    },
    {
      "text": "the perfect boyfriend husband and lover",
      "start": 1038.42,
      "duration": 4.37
    },
    {
      "text": "and take care of all your needs m'lady",
      "start": 1039.83,
      "duration": 10.14
    },
    {
      "text": "it's ridiculous at the age of 37 Julia's",
      "start": 1042.79,
      "duration": 9.31
    },
    {
      "text": "son Zachary starts kindergarten the",
      "start": 1049.97,
      "duration": 4.71
    },
    {
      "text": "public school in their neighborhood have",
      "start": 1052.1,
      "duration": 3.93
    },
    {
      "text": "better facilities and great teachers",
      "start": 1054.68,
      "duration": 3.33
    },
    {
      "text": "because of President Obama's investments",
      "start": 1056.03,
      "duration": 3.87
    },
    {
      "text": "in education and programs like a race to",
      "start": 1058.01,
      "duration": 8.22
    },
    {
      "text": "the top but you see Julia doesn't have",
      "start": 1059.9,
      "duration": 10.77
    },
    {
      "text": "the choice about which school her son",
      "start": 1066.23,
      "duration": 7.47
    },
    {
      "text": "goes to because Obama has as a result of",
      "start": 1070.67,
      "duration": 4.47
    },
    {
      "text": "being bought off by the teachers unions",
      "start": 1073.7,
      "duration": 4.95
    },
    {
      "text": "has viciously fought against any choice",
      "start": 1075.14,
      "duration": 5.46
    },
    {
      "text": "for parents in where they send their",
      "start": 1078.65,
      "duration": 3.66
    },
    {
      "text": "school the kids in fact their kids to",
      "start": 1080.6,
      "duration": 3.24
    },
    {
      "text": "school in fact parents have been going",
      "start": 1082.31,
      "duration": 3.29
    },
    {
      "text": "to jail before",
      "start": 1083.84,
      "duration": 3.75
    },
    {
      "text": "pretending to come from other districts",
      "start": 1085.6,
      "duration": 5.05
    },
    {
      "text": "to try and get to better schools and one",
      "start": 1087.59,
      "duration": 4.65
    },
    {
      "text": "of the causes of the housing crash was",
      "start": 1090.65,
      "duration": 3.89
    },
    {
      "text": "that people were desperate to get into",
      "start": 1092.24,
      "duration": 4.32
    },
    {
      "text": "good neighborhoods with good schools",
      "start": 1094.54,
      "duration": 3.49
    },
    {
      "text": "that means spending a lot of money on",
      "start": 1096.56,
      "duration": 2.97
    },
    {
      "text": "real estate that means buying houses",
      "start": 1098.03,
      "duration": 3.3
    },
    {
      "text": "maybe you can't afford in the long run",
      "start": 1099.53,
      "duration": 4.17
    },
    {
      "text": "maybe because you want to get your kids",
      "start": 1101.33,
      "duration": 4.98
    },
    {
      "text": "into decent public schools the idea that",
      "start": 1103.7,
      "duration": 5.04
    },
    {
      "text": "public schools somehow even out the",
      "start": 1106.31,
      "duration": 5.48
    },
    {
      "text": "playing field between rich and poor is a",
      "start": 1108.74,
      "duration": 6.3
    },
    {
      "text": "dangerous utopian delusion public",
      "start": 1111.79,
      "duration": 4.56
    },
    {
      "text": "schools are one of the biggest",
      "start": 1115.04,
      "duration": 3.6
    },
    {
      "text": "sustainers of the class system listen",
      "start": 1116.35,
      "duration": 4.54
    },
    {
      "text": "I'm telling you I went to a very ritzy",
      "start": 1118.64,
      "duration": 3.99
    },
    {
      "text": "boarding school in England and I went to",
      "start": 1120.89,
      "duration": 3.39
    },
    {
      "text": "a pretty low-rent public school in",
      "start": 1122.63,
      "duration": 3.48
    },
    {
      "text": "Canada and I've gone to just about every",
      "start": 1124.28,
      "duration": 4.26
    },
    {
      "text": "kind of school in between almost nothing",
      "start": 1126.11,
      "duration": 4.17
    },
    {
      "text": "reinforces the existing class system",
      "start": 1128.54,
      "duration": 5.01
    },
    {
      "text": "more more than the existing school",
      "start": 1130.28,
      "duration": 5.52
    },
    {
      "text": "system which is why you can't you can",
      "start": 1133.55,
      "duration": 4.02
    },
    {
      "text": "almost find no Democrat politicians",
      "start": 1135.8,
      "duration": 3.45
    },
    {
      "text": "who've ever sent their children to",
      "start": 1137.57,
      "duration": 3.51
    },
    {
      "text": "public school the public school is for",
      "start": 1139.25,
      "duration": 4.26
    },
    {
      "text": "the plebs it is to keep the underclass",
      "start": 1141.08,
      "duration": 4.44
    },
    {
      "text": "the underclass it is to keep the",
      "start": 1143.51,
      "duration": 3.42
    },
    {
      "text": "underclass who will work from less from",
      "start": 1145.52,
      "duration": 2.97
    },
    {
      "text": "competing with the managerial class who",
      "start": 1146.93,
      "duration": 3.9
    },
    {
      "text": "want to maintain all of their income it",
      "start": 1148.49,
      "duration": 4.29
    },
    {
      "text": "is nothing to do with the Galit arianism",
      "start": 1150.83,
      "duration": 3.51
    },
    {
      "text": "anybody who's for the public school",
      "start": 1152.78,
      "duration": 5.12
    },
    {
      "text": "system is against the poor",
      "start": 1154.34,
      "duration": 3.56
    },
    {
      "text": "at the age of 42 and President Obama",
      "start": 1159.34,
      "duration": 5.819
    },
    {
      "text": "Julia starts her own web business she",
      "start": 1163.09,
      "duration": 3.27
    },
    {
      "text": "qualifies for a Small Business",
      "start": 1165.159,
      "duration": 3.27
    },
    {
      "text": "Administration loan giving her the money",
      "start": 1166.36,
      "duration": 3.59
    },
    {
      "text": "she needs to invest in her business",
      "start": 1168.429,
      "duration": 3.6
    },
    {
      "text": "President Obama's tax cuts for small",
      "start": 1169.95,
      "duration": 4.299
    },
    {
      "text": "businesses like Julia's helped to get",
      "start": 1172.029,
      "duration": 4.23
    },
    {
      "text": "her started she's able to hire employees",
      "start": 1174.249,
      "duration": 4.951
    },
    {
      "text": "creating new jobs in her town and",
      "start": 1176.259,
      "duration": 8.01
    },
    {
      "text": "helping to grow the economy see when the",
      "start": 1179.2,
      "duration": 7.53
    },
    {
      "text": "government provides you a tax break if",
      "start": 1184.269,
      "duration": 4.351
    },
    {
      "text": "they don't cut their spending",
      "start": 1186.73,
      "duration": 4.38
    },
    {
      "text": "accordingly all they're doing is taxing",
      "start": 1188.62,
      "duration": 5.58
    },
    {
      "text": "someone else if the government gives you",
      "start": 1191.11,
      "duration": 5.189
    },
    {
      "text": "alone and doesn't cut it spending",
      "start": 1194.2,
      "duration": 4.469
    },
    {
      "text": "somewhere else then all the government",
      "start": 1196.299,
      "duration": 3.6
    },
    {
      "text": "is doing is taking that money from",
      "start": 1198.669,
      "duration": 4.71
    },
    {
      "text": "someone else you understand it's like a",
      "start": 1199.899,
      "duration": 5.551
    },
    {
      "text": "level playing field if you've got a hill",
      "start": 1203.379,
      "duration": 4.591
    },
    {
      "text": "in a fixed environment you've damn well",
      "start": 1205.45,
      "duration": 4.049
    },
    {
      "text": "got a crater somewhere else you got a",
      "start": 1207.97,
      "duration": 3.149
    },
    {
      "text": "hill here you got a valley here whatever",
      "start": 1209.499,
      "duration": 3.211
    },
    {
      "text": "you scooped out here and put over here I",
      "start": 1211.119,
      "duration": 4.111
    },
    {
      "text": "mean it's like if I were to teach my",
      "start": 1212.71,
      "duration": 4.349
    },
    {
      "text": "daughter that see you can make a sand",
      "start": 1215.23,
      "duration": 4.139
    },
    {
      "text": "castle and none of the sand around where",
      "start": 1217.059,
      "duration": 3.81
    },
    {
      "text": "you make the sand castle will be any",
      "start": 1219.369,
      "duration": 4.05
    },
    {
      "text": "lower really she's three it's you were",
      "start": 1220.869,
      "duration": 6
    },
    {
      "text": "like dad that's not right but it takes a",
      "start": 1223.419,
      "duration": 5.041
    },
    {
      "text": "lot of propaganda to miss these basics",
      "start": 1226.869,
      "duration": 2.731
    },
    {
      "text": "government has no money the government",
      "start": 1228.46,
      "duration": 2.4
    },
    {
      "text": "has no money the government has no money",
      "start": 1229.6,
      "duration": 3.36
    },
    {
      "text": "it's either gonna give her the loan by",
      "start": 1230.86,
      "duration": 4.98
    },
    {
      "text": "printing money which enslaves her son or",
      "start": 1232.96,
      "duration": 4.53
    },
    {
      "text": "it's gonna borrow the money from China",
      "start": 1235.84,
      "duration": 4.169
    },
    {
      "text": "and thus its life is her son or it's",
      "start": 1237.49,
      "duration": 3.87
    },
    {
      "text": "gonna take it from someone else that's",
      "start": 1240.009,
      "duration": 2.91
    },
    {
      "text": "causing jobs to be destroyed somewhere",
      "start": 1241.36,
      "duration": 4.439
    },
    {
      "text": "house it's only a selfish narcissistic",
      "start": 1242.919,
      "duration": 5.191
    },
    {
      "text": "monster who would look at this and say",
      "start": 1245.799,
      "duration": 4.11
    },
    {
      "text": "oh great well I get alone and there's no",
      "start": 1248.11,
      "duration": 3.299
    },
    {
      "text": "cost to anyone and there's no harm to",
      "start": 1249.909,
      "duration": 3.75
    },
    {
      "text": "anyone I want to start my own business",
      "start": 1251.409,
      "duration": 4.291
    },
    {
      "text": "so I'm gonna take this money oh the bank",
      "start": 1253.659,
      "duration": 3.15
    },
    {
      "text": "won't give it to me because I don't have",
      "start": 1255.7,
      "duration": 2.429
    },
    {
      "text": "a good business plan I'll go to the",
      "start": 1256.809,
      "duration": 2.401
    },
    {
      "text": "government to get it to the point of a",
      "start": 1258.129,
      "duration": 3.9
    },
    {
      "text": "gun it takes a special kind of",
      "start": 1259.21,
      "duration": 5.309
    },
    {
      "text": "narcissistic asshole to take stuff from",
      "start": 1262.029,
      "duration": 5.25
    },
    {
      "text": "the government and claim to have no clue",
      "start": 1264.519,
      "duration": 4.681
    },
    {
      "text": "that it's being ripped out of somebody",
      "start": 1267.279,
      "duration": 3.12
    },
    {
      "text": "else's pocket at gunpoint",
      "start": 1269.2,
      "duration": 2.839
    },
    {
      "text": "and usually the unborn where it's",
      "start": 1270.399,
      "duration": 8.78
    },
    {
      "text": "unbelievably predatory 65 years old and",
      "start": 1272.039,
      "duration": 12.1
    },
    {
      "text": "the President Obama still the man is",
      "start": 1279.179,
      "duration": 7.09
    },
    {
      "text": "like a vampire",
      "start": 1284.139,
      "duration": 5.25
    },
    {
      "text": "Julia enrolls in medicare helping her to",
      "start": 1286.269,
      "duration": 4.86
    },
    {
      "text": "afford preventative care and the",
      "start": 1289.389,
      "duration": 3.27
    },
    {
      "text": "prescription drugs",
      "start": 1291.129,
      "duration": 6.331
    },
    {
      "text": "NEADS yeah free stuff is nice until it's",
      "start": 1292.659,
      "duration": 7.681
    },
    {
      "text": "no longer free and it all collapses at",
      "start": 1297.46,
      "duration": 4.529
    },
    {
      "text": "the age of 67 out of President Obama",
      "start": 1300.34,
      "duration": 3.419
    },
    {
      "text": "Julia retires after years of",
      "start": 1301.989,
      "duration": 8.64
    },
    {
      "text": "contributing to Social Security oh my",
      "start": 1303.759,
      "duration": 7.26
    },
    {
      "text": "god",
      "start": 1310.629,
      "duration": 2.311
    },
    {
      "text": "are they still telling this complete lie",
      "start": 1311.019,
      "duration": 3.99
    },
    {
      "text": "that people contribute to Social",
      "start": 1312.94,
      "duration": 6.329
    },
    {
      "text": "Security there's nothing there there's I",
      "start": 1315.009,
      "duration": 7.67
    },
    {
      "text": "Oh use it's a blank empty dusty cupboard",
      "start": 1319.269,
      "duration": 6.39
    },
    {
      "text": "there's nothing in it it's an empty bank",
      "start": 1322.679,
      "duration": 4.81
    },
    {
      "text": "vault that isn't even worth what a bank",
      "start": 1325.659,
      "duration": 5.76
    },
    {
      "text": "vault is worth no there's an idea that",
      "start": 1327.489,
      "duration": 6.15
    },
    {
      "text": "that you contribute that a go somewhere",
      "start": 1331.419,
      "duration": 3.87
    },
    {
      "text": "in a lockbox and then you get it back",
      "start": 1333.639,
      "duration": 3.59
    },
    {
      "text": "later oh my god",
      "start": 1335.289,
      "duration": 4.411
    },
    {
      "text": "anybody who claims to believe that is",
      "start": 1337.229,
      "duration": 5.07
    },
    {
      "text": "too dumb to be trusted with money",
      "start": 1339.7,
      "duration": 4.799
    },
    {
      "text": "after years of contributing to Social",
      "start": 1342.299,
      "duration": 3.671
    },
    {
      "text": "Security she receives monthly benefits",
      "start": 1344.499,
      "duration": 3.54
    },
    {
      "text": "that help her retire comfortably without",
      "start": 1345.97,
      "duration": 4.199
    },
    {
      "text": "worrying that she'll run out of savings",
      "start": 1348.039,
      "duration": 3.81
    },
    {
      "text": "this allows her to volunteer at a",
      "start": 1350.169,
      "duration": 6.45
    },
    {
      "text": "community garden we really going to",
      "start": 1351.849,
      "duration": 7.38
    },
    {
      "text": "appeal to women that way to volunteer at",
      "start": 1356.619,
      "duration": 4.98
    },
    {
      "text": "a community garden is that where women's",
      "start": 1359.229,
      "duration": 4.65
    },
    {
      "text": "ambitions are after 40 years or 50 years",
      "start": 1361.599,
      "duration": 7.981
    },
    {
      "text": "of feminism ah you know what about going",
      "start": 1363.879,
      "duration": 7.26
    },
    {
      "text": "to the third world to help people what",
      "start": 1369.58,
      "duration": 2.789
    },
    {
      "text": "about teaching people how to hang glide",
      "start": 1371.139,
      "duration": 3.331
    },
    {
      "text": "what about writing a great novel she's",
      "start": 1372.369,
      "duration": 3.331
    },
    {
      "text": "on Hill and get a volunteer at a",
      "start": 1374.47,
      "duration": 5.299
    },
    {
      "text": "community garden oh it's embarrassing",
      "start": 1375.7,
      "duration": 4.069
    },
    {
      "text": "from cracking down on gender",
      "start": 1380.37,
      "duration": 3.51
    },
    {
      "text": "discrimination in health care costs to",
      "start": 1382.289,
      "duration": 3.301
    },
    {
      "text": "fighting for equal pay President Obama",
      "start": 1383.88,
      "duration": 3.06
    },
    {
      "text": "is standing up for women throughout",
      "start": 1385.59,
      "duration": 4.469
    },
    {
      "text": "their lives so then this is not",
      "start": 1386.94,
      "duration": 4.589
    },
    {
      "text": "considered patriarchal at all",
      "start": 1390.059,
      "duration": 3.511
    },
    {
      "text": "you don't worry honey we're gonna pass a",
      "start": 1391.529,
      "duration": 4.321
    },
    {
      "text": "law that's gonna make sure you get what",
      "start": 1393.57,
      "duration": 3.9
    },
    {
      "text": "you deserve me gonna give you all this",
      "start": 1395.85,
      "duration": 2.939
    },
    {
      "text": "free stuff don't you worry your pretty",
      "start": 1397.47,
      "duration": 2.91
    },
    {
      "text": "little head about where it's coming from",
      "start": 1398.789,
      "duration": 3.841
    },
    {
      "text": "you got it all covered for you we're",
      "start": 1400.38,
      "duration": 3.87
    },
    {
      "text": "gonna get you your birth control so you",
      "start": 1402.63,
      "duration": 3.12
    },
    {
      "text": "can go out and sex it up the way that",
      "start": 1404.25,
      "duration": 3.15
    },
    {
      "text": "you like we're gonna take your kids in",
      "start": 1405.75,
      "duration": 3.12
    },
    {
      "text": "real early we're gonna take them away",
      "start": 1407.4,
      "duration": 2.909
    },
    {
      "text": "from you real early so you can run on",
      "start": 1408.87,
      "duration": 2.789
    },
    {
      "text": "back and pay us some taxes through",
      "start": 1410.309,
      "duration": 3.031
    },
    {
      "text": "getting some work done you know you",
      "start": 1411.659,
      "duration": 3.091
    },
    {
      "text": "don't have to worry about dealing with a",
      "start": 1413.34,
      "duration": 3.63
    },
    {
      "text": "bank or any of these other finically",
      "start": 1414.75,
      "duration": 4.14
    },
    {
      "text": "kind of financial people yeah it will",
      "start": 1416.97,
      "duration": 3.839
    },
    {
      "text": "give you a nice loan pat pat pat we'll",
      "start": 1418.89,
      "duration": 3.269
    },
    {
      "text": "take care of you they don't you worry",
      "start": 1420.809,
      "duration": 2.941
    },
    {
      "text": "about your retirement you give us the",
      "start": 1422.159,
      "duration": 3.39
    },
    {
      "text": "money honey and we'll take care of you",
      "start": 1423.75,
      "duration": 3.24
    },
    {
      "text": "don't you worry about that if you get",
      "start": 1425.549,
      "duration": 3.151
    },
    {
      "text": "sick we'll cover the bills we'll be fine",
      "start": 1426.99,
      "duration": 2.939
    },
    {
      "text": "don't you worry your pretty little head",
      "start": 1428.7,
      "duration": 2.579
    },
    {
      "text": "about any of it we got you covered",
      "start": 1429.929,
      "duration": 2.641
    },
    {
      "text": "everything's fine you don't need a",
      "start": 1431.279,
      "duration": 2.64
    },
    {
      "text": "husband you don't need a community you",
      "start": 1432.57,
      "duration": 3.45
    },
    {
      "text": "don't need a family you go we've got it",
      "start": 1433.919,
      "duration": 5.75
    },
    {
      "text": "all covered if a husband treated a woman",
      "start": 1436.02,
      "duration": 6.21
    },
    {
      "text": "the way that President Obama wants to",
      "start": 1439.669,
      "duration": 6.01
    },
    {
      "text": "treat all women he would be shouted down",
      "start": 1442.23,
      "duration": 4.86
    },
    {
      "text": "in the pitch folks would be thrown",
      "start": 1445.679,
      "duration": 3.24
    },
    {
      "text": "through his misogynistic ass for being",
      "start": 1447.09,
      "duration": 5.61
    },
    {
      "text": "such a discriminatory sexist big I mean",
      "start": 1448.919,
      "duration": 4.89
    },
    {
      "text": "you can't sometimes you can't even hold",
      "start": 1452.7,
      "duration": 2.55
    },
    {
      "text": "the door open for women if this guy",
      "start": 1453.809,
      "duration": 2.85
    },
    {
      "text": "wants to run their entire lives and",
      "start": 1455.25,
      "duration": 2.909
    },
    {
      "text": "everybody's cheering it's complete",
      "start": 1456.659,
      "duration": 5.13
    },
    {
      "text": "madness the complete and if I don't like",
      "start": 1458.159,
      "duration": 5.191
    },
    {
      "text": "go on too long because it's just it's",
      "start": 1461.789,
      "duration": 2.971
    },
    {
      "text": "quite mad and it really does show you",
      "start": 1463.35,
      "duration": 5.13
    },
    {
      "text": "just a degree to which ejecting dads",
      "start": 1464.76,
      "duration": 6.12
    },
    {
      "text": "from families which has been done",
      "start": 1468.48,
      "duration": 4.29
    },
    {
      "text": "through combination of a variety of",
      "start": 1470.88,
      "duration": 3.21
    },
    {
      "text": "factors including of course the dance",
      "start": 1472.77,
      "duration": 3.36
    },
    {
      "text": "themselves ejecting dads from families",
      "start": 1474.09,
      "duration": 4.589
    },
    {
      "text": "but kids hasn't changed the equation at",
      "start": 1476.13,
      "duration": 3.539
    },
    {
      "text": "all it just means that you got to",
      "start": 1478.679,
      "duration": 4.801
    },
    {
      "text": "substitute state power for a husband's",
      "start": 1479.669,
      "duration": 5.401
    },
    {
      "text": "benevolence and that's really really",
      "start": 1483.48,
      "duration": 3
    },
    {
      "text": "tragic and you could see the effects of",
      "start": 1485.07,
      "duration": 5.07
    },
    {
      "text": "all of this in society as a whole but",
      "start": 1486.48,
      "duration": 5.52
    },
    {
      "text": "it's interesting you know they don't",
      "start": 1490.14,
      "duration": 4.82
    },
    {
      "text": "mention anything about the fact that",
      "start": 1492,
      "duration": 5.549
    },
    {
      "text": "this woman is born into hundreds of",
      "start": 1494.96,
      "duration": 4.36
    },
    {
      "text": "thousands of dollars of unassuming death",
      "start": 1497.549,
      "duration": 3.63
    },
    {
      "text": "because of the unfunded liabilities of",
      "start": 1499.32,
      "duration": 3.989
    },
    {
      "text": "governments around the world they don't",
      "start": 1501.179,
      "duration": 6.301
    },
    {
      "text": "say julia is born into $200,000 worth of",
      "start": 1503.309,
      "duration": 5.971
    },
    {
      "text": "debt which you will never ever pay off",
      "start": 1507.48,
      "duration": 3.54
    },
    {
      "text": "because of the way the system works",
      "start": 1509.28,
      "duration": 3.21
    },
    {
      "text": "because we had to borrow all this money",
      "start": 1511.02,
      "duration": 2.85
    },
    {
      "text": "from the Chinese",
      "start": 1512.49,
      "duration": 3.15
    },
    {
      "text": "and I think it is also interesting that",
      "start": 1513.87,
      "duration": 5.85
    },
    {
      "text": "Julia actually only has one child one",
      "start": 1515.64,
      "duration": 5.64
    },
    {
      "text": "child he's the only family that ever",
      "start": 1519.72,
      "duration": 3.72
    },
    {
      "text": "shows up in this is the one child and",
      "start": 1521.28,
      "duration": 3.96
    },
    {
      "text": "why does he have only one child because",
      "start": 1523.44,
      "duration": 3.72
    },
    {
      "text": "they're all owned by the Chinese and the",
      "start": 1525.24,
      "duration": 3.24
    },
    {
      "text": "Chinese are quite partial to their",
      "start": 1527.16,
      "duration": 2.76
    },
    {
      "text": "one-child policy",
      "start": 1528.48,
      "duration": 5
    },
    {
      "text": "stefan molyneux out",
      "start": 1529.92,
      "duration": 3.56
    }
  ],
  "Errors": null,
  "TranscriptStderr": null
}