[
    {
        "start": "3.7",
        "dur": "5.109",
        "text": "hi everybody it's a fan molyneux from"
    },
    {
        "start": "5.96",
        "dur": "5.999",
        "text": "freedomain radio WWE freedomain radio"
    },
    {
        "start": "8.809",
        "dur": "6.81",
        "text": "com thanks a lot for tuning into this my"
    },
    {
        "start": "11.959",
        "dur": "7.71",
        "text": "latest video I have a new book and the"
    },
    {
        "start": "15.619",
        "dur": "6.181",
        "text": "book is called untruth the tyranny of"
    },
    {
        "start": "19.669",
        "dur": "4.34",
        "text": "illusion and it's an introduction to"
    },
    {
        "start": "21.8",
        "dur": "4.229",
        "text": "some pretty base and I think powerful"
    },
    {
        "start": "24.009",
        "dur": "4.18",
        "text": "philosophical concepts that you can"
    },
    {
        "start": "26.029",
        "dur": "4.5",
        "text": "really put into practice in your own"
    },
    {
        "start": "28.189",
        "dur": "4.831",
        "text": "life to achieve greater depth a richness"
    },
    {
        "start": "30.529",
        "dur": "6.121",
        "text": "intimacy love happiness professional"
    },
    {
        "start": "33.02",
        "dur": "5.58",
        "text": "success yes all of that available in a"
    },
    {
        "start": "36.65",
        "dur": "4.98",
        "text": "relatively short book it's available"
    },
    {
        "start": "38.6",
        "dur": "5.64",
        "text": "from lulu.com you can search for untruth"
    },
    {
        "start": "41.63",
        "dur": "5.97",
        "text": "you can search for my name stefan"
    },
    {
        "start": "44.24",
        "dur": "5.84",
        "text": "molyneux mo ly any ux of course there"
    },
    {
        "start": "47.6",
        "dur": "6.48",
        "text": "will also be links on the homepage at"
    },
    {
        "start": "50.08",
        "dur": "7",
        "text": "WWF redeem a radio com I have decided to"
    },
    {
        "start": "54.08",
        "dur": "5.37",
        "text": "release this as only a book a paper book"
    },
    {
        "start": "57.08",
        "dur": "4.35",
        "text": "because it's the kind of thing that you"
    },
    {
        "start": "59.45",
        "dur": "3.96",
        "text": "need to stop and peruse and refer back"
    },
    {
        "start": "61.43",
        "dur": "5.46",
        "text": "and forth the pages not really so"
    },
    {
        "start": "63.41",
        "dur": "5.669",
        "text": "possible in in a podcast so I thought"
    },
    {
        "start": "66.89",
        "dur": "3.75",
        "text": "I'd read the first few pages and see if"
    },
    {
        "start": "69.079",
        "dur": "4.68",
        "text": "this is the kind of thing that you might"
    },
    {
        "start": "70.64",
        "dur": "4.439",
        "text": "like I think that it's a I'm very very"
    },
    {
        "start": "73.759",
        "dur": "4.14",
        "text": "proud of it very pleased of it and I"
    },
    {
        "start": "75.079",
        "dur": "7.11",
        "text": "hope that you will like it so it starts"
    },
    {
        "start": "77.899",
        "dur": "7.65",
        "text": "this there this way from a short term"
    },
    {
        "start": "82.189",
        "dur": "7.231",
        "text": "merely practical standpoint you really"
    },
    {
        "start": "85.549",
        "dur": "7.43",
        "text": "do not want to read this book this book"
    },
    {
        "start": "89.42",
        "dur": "6.57",
        "text": "will mess up your life as you know it"
    },
    {
        "start": "92.979",
        "dur": "5.111",
        "text": "this book will change every single one"
    },
    {
        "start": "95.99",
        "dur": "5.669",
        "text": "of your relationships most importantly"
    },
    {
        "start": "98.09",
        "dur": "5.61",
        "text": "your relationship with yourself this"
    },
    {
        "start": "101.659",
        "dur": "4.17",
        "text": "book will change your life even if you"
    },
    {
        "start": "103.7",
        "dur": "5.339",
        "text": "never implement a single one of the"
    },
    {
        "start": "105.829",
        "dur": "4.74",
        "text": "proposals it contains this book will"
    },
    {
        "start": "109.039",
        "dur": "5.161",
        "text": "change you even if you disagree with"
    },
    {
        "start": "110.569",
        "dur": "6.93",
        "text": "every single idea it puts forward even"
    },
    {
        "start": "114.2",
        "dur": "5.159",
        "text": "if you put it down right now this book"
    },
    {
        "start": "117.499",
        "dur": "6.381",
        "text": "will have changed your life because now"
    },
    {
        "start": "119.359",
        "dur": "9.031",
        "text": "you know that you are afraid of change"
    },
    {
        "start": "123.88",
        "dur": "7.45",
        "text": "this book is radioactive and painful it"
    },
    {
        "start": "128.39",
        "dur": "4.3",
        "text": "is only incidentally the kind of"
    },
    {
        "start": "131.33",
        "dur": "8.08",
        "text": "radiation and"
    },
    {
        "start": "132.69",
        "dur": "8.04",
        "text": "that will cure you relationships there"
    },
    {
        "start": "139.41",
        "dur": "4.11",
        "text": "are really only three kinds of"
    },
    {
        "start": "140.73",
        "dur": "4.74",
        "text": "relationship in the world the first kind"
    },
    {
        "start": "143.52",
        "dur": "5.31",
        "text": "is the one we all dream of joyous"
    },
    {
        "start": "145.47",
        "dur": "7.29",
        "text": "mutually beneficial deep meaningful fun"
    },
    {
        "start": "148.83",
        "dur": "5.88",
        "text": "a real pleasure to have and to hold this"
    },
    {
        "start": "152.76",
        "dur": "5.01",
        "text": "kind of relationship is extraordinarily"
    },
    {
        "start": "154.71",
        "dur": "4.86",
        "text": "rare if this kind of relationship for an"
    },
    {
        "start": "157.77",
        "dur": "4.41",
        "text": "animal it would not even be on the"
    },
    {
        "start": "159.57",
        "dur": "7.02",
        "text": "endangered species it would be by many"
    },
    {
        "start": "162.18",
        "dur": "6.39",
        "text": "considered extinct the second kind of"
    },
    {
        "start": "166.59",
        "dur": "5.28",
        "text": "relationship is mutually beneficial but"
    },
    {
        "start": "168.57",
        "dur": "4.83",
        "text": "not joyous deep or meaningful this is"
    },
    {
        "start": "171.87",
        "dur": "4.11",
        "text": "the kind of relationship that you have"
    },
    {
        "start": "173.4",
        "dur": "7.53",
        "text": "with your grocer your banker and perhaps"
    },
    {
        "start": "175.98",
        "dur": "7.62",
        "text": "your boss it is voluntary defined by an"
    },
    {
        "start": "180.93",
        "dur": "4.53",
        "text": "implicit or explicit contract and can"
    },
    {
        "start": "183.6",
        "dur": "6.45",
        "text": "usually be broken or allowed to lapse"
    },
    {
        "start": "185.46",
        "dur": "7.2",
        "text": "without guilt regret of remorse this"
    },
    {
        "start": "190.05",
        "dur": "5.4",
        "text": "kind of relationship is not uncommon but"
    },
    {
        "start": "192.66",
        "dur": "5.4",
        "text": "also not very important we do not lose"
    },
    {
        "start": "195.45",
        "dur": "4.71",
        "text": "our lives our happiness or our very"
    },
    {
        "start": "198.06",
        "dur": "4.41",
        "text": "souls in the pits of these kinds of"
    },
    {
        "start": "200.16",
        "dur": "6.47",
        "text": "relationships they are as the saying"
    },
    {
        "start": "202.47",
        "dur": "6.84",
        "text": "goes dry calculations of mutual utility"
    },
    {
        "start": "206.63",
        "dur": "5.109",
        "text": "we are not obligated to go to the death"
    },
    {
        "start": "209.31",
        "dur": "4.2",
        "text": "beds of our bankers our groceries do not"
    },
    {
        "start": "211.739",
        "dur": "4.051",
        "text": "force us to attend church when we do not"
    },
    {
        "start": "213.51",
        "dur": "4.53",
        "text": "believe we rarely get into fights with"
    },
    {
        "start": "215.79",
        "dur": "6.75",
        "text": "our bosses about whether we should"
    },
    {
        "start": "218.04",
        "dur": "6",
        "text": "baptize our children no it is the third"
    },
    {
        "start": "222.54",
        "dur": "3.87",
        "text": "kind of relationship that we are most"
    },
    {
        "start": "224.04",
        "dur": "4.29",
        "text": "concerned with in our lives it is the"
    },
    {
        "start": "226.41",
        "dur": "4.829",
        "text": "third kind of relationship that so often"
    },
    {
        "start": "228.33",
        "dur": "4.76",
        "text": "torches us it is the third kind of"
    },
    {
        "start": "231.239",
        "dur": "7.051",
        "text": "relationship that undermines our joy"
    },
    {
        "start": "233.09",
        "dur": "6.55",
        "text": "integrity and independence the first"
    },
    {
        "start": "238.29",
        "dur": "3.99",
        "text": "kind of relationship does not involve"
    },
    {
        "start": "239.64",
        "dur": "5.43",
        "text": "obligation but pleasure there is no need"
    },
    {
        "start": "242.28",
        "dur": "5.13",
        "text": "for gills or manipulation bullying or"
    },
    {
        "start": "245.07",
        "dur": "6.12",
        "text": "control demands tears or passive"
    },
    {
        "start": "247.41",
        "dur": "5.28",
        "text": "aggression we do not need obligation to"
    },
    {
        "start": "251.19",
        "dur": "3.329",
        "text": "draw as to that which gives us pleasure"
    },
    {
        "start": "252.69",
        "dur": "5.88",
        "text": "any more than a child needs to be"
    },
    {
        "start": "254.519",
        "dur": "5.551",
        "text": "cajoled into eating his candy the second"
    },
    {
        "start": "258.57",
        "dur": "4.349",
        "text": "kind of relationship does involve"
    },
    {
        "start": "260.07",
        "dur": "4.79",
        "text": "obligation but it is voluntarily chosen"
    },
    {
        "start": "262.919",
        "dur": "4.37",
        "text": "for mutual advantage"
    },
    {
        "start": "264.86",
        "dur": "5.13",
        "text": "we pay our mortgage the banks gives us a"
    },
    {
        "start": "267.289",
        "dur": "5.071",
        "text": "house this relationship is contractual"
    },
    {
        "start": "269.99",
        "dur": "5.699",
        "text": "and thus does not need guilt or"
    },
    {
        "start": "272.36",
        "dur": "5.19",
        "text": "manipulation it is the third kind of"
    },
    {
        "start": "275.689",
        "dur": "5.16",
        "text": "relationship that this book will focus"
    },
    {
        "start": "277.55",
        "dur": "10.109",
        "text": "on it is the third kind of relationship"
    },
    {
        "start": "280.849",
        "dur": "9.03",
        "text": "that is eating us alive the third kind"
    },
    {
        "start": "287.659",
        "dur": "4.41",
        "text": "the third kind of relationship has three"
    },
    {
        "start": "289.879",
        "dur": "4.981",
        "text": "main components the first is that it is"
    },
    {
        "start": "292.069",
        "dur": "5.641",
        "text": "not chosen the second is that it"
    },
    {
        "start": "294.86",
        "dur": "7.679",
        "text": "involves obligations and the third is"
    },
    {
        "start": "297.71",
        "dur": "6.78",
        "text": "that it is considered model the first"
    },
    {
        "start": "302.539",
        "dur": "3.211",
        "text": "and most important aspect of these kinds"
    },
    {
        "start": "304.49",
        "dur": "3.959",
        "text": "of relationships is that they're not"
    },
    {
        "start": "305.75",
        "dur": "5.759",
        "text": "entered into voluntarily you are born"
    },
    {
        "start": "308.449",
        "dur": "6.09",
        "text": "into them you do not choose your parents"
    },
    {
        "start": "311.509",
        "dur": "4.861",
        "text": "you do not choose your siblings you do"
    },
    {
        "start": "314.539",
        "dur": "3.84",
        "text": "not choose your extended family you do"
    },
    {
        "start": "316.37",
        "dur": "4.019",
        "text": "not choose your country you do not"
    },
    {
        "start": "318.379",
        "dur": "4.41",
        "text": "choose your culture you do not choose"
    },
    {
        "start": "320.389",
        "dur": "4.471",
        "text": "your government you do not choose your"
    },
    {
        "start": "322.789",
        "dur": "5.041",
        "text": "religion you do not choose your school"
    },
    {
        "start": "324.86",
        "dur": "4.979",
        "text": "you do not choose your teachers sadly"
    },
    {
        "start": "327.83",
        "dur": "5.25",
        "text": "when you were a child the list is nearly"
    },
    {
        "start": "329.839",
        "dur": "7.11",
        "text": "endless you are born into this world"
    },
    {
        "start": "333.08",
        "dur": "5.54",
        "text": "without choice into a familial social"
    },
    {
        "start": "336.949",
        "dur": "4.351",
        "text": "educational political and geographical"
    },
    {
        "start": "338.62",
        "dur": "7.93",
        "text": "environment that is merely accidental"
    },
    {
        "start": "341.3",
        "dur": "7.859",
        "text": "and for the rest of your life everyone"
    },
    {
        "start": "346.55",
        "dur": "7.47",
        "text": "will try to convince you that you are"
    },
    {
        "start": "349.159",
        "dur": "6.66",
        "text": "responsible for this accident your"
    },
    {
        "start": "354.02",
        "dur": "3.359",
        "text": "parents decided to have a child you were"
    },
    {
        "start": "355.819",
        "dur": "3.15",
        "text": "in no way involved in the choice since"
    },
    {
        "start": "357.379",
        "dur": "3.72",
        "text": "you did not as yet exist where the"
    },
    {
        "start": "358.969",
        "dur": "3.87",
        "text": "decision was made even if you were"
    },
    {
        "start": "361.099",
        "dur": "5.461",
        "text": "conceived by accident or adopted your"
    },
    {
        "start": "362.839",
        "dur": "5.311",
        "text": "parents decided to keep you that's your"
    },
    {
        "start": "366.56",
        "dur": "3.509",
        "text": "parents relationship with you when you"
    },
    {
        "start": "368.15",
        "dur": "3.9",
        "text": "were a child was essentially contractual"
    },
    {
        "start": "370.069",
        "dur": "5.641",
        "text": "in the same way that when you buy a dog"
    },
    {
        "start": "372.05",
        "dur": "6.149",
        "text": "you're obligated to feed it naturally it"
    },
    {
        "start": "375.71",
        "dur": "3.84",
        "text": "is preferable and certainly possible for"
    },
    {
        "start": "378.199",
        "dur": "4.111",
        "text": "your relationship with your parents to"
    },
    {
        "start": "379.55",
        "dur": "6.239",
        "text": "be loving mutually enjoyable respectful"
    },
    {
        "start": "382.31",
        "dur": "5.639",
        "text": "and great fun all around but as I said"
    },
    {
        "start": "385.789",
        "dur": "6.87",
        "text": "before this kind of relationship is"
    },
    {
        "start": "387.949",
        "dur": "6.421",
        "text": "sadly all-too-rare entire generations of"
    },
    {
        "start": "392.659",
        "dur": "4.68",
        "text": "children have grown up with the idea"
    },
    {
        "start": "394.37",
        "dur": "3.87",
        "text": "that the act of being born creates an"
    },
    {
        "start": "397.339",
        "dur": "3.401",
        "text": "obligation"
    },
    {
        "start": "398.24",
        "dur": "7.54",
        "text": "this is entirely false and one of the"
    },
    {
        "start": "400.74",
        "dur": "7.89",
        "text": "most destructive myths of mankind first"
    },
    {
        "start": "405.78",
        "dur": "6.15",
        "text": "I will tell you what is true then I will"
    },
    {
        "start": "408.63",
        "dur": "9.06",
        "text": "tell you why it is true then I will tell"
    },
    {
        "start": "411.93",
        "dur": "7.77",
        "text": "you how to change what is true it is"
    },
    {
        "start": "417.69",
        "dur": "4.17",
        "text": "true that your parents chose to have you"
    },
    {
        "start": "419.7",
        "dur": "4.17",
        "text": "it is true that by making that choice"
    },
    {
        "start": "421.86",
        "dur": "4.62",
        "text": "your parents assumed a voluntary"
    },
    {
        "start": "423.87",
        "dur": "4.38",
        "text": "obligation towards you that obligation"
    },
    {
        "start": "426.48",
        "dur": "5.52",
        "text": "consisted of two main parts the first"
    },
    {
        "start": "428.25",
        "dur": "5.82",
        "text": "was physical the second was moral the"
    },
    {
        "start": "432",
        "dur": "4.68",
        "text": "physical part of their obligation was"
    },
    {
        "start": "434.07",
        "dur": "6.09",
        "text": "clothing food medical attention shelter"
    },
    {
        "start": "436.68",
        "dur": "5.16",
        "text": "and so on base physical requirements I'm"
    },
    {
        "start": "440.16",
        "dur": "3.15",
        "text": "not going to spend much time on that in"
    },
    {
        "start": "441.84",
        "dur": "3.51",
        "text": "this book since the vast majority of"
    },
    {
        "start": "443.31",
        "dur": "4.11",
        "text": "parents succeed in providing food and"
    },
    {
        "start": "445.35",
        "dur": "3.87",
        "text": "shelter for their children and those who"
    },
    {
        "start": "447.42",
        "dur": "3.78",
        "text": "fail in this regard are so obviously"
    },
    {
        "start": "449.22",
        "dur": "3.99",
        "text": "deficient that a philosophical book is"
    },
    {
        "start": "451.2",
        "dur": "6.69",
        "text": "scarcely required to illuminate their"
    },
    {
        "start": "453.21",
        "dur": "6.81",
        "text": "shortcomings the moral obligations that"
    },
    {
        "start": "457.89",
        "dur": "4.8",
        "text": "your parents assumed by having you were"
    },
    {
        "start": "460.02",
        "dur": "4.35",
        "text": "twofold the first part is more or less"
    },
    {
        "start": "462.69",
        "dur": "3.229",
        "text": "understood in society and consists of"
    },
    {
        "start": "464.37",
        "dur": "3.66",
        "text": "all the standard virtues such as"
    },
    {
        "start": "465.919",
        "dur": "3.761",
        "text": "educating you keeping you safe"
    },
    {
        "start": "468.03",
        "dur": "5.31",
        "text": "refraining from physical or emotional"
    },
    {
        "start": "469.68",
        "dur": "6.42",
        "text": "abuse and so on the second part of your"
    },
    {
        "start": "473.34",
        "dur": "6.42",
        "text": "parents moral obligation towards you is"
    },
    {
        "start": "476.1",
        "dur": "6.42",
        "text": "much more subtle and corrosive this is"
    },
    {
        "start": "479.76",
        "dur": "5.04",
        "text": "the realm of integrity and it is a great"
    },
    {
        "start": "482.52",
        "dur": "8.73",
        "text": "challenge for societies throughout the"
    },
    {
        "start": "484.8",
        "dur": "8.48",
        "text": "world integrity the greatest failings of"
    },
    {
        "start": "491.25",
        "dur": "4.65",
        "text": "parents are the realms of integrity"
    },
    {
        "start": "493.28",
        "dur": "6.99",
        "text": "integrity can be defined as consistency"
    },
    {
        "start": "495.9",
        "dur": "7.47",
        "text": "between reality ideas and behavior"
    },
    {
        "start": "500.27",
        "dur": "5.649",
        "text": "consistency with reality is not telling"
    },
    {
        "start": "503.37",
        "dur": "5.94",
        "text": "a child that daddy is sick when he is in"
    },
    {
        "start": "505.919",
        "dur": "5.791",
        "text": "fact drunk consistency with behavior is"
    },
    {
        "start": "509.31",
        "dur": "4.979",
        "text": "not slapping a child for hitting another"
    },
    {
        "start": "511.71",
        "dur": "4.32",
        "text": "child the value of this kind of"
    },
    {
        "start": "514.289",
        "dur": "3.781",
        "text": "integrity is also well understood by"
    },
    {
        "start": "516.03",
        "dur": "3.48",
        "text": "many even if not even if imperfectly"
    },
    {
        "start": "518.07",
        "dur": "5.159",
        "text": "practiced and we will not deal with it"
    },
    {
        "start": "519.51",
        "dur": "7.71",
        "text": "much here either it is consistency with"
    },
    {
        "start": "523.229",
        "dur": "5.821",
        "text": "ideas that causes the most problems for"
    },
    {
        "start": "527.22",
        "dur": "4.03",
        "text": "families and the most long-term"
    },
    {
        "start": "529.05",
        "dur": "6.6",
        "text": "suffering for children through"
    },
    {
        "start": "531.25",
        "dur": "8.52",
        "text": "their lives when you were a child you"
    },
    {
        "start": "535.65",
        "dur": "8.17",
        "text": "were told over and over that certain"
    },
    {
        "start": "539.77",
        "dur": "7.25",
        "text": "actions were either good or bad telling"
    },
    {
        "start": "543.82",
        "dur": "5.85",
        "text": "the truth was good stealing was bad"
    },
    {
        "start": "547.02",
        "dur": "5.41",
        "text": "hitting your brother was bad helping"
    },
    {
        "start": "549.67",
        "dur": "5.52",
        "text": "your grandmother was good being on time"
    },
    {
        "start": "552.43",
        "dur": "6.26",
        "text": "was good failing to complete chores was"
    },
    {
        "start": "555.19",
        "dur": "7.35",
        "text": "bad implicit in all these instructions"
    },
    {
        "start": "558.69",
        "dur": "5.74",
        "text": "moral instructions was the premise that"
    },
    {
        "start": "562.54",
        "dur": "4.89",
        "text": "your parents knew what was right and"
    },
    {
        "start": "564.43",
        "dur": "7.68",
        "text": "what was wrong what was good and what"
    },
    {
        "start": "567.43",
        "dur": "10.28",
        "text": "was bad do you think that was really"
    },
    {
        "start": "572.11",
        "dur": "8.91",
        "text": "true do you think that your parents knew"
    },
    {
        "start": "577.71",
        "dur": "7.69",
        "text": "what was right and wrong when you were a"
    },
    {
        "start": "581.02",
        "dur": "9.06",
        "text": "child well for the rest of it you can"
    },
    {
        "start": "585.4",
        "dur": "6.18",
        "text": "come to WWF freedomain radio com and you"
    },
    {
        "start": "590.08",
        "dur": "3.63",
        "text": "can order the book through Lulu comm"
    },
    {
        "start": "591.58",
        "dur": "3.6",
        "text": "center twenty bucks and I think that"
    },
    {
        "start": "593.71",
        "dur": "4.26",
        "text": "you'll really really enjoy it I think it"
    },
    {
        "start": "595.18",
        "dur": "4.53",
        "text": "would be quite a revelation and I fought"
    },
    {
        "start": "597.97",
        "dur": "4.17",
        "text": "quite a lot of intellectual energy and"
    },
    {
        "start": "599.71",
        "dur": "3.9",
        "text": "consistency and insight into the book so"
    },
    {
        "start": "602.14",
        "dur": "3.33",
        "text": "I hope that you will come by and have an"
    },
    {
        "start": "603.61",
        "dur": "3.09",
        "text": "order an order it and I hope that you"
    },
    {
        "start": "605.47",
        "dur": "2.76",
        "text": "will enjoy it and let me know what you"
    },
    {
        "start": "606.7",
        "dur": "3.92",
        "text": "think thank you so much as always for"
    },
    {
        "start": "608.23",
        "dur": "2.39",
        "text": "watching"
    },
    {
        "start": "618.22",
        "dur": "2.06",
        "text": "you"
    }
]