{
  "Title": "The Liberalization of America | Phyllis Schlafly and Stefan Molyneux",
  "Id": "OzsEbpoYNwA",
  "Transcript": [
    {
      "text": "Hi, everybody Stefan Molyneux I\nhope you're doing well.",
      "start": 0.008,
      "duration": 2.592
    },
    {
      "text": "I'm very pleased to have back for\nthe third time Mrs.",
      "start": 2.6,
      "duration": 4.35
    },
    {
      "text": "Phyllis Schlafly Now she is a conservative\nlawyer, she is the founder and",
      "start": 6.95,
      "duration": 4.33
    },
    {
      "text": "president of the Eagle Forum and\nauthor or editor of over 20 books,",
      "start": 11.28,
      "duration": 5.28
    },
    {
      "text": "including A Choice Not an Echo,\nWho Killed The American family and",
      "start": 16.56,
      "duration": 4.38
    },
    {
      "text": "the supremacist, the tyranny of judges and\nhow to stop it, and of course many more.",
      "start": 20.94,
      "duration": 3.88
    },
    {
      "text": "Her monthly newsletter called the Phyllis\nSchlafly Report is now in its 47th year.",
      "start": 25.9,
      "duration": 4.94
    },
    {
      "text": "She is the hale and\nhearty age of 91 years old And",
      "start": 30.84,
      "duration": 4.09
    },
    {
      "text": "you can find more of our information and\nwriting at eagleforum.org.",
      "start": 34.93,
      "duration": 4.92
    },
    {
      "text": "One of my favorite stories about Phyllis\nLaughly she wrote a lot about military and",
      "start": 39.85,
      "duration": 4.6
    },
    {
      "text": "legal matters she was criticized\nroundly a and perhaps basically for",
      "start": 44.45,
      "duration": 4.095
    },
    {
      "text": "not being a lawyer.",
      "start": 48.545,
      "duration": 1.36
    },
    {
      "text": "So one of the mother of six children\nshe just went out and became a lawyer.",
      "start": 49.905,
      "duration": 4.32
    },
    {
      "text": "She also fought the leftist agenda in\nthe push back against the equal rights",
      "start": 54.225,
      "duration": 5.86
    },
    {
      "text": "amendment and virtually single handedly\nkilled the constitutional amendment.",
      "start": 60.085,
      "duration": 4.21
    },
    {
      "text": "A really formidable And",
      "start": 64.295,
      "duration": 1.965
    },
    {
      "text": "intelligent lady, I look forward to our\nconversation with misses Phyllis Schlafly.",
      "start": 66.26,
      "duration": 4.9
    },
    {
      "text": "So thanks so much for\ntaking the time, misses Schlafly.",
      "start": 71.16,
      "duration": 2.83
    },
    {
      "text": "What does it mean for the conservative\nmovement, the passing of justice Scalia?",
      "start": 73.99,
      "duration": 4.309
    },
    {
      "text": "It is a tremendous event because he was\nthe most distinguished man on the court,",
      "start": 79.62,
      "duration": 6.2
    },
    {
      "text": "knew the law better than anybody else.",
      "start": 85.82,
      "duration": 2.45
    },
    {
      "text": "And believed in interpreting\nthe Constitution the way it was written.",
      "start": 88.27,
      "duration": 4.36
    },
    {
      "text": "He discounted all of this talk\nby the Liberals that we have",
      "start": 92.63,
      "duration": 4.58
    },
    {
      "text": "a living Constitution that they can\nre-write according to their own views.",
      "start": 97.21,
      "duration": 4.87
    },
    {
      "text": "As the years go on.",
      "start": 102.08,
      "duration": 1.246
    },
    {
      "text": "And, it is a document of words and",
      "start": 103.326,
      "duration": 4.794
    },
    {
      "text": "it is what has enabled our country\nto have the best prosperity and",
      "start": 108.12,
      "duration": 5.45
    },
    {
      "text": "the best freedom of any\ncountry in the world.",
      "start": 113.57,
      "duration": 2.8
    },
    {
      "text": "\u003e\u003e It seems strange to me,\nwhat they call Originalism or",
      "start": 117.64,
      "duration": 3.89
    },
    {
      "text": "the idea that you would look at\nthe context of the Constitution at",
      "start": 121.53,
      "duration": 3.28
    },
    {
      "text": "the time it was written,\n\u003e\u003e I can't think of any other contract",
      "start": 124.81,
      "duration": 2.68
    },
    {
      "text": "that people are so",
      "start": 127.49,
      "duration": 0.76
    },
    {
      "text": "eager to quote reinterpret after the fact\naccording to the whims of the moment.",
      "start": 128.25,
      "duration": 4.14
    },
    {
      "text": "That wouldn't seem to me to be\nany kind of contract at all.",
      "start": 132.39,
      "duration": 3.46
    },
    {
      "text": "\u003e\u003e Well you're absolutely right.",
      "start": 135.85,
      "duration": 1.44
    },
    {
      "text": "And that's what the liberals\ndo all the time.",
      "start": 137.29,
      "duration": 2.42
    },
    {
      "text": "They're trying to put new\nmeanings into words and",
      "start": 139.71,
      "duration": 3.9
    },
    {
      "text": "try to say that something is\nconstitutional when it isn't.",
      "start": 143.61,
      "duration": 3.47
    },
    {
      "text": "And then, of course, Obama basically\nignores the constitution and",
      "start": 147.08,
      "duration": 5.27
    },
    {
      "text": "does what he what he wants to do with\nwhat he calls the executive action.",
      "start": 152.35,
      "duration": 5.16
    },
    {
      "text": "And most of us think a great deal of\nwhat he does is not constitutional.",
      "start": 157.51,
      "duration": 5.47
    },
    {
      "text": "It also seems to me that the liberal side\nor the democrat side of the american",
      "start": 164.4,
      "duration": 4.45
    },
    {
      "text": "literal spectrum seem to be having their\nI dont know finger on the scale so",
      "start": 168.85,
      "duration": 4.61
    },
    {
      "text": "to speak and that they dont seem\nto want to take their ideas to",
      "start": 173.46,
      "duration": 2.93
    },
    {
      "text": "the american population for\nany kind of popular vote.",
      "start": 176.39,
      "duration": 2.89
    },
    {
      "text": "What they seem to want to do is pursue\njudicial activism and also stack the deck",
      "start": 179.28,
      "duration": 4.75
    },
    {
      "text": "with democrat friendly immigrants is that\nyour impression too Yes, it certainly is,",
      "start": 184.03,
      "duration": 5.04
    },
    {
      "text": "and that's why immigration is maybe\nthe number one issue in our country today.",
      "start": 189.07,
      "duration": 6.43
    },
    {
      "text": "They're bringing in all these people\nfrom other countries who have no idea",
      "start": 195.5,
      "duration": 4.68
    },
    {
      "text": "of what our constitution is,\nno idea of limited Government,",
      "start": 200.18,
      "duration": 3.91
    },
    {
      "text": "they think they should rely on\nthe government to do everything.",
      "start": 204.09,
      "duration": 3.86
    },
    {
      "text": "And they come over here and\nthey get on all kinds of money aid.",
      "start": 207.95,
      "duration": 5.58
    },
    {
      "text": "And they don't seem to learn what\nour Constitution is all about.",
      "start": 213.53,
      "duration": 6.88
    },
    {
      "text": "So we want to.",
      "start": 220.41,
      "duration": 0.96
    },
    {
      "text": "Stick to the Constitution\nthe way it was written, and",
      "start": 221.37,
      "duration": 2.62
    },
    {
      "text": "what it meant when it was written.",
      "start": 223.99,
      "duration": 1.59
    },
    {
      "text": "\u003e\u003e And if you could help my listeners and\nwatchers understand what is meant",
      "start": 227.45,
      "duration": 4.5
    },
    {
      "text": "by the phrase, it's banded about a lot,\nbut usually without much explanation,",
      "start": 231.95,
      "duration": 3.96
    },
    {
      "text": "judicial activism, or making the law,\nrather than interpreting the law.",
      "start": 235.91,
      "duration": 4.17
    },
    {
      "text": "Well that's his theory of the liberals.",
      "start": 240.08,
      "duration": 2.63
    },
    {
      "text": "That the Constitution\nis living document and",
      "start": 242.71,
      "duration": 3.92
    },
    {
      "text": "it can be interpreted freely\nby later Supreme Court",
      "start": 246.63,
      "duration": 5.5
    },
    {
      "text": "justices and they give new\nmeaning to some of the words.",
      "start": 252.13,
      "duration": 5.6
    },
    {
      "text": "And we don't believe in that at all.",
      "start": 257.73,
      "duration": 2.02
    },
    {
      "text": "We believe in the causation.",
      "start": 259.75,
      "duration": 2.16
    },
    {
      "text": "The way it was written,\nit's a wonderful document.",
      "start": 261.91,
      "duration": 3.57
    },
    {
      "text": "It's a source of our enormous\nprosperity and freedom.",
      "start": 265.48,
      "duration": 5.6
    },
    {
      "text": "And if other countries wanna\nhave what we have, they should.",
      "start": 271.08,
      "duration": 4.72
    },
    {
      "text": "Follow our lead and\nnot try to invade with their,",
      "start": 275.8,
      "duration": 4.47
    },
    {
      "text": "with numbers of people and\ncome illegally to vote in our country.",
      "start": 280.27,
      "duration": 4.46
    },
    {
      "text": "\u003e\u003e I wonder also the degree to which",
      "start": 286.54,
      "duration": 2.63
    },
    {
      "text": "having the fear of Trump\n\u003e\u003e In the Republican leadership",
      "start": 289.17,
      "duration": 3.44
    },
    {
      "text": "at the moment.",
      "start": 292.61,
      "duration": 0.76
    },
    {
      "text": "Because, it seems to me that\nthe Republican base certainly want",
      "start": 293.37,
      "duration": 3.27
    },
    {
      "text": "the Republicans to push back on any new\nnominee to the Supreme Court by Obama.",
      "start": 297.9,
      "duration": 4.85
    },
    {
      "text": "I also get the feeling that without Trump\nin the wings, they might actually fold,",
      "start": 302.75,
      "duration": 3.46
    },
    {
      "text": "some of the rhinos might fold for\nthis but the fear of Trump behind them,",
      "start": 306.21,
      "duration": 3.16
    },
    {
      "text": "it seems that they might\nhave some kind of spine",
      "start": 309.37,
      "duration": 2.61
    },
    {
      "text": "to stand up to an appointment\nbefore the end of Obama's term.",
      "start": 311.98,
      "duration": 2.77
    },
    {
      "text": "Well with here are certain\nof group of people.",
      "start": 316.44,
      "duration": 4.14
    },
    {
      "text": "Mostly rich donors",
      "start": 320.58,
      "duration": 1.58
    },
    {
      "text": "who are now called the establishment\nwho I used to call the king makers.",
      "start": 323.25,
      "duration": 5.35
    },
    {
      "text": "And they successfully nominated one\nrepublican loser after another.",
      "start": 328.6,
      "duration": 6.57
    },
    {
      "text": "\u003e\u003e And we don't want the one they",
      "start": 335.17,
      "duration": 4.31
    },
    {
      "text": "wanna choose and\nthey are absolutely dead set against Trump",
      "start": 339.48,
      "duration": 5.68
    },
    {
      "text": "because they think he won't\ntake orders from them.",
      "start": 345.16,
      "duration": 2.59
    },
    {
      "text": "He's not dependent on their money.",
      "start": 347.75,
      "duration": 2.21
    },
    {
      "text": "He has his own money.",
      "start": 349.96,
      "duration": 1.04
    },
    {
      "text": "So I think it's very important\nthat the grass roots speak up and",
      "start": 352.96,
      "duration": 5.309
    },
    {
      "text": "get the nominee they want.",
      "start": 358.269,
      "duration": 2.313
    },
    {
      "text": "Now, they're talking about now,",
      "start": 360.582,
      "duration": 2.433
    },
    {
      "text": "it may be a convention where nobody\nwill arrive with 51% of the vote.",
      "start": 363.015,
      "duration": 5.865
    },
    {
      "text": "And if nobody arrives with 51% of\nthe vote, that means, I think,",
      "start": 368.88,
      "duration": 5.09
    },
    {
      "text": "after one ballot, the delegates will\nbe free to vote who ever they want.",
      "start": 373.97,
      "duration": 6.44
    },
    {
      "text": "And I hope that it's gonna be\na grass roots chosen nominee, and",
      "start": 380.41,
      "duration": 5.3
    },
    {
      "text": "not somebody who's chosen\nby the big donors.",
      "start": 385.71,
      "duration": 3.22
    },
    {
      "text": "Because they've given\nus a bunch of losers.",
      "start": 388.93,
      "duration": 2.38
    },
    {
      "text": "\u003e\u003e Well, I guess it wins for\nthem in terms of the number of or",
      "start": 392.47,
      "duration": 5.3
    },
    {
      "text": "amount of cheap labor big business\ninterests can get, out of the Republican's",
      "start": 397.77,
      "duration": 6.37
    },
    {
      "text": "massive desire to extend the H-1B visa\nprogram and immigration as a whole.",
      "start": 404.14,
      "duration": 5.23
    },
    {
      "text": "Well you put your finger on the reason,\nwhat their doing.",
      "start": 409.37,
      "duration": 4.03
    },
    {
      "text": "The big donors are doing it because\nthey want the cheap labor coming in.",
      "start": 413.4,
      "duration": 4.13
    },
    {
      "text": "And the cheap labor is\neven on the H-1B visas.",
      "start": 417.53,
      "duration": 4.636
    },
    {
      "text": "Because if you talk to any guy\nthat's got an engineering degree but",
      "start": 422.166,
      "duration": 5.944
    },
    {
      "text": "doesn't, isn't able to get a job,\nyou see a result of that.",
      "start": 428.11,
      "duration": 3.92
    },
    {
      "text": "And they bring in the foreigners.",
      "start": 432.03,
      "duration": 2.3
    },
    {
      "text": "And they simply pay them",
      "start": 434.33,
      "duration": 5.4
    },
    {
      "text": "lower wages and\nthey think that's a neat system.",
      "start": 439.73,
      "duration": 4.89
    },
    {
      "text": "But we don't want that.",
      "start": 444.62,
      "duration": 2.15
    },
    {
      "text": "America grew great because we had a great,\ngrowing middle class.",
      "start": 446.77,
      "duration": 4.93
    },
    {
      "text": "And families were strong, and\nthat's what we want to have.",
      "start": 451.7,
      "duration": 4.28
    },
    {
      "text": "But we can't have it when we\nhave these big donors and",
      "start": 455.98,
      "duration": 6.02
    },
    {
      "text": "so called kingmakers\ntelling us who to nominate.",
      "start": 462,
      "duration": 3.5
    },
    {
      "text": "Well I know you think the argument could\nstrongly be made that one of the reasons",
      "start": 467.14,
      "duration": 4.34
    },
    {
      "text": "that the labor is so cheap is not just\nbecause they come from countries with",
      "start": 471.48,
      "duration": 3.34
    },
    {
      "text": "lower wage expectations, but because\nthe medical, welfare, social, educational",
      "start": 474.82,
      "duration": 5.01
    },
    {
      "text": "costs are shouldered by the US taxpayers\nrather than having to be included in",
      "start": 479.83,
      "duration": 4.35
    },
    {
      "text": "the wages that would have to be paid\nto people coming in by big business.",
      "start": 484.18,
      "duration": 3.71
    },
    {
      "text": "You're absolutely right.",
      "start": 487.89,
      "duration": 1.75
    },
    {
      "text": "You're absolutely right.",
      "start": 489.64,
      "duration": 1.3
    },
    {
      "text": "And it's an outrageous system,\nand we don't wanna have",
      "start": 490.94,
      "duration": 5.29
    },
    {
      "text": "the biggest percentage of our people\ndependent on handouts from the government.",
      "start": 496.23,
      "duration": 6.04
    },
    {
      "text": "That's not the way America was built.",
      "start": 502.27,
      "duration": 2.51
    },
    {
      "text": "And it's unfortunate that now\na tremendous For studies on population is",
      "start": 504.78,
      "duration": 4.93
    },
    {
      "text": "dependant upon that check they get\nfrom the government every month.",
      "start": 509.71,
      "duration": 3.29
    },
    {
      "text": "\u003e\u003e What is it in Trump's platform and",
      "start": 515.01,
      "duration": 1.86
    },
    {
      "text": "I know that you have been very\npro-Trump obviously recently.",
      "start": 516.87,
      "duration": 3.84
    },
    {
      "text": "What is it in Trump's platform that\nthe Republican political class",
      "start": 520.71,
      "duration": 5.65
    },
    {
      "text": "is not recognizing, the connection that\nTrump has with the grassroots Republicans?",
      "start": 526.36,
      "duration": 4.929
    },
    {
      "text": "Well, I think that it's clear\nthat Trump is his own man.",
      "start": 533.32,
      "duration": 6.06
    },
    {
      "text": "He's not taking orders from the.",
      "start": 539.38,
      "duration": 1.896
    },
    {
      "text": "From the makers.",
      "start": 541.276,
      "duration": 3.614
    },
    {
      "text": "He's doing what he thinks\nis the right thing, and",
      "start": 544.89,
      "duration": 3.61
    },
    {
      "text": "he's trying to make America great again.",
      "start": 548.5,
      "duration": 2.63
    },
    {
      "text": "And that really resonates with\nthe middle class in our country.",
      "start": 551.13,
      "duration": 6.14
    },
    {
      "text": "It resonates with people who want jobs and\nthink the immigrants are taking our jobs.",
      "start": 557.27,
      "duration": 5.35
    },
    {
      "text": "And they are indeed.",
      "start": 562.62,
      "duration": 1.27
    },
    {
      "text": "If you're a guy just coming out of\nschool you need an entry level job.",
      "start": 564.93,
      "duration": 6.998
    },
    {
      "text": "That's what these\nforeigners are taking and",
      "start": 571.928,
      "duration": 3.879
    },
    {
      "text": "we can't let them do it because\nthat's just destroying our country.",
      "start": 575.807,
      "duration": 6.033
    },
    {
      "text": "And I think in particular among the\nlower-wage members of the American society",
      "start": 583.49,
      "duration": 5.58
    },
    {
      "text": "or people who are having a tough time\ngetting a job in an increasingly automated",
      "start": 589.07,
      "duration": 3.84
    },
    {
      "text": "world, I’m thinking in particular that\nTrump seems to have great appeal among",
      "start": 592.91,
      "duration": 4.79
    },
    {
      "text": "American citizens Blacks, and Hispanics,\nbecause by keeping out the cheap labor",
      "start": 597.7,
      "duration": 4.97
    },
    {
      "text": "he's gonna open up a lot of opportunities\nfor those who are having a tougher time",
      "start": 602.67,
      "duration": 4.35
    },
    {
      "text": "these days getting onto the lower\nrung of the economic ladder.",
      "start": 607.02,
      "duration": 3.32
    },
    {
      "text": "Yes, but\ndon't forget that Trump said he's going to",
      "start": 610.34,
      "duration": 4.66
    },
    {
      "text": "send the illegals back\nto where they came from.",
      "start": 615,
      "duration": 4.21
    },
    {
      "text": "And I wanna tell you, I've been writing\na monthly newsletter for many Many,",
      "start": 619.21,
      "duration": 4.52
    },
    {
      "text": "many years.",
      "start": 623.73,
      "duration": 1.27
    },
    {
      "text": "And my current one which is going\nin the mail in the next few days",
      "start": 625,
      "duration": 4.13
    },
    {
      "text": "has a picture from the newspapers\nI think it was 1954.",
      "start": 629.13,
      "duration": 4.79
    },
    {
      "text": "When Eisenhower Sent back\nmillions of illegals.",
      "start": 633.92,
      "duration": 6.22
    },
    {
      "text": "They say it's impossible to ship\nthem back, well this picture shows",
      "start": 640.14,
      "duration": 4.93
    },
    {
      "text": "them loading the illegals in the 1950s",
      "start": 645.07,
      "duration": 4.82
    },
    {
      "text": "onto a train, and\nthat's the way they sent them back,",
      "start": 649.89,
      "duration": 4.53
    },
    {
      "text": "that was the year of trains if\nyou can remember back that far.",
      "start": 654.42,
      "duration": 3.066
    },
    {
      "text": "And it's terribly important",
      "start": 657.486,
      "duration": 5.154
    },
    {
      "text": "that we not let all these people come\nin who take jobs from Americans.",
      "start": 662.64,
      "duration": 5.56
    },
    {
      "text": "When our kids get out of college or",
      "start": 668.2,
      "duration": 2.26
    },
    {
      "text": "get out of high school,\nthey need an entry level job, and",
      "start": 670.46,
      "duration": 4.24
    },
    {
      "text": "that's what the illegals and\nthe immigrants are taking away from us.",
      "start": 674.7,
      "duration": 5.269
    },
    {
      "text": "Well, and you've made the case\nrecently that America, since 1965 has",
      "start": 681.26,
      "duration": 6.13
    },
    {
      "text": "taken 59 million immigrants in, largely\nof course, from non-European countries.",
      "start": 687.39,
      "duration": 6.22
    },
    {
      "text": "And this has become what many\npeople have grown up with.",
      "start": 693.61,
      "duration": 3.14
    },
    {
      "text": "I was born in 1966 so\nthis is kind of what I grew up with,",
      "start": 696.75,
      "duration": 3.03
    },
    {
      "text": "was mass Third-world immigration into\nwestern countries, but prior to that,",
      "start": 699.78,
      "duration": 4.6
    },
    {
      "text": "it very much wasn't the case for at least\na half century and even before that.",
      "start": 704.38,
      "duration": 3.16
    },
    {
      "text": "I wonder if you could help people\nunderstand what it was like before",
      "start": 707.54,
      "duration": 2.92
    },
    {
      "text": "Kennedy's bill of '65.",
      "start": 710.46,
      "duration": 1.646
    },
    {
      "text": "Well we had a very homogenous population,\nevery body speaks english.",
      "start": 713.62,
      "duration": 5.68
    },
    {
      "text": "And that's essential when you\nbecome a citizen of America you",
      "start": 719.3,
      "duration": 4.83
    },
    {
      "text": "promise to learn and speak English.",
      "start": 724.13,
      "duration": 3.04
    },
    {
      "text": "And that's terribly important.",
      "start": 727.17,
      "duration": 3.48
    },
    {
      "text": "I's a unifying condition.",
      "start": 730.65,
      "duration": 1.818
    },
    {
      "text": "And what they're doing to\nour country now is so bad.",
      "start": 732.468,
      "duration": 5.422
    },
    {
      "text": "All you have to do is look at Germany.",
      "start": 737.89,
      "duration": 2.11
    },
    {
      "text": "Now, I thought the Germans were tough,\nbut the Germans decided,",
      "start": 740,
      "duration": 3.73
    },
    {
      "text": "Andrea Merkel decided she was\ngonna let all these Syrians in.",
      "start": 743.73,
      "duration": 5.11
    },
    {
      "text": "And nobody has the capability of\nvetting them to find out if they're",
      "start": 748.84,
      "duration": 3.705
    },
    {
      "text": "criminals or not.",
      "start": 752.545,
      "duration": 1.042
    },
    {
      "text": "And they've come in And the thing\nthat's so shocking about a lot of these",
      "start": 753.587,
      "duration": 4.851
    },
    {
      "text": "criminals is not only are they criminals,\nbut they go after very young girls.",
      "start": 758.438,
      "duration": 5.562
    },
    {
      "text": "I'm talking about 10,\n11, 12 year old girls.",
      "start": 764,
      "duration": 4.13
    },
    {
      "text": "You can imagine an American\nbeing attracted by some.",
      "start": 768.13,
      "duration": 4.35
    },
    {
      "text": "Attractive woman, but Americans don't\ngo after 10 and 11 year old kids.",
      "start": 774.04,
      "duration": 5.46
    },
    {
      "text": "\u003e\u003e Yeah, it is, what it's going on in\nEurope, I can almost imagine the next wave",
      "start": 781.63,
      "duration": 4.08
    },
    {
      "text": "of immigration might be\n\u003e\u003e The Christian Europeans fleeing",
      "start": 785.71,
      "duration": 3.775
    },
    {
      "text": "the disaster escape that\nis shaping up in Europe.",
      "start": 789.485,
      "duration": 3.907
    },
    {
      "text": "So you have- [CROSSTALK]\n\u003e\u003e But",
      "start": 793.392,
      "duration": 1.348
    },
    {
      "text": "they're trying to keep\nthe Christians from here and",
      "start": 794.74,
      "duration": 3.094
    },
    {
      "text": "the Christians are certainly\na lot of refugees.",
      "start": 797.834,
      "duration": 3.386
    },
    {
      "text": "However, we've gotta watch out.",
      "start": 801.22,
      "duration": 1.65
    },
    {
      "text": "We've gotta vet everybody.",
      "start": 802.87,
      "duration": 1.9
    },
    {
      "text": "You know the Boston bombers\ncame in claiming they were",
      "start": 804.77,
      "duration": 3.48
    },
    {
      "text": "refugees from persecution.",
      "start": 808.25,
      "duration": 1.95
    },
    {
      "text": "And that wasn't true at all.",
      "start": 810.2,
      "duration": 1.63
    },
    {
      "text": "After they got here, they made several\ntrips back to their home country.",
      "start": 811.83,
      "duration": 4.02
    },
    {
      "text": "And nobody bothered them.",
      "start": 815.85,
      "duration": 0.98
    },
    {
      "text": "Right.",
      "start": 817.91,
      "duration": 1.17
    },
    {
      "text": "Now, I don't know if you've been\nfollowing the cases that Justice Scalia,",
      "start": 819.08,
      "duration": 4.16
    },
    {
      "text": "had he lived,\nhad been adjudicating, or judging.",
      "start": 823.24,
      "duration": 3.63
    },
    {
      "text": "I wonder if you could talk,\nif you've followed this,",
      "start": 826.87,
      "duration": 2.82
    },
    {
      "text": "about some of the key cases that\nyou think might go a different way",
      "start": 829.69,
      "duration": 4.01
    },
    {
      "text": "should a more liberal judge be\nplaced on the Supreme Court.",
      "start": 833.7,
      "duration": 3.709
    },
    {
      "text": "Well, Obama's idea of judges is that they\nwill follow the left-wing party line.",
      "start": 838.79,
      "duration": 8.7
    },
    {
      "text": "He's appointed, now, over 300 judges\nto the federal judiciary, and a lot",
      "start": 847.49,
      "duration": 5.54
    },
    {
      "text": "of those will become law, because the\nsupreme court won't take a review of them.",
      "start": 853.03,
      "duration": 4.25
    },
    {
      "text": "And that's very unfortunate and\nvery dangerous.",
      "start": 858.44,
      "duration": 4.48
    },
    {
      "text": "And we need to make sure\nthat we have a good solid",
      "start": 862.92,
      "duration": 5.59
    },
    {
      "text": "Supreme Court and Federal Court\nwho follow the Constitution and",
      "start": 869.83,
      "duration": 5.21
    },
    {
      "text": "don't try to make it up as they go along.",
      "start": 875.04,
      "duration": 1.99
    },
    {
      "text": "Right, right.",
      "start": 878.92,
      "duration": 0.63
    },
    {
      "text": "And when you talk about the king makers,",
      "start": 880.94,
      "duration": 2.77
    },
    {
      "text": "most people of course when they follow\nUS politics they see the candidates,",
      "start": 883.71,
      "duration": 4.33
    },
    {
      "text": "but they don't see the party machinery,\nsort of the wizard behind the curtain.",
      "start": 888.04,
      "duration": 4.01
    },
    {
      "text": "And I know that you first wrote about\nthe king makers way back in 1964 in",
      "start": 892.05,
      "duration": 4.73
    },
    {
      "text": "A Choice Not An Echo.",
      "start": 896.78,
      "duration": 1.76
    },
    {
      "text": "Yea what is it that\npeople need to see that I",
      "start": 898.54,
      "duration": 2.88
    },
    {
      "text": "think Trump is kind of revealing by doing\ndaring things by pointing out how stacked",
      "start": 901.42,
      "duration": 4.81
    },
    {
      "text": "the audience is in the debates with\nparty donors and donors to candidates.",
      "start": 906.23,
      "duration": 4.89
    },
    {
      "text": "Who are the king makers and what is it\nthat Trump's revealing through his much,",
      "start": 911.12,
      "duration": 4.29
    },
    {
      "text": "across the conservative landscape?",
      "start": 915.41,
      "duration": 2.83
    },
    {
      "text": "Well the king makers have poured\na lot of money into this campaign,",
      "start": 918.24,
      "duration": 4.05
    },
    {
      "text": "because I know it's the most\nimportant election of our lifetime.",
      "start": 922.29,
      "duration": 3.02
    },
    {
      "text": "And it's really a danger and",
      "start": 926.6,
      "duration": 4.53
    },
    {
      "text": "we need to make sure the grassroots\ncan pick their own candidate.",
      "start": 931.13,
      "duration": 3.75
    },
    {
      "text": "That's what democracy's all about.",
      "start": 934.88,
      "duration": 2.48
    },
    {
      "text": "That's what it meant when the Constitution\nsaid government of the people and",
      "start": 937.36,
      "duration": 4.37
    },
    {
      "text": "by the people.",
      "start": 941.73,
      "duration": 1.45
    },
    {
      "text": "And so it's very necessary\nthat everybody be involved.",
      "start": 943.18,
      "duration": 5.29
    },
    {
      "text": "I'm urging all of our Eagle Forum\nmembers and everybody",
      "start": 948.47,
      "duration": 4.7
    },
    {
      "text": "I know who cares about\nthe future of our country to To",
      "start": 953.17,
      "duration": 5.02
    },
    {
      "text": "be part of the process in getting\nyourself elected a delegate",
      "start": 959.35,
      "duration": 5.5
    },
    {
      "text": "to the Republican national convention so\nthat you can have your voice.",
      "start": 964.85,
      "duration": 4.08
    },
    {
      "text": "They all think Now all\nthe speculation is going to",
      "start": 969.93,
      "duration": 3.865
    },
    {
      "text": "be a wide open convention when nobody\nwill arrive with 51% of the vote.",
      "start": 973.795,
      "duration": 5.07
    },
    {
      "text": "I don't know, I'm not a predictor.",
      "start": 978.865,
      "duration": 3.266
    },
    {
      "text": "At any rate We have to be ready for\nall eventualities and",
      "start": 982.131,
      "duration": 5.797
    },
    {
      "text": "Eagle Forum has a guy named Ed Martin\nour new president of Eagle Forums",
      "start": 987.928,
      "duration": 5.722
    },
    {
      "text": "who has studied the rules and will help\nguide you to make them a legal choice.",
      "start": 993.65,
      "duration": 7.38
    },
    {
      "text": "Of what to do because there'd be\nall kinds of procedural motions.",
      "start": 1001.03,
      "duration": 4.94
    },
    {
      "text": "And you know,\nI can remember the convention",
      "start": 1005.97,
      "duration": 4.32
    },
    {
      "text": "when one key vote was in\nthe credentials committee.",
      "start": 1010.29,
      "duration": 5.06
    },
    {
      "text": "And they got through the Governor of\nCalifornia who had the largest delegation",
      "start": 1015.35,
      "duration": 5.56
    },
    {
      "text": "to throw his entire delegation's vote To.",
      "start": 1020.91,
      "duration": 6.43
    },
    {
      "text": "Eisenhower, as opposed to Bob Taft, who\nthe grassroots were for, and the result",
      "start": 1028.43,
      "duration": 6.33
    },
    {
      "text": "was, they bribed him, and he got paid off\nfor his appointment to the Supreme Court.",
      "start": 1034.76,
      "duration": 5.77
    },
    {
      "text": "And that's how he got to be on the course,\nbut we don't want anything like that,",
      "start": 1040.53,
      "duration": 6.48
    },
    {
      "text": "we want the grassroots to\npick the candidate they want,",
      "start": 1047.01,
      "duration": 5.63
    },
    {
      "text": "and they do not want one that\nis beholden to the kingmakers.",
      "start": 1052.64,
      "duration": 5.08
    },
    {
      "text": "\u003e\u003e And you've talked I think about\nthe Paul Ryan/Marco Rubio combo should",
      "start": 1059.05,
      "duration": 5.17
    },
    {
      "text": "Marco Rubio ascend to the presidency\n\u003e\u003e What do you find particularly",
      "start": 1064.22,
      "duration": 4.62
    },
    {
      "text": "dangerous about that duo,\nwith regards to immigration in particular?",
      "start": 1068.84,
      "duration": 4.18
    },
    {
      "text": "\u003e\u003e Well I was the first one\nto endorse Marco Rubio.",
      "start": 1075.08,
      "duration": 4.44
    },
    {
      "text": "I flew down to Florida\nto stand with him and",
      "start": 1079.52,
      "duration": 4.06
    },
    {
      "text": "endorse him when he ran for the Senate.",
      "start": 1083.58,
      "duration": 2.57
    },
    {
      "text": "But he has betrayed most of what\nI thought I was voting for.",
      "start": 1086.15,
      "duration": 4.23
    },
    {
      "text": "And there's no question about that.",
      "start": 1090.38,
      "duration": 3.42
    },
    {
      "text": "And he signed up with that gang\nof eight which was calling for",
      "start": 1093.8,
      "duration": 5.06
    },
    {
      "text": "amnesty for anybody,\nbasically anybody who wanted to come in.",
      "start": 1098.86,
      "duration": 7.24
    },
    {
      "text": "And so I am so disappointed in Marco Rubio",
      "start": 1106.1,
      "duration": 5.26
    },
    {
      "text": "because I think he betrayed everything\nthat I stuck my neck out and",
      "start": 1111.36,
      "duration": 4.45
    },
    {
      "text": "voted for when he was first running for\nthe Senate.",
      "start": 1115.81,
      "duration": 3.56
    },
    {
      "text": "\u003e\u003e And I think we have to",
      "start": 1120.37,
      "duration": 2.55
    },
    {
      "text": "elect somebody who's a definite\nvoice of the grass roots.",
      "start": 1124.52,
      "duration": 5.54
    },
    {
      "text": "And that's what I think about\nthe About Trump and then also about Cruz.",
      "start": 1130.06,
      "duration": 10.14
    },
    {
      "text": "And we wanna make sure that somebody who's\nthe voice of the people is nominated for",
      "start": 1140.2,
      "duration": 5.86
    },
    {
      "text": "President because I'm hoping\nthat the country will not elect",
      "start": 1146.06,
      "duration": 5.51
    },
    {
      "text": "Hillary Clinton or Bernie Sanders, that\nthey will elect a Republican candidate.",
      "start": 1151.57,
      "duration": 4.75
    },
    {
      "text": "And I, can't for the life of me.",
      "start": 1158,
      "duration": 2.37
    },
    {
      "text": "I have sort of drifted away from\nthe political process because it seemed so",
      "start": 1160.37,
      "duration": 3.92
    },
    {
      "text": "pre ordained.",
      "start": 1164.29,
      "duration": 1.25
    },
    {
      "text": "I guess I had sort of sensed a whiff of\nthe king makers behind the throne but",
      "start": 1165.54,
      "duration": 4.17
    },
    {
      "text": "Trump has sort of drawn me\nback into re-engaging and",
      "start": 1169.71,
      "duration": 2.961
    },
    {
      "text": "being re-interested in\nthe American political process.",
      "start": 1172.671,
      "duration": 2.729
    },
    {
      "text": "And I think Mrs. Schlafly, like I\nliterally can not think Of a precedent",
      "start": 1175.4,
      "duration": 4.07
    },
    {
      "text": "in American history where somebody\nwith this kind of name recognition,",
      "start": 1179.47,
      "duration": 3.24
    },
    {
      "text": "with this kind of experience and expertise\nand star power and recognizability.",
      "start": 1182.71,
      "duration": 4.74
    },
    {
      "text": "And wealth to be able to self-fund\nas well as the commitment to do so.",
      "start": 1187.45,
      "duration": 4.08
    },
    {
      "text": "Has this happened before\nin American politics",
      "start": 1191.53,
      "duration": 3.39
    },
    {
      "text": "in even as close a scale as Donald Trump?",
      "start": 1194.92,
      "duration": 4.8
    },
    {
      "text": "Well no,\nI think Trump is a guy of his own making,",
      "start": 1199.72,
      "duration": 5.39
    },
    {
      "text": "and I don't think there's ever\nbeen anybody just like him.",
      "start": 1205.11,
      "duration": 3.5
    },
    {
      "text": "However, I will remind you that\nwhen I worked for Ronald Reagan,",
      "start": 1208.61,
      "duration": 4.96
    },
    {
      "text": "before he was finally nominated in 1980,\nhe went through",
      "start": 1213.57,
      "duration": 4.95
    },
    {
      "text": "a lot of dissection",
      "start": 1220.01,
      "duration": 4.68
    },
    {
      "text": "by grass rooters who thought\nhe was was not conservative or",
      "start": 1226.15,
      "duration": 6.285
    },
    {
      "text": "loyal enough and remember he had done\na number of things we don't like.",
      "start": 1232.435,
      "duration": 5.53
    },
    {
      "text": "He signed the worst divorce bill\nin the history of our country.",
      "start": 1237.965,
      "duration": 4.32
    },
    {
      "text": "He had signed an abortion bill and",
      "start": 1242.285,
      "duration": 2.84
    },
    {
      "text": "a lot of people thought he\nwas not a real conservative.",
      "start": 1246.295,
      "duration": 4.145
    },
    {
      "text": "And some of us were supporting Phil Crane,",
      "start": 1250.44,
      "duration": 3.52
    },
    {
      "text": "who you probably don't even remember him,\nwho we thought was a real conservative,",
      "start": 1253.96,
      "duration": 5.6
    },
    {
      "text": "but at any rate,\nwe finally got Reagan nominated.",
      "start": 1259.56,
      "duration": 3.65
    },
    {
      "text": "And it was a great thing, and",
      "start": 1263.21,
      "duration": 1.52
    },
    {
      "text": "he turned out to be the best\npresident we had in the 20th century.",
      "start": 1264.73,
      "duration": 4.46
    },
    {
      "text": "And I think we can do that again if\nthe grassroots will stand together and",
      "start": 1269.19,
      "duration": 6.4
    },
    {
      "text": "not be swayed by some of these\nattacks on Trump or Cruz.",
      "start": 1275.59,
      "duration": 5.43
    },
    {
      "text": "\u003e\u003e All right.",
      "start": 1281.02,
      "duration": 2.39
    },
    {
      "text": "Now just, I know we're tight on time, so\nI just wanted to give you the opportunity,",
      "start": 1283.41,
      "duration": 4.625
    },
    {
      "text": "Mrs. Schlafly,\nto communicate to the listeners,",
      "start": 1288.035,
      "duration": 3.005
    },
    {
      "text": "to the folks Why is this election so\nimportant and",
      "start": 1291.04,
      "duration": 4.14
    },
    {
      "text": "what should they be really planning\nto do over this election season?",
      "start": 1295.18,
      "duration": 3.92
    },
    {
      "text": "\u003e\u003e Well I think this is a most important\nelection of our lifetime because",
      "start": 1300.23,
      "duration": 5.02
    },
    {
      "text": "we need to decide whether we're\ngoing to go along with Obama",
      "start": 1306.44,
      "duration": 4.05
    },
    {
      "text": "fundamentally transforming America\nas he said he wanted to do.",
      "start": 1310.49,
      "duration": 5.25
    },
    {
      "text": "And he has made it Made a fundamental\ntransformation in many ways.",
      "start": 1315.74,
      "duration": 5.29
    },
    {
      "text": "He has issued so many executive\nactions that we think are plainly",
      "start": 1321.03,
      "duration": 5.49
    },
    {
      "text": "unconstitutional, which his friends on the\ncourt have not called unconstitutional.",
      "start": 1326.52,
      "duration": 6.15
    },
    {
      "text": "And so so I feel that this election,",
      "start": 1332.67,
      "duration": 3.86
    },
    {
      "text": "which will control not\nonly the Presidency,",
      "start": 1336.53,
      "duration": 4.07
    },
    {
      "text": "the President branch of government,\nbut also the court",
      "start": 1340.6,
      "duration": 5.25
    },
    {
      "text": "branch of government because we have\na vacancy that needs to be filled And",
      "start": 1345.85,
      "duration": 5.52
    },
    {
      "text": "I'm urging all Republicans not to\nconfirm anybody at the present time.",
      "start": 1351.37,
      "duration": 5.44
    },
    {
      "text": "I think we should wait for\nthe next president.",
      "start": 1356.81,
      "duration": 4.54
    },
    {
      "text": "We just don't need to have and\nthe nominee right now.",
      "start": 1361.35,
      "duration": 6.64
    },
    {
      "text": "So I urge the American people to",
      "start": 1367.99,
      "duration": 3.42
    },
    {
      "text": "accept the idea that we'll just have eight\njudges for the rest of this year and",
      "start": 1371.41,
      "duration": 4.85
    },
    {
      "text": "then we'll have an election and we'll\nbring our country back to the right path.",
      "start": 1376.26,
      "duration": 3.44
    },
    {
      "text": "\u003e\u003e All right.",
      "start": 1381.12,
      "duration": 0.52
    },
    {
      "text": "Well, thank you very much Mrs. Schlafly.",
      "start": 1381.64,
      "duration": 1.72
    },
    {
      "text": "Always a pleasure to chat-\n\u003e\u003e And you can always go on my website.",
      "start": 1383.36,
      "duration": 2.585
    },
    {
      "text": "Eagleforum.org for\nmore information Yes, and",
      "start": 1385.945,
      "duration": 4.005
    },
    {
      "text": "we'll link to that in the show notes for\nthis.",
      "start": 1389.95,
      "duration": 1.92
    },
    {
      "text": "As always a great pleasure,\nthanks so much and",
      "start": 1391.87,
      "duration": 2.56
    },
    {
      "text": "I look forward to seeing your next\noutput regarding the election.",
      "start": 1394.43,
      "duration": 2.62
    },
    {
      "text": "And for those who haven't read Mrs.",
      "start": 1397.05,
      "duration": 1.48
    },
    {
      "text": "Schlafly's comments, and articles, and\ninterviews, I strongly recommended her.",
      "start": 1398.53,
      "duration": 4.195
    },
    {
      "text": "She is an eloquent and passionate\nwriter and, well worth absorbing.",
      "start": 1402.725,
      "duration": 4.54
    },
    {
      "text": "So thank you very much Ms.\nSchlafly always a great pleasure.",
      "start": 1407.265,
      "duration": 2.77
    },
    {
      "text": "\u003e\u003e Thank you and have a good day.",
      "start": 1410.035,
      "duration": 1.93
    },
    {
      "text": "\u003e\u003e You too.",
      "start": 1411.965,
      "duration": 0.5
    }
  ],
  "Errors": null,
  "TranscriptStderr": null
}