{
  "Title": "Donald Trump Was Right: Mexico is sending...",
  "Id": "PhtGSV0l4pA",
  "Transcript": [
    {
      "text": "the following is a real pamphlet for",
      "start": 0.03,
      "duration": 4.17
    },
    {
      "text": "mexico's secretary of foreign relations",
      "start": 2.31,
      "duration": 4.259
    },
    {
      "text": "it was translated from Spanish and",
      "start": 4.2,
      "duration": 5.899
    },
    {
      "text": "includes the accompanying illustrations",
      "start": 6.569,
      "duration": 7.381
    },
    {
      "text": "dear fellow citizen this guide tries to",
      "start": 10.099,
      "duration": 5.321
    },
    {
      "text": "provide you with some practical advice",
      "start": 13.95,
      "duration": 3.329
    },
    {
      "text": "that may be useful to you in case you",
      "start": 15.42,
      "duration": 4.08
    },
    {
      "text": "have made the difficult decision to seek",
      "start": 17.279,
      "duration": 4.741
    },
    {
      "text": "new work opportunities outside of your",
      "start": 19.5,
      "duration": 5.16
    },
    {
      "text": "own country the safe way to enter",
      "start": 22.02,
      "duration": 3.99
    },
    {
      "text": "another country is by first obtaining",
      "start": 24.66,
      "duration": 3.869
    },
    {
      "text": "your passport which is issued by the",
      "start": 26.01,
      "duration": 4.14
    },
    {
      "text": "delegations of the Secretariat of",
      "start": 28.529,
      "duration": 3.931
    },
    {
      "text": "Foreign Relations and your visa which",
      "start": 30.15,
      "duration": 3.749
    },
    {
      "text": "you request at the Embassy or consulate",
      "start": 32.46,
      "duration": 3.36
    },
    {
      "text": "of the country to where you wish to",
      "start": 33.899,
      "duration": 5.791
    },
    {
      "text": "travel however we actually see many",
      "start": 35.82,
      "duration": 5.73
    },
    {
      "text": "cases of Mexicans who try to cross the",
      "start": 39.69,
      "duration": 3.98
    },
    {
      "text": "northern border without the necessary",
      "start": 41.55,
      "duration": 4.919
    },
    {
      "text": "documentation crossing high-risk zones",
      "start": 43.67,
      "duration": 5.38
    },
    {
      "text": "that are very dangerous especially in",
      "start": 46.469,
      "duration": 4.921
    },
    {
      "text": "desert areas or rivers with strong and",
      "start": 49.05,
      "duration": 6.25
    },
    {
      "text": "not always noticeable currents",
      "start": 51.39,
      "duration": 6.7
    },
    {
      "text": "as you listen to this guide you can also",
      "start": 55.3,
      "duration": 5.31
    },
    {
      "text": "learn some basic questions about legal",
      "start": 58.09,
      "duration": 4.71
    },
    {
      "text": "consequences of your stay in the United",
      "start": 60.61,
      "duration": 3.75
    },
    {
      "text": "States of America without appropriate",
      "start": 62.8,
      "duration": 3.87
    },
    {
      "text": "immigration documents as well as the",
      "start": 64.36,
      "duration": 4.35
    },
    {
      "text": "rights you have in that country once you",
      "start": 66.67,
      "duration": 3.87
    },
    {
      "text": "are there independent of your",
      "start": 68.71,
      "duration": 4.769
    },
    {
      "text": "immigration status always keep in mind",
      "start": 70.54,
      "duration": 4.439
    },
    {
      "text": "that there are mechanisms for you to",
      "start": 73.479,
      "duration": 3.211
    },
    {
      "text": "enter the United States of America",
      "start": 74.979,
      "duration": 5.461
    },
    {
      "text": "legally in any case if you encounter",
      "start": 76.69,
      "duration": 5.55
    },
    {
      "text": "problems or difficulties remember that",
      "start": 80.44,
      "duration": 4.35
    },
    {
      "text": "Mexico has 45 consulates at its disposal",
      "start": 82.24,
      "duration": 4.44
    },
    {
      "text": "in that country whose contact",
      "start": 84.79,
      "duration": 4.829
    },
    {
      "text": "information you also can find in this",
      "start": 86.68,
      "duration": 6.079
    },
    {
      "text": "publication identify your consulate and",
      "start": 89.619,
      "duration": 6.871
    },
    {
      "text": "go to it dangers of crossing in",
      "start": 92.759,
      "duration": 5.191
    },
    {
      "text": "high-risk zones",
      "start": 96.49,
      "duration": 3.57
    },
    {
      "text": "crossing the river can be very risky",
      "start": 97.95,
      "duration": 4.6
    },
    {
      "text": "especially if you cross alone and at",
      "start": 100.06,
      "duration": 4.86
    },
    {
      "text": "night thick clothing weighs you down",
      "start": 102.55,
      "duration": 4.59
    },
    {
      "text": "when it's wet and makes it hard to swim",
      "start": 104.92,
      "duration": 6.119
    },
    {
      "text": "or float if you cross in the desert try",
      "start": 107.14,
      "duration": 5.82
    },
    {
      "text": "to travel when the heat is not so",
      "start": 111.039,
      "duration": 5.25
    },
    {
      "text": "intense highways and towns are very far",
      "start": 112.96,
      "duration": 4.949
    },
    {
      "text": "apart so that it could take you several",
      "start": 116.289,
      "duration": 3.72
    },
    {
      "text": "days to find roads and you will not be",
      "start": 117.909,
      "duration": 3.721
    },
    {
      "text": "able to carry food or water for that",
      "start": 120.009,
      "duration": 6.151
    },
    {
      "text": "long you could even get lost salted",
      "start": 121.63,
      "duration": 4.95
    },
    {
      "text": "water",
      "start": 126.16,
      "duration": 2.73
    },
    {
      "text": "helps you retain body fluids although",
      "start": 126.58,
      "duration": 4.44
    },
    {
      "text": "you get more thirsty if you drink salted",
      "start": 128.89,
      "duration": 4.25
    },
    {
      "text": "water the risk of dehydration is",
      "start": 131.02,
      "duration": 5.969
    },
    {
      "text": "lessened dehydration symptoms are little",
      "start": 133.14,
      "duration": 6.099
    },
    {
      "text": "or no perspiration dryness of eyes and",
      "start": 136.989,
      "duration": 4.791
    },
    {
      "text": "mouth headache fatigue and exhaustion",
      "start": 139.239,
      "duration": 4.791
    },
    {
      "text": "difficulty in walking and reasoning",
      "start": 141.78,
      "duration": 6.67
    },
    {
      "text": "hallucinations and mirages if you get",
      "start": 144.03,
      "duration": 4.929
    },
    {
      "text": "lost",
      "start": 148.45,
      "duration": 3.21
    },
    {
      "text": "follow utility poles railroad tracks or",
      "start": 148.959,
      "duration": 8.131
    },
    {
      "text": "furrows be careful of Polaris coyotes or",
      "start": 151.66,
      "duration": 9.299
    },
    {
      "text": "Pateros they can deceive you by assuring",
      "start": 157.09,
      "duration": 6.149
    },
    {
      "text": "you they'll cross you smuggle you across",
      "start": 160.959,
      "duration": 4.351
    },
    {
      "text": "the border at certain times of a",
      "start": 163.239,
      "duration": 4.86
    },
    {
      "text": "mountains or through deserts this is not",
      "start": 165.31,
      "duration": 4.95
    },
    {
      "text": "true they can put your life in danger",
      "start": 168.099,
      "duration": 4.291
    },
    {
      "text": "leading you through rivers irrigation",
      "start": 170.26,
      "duration": 4.259
    },
    {
      "text": "canals desert areas along railroad",
      "start": 172.39,
      "duration": 4.86
    },
    {
      "text": "tracks or freeways this has cost the",
      "start": 174.519,
      "duration": 5.761
    },
    {
      "text": "death of hundreds of people if you",
      "start": 177.25,
      "duration": 5.28
    },
    {
      "text": "decide to use the services of a pal",
      "start": 180.28,
      "duration": 4.59
    },
    {
      "text": "arrow coyote or Patera to cross the",
      "start": 182.53,
      "duration": 2.73
    },
    {
      "text": "border",
      "start": 184.87,
      "duration": 2.34
    },
    {
      "text": "consider the following precautions to",
      "start": 185.26,
      "duration": 3.51
    },
    {
      "text": "take don't",
      "start": 187.21,
      "duration": 3.48
    },
    {
      "text": "I'm out of your sight remember that he's",
      "start": 188.77,
      "duration": 4.08
    },
    {
      "text": "the only one that knows the terrain and",
      "start": 190.69,
      "duration": 4.11
    },
    {
      "text": "therefore is the only one that can guide",
      "start": 192.85,
      "duration": 4.59
    },
    {
      "text": "you safely do not trust anyone who",
      "start": 194.8,
      "duration": 4.29
    },
    {
      "text": "offers to cross you over to the other",
      "start": 197.44,
      "duration": 4.53
    },
    {
      "text": "side and asks you to drive a vehicle or",
      "start": 199.09,
      "duration": 6.09
    },
    {
      "text": "carry a package for him regularly those",
      "start": 201.97,
      "duration": 4.83
    },
    {
      "text": "packages contain drugs or other",
      "start": 205.18,
      "duration": 4.5
    },
    {
      "text": "prohibited substances for that reason",
      "start": 206.8,
      "duration": 6.69
    },
    {
      "text": "many people have ended up in jail if you",
      "start": 209.68,
      "duration": 5.55
    },
    {
      "text": "transport other people you can be",
      "start": 213.49,
      "duration": 3.66
    },
    {
      "text": "confused with an alien smuggler and be",
      "start": 215.23,
      "duration": 4.08
    },
    {
      "text": "accused of alien smuggling yourself or",
      "start": 217.15,
      "duration": 5.94
    },
    {
      "text": "even vehicle theft don't hand over your",
      "start": 219.31,
      "duration": 5.79
    },
    {
      "text": "minor children to strangers that offer",
      "start": 223.09,
      "duration": 5.17
    },
    {
      "text": "to cross them to the United States",
      "start": 225.1,
      "duration": 6.34
    },
    {
      "text": "do not use false documents or documents",
      "start": 228.26,
      "duration": 5.49
    },
    {
      "text": "of other people nor declare a false",
      "start": 231.44,
      "duration": 5.28
    },
    {
      "text": "nationality if you try to cross with",
      "start": 233.75,
      "duration": 4.83
    },
    {
      "text": "documents that are false or that belong",
      "start": 236.72,
      "duration": 3.659
    },
    {
      "text": "to someone else keep the following in",
      "start": 238.58,
      "duration": 4.92
    },
    {
      "text": "mind the use of documents that are false",
      "start": 240.379,
      "duration": 4.89
    },
    {
      "text": "or that belong to someone else is a",
      "start": 243.5,
      "duration": 4.41
    },
    {
      "text": "federal crime in the United States for",
      "start": 245.269,
      "duration": 4.53
    },
    {
      "text": "which you can be criminally prosecuted",
      "start": 247.91,
      "duration": 4.049
    },
    {
      "text": "and end up in jail the same as if you",
      "start": 249.799,
      "duration": 4.261
    },
    {
      "text": "give a false name or say you are a US",
      "start": 251.959,
      "duration": 6.15
    },
    {
      "text": "citizen when you are not do not lie to",
      "start": 254.06,
      "duration": 5.94
    },
    {
      "text": "us border crossing or inspection booth",
      "start": 258.109,
      "duration": 6.691
    },
    {
      "text": "agents if you aren't detained do not",
      "start": 260,
      "duration": 7.32
    },
    {
      "text": "resist arrest do not assault or insult",
      "start": 264.8,
      "duration": 4.86
    },
    {
      "text": "the officer do not throw stones or other",
      "start": 267.32,
      "duration": 4.26
    },
    {
      "text": "objects at the officers nor at the",
      "start": 269.66,
      "duration": 3.93
    },
    {
      "text": "patrol cars because this is considered a",
      "start": 271.58,
      "duration": 5.55
    },
    {
      "text": "form of provocation if the officers feel",
      "start": 273.59,
      "duration": 4.92
    },
    {
      "text": "they've been assaulted they will",
      "start": 277.13,
      "duration": 4.71
    },
    {
      "text": "probably use force to detain you raise",
      "start": 278.51,
      "duration": 5.159
    },
    {
      "text": "your hand slowly for them to see you're",
      "start": 281.84,
      "duration": 5.49
    },
    {
      "text": "unarmed do not carry or hold any objects",
      "start": 283.669,
      "duration": 5.37
    },
    {
      "text": "that could be construed as weapons such",
      "start": 287.33,
      "duration": 6.089
    },
    {
      "text": "as lanterns screwdrivers blades knives",
      "start": 289.039,
      "duration": 10.651
    },
    {
      "text": "or stones if you are detained don't try",
      "start": 293.419,
      "duration": 10.111
    },
    {
      "text": "to run or escape don't hide in dangerous",
      "start": 299.69,
      "duration": 4.82
    },
    {
      "text": "places",
      "start": 303.53,
      "duration": 4.199
    },
    {
      "text": "don't cross freeways it's better for you",
      "start": 304.51,
      "duration": 4.87
    },
    {
      "text": "to be detained for a few hours and be",
      "start": 307.729,
      "duration": 3.721
    },
    {
      "text": "repatriated to Mexico than to get lost",
      "start": 309.38,
      "duration": 6.3
    },
    {
      "text": "in the desert your rights if you are",
      "start": 311.45,
      "duration": 7.32
    },
    {
      "text": "arrested you have rights give your true",
      "start": 315.68,
      "duration": 5.669
    },
    {
      "text": "name if you are a minor and are",
      "start": 318.77,
      "duration": 4.17
    },
    {
      "text": "accompanied by an adult tell the",
      "start": 321.349,
      "duration": 3.921
    },
    {
      "text": "authorities so they do not separate you",
      "start": 322.94,
      "duration": 7.199
    },
    {
      "text": "your rights are to know where you are to",
      "start": 325.27,
      "duration": 6.579
    },
    {
      "text": "request to speak to the nearest Mexican",
      "start": 330.139,
      "duration": 3.181
    },
    {
      "text": "Consulate representative in order to",
      "start": 331.849,
      "duration": 4.231
    },
    {
      "text": "receive help to not make statements or",
      "start": 333.32,
      "duration": 4.529
    },
    {
      "text": "assign documents especially if they are",
      "start": 336.08,
      "duration": 4.08
    },
    {
      "text": "in English without the aid of a defense",
      "start": 337.849,
      "duration": 4.531
    },
    {
      "text": "attorney or Mexican government consulate",
      "start": 340.16,
      "duration": 4.92
    },
    {
      "text": "representative to receive medical",
      "start": 342.38,
      "duration": 4.56
    },
    {
      "text": "attention if you are injured or in poor",
      "start": 345.08,
      "duration": 4.2
    },
    {
      "text": "health to receive respectful treatment",
      "start": 346.94,
      "duration": 5.55
    },
    {
      "text": "regardless of your immigration status to",
      "start": 349.28,
      "duration": 6.78
    },
    {
      "text": "be transported safely to have water and",
      "start": 352.49,
      "duration": 5.28
    },
    {
      "text": "food when you need it",
      "start": 356.06,
      "duration": 4.38
    },
    {
      "text": "you are not obligated to disclose your",
      "start": 357.77,
      "duration": 5.66
    },
    {
      "text": "immigration status when you are detained",
      "start": 360.44,
      "duration": 8.099
    },
    {
      "text": "your rights to not be hit or insulted to",
      "start": 363.43,
      "duration": 8.68
    },
    {
      "text": "not be held incommunicado in case they",
      "start": 368.539,
      "duration": 5.581
    },
    {
      "text": "take away your personal effects request",
      "start": 372.11,
      "duration": 3.839
    },
    {
      "text": "a voucher in order to claim them when",
      "start": 374.12,
      "duration": 4.41
    },
    {
      "text": "you are released if there is any",
      "start": 375.949,
      "duration": 4.5
    },
    {
      "text": "violation of these rights it's important",
      "start": 378.53,
      "duration": 3.33
    },
    {
      "text": "for you to inform your attorney or",
      "start": 380.449,
      "duration": 3.601
    },
    {
      "text": "Mexican Consulate representative that",
      "start": 381.86,
      "duration": 3.869
    },
    {
      "text": "visits you or even the nearest",
      "start": 384.05,
      "duration": 3.72
    },
    {
      "text": "delegation of the Secretariat of Foreign",
      "start": 385.729,
      "duration": 5.611
    },
    {
      "text": "Relations within Mexico if you wish more",
      "start": 387.77,
      "duration": 5.22
    },
    {
      "text": "information and you live in Texas or in",
      "start": 391.34,
      "duration": 4.5
    },
    {
      "text": "sis white aqua Kokila tune in to the",
      "start": 392.99,
      "duration": 6.989
    },
    {
      "text": "powerful station at am 1570 if you are",
      "start": 395.84,
      "duration": 8.639
    },
    {
      "text": "arrested or detained if you have already",
      "start": 399.979,
      "duration": 6.271
    },
    {
      "text": "been sentenced for some crime or you are",
      "start": 404.479,
      "duration": 3.93
    },
    {
      "text": "in jail facing criminal prosecution you",
      "start": 406.25,
      "duration": 4.86
    },
    {
      "text": "have the following rights to not be",
      "start": 408.409,
      "duration": 4.771
    },
    {
      "text": "discriminated against by the police the",
      "start": 411.11,
      "duration": 5.13
    },
    {
      "text": "courts or prison authorities to receive",
      "start": 413.18,
      "duration": 4.65
    },
    {
      "text": "visits from consular officials and",
      "start": 416.24,
      "duration": 4.41
    },
    {
      "text": "family members to receive appropriate",
      "start": 417.83,
      "duration": 4.92
    },
    {
      "text": "legal counsel without conditions or",
      "start": 420.65,
      "duration": 6
    },
    {
      "text": "obstructions if you are being criminally",
      "start": 422.75,
      "duration": 5.46
    },
    {
      "text": "prosecuted and have not yet been",
      "start": 426.65,
      "duration": 3.75
    },
    {
      "text": "sentenced ask your attorney or consular",
      "start": 428.21,
      "duration": 4.37
    },
    {
      "text": "representative what the plea agreement",
      "start": 430.4,
      "duration": 6.48
    },
    {
      "text": "consists of do not plead guilty without",
      "start": 432.58,
      "duration": 6.16
    },
    {
      "text": "first consulting your attorney about the",
      "start": 436.88,
      "duration": 3.39
    },
    {
      "text": "possibilities of winning your case if",
      "start": 438.74,
      "duration": 5.459
    },
    {
      "text": "you go to trial it's important that you",
      "start": 440.27,
      "duration": 5.61
    },
    {
      "text": "know the laws of the American state",
      "start": 444.199,
      "duration": 2.94
    },
    {
      "text": "where you live and work since each",
      "start": 445.88,
      "duration": 3.39
    },
    {
      "text": "state's laws are different bear in mind",
      "start": 447.139,
      "duration": 5.58
    },
    {
      "text": "the following information if you drink",
      "start": 449.27,
      "duration": 6.66
    },
    {
      "text": "don't drive since if you do not have",
      "start": 452.719,
      "duration": 5.07
    },
    {
      "text": "papers you can be detained and deported",
      "start": 455.93,
      "duration": 5.519
    },
    {
      "text": "if a legal resident is cited more than",
      "start": 457.789,
      "duration": 5.551
    },
    {
      "text": "two times for drunk driving he can be",
      "start": 461.449,
      "duration": 2.4
    },
    {
      "text": "deported",
      "start": 463.34,
      "duration": 3.02
    },
    {
      "text": "do not drive without a driver's license",
      "start": 463.849,
      "duration": 5.551
    },
    {
      "text": "observe traffic signals and science and",
      "start": 466.36,
      "duration": 4.44
    },
    {
      "text": "use your seat belt",
      "start": 469.4,
      "duration": 4.319
    },
    {
      "text": "do not drive without auto insurance nor",
      "start": 470.8,
      "duration": 5.63
    },
    {
      "text": "drive an unknown vehicle",
      "start": 473.719,
      "duration": 6.611
    },
    {
      "text": "things to avoid do not pick up strangers",
      "start": 476.43,
      "duration": 6.66
    },
    {
      "text": "if you commit some traffic violation and",
      "start": 480.33,
      "duration": 4.41
    },
    {
      "text": "are detained by the police place your",
      "start": 483.09,
      "duration": 3.63
    },
    {
      "text": "hands on the steering wheel and do not",
      "start": 484.74,
      "duration": 3.87
    },
    {
      "text": "get out of the car until the officer",
      "start": 486.72,
      "duration": 3.74
    },
    {
      "text": "requests you to do so",
      "start": 488.61,
      "duration": 4.47
    },
    {
      "text": "avoid calling attention to yourself at",
      "start": 490.46,
      "duration": 4.03
    },
    {
      "text": "least while you are arranging your",
      "start": 493.08,
      "duration": 3.149
    },
    {
      "text": "residence papers to live in the United",
      "start": 494.49,
      "duration": 5.88
    },
    {
      "text": "States the best formula is not to alter",
      "start": 496.229,
      "duration": 6.121
    },
    {
      "text": "your routine of going between work and",
      "start": 500.37,
      "duration": 5.97
    },
    {
      "text": "home avoid noisy parties because the",
      "start": 502.35,
      "duration": 5.55
    },
    {
      "text": "neighbors can get upset and call the",
      "start": 506.34,
      "duration": 4.68
    },
    {
      "text": "police and you could be arrested avoid",
      "start": 507.9,
      "duration": 6.36
    },
    {
      "text": "fighting if you go to a bar or nightclub",
      "start": 511.02,
      "duration": 5.04
    },
    {
      "text": "and a fight starts leave immediately",
      "start": 514.26,
      "duration": 3.659
    },
    {
      "text": "since in the confusion you could be",
      "start": 516.06,
      "duration": 3.539
    },
    {
      "text": "arrested even if you did not do anything",
      "start": 517.919,
      "duration": 3.29
    },
    {
      "text": "wrong",
      "start": 519.599,
      "duration": 5.131
    },
    {
      "text": "avoid family or domestic violence as in",
      "start": 521.209,
      "duration": 5.621
    },
    {
      "text": "Mexico it is a crime in the United",
      "start": 524.73,
      "duration": 5.22
    },
    {
      "text": "States domestic violence does not",
      "start": 526.83,
      "duration": 5.04
    },
    {
      "text": "consist solely of hitting others but can",
      "start": 529.95,
      "duration": 4.7
    },
    {
      "text": "also be threats shouting or mistreatment",
      "start": 531.87,
      "duration": 5.46
    },
    {
      "text": "if you are accused of domestic violence",
      "start": 534.65,
      "duration": 4.42
    },
    {
      "text": "against your children your mate or",
      "start": 537.33,
      "duration": 3.87
    },
    {
      "text": "someone else who lives with you you",
      "start": 539.07,
      "duration": 2.85
    },
    {
      "text": "could go to jail",
      "start": 541.2,
      "duration": 2.28
    },
    {
      "text": "in addition Child Protective Services",
      "start": 541.92,
      "duration": 3.419
    },
    {
      "text": "Authority x' could take away your",
      "start": 543.48,
      "duration": 5.85
    },
    {
      "text": "children do not carry firearms bladed",
      "start": 545.339,
      "duration": 7.351
    },
    {
      "text": "weapons or other dangerous objects keep",
      "start": 549.33,
      "duration": 5.46
    },
    {
      "text": "in mind that many Mexicans have died or",
      "start": 552.69,
      "duration": 6.51
    },
    {
      "text": "are in prison because of these things if",
      "start": 554.79,
      "duration": 6.15
    },
    {
      "text": "the police enter your house or apartment",
      "start": 559.2,
      "duration": 3.99
    },
    {
      "text": "do not resist but ask to see a search",
      "start": 560.94,
      "duration": 4.05
    },
    {
      "text": "warrant it is better to cooperate with",
      "start": 563.19,
      "duration": 3.75
    },
    {
      "text": "them and ask to speak to the nearest",
      "start": 564.99,
      "duration": 6.33
    },
    {
      "text": "Mexican Consulate consulates the",
      "start": 566.94,
      "duration": 6.839
    },
    {
      "text": "secretariat of Foreign Relations has 45",
      "start": 571.32,
      "duration": 4.17
    },
    {
      "text": "constitutive representatives within the",
      "start": 573.779,
      "duration": 3.81
    },
    {
      "text": "US and on its southern border which are",
      "start": 575.49,
      "duration": 4.95
    },
    {
      "text": "designed to help you remember if you",
      "start": 577.589,
      "duration": 4.471
    },
    {
      "text": "have been detained or are serving a",
      "start": 580.44,
      "duration": 3.12
    },
    {
      "text": "sentence you have the right to speak",
      "start": 582.06,
      "duration": 3.69
    },
    {
      "text": "with the nearest Mexican Consulate",
      "start": 583.56,
      "duration": 4.98
    },
    {
      "text": "always carry your guide to constantly a",
      "start": 585.75,
      "duration": 5.85
    },
    {
      "text": "protection with you at all times get",
      "start": 588.54,
      "duration": 5.97
    },
    {
      "text": "near to the consulate embrace Mexico",
      "start": 591.6,
      "duration": 7.71
    },
    {
      "text": "it's your home fellow countryman this",
      "start": 594.51,
      "duration": 5.39
    },
    {
      "text": "counselor",
      "start": 599.31,
      "duration": 1.88
    },
    {
      "text": "Gide is not promoting the crossing of",
      "start": 599.9,
      "duration": 2.46
    },
    {
      "text": "the border of mexicans without legal",
      "start": 601.19,
      "duration": 2.58
    },
    {
      "text": "documentation required by the government",
      "start": 602.36,
      "duration": 2.82
    },
    {
      "text": "of the United States its objective is to",
      "start": 603.77,
      "duration": 2.58
    },
    {
      "text": "make known the risks implied and to",
      "start": 605.18,
      "duration": 2.52
    },
    {
      "text": "inform about the rights of migrants",
      "start": 606.35,
      "duration": 4.52
    },
    {
      "text": "regardless of their legal residence",
      "start": 607.7,
      "duration": 3.17
    },
    {
      "text": "keep this in mind whenever you hear",
      "start": 611.31,
      "duration": 4.8
    },
    {
      "text": "Donald Trump being criticized for saying",
      "start": 614.35,
      "duration": 6.08
    },
    {
      "text": "Mexico is sending",
      "start": 616.11,
      "duration": 4.32
    }
  ],
  "Errors": null,
  "TranscriptStderr": null
}