{
  "Title": "Drug Decriminalization!",
  "Id": "qnZXUzTLBlM",
  "Transcript": [
    {
      "text": "hi everybody it's depend molyneux from",
      "start": 8.03,
      "duration": 3.01
    },
    {
      "text": "freedomain radio hope you're doing well",
      "start": 10.08,
      "duration": 2.849
    },
    {
      "text": "you ever get the feeling that you live",
      "start": 11.04,
      "duration": 4.469
    },
    {
      "text": "in this strange surreal bubble of",
      "start": 12.929,
      "duration": 5.43
    },
    {
      "text": "disinformation I do a listener sent this",
      "start": 15.509,
      "duration": 5.491
    },
    {
      "text": "to me thank you so much what is the",
      "start": 18.359,
      "duration": 5.491
    },
    {
      "text": "country that has the most liberal drug",
      "start": 21,
      "duration": 4.83
    },
    {
      "text": "laws in Europe you'd think the",
      "start": 23.85,
      "duration": 3.749
    },
    {
      "text": "Netherlands right Amsterdam and all that",
      "start": 25.83,
      "duration": 4.82
    },
    {
      "text": "it's not actually it's Portugal Portugal",
      "start": 27.599,
      "duration": 6.771
    },
    {
      "text": "decriminalized illicit street drugs in",
      "start": 30.65,
      "duration": 5.95
    },
    {
      "text": "2001 after a couple of years of studying",
      "start": 34.37,
      "duration": 3.759
    },
    {
      "text": "the issue of how to deal with the",
      "start": 36.6,
      "duration": 4.95
    },
    {
      "text": "problems of drug abuse and they",
      "start": 38.129,
      "duration": 5.131
    },
    {
      "text": "decriminalized it which is not quite the",
      "start": 41.55,
      "duration": 3.45
    },
    {
      "text": "same as legalization and I've read the",
      "start": 43.26,
      "duration": 3.119
    },
    {
      "text": "first part of a study on this which is",
      "start": 45,
      "duration": 3.39
    },
    {
      "text": "available as a link below this video",
      "start": 46.379,
      "duration": 3.961
    },
    {
      "text": "it'll be the next podcast and podcast",
      "start": 48.39,
      "duration": 5.28
    },
    {
      "text": "feed it's really really quite",
      "start": 50.34,
      "duration": 5.43
    },
    {
      "text": "fascinating they've turned personal drug",
      "start": 53.67,
      "duration": 3.779
    },
    {
      "text": "consumption which i think is defined as",
      "start": 55.77,
      "duration": 3.96
    },
    {
      "text": "the amount of drugs that a typical user",
      "start": 57.449,
      "duration": 4.741
    },
    {
      "text": "would have for a week or ten days or",
      "start": 59.73,
      "duration": 3.899
    },
    {
      "text": "something like that drug dealing is",
      "start": 62.19,
      "duration": 3.84
    },
    {
      "text": "still illegal but possession of drugs",
      "start": 63.629,
      "duration": 4.92
    },
    {
      "text": "for personal use cocaine heroin you name",
      "start": 66.03,
      "duration": 4.8
    },
    {
      "text": "it has been decriminalized so it's kind",
      "start": 68.549,
      "duration": 3.811
    },
    {
      "text": "of like a parking ticket you get a",
      "start": 70.83,
      "duration": 4.02
    },
    {
      "text": "warning you get referred to treatment",
      "start": 72.36,
      "duration": 3.869
    },
    {
      "text": "you have to go before a commission to",
      "start": 74.85,
      "duration": 2.79
    },
    {
      "text": "show that you've gone to treatment and",
      "start": 76.229,
      "duration": 1.831
    },
    {
      "text": "so on",
      "start": 77.64,
      "duration": 2.43
    },
    {
      "text": "which is an incredible thing have you",
      "start": 78.06,
      "duration": 4.29
    },
    {
      "text": "heard about this bet you haven't let's",
      "start": 80.07,
      "duration": 4.229
    },
    {
      "text": "look at some of the facts so this is",
      "start": 82.35,
      "duration": 3.57
    },
    {
      "text": "Glenn Greenwald an attorney author and",
      "start": 84.299,
      "duration": 4.351
    },
    {
      "text": "fluent Portuguese speaker who conducted",
      "start": 85.92,
      "duration": 5.67
    },
    {
      "text": "some research he quote he says judging",
      "start": 88.65,
      "duration": 5.1
    },
    {
      "text": "by every metric decriminalization in",
      "start": 91.59,
      "duration": 3.95
    },
    {
      "text": "Portugal has been a resounding success",
      "start": 93.75,
      "duration": 3.9
    },
    {
      "text": "it has enabled the Portuguese government",
      "start": 95.54,
      "duration": 4.09
    },
    {
      "text": "to manage and control the drug problem",
      "start": 97.65,
      "duration": 3.87
    },
    {
      "text": "far better than virtually every other",
      "start": 99.63,
      "duration": 4.8
    },
    {
      "text": "Western country does compared to the",
      "start": 101.52,
      "duration": 5.22
    },
    {
      "text": "European Union and the u.s. Portugal's",
      "start": 104.43,
      "duration": 3.95
    },
    {
      "text": "drug use numbers are impressive",
      "start": 106.74,
      "duration": 4.169
    },
    {
      "text": "following decriminalization Portugal had",
      "start": 108.38,
      "duration": 4.54
    },
    {
      "text": "the lowest rate of lifetime marijuana",
      "start": 110.909,
      "duration": 4.74
    },
    {
      "text": "use in people over 15 in the EU just 10",
      "start": 112.92,
      "duration": 5.97
    },
    {
      "text": "percent 10 percent the most comparable",
      "start": 115.649,
      "duration": 6.561
    },
    {
      "text": "figure in America is in people over 12",
      "start": 118.89,
      "duration": 6.689
    },
    {
      "text": "39.8% say they've one quarter even with",
      "start": 122.21,
      "duration": 4.839
    },
    {
      "text": "3 years younger in the metric they have",
      "start": 125.579,
      "duration": 4.011
    },
    {
      "text": "one quarter the lifetime marijuana is",
      "start": 127.049,
      "duration": 4.41
    },
    {
      "text": "proportionally more Americans have used",
      "start": 129.59,
      "duration": 4.15
    },
    {
      "text": "cocaine than Portuguese have you",
      "start": 131.459,
      "duration": 4.411
    },
    {
      "text": "marijuana's the wire was right",
      "start": 133.74,
      "duration": 4.92
    },
    {
      "text": "legalization lowers drug use a caterer",
      "start": 135.87,
      "duration": 6.36
    },
    {
      "text": "paper reports that between 2001 and 2006",
      "start": 138.66,
      "duration": 6.09
    },
    {
      "text": "in portugal rates of lifetime use of any",
      "start": 142.23,
      "duration": 5.07
    },
    {
      "text": "illegal drug among 7th through 9th",
      "start": 144.75,
      "duration": 4.02
    },
    {
      "text": "graders trail from fourteen point one",
      "start": 147.3,
      "duration": 3.56
    },
    {
      "text": "percent to ten point six percent",
      "start": 148.77,
      "duration": 5
    },
    {
      "text": "drug use in all the teens also declined",
      "start": 150.86,
      "duration": 5.17
    },
    {
      "text": "lifetime heroin use among sixteen to",
      "start": 153.77,
      "duration": 4.45
    },
    {
      "text": "eighteen year olds felton two point five",
      "start": 156.03,
      "duration": 3.78
    },
    {
      "text": "to one point eight percent although",
      "start": 158.22,
      "duration": 3.06
    },
    {
      "text": "there was a slight increase in marijuana",
      "start": 159.81,
      "duration": 3.6
    },
    {
      "text": "used in that age group new HIV",
      "start": 161.28,
      "duration": 4.68
    },
    {
      "text": "infections in drug users fell by 17",
      "start": 163.41,
      "duration": 5.01
    },
    {
      "text": "percent between 99 and 2003 and deaths",
      "start": 165.96,
      "duration": 4.47
    },
    {
      "text": "related to heroin and similar drugs were",
      "start": 168.42,
      "duration": 4.2
    },
    {
      "text": "cut by more than half in addition the",
      "start": 170.43,
      "duration": 4.23
    },
    {
      "text": "number of people our methadone and other",
      "start": 172.62,
      "duration": 4.52
    },
    {
      "text": "drug treatments for addictions rose from",
      "start": 174.66,
      "duration": 5.22
    },
    {
      "text": "rose to fourteen thousand eight hundred",
      "start": 177.14,
      "duration": 4.12
    },
    {
      "text": "and seventy seven thousand six thousand",
      "start": 179.88,
      "duration": 3.9
    },
    {
      "text": "forty after decriminalization and money",
      "start": 181.26,
      "duration": 3.84
    },
    {
      "text": "saved on enforcement allowed for",
      "start": 183.78,
      "duration": 3.51
    },
    {
      "text": "increased funding of drug free treatment",
      "start": 185.1,
      "duration": 4.68
    },
    {
      "text": "as well this is fascinating and and this",
      "start": 187.29,
      "duration": 4.47
    },
    {
      "text": "is absolutely essential for people to",
      "start": 189.78,
      "duration": 4.2
    },
    {
      "text": "understand violence does not solve",
      "start": 191.76,
      "duration": 5.25
    },
    {
      "text": "social problems drug use drug addiction",
      "start": 193.98,
      "duration": 5.67
    },
    {
      "text": "is a fairly specific problem that arises",
      "start": 197.01,
      "duration": 4.71
    },
    {
      "text": "out of damage down to the brain in an",
      "start": 199.65,
      "duration": 3.69
    },
    {
      "text": "early childhood abuse people who have",
      "start": 201.72,
      "duration": 2.97
    },
    {
      "text": "been anna you can watch more of my bomb",
      "start": 203.34,
      "duration": 2.67
    },
    {
      "text": "in the brain series for this i'll put a",
      "start": 204.69,
      "duration": 4.02
    },
    {
      "text": "link below but people who were abused as",
      "start": 206.01,
      "duration": 4.23
    },
    {
      "text": "children end up with different brains",
      "start": 208.71,
      "duration": 3.54
    },
    {
      "text": "that are lacking particular receptors",
      "start": 210.24,
      "duration": 3.72
    },
    {
      "text": "and chemicals and drug use and",
      "start": 212.25,
      "duration": 4.53
    },
    {
      "text": "promiscuity and alcoholism and other",
      "start": 213.96,
      "duration": 4.98
    },
    {
      "text": "kinds of addictive behaviors are ways of",
      "start": 216.78,
      "duration": 3.66
    },
    {
      "text": "attempting to self-medicate for the",
      "start": 218.94,
      "duration": 3
    },
    {
      "text": "damage done to brains due to early",
      "start": 220.44,
      "duration": 3.3
    },
    {
      "text": "childhood abuse putting these people in",
      "start": 221.94,
      "duration": 3.36
    },
    {
      "text": "jail subjecting them to further abuse",
      "start": 223.74,
      "duration": 3.39
    },
    {
      "text": "using violence against them is to",
      "start": 225.3,
      "duration": 3.69
    },
    {
      "text": "perpetuate what was done to them by",
      "start": 227.13,
      "duration": 3.15
    },
    {
      "text": "their caregivers as children is to",
      "start": 228.99,
      "duration": 4.05
    },
    {
      "text": "participate and to exacerbate these",
      "start": 230.28,
      "duration": 5.22
    },
    {
      "text": "cycle of abuse within society people who",
      "start": 233.04,
      "duration": 4.62
    },
    {
      "text": "are addicted to drugs need sympathy they",
      "start": 235.5,
      "duration": 3.63
    },
    {
      "text": "need treatment they need to be",
      "start": 237.66,
      "duration": 3.66
    },
    {
      "text": "restrained if necessary in treatment",
      "start": 239.13,
      "duration": 3.6
    },
    {
      "text": "facilities if they're doing damage to",
      "start": 241.32,
      "duration": 3.45
    },
    {
      "text": "themselves or others but they are people",
      "start": 242.73,
      "duration": 5.01
    },
    {
      "text": "who are sick and who need help so i hope",
      "start": 244.77,
      "duration": 4.65
    },
    {
      "text": "that this makes some kind of sense i",
      "start": 247.74,
      "duration": 3.15
    },
    {
      "text": "hope that you will continue to look into",
      "start": 249.42,
      "duration": 2.85
    },
    {
      "text": "this is very very interesting",
      "start": 250.89,
      "duration": 2.49
    },
    {
      "text": "information i hope you will take the",
      "start": 252.27,
      "duration": 3.12
    },
    {
      "text": "time to listen to the first part of the",
      "start": 253.38,
      "duration": 3.96
    },
    {
      "text": "study that i've read thank you so much",
      "start": 255.39,
      "duration": 5.42
    },
    {
      "text": "for watching i will talk to you soon",
      "start": 257.34,
      "duration": 3.47
    }
  ],
  "Errors": null,
  "TranscriptStderr": null
}