{
  "Title": "What Pisses Me Off About Universal Basic Income (UBI)",
  "Id": "QxUzTW5dM4o",
  "Transcript": [
    {
      "text": "hi everybody staff and molyneux from",
      "start": 0.12,
      "duration": 2.4
    },
    {
      "text": "freedomain radio hope you're doing well",
      "start": 1.319,
      "duration": 4.081
    },
    {
      "text": "so one idea that is returning like a",
      "start": 2.52,
      "duration": 5.64
    },
    {
      "text": "bladed boomerang is this question of or",
      "start": 5.4,
      "duration": 5.43
    },
    {
      "text": "the argument for a universal basic",
      "start": 8.16,
      "duration": 6.51
    },
    {
      "text": "income or ubi it has been experimented",
      "start": 10.83,
      "duration": 5.789
    },
    {
      "text": "on in the past in the 60s and 70s it's",
      "start": 14.67,
      "duration": 4.68
    },
    {
      "text": "coming back to my home province of",
      "start": 16.619,
      "duration": 5.42
    },
    {
      "text": "Ontario it was that recently rejected by",
      "start": 19.35,
      "duration": 6.12
    },
    {
      "text": "three-quarters of Swedish voters this",
      "start": 22.039,
      "duration": 5.941
    },
    {
      "text": "summer and the idea basically is that",
      "start": 25.47,
      "duration": 5.52
    },
    {
      "text": "this complicated alphabet soup of",
      "start": 27.98,
      "duration": 4.9
    },
    {
      "text": "benefits provided by the government for",
      "start": 30.99,
      "duration": 3.749
    },
    {
      "text": "people who are poor or disabled or",
      "start": 32.88,
      "duration": 4.41
    },
    {
      "text": "single moms' or whatever well that's",
      "start": 34.739,
      "duration": 4.081
    },
    {
      "text": "just it's too math too much of a mess",
      "start": 37.29,
      "duration": 3.359
    },
    {
      "text": "it's too much overhead and there is the",
      "start": 38.82,
      "duration": 4.68
    },
    {
      "text": "problem of the welfare cliff which is",
      "start": 40.649,
      "duration": 5.461
    },
    {
      "text": "where you lose benefits by increasing",
      "start": 43.5,
      "duration": 3.96
    },
    {
      "text": "your income to the point where the",
      "start": 46.11,
      "duration": 3.81
    },
    {
      "text": "actual tax rates or a quote tax rate for",
      "start": 47.46,
      "duration": 3.81
    },
    {
      "text": "increasing your income if you're poor",
      "start": 49.92,
      "duration": 2.97
    },
    {
      "text": "can be actually over a hundred percent",
      "start": 51.27,
      "duration": 3.24
    },
    {
      "text": "in other words you get a raise you end",
      "start": 52.89,
      "duration": 4.14
    },
    {
      "text": "up with less take-home money and/or",
      "start": 54.51,
      "duration": 5.01
    },
    {
      "text": "benefits so this is a big giant mess so",
      "start": 57.03,
      "duration": 3.99
    },
    {
      "text": "what we need to do is sweep all of that",
      "start": 59.52,
      "duration": 4.59
    },
    {
      "text": "bureaucracy away and just have a simple",
      "start": 61.02,
      "duration": 6.12
    },
    {
      "text": "universal basic income and this will",
      "start": 64.11,
      "duration": 4.38
    },
    {
      "text": "deal with the problem which we'll talk",
      "start": 67.14,
      "duration": 3
    },
    {
      "text": "about in a few minutes of automation",
      "start": 68.49,
      "duration": 3.6
    },
    {
      "text": "that the robots are going to be taking",
      "start": 70.14,
      "duration": 4.68
    },
    {
      "text": "all of our jobs and therefore we can",
      "start": 72.09,
      "duration": 4.08
    },
    {
      "text": "have so much wealth because of",
      "start": 74.82,
      "duration": 2.7
    },
    {
      "text": "automation that we could just afford to",
      "start": 76.17,
      "duration": 4.92
    },
    {
      "text": "hand out this money to everyone so this",
      "start": 77.52,
      "duration": 6.599
    },
    {
      "text": "is not the universal basic income is",
      "start": 81.09,
      "duration": 4.319
    },
    {
      "text": "truly universal it doesn't matter if you",
      "start": 84.119,
      "duration": 2.881
    },
    {
      "text": "make a billion dollars a year or one",
      "start": 85.409,
      "duration": 3.57
    },
    {
      "text": "dollar a year you get a certain amount",
      "start": 87,
      "duration": 3.81
    },
    {
      "text": "of money now the challenge of course is",
      "start": 88.979,
      "duration": 5.07
    },
    {
      "text": "that if the benefit is fairly small then",
      "start": 90.81,
      "duration": 4.83
    },
    {
      "text": "it's quite a fall affordable but it",
      "start": 94.049,
      "duration": 3.811
    },
    {
      "text": "doesn't really change behavior that much",
      "start": 95.64,
      "duration": 4.049
    },
    {
      "text": "it's not enough to live on if it's large",
      "start": 97.86,
      "duration": 5.039
    },
    {
      "text": "enough to live on then the implications",
      "start": 99.689,
      "duration": 5.64
    },
    {
      "text": "for the tax system are pretty large and",
      "start": 102.899,
      "duration": 4.47
    },
    {
      "text": "you could argue that is too large to pay",
      "start": 105.329,
      "duration": 5.25
    },
    {
      "text": "for it is an old idea and has been",
      "start": 107.369,
      "duration": 5.46
    },
    {
      "text": "advocated for by a wide variety of",
      "start": 110.579,
      "duration": 5.82
    },
    {
      "text": "people Thomas Paine ancient pamphlet",
      "start": 112.829,
      "duration": 7.32
    },
    {
      "text": "issed argued in 1797 that the government",
      "start": 116.399,
      "duration": 6.9
    },
    {
      "text": "ought to pay every 115 pounds per year",
      "start": 120.149,
      "duration": 5.22
    },
    {
      "text": "boy that's back when money actually",
      "start": 123.299,
      "duration": 4.17
    },
    {
      "text": "meant something a and and they would",
      "start": 125.369,
      "duration": 5.581
    },
    {
      "text": "give this 15 pounds a year in exchange",
      "start": 127.469,
      "duration": 6.091
    },
    {
      "text": "for a social consensus that prop",
      "start": 130.95,
      "duration": 5.03
    },
    {
      "text": "property rights or to be defended a",
      "start": 133.56,
      "duration": 4.41
    },
    {
      "text": "little bit of a contradiction there",
      "start": 135.98,
      "duration": 3.79
    },
    {
      "text": "saying well we'll steal for money and",
      "start": 137.97,
      "duration": 4.41
    },
    {
      "text": "give money to you so that your support a",
      "start": 139.77,
      "duration": 4.68
    },
    {
      "text": "respect for property rights well that's",
      "start": 142.38,
      "duration": 5.37
    },
    {
      "text": "just a little bit too twisty for me so",
      "start": 144.45,
      "duration": 5.7
    },
    {
      "text": "just looking at the US will chew through",
      "start": 147.75,
      "duration": 3.959
    },
    {
      "text": "a few numbers and see if we can make any",
      "start": 150.15,
      "duration": 3.419
    },
    {
      "text": "sense of it let's just say kind of a",
      "start": 151.709,
      "duration": 3.721
    },
    {
      "text": "bare minimum a basic income of say a",
      "start": 153.569,
      "duration": 4.351
    },
    {
      "text": "thousand dollars a month so you know",
      "start": 155.43,
      "duration": 3.87
    },
    {
      "text": "twelve thousand dollars a year not",
      "start": 157.92,
      "duration": 3.66
    },
    {
      "text": "really quite enough to live on I guess",
      "start": 159.3,
      "duration": 3.96
    },
    {
      "text": "after you're no longer a student adds",
      "start": 161.58,
      "duration": 3.72
    },
    {
      "text": "just a smidge or two above the poverty",
      "start": 163.26,
      "duration": 4.44
    },
    {
      "text": "line for a single person so twelve",
      "start": 165.3,
      "duration": 4.439
    },
    {
      "text": "thousand dollars a year now about two",
      "start": 167.7,
      "duration": 3.509
    },
    {
      "text": "hundred and forty two million adults",
      "start": 169.739,
      "duration": 3.961
    },
    {
      "text": "living in the u.s. seven percent of them",
      "start": 171.209,
      "duration": 4.441
    },
    {
      "text": "are non-citizens and let's just say the",
      "start": 173.7,
      "duration": 3.9
    },
    {
      "text": "money only goes to citizens so we got",
      "start": 175.65,
      "duration": 3.809
    },
    {
      "text": "two hundred and twenty five million",
      "start": 177.6,
      "duration": 3.54
    },
    {
      "text": "adults times twelve thousand a year",
      "start": 179.459,
      "duration": 4.741
    },
    {
      "text": "that's well just a little over two point",
      "start": 181.14,
      "duration": 5.459
    },
    {
      "text": "seven trillion dollars or about seventy",
      "start": 184.2,
      "duration": 6.03
    },
    {
      "text": "percent of the current federal budget so",
      "start": 186.599,
      "duration": 6.091
    },
    {
      "text": "on the car side we are talking about two",
      "start": 190.23,
      "duration": 4.619
    },
    {
      "text": "point seven trillion dollars now even if",
      "start": 192.69,
      "duration": 3.87
    },
    {
      "text": "you get rid of things like a Temporary",
      "start": 194.849,
      "duration": 3.441
    },
    {
      "text": "Assistance for Needy Families or welfare",
      "start": 196.56,
      "duration": 3.959
    },
    {
      "text": "unemployment insurance Social Security",
      "start": 198.29,
      "duration": 4.6
    },
    {
      "text": "food stamps and all that well the",
      "start": 200.519,
      "duration": 4.021
    },
    {
      "text": "government is only spending about 1.2",
      "start": 202.89,
      "duration": 5.46
    },
    {
      "text": "trillion on those particular programs",
      "start": 204.54,
      "duration": 7.38
    },
    {
      "text": "now if you give people $12,000 a year",
      "start": 208.35,
      "duration": 7.139
    },
    {
      "text": "it's going to be less than the money",
      "start": 211.92,
      "duration": 4.649
    },
    {
      "text": "that a lot of the people are getting",
      "start": 215.489,
      "duration": 4.791
    },
    {
      "text": "from the welfare state as it stands so",
      "start": 216.569,
      "duration": 7.351
    },
    {
      "text": "you either have to increase it just for",
      "start": 220.28,
      "duration": 5.799
    },
    {
      "text": "those groups or you have to increase it",
      "start": 223.92,
      "duration": 4.77
    },
    {
      "text": "as a whole and so you're going to end up",
      "start": 226.079,
      "duration": 4.231
    },
    {
      "text": "with you know a three trillion or a four",
      "start": 228.69,
      "duration": 3.84
    },
    {
      "text": "trillion dollar program which replaces",
      "start": 230.31,
      "duration": 5.25
    },
    {
      "text": "1.2 trillion dollars of current welfare",
      "start": 232.53,
      "duration": 7.44
    },
    {
      "text": "spending so that's quite expensive when",
      "start": 235.56,
      "duration": 6.899
    },
    {
      "text": "you think about it so what do you do",
      "start": 239.97,
      "duration": 5.22
    },
    {
      "text": "well the way that governments do these",
      "start": 242.459,
      "duration": 5.161
    },
    {
      "text": "things in general is they will either",
      "start": 245.19,
      "duration": 4.199
    },
    {
      "text": "raise taxes let's say they raise taxes",
      "start": 247.62,
      "duration": 4.619
    },
    {
      "text": "so they raise taxes on the wealthy of",
      "start": 249.389,
      "duration": 3.901
    },
    {
      "text": "course because it's not much point",
      "start": 252.239,
      "duration": 2.851
    },
    {
      "text": "giving people money and then taxing it",
      "start": 253.29,
      "duration": 3.93
    },
    {
      "text": "back even as a government program that's",
      "start": 255.09,
      "duration": 4.619
    },
    {
      "text": "too obviously useless so you raise taxes",
      "start": 257.22,
      "duration": 5.939
    },
    {
      "text": "on the wealthy and on corporations and",
      "start": 259.709,
      "duration": 4.841
    },
    {
      "text": "and all that okay",
      "start": 263.159,
      "duration": 3.371
    },
    {
      "text": "well what happens is when the",
      "start": 264.55,
      "duration": 3.78
    },
    {
      "text": "corporations taxes go up they don't have",
      "start": 266.53,
      "duration": 3.419
    },
    {
      "text": "this big magic pile of money to pay it",
      "start": 268.33,
      "duration": 3.75
    },
    {
      "text": "with that infinitum so what they do is",
      "start": 269.949,
      "duration": 4.411
    },
    {
      "text": "they they drive up it drives up the",
      "start": 272.08,
      "duration": 4.079
    },
    {
      "text": "price of their goods right they have to",
      "start": 274.36,
      "duration": 3.48
    },
    {
      "text": "pay more in taxes so they have to charge",
      "start": 276.159,
      "duration": 4.41
    },
    {
      "text": "more in goods so you give people $12,000",
      "start": 277.84,
      "duration": 4.74
    },
    {
      "text": "a year you raise taxes on a lot of other",
      "start": 280.569,
      "duration": 4.651
    },
    {
      "text": "people to pay for it and that drives up",
      "start": 282.58,
      "duration": 5.519
    },
    {
      "text": "the prices and so you give them twelve",
      "start": 285.22,
      "duration": 4.56
    },
    {
      "text": "thousand dollars a year but prices go up",
      "start": 288.099,
      "duration": 3.241
    },
    {
      "text": "to the point where pretty soon it's only",
      "start": 289.78,
      "duration": 3
    },
    {
      "text": "worth ten thousand dollars a year or",
      "start": 291.34,
      "duration": 3.389
    },
    {
      "text": "eight thousand dollars a year and so on",
      "start": 292.78,
      "duration": 4.02
    },
    {
      "text": "and so on and therefore you have to",
      "start": 294.729,
      "duration": 4.801
    },
    {
      "text": "increase your universal basic income to",
      "start": 296.8,
      "duration": 4.859
    },
    {
      "text": "keep it in pace with the inflation",
      "start": 299.53,
      "duration": 3.479
    },
    {
      "text": "that's being driven by all the tax",
      "start": 301.659,
      "duration": 5.1
    },
    {
      "text": "increases ah and then of course you pay",
      "start": 303.009,
      "duration": 5.761
    },
    {
      "text": "for the increase to your ubi you have to",
      "start": 306.759,
      "duration": 4.201
    },
    {
      "text": "increase taxes more and that further",
      "start": 308.77,
      "duration": 4.709
    },
    {
      "text": "devalues the ubi because it drives up",
      "start": 310.96,
      "duration": 4.079
    },
    {
      "text": "and fled anyway you get the idea so it's",
      "start": 313.479,
      "duration": 3.451
    },
    {
      "text": "a cycle with no particular end the same",
      "start": 315.039,
      "duration": 4.41
    },
    {
      "text": "thing happens of course if you print the",
      "start": 316.93,
      "duration": 6.09
    },
    {
      "text": "money to pay for the ubi inflation",
      "start": 319.449,
      "duration": 5.851
    },
    {
      "text": "actually refers to creating more money",
      "start": 323.02,
      "duration": 4.739
    },
    {
      "text": "out of thin air you know unlike gold or",
      "start": 325.3,
      "duration": 3.989
    },
    {
      "text": "Bitcoin which were limited by physics",
      "start": 327.759,
      "duration": 4.44
    },
    {
      "text": "and mathematics so you can create lots",
      "start": 329.289,
      "duration": 3.75
    },
    {
      "text": "of money out of thin air",
      "start": 332.199,
      "duration": 3.12
    },
    {
      "text": "and pretend to pay for the ubi that",
      "start": 333.039,
      "duration": 3.72
    },
    {
      "text": "drives up inflation as well and",
      "start": 335.319,
      "duration": 3.6
    },
    {
      "text": "therefore the ubi is worth less so you",
      "start": 336.759,
      "duration": 3.421
    },
    {
      "text": "have to increase it to pay for that you",
      "start": 338.919,
      "duration": 2.97
    },
    {
      "text": "have to print print more money you",
      "start": 340.18,
      "duration": 5.489
    },
    {
      "text": "understand you can't square this circle",
      "start": 341.889,
      "duration": 6.33
    },
    {
      "text": "and that's kind of how it works now what",
      "start": 345.669,
      "duration": 3.72
    },
    {
      "text": "governments really like to do of course",
      "start": 348.219,
      "duration": 3.661
    },
    {
      "text": "is to borrow or sell bonds which is sort",
      "start": 349.389,
      "duration": 4.02
    },
    {
      "text": "of the promise of future payment to pay",
      "start": 351.88,
      "duration": 4.319
    },
    {
      "text": "for current stuff that of course does",
      "start": 353.409,
      "duration": 4.471
    },
    {
      "text": "bring a lot of money into the economy",
      "start": 356.199,
      "duration": 3.81
    },
    {
      "text": "that otherwise may not be there which is",
      "start": 357.88,
      "duration": 3.87
    },
    {
      "text": "also going to drive inflation and of",
      "start": 360.009,
      "duration": 3.81
    },
    {
      "text": "course it just defers the problem down",
      "start": 361.75,
      "duration": 4.11
    },
    {
      "text": "the road so it's really really to have",
      "start": 363.819,
      "duration": 4.921
    },
    {
      "text": "to find out some kind of way to pay for",
      "start": 365.86,
      "duration": 4.77
    },
    {
      "text": "it so then what you might say is because",
      "start": 368.74,
      "duration": 4.01
    },
    {
      "text": "you know the people would say oh a",
      "start": 370.63,
      "duration": 4.11
    },
    {
      "text": "billionaire is getting twelve thousand",
      "start": 372.75,
      "duration": 3.52
    },
    {
      "text": "dollars a year in universal basic income",
      "start": 374.74,
      "duration": 3.12
    },
    {
      "text": "that makes no sense he already has more",
      "start": 376.27,
      "duration": 3.66
    },
    {
      "text": "than enough money so then what you have",
      "start": 377.86,
      "duration": 3.54
    },
    {
      "text": "to do is you have to start saying okay",
      "start": 379.93,
      "duration": 2.76
    },
    {
      "text": "but if you're above a certain income",
      "start": 381.4,
      "duration": 6.449
    },
    {
      "text": "we're not going to to give you ubi and",
      "start": 382.69,
      "duration": 6.569
    },
    {
      "text": "and then you basically have just ended",
      "start": 387.849,
      "duration": 5.16
    },
    {
      "text": "up with a welfare state again and all of",
      "start": 389.259,
      "duration": 6.66
    },
    {
      "text": "the problems with that so it's really",
      "start": 393.009,
      "duration": 5.011
    },
    {
      "text": "really hard to find a way that any",
      "start": 395.919,
      "duration": 3.691
    },
    {
      "text": "this stuff could conceivably work in",
      "start": 398.02,
      "duration": 3.09
    },
    {
      "text": "long-term practice you know in",
      "start": 399.61,
      "duration": 3.179
    },
    {
      "text": "short-term sure you can print a bunch of",
      "start": 401.11,
      "duration": 3.089
    },
    {
      "text": "money you can pretend to pay people a",
      "start": 402.789,
      "duration": 3.421
    },
    {
      "text": "lot of money and for a year to you know",
      "start": 404.199,
      "duration": 4.47
    },
    {
      "text": "inflation often takes over 18 months to",
      "start": 406.21,
      "duration": 3.81
    },
    {
      "text": "show up when you increase the money",
      "start": 408.669,
      "duration": 4.011
    },
    {
      "text": "supply or raise taxes or whatever or so",
      "start": 410.02,
      "duration": 6.179
    },
    {
      "text": "well that's a you can make it work for a",
      "start": 412.68,
      "duration": 5.199
    },
    {
      "text": "short amount of time in the long time",
      "start": 416.199,
      "duration": 4.5
    },
    {
      "text": "it's a big problem it's also interesting",
      "start": 417.879,
      "duration": 4.111
    },
    {
      "text": "how it might affect something like",
      "start": 420.699,
      "duration": 2.94
    },
    {
      "text": "immigration so both taxpayers like",
      "start": 421.99,
      "duration": 4.26
    },
    {
      "text": "sending money to immigrants you you set",
      "start": 423.639,
      "duration": 5.131
    },
    {
      "text": "foot and you get your residency of some",
      "start": 426.25,
      "duration": 4.979
    },
    {
      "text": "kind in in some country and immediately",
      "start": 428.77,
      "duration": 4.23
    },
    {
      "text": "you qualify for this twelve thousand",
      "start": 431.229,
      "duration": 3.541
    },
    {
      "text": "dollars a year or whatever it's going to",
      "start": 433,
      "duration": 5.4
    },
    {
      "text": "be and are people going to feel that",
      "start": 434.77,
      "duration": 5.82
    },
    {
      "text": "that's a good use of their money they're",
      "start": 438.4,
      "duration": 3.359
    },
    {
      "text": "going to feel like it's worthwhile I",
      "start": 440.59,
      "duration": 3.84
    },
    {
      "text": "would imagine not that does seem to be a",
      "start": 441.759,
      "duration": 4.621
    },
    {
      "text": "bit of a nationalist wave sweeping",
      "start": 444.43,
      "duration": 3.63
    },
    {
      "text": "through the West and I think that would",
      "start": 446.38,
      "duration": 3.629
    },
    {
      "text": "be a big problem now one of the",
      "start": 448.06,
      "duration": 3.93
    },
    {
      "text": "arguments of course for the universal",
      "start": 450.009,
      "duration": 4.201
    },
    {
      "text": "basic income is those robots are going",
      "start": 451.99,
      "duration": 4.709
    },
    {
      "text": "to take our jobs and now this has been a",
      "start": 454.21,
      "duration": 5.04
    },
    {
      "text": "kind of staple or cliche of science",
      "start": 456.699,
      "duration": 5.131
    },
    {
      "text": "fiction fears for decades if not longer",
      "start": 459.25,
      "duration": 5.94
    },
    {
      "text": "and there was a 2013 paper it was",
      "start": 461.83,
      "duration": 5.82
    },
    {
      "text": "written about quite a lot online and in",
      "start": 465.19,
      "duration": 5.759
    },
    {
      "text": "print to oxford economists said well 47",
      "start": 467.65,
      "duration": 6.389
    },
    {
      "text": "of all 47 percent of all US jobs were at",
      "start": 470.949,
      "duration": 6.481
    },
    {
      "text": "risk of computerization and you know 46",
      "start": 474.039,
      "duration": 4.68
    },
    {
      "text": "percent of those of course will Marco",
      "start": 477.43,
      "duration": 4.53
    },
    {
      "text": "Rubio boom but yeah so almost half of US",
      "start": 478.719,
      "duration": 6.771
    },
    {
      "text": "jobs were at risk of computerization so",
      "start": 481.96,
      "duration": 5.91
    },
    {
      "text": "let's say that there's some validity to",
      "start": 485.49,
      "duration": 4.269
    },
    {
      "text": "that and of course as minimum wage",
      "start": 487.87,
      "duration": 3.81
    },
    {
      "text": "demands go up and up and up you know you",
      "start": 489.759,
      "duration": 3.421
    },
    {
      "text": "go to McDonald's and now there's a",
      "start": 491.68,
      "duration": 3.239
    },
    {
      "text": "automated kiosk rather than somebody",
      "start": 493.18,
      "duration": 3.599
    },
    {
      "text": "taking your order so people are going to",
      "start": 494.919,
      "duration": 3.18
    },
    {
      "text": "be thrown out of work it's not just",
      "start": 496.779,
      "duration": 3.75
    },
    {
      "text": "because of automation it's because of",
      "start": 498.099,
      "duration": 4.111
    },
    {
      "text": "complex regulations it's because of",
      "start": 500.529,
      "duration": 3.331
    },
    {
      "text": "unions it's because of lawsuits it's",
      "start": 502.21,
      "duration": 3.42
    },
    {
      "text": "because of minimum wages it's because of",
      "start": 503.86,
      "duration": 4.04
    },
    {
      "text": "all of this kind of crazy stuff and also",
      "start": 505.63,
      "duration": 4.98
    },
    {
      "text": "Western educational systems have become",
      "start": 507.9,
      "duration": 4.87
    },
    {
      "text": "pretty terrible which means that as an",
      "start": 510.61,
      "duration": 3.869
    },
    {
      "text": "employer you're kind of getting brain",
      "start": 512.77,
      "duration": 3.329
    },
    {
      "text": "directing doctrine ated people who've",
      "start": 514.479,
      "duration": 3.961
    },
    {
      "text": "who's you know childhood dreams and",
      "start": 516.099,
      "duration": 4.8
    },
    {
      "text": "rationality has been crushed into pulpy",
      "start": 518.44,
      "duration": 4.17
    },
    {
      "text": "brain orange juice because of terrible",
      "start": 520.899,
      "duration": 5.19
    },
    {
      "text": "educational standards and so it drives",
      "start": 522.61,
      "duration": 6.18
    },
    {
      "text": "up demands for robots when human beings",
      "start": 526.089,
      "duration": 5.011
    },
    {
      "text": "become ungodly expensive because of",
      "start": 528.79,
      "duration": 2.94
    },
    {
      "text": "regulation",
      "start": 531.1,
      "duration": 3.51
    },
    {
      "text": "and a lack of tort reform and also",
      "start": 531.73,
      "duration": 4.53
    },
    {
      "text": "because they're just not as reliable and",
      "start": 534.61,
      "duration": 3.33
    },
    {
      "text": "is competent because they've been raised",
      "start": 536.26,
      "duration": 4.53
    },
    {
      "text": "well badly in general so I mean",
      "start": 537.94,
      "duration": 4.74
    },
    {
      "text": "particularly by the schools I mean if",
      "start": 540.79,
      "duration": 4.08
    },
    {
      "text": "you can imagine a private voluntary",
      "start": 542.68,
      "duration": 4.92
    },
    {
      "text": "educational system parents would know",
      "start": 544.87,
      "duration": 4.38
    },
    {
      "text": "that there's this risk of automation or",
      "start": 547.6,
      "duration": 3.15
    },
    {
      "text": "computerization in the future so they'd",
      "start": 549.25,
      "duration": 3.63
    },
    {
      "text": "sit down with whoever was trying to",
      "start": 550.75,
      "duration": 3.69
    },
    {
      "text": "offer them the school services and",
      "start": 552.88,
      "duration": 2.759
    },
    {
      "text": "they'd say okay well how are you gonna",
      "start": 554.44,
      "duration": 3.149
    },
    {
      "text": "prepare my kid for an increasingly",
      "start": 555.639,
      "duration": 4.081
    },
    {
      "text": "automated world right so when the",
      "start": 557.589,
      "duration": 4.981
    },
    {
      "text": "economy shifts and you can see it coming",
      "start": 559.72,
      "duration": 5.309
    },
    {
      "text": "and this one is not going to be a sudden",
      "start": 562.57,
      "duration": 3.99
    },
    {
      "text": "event you can see this coming many years",
      "start": 565.029,
      "duration": 3.451
    },
    {
      "text": "down the future what parents would be",
      "start": 566.56,
      "duration": 3.18
    },
    {
      "text": "asking how the school is going to",
      "start": 568.48,
      "duration": 3.24
    },
    {
      "text": "prepare their kids for that of course",
      "start": 569.74,
      "duration": 3.36
    },
    {
      "text": "with government schools where you're",
      "start": 571.72,
      "duration": 2.79
    },
    {
      "text": "forced to pay enough then forced to send",
      "start": 573.1,
      "duration": 3.359
    },
    {
      "text": "your kids there and it doesn't matter",
      "start": 574.51,
      "duration": 4.079
    },
    {
      "text": "what you want they don't have to respond",
      "start": 576.459,
      "duration": 4.201
    },
    {
      "text": "to these market forces so this is sort",
      "start": 578.589,
      "duration": 3.99
    },
    {
      "text": "of another example of one terrible",
      "start": 580.66,
      "duration": 3.45
    },
    {
      "text": "government program giving rise to the",
      "start": 582.579,
      "duration": 2.88
    },
    {
      "text": "need for another terrible government",
      "start": 584.11,
      "duration": 3.479
    },
    {
      "text": "program government schools are not",
      "start": 585.459,
      "duration": 4.261
    },
    {
      "text": "adapting to the modern economy very well",
      "start": 587.589,
      "duration": 3.901
    },
    {
      "text": "if at all and therefore you need",
      "start": 589.72,
      "duration": 3.63
    },
    {
      "text": "universal basic income because schools",
      "start": 591.49,
      "duration": 3.23
    },
    {
      "text": "are spitting out people who have",
      "start": 593.35,
      "duration": 4.219
    },
    {
      "text": "negative economic value relative to",
      "start": 594.72,
      "duration": 5.65
    },
    {
      "text": "robots and you know given all be capable",
      "start": 597.569,
      "duration": 4.45
    },
    {
      "text": "of us as human beings it seems a little",
      "start": 600.37,
      "duration": 4.469
    },
    {
      "text": "tough that we can't find any way to give",
      "start": 602.019,
      "duration": 6.331
    },
    {
      "text": "kids economic value greater than a robot",
      "start": 604.839,
      "duration": 6.511
    },
    {
      "text": "and social resentment is not",
      "start": 608.35,
      "duration": 5.31
    },
    {
      "text": "inconsequential as well like if you get",
      "start": 611.35,
      "duration": 3.66
    },
    {
      "text": "two people you know",
      "start": 613.66,
      "duration": 4.59
    },
    {
      "text": "next door to each other right and one is",
      "start": 615.01,
      "duration": 4.74
    },
    {
      "text": "getting up and going to work and let's",
      "start": 618.25,
      "duration": 2.88
    },
    {
      "text": "say they're both healthy whatever one is",
      "start": 619.75,
      "duration": 2.459
    },
    {
      "text": "getting up and going to work and the",
      "start": 621.13,
      "duration": 3.269
    },
    {
      "text": "other one is staying home and you know",
      "start": 622.209,
      "duration": 4.56
    },
    {
      "text": "binging on Netflix and doing whatever",
      "start": 624.399,
      "duration": 5.461
    },
    {
      "text": "and maybe not as high a standard living",
      "start": 626.769,
      "duration": 5.401
    },
    {
      "text": "not making as much money aren't you",
      "start": 629.86,
      "duration": 3.539
    },
    {
      "text": "gonna find it kind of feel if you're",
      "start": 632.17,
      "duration": 3.27
    },
    {
      "text": "kind of getting up early and shaving and",
      "start": 633.399,
      "duration": 4.291
    },
    {
      "text": "and go into work and fighting traffic",
      "start": 635.44,
      "duration": 3.75
    },
    {
      "text": "and bad weather and so on are you going",
      "start": 637.69,
      "duration": 4.709
    },
    {
      "text": "to feel at some point that you can't be",
      "start": 639.19,
      "duration": 4.62
    },
    {
      "text": "ripped off a little bit the other person",
      "start": 642.399,
      "duration": 2.461
    },
    {
      "text": "is kind of sitting around and you're",
      "start": 643.81,
      "duration": 2.91
    },
    {
      "text": "going through paying for them and at",
      "start": 644.86,
      "duration": 4.8
    },
    {
      "text": "some point it's going to feel like hey",
      "start": 646.72,
      "duration": 6.9
    },
    {
      "text": "why why bother and that I think is",
      "start": 649.66,
      "duration": 5.669
    },
    {
      "text": "important one of the great mistakes it's",
      "start": 653.62,
      "duration": 4.079
    },
    {
      "text": "made with government programs is you say",
      "start": 655.329,
      "duration": 4.801
    },
    {
      "text": "ah well only ten percent of people are",
      "start": 657.699,
      "duration": 4.981
    },
    {
      "text": "poor and so we'll just take a little bit",
      "start": 660.13,
      "duration": 4.5
    },
    {
      "text": "of money from the wealthier people and",
      "start": 662.68,
      "duration": 2.849
    },
    {
      "text": "we'll give it to the poor",
      "start": 664.63,
      "duration": 3.209
    },
    {
      "text": "people and lo and behold we will",
      "start": 665.529,
      "duration": 3.961
    },
    {
      "text": "eliminate poverty but of course by",
      "start": 667.839,
      "duration": 3.781
    },
    {
      "text": "transferring money from rich people of",
      "start": 669.49,
      "duration": 4.589
    },
    {
      "text": "richer people to poor people you change",
      "start": 671.62,
      "duration": 4.5
    },
    {
      "text": "the decisions of both richer people and",
      "start": 674.079,
      "duration": 3.93
    },
    {
      "text": "poor people it's called public choice",
      "start": 676.12,
      "duration": 2.879
    },
    {
      "text": "theory and it's a really fascinating",
      "start": 678.009,
      "duration": 3.421
    },
    {
      "text": "thing to sort of understand the dynamic",
      "start": 678.999,
      "duration": 5.611
    },
    {
      "text": "nature of human society that if you say",
      "start": 681.43,
      "duration": 4.589
    },
    {
      "text": "well we're going to take money from",
      "start": 684.61,
      "duration": 2.669
    },
    {
      "text": "wealthy people give it to poor people",
      "start": 686.019,
      "duration": 3.091
    },
    {
      "text": "then it becomes more valuable to become",
      "start": 687.279,
      "duration": 3.901
    },
    {
      "text": "poor and less valuable to become",
      "start": 689.11,
      "duration": 4.86
    },
    {
      "text": "wealthier and if you tie that into you",
      "start": 691.18,
      "duration": 5.579
    },
    {
      "text": "know well kids need food and so on and",
      "start": 693.97,
      "duration": 4.44
    },
    {
      "text": "therefore you know we need to take money",
      "start": 696.759,
      "duration": 3.18
    },
    {
      "text": "from people who don't have kids",
      "start": 698.41,
      "duration": 2.789
    },
    {
      "text": "fundamentally and give it to people who",
      "start": 699.939,
      "duration": 2.82
    },
    {
      "text": "do have kids particularly if they don't",
      "start": 701.199,
      "duration": 3.33
    },
    {
      "text": "have any income or or they don't have a",
      "start": 702.759,
      "duration": 3.39
    },
    {
      "text": "marriage they don't have a provider and",
      "start": 704.529,
      "duration": 3.331
    },
    {
      "text": "so on well you take you money from more",
      "start": 706.149,
      "duration": 3.12
    },
    {
      "text": "responsible people and giving it to less",
      "start": 707.86,
      "duration": 3.06
    },
    {
      "text": "responsible people to breed and you",
      "start": 709.269,
      "duration": 4.411
    },
    {
      "text": "understand this is kind of how it all",
      "start": 710.92,
      "duration": 4.169
    },
    {
      "text": "works it changes everything",
      "start": 713.68,
      "duration": 4.139
    },
    {
      "text": "you touch with government money with",
      "start": 715.089,
      "duration": 4.891
    },
    {
      "text": "incentives and all of that changes and",
      "start": 717.819,
      "duration": 4.02
    },
    {
      "text": "so I think there would be a lot of",
      "start": 719.98,
      "duration": 3.359
    },
    {
      "text": "resentment that came out of this sort of",
      "start": 721.839,
      "duration": 3.961
    },
    {
      "text": "universal basic income in a way that",
      "start": 723.339,
      "duration": 4.68
    },
    {
      "text": "doesn't happen as much with something",
      "start": 725.8,
      "duration": 4.05
    },
    {
      "text": "like a disability because you have to go",
      "start": 728.019,
      "duration": 4.32
    },
    {
      "text": "through some process to say doctors",
      "start": 729.85,
      "duration": 4.44
    },
    {
      "text": "gotta certify I think that you can't",
      "start": 732.339,
      "duration": 3.48
    },
    {
      "text": "hold down a job and so there's a sense",
      "start": 734.29,
      "duration": 5.099
    },
    {
      "text": "that it's more legitimate than just",
      "start": 735.819,
      "duration": 6.301
    },
    {
      "text": "handing out money so to speak like like",
      "start": 739.389,
      "duration": 4.5
    },
    {
      "text": "candy so yeah government's couldn't",
      "start": 742.12,
      "duration": 4.889
    },
    {
      "text": "possibly afford it it would end up most",
      "start": 743.889,
      "duration": 4.92
    },
    {
      "text": "likely beings means-tested and what that",
      "start": 747.009,
      "duration": 3.27
    },
    {
      "text": "means of course when something becomes",
      "start": 748.809,
      "duration": 4.671
    },
    {
      "text": "means-tested let's say that you say well",
      "start": 750.279,
      "duration": 6.151
    },
    {
      "text": "everyone who's making less than twelve",
      "start": 753.48,
      "duration": 5.62
    },
    {
      "text": "thousand dollars now is going to be",
      "start": 756.43,
      "duration": 3.99
    },
    {
      "text": "given twelve thousand dollars let's just",
      "start": 759.1,
      "duration": 3.33
    },
    {
      "text": "say you make make up some rule and you",
      "start": 760.42,
      "duration": 3.69
    },
    {
      "text": "say well there's only a few percentage",
      "start": 762.43,
      "duration": 2.759
    },
    {
      "text": "of people who are making less than",
      "start": 764.11,
      "duration": 2.279
    },
    {
      "text": "twelve thousand dollars so here's how",
      "start": 765.189,
      "duration": 5.76
    },
    {
      "text": "much it's going to cost but it makes no",
      "start": 766.389,
      "duration": 6.781
    },
    {
      "text": "sense at all because let's say you make",
      "start": 770.949,
      "duration": 4.411
    },
    {
      "text": "thirteen thousand dollars and if you",
      "start": 773.17,
      "duration": 3.539
    },
    {
      "text": "make twelve thousand dollars or less you",
      "start": 775.36,
      "duration": 3.089
    },
    {
      "text": "get three twelve thousand dollars and if",
      "start": 776.709,
      "duration": 3.151
    },
    {
      "text": "you make thirteen thousand dollars you",
      "start": 778.449,
      "duration": 4.341
    },
    {
      "text": "get nothing well what that means is that",
      "start": 779.86,
      "duration": 5.49
    },
    {
      "text": "your income has just been slashed",
      "start": 782.79,
      "duration": 4.899
    },
    {
      "text": "enormously because you're now working",
      "start": 785.35,
      "duration": 4.469
    },
    {
      "text": "the whole year not for thirteen thousand",
      "start": 787.689,
      "duration": 3.81
    },
    {
      "text": "dollars but for one thousand dollars",
      "start": 789.819,
      "duration": 2.94
    },
    {
      "text": "which is the difference between the 12",
      "start": 791.499,
      "duration": 2.911
    },
    {
      "text": "and the thirteen thousand dollars so if",
      "start": 792.759,
      "duration": 3.93
    },
    {
      "text": "you quit your job it only costs you one",
      "start": 794.41,
      "duration": 3.479
    },
    {
      "text": "thousand dollars if you're making",
      "start": 796.689,
      "duration": 2.431
    },
    {
      "text": "thirteen thousand dollars",
      "start": 797.889,
      "duration": 4.231
    },
    {
      "text": "you get 12 K from the ubi if you quit",
      "start": 799.12,
      "duration": 5.28
    },
    {
      "text": "your job it only costs you a thousand",
      "start": 802.12,
      "duration": 4.23
    },
    {
      "text": "R's and you get all of this free time",
      "start": 804.4,
      "duration": 3.42
    },
    {
      "text": "and all of this you know wonderful stuff",
      "start": 806.35,
      "duration": 3.3
    },
    {
      "text": "and this sort of goes up up and up and",
      "start": 807.82,
      "duration": 3.42
    },
    {
      "text": "up so what happens of course is that",
      "start": 809.65,
      "duration": 3.33
    },
    {
      "text": "people who are close to that line will",
      "start": 811.24,
      "duration": 3.87
    },
    {
      "text": "then drop down into that line and that",
      "start": 812.98,
      "duration": 3.81
    },
    {
      "text": "means that vastly more people will end",
      "start": 815.11,
      "duration": 3.72
    },
    {
      "text": "up needing universal basic income if",
      "start": 816.79,
      "duration": 3.78
    },
    {
      "text": "it's got an income cap then would",
      "start": 818.83,
      "duration": 5.3
    },
    {
      "text": "otherwise have needed it beforehand and",
      "start": 820.57,
      "duration": 6.56
    },
    {
      "text": "now this sort of so then what happens is",
      "start": 824.13,
      "duration": 5.02
    },
    {
      "text": "you can say well we're going to raise",
      "start": 827.13,
      "duration": 4.3
    },
    {
      "text": "the ubi so that me a fewer people have",
      "start": 829.15,
      "duration": 4.23
    },
    {
      "text": "an incentive to drop down in their",
      "start": 831.43,
      "duration": 3.93
    },
    {
      "text": "salary but of course what that means is",
      "start": 833.38,
      "duration": 4.8
    },
    {
      "text": "let's say you make the ubi 15 ok well",
      "start": 835.36,
      "duration": 4.59
    },
    {
      "text": "now the 13,000 guy definitely won't keep",
      "start": 838.18,
      "duration": 4.38
    },
    {
      "text": "his job because he's making - $2,000 by",
      "start": 839.95,
      "duration": 4.079
    },
    {
      "text": "getting up and going to work and usually",
      "start": 842.56,
      "duration": 4.14
    },
    {
      "text": "when you get paid low wages you're not",
      "start": 844.029,
      "duration": 4.831
    },
    {
      "text": "usually having a great time at your work",
      "start": 846.7,
      "duration": 4.079
    },
    {
      "text": "is usually not a huge amount of fun so",
      "start": 848.86,
      "duration": 3.54
    },
    {
      "text": "that doesn't work and then all the",
      "start": 850.779,
      "duration": 4.081
    },
    {
      "text": "people at $20,000 look at the $15,000",
      "start": 852.4,
      "duration": 3.96
    },
    {
      "text": "won and say okay well if I quit I get",
      "start": 854.86,
      "duration": 5.479
    },
    {
      "text": "all this free time and I only lose",
      "start": 856.36,
      "duration": 6.09
    },
    {
      "text": "$5,000 in other words me working full",
      "start": 860.339,
      "duration": 4.571
    },
    {
      "text": "time only makes me $5,000 a year so",
      "start": 862.45,
      "duration": 4.079
    },
    {
      "text": "they'll drop down so fewer people will",
      "start": 864.91,
      "duration": 3.54
    },
    {
      "text": "be paying taxes and and all this kind of",
      "start": 866.529,
      "duration": 4.291
    },
    {
      "text": "stuff so it's a big giant mess the",
      "start": 868.45,
      "duration": 4.44
    },
    {
      "text": "moment you touch incentives this this",
      "start": 870.82,
      "duration": 5.55
    },
    {
      "text": "problem arises now this is a well known",
      "start": 872.89,
      "duration": 5.99
    },
    {
      "text": "problem among private charities and",
      "start": 876.37,
      "duration": 5.19
    },
    {
      "text": "private charities work very hard to",
      "start": 878.88,
      "duration": 5.05
    },
    {
      "text": "support people without enabling them to",
      "start": 881.56,
      "duration": 4.14
    },
    {
      "text": "help them during temporary emergencies",
      "start": 883.93,
      "duration": 4.2
    },
    {
      "text": "without creating the roach motel",
      "start": 885.7,
      "duration": 5.49
    },
    {
      "text": "endless quicksand gluey sticky trap of",
      "start": 888.13,
      "duration": 4.649
    },
    {
      "text": "the current welfare state like once you",
      "start": 891.19,
      "duration": 4.019
    },
    {
      "text": "get caught in the welfare state it's",
      "start": 892.779,
      "duration": 4.5
    },
    {
      "text": "almost impossible to get out in terms of",
      "start": 895.209,
      "duration": 4.021
    },
    {
      "text": "rational calculation because as you make",
      "start": 897.279,
      "duration": 3.841
    },
    {
      "text": "more money you lose benefits and it's",
      "start": 899.23,
      "duration": 3.45
    },
    {
      "text": "like trying to climb an escalator in",
      "start": 901.12,
      "duration": 3.24
    },
    {
      "text": "slow motion you're trying to get up but",
      "start": 902.68,
      "duration": 3.48
    },
    {
      "text": "you just keep going further down in your",
      "start": 904.36,
      "duration": 3.27
    },
    {
      "text": "income and then you end up having to",
      "start": 906.16,
      "duration": 3.299
    },
    {
      "text": "make like 60 or 70 thousand dollars",
      "start": 907.63,
      "duration": 4.47
    },
    {
      "text": "before you match what you're getting",
      "start": 909.459,
      "duration": 4.171
    },
    {
      "text": "especially if you're a single mom with",
      "start": 912.1,
      "duration": 3.21
    },
    {
      "text": "kids but before you match what you're",
      "start": 913.63,
      "duration": 4.32
    },
    {
      "text": "getting just by being on the welfare",
      "start": 915.31,
      "duration": 4.8
    },
    {
      "text": "state so private charities know that",
      "start": 917.95,
      "duration": 4.2
    },
    {
      "text": "that's a big problem that you want to",
      "start": 920.11,
      "duration": 4.68
    },
    {
      "text": "help the deserving poor right the people",
      "start": 922.15,
      "duration": 4.32
    },
    {
      "text": "who are poor you know through no basic",
      "start": 924.79,
      "duration": 2.97
    },
    {
      "text": "fault of their own sort of bad luck bad",
      "start": 926.47,
      "duration": 2.82
    },
    {
      "text": "circumstances and so on you want to help",
      "start": 927.76,
      "duration": 3.72
    },
    {
      "text": "those people but you don't really want",
      "start": 929.29,
      "duration": 3.42
    },
    {
      "text": "to help people who are milking the",
      "start": 931.48,
      "duration": 3
    },
    {
      "text": "system or who have made really bad",
      "start": 932.71,
      "duration": 3.84
    },
    {
      "text": "mistakes or really bad decisions you",
      "start": 934.48,
      "duration": 3.87
    },
    {
      "text": "don't want to sort of reward that so",
      "start": 936.55,
      "duration": 3.21
    },
    {
      "text": "you'll give them very conditional help",
      "start": 938.35,
      "duration": 3.15
    },
    {
      "text": "you'll give them very limited help and",
      "start": 939.76,
      "duration": 4.38
    },
    {
      "text": "the help won't just be financial it will",
      "start": 941.5,
      "duration": 4.8
    },
    {
      "text": "be helping them figure out how to get",
      "start": 944.14,
      "duration": 4.02
    },
    {
      "text": "and keep a job it will be helping them",
      "start": 946.3,
      "duration": 3.45
    },
    {
      "text": "over addiction problems would be lots of",
      "start": 948.16,
      "duration": 3.72
    },
    {
      "text": "things to do with actually helping the",
      "start": 949.75,
      "duration": 4.26
    },
    {
      "text": "person in terms of the root cause of",
      "start": 951.88,
      "duration": 3.66
    },
    {
      "text": "poverty and the root cause of poverty is",
      "start": 954.01,
      "duration": 3.15
    },
    {
      "text": "not necessarily just a lack of money",
      "start": 955.54,
      "duration": 3.54
    },
    {
      "text": "that's an effect it could be a variety",
      "start": 957.16,
      "duration": 3.39
    },
    {
      "text": "of other dysfunctions that are causing",
      "start": 959.08,
      "duration": 3.96
    },
    {
      "text": "the behavior that results in poverty and",
      "start": 960.55,
      "duration": 3.66
    },
    {
      "text": "of course the government can't do that",
      "start": 963.04,
      "duration": 3.66
    },
    {
      "text": "someone in a bureaucracy mailing out a",
      "start": 964.21,
      "duration": 3.66
    },
    {
      "text": "check I mean they don't know the",
      "start": 966.7,
      "duration": 3.42
    },
    {
      "text": "individual circumstances so private",
      "start": 967.87,
      "duration": 3.99
    },
    {
      "text": "charities are very effective at helping",
      "start": 970.12,
      "duration": 3.54
    },
    {
      "text": "people overcome poverty and get out of",
      "start": 971.86,
      "duration": 4.05
    },
    {
      "text": "poverty because charity programs are",
      "start": 973.66,
      "duration": 4.47
    },
    {
      "text": "privately funded to the degree with",
      "start": 975.91,
      "duration": 4.59
    },
    {
      "text": "which they prevent and alleviate poverty",
      "start": 978.13,
      "duration": 3.12
    },
    {
      "text": "in real time",
      "start": 980.5,
      "duration": 2.04
    },
    {
      "text": "whereas government programs are funded",
      "start": 981.25,
      "duration": 4.47
    },
    {
      "text": "by force and there's no requirement that",
      "start": 982.54,
      "duration": 5.13
    },
    {
      "text": "they reduce the number of people who are",
      "start": 985.72,
      "duration": 3.66
    },
    {
      "text": "poor and of course governments",
      "start": 987.67,
      "duration": 3.81
    },
    {
      "text": "particularly on the Left kind of like a",
      "start": 989.38,
      "duration": 3.87
    },
    {
      "text": "lot of poor people are being dependent",
      "start": 991.48,
      "duration": 3.36
    },
    {
      "text": "on the state because that means they'll",
      "start": 993.25,
      "duration": 2.97
    },
    {
      "text": "always vote for more and more government",
      "start": 994.84,
      "duration": 3.12
    },
    {
      "text": "and more and more bigger government",
      "start": 996.22,
      "duration": 3.87
    },
    {
      "text": "people who were on welfare have very",
      "start": 997.96,
      "duration": 3.66
    },
    {
      "text": "little problem voting for increased",
      "start": 1000.09,
      "duration": 4.11
    },
    {
      "text": "taxes because those taxes don't affect",
      "start": 1001.62,
      "duration": 4.47
    },
    {
      "text": "them because they don't pay taxes in",
      "start": 1004.2,
      "duration": 3.42
    },
    {
      "text": "general other than maybe some sales tax",
      "start": 1006.09,
      "duration": 5.25
    },
    {
      "text": "so income taxes yeah there's no problem",
      "start": 1007.62,
      "duration": 5.04
    },
    {
      "text": "the more people who are working and",
      "start": 1011.34,
      "duration": 3
    },
    {
      "text": "paying in income taxes the more pushback",
      "start": 1012.66,
      "duration": 3.96
    },
    {
      "text": "there is against increasing income taxes",
      "start": 1014.34,
      "duration": 4.53
    },
    {
      "text": "so the government's love having leftist",
      "start": 1016.62,
      "duration": 3.66
    },
    {
      "text": "governments in particular love having",
      "start": 1018.87,
      "duration": 2.58
    },
    {
      "text": "people dependent on the government they",
      "start": 1020.28,
      "duration": 2.85
    },
    {
      "text": "can jack up taxes and they can be",
      "start": 1021.45,
      "duration": 3.06
    },
    {
      "text": "guaranteed of votes for larger and",
      "start": 1023.13,
      "duration": 3.24
    },
    {
      "text": "larger government because that's the",
      "start": 1024.51,
      "duration": 3.63
    },
    {
      "text": "host that the people are currently",
      "start": 1026.37,
      "duration": 4.35
    },
    {
      "text": "feeding off so as far as universal basic",
      "start": 1028.14,
      "duration": 5.04
    },
    {
      "text": "income goes yes it is a terrible idea",
      "start": 1030.72,
      "duration": 3.869
    },
    {
      "text": "morally of course it requires the",
      "start": 1033.18,
      "duration": 2.97
    },
    {
      "text": "initiation of the use of force to shovel",
      "start": 1034.589,
      "duration": 3.391
    },
    {
      "text": "money around from one group to another",
      "start": 1036.15,
      "duration": 4.77
    },
    {
      "text": "or in this case it would probably be I",
      "start": 1037.98,
      "duration": 4.68
    },
    {
      "text": "guess within terms of inflation you'd be",
      "start": 1040.92,
      "duration": 3.06
    },
    {
      "text": "shoveling money from those with savings",
      "start": 1042.66,
      "duration": 3.24
    },
    {
      "text": "to those without savings or from the",
      "start": 1043.98,
      "duration": 4.02
    },
    {
      "text": "future unborn people who'll have to pay",
      "start": 1045.9,
      "duration": 3.9
    },
    {
      "text": "off the government debt to people in the",
      "start": 1048,
      "duration": 3.45
    },
    {
      "text": "present so it's immoral in its",
      "start": 1049.8,
      "duration": 4.47
    },
    {
      "text": "fundamentals and it's impractical in its",
      "start": 1051.45,
      "duration": 5.01
    },
    {
      "text": "economics so I just really wanted to get",
      "start": 1054.27,
      "duration": 3.54
    },
    {
      "text": "that idea out there because I know it's",
      "start": 1056.46,
      "duration": 3.78
    },
    {
      "text": "floating around and so I hope that",
      "start": 1057.81,
      "duration": 3.63
    },
    {
      "text": "you'll find this interesting please let",
      "start": 1060.24,
      "duration": 2.97
    },
    {
      "text": "me know what you think in the comments",
      "start": 1061.44,
      "duration": 3.6
    },
    {
      "text": "below and please don't forget to go to",
      "start": 1063.21,
      "duration": 3.28
    },
    {
      "text": "freedomainradio.com",
      "start": 1065.04,
      "duration": 3.85
    },
    {
      "text": "- donate to help us out with this show",
      "start": 1066.49,
      "duration": 4.439
    },
    {
      "text": "and all the good that we're doing in the",
      "start": 1068.89,
      "duration": 3.84
    },
    {
      "text": "world thank you so much I'll talk to you",
      "start": 1070.929,
      "duration": 3.981
    },
    {
      "text": "soon",
      "start": 1072.73,
      "duration": 2.18
    }
  ],
  "Errors": null,
  "TranscriptStderr": null
}