{
  "Title": "The Truth About The Alton Sterling and Philando Castile Shootings",
  "Id": "RJPFdS6SSgQ",
  "Transcript": [
    {
      "text": "hi everybody this is stefan molyneux",
      "start": 0,
      "duration": 5.609
    },
    {
      "text": "from freedomain radio well we are back",
      "start": 1.62,
      "duration": 6.87
    },
    {
      "text": "at the same place again we are going to",
      "start": 5.609,
      "duration": 5.221
    },
    {
      "text": "talk about two shootings of black men",
      "start": 8.49,
      "duration": 5.729
    },
    {
      "text": "that led Domino like perhaps to many",
      "start": 10.83,
      "duration": 5.25
    },
    {
      "text": "more shootings in Dallas where ten cops",
      "start": 14.219,
      "duration": 5.491
    },
    {
      "text": "were shot five of whom died of their",
      "start": 16.08,
      "duration": 7.5
    },
    {
      "text": "wounds I just want to say up front it's",
      "start": 19.71,
      "duration": 5.19
    },
    {
      "text": "been quite a few years I've been doing",
      "start": 23.58,
      "duration": 3.779
    },
    {
      "text": "these videos I'm getting pretty sick of",
      "start": 24.9,
      "duration": 5.16
    },
    {
      "text": "it but as long as the media continues to",
      "start": 27.359,
      "duration": 4.32
    },
    {
      "text": "push this race-baiting one-sided",
      "start": 30.06,
      "duration": 3.659
    },
    {
      "text": "narrative of innocent victim racist evil",
      "start": 31.679,
      "duration": 5.4
    },
    {
      "text": "cops facts must be set up like Spears",
      "start": 33.719,
      "duration": 5.791
    },
    {
      "text": "against the charging cavalry of leftist",
      "start": 37.079,
      "duration": 4.021
    },
    {
      "text": "indoctrination and we must push back",
      "start": 39.51,
      "duration": 3.69
    },
    {
      "text": "with a more rounded view of the",
      "start": 41.1,
      "duration": 3.81
    },
    {
      "text": "altercations I'm tired of doing these",
      "start": 43.2,
      "duration": 4.56
    },
    {
      "text": "videos but my conscience compels me to",
      "start": 44.91,
      "duration": 5.7
    },
    {
      "text": "do it facts matter innocent until proven",
      "start": 47.76,
      "duration": 6.09
    },
    {
      "text": "guilty matters pausing and reflecting",
      "start": 50.61,
      "duration": 4.859
    },
    {
      "text": "and taking a full evaluation of the",
      "start": 53.85,
      "duration": 5.49
    },
    {
      "text": "situation matters now I'm going to talk",
      "start": 55.469,
      "duration": 5.39
    },
    {
      "text": "about criminal histories here and",
      "start": 59.34,
      "duration": 3.33
    },
    {
      "text": "there's going to be a lot of people who",
      "start": 60.859,
      "duration": 2.86
    },
    {
      "text": "are watching this or listening to this",
      "start": 62.67,
      "duration": 2.699
    },
    {
      "text": "who are going to say ah well it doesn't",
      "start": 63.719,
      "duration": 3.541
    },
    {
      "text": "matter if so-and-so did X they didn't",
      "start": 65.369,
      "duration": 4.411
    },
    {
      "text": "deserve to die for X you know like Mike",
      "start": 67.26,
      "duration": 4.109
    },
    {
      "text": "Brown didn't deserve to die",
      "start": 69.78,
      "duration": 5.1
    },
    {
      "text": "for stealing cigars but of course the",
      "start": 71.369,
      "duration": 5.281
    },
    {
      "text": "reality is that Mike Brown did not die",
      "start": 74.88,
      "duration": 4.489
    },
    {
      "text": "because he stole cigars Mike Brown died",
      "start": 76.65,
      "duration": 5.43
    },
    {
      "text": "because he chose to attack a cop and",
      "start": 79.369,
      "duration": 5.591
    },
    {
      "text": "that is suicidal",
      "start": 82.08,
      "duration": 5.67
    },
    {
      "text": "in most situations so people don't die",
      "start": 84.96,
      "duration": 5.22
    },
    {
      "text": "for X in their criminal histories they",
      "start": 87.75,
      "duration": 4.65
    },
    {
      "text": "die for failure to comply with police",
      "start": 90.18,
      "duration": 4.11
    },
    {
      "text": "instructions that's what the police have",
      "start": 92.4,
      "duration": 3.87
    },
    {
      "text": "the right to do to order you and if you",
      "start": 94.29,
      "duration": 3.63
    },
    {
      "text": "fail to comply with their instructions",
      "start": 96.27,
      "duration": 4.8
    },
    {
      "text": "they escalate until you comply or die",
      "start": 97.92,
      "duration": 5.879
    },
    {
      "text": "that is the reality of dealing with the",
      "start": 101.07,
      "duration": 7.71
    },
    {
      "text": "police but it's rare to be fair in 2012",
      "start": 103.799,
      "duration": 6.78
    },
    {
      "text": "they were just under a 12 point two",
      "start": 108.78,
      "duration": 4.949
    },
    {
      "text": "million arrests in the United States",
      "start": 110.579,
      "duration": 4.711
    },
    {
      "text": "yeah that's quite a lot but hey that's a",
      "start": 113.729,
      "duration": 3.061
    },
    {
      "text": "big and highly successful war on drugs",
      "start": 115.29,
      "duration": 3.39
    },
    {
      "text": "going on but that's the way it shakes",
      "start": 116.79,
      "duration": 5.73
    },
    {
      "text": "out 12.2 million arrests out of these",
      "start": 118.68,
      "duration": 5.7
    },
    {
      "text": "twelve point two million arrests there",
      "start": 122.52,
      "duration": 5.459
    },
    {
      "text": "were 410 uses of deadly force that is",
      "start": 124.38,
      "duration": 7.62
    },
    {
      "text": "tiny what is that 3 1000s of 1% it is a",
      "start": 127.979,
      "duration": 5.461
    },
    {
      "text": "tiny thing now if you spend your whole",
      "start": 132,
      "duration": 1.74
    },
    {
      "text": "life",
      "start": 133.44,
      "duration": 1.74
    },
    {
      "text": "watching shark attack videos you're",
      "start": 133.74,
      "duration": 2.49
    },
    {
      "text": "going to be nervous getting into the",
      "start": 135.18,
      "duration": 2.52
    },
    {
      "text": "ocean even though you're more likely to",
      "start": 136.23,
      "duration": 3.21
    },
    {
      "text": "be stung by bee and die than be bitten",
      "start": 137.7,
      "duration": 2.42
    },
    {
      "text": "by a shark",
      "start": 139.44,
      "duration": 3.6
    },
    {
      "text": "if you are on a steady diet of police",
      "start": 140.12,
      "duration": 4.45
    },
    {
      "text": "brutality videos you're going to get a",
      "start": 143.04,
      "duration": 3.36
    },
    {
      "text": "skewed view of the actual odds or",
      "start": 144.57,
      "duration": 5.1
    },
    {
      "text": "chances of dying from a police bullet",
      "start": 146.4,
      "duration": 5.88
    },
    {
      "text": "remember what you consume will also",
      "start": 149.67,
      "duration": 5.61
    },
    {
      "text": "consume you now before we dive in just",
      "start": 152.28,
      "duration": 4.64
    },
    {
      "text": "wanted to put a shout-out to too",
      "start": 155.28,
      "duration": 4.11
    },
    {
      "text": "diligent and well researched websites",
      "start": 156.92,
      "duration": 4.3
    },
    {
      "text": "conservative treehouse command got",
      "start": 159.39,
      "duration": 3.3
    },
    {
      "text": "news.com or a got some of this",
      "start": 161.22,
      "duration": 3.09
    },
    {
      "text": "information we'll put links to all the",
      "start": 162.69,
      "duration": 3.99
    },
    {
      "text": "sources below now strap yourself in",
      "start": 164.31,
      "duration": 4.83
    },
    {
      "text": "we're going to go for a ride let's start",
      "start": 166.68,
      "duration": 4.26
    },
    {
      "text": "we'll start with the truth about Alton",
      "start": 169.14,
      "duration": 5.94
    },
    {
      "text": "sterling so Tuesday July 5th 2016 37",
      "start": 170.94,
      "duration": 6.15
    },
    {
      "text": "year old alton sterling was fatally shot",
      "start": 175.08,
      "duration": 5
    },
    {
      "text": "by police in baton rouge louisiana",
      "start": 177.09,
      "duration": 5.1
    },
    {
      "text": "multiple graphic videos of the",
      "start": 180.08,
      "duration": 3.67
    },
    {
      "text": "altercation were released online which",
      "start": 182.19,
      "duration": 4.56
    },
    {
      "text": "triggered massive media attention was",
      "start": 183.75,
      "duration": 5.49
    },
    {
      "text": "that to draw attention away from the",
      "start": 186.75,
      "duration": 3.6
    },
    {
      "text": "fact that Hillary Clinton had been",
      "start": 189.24,
      "duration": 2.67
    },
    {
      "text": "called pretty much an hour right liar",
      "start": 190.35,
      "duration": 4.02
    },
    {
      "text": "but James Comey head of the FBI I'll let",
      "start": 191.91,
      "duration": 3.21
    },
    {
      "text": "you decide",
      "start": 194.37,
      "duration": 4.05
    },
    {
      "text": "Baton Rouge police said quote uniformed",
      "start": 195.12,
      "duration": 5.28
    },
    {
      "text": "officers responded to a disturbance call",
      "start": 198.42,
      "duration": 5.04
    },
    {
      "text": "from a complainant who stated that a",
      "start": 200.4,
      "duration": 5.31
    },
    {
      "text": "black male who was selling music CDs and",
      "start": 203.46,
      "duration": 3.87
    },
    {
      "text": "wearing a red shirt threatened him with",
      "start": 205.71,
      "duration": 4.68
    },
    {
      "text": "a gun an altercation between sterling",
      "start": 207.33,
      "duration": 5.16
    },
    {
      "text": "and the officers ensued sterling was",
      "start": 210.39,
      "duration": 5.37
    },
    {
      "text": "shot during the altercation and died at",
      "start": 212.49,
      "duration": 6.54
    },
    {
      "text": "the scene one source has reported that a",
      "start": 215.76,
      "duration": 5.46
    },
    {
      "text": "homeless man was asking for money in",
      "start": 219.03,
      "duration": 3.72
    },
    {
      "text": "sterling threatened him with his weapon",
      "start": 221.22,
      "duration": 4.53
    },
    {
      "text": "leading to a 9-1-1 call and the police",
      "start": 222.75,
      "duration": 7.01
    },
    {
      "text": "response but that remains unconfirmed",
      "start": 225.75,
      "duration": 6.33
    },
    {
      "text": "Baton Rouge Police Officers Blaine",
      "start": 229.76,
      "duration": 4.21
    },
    {
      "text": "Salamone and Howie Lake approached",
      "start": 232.08,
      "duration": 3.9
    },
    {
      "text": "sterling outside a triple-s Food Mart",
      "start": 233.97,
      "duration": 4.05
    },
    {
      "text": "and one of them yelled get on the ground",
      "start": 235.98,
      "duration": 5.06
    },
    {
      "text": "get on the ground now but sterling",
      "start": 238.02,
      "duration": 6.27
    },
    {
      "text": "didn't comply audio and witness",
      "start": 241.04,
      "duration": 4.9
    },
    {
      "text": "testimony suggests that sterling was hit",
      "start": 244.29,
      "duration": 4.2
    },
    {
      "text": "with a Taser but remain standing he was",
      "start": 245.94,
      "duration": 4.019
    },
    {
      "text": "a big fella about three bills and",
      "start": 248.49,
      "duration": 4.08
    },
    {
      "text": "weighed I would guessed the officers",
      "start": 249.959,
      "duration": 4.021
    },
    {
      "text": "then wrestled sterling to the ground",
      "start": 252.57,
      "duration": 3.42
    },
    {
      "text": "attempting to pin him down despite",
      "start": 253.98,
      "duration": 4.5
    },
    {
      "text": "resistance and after several seconds one",
      "start": 255.99,
      "duration": 6.32
    },
    {
      "text": "of the officers yelled he's got a gun",
      "start": 258.48,
      "duration": 6.45
    },
    {
      "text": "the officer towards the Sterling's head",
      "start": 262.31,
      "duration": 4.51
    },
    {
      "text": "then drew his weapon and yelled if you",
      "start": 264.93,
      "duration": 2.76
    },
    {
      "text": "fucking the",
      "start": 266.82,
      "duration": 3.69
    },
    {
      "text": "I swear to God as Sterling's right hand",
      "start": 267.69,
      "duration": 4.41
    },
    {
      "text": "continued to fish around both his own",
      "start": 270.51,
      "duration": 4.5
    },
    {
      "text": "waist and the rear officers belt the",
      "start": 272.1,
      "duration": 4.32
    },
    {
      "text": "officer then screamed something",
      "start": 275.01,
      "duration": 3.36
    },
    {
      "text": "unintelligible which has been reported",
      "start": 276.42,
      "duration": 4.71
    },
    {
      "text": "as going for the gun and he's going for",
      "start": 278.37,
      "duration": 7.02
    },
    {
      "text": "the Taser in response the officer",
      "start": 281.13,
      "duration": 6.75
    },
    {
      "text": "towards Sterling's head discharged his",
      "start": 285.39,
      "duration": 5.28
    },
    {
      "text": "weapon after sterling his fatally shot",
      "start": 287.88,
      "duration": 5.16
    },
    {
      "text": "one of the officers made a shots-fired",
      "start": 290.67,
      "duration": 5.01
    },
    {
      "text": "call over his radio and the other",
      "start": 293.04,
      "duration": 4.17
    },
    {
      "text": "removed a gun from Sterling's right",
      "start": 295.68,
      "duration": 4.92
    },
    {
      "text": "pocket now just a note the videos and",
      "start": 297.21,
      "duration": 4.77
    },
    {
      "text": "the photos which I'll be referencing -",
      "start": 300.6,
      "duration": 4.44
    },
    {
      "text": "I'm not putting into this presentation",
      "start": 301.98,
      "duration": 4.5
    },
    {
      "text": "I'll put links to them below you can",
      "start": 305.04,
      "duration": 4.08
    },
    {
      "text": "consider consuming them as you see fit I",
      "start": 306.48,
      "duration": 3.99
    },
    {
      "text": "will describe them but I'm not going to",
      "start": 309.12,
      "duration": 4.32
    },
    {
      "text": "show them directly according to",
      "start": 310.47,
      "duration": 5.88
    },
    {
      "text": "Sterling's aunt Sandra sterling quote",
      "start": 313.44,
      "duration": 5.43
    },
    {
      "text": "all I want is justice for my child I",
      "start": 316.35,
      "duration": 4.59
    },
    {
      "text": "want the same treatment y'all are giving",
      "start": 318.87,
      "duration": 3.9
    },
    {
      "text": "that person in Marksville that killed",
      "start": 320.94,
      "duration": 4.02
    },
    {
      "text": "that little white baby I want the same",
      "start": 322.77,
      "duration": 5.37
    },
    {
      "text": "kind of justice altar never had a gun I",
      "start": 324.96,
      "duration": 5.25
    },
    {
      "text": "know my child my take is that when they",
      "start": 328.14,
      "duration": 3.87
    },
    {
      "text": "moved him when they pulled him up so the",
      "start": 330.21,
      "duration": 3.93
    },
    {
      "text": "public could no longer see him that gun",
      "start": 332.01,
      "duration": 7.86
    },
    {
      "text": "was put in his pocket now his mom was",
      "start": 334.14,
      "duration": 7.38
    },
    {
      "text": "dead Sterling's mom was dead and he was",
      "start": 339.87,
      "duration": 2.97
    },
    {
      "text": "raised by his aunt that's why she was",
      "start": 341.52,
      "duration": 3.69
    },
    {
      "text": "referring to him as her child",
      "start": 342.84,
      "duration": 4.68
    },
    {
      "text": "now you can watch the video and you can",
      "start": 345.21,
      "duration": 5.01
    },
    {
      "text": "see where the gun comes from does not",
      "start": 347.52,
      "duration": 5.67
    },
    {
      "text": "appear that the police planted it now",
      "start": 350.22,
      "duration": 5.07
    },
    {
      "text": "Louisiana of course is an open carry",
      "start": 353.19,
      "duration": 4.32
    },
    {
      "text": "state but sterling was on probation and",
      "start": 355.29,
      "duration": 3.75
    },
    {
      "text": "thus it was illegal for him to be",
      "start": 357.51,
      "duration": 3.84
    },
    {
      "text": "carrying a firearm that's why liberal",
      "start": 359.04,
      "duration": 4.74
    },
    {
      "text": "logic he was a personal gun-free zone",
      "start": 361.35,
      "duration": 3.93
    },
    {
      "text": "and therefore no gun could have been on",
      "start": 363.78,
      "duration": 4.86
    },
    {
      "text": "him Sandra sterling also reported that",
      "start": 365.28,
      "duration": 6.03
    },
    {
      "text": "Alton was a quote generous giant who",
      "start": 368.64,
      "duration": 5.25
    },
    {
      "text": "quote gave away more CDs than he sold",
      "start": 371.31,
      "duration": 4.38
    },
    {
      "text": "despite struggling to get his life back",
      "start": 373.89,
      "duration": 3.83
    },
    {
      "text": "on track after being released from",
      "start": 375.69,
      "duration": 7.74
    },
    {
      "text": "prison so his job was bootlegging it was",
      "start": 377.72,
      "duration": 7.75
    },
    {
      "text": "stealing other people's music copying it",
      "start": 383.43,
      "duration": 9.12
    },
    {
      "text": "and selling those CDs Sandra son Elliott",
      "start": 385.47,
      "duration": 9.15
    },
    {
      "text": "sterling said quote he was really good",
      "start": 392.55,
      "duration": 4.32
    },
    {
      "text": "at selling those CDs if somebody asked",
      "start": 394.62,
      "duration": 3.87
    },
    {
      "text": "for blues or country music he'd know at",
      "start": 396.87,
      "duration": 3.87
    },
    {
      "text": "all he couldn't make it in a regular job",
      "start": 398.49,
      "duration": 3
    },
    {
      "text": "but he could make",
      "start": 400.74,
      "duration": 2.79
    },
    {
      "text": "selling CDs he could converse with",
      "start": 401.49,
      "duration": 4.14
    },
    {
      "text": "everybody he had a hard life he didn't",
      "start": 403.53,
      "duration": 3.359
    },
    {
      "text": "have no mama no daddy",
      "start": 405.63,
      "duration": 3.27
    },
    {
      "text": "he wasn't stable at all he lived day to",
      "start": 406.889,
      "duration": 5.821
    },
    {
      "text": "day based on what he made Sterling's",
      "start": 408.9,
      "duration": 5.88
    },
    {
      "text": "widower queenetta Macmillan said quote",
      "start": 412.71,
      "duration": 5.01
    },
    {
      "text": "he her son Cameron sterling had to watch",
      "start": 414.78,
      "duration": 5.34
    },
    {
      "text": "as this was put all over the outlets",
      "start": 417.72,
      "duration": 5.19
    },
    {
      "text": "sterling actually had five children as a",
      "start": 420.12,
      "duration": 5.28
    },
    {
      "text": "mother I have now been forced to raise a",
      "start": 422.91,
      "duration": 3.87
    },
    {
      "text": "son who was going to remember what",
      "start": 425.4,
      "duration": 3.57
    },
    {
      "text": "happened to his father the individuals",
      "start": 426.78,
      "duration": 4.02
    },
    {
      "text": "involved in his murder took away a man",
      "start": 428.97,
      "duration": 4.349
    },
    {
      "text": "with children who depended upon their",
      "start": 430.8,
      "duration": 5.609
    },
    {
      "text": "daddy on a daily basis I'll get to that",
      "start": 433.319,
      "duration": 5.91
    },
    {
      "text": "in a sec Sterling's cousin Nico sterling",
      "start": 436.409,
      "duration": 5.701
    },
    {
      "text": "said quote I don't think they would have",
      "start": 439.229,
      "duration": 6.03
    },
    {
      "text": "did that to a white person sterling",
      "start": 442.11,
      "duration": 7.14
    },
    {
      "text": "sister mignon chambers quote I really",
      "start": 445.259,
      "duration": 5.371
    },
    {
      "text": "want to know more about what happened",
      "start": 449.25,
      "duration": 2.729
    },
    {
      "text": "about the whole situation because my",
      "start": 450.63,
      "duration": 2.73
    },
    {
      "text": "brother didn't deserve it he didn't",
      "start": 451.979,
      "duration": 4.171
    },
    {
      "text": "deserve it at all Sterling's cousin",
      "start": 453.36,
      "duration": 5.82
    },
    {
      "text": "Sherita sterling quote he would have",
      "start": 456.15,
      "duration": 4.799
    },
    {
      "text": "never fought the police he wouldn't have",
      "start": 459.18,
      "duration": 3.06
    },
    {
      "text": "pulled a gun he would have been too",
      "start": 460.949,
      "duration": 7.141
    },
    {
      "text": "scared owner of the triple-a stood Mart",
      "start": 462.24,
      "duration": 9
    },
    {
      "text": "Abdullah muffler he's said quote he just",
      "start": 468.09,
      "duration": 4.71
    },
    {
      "text": "wanted to know what was going on why are",
      "start": 471.24,
      "duration": 3.33
    },
    {
      "text": "they coming to arrest him he was asking",
      "start": 472.8,
      "duration": 3.78
    },
    {
      "text": "them what I do wrong what's going on",
      "start": 474.57,
      "duration": 3.81
    },
    {
      "text": "what did I do wrong why are you messing",
      "start": 476.58,
      "duration": 3.75
    },
    {
      "text": "with me I don't think there was any way",
      "start": 478.38,
      "duration": 3.539
    },
    {
      "text": "that he would have reached for his gun",
      "start": 480.33,
      "duration": 3.059
    },
    {
      "text": "if he would have reached for it his hand",
      "start": 481.919,
      "duration": 3.901
    },
    {
      "text": "would have been still in his pocket or",
      "start": 483.389,
      "duration": 4.56
    },
    {
      "text": "the gun would have been in his hand",
      "start": 485.82,
      "duration": 3.659
    },
    {
      "text": "after they had killed him his hand was",
      "start": 487.949,
      "duration": 3.69
    },
    {
      "text": "nowhere near his pocket they were really",
      "start": 489.479,
      "duration": 5.84
    },
    {
      "text": "aggressive with him from the start",
      "start": 491.639,
      "duration": 3.68
    },
    {
      "text": "sterling family attorney Edmund Jordan",
      "start": 495.409,
      "duration": 4.81
    },
    {
      "text": "said if you look at the video it",
      "start": 498.15,
      "duration": 3.96
    },
    {
      "text": "certainly speaks for itself mr. sterling",
      "start": 500.219,
      "duration": 3.69
    },
    {
      "text": "was not reaching for a weapon he looks",
      "start": 502.11,
      "duration": 3.779
    },
    {
      "text": "like a man who is trying to get his head",
      "start": 503.909,
      "duration": 3.841
    },
    {
      "text": "up who is actually fighting for his life",
      "start": 505.889,
      "duration": 4.141
    },
    {
      "text": "a life that ended immediately thereafter",
      "start": 507.75,
      "duration": 4.62
    },
    {
      "text": "almost as if he knew what was about to",
      "start": 510.03,
      "duration": 3.41
    },
    {
      "text": "happen",
      "start": 512.37,
      "duration": 3.779
    },
    {
      "text": "Baton Rouge n-double-a-cp president",
      "start": 513.44,
      "duration": 5.17
    },
    {
      "text": "Michael McClanahan said what I'm calling",
      "start": 516.149,
      "duration": 3.841
    },
    {
      "text": "for today is that the chief law",
      "start": 518.61,
      "duration": 4.049
    },
    {
      "text": "enforcement officer to fire the police",
      "start": 519.99,
      "duration": 4.83
    },
    {
      "text": "chief he must step down we cannot have",
      "start": 522.659,
      "duration": 3.841
    },
    {
      "text": "anybody who allows this type of action",
      "start": 524.82,
      "duration": 3.93
    },
    {
      "text": "to take place this must be answered for",
      "start": 526.5,
      "duration": 4.14
    },
    {
      "text": "it should not take national attention",
      "start": 528.75,
      "duration": 3.839
    },
    {
      "text": "for us to get an answer about a man",
      "start": 530.64,
      "duration": 4.65
    },
    {
      "text": "being murdered by police officers",
      "start": 532.589,
      "duration": 4.981
    },
    {
      "text": "murder see that's called jumping to",
      "start": 535.29,
      "duration": 5.46
    },
    {
      "text": "conclusions before the facts are in the",
      "start": 537.57,
      "duration": 6.03
    },
    {
      "text": "reality is that sterling would most",
      "start": 540.75,
      "duration": 4.079
    },
    {
      "text": "likely have gone back to prison because",
      "start": 543.6,
      "duration": 2.7
    },
    {
      "text": "he had a gun on him",
      "start": 544.829,
      "duration": 3.331
    },
    {
      "text": "while he was on probation in direct",
      "start": 546.3,
      "duration": 5.459
    },
    {
      "text": "violation of being on probation calling",
      "start": 548.16,
      "duration": 8.46
    },
    {
      "text": "it a murder is jumping the facts see the",
      "start": 551.759,
      "duration": 5.671
    },
    {
      "text": "n-double-a-cp",
      "start": 556.62,
      "duration": 3.839
    },
    {
      "text": "in the past rightfully argued that",
      "start": 557.43,
      "duration": 5.339
    },
    {
      "text": "jumping to conclusions about legal",
      "start": 560.459,
      "duration": 3.481
    },
    {
      "text": "matters without going through due",
      "start": 562.769,
      "duration": 4.951
    },
    {
      "text": "process can like a lynching huh I wonder",
      "start": 563.94,
      "duration": 5.49
    },
    {
      "text": "but of course when these kinds of",
      "start": 567.72,
      "duration": 3.929
    },
    {
      "text": "incidents occur a lot of times a pretty",
      "start": 569.43,
      "duration": 3.779
    },
    {
      "text": "well-oiled machine springs into action",
      "start": 571.649,
      "duration": 4.021
    },
    {
      "text": "portrays the victim is wonderful and",
      "start": 573.209,
      "duration": 4.021
    },
    {
      "text": "portrays the cop is terrible and it's",
      "start": 575.67,
      "duration": 4.07
    },
    {
      "text": "just a narrative that's being solved",
      "start": 577.23,
      "duration": 5.88
    },
    {
      "text": "Baton Rouge Police Chief Carl de beatty",
      "start": 579.74,
      "duration": 6.07
    },
    {
      "text": "said quote we want to know what happened",
      "start": 583.11,
      "duration": 4.589
    },
    {
      "text": "we want to know the truth at this point",
      "start": 585.81,
      "duration": 4.17
    },
    {
      "text": "like you I am demanding answers like you",
      "start": 587.699,
      "duration": 4.2
    },
    {
      "text": "all my prayers are with this community",
      "start": 589.98,
      "duration": 4.469
    },
    {
      "text": "and the family and loved ones of mr.",
      "start": 591.899,
      "duration": 7.951
    },
    {
      "text": "sterling so district attorney pillar",
      "start": 594.449,
      "duration": 8.101
    },
    {
      "text": "Moore said this is potentially a",
      "start": 599.85,
      "duration": 4.919
    },
    {
      "text": "state-authorized killing it gives law",
      "start": 602.55,
      "duration": 3.839
    },
    {
      "text": "enforcement officers the authority and",
      "start": 604.769,
      "duration": 3.93
    },
    {
      "text": "mandates them to kill when in defense of",
      "start": 606.389,
      "duration": 5.76
    },
    {
      "text": "themselves or others yes that as far as",
      "start": 608.699,
      "duration": 5.911
    },
    {
      "text": "I understand it those are the rules and",
      "start": 612.149,
      "duration": 5.55
    },
    {
      "text": "if you've had lots of interactions with",
      "start": 614.61,
      "duration": 5.31
    },
    {
      "text": "the police as we will look at with",
      "start": 617.699,
      "duration": 4.08
    },
    {
      "text": "regards to Alton sterling you can to",
      "start": 619.92,
      "duration": 5.099
    },
    {
      "text": "know this right now officer Howie Lake",
      "start": 621.779,
      "duration": 5.04
    },
    {
      "text": "had been previously suspended during the",
      "start": 625.019,
      "duration": 3.18
    },
    {
      "text": "investigation into another police",
      "start": 626.819,
      "duration": 3.181
    },
    {
      "text": "involved shooting of a black man of",
      "start": 628.199,
      "duration": 3.12
    },
    {
      "text": "course people are saying this is somehow",
      "start": 630,
      "duration": 3.72
    },
    {
      "text": "proof of guilt but this is standard law",
      "start": 631.319,
      "duration": 4.171
    },
    {
      "text": "enforcement policy when police shootings",
      "start": 633.72,
      "duration": 3.989
    },
    {
      "text": "are being investigated previously",
      "start": 635.49,
      "duration": 3.87
    },
    {
      "text": "suspended while things were investigated",
      "start": 637.709,
      "duration": 3.63
    },
    {
      "text": "that happens to you no matter what your",
      "start": 639.36,
      "duration": 7.529
    },
    {
      "text": "races now this was not precisely the",
      "start": 641.339,
      "duration": 7.201
    },
    {
      "text": "first time that alton sterling wrestled",
      "start": 646.889,
      "duration": 4.14
    },
    {
      "text": "with police while in the possession of a",
      "start": 648.54,
      "duration": 5.43
    },
    {
      "text": "firearm according to the website heavy",
      "start": 651.029,
      "duration": 6.81
    },
    {
      "text": "quote in 2009 the affidavit of probable",
      "start": 653.97,
      "duration": 6.179
    },
    {
      "text": "cause contends that a police officer",
      "start": 657.839,
      "duration": 4.68
    },
    {
      "text": "tried to pat down sterling when sterling",
      "start": 660.149,
      "duration": 4.821
    },
    {
      "text": "resisted arrest and the officer ended up",
      "start": 662.519,
      "duration": 4.411
    },
    {
      "text": "wrestling with the defendant on the",
      "start": 664.97,
      "duration": 2.82
    },
    {
      "text": "ground",
      "start": 666.93,
      "duration": 4.19
    },
    {
      "text": "at which time a black semi-auto gun fell",
      "start": 667.79,
      "duration": 4.59
    },
    {
      "text": "from his waistband",
      "start": 671.12,
      "duration": 3.69
    },
    {
      "text": "the officer grabs the back of Sterling's",
      "start": 672.38,
      "duration": 4.26
    },
    {
      "text": "shirts during the incident and he was",
      "start": 674.81,
      "duration": 4.38
    },
    {
      "text": "able to arrest him without further",
      "start": 676.64,
      "duration": 9.27
    },
    {
      "text": "incident so 2009 the gun fell from his",
      "start": 679.19,
      "duration": 8.58
    },
    {
      "text": "waistband and he was just arrested",
      "start": 685.91,
      "duration": 3.87
    },
    {
      "text": "without being shot I'm guessing because",
      "start": 687.77,
      "duration": 4.92
    },
    {
      "text": "he wasn't grabbing in the vicinity of a",
      "start": 689.78,
      "duration": 4.67
    },
    {
      "text": "gun",
      "start": 692.69,
      "duration": 4.11
    },
    {
      "text": "according to Louisiana court records",
      "start": 694.45,
      "duration": 4.21
    },
    {
      "text": "Alton sterling had a criminal record",
      "start": 696.8,
      "duration": 5.07
    },
    {
      "text": "going back to 1996 that included",
      "start": 698.66,
      "duration": 5.64
    },
    {
      "text": "aggravated battery domestic abuse",
      "start": 701.87,
      "duration": 4.29
    },
    {
      "text": "possessing marijuana with the intent to",
      "start": 704.3,
      "duration": 3.81
    },
    {
      "text": "distribute illegally carrying a weapon",
      "start": 706.16,
      "duration": 4.22
    },
    {
      "text": "and a controlled dangerous substance",
      "start": 708.11,
      "duration": 4.68
    },
    {
      "text": "failing to register as a sex offender",
      "start": 710.38,
      "duration": 4.54
    },
    {
      "text": "failure to notify authorities of his",
      "start": 712.79,
      "duration": 5.52
    },
    {
      "text": "change of address and much much more the",
      "start": 714.92,
      "duration": 8.43
    },
    {
      "text": "links are below on August 25th 1996 the",
      "start": 718.31,
      "duration": 6.84
    },
    {
      "text": "16 year old sterling was arrested for",
      "start": 723.35,
      "duration": 4.38
    },
    {
      "text": "trespassing damage to property criminal",
      "start": 725.15,
      "duration": 4.29
    },
    {
      "text": "mischief and illegally possessing a",
      "start": 727.73,
      "duration": 4.35
    },
    {
      "text": "weapon to count him two days later he",
      "start": 729.44,
      "duration": 4.29
    },
    {
      "text": "was arrested again on an aggravated",
      "start": 732.08,
      "duration": 4.65
    },
    {
      "text": "burglary charge on November 24th 1996",
      "start": 733.73,
      "duration": 4.4
    },
    {
      "text": "sterling was charged with simple battery",
      "start": 736.73,
      "duration": 5.97
    },
    {
      "text": "but the case was dismissed on October 28",
      "start": 738.13,
      "duration": 6.52
    },
    {
      "text": "1997 sterling was charged with simple",
      "start": 742.7,
      "duration": 3.66
    },
    {
      "text": "battery again but the charge was",
      "start": 744.65,
      "duration": 3.96
    },
    {
      "text": "dismissed perhaps due to his youth don't",
      "start": 746.36,
      "duration": 6.21
    },
    {
      "text": "know on April 24th 2000 20 year-old",
      "start": 748.61,
      "duration": 5.88
    },
    {
      "text": "sterling was arrested on two counts of",
      "start": 752.57,
      "duration": 3.99
    },
    {
      "text": "public intimidation and later convicted",
      "start": 754.49,
      "duration": 5.61
    },
    {
      "text": "of carnal knowledge of a juvenile after",
      "start": 756.56,
      "duration": 5.94
    },
    {
      "text": "he impregnated a 14 year old girl and",
      "start": 760.1,
      "duration": 5.91
    },
    {
      "text": "her mother filed charges sterling was",
      "start": 762.5,
      "duration": 5.25
    },
    {
      "text": "originally sentenced to five years in",
      "start": 766.01,
      "duration": 4.85
    },
    {
      "text": "prison but was released on October 3rd",
      "start": 767.75,
      "duration": 8.97
    },
    {
      "text": "2004 so there's that know this guy who's",
      "start": 770.86,
      "duration": 10.51
    },
    {
      "text": "great dad in 2005 sterling was charged",
      "start": 776.72,
      "duration": 6.9
    },
    {
      "text": "with simple burglary of an inhabited",
      "start": 781.37,
      "duration": 5.28
    },
    {
      "text": "dwelling felony theft and simple",
      "start": 783.62,
      "duration": 5.73
    },
    {
      "text": "burglary he pled guilty to illegal",
      "start": 786.65,
      "duration": 4.47
    },
    {
      "text": "possession of stolen things and received",
      "start": 789.35,
      "duration": 4.32
    },
    {
      "text": "six months in prison but the sentence",
      "start": 791.12,
      "duration": 4.59
    },
    {
      "text": "was suspended and he was placed on",
      "start": 793.67,
      "duration": 6.48
    },
    {
      "text": "probation in 2006 Serling was charged",
      "start": 795.71,
      "duration": 5.89
    },
    {
      "text": "with aggravated battery",
      "start": 800.15,
      "duration": 3.57
    },
    {
      "text": "simple criminal damage to property",
      "start": 801.6,
      "duration": 3.6
    },
    {
      "text": "misrepresentation during booking",
      "start": 803.72,
      "duration": 3.67
    },
    {
      "text": "possession of marijuana and unauthorized",
      "start": 805.2,
      "duration": 4.71
    },
    {
      "text": "entry to an uninhabited dwelling he took",
      "start": 807.39,
      "duration": 4.44
    },
    {
      "text": "a plea deal and was sentenced to six",
      "start": 809.91,
      "duration": 4.95
    },
    {
      "text": "months in prison so yeah you know when",
      "start": 811.83,
      "duration": 4.62
    },
    {
      "text": "the family starts coming out and saying",
      "start": 814.86,
      "duration": 3.42
    },
    {
      "text": "oh he was a great guy we loved him so",
      "start": 816.45,
      "duration": 3.78
    },
    {
      "text": "much he was so wonderful he would never",
      "start": 818.28,
      "duration": 5.52
    },
    {
      "text": "do anything like this where were you all",
      "start": 820.23,
      "duration": 4.91
    },
    {
      "text": "when he was going through all of this",
      "start": 823.8,
      "duration": 3.39
    },
    {
      "text": "maybe when he was growing up and the",
      "start": 825.14,
      "duration": 3.84
    },
    {
      "text": "damage was done early who knows",
      "start": 827.19,
      "duration": 6.21
    },
    {
      "text": "in 2008 Sterling was convicted of",
      "start": 828.98,
      "duration": 6.64
    },
    {
      "text": "domestic battery against a member of his",
      "start": 833.4,
      "duration": 4.41
    },
    {
      "text": "own household and sentenced to 90 days",
      "start": 835.62,
      "duration": 4.2
    },
    {
      "text": "in jail the probable cause statement",
      "start": 837.81,
      "duration": 3.93
    },
    {
      "text": "says that sterling and his girlfriend",
      "start": 839.82,
      "duration": 4.38
    },
    {
      "text": "were involved in a quote heated verbal",
      "start": 841.74,
      "duration": 4.95
    },
    {
      "text": "argument that turned physical with him",
      "start": 844.2,
      "duration": 8.19
    },
    {
      "text": "choking and striking her on May 29th",
      "start": 846.69,
      "duration": 7.98
    },
    {
      "text": "2009 sterling was charged with weapon",
      "start": 852.39,
      "duration": 4.35
    },
    {
      "text": "possession marijuana possession",
      "start": 854.67,
      "duration": 4.83
    },
    {
      "text": "resisting an officer by force possession",
      "start": 856.74,
      "duration": 4.89
    },
    {
      "text": "of stolen things possession of firearm",
      "start": 859.5,
      "duration": 5.88
    },
    {
      "text": "with drugs and simple assault felon in",
      "start": 861.63,
      "duration": 5.79
    },
    {
      "text": "possession of a firearm and later a",
      "start": 865.38,
      "duration": 4.35
    },
    {
      "text": "contempt of court ultimately sterling",
      "start": 867.42,
      "duration": 3.9
    },
    {
      "text": "was sentenced to another five years in",
      "start": 869.73,
      "duration": 3.42
    },
    {
      "text": "prison for a situation which was very",
      "start": 871.32,
      "duration": 4.71
    },
    {
      "text": "similar to the police encounter which",
      "start": 873.15,
      "duration": 5.46
    },
    {
      "text": "led to his death he was not Unversed in",
      "start": 876.03,
      "duration": 7.53
    },
    {
      "text": "the ways of being arrested and this did",
      "start": 878.61,
      "duration": 8.15
    },
    {
      "text": "not come dare I say it out of the blue",
      "start": 883.56,
      "duration": 6.81
    },
    {
      "text": "in 2015 sterling was charged with",
      "start": 886.76,
      "duration": 6.01
    },
    {
      "text": "failure to comply with sex offender",
      "start": 890.37,
      "duration": 5.1
    },
    {
      "text": "registration see you know if you have",
      "start": 892.77,
      "duration": 4.5
    },
    {
      "text": "carnal knowledge of a fourteen-year-old",
      "start": 895.47,
      "duration": 4.05
    },
    {
      "text": "when you're 20 you're a sex offender sex",
      "start": 897.27,
      "duration": 5.22
    },
    {
      "text": "offender and he did not comply on April",
      "start": 899.52,
      "duration": 4.95
    },
    {
      "text": "5th 2016 sterling was charged with",
      "start": 902.49,
      "duration": 3.56
    },
    {
      "text": "possession of a Schedule one drug",
      "start": 904.47,
      "duration": 3.59
    },
    {
      "text": "ecstasy and possession of marijuana",
      "start": 906.05,
      "duration": 5.68
    },
    {
      "text": "first offense and I do sometimes have to",
      "start": 908.06,
      "duration": 5.35
    },
    {
      "text": "wonder when people make really really",
      "start": 911.73,
      "duration": 3.72
    },
    {
      "text": "bad decisions like fighting back against",
      "start": 913.41,
      "duration": 4.56
    },
    {
      "text": "cops and reaching for their gun whether",
      "start": 915.45,
      "duration": 4.68
    },
    {
      "text": "they might not be entirely in their",
      "start": 917.97,
      "duration": 4.5
    },
    {
      "text": "least high mind when they make these",
      "start": 920.13,
      "duration": 3.93
    },
    {
      "text": "kinds of decisions perhaps time will",
      "start": 922.47,
      "duration": 4.71
    },
    {
      "text": "tell according to Charles Johnson from",
      "start": 924.06,
      "duration": 5.31
    },
    {
      "text": "God News quote at the time of his death",
      "start": 927.18,
      "duration": 4.17
    },
    {
      "text": "sterling was a deadbeat dad who owed",
      "start": 929.37,
      "duration": 4.44
    },
    {
      "text": "over $25,000 in child support according",
      "start": 931.35,
      "duration": 4.31
    },
    {
      "text": "to court records from the state",
      "start": 933.81,
      "duration": 4.68
    },
    {
      "text": "Louisiana so you might not want to be",
      "start": 935.66,
      "duration": 5.26
    },
    {
      "text": "giving away a lot of CDs if you owe 25",
      "start": 938.49,
      "duration": 5.37
    },
    {
      "text": "large in child support and see this is",
      "start": 940.92,
      "duration": 4.979
    },
    {
      "text": "the mother saying oh they took a father",
      "start": 943.86,
      "duration": 4.709
    },
    {
      "text": "away from his children and so on what",
      "start": 945.899,
      "duration": 4.29
    },
    {
      "text": "kind of father not paying for his kids",
      "start": 948.569,
      "duration": 3.361
    },
    {
      "text": "he's got five kids with no particularly",
      "start": 950.189,
      "duration": 3.44
    },
    {
      "text": "strong means of support",
      "start": 951.93,
      "duration": 5.099
    },
    {
      "text": "excellent job welfare estate and he is",
      "start": 953.629,
      "duration": 5.62
    },
    {
      "text": "in and out of prison quite a bit and",
      "start": 957.029,
      "duration": 5.97
    },
    {
      "text": "he's the fine father who what chokes out",
      "start": 959.249,
      "duration": 7.111
    },
    {
      "text": "his girlfriend and gets arrested so and",
      "start": 962.999,
      "duration": 6.111
    },
    {
      "text": "this is just what he was caught for and",
      "start": 966.36,
      "duration": 7.019
    },
    {
      "text": "the job that he had is illegal I believe",
      "start": 969.11,
      "duration": 7.81
    },
    {
      "text": "so let's go from the really grim to the",
      "start": 973.379,
      "duration": 5.37
    },
    {
      "text": "considerably less grim and talk about",
      "start": 976.92,
      "duration": 5.849
    },
    {
      "text": "for Lando Castillo on Saturday July 2nd",
      "start": 978.749,
      "duration": 6.871
    },
    {
      "text": "2016 at 7:30 6:00 p.m. two black males",
      "start": 982.769,
      "duration": 5.101
    },
    {
      "text": "with handguns entered a super USA",
      "start": 985.62,
      "duration": 3.75
    },
    {
      "text": "convenience store in Lauderdale",
      "start": 987.87,
      "duration": 4.05
    },
    {
      "text": "Minnesota and stole cash from the",
      "start": 989.37,
      "duration": 4.439
    },
    {
      "text": "register in addition to several cartons",
      "start": 991.92,
      "duration": 6.839
    },
    {
      "text": "of Newports cigarettes on Tuesday July",
      "start": 993.809,
      "duration": 6.421
    },
    {
      "text": "5th the Minnesota Bureau of Criminal",
      "start": 998.759,
      "duration": 3.57
    },
    {
      "text": "Apprehension posted photos from the",
      "start": 1000.23,
      "duration": 3.839
    },
    {
      "text": "robbery and asked for help in",
      "start": 1002.329,
      "duration": 3.721
    },
    {
      "text": "identifying and locating the two",
      "start": 1004.069,
      "duration": 5.49
    },
    {
      "text": "suspects a bolo be on lookout alert was",
      "start": 1006.05,
      "duration": 5.339
    },
    {
      "text": "also issued for individuals fitting the",
      "start": 1009.559,
      "duration": 3.96
    },
    {
      "text": "description of the suspects and again",
      "start": 1011.389,
      "duration": 3.93
    },
    {
      "text": "the links are below you can look at the",
      "start": 1013.519,
      "duration": 2.721
    },
    {
      "text": "pictures",
      "start": 1015.319,
      "duration": 4.111
    },
    {
      "text": "nobody can confirm if it's the same guy",
      "start": 1016.24,
      "duration": 6.579
    },
    {
      "text": "as he was shot falando and the thief but",
      "start": 1019.43,
      "duration": 6.359
    },
    {
      "text": "they're not exactly polar opposites when",
      "start": 1022.819,
      "duration": 5.311
    },
    {
      "text": "it comes to looks so again you can look",
      "start": 1025.789,
      "duration": 6.3
    },
    {
      "text": "at that and decide for yourself on July",
      "start": 1028.13,
      "duration": 6.24
    },
    {
      "text": "6 2016 4 Lando Castillo and his",
      "start": 1032.089,
      "duration": 4.74
    },
    {
      "text": "girlfriend diamond Reynolds were pulled",
      "start": 1034.37,
      "duration": 3.75
    },
    {
      "text": "over by police officers",
      "start": 1036.829,
      "duration": 4.171
    },
    {
      "text": "Geronimo llanes and Joseph cows were in",
      "start": 1038.12,
      "duration": 5.16
    },
    {
      "text": "Saint Anthony Minnesota the vehicle also",
      "start": 1041,
      "duration": 4.819
    },
    {
      "text": "contained Reynolds's 4 year old daughter",
      "start": 1043.28,
      "duration": 6.84
    },
    {
      "text": "from another relationship officer",
      "start": 1045.819,
      "duration": 6.791
    },
    {
      "text": "Geronimo Yanis on police radio said I'm",
      "start": 1050.12,
      "duration": 4.74
    },
    {
      "text": "going to stop a car I'm going to check",
      "start": 1052.61,
      "duration": 4.5
    },
    {
      "text": "IDs I have reason to pull it over the",
      "start": 1054.86,
      "duration": 4.23
    },
    {
      "text": "two occupants just look like people that",
      "start": 1057.11,
      "duration": 3.9
    },
    {
      "text": "were involved in a robbery the driver",
      "start": 1059.09,
      "duration": 4.41
    },
    {
      "text": "looks more like one of our suspects just",
      "start": 1061.01,
      "duration": 5.78
    },
    {
      "text": "because of the wide set nose",
      "start": 1063.5,
      "duration": 6.24
    },
    {
      "text": "Castile was in the possession of a",
      "start": 1066.79,
      "duration": 4.6
    },
    {
      "text": "handgun at the time of the stop and in",
      "start": 1069.74,
      "duration": 3.54
    },
    {
      "text": "the following minutes police officer",
      "start": 1071.39,
      "duration": 5.1
    },
    {
      "text": "Geronimo yanez shot falando Castile four",
      "start": 1073.28,
      "duration": 7.35
    },
    {
      "text": "times killing him so it's important",
      "start": 1076.49,
      "duration": 6.27
    },
    {
      "text": "understand there is a robbery",
      "start": 1080.63,
      "duration": 6.75
    },
    {
      "text": "the suspects are caught on video and the",
      "start": 1082.76,
      "duration": 7.77
    },
    {
      "text": "reason why the cops pulled over the car",
      "start": 1087.38,
      "duration": 5.73
    },
    {
      "text": "with falando Castile in it was because",
      "start": 1090.53,
      "duration": 4.38
    },
    {
      "text": "he looked like one of the suspects in",
      "start": 1093.11,
      "duration": 5.37
    },
    {
      "text": "the robbery so that's very very",
      "start": 1094.91,
      "duration": 8.67
    },
    {
      "text": "important and why in Dallas the shooter",
      "start": 1098.48,
      "duration": 8.43
    },
    {
      "text": "was angry at white people well the",
      "start": 1103.58,
      "duration": 5.64
    },
    {
      "text": "police officer German Geronimo llanes",
      "start": 1106.91,
      "duration": 5.07
    },
    {
      "text": "not Scottish not Scottish his lawyer and",
      "start": 1109.22,
      "duration": 4.41
    },
    {
      "text": "his longtime friend have both described",
      "start": 1111.98,
      "duration": 7.01
    },
    {
      "text": "him as Latino well a Latino shot this",
      "start": 1113.63,
      "duration": 8.49
    },
    {
      "text": "black man but I'm sure he's a white",
      "start": 1118.99,
      "duration": 5.38
    },
    {
      "text": "Latino just like George Zimmerman so",
      "start": 1122.12,
      "duration": 4.74
    },
    {
      "text": "that you can get a wide net of anti",
      "start": 1124.37,
      "duration": 6.45
    },
    {
      "text": "white hatred going after the shooting",
      "start": 1126.86,
      "duration": 5.43
    },
    {
      "text": "diamond Reynolds began live-streaming",
      "start": 1130.82,
      "duration": 3.63
    },
    {
      "text": "video to Facebook now this was a little",
      "start": 1132.29,
      "duration": 3.09
    },
    {
      "text": "confusing for people",
      "start": 1134.45,
      "duration": 3.18
    },
    {
      "text": "it showed a mirrored image leading to",
      "start": 1135.38,
      "duration": 3.99
    },
    {
      "text": "many people incorrectly believing that",
      "start": 1137.63,
      "duration": 3.39
    },
    {
      "text": "Reynolds was driving in Castillo was in",
      "start": 1139.37,
      "duration": 4.1
    },
    {
      "text": "the passenger seat now Castillo was",
      "start": 1141.02,
      "duration": 7.039
    },
    {
      "text": "driving Castile was hunched over",
      "start": 1143.47,
      "duration": 6.55
    },
    {
      "text": "unconscious and bleeding while Reynolds",
      "start": 1148.059,
      "duration": 3.851
    },
    {
      "text": "calmly noted that they were pulled over",
      "start": 1150.02,
      "duration": 3.33
    },
    {
      "text": "for a broken taillight and that her",
      "start": 1151.91,
      "duration": 2.79
    },
    {
      "text": "boyfriend told the officer he was",
      "start": 1153.35,
      "duration": 2.97
    },
    {
      "text": "carrying a firearm for which he had a",
      "start": 1154.7,
      "duration": 5.58
    },
    {
      "text": "concealed carry permit now what's",
      "start": 1156.32,
      "duration": 5.58
    },
    {
      "text": "interesting is that pictures seem to",
      "start": 1160.28,
      "duration": 3.3
    },
    {
      "text": "show that there's no broken taillight",
      "start": 1161.9,
      "duration": 4.71
    },
    {
      "text": "now that doesn't mean that this woman is",
      "start": 1163.58,
      "duration": 7.17
    },
    {
      "text": "lying it could be of course that the",
      "start": 1166.61,
      "duration": 6.12
    },
    {
      "text": "officer came and said you have a broken",
      "start": 1170.75,
      "duration": 3.39
    },
    {
      "text": "taillight in order to evaluate the",
      "start": 1172.73,
      "duration": 4.5
    },
    {
      "text": "situation without raising the alarm or",
      "start": 1174.14,
      "duration": 5.1
    },
    {
      "text": "the suspicions of the people in the car",
      "start": 1177.23,
      "duration": 4.86
    },
    {
      "text": "the potential suspect now the attorney",
      "start": 1179.24,
      "duration": 7.95
    },
    {
      "text": "for the officer Geronimo llanes has said",
      "start": 1182.09,
      "duration": 7.29
    },
    {
      "text": "that Yanis was reacting to the presence",
      "start": 1187.19,
      "duration": 5.16
    },
    {
      "text": "of that gun and the display of that gun",
      "start": 1189.38,
      "duration": 7.67
    },
    {
      "text": "not race when he shot falando Castillo",
      "start": 1192.35,
      "duration": 7.77
    },
    {
      "text": "the Ramsey County Sheriff",
      "start": 1197.05,
      "duration": 6.8
    },
    {
      "text": "later commented on Twitter noting that",
      "start": 1200.12,
      "duration": 6.009
    },
    {
      "text": "quote mr. Castillo never applied for a",
      "start": 1203.85,
      "duration": 4.11
    },
    {
      "text": "permit to carry with our office",
      "start": 1206.129,
      "duration": 4.14
    },
    {
      "text": "therefore we did not issue his permit",
      "start": 1207.96,
      "duration": 4.559
    },
    {
      "text": "this does not mean the castile did not",
      "start": 1210.269,
      "duration": 3.721
    },
    {
      "text": "have a permit but it was not through the",
      "start": 1212.519,
      "duration": 3.78
    },
    {
      "text": "local Ramsey County Sheriff",
      "start": 1213.99,
      "duration": 4.83
    },
    {
      "text": "right so if there's a gun in the car of",
      "start": 1216.299,
      "duration": 4.681
    },
    {
      "text": "course one way you could buy time is",
      "start": 1218.82,
      "duration": 4.38
    },
    {
      "text": "saying no no I've got a permit for this",
      "start": 1220.98,
      "duration": 3.84
    },
    {
      "text": "gun and again we don't know for sure",
      "start": 1223.2,
      "duration": 3.569
    },
    {
      "text": "that he didn't but certainly didn't come",
      "start": 1224.82,
      "duration": 4.729
    },
    {
      "text": "through the local County Sheriff time",
      "start": 1226.769,
      "duration": 5.431
    },
    {
      "text": "will tell whether or not there was a",
      "start": 1229.549,
      "duration": 6.01
    },
    {
      "text": "permit or not the Star Tribune is",
      "start": 1232.2,
      "duration": 4.829
    },
    {
      "text": "reporting that a source has confirmed to",
      "start": 1235.559,
      "duration": 3.271
    },
    {
      "text": "them that Castillo did have a valid",
      "start": 1237.029,
      "duration": 3.15
    },
    {
      "text": "permit but that has not been",
      "start": 1238.83,
      "duration": 3.329
    },
    {
      "text": "independently verified by other media",
      "start": 1240.179,
      "duration": 3.75
    },
    {
      "text": "outlets it remains an open question",
      "start": 1242.159,
      "duration": 5.301
    },
    {
      "text": "however however if the cop is coming up",
      "start": 1243.929,
      "duration": 7.561
    },
    {
      "text": "concerned that there is somebody who",
      "start": 1247.46,
      "duration": 6.219
    },
    {
      "text": "committed an armed robbery a few days",
      "start": 1251.49,
      "duration": 3.99
    },
    {
      "text": "ago in the car he's going to be nervous",
      "start": 1253.679,
      "duration": 3.421
    },
    {
      "text": "about a gun and more so than if there's",
      "start": 1255.48,
      "duration": 3.6
    },
    {
      "text": "just a broken taillight and the pictures",
      "start": 1257.1,
      "duration": 4.279
    },
    {
      "text": "do seem to show that there was a gun",
      "start": 1259.08,
      "duration": 7.65
    },
    {
      "text": "under the hip in the seat of Castillo",
      "start": 1261.379,
      "duration": 8.29
    },
    {
      "text": "Philander Castillo in the video you can",
      "start": 1266.73,
      "duration": 4.679
    },
    {
      "text": "also hear a clearly panicked officer",
      "start": 1269.669,
      "duration": 3.781
    },
    {
      "text": "Janos yelling I told him not to reach",
      "start": 1271.409,
      "duration": 3.781
    },
    {
      "text": "for it I told him to get his hands off",
      "start": 1273.45,
      "duration": 3.839
    },
    {
      "text": "it and instructing Reynolds to keep her",
      "start": 1275.19,
      "duration": 3.839
    },
    {
      "text": "hands visible due to a weapon being",
      "start": 1277.289,
      "duration": 5.821
    },
    {
      "text": "within the vehicle and look going for or",
      "start": 1279.029,
      "duration": 6.541
    },
    {
      "text": "brandishing a gun when an officer has a",
      "start": 1283.11,
      "duration": 6.539
    },
    {
      "text": "gun trained on you it's death by cop",
      "start": 1285.57,
      "duration": 6.689
    },
    {
      "text": "that's suicidal anyone does that they're",
      "start": 1289.649,
      "duration": 4.74
    },
    {
      "text": "almost certain to get shot that's my",
      "start": 1292.259,
      "duration": 4.38
    },
    {
      "text": "understanding of the training that the",
      "start": 1294.389,
      "duration": 4.29
    },
    {
      "text": "officers have I mean the moment he gets",
      "start": 1296.639,
      "duration": 3.721
    },
    {
      "text": "that gun we might you can shoot the",
      "start": 1298.679,
      "duration": 3.12
    },
    {
      "text": "officer through the door and the leg",
      "start": 1300.36,
      "duration": 5.149
    },
    {
      "text": "I don't know neither does the officer",
      "start": 1301.799,
      "duration": 3.71
    },
    {
      "text": "Reynolds the woman continued her",
      "start": 1306.44,
      "duration": 4.329
    },
    {
      "text": "commentary in an eerily calm fashion",
      "start": 1308.94,
      "duration": 4.02
    },
    {
      "text": "saying please don't tell me that he's",
      "start": 1310.769,
      "duration": 3.811
    },
    {
      "text": "gone please officer don't tell me that",
      "start": 1312.96,
      "duration": 3.299
    },
    {
      "text": "you just did this to him you shot four",
      "start": 1314.58,
      "duration": 3.12
    },
    {
      "text": "bullets into him sir he was just getting",
      "start": 1316.259,
      "duration": 5.03
    },
    {
      "text": "his license and registration sir",
      "start": 1317.7,
      "duration": 3.589
    },
    {
      "text": "after being removed from the vehicle",
      "start": 1322.82,
      "duration": 3.94
    },
    {
      "text": "Reynolds commented I got the Roseville",
      "start": 1324.6,
      "duration": 3.959
    },
    {
      "text": "police got me handcuffed my phone is",
      "start": 1326.76,
      "duration": 3.72
    },
    {
      "text": "about to die I'm on lap inter and Frey",
      "start": 1328.559,
      "duration": 3.99
    },
    {
      "text": "and the Roseville Police Department just",
      "start": 1330.48,
      "duration": 3.54
    },
    {
      "text": "shot my boyfriend they shot him four",
      "start": 1332.549,
      "duration": 3.75
    },
    {
      "text": "times he has a license to carry we had a",
      "start": 1334.02,
      "duration": 4.019
    },
    {
      "text": "busted taillight and we had some weed in",
      "start": 1336.299,
      "duration": 5.61
    },
    {
      "text": "the car that's about it now I don't mean",
      "start": 1338.039,
      "duration": 7.01
    },
    {
      "text": "to sound like all kinds of a prude but",
      "start": 1341.909,
      "duration": 6.571
    },
    {
      "text": "to me if you got a four-year-old kid in",
      "start": 1345.049,
      "duration": 5.23
    },
    {
      "text": "the car I don't really think you should",
      "start": 1348.48,
      "duration": 4.86
    },
    {
      "text": "have weed in the car as well maybe",
      "start": 1350.279,
      "duration": 6.27
    },
    {
      "text": "that's a minor note but that speaks to",
      "start": 1353.34,
      "duration": 6.66
    },
    {
      "text": "character to me now we don't know",
      "start": 1356.549,
      "duration": 4.921
    },
    {
      "text": "exactly how much time elapsed between",
      "start": 1360,
      "duration": 2.85
    },
    {
      "text": "the shooting and the video being",
      "start": 1361.47,
      "duration": 3.42
    },
    {
      "text": "streamed to Facebook but Reynolds's",
      "start": 1362.85,
      "duration": 3.689
    },
    {
      "text": "young daughter had already been removed",
      "start": 1364.89,
      "duration": 3.8
    },
    {
      "text": "from the vehicle at the time she began",
      "start": 1366.539,
      "duration": 4.77
    },
    {
      "text": "broadcasting so we don't have any video",
      "start": 1368.69,
      "duration": 4.03
    },
    {
      "text": "record at least from this woman of the",
      "start": 1371.309,
      "duration": 2.821
    },
    {
      "text": "actual altercation and what led up to",
      "start": 1372.72,
      "duration": 5.25
    },
    {
      "text": "the shooting but if an officer has a gun",
      "start": 1374.13,
      "duration": 5.58
    },
    {
      "text": "on you and says don't reach for anything",
      "start": 1377.97,
      "duration": 3.66
    },
    {
      "text": "don't go for that gun and you try to go",
      "start": 1379.71,
      "duration": 3.689
    },
    {
      "text": "for it you're gonna get shot again we",
      "start": 1381.63,
      "duration": 5.13
    },
    {
      "text": "don't know but that is not just some",
      "start": 1383.399,
      "duration": 6.39
    },
    {
      "text": "random racist incident the video of",
      "start": 1386.76,
      "duration": 4.5
    },
    {
      "text": "course is incredibly graphic in the",
      "start": 1389.789,
      "duration": 3.36
    },
    {
      "text": "media mainstream media predictably ran",
      "start": 1391.26,
      "duration": 3.539
    },
    {
      "text": "with the narrative of racist police",
      "start": 1393.149,
      "duration": 3.241
    },
    {
      "text": "officer shoots innocent black man",
      "start": 1394.799,
      "duration": 3.691
    },
    {
      "text": "despite very little being known about",
      "start": 1396.39,
      "duration": 3.33
    },
    {
      "text": "the encounter other than the video",
      "start": 1398.49,
      "duration": 4.35
    },
    {
      "text": "posted by Reynolds and of course you",
      "start": 1399.72,
      "duration": 7.29
    },
    {
      "text": "want to ask yourself how credible is the",
      "start": 1402.84,
      "duration": 7.53
    },
    {
      "text": "witness in this situation and this",
      "start": 1407.01,
      "duration": 7.23
    },
    {
      "text": "narrative hits people right in the solar",
      "start": 1410.37,
      "duration": 5.669
    },
    {
      "text": "plexus it hits them right in the lizard",
      "start": 1414.24,
      "duration": 5.4
    },
    {
      "text": "brain ah racist terrible innocent black",
      "start": 1416.039,
      "duration": 7.5
    },
    {
      "text": "shot and this hits people brands into",
      "start": 1419.64,
      "duration": 5.73
    },
    {
      "text": "their brain and by the time the truth",
      "start": 1423.539,
      "duration": 3.481
    },
    {
      "text": "comes out which can be six months or",
      "start": 1425.37,
      "duration": 3.809
    },
    {
      "text": "twelve months or 18 months later they've",
      "start": 1427.02,
      "duration": 3.509
    },
    {
      "text": "just moved on to the next thing remember",
      "start": 1429.179,
      "duration": 2.931
    },
    {
      "text": "Freddie gray how terrible all that was",
      "start": 1430.529,
      "duration": 3.931
    },
    {
      "text": "has the media been strongly reporting",
      "start": 1432.11,
      "duration": 5.41
    },
    {
      "text": "that three of the officers accused or",
      "start": 1434.46,
      "duration": 4.5
    },
    {
      "text": "implicated in the death of Freddie gray",
      "start": 1437.52,
      "duration": 4.86
    },
    {
      "text": "have all been acquitted doesn't matter",
      "start": 1438.96,
      "duration": 4.829
    },
    {
      "text": "you're moving on to the next disaster",
      "start": 1442.38,
      "duration": 3.72
    },
    {
      "text": "poking the next hornet's nest of race",
      "start": 1443.789,
      "duration": 4.77
    },
    {
      "text": "baiting without circling back as the old",
      "start": 1446.1,
      "duration": 5.49
    },
    {
      "text": "saying goes while the truth is still",
      "start": 1448.559,
      "duration": 4.561
    },
    {
      "text": "tying its shoes alike and go twice",
      "start": 1451.59,
      "duration": 2.66
    },
    {
      "text": "around the",
      "start": 1453.12,
      "duration": 6.35
    },
    {
      "text": "world Castillo's mother Valerie Castile",
      "start": 1454.25,
      "duration": 7.65
    },
    {
      "text": "said they killed my son they took a good",
      "start": 1459.47,
      "duration": 4.86
    },
    {
      "text": "man a hard-working man he worked since",
      "start": 1461.9,
      "duration": 4.44
    },
    {
      "text": "he was 18 years old he lived by the law",
      "start": 1464.33,
      "duration": 5.37
    },
    {
      "text": "and he died by the law guess Neal's",
      "start": 1466.34,
      "duration": 6.27
    },
    {
      "text": "uncle Clarence Castile said we all know",
      "start": 1469.7,
      "duration": 4.56
    },
    {
      "text": "my nephew was a good kid and we want",
      "start": 1472.61,
      "duration": 3.93
    },
    {
      "text": "justice as well as relief my nephew has",
      "start": 1474.26,
      "duration": 4.56
    },
    {
      "text": "a concealed carry permit and still got",
      "start": 1476.54,
      "duration": 4.17
    },
    {
      "text": "killed for carrying again this needs to",
      "start": 1478.82,
      "duration": 6.39
    },
    {
      "text": "stop this happens so often cousin Damien",
      "start": 1480.71,
      "duration": 7.11
    },
    {
      "text": "Pickett quote he was stopped because",
      "start": 1485.21,
      "duration": 4.17
    },
    {
      "text": "they think every African African",
      "start": 1487.82,
      "duration": 3.66
    },
    {
      "text": "American does crime but it doesn't",
      "start": 1489.38,
      "duration": 2.94
    },
    {
      "text": "happen like that",
      "start": 1491.48,
      "duration": 4.2
    },
    {
      "text": "he was dwb driving while black they",
      "start": 1492.32,
      "duration": 5.58
    },
    {
      "text": "think that of everybody especially guys",
      "start": 1495.68,
      "duration": 4.62
    },
    {
      "text": "with dreads you cannot label one person",
      "start": 1497.9,
      "duration": 4.62
    },
    {
      "text": "just off a few people because every",
      "start": 1500.3,
      "duration": 5.4
    },
    {
      "text": "black person is not that a lot of people",
      "start": 1502.52,
      "duration": 5.79
    },
    {
      "text": "seem to do it with cops but hey as a",
      "start": 1505.7,
      "duration": 5.19
    },
    {
      "text": "press time as of this recording various",
      "start": 1508.31,
      "duration": 4.35
    },
    {
      "text": "fundraising fundraising accounts have",
      "start": 1510.89,
      "duration": 6.03
    },
    {
      "text": "collected over $200,000 due to the",
      "start": 1512.66,
      "duration": 5.48
    },
    {
      "text": "incident",
      "start": 1516.92,
      "duration": 4.77
    },
    {
      "text": "now Castile falando Castile worked as a",
      "start": 1518.14,
      "duration": 5.71
    },
    {
      "text": "cafeteria supervisor at JJ Hill",
      "start": 1521.69,
      "duration": 4.52
    },
    {
      "text": "Montessori School in st. Paul Minnesota",
      "start": 1523.85,
      "duration": 11.66
    },
    {
      "text": "and was in a car with a kid and weed",
      "start": 1526.21,
      "duration": 9.3
    },
    {
      "text": "Minnesota court system records show that",
      "start": 1535.72,
      "duration": 6.07
    },
    {
      "text": "Castile had at least 55 traffic offenses",
      "start": 1538.4,
      "duration": 4.74
    },
    {
      "text": "in Minnesota including things like",
      "start": 1541.79,
      "duration": 3.69
    },
    {
      "text": "driving without a muffler operating",
      "start": 1543.14,
      "duration": 4.32
    },
    {
      "text": "after revocation and driving without",
      "start": 1545.48,
      "duration": 2.73
    },
    {
      "text": "insurance",
      "start": 1547.46,
      "duration": 2.61
    },
    {
      "text": "the most recent conviction occurred in",
      "start": 1548.21,
      "duration": 3.6
    },
    {
      "text": "January where Castillo was charged twice",
      "start": 1550.07,
      "duration": 3.54
    },
    {
      "text": "with leaving his vehicle abandoned on",
      "start": 1551.81,
      "duration": 4.38
    },
    {
      "text": "quote public private property without",
      "start": 1553.61,
      "duration": 5.91
    },
    {
      "text": "consent Castillo was previously",
      "start": 1556.19,
      "duration": 5.55
    },
    {
      "text": "convicted for public nuisance interfere",
      "start": 1559.52,
      "duration": 4.89
    },
    {
      "text": "obstruct render which is defined as",
      "start": 1561.74,
      "duration": 4.65
    },
    {
      "text": "anyone who quote interferes with",
      "start": 1564.41,
      "duration": 3.9
    },
    {
      "text": "obstructs or renders dangerous for",
      "start": 1566.39,
      "duration": 3.39
    },
    {
      "text": "passage any public highway or",
      "start": 1568.31,
      "duration": 4.8
    },
    {
      "text": "right-of-way or waters used by the",
      "start": 1569.78,
      "duration": 6.69
    },
    {
      "text": "public Castile had also been arrested",
      "start": 1573.11,
      "duration": 5.19
    },
    {
      "text": "for possession of marijuana in motor",
      "start": 1576.47,
      "duration": 4.41
    },
    {
      "text": "vehicle and possession of over 1.4 grams",
      "start": 1578.3,
      "duration": 5.04
    },
    {
      "text": "of marijuana in motor vehicle but both",
      "start": 1580.88,
      "duration": 5.54
    },
    {
      "text": "charges were ultimately dismissed",
      "start": 1583.34,
      "duration": 4.8
    },
    {
      "text": "Charles Johnson from",
      "start": 1586.42,
      "duration": 3.31
    },
    {
      "text": "news-dot-com has also captured",
      "start": 1588.14,
      "duration": 3.78
    },
    {
      "text": "interesting images and video from the",
      "start": 1589.73,
      "duration": 3.87
    },
    {
      "text": "social media accounts of both falando",
      "start": 1591.92,
      "duration": 4.02
    },
    {
      "text": "Castile and Diamond Reynolds and again",
      "start": 1593.6,
      "duration": 6.09
    },
    {
      "text": "they are linked below in 2011 falando",
      "start": 1595.94,
      "duration": 7.08
    },
    {
      "text": "Castile posted Merry Christmas and happy",
      "start": 1599.69,
      "duration": 5.94
    },
    {
      "text": "blue year to Facebook Crips of course is",
      "start": 1603.02,
      "duration": 6.39
    },
    {
      "text": "a criminal gang he was also member of a",
      "start": 1605.63,
      "duration": 7.02
    },
    {
      "text": "Crips Facebook group and is posed next",
      "start": 1609.41,
      "duration": 5.13
    },
    {
      "text": "to an individual wearing all blue making",
      "start": 1612.65,
      "duration": 4.44
    },
    {
      "text": "si gestures indicating that he was",
      "start": 1614.54,
      "duration": 4.59
    },
    {
      "text": "involved or associated with the Crips",
      "start": 1617.09,
      "duration": 7.14
    },
    {
      "text": "gang in some form Greg got to be working",
      "start": 1619.13,
      "duration": 9.6
    },
    {
      "text": "with kids now the woman Reynolds also",
      "start": 1624.23,
      "duration": 6.57
    },
    {
      "text": "posted a meme on her Facebook page on",
      "start": 1628.73,
      "duration": 4.71
    },
    {
      "text": "July 1st with a black man wearing blue",
      "start": 1630.8,
      "duration": 5.42
    },
    {
      "text": "making crip gang signs and the text on",
      "start": 1633.44,
      "duration": 6.11
    },
    {
      "text": "crip it's Friday",
      "start": 1636.22,
      "duration": 5.62
    },
    {
      "text": "Reynolds also posted videos of her",
      "start": 1639.55,
      "duration": 5.35
    },
    {
      "text": "smoking marijuana in front of her young",
      "start": 1641.84,
      "duration": 5.31
    },
    {
      "text": "daughter including one while she's",
      "start": 1644.9,
      "duration": 4.83
    },
    {
      "text": "driving a vehicle and many other social",
      "start": 1647.15,
      "duration": 5.21
    },
    {
      "text": "media posts about getting high and",
      "start": 1649.73,
      "duration": 7.89
    },
    {
      "text": "drinking alcohol Johnson also reports",
      "start": 1652.36,
      "duration": 7.66
    },
    {
      "text": "that Castillo's Facebook state is a",
      "start": 1657.62,
      "duration": 4.35
    },
    {
      "text": "single while Reynolds is married despite",
      "start": 1660.02,
      "duration": 3.15
    },
    {
      "text": "the fact that she has written about",
      "start": 1661.97,
      "duration": 2.79
    },
    {
      "text": "being a single mother and there are no",
      "start": 1663.17,
      "duration": 3.3
    },
    {
      "text": "references to Reynolds on Castile",
      "start": 1664.76,
      "duration": 2.67
    },
    {
      "text": "Facebook page",
      "start": 1666.47,
      "duration": 5.67
    },
    {
      "text": "despite their heavy activity Minnesota",
      "start": 1667.43,
      "duration": 7.32
    },
    {
      "text": "governor Mark Dayton said would this",
      "start": 1672.14,
      "duration": 4.35
    },
    {
      "text": "have happened if the passengers were",
      "start": 1674.75,
      "duration": 4.44
    },
    {
      "text": "white I don't think it would have all of",
      "start": 1676.49,
      "duration": 4.53
    },
    {
      "text": "us in Minnesota are forced to confront",
      "start": 1679.19,
      "duration": 7.08
    },
    {
      "text": "that this kind of racism exists well",
      "start": 1681.02,
      "duration": 7.35
    },
    {
      "text": "first of all whites get shot by police",
      "start": 1686.27,
      "duration": 4.68
    },
    {
      "text": "in higher numbers than blacks just a",
      "start": 1688.37,
      "duration": 6.54
    },
    {
      "text": "fact President Barack Obama rushing in",
      "start": 1690.95,
      "duration": 6.93
    },
    {
      "text": "to heal and provide clarity and avoid a",
      "start": 1694.91,
      "duration": 5.37
    },
    {
      "text": "rush to judgment oh wait sorry that's",
      "start": 1697.88,
      "duration": 4.32
    },
    {
      "text": "President Obama in opposite world he",
      "start": 1700.28,
      "duration": 4.2
    },
    {
      "text": "said when incidents like this occur",
      "start": 1702.2,
      "duration": 4.11
    },
    {
      "text": "there's a big chunk of our fellow",
      "start": 1704.48,
      "duration": 3.69
    },
    {
      "text": "citizen ray that feels as if because of",
      "start": 1706.31,
      "duration": 3.9
    },
    {
      "text": "the color of their skin they are not",
      "start": 1708.17,
      "duration": 3.69
    },
    {
      "text": "being treated the same and that hurts",
      "start": 1710.21,
      "duration": 6.32
    },
    {
      "text": "that should trouble all of us",
      "start": 1711.86,
      "duration": 4.67
    },
    {
      "text": "so those are the facts this guy falando",
      "start": 1717.4,
      "duration": 6.09
    },
    {
      "text": "Castile is driving with some woman who",
      "start": 1720.43,
      "duration": 6.56
    },
    {
      "text": "is smoking drugs in front of her kids",
      "start": 1723.49,
      "duration": 6.3
    },
    {
      "text": "seemingly obsessed with getting high and",
      "start": 1726.99,
      "duration": 4.84
    },
    {
      "text": "drinking all the time he's floating",
      "start": 1729.79,
      "duration": 6.66
    },
    {
      "text": "around and fans of gang activity posts",
      "start": 1731.83,
      "duration": 7.77
    },
    {
      "text": "and people and so on I'm just giving you",
      "start": 1736.45,
      "duration": 5.43
    },
    {
      "text": "the facts who knows who knows is there a",
      "start": 1739.6,
      "duration": 3.66
    },
    {
      "text": "concealed carry permit",
      "start": 1741.88,
      "duration": 4.32
    },
    {
      "text": "no evidences yet could be we'll find out",
      "start": 1743.26,
      "duration": 6.6
    },
    {
      "text": "does it really matter well if he did not",
      "start": 1746.2,
      "duration": 5.91
    },
    {
      "text": "have a concealed carry permit and he had",
      "start": 1749.86,
      "duration": 5.34
    },
    {
      "text": "a gun in the car he's in trouble if he",
      "start": 1752.11,
      "duration": 6.569
    },
    {
      "text": "was the guy in the convenience store",
      "start": 1755.2,
      "duration": 5.4
    },
    {
      "text": "theft well he's in trouble and all of",
      "start": 1758.679,
      "duration": 3.931
    },
    {
      "text": "this points to why he might have",
      "start": 1760.6,
      "duration": 3.69
    },
    {
      "text": "overreacted to a cop pulling him over",
      "start": 1762.61,
      "duration": 4.65
    },
    {
      "text": "maybe he was high maybe there was a lot",
      "start": 1764.29,
      "duration": 5.04
    },
    {
      "text": "of drugs in the car I don't know we",
      "start": 1767.26,
      "duration": 4.86
    },
    {
      "text": "don't know maybe he was a great guy and",
      "start": 1769.33,
      "duration": 4.38
    },
    {
      "text": "all of this can be explained away I",
      "start": 1772.12,
      "duration": 4.17
    },
    {
      "text": "don't know that's the whole point stop",
      "start": 1773.71,
      "duration": 4.79
    },
    {
      "text": "rushing to judgment",
      "start": 1776.29,
      "duration": 7.23
    },
    {
      "text": "that's called lynching look it is not",
      "start": 1778.5,
      "duration": 7.929
    },
    {
      "text": "fair it is not fair the cops are stymied",
      "start": 1783.52,
      "duration": 4.92
    },
    {
      "text": "they can't talk with everything that",
      "start": 1786.429,
      "duration": 3.241
    },
    {
      "text": "they say is going to be used against",
      "start": 1788.44,
      "duration": 2.28
    },
    {
      "text": "them in a court of law should they be",
      "start": 1789.67,
      "duration": 5.759
    },
    {
      "text": "charged with murder I mean where's the",
      "start": 1790.72,
      "duration": 6.24
    },
    {
      "text": "people who are on the other side that",
      "start": 1795.429,
      "duration": 3.841
    },
    {
      "text": "the friends the victim's family and so",
      "start": 1796.96,
      "duration": 3.78
    },
    {
      "text": "on they can say whatever they want but",
      "start": 1799.27,
      "duration": 4.74
    },
    {
      "text": "virtually without repercussions Mike",
      "start": 1800.74,
      "duration": 6.29
    },
    {
      "text": "Brown's friend was a Dorian Johnson lied",
      "start": 1804.01,
      "duration": 6
    },
    {
      "text": "directly about how Brown was killed he",
      "start": 1807.03,
      "duration": 5.08
    },
    {
      "text": "said I was killed execution-style with",
      "start": 1810.01,
      "duration": 3.87
    },
    {
      "text": "his hands in the air saying hands up",
      "start": 1812.11,
      "duration": 6.93
    },
    {
      "text": "don't shoot lied about it created a",
      "start": 1813.88,
      "duration": 8.52
    },
    {
      "text": "narrative that gave birth to a somewhat",
      "start": 1819.04,
      "duration": 5.97
    },
    {
      "text": "questionable organization it was not",
      "start": 1822.4,
      "duration": 4.32
    },
    {
      "text": "true Michael Brown was shot in the front",
      "start": 1825.01,
      "duration": 3.98
    },
    {
      "text": "while he was charging the police officer",
      "start": 1826.72,
      "duration": 4.92
    },
    {
      "text": "did he face any negative repercussions",
      "start": 1828.99,
      "duration": 6.819
    },
    {
      "text": "for basically starting Ryan's no all the",
      "start": 1831.64,
      "duration": 6.3
    },
    {
      "text": "people who lie to the media and",
      "start": 1835.809,
      "duration": 3.841
    },
    {
      "text": "misrepresent things to create a",
      "start": 1837.94,
      "duration": 3.869
    },
    {
      "text": "race-baiting narrative who provoked",
      "start": 1839.65,
      "duration": 5.159
    },
    {
      "text": "riots and injuries and sometimes even",
      "start": 1841.809,
      "duration": 5.941
    },
    {
      "text": "deaths or outright assassinations as in",
      "start": 1844.809,
      "duration": 4.051
    },
    {
      "text": "Dallas",
      "start": 1847.75,
      "duration": 8.7
    },
    {
      "text": "does anything happen to them no so it's",
      "start": 1848.86,
      "duration": 9.51
    },
    {
      "text": "not fair the police can't say anything",
      "start": 1856.45,
      "duration": 5.67
    },
    {
      "text": "and everyone on the other side of the",
      "start": 1858.37,
      "duration": 4.98
    },
    {
      "text": "narrative can say whatever they want",
      "start": 1862.12,
      "duration": 4.23
    },
    {
      "text": "without repercussions so you need to I",
      "start": 1863.35,
      "duration": 4.92
    },
    {
      "text": "don't want to keep doing these damn",
      "start": 1866.35,
      "duration": 3.209
    },
    {
      "text": "videos you need to look in the mirror",
      "start": 1868.27,
      "duration": 4.02
    },
    {
      "text": "when something like this occurs do you",
      "start": 1869.559,
      "duration": 5.011
    },
    {
      "text": "say we need to wait for judgment we",
      "start": 1872.29,
      "duration": 3.66
    },
    {
      "text": "cannot rush to judgment let us wait and",
      "start": 1874.57,
      "duration": 2.91
    },
    {
      "text": "find until the facts are in we don't",
      "start": 1875.95,
      "duration": 4.38
    },
    {
      "text": "know yet but do you push back against",
      "start": 1877.48,
      "duration": 5.49
    },
    {
      "text": "this mob this pitchfork and torch",
      "start": 1880.33,
      "duration": 5.64
    },
    {
      "text": "bearing mob looking for a scapegoat do",
      "start": 1882.97,
      "duration": 5.22
    },
    {
      "text": "you push back or do you virtue signal",
      "start": 1885.97,
      "duration": 4.38
    },
    {
      "text": "and get behind it and believe all of the",
      "start": 1888.19,
      "duration": 5.369
    },
    {
      "text": "narrative no matter how many times it",
      "start": 1890.35,
      "duration": 4.709
    },
    {
      "text": "has been disproven in the past no matter",
      "start": 1893.559,
      "duration": 3.391
    },
    {
      "text": "how many lies have been spoken before no",
      "start": 1895.059,
      "duration": 3.691
    },
    {
      "text": "matter how much oversimplification and",
      "start": 1896.95,
      "duration": 3.3
    },
    {
      "text": "lack of nuance has been presented to you",
      "start": 1898.75,
      "duration": 3.99
    },
    {
      "text": "before do you still buy all of this hook",
      "start": 1900.25,
      "duration": 3.9
    },
    {
      "text": "line and sinker and spread it around",
      "start": 1902.74,
      "duration": 5.61
    },
    {
      "text": "like a virus causing untold escalation",
      "start": 1904.15,
      "duration": 6.45
    },
    {
      "text": "of hatred and contempt and violence in",
      "start": 1908.35,
      "duration": 4.89
    },
    {
      "text": "this world do you push back against the",
      "start": 1910.6,
      "duration": 4.86
    },
    {
      "text": "mob as a reasonable moral decent human",
      "start": 1913.24,
      "duration": 5.58
    },
    {
      "text": "being must always do if you were",
      "start": 1915.46,
      "duration": 7.41
    },
    {
      "text": "unjustly accused of something or if you",
      "start": 1918.82,
      "duration": 5.79
    },
    {
      "text": "were accused of something and you had",
      "start": 1922.87,
      "duration": 3.929
    },
    {
      "text": "your side to tell would you want your",
      "start": 1924.61,
      "duration": 3.809
    },
    {
      "text": "site to be heard would you want people",
      "start": 1926.799,
      "duration": 3.331
    },
    {
      "text": "to push back against the mob that was",
      "start": 1928.419,
      "duration": 5.791
    },
    {
      "text": "charging you down when you were running",
      "start": 1930.13,
      "duration": 5.4
    },
    {
      "text": "for the mob would you like reasonable",
      "start": 1934.21,
      "duration": 3.63
    },
    {
      "text": "people to stand and say whoa whoa whoa",
      "start": 1935.53,
      "duration": 5.16
    },
    {
      "text": "we have a process we have a system we",
      "start": 1937.84,
      "duration": 6.75
    },
    {
      "text": "have fact-finding everybody deep breath",
      "start": 1940.69,
      "duration": 7.8
    },
    {
      "text": "put down your pitchforks go home the",
      "start": 1944.59,
      "duration": 6.92
    },
    {
      "text": "facts will come out wouldn't you want",
      "start": 1948.49,
      "duration": 5.79
    },
    {
      "text": "someone or a group of people to do that",
      "start": 1951.51,
      "duration": 6.539
    },
    {
      "text": "if you were being chased by a mob of",
      "start": 1954.28,
      "duration": 7.8
    },
    {
      "text": "course you would so I want you to look",
      "start": 1958.049,
      "duration": 5.951
    },
    {
      "text": "in the mirror did you share all of this",
      "start": 1962.08,
      "duration": 4.349
    },
    {
      "text": "information did you escalate it did you",
      "start": 1964,
      "duration": 4.02
    },
    {
      "text": "pump it that you virtual signal did you",
      "start": 1966.429,
      "duration": 2.911
    },
    {
      "text": "tell everyone what a great person you",
      "start": 1968.02,
      "duration": 2.58
    },
    {
      "text": "were because you believed everything",
      "start": 1969.34,
      "duration": 5.43
    },
    {
      "text": "that the media said did you enjoy",
      "start": 1970.6,
      "duration": 6.39
    },
    {
      "text": "stewing in the dopamine's of joining the",
      "start": 1974.77,
      "duration": 5.64
    },
    {
      "text": "mob and inciting them up if you did if",
      "start": 1976.99,
      "duration": 5.04
    },
    {
      "text": "you did any of that",
      "start": 1980.41,
      "duration": 4.08
    },
    {
      "text": "my friend you need to look in the mirror",
      "start": 1982.03,
      "duration": 5.4
    },
    {
      "text": "and then you need to look down because",
      "start": 1984.49,
      "duration": 7.2
    },
    {
      "text": "you have blood on your hands this stuff",
      "start": 1987.43,
      "duration": 5.64
    },
    {
      "text": "this escalation",
      "start": 1991.69,
      "duration": 3.36
    },
    {
      "text": "this lack of pushing back against the",
      "start": 1993.07,
      "duration": 5.28
    },
    {
      "text": "mob gets people killed and I'm not just",
      "start": 1995.05,
      "duration": 6.33
    },
    {
      "text": "talking about the police offices in",
      "start": 1998.35,
      "duration": 5.46
    },
    {
      "text": "Dallas or the people who might be",
      "start": 2001.38,
      "duration": 5.01
    },
    {
      "text": "injured or who died in riots I'm talking",
      "start": 2003.81,
      "duration": 4.65
    },
    {
      "text": "my friends also about getting black",
      "start": 2006.39,
      "duration": 4.5
    },
    {
      "text": "people killed because when you push this",
      "start": 2008.46,
      "duration": 4.98
    },
    {
      "text": "narrative police get paralyzed the focus",
      "start": 2010.89,
      "duration": 5.16
    },
    {
      "text": "in effect drives up crime in black",
      "start": 2013.44,
      "duration": 11.1
    },
    {
      "text": "neighborhoods the media throws all of",
      "start": 2016.05,
      "duration": 9.96
    },
    {
      "text": "these aspersions and moves on keep",
      "start": 2024.54,
      "duration": 1.8
    },
    {
      "text": "moving",
      "start": 2026.01,
      "duration": 1.83
    },
    {
      "text": "get the next one out get the next one",
      "start": 2026.34,
      "duration": 3.45
    },
    {
      "text": "out get the next one out poke poke goat",
      "start": 2027.84,
      "duration": 7.47
    },
    {
      "text": "goat goat they don't want you to circle",
      "start": 2029.79,
      "duration": 7.56
    },
    {
      "text": "back hey I've done lots of these videos",
      "start": 2035.31,
      "duration": 3.66
    },
    {
      "text": "we'll link to them below you can circle",
      "start": 2037.35,
      "duration": 4.53
    },
    {
      "text": "back on me Walter Scott Trayvon Martin",
      "start": 2038.97,
      "duration": 4.83
    },
    {
      "text": "you name him you can circle back and you",
      "start": 2041.88,
      "duration": 5.61
    },
    {
      "text": "can look at what I said Freddie gray you",
      "start": 2043.8,
      "duration": 7.2
    },
    {
      "text": "can circle back and you can look at what",
      "start": 2047.49,
      "duration": 7.169
    },
    {
      "text": "I say I welcome bad I'm tired of being",
      "start": 2051,
      "duration": 9.27
    },
    {
      "text": "right now I'm not defending cops in",
      "start": 2054.659,
      "duration": 7.801
    },
    {
      "text": "particular I'm defending fact I'm",
      "start": 2060.27,
      "duration": 9.99
    },
    {
      "text": "defending the truth thou shalt not bear",
      "start": 2062.46,
      "duration": 10.98
    },
    {
      "text": "false witness thou shalt not rush to",
      "start": 2070.26,
      "duration": 6.18
    },
    {
      "text": "judgment thou shalt oppose the mob that",
      "start": 2073.44,
      "duration": 5.58
    },
    {
      "text": "is the foundational values and virtues",
      "start": 2076.44,
      "duration": 5.04
    },
    {
      "text": "of being a halfway decent human being",
      "start": 2079.02,
      "duration": 4.47
    },
    {
      "text": "which you need to be in these troubled",
      "start": 2081.48,
      "duration": 4.83
    },
    {
      "text": "and troubling times calm reasonable",
      "start": 2083.49,
      "duration": 4.649
    },
    {
      "text": "voices needs to push back against",
      "start": 2086.31,
      "duration": 4.619
    },
    {
      "text": "hysteria so people can slow down take",
      "start": 2088.139,
      "duration": 9.121
    },
    {
      "text": "deep breaths and think and the reason",
      "start": 2090.929,
      "duration": 11.331
    },
    {
      "text": "why thou shalt not bear false witness is",
      "start": 2097.26,
      "duration": 8.04
    },
    {
      "text": "because these dominoes lead to grave",
      "start": 2102.26,
      "duration": 7.51
    },
    {
      "text": "stones these escalations lead to",
      "start": 2105.3,
      "duration": 7.71
    },
    {
      "text": "gunshots the reason we do not bear false",
      "start": 2109.77,
      "duration": 4.31
    },
    {
      "text": "witness the",
      "start": 2113.01,
      "duration": 4.19
    },
    {
      "text": "reason we do not rush to judgment the",
      "start": 2114.08,
      "duration": 5.25
    },
    {
      "text": "reason the assumption of innocence is",
      "start": 2117.2,
      "duration": 6.3
    },
    {
      "text": "sacred is because when we bear false",
      "start": 2119.33,
      "duration": 7.08
    },
    {
      "text": "witness we participate in the greatest",
      "start": 2123.5,
      "duration": 4.59
    },
    {
      "text": "violation of the greatest commandment",
      "start": 2126.41,
      "duration": 6.92
    },
    {
      "text": "thou shalt not kill",
      "start": 2128.09,
      "duration": 5.24
    },
    {
      "text": "you",
      "start": 2140.51,
      "duration": 2.06
    }
  ],
  "Errors": null,
  "TranscriptStderr": null
}