{
  "Title": "Humble Thanks and More Dismal Facts About Social Security",
  "Id": "s-_rbVpPBbA",
  "Transcript": [
    {
      "text": "hi everybody is deaf it's the sunday",
      "start": 0,
      "duration": 4.92
    },
    {
      "text": "show September the 25th 2011 do I look",
      "start": 2.46,
      "duration": 8.66
    },
    {
      "text": "different older wiser Boulder I'm 45",
      "start": 4.92,
      "duration": 8.67
    },
    {
      "text": "still can double it and be alive that's",
      "start": 11.12,
      "duration": 5.65
    },
    {
      "text": "good 55 probably not so much so I hope",
      "start": 13.59,
      "duration": 4.32
    },
    {
      "text": "you doing very well I just wanted to",
      "start": 16.77,
      "duration": 3.45
    },
    {
      "text": "show off my new Princess Leia headphones",
      "start": 17.91,
      "duration": 4.31
    },
    {
      "text": "so I hope that you're enjoying them and",
      "start": 20.22,
      "duration": 5.069
    },
    {
      "text": "I wanted to look I mean in all",
      "start": 22.22,
      "duration": 4.51
    },
    {
      "text": "seriousness have really really wanted to",
      "start": 25.289,
      "duration": 5.551
    },
    {
      "text": "to thank literally the thousands of",
      "start": 26.73,
      "duration": 6.45
    },
    {
      "text": "people who wished me happy birthday",
      "start": 30.84,
      "duration": 7.05
    },
    {
      "text": "yesterday it was beautiful and it was",
      "start": 33.18,
      "duration": 6.719
    },
    {
      "text": "moving and the messages that were sent",
      "start": 37.89,
      "duration": 6.84
    },
    {
      "text": "were wonderful uh I just felt like I was",
      "start": 39.899,
      "duration": 7.051
    },
    {
      "text": "being pumped full of golden helium for",
      "start": 44.73,
      "duration": 6.54
    },
    {
      "text": "people's well which is all day and I you",
      "start": 46.95,
      "duration": 7.32
    },
    {
      "text": "know as I sort of labor way in my little",
      "start": 51.27,
      "duration": 7.559
    },
    {
      "text": "room and look at videos with a couple of",
      "start": 54.27,
      "duration": 7.89
    },
    {
      "text": "thousand views and compare them to lady",
      "start": 58.829,
      "duration": 7.141
    },
    {
      "text": "gaga it can be a little bit demotivating",
      "start": 62.16,
      "duration": 6.69
    },
    {
      "text": "at times but the messages that came",
      "start": 65.97,
      "duration": 6.719
    },
    {
      "text": "pouring in yesterday with with wonderful",
      "start": 68.85,
      "duration": 6.559
    },
    {
      "text": "good wishes and with amazing",
      "start": 72.689,
      "duration": 6.331
    },
    {
      "text": "testimonials as to how the show has",
      "start": 75.409,
      "duration": 5.261
    },
    {
      "text": "really helped people has really affected",
      "start": 79.02,
      "duration": 4.16
    },
    {
      "text": "people has really challenged people and",
      "start": 80.67,
      "duration": 6.089
    },
    {
      "text": "it was a beautiful and moving thing I i",
      "start": 83.18,
      "duration": 8.229
    },
    {
      "text": "feel i feel quite emotional in saying",
      "start": 86.759,
      "duration": 10.47
    },
    {
      "text": "how immensely honored i feel having won",
      "start": 91.409,
      "duration": 8.011
    },
    {
      "text": "your trust to the degree that i have fun",
      "start": 97.229,
      "duration": 3.451
    },
    {
      "text": "hopefully i have to some degree have",
      "start": 99.42,
      "duration": 3.87
    },
    {
      "text": "value but I feel very moved by that and",
      "start": 100.68,
      "duration": 5.04
    },
    {
      "text": "I think that what we're doing here is",
      "start": 103.29,
      "duration": 3.719
    },
    {
      "text": "the most important thing in the world I",
      "start": 105.72,
      "duration": 2.46
    },
    {
      "text": "think this is the most important",
      "start": 107.009,
      "duration": 2.671
    },
    {
      "text": "conversation in the world I think this",
      "start": 108.18,
      "duration": 3.619
    },
    {
      "text": "is the sustainable bedrock foundation",
      "start": 109.68,
      "duration": 4.41
    },
    {
      "text": "for the true freedoms of the future I",
      "start": 111.799,
      "duration": 5.201
    },
    {
      "text": "think there's nothing else like it in",
      "start": 114.09,
      "duration": 5.639
    },
    {
      "text": "the scope and depth I think that the",
      "start": 117,
      "duration": 5.07
    },
    {
      "text": "listen ship of this show is really the",
      "start": 119.729,
      "duration": 4.831
    },
    {
      "text": "most amazing group of people and a",
      "start": 122.07,
      "duration": 5.28
    },
    {
      "text": "special thank you of course goes out to",
      "start": 124.56,
      "duration": 5.02
    },
    {
      "text": "the donators",
      "start": 127.35,
      "duration": 6.72
    },
    {
      "text": "I hope you know that the money that you",
      "start": 129.58,
      "duration": 6.96
    },
    {
      "text": "provide to the show the resources that",
      "start": 134.07,
      "duration": 4.15
    },
    {
      "text": "you provide to the show and I don't mean",
      "start": 136.54,
      "duration": 3.09
    },
    {
      "text": "people who donate you just money people",
      "start": 138.22,
      "duration": 3.29
    },
    {
      "text": "donate time and energy and effort and",
      "start": 139.63,
      "duration": 4.68
    },
    {
      "text": "sharing stuff and and cajoling other",
      "start": 141.51,
      "duration": 6.16
    },
    {
      "text": "people into listening to shows that what",
      "start": 144.31,
      "duration": 5.64
    },
    {
      "text": "you're doing to to build up the show is",
      "start": 147.67,
      "duration": 4.86
    },
    {
      "text": "really really helping a lot of people in",
      "start": 149.95,
      "duration": 4.02
    },
    {
      "text": "the world is really helping a lot of",
      "start": 152.53,
      "duration": 3.72
    },
    {
      "text": "people in the world and i am so",
      "start": 153.97,
      "duration": 4.86
    },
    {
      "text": "enormously grateful for having the",
      "start": 156.25,
      "duration": 8.07
    },
    {
      "text": "opportunity to reason with you to speak",
      "start": 158.83,
      "duration": 7.77
    },
    {
      "text": "with you to share ideas with you to",
      "start": 164.32,
      "duration": 4.52
    },
    {
      "text": "challenge you to be challenged by you i",
      "start": 166.6,
      "duration": 4.95
    },
    {
      "text": "am enormously grateful for the",
      "start": 168.84,
      "duration": 4.98
    },
    {
      "text": "opportunity it is a singular privilege",
      "start": 171.55,
      "duration": 5.28
    },
    {
      "text": "to be in this conversation with you it",
      "start": 173.82,
      "duration": 8.46
    },
    {
      "text": "is a very powerful and far-ranging and",
      "start": 176.83,
      "duration": 7.95
    },
    {
      "text": "depth charging kind of conversation that",
      "start": 182.28,
      "duration": 5.56
    },
    {
      "text": "were involved in here and my heart",
      "start": 184.78,
      "duration": 6.06
    },
    {
      "text": "swells with joy with humility with",
      "start": 187.84,
      "duration": 5.369
    },
    {
      "text": "gratitude with courage with fear",
      "start": 190.84,
      "duration": 4.83
    },
    {
      "text": "sometimes at what it is that we have",
      "start": 193.209,
      "duration": 4.581
    },
    {
      "text": "taken on and the degree to which we have",
      "start": 195.67,
      "duration": 4.95
    },
    {
      "text": "strapped some jet packs to the moldering",
      "start": 197.79,
      "duration": 4.6
    },
    {
      "text": "rocks of philosophy and launch them into",
      "start": 200.62,
      "duration": 5.31
    },
    {
      "text": "an orbit that can be seen by the whole",
      "start": 202.39,
      "duration": 7.02
    },
    {
      "text": "world the whole world listens to what",
      "start": 205.93,
      "duration": 4.8
    },
    {
      "text": "we're talking about here the whole world",
      "start": 209.41,
      "duration": 2.91
    },
    {
      "text": "listens to these shows the whole world",
      "start": 210.73,
      "duration": 3.15
    },
    {
      "text": "listens to conversations that i have",
      "start": 212.32,
      "duration": 3.18
    },
    {
      "text": "with listeners the whole world even",
      "start": 213.88,
      "duration": 4.38
    },
    {
      "text": "listens to my ramblings and my solo",
      "start": 215.5,
      "duration": 6.11
    },
    {
      "text": "casts i got messages from places I",
      "start": 218.26,
      "duration": 7.229
    },
    {
      "text": "didn't even know exists yay mode or but",
      "start": 221.61,
      "duration": 7.9
    },
    {
      "text": "I really just am so grateful and so",
      "start": 225.489,
      "duration": 8.671
    },
    {
      "text": "thankful and so encouraged by the",
      "start": 229.51,
      "duration": 7.74
    },
    {
      "text": "messages that I got yesterday I you know",
      "start": 234.16,
      "duration": 5.43
    },
    {
      "text": "you expect a couple maybe 100 or two but",
      "start": 237.25,
      "duration": 5.16
    },
    {
      "text": "it really was astounding and thank you",
      "start": 239.59,
      "duration": 4.47
    },
    {
      "text": "thank you so much everyone for your",
      "start": 242.41,
      "duration": 3.27
    },
    {
      "text": "courage for your commitment for your",
      "start": 244.06,
      "duration": 3.179
    },
    {
      "text": "interest for your generosity for your",
      "start": 245.68,
      "duration": 3.69
    },
    {
      "text": "openness for your honesty for your",
      "start": 247.239,
      "duration": 8.091
    },
    {
      "text": "integrity for your joy in philosophy it",
      "start": 249.37,
      "duration": 9.419
    },
    {
      "text": "means the world to me and it moves the",
      "start": 255.33,
      "duration": 9.399
    },
    {
      "text": "world of the future thank you okay so",
      "start": 258.789,
      "duration": 8.161
    },
    {
      "text": "before I cry a little bit more about",
      "start": 264.729,
      "duration": 3.931
    },
    {
      "text": "social security because I did get some",
      "start": 266.95,
      "duration": 3.93
    },
    {
      "text": "questions about Social Security being a",
      "start": 268.66,
      "duration": 5.04
    },
    {
      "text": "Ponzi scheme and I'm sorry what I meant",
      "start": 270.88,
      "duration": 4.2
    },
    {
      "text": "to say was that Social Security is a",
      "start": 273.7,
      "duration": 3.57
    },
    {
      "text": "Fonzie scheme in that you take your",
      "start": 275.08,
      "duration": 4.26
    },
    {
      "text": "Social Security check hit a jukebox with",
      "start": 277.27,
      "duration": 4.68
    },
    {
      "text": "it and it starts working it's really",
      "start": 279.34,
      "duration": 4.5
    },
    {
      "text": "into library cards and it can lift",
      "start": 281.95,
      "duration": 5.339
    },
    {
      "text": "weights endlessly so when Social",
      "start": 283.84,
      "duration": 6.78
    },
    {
      "text": "Security began making monthly monthly",
      "start": 287.289,
      "duration": 6.241
    },
    {
      "text": "distributions in 1940 there were 160",
      "start": 290.62,
      "duration": 5.04
    },
    {
      "text": "workers for every retiree who was",
      "start": 293.53,
      "duration": 4.05
    },
    {
      "text": "receiving benefits in 1950s this was",
      "start": 295.66,
      "duration": 4.83
    },
    {
      "text": "down to 16.5 a little bit more than",
      "start": 297.58,
      "duration": 6.57
    },
    {
      "text": "ninety percent reduction today instead",
      "start": 300.49,
      "duration": 5.28
    },
    {
      "text": "of there being 160 workers for every",
      "start": 304.15,
      "duration": 3.48
    },
    {
      "text": "retiree there are three and twenty years",
      "start": 305.77,
      "duration": 6.45
    },
    {
      "text": "there will be but two in 1940 the",
      "start": 307.63,
      "duration": 7.74
    },
    {
      "text": "average worker had to pay only 0.2",
      "start": 312.22,
      "duration": 5.699
    },
    {
      "text": "percent of his salary to sustain the",
      "start": 315.37,
      "duration": 5.07
    },
    {
      "text": "population of retirees in 1950 this had",
      "start": 317.919,
      "duration": 5.511
    },
    {
      "text": "risen to 2% 10 times but still not",
      "start": 320.44,
      "duration": 5.4
    },
    {
      "text": "disastrous today it's eleven percent in",
      "start": 323.43,
      "duration": 4.299
    },
    {
      "text": "20 years there will be seventeen percent",
      "start": 325.84,
      "duration": 3.63
    },
    {
      "text": "I would imagine that these numbers are",
      "start": 327.729,
      "duration": 6.271
    },
    {
      "text": "going to be far worse in reality so and",
      "start": 329.47,
      "duration": 6.509
    },
    {
      "text": "of course what each new contributor gets",
      "start": 334,
      "duration": 4.05
    },
    {
      "text": "out of the scheme diminishes over time",
      "start": 335.979,
      "duration": 3.091
    },
    {
      "text": "this is another way in which it is",
      "start": 338.05,
      "duration": 5.19
    },
    {
      "text": "similar to a Ponzi scheme so when you if",
      "start": 339.07,
      "duration": 6.21
    },
    {
      "text": "you retired in 1950 you got a twenty",
      "start": 343.24,
      "duration": 4.17
    },
    {
      "text": "percent annual return on the taxes you",
      "start": 345.28,
      "duration": 4.5
    },
    {
      "text": "paid and coincidentally that's exactly",
      "start": 347.41,
      "duration": 3.81
    },
    {
      "text": "the return that Bernie made a promise to",
      "start": 349.78,
      "duration": 6.11
    },
    {
      "text": "his investors an average so a bit in",
      "start": 351.22,
      "duration": 8.04
    },
    {
      "text": "1950 if you were working in 1950 you get",
      "start": 355.89,
      "duration": 5.5
    },
    {
      "text": "out how two percent return from the",
      "start": 359.26,
      "duration": 3.45
    },
    {
      "text": "system which is less than you would owe",
      "start": 361.39,
      "duration": 4.05
    },
    {
      "text": "non-guaranteed government bonds it's not",
      "start": 362.71,
      "duration": 4.62
    },
    {
      "text": "alexia it's important to remember it's",
      "start": 365.44,
      "duration": 4.229
    },
    {
      "text": "not as an investment scheme it is not an",
      "start": 367.33,
      "duration": 4.83
    },
    {
      "text": "insurance plan the taxes that are paid",
      "start": 369.669,
      "duration": 4.141
    },
    {
      "text": "into Social Security are immediately",
      "start": 372.16,
      "duration": 5.25
    },
    {
      "text": "spent blown burned up in the flaming",
      "start": 373.81,
      "duration": 5.46
    },
    {
      "text": "dragon wars of special interest",
      "start": 377.41,
      "duration": 4.86
    },
    {
      "text": "consumption and the reason why it's so",
      "start": 379.27,
      "duration": 4.26
    },
    {
      "text": "scandalous in the reason why it's so",
      "start": 382.27,
      "duration": 2.91
    },
    {
      "text": "fraudulent is that from the very",
      "start": 383.53,
      "duration": 2.879
    },
    {
      "text": "beginning and all the way through the",
      "start": 385.18,
      "duration": 3.27
    },
    {
      "text": "present it is sold to the general",
      "start": 386.409,
      "duration": 5.73
    },
    {
      "text": "population as if it is some kind of",
      "start": 388.45,
      "duration": 5.489
    },
    {
      "text": "pension plan all right some sort of",
      "start": 392.139,
      "duration": 3.99
    },
    {
      "text": "investment scheme some sort of lock box",
      "start": 393.939,
      "duration": 5.73
    },
    {
      "text": "right so like people will say I'm you",
      "start": 396.129,
      "duration": 5.431
    },
    {
      "text": "know I paid into the system that money",
      "start": 399.669,
      "duration": 7.351
    },
    {
      "text": "is mine and I deserve to get it out but",
      "start": 401.56,
      "duration": 8.96
    },
    {
      "text": "it but that's not how it works you give",
      "start": 407.02,
      "duration": 5.519
    },
    {
      "text": "you know give the government the money",
      "start": 410.52,
      "duration": 4.329
    },
    {
      "text": "the government takes the money and then",
      "start": 412.539,
      "duration": 4.261
    },
    {
      "text": "the money government spends the money",
      "start": 414.849,
      "duration": 6.15
    },
    {
      "text": "and then the government taxes your",
      "start": 416.8,
      "duration": 6.03
    },
    {
      "text": "grandkids to pay for your retirement I",
      "start": 420.999,
      "duration": 5.371
    },
    {
      "text": "mean it is a simple wealth wealth siphon",
      "start": 422.83,
      "duration": 5.459
    },
    {
      "text": "and I would get a lot more respect for",
      "start": 426.37,
      "duration": 3.84
    },
    {
      "text": "old people when they stop demanding this",
      "start": 428.289,
      "duration": 4.171
    },
    {
      "text": "stuff and take responsibility for the",
      "start": 430.21,
      "duration": 3.54
    },
    {
      "text": "trust that they have placed in this",
      "start": 432.46,
      "duration": 5.1
    },
    {
      "text": "monster called the state and say we will",
      "start": 433.75,
      "duration": 6.479
    },
    {
      "text": "not steal from the young for the sake of",
      "start": 437.56,
      "duration": 4.71
    },
    {
      "text": "our mistaken faith in the political",
      "start": 440.229,
      "duration": 4.5
    },
    {
      "text": "system but I do not hold my breath for",
      "start": 442.27,
      "duration": 6.72
    },
    {
      "text": "this and legally the government has no",
      "start": 444.729,
      "duration": 6.12
    },
    {
      "text": "obligation to pay anybody anything kinda",
      "start": 448.99,
      "duration": 3.509
    },
    {
      "text": "the court rulings have a third repeater",
      "start": 450.849,
      "duration": 3.331
    },
    {
      "text": "confirmed repeatedly government isn't",
      "start": 452.499,
      "duration": 5.271
    },
    {
      "text": "obligated to pay anything to you any",
      "start": 454.18,
      "duration": 6.63
    },
    {
      "text": "return any percentage it's not it's not",
      "start": 457.77,
      "duration": 4.929
    },
    {
      "text": "obligated to return any money to you it",
      "start": 460.81,
      "duration": 3.87
    },
    {
      "text": "can it can legally return one penny on",
      "start": 462.699,
      "duration": 5.071
    },
    {
      "text": "the dollar and they're only going to",
      "start": 464.68,
      "duration": 4.799
    },
    {
      "text": "prep provide to you whatever Congress",
      "start": 467.77,
      "duration": 5.31
    },
    {
      "text": "agrees to provide and so I just think",
      "start": 469.479,
      "duration": 5.521
    },
    {
      "text": "it's important so what's in Social",
      "start": 473.08,
      "duration": 4.739
    },
    {
      "text": "Security I mean it's is government bonds",
      "start": 475,
      "duration": 6.06
    },
    {
      "text": "and government bonds our future promises",
      "start": 477.819,
      "duration": 6.12
    },
    {
      "text": "of a payment it's like getting a bunch",
      "start": 481.06,
      "duration": 4.139
    },
    {
      "text": "of visa bills putting them in an",
      "start": 483.939,
      "duration": 3
    },
    {
      "text": "envelope and sending them to visa to pay",
      "start": 485.199,
      "duration": 3.631
    },
    {
      "text": "your latest feasible visa but open that",
      "start": 486.939,
      "duration": 4.32
    },
    {
      "text": "in stable this isn't money this is dead",
      "start": 488.83,
      "duration": 4.679
    },
    {
      "text": "these are obligations this isn't money",
      "start": 491.259,
      "duration": 5.88
    },
    {
      "text": "this is just I owe us so we can't accept",
      "start": 493.509,
      "duration": 5.88
    },
    {
      "text": "iou's as payment for debt because that's",
      "start": 497.139,
      "duration": 5.221
    },
    {
      "text": "insane but it only becomes quote sane in",
      "start": 499.389,
      "duration": 6
    },
    {
      "text": "the madcap arena of government financing",
      "start": 502.36,
      "duration": 4.32
    },
    {
      "text": "so I just really wanted to point that",
      "start": 505.389,
      "duration": 3.96
    },
    {
      "text": "out and I guess we'll get on with the",
      "start": 506.68,
      "duration": 5.789
    },
    {
      "text": "show I'm sorry I'm really tired today my",
      "start": 509.349,
      "duration": 5.31
    },
    {
      "text": "darling daughter poor thing has caught",
      "start": 512.469,
      "duration": 4.44
    },
    {
      "text": "colds and like when I get a cold i get",
      "start": 514.659,
      "duration": 3.57
    },
    {
      "text": "two days of sore throats that really",
      "start": 516.909,
      "duration": 3.54
    },
    {
      "text": "unpleasant and then the damn of",
      "start": 518.229,
      "duration": 4.261
    },
    {
      "text": "snottiness bursts and so she's currently",
      "start": 520.449,
      "duration": 3.57
    },
    {
      "text": "in that face so we're up all night with",
      "start": 522.49,
      "duration": 2.2
    },
    {
      "text": "the poor thing",
      "start": 524.019,
      "duration": 5.411
    },
    {
      "text": "so um I don't know I suppose we'll lead",
      "start": 524.69,
      "duration": 7.62
    },
    {
      "text": "everyone in now how about a guided",
      "start": 529.43,
      "duration": 4.68
    },
    {
      "text": "meditation I will lead everyone in the",
      "start": 532.31,
      "duration": 9.09
    },
    {
      "text": "guided meditation it's called ah I'm so",
      "start": 534.11,
      "duration": 8.61
    },
    {
      "text": "refreshed now let's get home with the",
      "start": 541.4,
      "duration": 3.12
    },
    {
      "text": "sunday show and thank you everyone again",
      "start": 542.72,
      "duration": 3.18
    },
    {
      "text": "for your generosity kindness and good",
      "start": 544.52,
      "duration": 2.76
    },
    {
      "text": "wishes if you would like to contribute",
      "start": 545.9,
      "duration": 3.99
    },
    {
      "text": "to the conversation freedomain radio com",
      "start": 547.28,
      "duration": 5.34
    },
    {
      "text": "forward slash donate is how you can slip",
      "start": 549.89,
      "duration": 6.05
    },
    {
      "text": "a few shekels into my philosophical",
      "start": 552.62,
      "duration": 5.91
    },
    {
      "text": "spandex gold lemme Princess Leia costume",
      "start": 555.94,
      "duration": 3.91
    },
    {
      "text": "which of course came with the headphones",
      "start": 558.53,
      "duration": 3.63
    },
    {
      "text": "so let's get on to the listeners thank",
      "start": 559.85,
      "duration": 5.36
    },
    {
      "text": "you for your attention as always",
      "start": 562.16,
      "duration": 3.05
    }
  ],
  "Errors": null,
  "TranscriptStderr": null
}