{
  "Title": "The Revolt Against Intelligence",
  "Id": "SsIouGO94Jw",
  "Transcript": [
    {
      "text": "are you ready to be scared into action",
      "start": 0.269,
      "duration": 8.551
    },
    {
      "text": "God alive I hope so because we are right",
      "start": 5.25,
      "duration": 5.519
    },
    {
      "text": "in the middle of an incredibly dangerous",
      "start": 8.82,
      "duration": 4.14
    },
    {
      "text": "period in human history it's happened",
      "start": 10.769,
      "duration": 3.901
    },
    {
      "text": "many times before it is my desperate",
      "start": 12.96,
      "duration": 3.21
    },
    {
      "text": "hope that with this communications",
      "start": 14.67,
      "duration": 4.65
    },
    {
      "text": "technology and you sharing these kinds",
      "start": 16.17,
      "duration": 4.68
    },
    {
      "text": "of conversations we can avert it",
      "start": 19.32,
      "duration": 4.67
    },
    {
      "text": "slow it down perhaps even turn it back",
      "start": 20.85,
      "duration": 8.22
    },
    {
      "text": "but we are facing this mounting and",
      "start": 23.99,
      "duration": 8.499
    },
    {
      "text": "dangerous groundswell of and revolt",
      "start": 29.07,
      "duration": 6.06
    },
    {
      "text": "against intelligence a hatred of",
      "start": 32.489,
      "duration": 4.581
    },
    {
      "text": "intelligence a fear of intelligence a",
      "start": 35.13,
      "duration": 4.14
    },
    {
      "text": "superstition about intelligence like",
      "start": 37.07,
      "duration": 4.45
    },
    {
      "text": "there's a reason why zombie movies have",
      "start": 39.27,
      "duration": 5.129
    },
    {
      "text": "become so popular and the only thing you",
      "start": 41.52,
      "duration": 6.09
    },
    {
      "text": "can do is outwit zombies right because",
      "start": 44.399,
      "duration": 4.471
    },
    {
      "text": "they're slow but there's so many of them",
      "start": 47.61,
      "duration": 2.67
    },
    {
      "text": "and that's this revolt against",
      "start": 48.87,
      "duration": 3.84
    },
    {
      "text": "intelligence and it's not innate human",
      "start": 50.28,
      "duration": 4.41
    },
    {
      "text": "entrance because specific information is",
      "start": 52.71,
      "duration": 4.47
    },
    {
      "text": "suppressed about the value of",
      "start": 54.69,
      "duration": 5.61
    },
    {
      "text": "intelligence to everyone having sex just",
      "start": 57.18,
      "duration": 4.429
    },
    {
      "text": "just look around you look at this",
      "start": 60.3,
      "duration": 4.35
    },
    {
      "text": "technology I mean how many brilliant",
      "start": 61.609,
      "duration": 5.291
    },
    {
      "text": "people had to be struck by inspiration",
      "start": 64.65,
      "duration": 5.13
    },
    {
      "text": "and workaholism to produce our capacity",
      "start": 66.9,
      "duration": 6.899
    },
    {
      "text": "to just have this basic conversation it",
      "start": 69.78,
      "duration": 8.159
    },
    {
      "text": "only takes one guy to invent penicillin",
      "start": 73.799,
      "duration": 7.621
    },
    {
      "text": "or one guy to invent a polio vaccine and",
      "start": 77.939,
      "duration": 6.57
    },
    {
      "text": "one guy to figure out planting turnips",
      "start": 81.42,
      "duration": 4.739
    },
    {
      "text": "in the winter and one guy to figure out",
      "start": 84.509,
      "duration": 3.9
    },
    {
      "text": "crop rotation just a certain small",
      "start": 86.159,
      "duration": 7.621
    },
    {
      "text": "amount of brilliance and you can change",
      "start": 88.409,
      "duration": 8.1
    },
    {
      "text": "the course of the entire world now of",
      "start": 93.78,
      "duration": 4.89
    },
    {
      "text": "course the reason why Mart people work",
      "start": 96.509,
      "duration": 4.351
    },
    {
      "text": "very hard and make enormous sacrifices",
      "start": 98.67,
      "duration": 4.47
    },
    {
      "text": "in order to drag the world up the",
      "start": 100.86,
      "duration": 5.52
    },
    {
      "text": "staircase of peace and plenty is because",
      "start": 103.14,
      "duration": 4.83
    },
    {
      "text": "if they're the incentives because of the",
      "start": 106.38,
      "duration": 2.94
    },
    {
      "text": "rewards and we know this because when",
      "start": 107.97,
      "duration": 3.03
    },
    {
      "text": "those incentives and rewards are taken",
      "start": 109.32,
      "duration": 4.589
    },
    {
      "text": "away in a centrally planned socialist or",
      "start": 111,
      "duration": 4.729
    },
    {
      "text": "fascist or or communist economy",
      "start": 113.909,
      "duration": 5.881
    },
    {
      "text": "productivity squelches it ceases and",
      "start": 115.729,
      "duration": 6.701
    },
    {
      "text": "I've been an entrepreneur for about a",
      "start": 119.79,
      "duration": 6.78
    },
    {
      "text": "quarter century now and we know but half",
      "start": 122.43,
      "duration": 5.999
    },
    {
      "text": "the incentives you just you wouldn't",
      "start": 126.57,
      "duration": 3.18
    },
    {
      "text": "take the risks you wouldn't sign the",
      "start": 128.429,
      "duration": 3.45
    },
    {
      "text": "papers that put you in massive debt you",
      "start": 129.75,
      "duration": 3.2
    },
    {
      "text": "wouldn't",
      "start": 131.879,
      "duration": 3.211
    },
    {
      "text": "take the slings and arrows of outrageous",
      "start": 132.95,
      "duration": 4.539
    },
    {
      "text": "pushback if there was not the pot of",
      "start": 135.09,
      "duration": 3.69
    },
    {
      "text": "gold so to speak at the end of the",
      "start": 137.489,
      "duration": 1.621
    },
    {
      "text": "rainbow",
      "start": 138.78,
      "duration": 2.58
    },
    {
      "text": "and so incentives matter it's a basic",
      "start": 139.11,
      "duration": 3.72
    },
    {
      "text": "principle of economics that incentives",
      "start": 141.36,
      "duration": 4.95
    },
    {
      "text": "matter and so the only way that you",
      "start": 142.83,
      "duration": 6
    },
    {
      "text": "unleash and unlock the genius of the",
      "start": 146.31,
      "duration": 5.1
    },
    {
      "text": "species is through the free market and",
      "start": 148.83,
      "duration": 4.53
    },
    {
      "text": "through incentives and then what happens",
      "start": 151.41,
      "duration": 8.49
    },
    {
      "text": "is of course you see those people become",
      "start": 153.36,
      "duration": 8.37
    },
    {
      "text": "very successful they become very wealthy",
      "start": 159.9,
      "duration": 4.25
    },
    {
      "text": "they seem to have better life they have",
      "start": 161.73,
      "duration": 4.8
    },
    {
      "text": "expensive homes they have maybe the best",
      "start": 164.15,
      "duration": 5.86
    },
    {
      "text": "looking wives and rather than saying",
      "start": 166.53,
      "duration": 7.53
    },
    {
      "text": "well that is a tiny price that we pay to",
      "start": 170.01,
      "duration": 6.839
    },
    {
      "text": "unleash all the benevolence of genius in",
      "start": 174.06,
      "duration": 5.34
    },
    {
      "text": "the species which we could do we could",
      "start": 176.849,
      "duration": 4.711
    },
    {
      "text": "we could do that we could look at people",
      "start": 179.4,
      "duration": 6.39
    },
    {
      "text": "who are successful and say their success",
      "start": 181.56,
      "duration": 7.069
    },
    {
      "text": "is a measure of the value they provide",
      "start": 185.79,
      "duration": 7.47
    },
    {
      "text": "to humanity by God let them have their",
      "start": 188.629,
      "duration": 8.291
    },
    {
      "text": "yachts so that I may get running water",
      "start": 193.26,
      "duration": 5.67
    },
    {
      "text": "electricity and medicine let them have",
      "start": 196.92,
      "duration": 8.099
    },
    {
      "text": "their private jets so that I may have",
      "start": 198.93,
      "duration": 9.3
    },
    {
      "text": "the efficiency of their brilliance let",
      "start": 205.019,
      "duration": 6.901
    },
    {
      "text": "them have their beautiful wives so that",
      "start": 208.23,
      "duration": 8.009
    },
    {
      "text": "I get something like antibiotics it's a",
      "start": 211.92,
      "duration": 6.899
    },
    {
      "text": "fair deal it's a fair deal now if that",
      "start": 216.239,
      "duration": 4.201
    },
    {
      "text": "is put forward and people actually",
      "start": 218.819,
      "duration": 7.92
    },
    {
      "text": "understand that then we we can praise",
      "start": 220.44,
      "duration": 10.62
    },
    {
      "text": "and I won't say worship although it's",
      "start": 226.739,
      "duration": 5.851
    },
    {
      "text": "not far off I mean if you're a classical",
      "start": 231.06,
      "duration": 2.94
    },
    {
      "text": "music lover what's your relationship to",
      "start": 232.59,
      "duration": 3.69
    },
    {
      "text": "Mozart you kind of worship the guy he's",
      "start": 234,
      "duration": 4.23
    },
    {
      "text": "a phenomenon and you don't sit there and",
      "start": 236.28,
      "duration": 4.59
    },
    {
      "text": "say Mozart is only famous because he",
      "start": 238.23,
      "duration": 6.15
    },
    {
      "text": "stole all of my music he stole my genius",
      "start": 240.87,
      "duration": 5.61
    },
    {
      "text": "he stole my talent you don't say that",
      "start": 244.38,
      "duration": 5.49
    },
    {
      "text": "because you're saying you look at Mozart",
      "start": 246.48,
      "duration": 5.009
    },
    {
      "text": "and you say wow that was a pretty short",
      "start": 249.87,
      "duration": 4.14
    },
    {
      "text": "and often unhappy life and if taller Tom",
      "start": 251.489,
      "duration": 4.231
    },
    {
      "text": "house is correct had a very giggling",
      "start": 254.01,
      "duration": 4.74
    },
    {
      "text": "shrieking Banshee laugh but look at the",
      "start": 255.72,
      "duration": 6.99
    },
    {
      "text": "legacy he left behind who sits there who",
      "start": 258.75,
      "duration": 7.4
    },
    {
      "text": "loves theater and says that's",
      "start": 262.71,
      "duration": 6.23
    },
    {
      "text": "her bitch Shakespeare's stole my eye",
      "start": 266.15,
      "duration": 5.94
    },
    {
      "text": "ambach he stole my pentameter he stole",
      "start": 268.94,
      "duration": 6.71
    },
    {
      "text": "my speeches and if it wasn't for him I",
      "start": 272.09,
      "duration": 6.299
    },
    {
      "text": "would be as famous as you don't you sit",
      "start": 275.65,
      "duration": 4.15
    },
    {
      "text": "there and say wow I'm really glad that",
      "start": 278.389,
      "duration": 3.861
    },
    {
      "text": "guy decided to put quill to paper and",
      "start": 279.8,
      "duration": 5.61
    },
    {
      "text": "and write it's the same thing with",
      "start": 282.25,
      "duration": 5.05
    },
    {
      "text": "Charles Dickens same thing with music",
      "start": 285.41,
      "duration": 4.47
    },
    {
      "text": "right I mean pop even popular music",
      "start": 287.3,
      "duration": 4.649
    },
    {
      "text": "they're not stealing from you they are",
      "start": 289.88,
      "duration": 3.81
    },
    {
      "text": "contributing and they make your life",
      "start": 291.949,
      "duration": 3.331
    },
    {
      "text": "better they enrich your life music is",
      "start": 293.69,
      "duration": 2.94
    },
    {
      "text": "such a foundation I've actually thought",
      "start": 295.28,
      "duration": 2.88
    },
    {
      "text": "of just doing a whole series on music",
      "start": 296.63,
      "duration": 3.03
    },
    {
      "text": "that I love but music is such a",
      "start": 298.16,
      "duration": 3.75
    },
    {
      "text": "foundational passion of mine I don't sit",
      "start": 299.66,
      "duration": 6.03
    },
    {
      "text": "there and say well those those bastards",
      "start": 301.91,
      "duration": 7.47
    },
    {
      "text": "who are rich you know boy that Paul",
      "start": 305.69,
      "duration": 6.36
    },
    {
      "text": "McCartney guy who and I'm not even that",
      "start": 309.38,
      "duration": 3.96
    },
    {
      "text": "huge a Beatles fan but that Paul",
      "start": 312.05,
      "duration": 3.66
    },
    {
      "text": "McCartney guy you know he needed to make",
      "start": 313.34,
      "duration": 4.62
    },
    {
      "text": "a lot of money so he could give it to",
      "start": 315.71,
      "duration": 5.55
    },
    {
      "text": "his one-legged divorcee I mean he needed",
      "start": 317.96,
      "duration": 5.489
    },
    {
      "text": "well why not what so what the measure of",
      "start": 321.26,
      "duration": 3.48
    },
    {
      "text": "the man's money is the measure of the",
      "start": 323.449,
      "duration": 4.5
    },
    {
      "text": "pleasure and and joy and and and thought",
      "start": 324.74,
      "duration": 5.549
    },
    {
      "text": "and depth that he brought to the general",
      "start": 327.949,
      "duration": 2.911
    },
    {
      "text": "population",
      "start": 330.289,
      "duration": 2.371
    },
    {
      "text": "right so you can you can look at that so",
      "start": 330.86,
      "duration": 4.86
    },
    {
      "text": "you can look at someone like Jeff Bezos",
      "start": 332.66,
      "duration": 4.89
    },
    {
      "text": "now I know there's about 600 million",
      "start": 335.72,
      "duration": 3.6
    },
    {
      "text": "dollar contracts with the CIA",
      "start": 337.55,
      "duration": 4.2
    },
    {
      "text": "look this there's dirt in just about all",
      "start": 339.32,
      "duration": 4.65
    },
    {
      "text": "the money that is in the world expecting",
      "start": 341.75,
      "duration": 3.78
    },
    {
      "text": "pure money is like expecting there never",
      "start": 343.97,
      "duration": 3.72
    },
    {
      "text": "to be any germs on any piece of coinage",
      "start": 345.53,
      "duration": 4.379
    },
    {
      "text": "or currency that you fondle right I mean",
      "start": 347.69,
      "duration": 5.009
    },
    {
      "text": "you can look at that for sure but it's",
      "start": 349.909,
      "duration": 6.48
    },
    {
      "text": "still a long way from blood diamonds",
      "start": 352.699,
      "duration": 5.641
    },
    {
      "text": "it's a long way from the Federal Reserve",
      "start": 356.389,
      "duration": 3.981
    },
    {
      "text": "counterfeit money printing scheme that",
      "start": 358.34,
      "duration": 5.28
    },
    {
      "text": "destroys the poor at the expense well",
      "start": 360.37,
      "duration": 4.66
    },
    {
      "text": "enriches the rich at the expense of the",
      "start": 363.62,
      "duration": 4.14
    },
    {
      "text": "poor so you can look at some Amazon oh",
      "start": 365.03,
      "duration": 4.169
    },
    {
      "text": "it's but I put these people out of",
      "start": 367.76,
      "duration": 2.61
    },
    {
      "text": "business and so on and so you can look",
      "start": 369.199,
      "duration": 2.4
    },
    {
      "text": "at all of that and you can see the",
      "start": 370.37,
      "duration": 3.15
    },
    {
      "text": "going-out-of-business signs and you can",
      "start": 371.599,
      "duration": 2.701
    },
    {
      "text": "say well they're destroying the",
      "start": 373.52,
      "duration": 1.95
    },
    {
      "text": "neighborhood and so on it's like but",
      "start": 374.3,
      "duration": 4.38
    },
    {
      "text": "it's like eBay think of all the",
      "start": 375.47,
      "duration": 4.5
    },
    {
      "text": "businesses that have been generated",
      "start": 378.68,
      "duration": 2.519
    },
    {
      "text": "think of all the people who don't have",
      "start": 379.97,
      "duration": 2.61
    },
    {
      "text": "to commune anymore think of all the",
      "start": 381.199,
      "duration": 3.09
    },
    {
      "text": "people who can pursue their dreams of",
      "start": 382.58,
      "duration": 2.76
    },
    {
      "text": "running their own business without",
      "start": 384.289,
      "duration": 3.681
    },
    {
      "text": "needing a massive amount of investment",
      "start": 385.34,
      "duration": 5.4
    },
    {
      "text": "think of the efficiency that is",
      "start": 387.97,
      "duration": 4
    },
    {
      "text": "occurring think of instead of people",
      "start": 390.74,
      "duration": 4.41
    },
    {
      "text": "drive into stores instead of 10 people",
      "start": 391.97,
      "duration": 5.43
    },
    {
      "text": "on a block drive into stores one truck",
      "start": 395.15,
      "duration": 3.78
    },
    {
      "text": "can come by and deliver ten things and",
      "start": 397.4,
      "duration": 2.26
    },
    {
      "text": "think about environm",
      "start": 398.93,
      "duration": 1.96
    },
    {
      "text": "mentally frankly it is think of how",
      "start": 399.66,
      "duration": 3.18
    },
    {
      "text": "efficient it is think of how secure it",
      "start": 400.89,
      "duration": 4.5
    },
    {
      "text": "is and how safe it is and I am gay so",
      "start": 402.84,
      "duration": 4.65
    },
    {
      "text": "you can even look look at the people who",
      "start": 405.39,
      "duration": 4.08
    },
    {
      "text": "are wealthy and say they're thieves and",
      "start": 407.49,
      "duration": 3.81
    },
    {
      "text": "exploiters and stealers or you can say",
      "start": 409.47,
      "duration": 6.09
    },
    {
      "text": "wow the money is a measure of their",
      "start": 411.3,
      "duration": 5.67
    },
    {
      "text": "benefit to the planet and again I'm",
      "start": 415.56,
      "duration": 3.21
    },
    {
      "text": "talking about a free market in its ideal",
      "start": 416.97,
      "duration": 4.26
    },
    {
      "text": "and blah blah blah exceptions who cares",
      "start": 418.77,
      "duration": 7.02
    },
    {
      "text": "right who cares I mean this if I say",
      "start": 421.23,
      "duration": 7.74
    },
    {
      "text": "it's a sunny day and you point out that",
      "start": 425.79,
      "duration": 8.04
    },
    {
      "text": "there's one tiny little cloud on the",
      "start": 428.97,
      "duration": 9.21
    },
    {
      "text": "horizon I'm not a violent guy but it's a",
      "start": 433.83,
      "duration": 7.38
    },
    {
      "text": "little punchy ball it just is little",
      "start": 438.18,
      "duration": 5.1
    },
    {
      "text": "exceptions yeah I understand",
      "start": 441.21,
      "duration": 6.98
    },
    {
      "text": "generalities I I know a tall pygmy mm",
      "start": 443.28,
      "duration": 7.35
    },
    {
      "text": "Naxals not all acts are like that yeah",
      "start": 448.19,
      "duration": 4
    },
    {
      "text": "yeah we get it we get mean I get it but",
      "start": 450.63,
      "duration": 2.64
    },
    {
      "text": "but still there's a difference between",
      "start": 452.19,
      "duration": 4.26
    },
    {
      "text": "North Korea and a relative free market",
      "start": 453.27,
      "duration": 4.83
    },
    {
      "text": "like exists in the West I get all of",
      "start": 456.45,
      "duration": 2.88
    },
    {
      "text": "that so let's just put all of that aside",
      "start": 458.1,
      "duration": 4.82
    },
    {
      "text": "because that nitpicky crap is you know",
      "start": 459.33,
      "duration": 8.19
    },
    {
      "text": "anyway so the reason why there's this",
      "start": 462.92,
      "duration": 7.54
    },
    {
      "text": "backlash against intelligence is because",
      "start": 467.52,
      "duration": 4.86
    },
    {
      "text": "intelligence is seen as predatory rather",
      "start": 470.46,
      "duration": 4.1
    },
    {
      "text": "than beneficial intelligence is seen as",
      "start": 472.38,
      "duration": 4.61
    },
    {
      "text": "exploitive rather than generative",
      "start": 474.56,
      "duration": 5.2
    },
    {
      "text": "intelligence so some brilliant guy comes",
      "start": 476.99,
      "duration": 4.3
    },
    {
      "text": "along and starts a factory that ends up",
      "start": 479.76,
      "duration": 5.7
    },
    {
      "text": "employing a thousand people that guy",
      "start": 481.29,
      "duration": 6.87
    },
    {
      "text": "gets very rich and instead of saying wow",
      "start": 485.46,
      "duration": 5.91
    },
    {
      "text": "he created a thousand jobs that's a",
      "start": 488.16,
      "duration": 6.83
    },
    {
      "text": "thousand people making $50,000 a year",
      "start": 491.37,
      "duration": 6.42
    },
    {
      "text": "who otherwise wouldn't have jobs and it",
      "start": 494.99,
      "duration": 4.179
    },
    {
      "text": "even benefits the people who aren't",
      "start": 497.79,
      "duration": 3.06
    },
    {
      "text": "working there because he's taken or his",
      "start": 499.169,
      "duration": 4.621
    },
    {
      "text": "demand he's put into or taken out of",
      "start": 500.85,
      "duration": 4.95
    },
    {
      "text": "circulation a thousand workers which",
      "start": 503.79,
      "duration": 3.39
    },
    {
      "text": "bids up the wages of all the other",
      "start": 505.8,
      "duration": 4.26
    },
    {
      "text": "workers so he's benefiting everyone say",
      "start": 507.18,
      "duration": 4.23
    },
    {
      "text": "well he's very rich and you can look and",
      "start": 510.06,
      "duration": 3.89
    },
    {
      "text": "say well but you see he's paying the",
      "start": 511.41,
      "duration": 7.86
    },
    {
      "text": "workers less than he makes from the",
      "start": 513.95,
      "duration": 6.7
    },
    {
      "text": "product of the labor and it's like of",
      "start": 519.27,
      "duration": 5.46
    },
    {
      "text": "course he is of course he is the pursuit",
      "start": 520.65,
      "duration": 7.47
    },
    {
      "text": "of profit is foundational to evolution",
      "start": 524.73,
      "duration": 5.82
    },
    {
      "text": "it's foundational to life I mean good",
      "start": 528.12,
      "duration": 4.86
    },
    {
      "text": "guy just think of the basic equation of",
      "start": 530.55,
      "duration": 3
    },
    {
      "text": "profit",
      "start": 532.98,
      "duration": 4.14
    },
    {
      "text": "do you spend more calories getting your",
      "start": 533.55,
      "duration": 6.9
    },
    {
      "text": "food then you get out of your food not",
      "start": 537.12,
      "duration": 5.64
    },
    {
      "text": "that complicated right if you crawl to",
      "start": 540.45,
      "duration": 4.35
    },
    {
      "text": "McDonald's cost you 500 calories and",
      "start": 542.76,
      "duration": 4.32
    },
    {
      "text": "then you order a wrap that's 250",
      "start": 544.8,
      "duration": 5.28
    },
    {
      "text": "calories you're down 250 calories you",
      "start": 547.08,
      "duration": 5.7
    },
    {
      "text": "know there's no life without profit you",
      "start": 550.08,
      "duration": 6.03
    },
    {
      "text": "have to exceed your calorie expenditure",
      "start": 552.78,
      "duration": 6.89
    },
    {
      "text": "in your calorie consumption or you die",
      "start": 556.11,
      "duration": 6.36
    },
    {
      "text": "profit is foundational you're watching",
      "start": 559.67,
      "duration": 4.99
    },
    {
      "text": "this video because you hope and I",
      "start": 562.47,
      "duration": 4.23
    },
    {
      "text": "believe that you will gain more wisdom",
      "start": 564.66,
      "duration": 3.81
    },
    {
      "text": "out of this video then you would by",
      "start": 566.7,
      "duration": 4.47
    },
    {
      "text": "doing something else and I think this is",
      "start": 568.47,
      "duration": 4.08
    },
    {
      "text": "the greatest show in the history of the",
      "start": 571.17,
      "duration": 3.15
    },
    {
      "text": "world and the greatest show in the end",
      "start": 572.55,
      "duration": 2.79
    },
    {
      "text": "up in the present certainly in",
      "start": 574.32,
      "duration": 3.99
    },
    {
      "text": "philosophy so I share your optimism",
      "start": 575.34,
      "duration": 5.16
    },
    {
      "text": "about the the profit that you hope to",
      "start": 578.31,
      "duration": 4.89
    },
    {
      "text": "accrue if you want to go and ask a woman",
      "start": 580.5,
      "duration": 6.09
    },
    {
      "text": "out if she will go out with you",
      "start": 583.2,
      "duration": 6.84
    },
    {
      "text": "you've profited from that right you buy",
      "start": 586.59,
      "duration": 5.31
    },
    {
      "text": "a new suit and you you you want to get a",
      "start": 590.04,
      "duration": 3.75
    },
    {
      "text": "job if you get the job you've profited",
      "start": 591.9,
      "duration": 3.24
    },
    {
      "text": "from the new suit like you understand",
      "start": 593.79,
      "duration": 5.4
    },
    {
      "text": "profit is not some immoral thing that is",
      "start": 595.14,
      "duration": 6.81
    },
    {
      "text": "exploitable it's we all want that we all",
      "start": 599.19,
      "duration": 10.08
    },
    {
      "text": "want that we all need that and so if you",
      "start": 601.95,
      "duration": 10.41
    },
    {
      "text": "go out and get some wood to put in your",
      "start": 609.27,
      "duration": 5.55
    },
    {
      "text": "stove over the winter over a winter",
      "start": 612.36,
      "duration": 4.55
    },
    {
      "text": "night you need to profit from that right",
      "start": 614.82,
      "duration": 5.37
    },
    {
      "text": "you need to stay alive and for that you",
      "start": 616.91,
      "duration": 6.28
    },
    {
      "text": "need heat so you profit from going to",
      "start": 620.19,
      "duration": 4.77
    },
    {
      "text": "get the right it's just so foundational",
      "start": 623.19,
      "duration": 6.05
    },
    {
      "text": "that anyone who rails against profit is",
      "start": 624.96,
      "duration": 7.38
    },
    {
      "text": "well they're infected by this this virus",
      "start": 629.24,
      "duration": 5.65
    },
    {
      "text": "this hatred of intelligence this hatred",
      "start": 632.34,
      "duration": 6.42
    },
    {
      "text": "of competence this hatred of genius of",
      "start": 634.89,
      "duration": 6.48
    },
    {
      "text": "brilliance it's really really tragic",
      "start": 638.76,
      "duration": 5.64
    },
    {
      "text": "because what happens is for most of",
      "start": 641.37,
      "duration": 5.46
    },
    {
      "text": "human history the only meritocracy has",
      "start": 644.4,
      "duration": 4.49
    },
    {
      "text": "been sociopathy right the only",
      "start": 646.83,
      "duration": 5.45
    },
    {
      "text": "meritocracy has been our capacity for",
      "start": 648.89,
      "duration": 8.62
    },
    {
      "text": "violence and the free market kind of",
      "start": 652.28,
      "duration": 7
    },
    {
      "text": "changed that around kind of mix that up",
      "start": 657.51,
      "duration": 3.63
    },
    {
      "text": "a little bit so instead of killing",
      "start": 659.28,
      "duration": 5.12
    },
    {
      "text": "people you served their voluntary needs",
      "start": 661.14,
      "duration": 5.43
    },
    {
      "text": "you served their voluntary needs now",
      "start": 664.4,
      "duration": 2.95
    },
    {
      "text": "once you started",
      "start": 666.57,
      "duration": 2.07
    },
    {
      "text": "their voluntary needs rather than",
      "start": 667.35,
      "duration": 4.74
    },
    {
      "text": "killing people then society did the",
      "start": 668.64,
      "duration": 5.37
    },
    {
      "text": "great catapult leap upwards which",
      "start": 672.09,
      "duration": 4.77
    },
    {
      "text": "started in the 18th century a little bit",
      "start": 674.01,
      "duration": 5.34
    },
    {
      "text": "earlier but Agricultural Revolution the",
      "start": 676.86,
      "duration": 7.44
    },
    {
      "text": "Industrial Revolution the the the",
      "start": 679.35,
      "duration": 6.99
    },
    {
      "text": "manufacturing revolution the information",
      "start": 684.3,
      "duration": 3.66
    },
    {
      "text": "revolution like all of this stuff",
      "start": 686.34,
      "duration": 4.05
    },
    {
      "text": "happened because we turned the",
      "start": 687.96,
      "duration": 4.74
    },
    {
      "text": "meritocracy from violence right who was",
      "start": 690.39,
      "duration": 4.56
    },
    {
      "text": "the king the king was the best murderer",
      "start": 692.7,
      "duration": 4.65
    },
    {
      "text": "or the guy who rewarded the best",
      "start": 694.95,
      "duration": 3.84
    },
    {
      "text": "murderers who were the aristocracy in",
      "start": 697.35,
      "duration": 2.76
    },
    {
      "text": "general the people who served the king",
      "start": 698.79,
      "duration": 3
    },
    {
      "text": "by murdering his enemies so basically it",
      "start": 700.11,
      "duration": 3.03
    },
    {
      "text": "was just this big giant mafia",
      "start": 701.79,
      "duration": 2.7
    },
    {
      "text": "meritocracy throughout most of human",
      "start": 703.14,
      "duration": 4.89
    },
    {
      "text": "history and still is across most of the",
      "start": 704.49,
      "duration": 6.87
    },
    {
      "text": "world now changing it from a mafia",
      "start": 708.03,
      "duration": 7.2
    },
    {
      "text": "meritocracy to a money meritocracy is is",
      "start": 711.36,
      "duration": 5.76
    },
    {
      "text": "the most stunning change that has ever",
      "start": 715.23,
      "duration": 5.82
    },
    {
      "text": "occurred in human history and it's",
      "start": 717.12,
      "duration": 7.35
    },
    {
      "text": "really great it's really great for",
      "start": 721.05,
      "duration": 6.69
    },
    {
      "text": "people who are intelligent for people",
      "start": 724.47,
      "duration": 4.62
    },
    {
      "text": "who are hardworking for people who are",
      "start": 727.74,
      "duration": 2.94
    },
    {
      "text": "productive and for people who are",
      "start": 729.09,
      "duration": 4.11
    },
    {
      "text": "empathetic yeah everyone thinks that the",
      "start": 730.68,
      "duration": 4.14
    },
    {
      "text": "market is some sort of cult I'd you know",
      "start": 733.2,
      "duration": 4.04
    },
    {
      "text": "dry calculations of mutual utility",
      "start": 734.82,
      "duration": 8.7
    },
    {
      "text": "exploitation and blah blah it's ok you",
      "start": 737.24,
      "duration": 8.11
    },
    {
      "text": "know there's people who've never run a",
      "start": 743.52,
      "duration": 3.6
    },
    {
      "text": "business I mean people who coming Marx",
      "start": 745.35,
      "duration": 3.24
    },
    {
      "text": "for heaven's sakes I mean the guy",
      "start": 747.12,
      "duration": 3.81
    },
    {
      "text": "couldn't even get a job as a clerk at a",
      "start": 748.59,
      "duration": 4.14
    },
    {
      "text": "railway station and as his mother said I",
      "start": 750.93,
      "duration": 5.19
    },
    {
      "text": "wish Karl Marx would stop writing about",
      "start": 752.73,
      "duration": 5.46
    },
    {
      "text": "capital and start making some and Karl",
      "start": 756.12,
      "duration": 4.23
    },
    {
      "text": "Marx of course exploited the workers",
      "start": 758.19,
      "duration": 3.96
    },
    {
      "text": "through angles who had inherited a",
      "start": 760.35,
      "duration": 3.87
    },
    {
      "text": "factory and gave all the profits to to",
      "start": 762.15,
      "duration": 4.38
    },
    {
      "text": "Marx and he also exploited his own maid",
      "start": 764.22,
      "duration": 4.89
    },
    {
      "text": "who he had perhaps consensual sex with",
      "start": 766.53,
      "duration": 4.26
    },
    {
      "text": "got pregnant and threw her hat on the",
      "start": 769.11,
      "duration": 2.85
    },
    {
      "text": "street refused to acknowledge his own",
      "start": 770.79,
      "duration": 6.39
    },
    {
      "text": "son but this switched to a meritocracy",
      "start": 771.96,
      "duration": 7.17
    },
    {
      "text": "of money a voluntary exchange of",
      "start": 777.18,
      "duration": 3.9
    },
    {
      "text": "voluntary trade was the single biggest",
      "start": 779.13,
      "duration": 4.17
    },
    {
      "text": "staggering advancement that society has",
      "start": 781.08,
      "duration": 4.62
    },
    {
      "text": "ever had and what it did of course was",
      "start": 783.3,
      "duration": 5.1
    },
    {
      "text": "it produced massive truly",
      "start": 785.7,
      "duration": 4.29
    },
    {
      "text": "incomprehensible amounts of wealth I",
      "start": 788.4,
      "duration": 2.85
    },
    {
      "text": "mean go back a couple hundred years and",
      "start": 789.99,
      "duration": 3.24
    },
    {
      "text": "tell people how you live they will think",
      "start": 791.25,
      "duration": 3.93
    },
    {
      "text": "you live in a perfect and pure paradise",
      "start": 793.23,
      "duration": 5.79
    },
    {
      "text": "compared to where they are you know when",
      "start": 795.18,
      "duration": 5.7
    },
    {
      "text": "half the children died before the age of",
      "start": 799.02,
      "duration": 2.16
    },
    {
      "text": "five",
      "start": 800.88,
      "duration": 2.43
    },
    {
      "text": "and you can't snow defense against",
      "start": 801.18,
      "duration": 4.26
    },
    {
      "text": "disease going to a doctor until the mid",
      "start": 803.31,
      "duration": 3.69
    },
    {
      "text": "19th century actually was more dangerous",
      "start": 805.44,
      "duration": 3.17
    },
    {
      "text": "to your health than staying away",
      "start": 807,
      "duration": 5.1
    },
    {
      "text": "regularly losing teeth and and just",
      "start": 808.61,
      "duration": 6.46
    },
    {
      "text": "absolutely appalling war and and regular",
      "start": 812.1,
      "duration": 4.61
    },
    {
      "text": "famines and so on like without",
      "start": 815.07,
      "duration": 3.75
    },
    {
      "text": "communication and transportation systems",
      "start": 816.71,
      "duration": 4.3
    },
    {
      "text": "you literally had villages fifteen miles",
      "start": 818.82,
      "duration": 3.6
    },
    {
      "text": "from each other one had too much food",
      "start": 821.01,
      "duration": 2.52
    },
    {
      "text": "was rotting in the fields the other",
      "start": 822.42,
      "duration": 2.31
    },
    {
      "text": "would be starving to death because they",
      "start": 823.53,
      "duration": 5.6
    },
    {
      "text": "just didn't know or didn't know I mean",
      "start": 824.73,
      "duration": 6.84
    },
    {
      "text": "you have push button houses that",
      "start": 829.13,
      "duration": 3.91
    },
    {
      "text": "maintain comfortable temperatures really",
      "start": 831.57,
      "duration": 3.27
    },
    {
      "text": "around no matter where you are I mean",
      "start": 833.04,
      "duration": 3.9
    },
    {
      "text": "this is truly astounding just I mean",
      "start": 834.84,
      "duration": 3.81
    },
    {
      "text": "think of this it's just if I think about",
      "start": 836.94,
      "duration": 5.55
    },
    {
      "text": "this sometimes when I I get a cup of",
      "start": 838.65,
      "duration": 5.85
    },
    {
      "text": "water or a glass of water and I put some",
      "start": 842.49,
      "duration": 4.65
    },
    {
      "text": "ice in it just think about that think",
      "start": 844.5,
      "duration": 6.69
    },
    {
      "text": "about that that cube of ice go back a",
      "start": 847.14,
      "duration": 8.4
    },
    {
      "text": "thousand years it's really hot where can",
      "start": 851.19,
      "duration": 7.77
    },
    {
      "text": "you get ice from can you imagine I guess",
      "start": 855.54,
      "duration": 4.65
    },
    {
      "text": "if you're in the bottom of some high",
      "start": 858.96,
      "duration": 5.57
    },
    {
      "text": "mountains you could pay some courtier to",
      "start": 860.19,
      "duration": 7.23
    },
    {
      "text": "hack off some ice and ride down as",
      "start": 864.53,
      "duration": 4.63
    },
    {
      "text": "quickly as humanly possible risking life",
      "start": 867.42,
      "duration": 3.12
    },
    {
      "text": "and limb and then you could get one or",
      "start": 869.16,
      "duration": 5.04
    },
    {
      "text": "two cubes in your water but you'd have",
      "start": 870.54,
      "duration": 5.85
    },
    {
      "text": "to be a king or fantastically rich so",
      "start": 874.2,
      "duration": 4.79
    },
    {
      "text": "just think of ice for heaven's sakes",
      "start": 876.39,
      "duration": 6.18
    },
    {
      "text": "when I was a kid a friend of Mines",
      "start": 878.99,
      "duration": 6.58
    },
    {
      "text": "father ran an HVAC company and he gave",
      "start": 882.57,
      "duration": 11.4
    },
    {
      "text": "me a leftover air conditioner and you",
      "start": 885.57,
      "duration": 10.17
    },
    {
      "text": "know man if you spend time Canadian",
      "start": 893.97,
      "duration": 3.03
    },
    {
      "text": "summers can get pretty hot and pretty",
      "start": 895.74,
      "duration": 3.84
    },
    {
      "text": "damn humid and it's tough to sleep you",
      "start": 897,
      "duration": 5.91
    },
    {
      "text": "know when it's too hot and I remember",
      "start": 899.58,
      "duration": 5.88
    },
    {
      "text": "being out and and working this is funny",
      "start": 902.91,
      "duration": 4.29
    },
    {
      "text": "I think I was about 16 yeah I was lower",
      "start": 905.46,
      "duration": 2.97
    },
    {
      "text": "than already living on my own we had",
      "start": 907.2,
      "duration": 5.4
    },
    {
      "text": "roommates and I remember coming into the",
      "start": 908.43,
      "duration": 6.09
    },
    {
      "text": "apartment building I would open the door",
      "start": 912.6,
      "duration": 4.29
    },
    {
      "text": "and there with this business this breeze",
      "start": 914.52,
      "duration": 8.79
    },
    {
      "text": "of cool air like just base physical",
      "start": 916.89,
      "duration": 8.73
    },
    {
      "text": "pleasure of a comfortable temperature",
      "start": 923.31,
      "duration": 7.38
    },
    {
      "text": "just amazing stuff amazing stuff that",
      "start": 925.62,
      "duration": 7.62
    },
    {
      "text": "occurs in the modern world and and we",
      "start": 930.69,
      "duration": 3.53
    },
    {
      "text": "all benefit right",
      "start": 933.24,
      "duration": 3.02
    },
    {
      "text": "but here's what happens so when there's",
      "start": 934.22,
      "duration": 4.26
    },
    {
      "text": "a meritocracy of murder people are too",
      "start": 936.26,
      "duration": 4.62
    },
    {
      "text": "scared to complain because when it's a",
      "start": 938.48,
      "duration": 4.83
    },
    {
      "text": "meritocracy of murder yeah not gonna",
      "start": 940.88,
      "duration": 5.04
    },
    {
      "text": "live very long if you complain about the",
      "start": 943.31,
      "duration": 4.59
    },
    {
      "text": "best murderer with the tallest crown",
      "start": 945.92,
      "duration": 4.74
    },
    {
      "text": "right but when it's the meritocracy of",
      "start": 947.9,
      "duration": 4.95
    },
    {
      "text": "money that's different and also you can",
      "start": 950.66,
      "duration": 4.5
    },
    {
      "text": "only murder so many people when you have",
      "start": 952.85,
      "duration": 4.08
    },
    {
      "text": "hand-to-hand combat weapons and so on",
      "start": 955.16,
      "duration": 2.19
    },
    {
      "text": "right",
      "start": 956.93,
      "duration": 2.46
    },
    {
      "text": "it's why the guillotine was invented",
      "start": 957.35,
      "duration": 4.02
    },
    {
      "text": "right that the originator of the",
      "start": 959.39,
      "duration": 2.97
    },
    {
      "text": "guillotine oh the inventor of the",
      "start": 961.37,
      "duration": 2.94
    },
    {
      "text": "guillotine ended up succumbing to under",
      "start": 962.36,
      "duration": 2.79
    },
    {
      "text": "the reign of terror and the French",
      "start": 964.31,
      "duration": 4.53
    },
    {
      "text": "Revolution but it's hard to kill that",
      "start": 965.15,
      "duration": 5.31
    },
    {
      "text": "many people but so the meritocracy of",
      "start": 968.84,
      "duration": 2.82
    },
    {
      "text": "murder doesn't end up with massive",
      "start": 970.46,
      "duration": 3.24
    },
    {
      "text": "disparities the king doesn't have access",
      "start": 971.66,
      "duration": 4.23
    },
    {
      "text": "to much better medicine or any better",
      "start": 973.7,
      "duration": 4.86
    },
    {
      "text": "medicine than the commoner the king has",
      "start": 975.89,
      "duration": 3.99
    },
    {
      "text": "a bigger house but it doesn't",
      "start": 978.56,
      "duration": 3.69
    },
    {
      "text": "air-conditioning right the King doesn't",
      "start": 979.88,
      "duration": 3.93
    },
    {
      "text": "have electricity while you don't have",
      "start": 982.25,
      "duration": 3.32
    },
    {
      "text": "any so the king lives in a bigger house",
      "start": 983.81,
      "duration": 4.65
    },
    {
      "text": "but the king has gout and the King has",
      "start": 985.57,
      "duration": 4.96
    },
    {
      "text": "weird infections in the sebaceous glands",
      "start": 988.46,
      "duration": 4.38
    },
    {
      "text": "on his scalp like one of my ancestors",
      "start": 990.53,
      "duration": 6.36
    },
    {
      "text": "right so it's there's a difference in",
      "start": 992.84,
      "duration": 6.63
    },
    {
      "text": "power and so on but well plus of course",
      "start": 996.89,
      "duration": 4.2
    },
    {
      "text": "there's a whole great chain of being",
      "start": 999.47,
      "duration": 3.89
    },
    {
      "text": "right the whole the the king is to head",
      "start": 1001.09,
      "duration": 4.92
    },
    {
      "text": "the the the priests of the soul that the",
      "start": 1003.36,
      "duration": 4.9
    },
    {
      "text": "peasants of the arms and head and hands",
      "start": 1006.01,
      "duration": 3.69
    },
    {
      "text": "and the soldiers of the swords are all",
      "start": 1008.26,
      "duration": 2.52
    },
    {
      "text": "supposed to fit together in some",
      "start": 1009.7,
      "duration": 3.72
    },
    {
      "text": "particular way so there was a",
      "start": 1010.78,
      "duration": 4.74
    },
    {
      "text": "theological explanation and the",
      "start": 1013.42,
      "duration": 6.24
    },
    {
      "text": "disparity between rich and poor was not",
      "start": 1015.52,
      "duration": 6.45
    },
    {
      "text": "nearly as great as as it is now because",
      "start": 1019.66,
      "duration": 4.62
    },
    {
      "text": "the murder meritocracy doesn't end up",
      "start": 1021.97,
      "duration": 4.56
    },
    {
      "text": "with us great a differentiation between",
      "start": 1024.28,
      "duration": 5.07
    },
    {
      "text": "human beings well and of course you",
      "start": 1026.53,
      "duration": 3.27
    },
    {
      "text": "can't",
      "start": 1029.35,
      "duration": 2.31
    },
    {
      "text": "in a sense hand down your murder",
      "start": 1029.8,
      "duration": 3.36
    },
    {
      "text": "meritocracy to your kids certainly but",
      "start": 1031.66,
      "duration": 2.88
    },
    {
      "text": "the king you can I understand all of",
      "start": 1033.16,
      "duration": 3
    },
    {
      "text": "that never slots of hereditary monarchy",
      "start": 1034.54,
      "duration": 4.08
    },
    {
      "text": "and so on but it's not quite the same as",
      "start": 1036.16,
      "duration": 4.77
    },
    {
      "text": "as as cash which you bequeath to your",
      "start": 1038.62,
      "duration": 4.62
    },
    {
      "text": "children or real estate or resources or",
      "start": 1040.93,
      "duration": 6.72
    },
    {
      "text": "whatever assets you have so when you get",
      "start": 1043.24,
      "duration": 6.36
    },
    {
      "text": "a free market you get a meritocracy",
      "start": 1047.65,
      "duration": 3.99
    },
    {
      "text": "which almost begins to look like a",
      "start": 1049.6,
      "duration": 4.02
    },
    {
      "text": "different species now okay rising tide",
      "start": 1051.64,
      "duration": 4.38
    },
    {
      "text": "raises all boats but but it's a Jeff",
      "start": 1053.62,
      "duration": 4.05
    },
    {
      "text": "Bezos worth now like well over a hundred",
      "start": 1056.02,
      "duration": 3.78
    },
    {
      "text": "billion dollars right and people do this",
      "start": 1057.67,
      "duration": 3.9
    },
    {
      "text": "regularly they say ah well you know the",
      "start": 1059.8,
      "duration": 6.51
    },
    {
      "text": "the CEO salary is 2,000 times the salary",
      "start": 1061.57,
      "duration": 6.29
    },
    {
      "text": "of the worker",
      "start": 1066.31,
      "duration": 5.64
    },
    {
      "text": "but you know think of a rock band that's",
      "start": 1067.86,
      "duration": 6.61
    },
    {
      "text": "on tour right a Katy Perry's pay as two",
      "start": 1071.95,
      "duration": 5.54
    },
    {
      "text": "thousand times that of the roadies why",
      "start": 1074.47,
      "duration": 6.99
    },
    {
      "text": "because Katy Perry is not replaceable",
      "start": 1077.49,
      "duration": 6.61
    },
    {
      "text": "and the roadies are right so no if",
      "start": 1081.46,
      "duration": 4.29
    },
    {
      "text": "you're of Katy Perry fan you go see Katy",
      "start": 1084.1,
      "duration": 4.169
    },
    {
      "text": "Perry not the work of the roadies right",
      "start": 1085.75,
      "duration": 4.169
    },
    {
      "text": "so it's you know there is there is no",
      "start": 1088.269,
      "duration": 3.061
    },
    {
      "text": "job for the roadies without Katy Perry",
      "start": 1089.919,
      "duration": 3.12
    },
    {
      "text": "but Katy Perry certainly has a job if",
      "start": 1091.33,
      "duration": 3.12
    },
    {
      "text": "she fires the roadie right so it's just",
      "start": 1093.039,
      "duration": 3.63
    },
    {
      "text": "supply and demand uniqueness and and",
      "start": 1094.45,
      "duration": 4.079
    },
    {
      "text": "meritocracy and Katy Perry is you know",
      "start": 1096.669,
      "duration": 5.49
    },
    {
      "text": "very good-looking she's stacked she well",
      "start": 1098.529,
      "duration": 5.311
    },
    {
      "text": "she used to be very good-looking until",
      "start": 1102.159,
      "duration": 3.301
    },
    {
      "text": "the leftist got their hooks into her and",
      "start": 1103.84,
      "duration": 3.51
    },
    {
      "text": "she's a great singer great songwriter",
      "start": 1105.46,
      "duration": 3.86
    },
    {
      "text": "great performer and all of that and",
      "start": 1107.35,
      "duration": 4.949
    },
    {
      "text": "obviously is not sane enough to avoid",
      "start": 1109.32,
      "duration": 5.5
    },
    {
      "text": "marrying Russell Crowe who is now going",
      "start": 1112.299,
      "duration": 4.83
    },
    {
      "text": "through his inevitable middle aged",
      "start": 1114.82,
      "duration": 5.579
    },
    {
      "text": "hippie Jesus phase but yeah that's just",
      "start": 1117.129,
      "duration": 4.68
    },
    {
      "text": "just the reality this is supply and",
      "start": 1120.399,
      "duration": 3.24
    },
    {
      "text": "demand right supply and demand it's not",
      "start": 1121.809,
      "duration": 5.22
    },
    {
      "text": "unfair because the CEO doesn't determine",
      "start": 1123.639,
      "duration": 5.851
    },
    {
      "text": "his own salary you CEO it doesn't just",
      "start": 1127.029,
      "duration": 3.661
    },
    {
      "text": "get there and say well I want two",
      "start": 1129.49,
      "duration": 2.669
    },
    {
      "text": "thousand it's not some guy comes into",
      "start": 1130.69,
      "duration": 3.209
    },
    {
      "text": "the building it says I want two thousand",
      "start": 1132.159,
      "duration": 5.13
    },
    {
      "text": "times to pay the workers it's not it's",
      "start": 1133.899,
      "duration": 5.311
    },
    {
      "text": "not the CEO who chooses the salary it's",
      "start": 1137.289,
      "duration": 3.931
    },
    {
      "text": "this customers who choose his salary his",
      "start": 1139.21,
      "duration": 3.75
    },
    {
      "text": "customers needs as interpreted by the",
      "start": 1141.22,
      "duration": 3.78
    },
    {
      "text": "Board of Directors by the shareholders",
      "start": 1142.96,
      "duration": 4.77
    },
    {
      "text": "and so on I mean I was involved in in a",
      "start": 1145,
      "duration": 4.44
    },
    {
      "text": "parent my company was bought by a",
      "start": 1147.73,
      "duration": 3.059
    },
    {
      "text": "company that then went public on the",
      "start": 1149.44,
      "duration": 2.939
    },
    {
      "text": "Alberta stock exchange so I know quite a",
      "start": 1150.789,
      "duration": 2.671
    },
    {
      "text": "bit of the ins and outs and how all this",
      "start": 1152.379,
      "duration": 4.111
    },
    {
      "text": "stuff works and if you want to raise as",
      "start": 1153.46,
      "duration": 4.89
    },
    {
      "text": "a CEO I was chief technical officer if",
      "start": 1156.49,
      "duration": 2.819
    },
    {
      "text": "you want to raise you've got to show",
      "start": 1158.35,
      "duration": 3.27
    },
    {
      "text": "value and if you do show value if you",
      "start": 1159.309,
      "duration": 3.45
    },
    {
      "text": "can make the case as to why you should",
      "start": 1161.62,
      "duration": 2.429
    },
    {
      "text": "get a raise they'll generally give you a",
      "start": 1162.759,
      "duration": 2.701
    },
    {
      "text": "raise otherwise they'll risk losing you",
      "start": 1164.049,
      "duration": 4.59
    },
    {
      "text": "to someone else right so it's not the",
      "start": 1165.46,
      "duration": 5.04
    },
    {
      "text": "CEO who determines his own salary and",
      "start": 1168.639,
      "duration": 4.201
    },
    {
      "text": "it's it's not Katy Perry who determines",
      "start": 1170.5,
      "duration": 5.34
    },
    {
      "text": "how much the roadie is paid it's Katy",
      "start": 1172.84,
      "duration": 5.24
    },
    {
      "text": "Perry's audience who determines that",
      "start": 1175.84,
      "duration": 4.65
    },
    {
      "text": "right because if you said well if you",
      "start": 1178.08,
      "duration": 3.729
    },
    {
      "text": "said well I want to pay all of the",
      "start": 1180.49,
      "duration": 2.789
    },
    {
      "text": "roadies the same as Katy Perry which",
      "start": 1181.809,
      "duration": 2.931
    },
    {
      "text": "means the tickets are going to be",
      "start": 1183.279,
      "duration": 3.87
    },
    {
      "text": "$16,000 each people won't come to the",
      "start": 1184.74,
      "duration": 4.059
    },
    {
      "text": "concert they'll come to the concert and",
      "start": 1187.149,
      "duration": 2.671
    },
    {
      "text": "they won't come to the concert if",
      "start": 1188.799,
      "duration": 2.61
    },
    {
      "text": "there's no roadies right if not not a",
      "start": 1189.82,
      "duration": 3.03
    },
    {
      "text": "single roadie as hired because then it's",
      "start": 1191.409,
      "duration": 2.791
    },
    {
      "text": "to tear on a stage with the guitar and",
      "start": 1192.85,
      "duration": 4.62
    },
    {
      "text": "no amp so they can't rep you can't hear",
      "start": 1194.2,
      "duration": 6.27
    },
    {
      "text": "it so it's the audience who determines",
      "start": 1197.47,
      "duration": 4.05
    },
    {
      "text": "the value of the roadies it's",
      "start": 1200.47,
      "duration": 2.4
    },
    {
      "text": "the people who buy the tickets who",
      "start": 1201.52,
      "duration": 4.38
    },
    {
      "text": "determine the value of the roadies like",
      "start": 1202.87,
      "duration": 4.56
    },
    {
      "text": "who is it who determines how valuable",
      "start": 1205.9,
      "duration": 3.63
    },
    {
      "text": "the movie star is it's enough to movie",
      "start": 1207.43,
      "duration": 3.75
    },
    {
      "text": "studios it's not his agent it's not the",
      "start": 1209.53,
      "duration": 4.8
    },
    {
      "text": "movie star himself or herself it's it's",
      "start": 1211.18,
      "duration": 5.73
    },
    {
      "text": "the audience who determines how valuable",
      "start": 1214.33,
      "duration": 4.17
    },
    {
      "text": "a movie star is if an audience will go",
      "start": 1216.91,
      "duration": 3.93
    },
    {
      "text": "and see a movie just because echo",
      "start": 1218.5,
      "duration": 5.07
    },
    {
      "text": "hypocrite Leonardo DiCaprio was in it",
      "start": 1220.84,
      "duration": 4.41
    },
    {
      "text": "then he's gonna get paid more that's not",
      "start": 1223.57,
      "duration": 3.33
    },
    {
      "text": "not a company so it's all a big",
      "start": 1225.25,
      "duration": 4.62
    },
    {
      "text": "complicated relationship and it's",
      "start": 1226.9,
      "duration": 5.73
    },
    {
      "text": "incredibly beneficial to the average",
      "start": 1229.87,
      "duration": 6.45
    },
    {
      "text": "person that we allow profits to maximize",
      "start": 1232.63,
      "duration": 5.34
    },
    {
      "text": "for those who are the most productive",
      "start": 1236.32,
      "duration": 4.02
    },
    {
      "text": "and who provide the most value so why",
      "start": 1237.97,
      "duration": 4.2
    },
    {
      "text": "say you got to have empathy you've got",
      "start": 1240.34,
      "duration": 3.51
    },
    {
      "text": "to ask your customers what they want",
      "start": 1242.17,
      "duration": 3.51
    },
    {
      "text": "this is why I regularly if I put out",
      "start": 1243.85,
      "duration": 4.31
    },
    {
      "text": "surveys I ask people how I can serve",
      "start": 1245.68,
      "duration": 4.71
    },
    {
      "text": "their needs better please if you've got",
      "start": 1248.16,
      "duration": 3.58
    },
    {
      "text": "comments below how I can serve you needs",
      "start": 1250.39,
      "duration": 3.66
    },
    {
      "text": "better let me know I regularly ask my",
      "start": 1251.74,
      "duration": 4.32
    },
    {
      "text": "family yeah I sit down with my wife and",
      "start": 1254.05,
      "duration": 3.33
    },
    {
      "text": "my daughter and say okay how's your",
      "start": 1256.06,
      "duration": 3.27
    },
    {
      "text": "how's your enjoyment of my contributions",
      "start": 1257.38,
      "duration": 3.72
    },
    {
      "text": "to family life what is it that I could",
      "start": 1259.33,
      "duration": 3
    },
    {
      "text": "do better is there anything I'm doing",
      "start": 1261.1,
      "duration": 2.94
    },
    {
      "text": "it's annoying you I mean good heavens",
      "start": 1262.33,
      "duration": 3.15
    },
    {
      "text": "you get a survey when you order a slice",
      "start": 1264.04,
      "duration": 3.15
    },
    {
      "text": "of pizza sometimes you get a survey when",
      "start": 1265.48,
      "duration": 3.21
    },
    {
      "text": "you order a sub how about a survey to",
      "start": 1267.19,
      "duration": 4.44
    },
    {
      "text": "the people in your life saying how am i",
      "start": 1268.69,
      "duration": 6.05
    },
    {
      "text": "doing am i producing value for you so",
      "start": 1271.63,
      "duration": 5.13
    },
    {
      "text": "you get a free market you get a",
      "start": 1274.74,
      "duration": 3.88
    },
    {
      "text": "meritocracy which widens now there's an",
      "start": 1276.76,
      "duration": 3.42
    },
    {
      "text": "increase right it's like you're getting",
      "start": 1278.62,
      "duration": 2.88
    },
    {
      "text": "taller an engineer and other people are",
      "start": 1280.18,
      "duration": 2.79
    },
    {
      "text": "getting taller or foot a year and then",
      "start": 1281.5,
      "duration": 3.12
    },
    {
      "text": "you say well I feel shorter because",
      "start": 1282.97,
      "duration": 4.29
    },
    {
      "text": "they're taller than me right yeah you",
      "start": 1284.62,
      "duration": 4.29
    },
    {
      "text": "understand how it works so there's two",
      "start": 1287.26,
      "duration": 3.15
    },
    {
      "text": "kinds of people who come along in this",
      "start": 1288.91,
      "duration": 3.27
    },
    {
      "text": "scenario when there's a rising gap",
      "start": 1290.41,
      "duration": 4.26
    },
    {
      "text": "between wealthy and and poor or",
      "start": 1292.18,
      "duration": 5.25
    },
    {
      "text": "wealthier and poorer right I mean the",
      "start": 1294.67,
      "duration": 5.15
    },
    {
      "text": "poor in a free market economy live",
      "start": 1297.43,
      "duration": 4.74
    },
    {
      "text": "infinitely better than the richest",
      "start": 1299.82,
      "duration": 4.6
    },
    {
      "text": "people in a non free market economy",
      "start": 1302.17,
      "duration": 4.08
    },
    {
      "text": "there's no question of that certainly in",
      "start": 1304.42,
      "duration": 4.65
    },
    {
      "text": "the past so there are people who come",
      "start": 1306.25,
      "duration": 5.94
    },
    {
      "text": "along and say look there's the scene and",
      "start": 1309.07,
      "duration": 4.71
    },
    {
      "text": "then there's the unseen right this is",
      "start": 1312.19,
      "duration": 3.3
    },
    {
      "text": "vast yes differentiation about",
      "start": 1313.78,
      "duration": 3.48
    },
    {
      "text": "understanding in how a market economy",
      "start": 1315.49,
      "duration": 3.3
    },
    {
      "text": "works there's the scene versus the",
      "start": 1317.26,
      "duration": 4.05
    },
    {
      "text": "unseen right there's all fallacy of the",
      "start": 1318.79,
      "duration": 4.11
    },
    {
      "text": "broken window right like some guy comes",
      "start": 1321.31,
      "duration": 4.71
    },
    {
      "text": "along and throws up a brick through the",
      "start": 1322.9,
      "duration": 4.74
    },
    {
      "text": "window of your store and then you have",
      "start": 1326.02,
      "duration": 3.15
    },
    {
      "text": "to spend five thousand dollars getting a",
      "start": 1327.64,
      "duration": 3.66
    },
    {
      "text": "new window and people say ah five",
      "start": 1329.17,
      "duration": 4.14
    },
    {
      "text": "thousand dollars has generated economic",
      "start": 1331.3,
      "duration": 4.14
    },
    {
      "text": "activity that's in addition to the",
      "start": 1333.31,
      "duration": 3.54
    },
    {
      "text": "right it's like when there's a war it's",
      "start": 1335.44,
      "duration": 2.88
    },
    {
      "text": "good for the economy it's like no it's",
      "start": 1336.85,
      "duration": 2.28
    },
    {
      "text": "good for the military-industrial complex",
      "start": 1338.32,
      "duration": 3.84
    },
    {
      "text": "which is statist in nature but if you",
      "start": 1339.13,
      "duration": 6.63
    },
    {
      "text": "think that destroying things is good for",
      "start": 1342.16,
      "duration": 4.29
    },
    {
      "text": "the economy",
      "start": 1345.76,
      "duration": 3.18
    },
    {
      "text": "then just smash up your cell phone and",
      "start": 1346.45,
      "duration": 4.41
    },
    {
      "text": "wait to become rich you understand it",
      "start": 1348.94,
      "duration": 3.33
    },
    {
      "text": "what now the cell phone company is happy",
      "start": 1350.86,
      "duration": 3.78
    },
    {
      "text": "if you smash up your cell phone cuz you",
      "start": 1352.27,
      "duration": 4.56
    },
    {
      "text": "go buy a new one and and that cell phone",
      "start": 1354.64,
      "duration": 3.81
    },
    {
      "text": "company is happy but it's still a net",
      "start": 1356.83,
      "duration": 4.71
    },
    {
      "text": "loss to the economy right I mean if I",
      "start": 1358.45,
      "duration": 4.71
    },
    {
      "text": "steal a thousand dollars and give it to",
      "start": 1361.54,
      "duration": 3.24
    },
    {
      "text": "some guy that guy's happy but someone",
      "start": 1363.16,
      "duration": 3.75
    },
    {
      "text": "else is is is unhappy right because the",
      "start": 1364.78,
      "duration": 4.77
    },
    {
      "text": "unseen right if you go and buy a new",
      "start": 1366.91,
      "duration": 5.16
    },
    {
      "text": "cell phone for a thousand dollars the",
      "start": 1369.55,
      "duration": 7.5
    },
    {
      "text": "unseen is all of the things you would",
      "start": 1372.07,
      "duration": 8.16
    },
    {
      "text": "have bought if you didn't have to spend",
      "start": 1377.05,
      "duration": 6.99
    },
    {
      "text": "money replacing your cell phone now the",
      "start": 1380.23,
      "duration": 6.36
    },
    {
      "text": "selfi manufacturer that's a scene he",
      "start": 1384.04,
      "duration": 4.89
    },
    {
      "text": "knows that you have bought a cell phone",
      "start": 1386.59,
      "duration": 5.24
    },
    {
      "text": "from him he's up two thousand dollars",
      "start": 1388.93,
      "duration": 6.48
    },
    {
      "text": "that transaction shows up in the GDP",
      "start": 1391.83,
      "duration": 5.62
    },
    {
      "text": "it's it's the scene right",
      "start": 1395.41,
      "duration": 5.99
    },
    {
      "text": "but the unseen it's a thousand dollars",
      "start": 1397.45,
      "duration": 7.17
    },
    {
      "text": "that you didn't save or spend now if you",
      "start": 1401.4,
      "duration": 5.2
    },
    {
      "text": "save it that's more money available to",
      "start": 1404.62,
      "duration": 3.24
    },
    {
      "text": "entrepreneurs to go and start a business",
      "start": 1406.6,
      "duration": 3.57
    },
    {
      "text": "there's whatever right there's just more",
      "start": 1407.86,
      "duration": 4.14
    },
    {
      "text": "money for people to go buy a house all",
      "start": 1410.17,
      "duration": 3.69
    },
    {
      "text": "right so if you save it then it's",
      "start": 1412,
      "duration": 3.21
    },
    {
      "text": "usually available as some sort of",
      "start": 1413.86,
      "duration": 3.36
    },
    {
      "text": "investment or lending income if you",
      "start": 1415.21,
      "duration": 7.25
    },
    {
      "text": "spend it then let's say you I don't know",
      "start": 1417.22,
      "duration": 7.8
    },
    {
      "text": "what would you buy ten off this that's a",
      "start": 1422.46,
      "duration": 4.66
    },
    {
      "text": "hundred dollars it's just I you you buy",
      "start": 1425.02,
      "duration": 3.39
    },
    {
      "text": "ten presents for friends four hundred",
      "start": 1427.12,
      "duration": 3.24
    },
    {
      "text": "dollars ok well then you've got ten",
      "start": 1428.41,
      "duration": 5.16
    },
    {
      "text": "other people who are happier and the",
      "start": 1430.36,
      "duration": 4.53
    },
    {
      "text": "other thing too is when you smash your",
      "start": 1433.57,
      "duration": 3.05
    },
    {
      "text": "cell phone you get a new cell phone",
      "start": 1434.89,
      "duration": 3.78
    },
    {
      "text": "you're not wealthier and when you're",
      "start": 1436.62,
      "duration": 3.16
    },
    {
      "text": "poorer in fact cuz you're down a",
      "start": 1438.67,
      "duration": 2.61
    },
    {
      "text": "thousand dollars and so if there's a",
      "start": 1439.78,
      "duration": 3
    },
    {
      "text": "transaction is recorded but society is",
      "start": 1441.28,
      "duration": 5.22
    },
    {
      "text": "poorer because Society has not had a net",
      "start": 1442.78,
      "duration": 5.22
    },
    {
      "text": "addition to the number of cell phones in",
      "start": 1446.5,
      "duration": 3.6
    },
    {
      "text": "society it's saying that you break the",
      "start": 1448,
      "duration": 4.2
    },
    {
      "text": "window the guy who you spend five",
      "start": 1450.1,
      "duration": 3.45
    },
    {
      "text": "thousand dollars to replace the window",
      "start": 1452.2,
      "duration": 4.56
    },
    {
      "text": "he's he's happy he's up five thousand",
      "start": 1453.55,
      "duration": 4.98
    },
    {
      "text": "dollars but the five thousand dollars",
      "start": 1456.76,
      "duration": 3.3
    },
    {
      "text": "that you might have spent on some big",
      "start": 1458.53,
      "duration": 3.03
    },
    {
      "text": "grand family vacation okay well",
      "start": 1460.06,
      "duration": 4.23
    },
    {
      "text": "everybody took the resort operators the",
      "start": 1461.56,
      "duration": 5.25
    },
    {
      "text": "restaurants the airplane companies the",
      "start": 1464.29,
      "duration": 3.89
    },
    {
      "text": "hotel whatever I mean there",
      "start": 1466.81,
      "duration": 3.68
    },
    {
      "text": "but see they don't know because he went",
      "start": 1468.18,
      "duration": 3.36
    },
    {
      "text": "and spent this money getting a new",
      "start": 1470.49,
      "duration": 3.3
    },
    {
      "text": "cellphone or replacing that window nope",
      "start": 1471.54,
      "duration": 4.56
    },
    {
      "text": "like nobody sits there and says aha",
      "start": 1473.79,
      "duration": 5.88
    },
    {
      "text": "aha I didn't get paid because that guy",
      "start": 1476.1,
      "duration": 5.13
    },
    {
      "text": "bought a cellphone because that never",
      "start": 1479.67,
      "duration": 5.46
    },
    {
      "text": "shows up that never materializes and so",
      "start": 1481.23,
      "duration": 6.69
    },
    {
      "text": "less intelligent more concrete kind of",
      "start": 1485.13,
      "duration": 4.38
    },
    {
      "text": "looking two feet in front of their face",
      "start": 1487.92,
      "duration": 3.12
    },
    {
      "text": "people look that and say oh well",
      "start": 1489.51,
      "duration": 2.49
    },
    {
      "text": "something got broken you bought",
      "start": 1491.04,
      "duration": 2.34
    },
    {
      "text": "something new so we're up a thousand",
      "start": 1492,
      "duration": 3.3
    },
    {
      "text": "dollars and that's because they can't",
      "start": 1493.38,
      "duration": 6.42
    },
    {
      "text": "conceptually see easily or imagine all",
      "start": 1495.3,
      "duration": 6.78
    },
    {
      "text": "of the things that weren't bought",
      "start": 1499.8,
      "duration": 4.38
    },
    {
      "text": "because you got a new cell phone or a",
      "start": 1502.08,
      "duration": 4.5
    },
    {
      "text": "new window right it's the scene versus",
      "start": 1504.18,
      "duration": 5.64
    },
    {
      "text": "the unseen government's tax people five",
      "start": 1506.58,
      "duration": 4.56
    },
    {
      "text": "million dollars go create a bunch of",
      "start": 1509.82,
      "duration": 2.91
    },
    {
      "text": "jobs people are like wow that's good",
      "start": 1511.14,
      "duration": 3.03
    },
    {
      "text": "people have work and it's like it's not",
      "start": 1512.73,
      "duration": 3.48
    },
    {
      "text": "good you can see the people that the",
      "start": 1514.17,
      "duration": 3.96
    },
    {
      "text": "government is paying you can't see all",
      "start": 1516.21,
      "duration": 3.72
    },
    {
      "text": "the things that didn't happen with the",
      "start": 1518.13,
      "duration": 3.06
    },
    {
      "text": "five million dollars that were taken",
      "start": 1519.93,
      "duration": 3.96
    },
    {
      "text": "from people by force all of the spending",
      "start": 1521.19,
      "duration": 4.89
    },
    {
      "text": "and investment inside do you don't you",
      "start": 1523.89,
      "duration": 3.93
    },
    {
      "text": "don't see that to take a particular",
      "start": 1526.08,
      "duration": 4.02
    },
    {
      "text": "example that it's theoretical but",
      "start": 1527.82,
      "duration": 3.33
    },
    {
      "text": "certainly within the realm of",
      "start": 1530.1,
      "duration": 2.78
    },
    {
      "text": "possibility",
      "start": 1531.15,
      "duration": 4.41
    },
    {
      "text": "taxation might mate might be why we",
      "start": 1532.88,
      "duration": 4.42
    },
    {
      "text": "don't have a cure for cancer right",
      "start": 1535.56,
      "duration": 3.36
    },
    {
      "text": "because people are getting taxed so",
      "start": 1537.3,
      "duration": 3.18
    },
    {
      "text": "heavily they're postponing having",
      "start": 1538.92,
      "duration": 2.79
    },
    {
      "text": "children they don't have as many",
      "start": 1540.48,
      "duration": 2.79
    },
    {
      "text": "children one of those children might",
      "start": 1541.71,
      "duration": 3.27
    },
    {
      "text": "have been a stone genius if taxes had",
      "start": 1543.27,
      "duration": 3
    },
    {
      "text": "been lower a stone genius who woulda",
      "start": 1544.98,
      "duration": 3.24
    },
    {
      "text": "cured cancer right now it's certainly",
      "start": 1546.27,
      "duration": 4.62
    },
    {
      "text": "within the realm of possibility I mean",
      "start": 1548.22,
      "duration": 4.77
    },
    {
      "text": "it only takes like 20 people to not be",
      "start": 1550.89,
      "duration": 3.87
    },
    {
      "text": "born for medicine modern medicine to not",
      "start": 1552.99,
      "duration": 3.93
    },
    {
      "text": "fundamentally exist in its current form",
      "start": 1554.76,
      "duration": 8.39
    },
    {
      "text": "right so the scene versus the unseen is",
      "start": 1556.92,
      "duration": 8.88
    },
    {
      "text": "the dahle versus the intelligent and",
      "start": 1563.15,
      "duration": 5.53
    },
    {
      "text": "when you don't see the benefits of the",
      "start": 1565.8,
      "duration": 4.2
    },
    {
      "text": "free market but only see the",
      "start": 1568.68,
      "duration": 3.54
    },
    {
      "text": "exploitation because the boss is richer",
      "start": 1570,
      "duration": 4.92
    },
    {
      "text": "than the employees but no no the",
      "start": 1572.22,
      "duration": 5.63
    },
    {
      "text": "employees are richer because of the boss",
      "start": 1574.92,
      "duration": 5.22
    },
    {
      "text": "the employees are richer because of the",
      "start": 1577.85,
      "duration": 4.84
    },
    {
      "text": "boss and the the boss can't be paid more",
      "start": 1580.14,
      "duration": 4.77
    },
    {
      "text": "in the long run than the product of his",
      "start": 1582.69,
      "duration": 3.57
    },
    {
      "text": "employees then the value of his",
      "start": 1584.91,
      "duration": 4.29
    },
    {
      "text": "employees is then just right I mean if",
      "start": 1586.26,
      "duration": 4.89
    },
    {
      "text": "you're paying a CEO ten million dollars",
      "start": 1589.2,
      "duration": 3.18
    },
    {
      "text": "but his employees are only producing",
      "start": 1591.15,
      "duration": 2.7
    },
    {
      "text": "five million dollars worth of value then",
      "start": 1592.38,
      "duration": 2.55
    },
    {
      "text": "the company's going to go out of",
      "start": 1593.85,
      "duration": 3.84
    },
    {
      "text": "business right so there has to be more",
      "start": 1594.93,
      "duration": 5.28
    },
    {
      "text": "value that the employees are producing",
      "start": 1597.69,
      "duration": 3.66
    },
    {
      "text": "and the other",
      "start": 1600.21,
      "duration": 2.79
    },
    {
      "text": "people say oh well the boss is making a",
      "start": 1601.35,
      "duration": 3
    },
    {
      "text": "lot of money and he owns the means of",
      "start": 1603,
      "duration": 4.71
    },
    {
      "text": "production and the the the employees not",
      "start": 1604.35,
      "duration": 6.059
    },
    {
      "text": "making as much money but no the employee",
      "start": 1607.71,
      "duration": 5.28
    },
    {
      "text": "is making more money than he would if",
      "start": 1610.409,
      "duration": 3.541
    },
    {
      "text": "the means of production aren't there",
      "start": 1612.99,
      "duration": 2.279
    },
    {
      "text": "right I mean I was a waiter for many",
      "start": 1613.95,
      "duration": 3.99
    },
    {
      "text": "years as a teenager and you know just",
      "start": 1615.269,
      "duration": 4.02
    },
    {
      "text": "just try going and carrying around a",
      "start": 1617.94,
      "duration": 2.579
    },
    {
      "text": "bunch of plates in the woods and see how",
      "start": 1619.289,
      "duration": 2.311
    },
    {
      "text": "much money you make somebody has to",
      "start": 1620.519,
      "duration": 2.25
    },
    {
      "text": "build that restaurant around you in",
      "start": 1621.6,
      "duration": 2.88
    },
    {
      "text": "order for you to make money as a waiter",
      "start": 1622.769,
      "duration": 3.63
    },
    {
      "text": "I never felt exploited I never felt",
      "start": 1624.48,
      "duration": 6.75
    },
    {
      "text": "ripped off crazy I was happy that there",
      "start": 1626.399,
      "duration": 6.061
    },
    {
      "text": "were restaurants what am I gonna do is",
      "start": 1631.23,
      "duration": 3.899
    },
    {
      "text": "start my own restaurant but I'm 16 or 17",
      "start": 1632.46,
      "duration": 5.959
    },
    {
      "text": "years old know I'm gonna be doing that",
      "start": 1635.129,
      "duration": 8.221
    },
    {
      "text": "so when you allow our scarce resources",
      "start": 1638.419,
      "duration": 6.46
    },
    {
      "text": "to end up in the hands of the most",
      "start": 1643.35,
      "duration": 2.909
    },
    {
      "text": "productive which is what the market does",
      "start": 1644.879,
      "duration": 3.27
    },
    {
      "text": "they create an absolutely staggering",
      "start": 1646.259,
      "duration": 3.39
    },
    {
      "text": "amount of wealth but that widens wealth",
      "start": 1648.149,
      "duration": 4.321
    },
    {
      "text": "disparity now what I'm saying about is",
      "start": 1649.649,
      "duration": 5.61
    },
    {
      "text": "the true and factual explanation of how",
      "start": 1652.47,
      "duration": 4.97
    },
    {
      "text": "it's valuable and how it works",
      "start": 1655.259,
      "duration": 4.8
    },
    {
      "text": "but there are other people like the",
      "start": 1657.44,
      "duration": 4.06
    },
    {
      "text": "Socialists and the Communists in Co who",
      "start": 1660.059,
      "duration": 3.96
    },
    {
      "text": "come in and start rabble-rousing and and",
      "start": 1661.5,
      "duration": 4.769
    },
    {
      "text": "sowing the seeds of resentment you know",
      "start": 1664.019,
      "duration": 3.421
    },
    {
      "text": "like I just saw that there's this new",
      "start": 1666.269,
      "duration": 2.821
    },
    {
      "text": "Monopoly game out that's for women and",
      "start": 1667.44,
      "duration": 4.199
    },
    {
      "text": "women get like 240 bucks instead of 200",
      "start": 1669.09,
      "duration": 3.959
    },
    {
      "text": "when they go around every maybe cheaper",
      "start": 1671.639,
      "duration": 2.551
    },
    {
      "text": "price if this than the other so they",
      "start": 1673.049,
      "duration": 2.1
    },
    {
      "text": "could for you what it's like to be a man",
      "start": 1674.19,
      "duration": 3.589
    },
    {
      "text": "it's like come on come on",
      "start": 1675.149,
      "duration": 5.071
    },
    {
      "text": "women make a fortune first of all women",
      "start": 1677.779,
      "duration": 4.541
    },
    {
      "text": "outlive men so women get the inheritance",
      "start": 1680.22,
      "duration": 3.659
    },
    {
      "text": "right and Men there's huge amount of",
      "start": 1682.32,
      "duration": 4.709
    },
    {
      "text": "money women get massive income",
      "start": 1683.879,
      "duration": 4.68
    },
    {
      "text": "redistribution through the state through",
      "start": 1687.029,
      "duration": 2.701
    },
    {
      "text": "the welfare state it's basically the",
      "start": 1688.559,
      "duration": 2.46
    },
    {
      "text": "single mother estate through socialized",
      "start": 1689.73,
      "duration": 2.73
    },
    {
      "text": "medicine which women use far more than",
      "start": 1691.019,
      "duration": 5.04
    },
    {
      "text": "men women get alimony women get child",
      "start": 1692.46,
      "duration": 4.589
    },
    {
      "text": "support women are disproportionately",
      "start": 1696.059,
      "duration": 2.97
    },
    {
      "text": "represented in high paying government",
      "start": 1697.049,
      "duration": 6.87
    },
    {
      "text": "jobs and in a more voluntary way moms",
      "start": 1699.029,
      "duration": 6.721
    },
    {
      "text": "who stay home with their kids have their",
      "start": 1703.919,
      "duration": 3.271
    },
    {
      "text": "bills paid for generally by their",
      "start": 1705.75,
      "duration": 3.509
    },
    {
      "text": "husband which is an income it's just not",
      "start": 1707.19,
      "duration": 3.42
    },
    {
      "text": "counted as an income because you only",
      "start": 1709.259,
      "duration": 3
    },
    {
      "text": "count the man's income like the woman is",
      "start": 1710.61,
      "duration": 3.179
    },
    {
      "text": "living in the basement on grubs and",
      "start": 1712.259,
      "duration": 5.191
    },
    {
      "text": "worms so no it's not that way at all but",
      "start": 1713.789,
      "duration": 8.061
    },
    {
      "text": "this disparity creates a wedge for I",
      "start": 1717.45,
      "duration": 6.75
    },
    {
      "text": "called up the language before but the",
      "start": 1721.85,
      "duration": 5.319
    },
    {
      "text": "people who creates division antipathy",
      "start": 1724.2,
      "duration": 4.77
    },
    {
      "text": "and and hatred and and sometimes",
      "start": 1727.169,
      "duration": 5.85
    },
    {
      "text": "outright murder through the constant",
      "start": 1728.97,
      "duration": 6.06
    },
    {
      "text": "provocation not just the",
      "start": 1733.019,
      "duration": 3.511
    },
    {
      "text": "salting of wounds but the creation of",
      "start": 1735.03,
      "duration": 3.12
    },
    {
      "text": "wounds that aren't there before the",
      "start": 1736.53,
      "duration": 2.97
    },
    {
      "text": "sowing of hatred against the more",
      "start": 1738.15,
      "duration": 6.27
    },
    {
      "text": "successful and those people are",
      "start": 1739.5,
      "duration": 7.74
    },
    {
      "text": "everywhere in society these days are",
      "start": 1744.42,
      "duration": 4.41
    },
    {
      "text": "there's white privilege and that's why",
      "start": 1747.24,
      "duration": 3.33
    },
    {
      "text": "the whites are doing better of course",
      "start": 1748.83,
      "duration": 3.06
    },
    {
      "text": "they don't talk about ease asian",
      "start": 1750.57,
      "duration": 2.67
    },
    {
      "text": "privilege then we talk about Jewish",
      "start": 1751.89,
      "duration": 3.03
    },
    {
      "text": "privilege well there is actually quite a",
      "start": 1753.24,
      "duration": 2.79
    },
    {
      "text": "bit of Jewish privilege and Jewish",
      "start": 1754.92,
      "duration": 2.46
    },
    {
      "text": "supremacy in the world I've tweeted",
      "start": 1756.03,
      "duration": 2.58
    },
    {
      "text": "about that if you want to follow that",
      "start": 1757.38,
      "duration": 5.55
    },
    {
      "text": "but there's all of this sowing of hatred",
      "start": 1758.61,
      "duration": 9.27
    },
    {
      "text": "and the sowing of hatred this gap",
      "start": 1762.93,
      "duration": 8.04
    },
    {
      "text": "between the wealthy and the less wealthy",
      "start": 1767.88,
      "duration": 5.46
    },
    {
      "text": "and the false explanations that it's due",
      "start": 1770.97,
      "duration": 4.98
    },
    {
      "text": "to exploitation is all incredibly brutal",
      "start": 1773.34,
      "duration": 6.15
    },
    {
      "text": "and this is why we can only get so far",
      "start": 1775.95,
      "duration": 5.28
    },
    {
      "text": "this is why we can only reach so high I",
      "start": 1779.49,
      "duration": 3.63
    },
    {
      "text": "was doing a trivia game with my daughter",
      "start": 1781.23,
      "duration": 4.47
    },
    {
      "text": "this morning and one of the questions",
      "start": 1783.12,
      "duration": 6.45
    },
    {
      "text": "was when was the last time that America",
      "start": 1785.7,
      "duration": 7.47
    },
    {
      "text": "sent a manned mission to the moon as",
      "start": 1789.57,
      "duration": 10.02
    },
    {
      "text": "Apollo 17 I think it was 1971 we were",
      "start": 1793.17,
      "duration": 7.95
    },
    {
      "text": "gonna reach for the stars we were gonna",
      "start": 1799.59,
      "duration": 5.07
    },
    {
      "text": "get the universe we were gonna be able",
      "start": 1801.12,
      "duration": 8.09
    },
    {
      "text": "to have zero gravity sex in high orbit",
      "start": 1804.66,
      "duration": 12.63
    },
    {
      "text": "we were gonna conquer nature we were",
      "start": 1809.21,
      "duration": 10.92
    },
    {
      "text": "gonna see the stars",
      "start": 1817.29,
      "duration": 2.84
    },
    {
      "text": "to the benefit of everyone",
      "start": 1821.3,
      "duration": 3.44
    },
    {
      "text": "what do we get instead mass migration",
      "start": 1827.24,
      "duration": 8.73
    },
    {
      "text": "debt race-baiting gender baiting class",
      "start": 1831.89,
      "duration": 9.24
    },
    {
      "text": "baiting decay in San Francisco when",
      "start": 1835.97,
      "duration": 7.44
    },
    {
      "text": "California has a whole you know what's",
      "start": 1841.13,
      "duration": 8.69
    },
    {
      "text": "making a comeback leprosy",
      "start": 1843.41,
      "duration": 6.41
    },
    {
      "text": "we are boats in a Riptide",
      "start": 1854.54,
      "duration": 5.72
    },
    {
      "text": "striving to go forward but endlessly",
      "start": 1860.5,
      "duration": 10.89
    },
    {
      "text": "sucked bullied lied about and undermined",
      "start": 1865.03,
      "duration": 6.36
    },
    {
      "text": "into the well it used to be the very",
      "start": 1872.559,
      "duration": 10.331
    },
    {
      "text": "distant past now it is becoming our very",
      "start": 1876.53,
      "duration": 9.5
    },
    {
      "text": "proximate future",
      "start": 1882.89,
      "duration": 3.14
    }
  ],
  "Errors": null,
  "TranscriptStderr": null
}