{
  "Title": "The Truth About Ontario's Debt Crisis. Prepare Yourself.",
  "Id": "Tax7H6O_Yw4",
  "Transcript": [
    {
      "text": "so I first arrived in Ontario over 40",
      "start": 0.06,
      "duration": 5.34
    },
    {
      "text": "years ago and I just fell in love with",
      "start": 2.55,
      "duration": 4.65
    },
    {
      "text": "the place fell in love with I suppose",
      "start": 5.4,
      "duration": 4.5
    },
    {
      "text": "all of you I came from London England",
      "start": 7.2,
      "duration": 3.75
    },
    {
      "text": "but there's a lot of class",
      "start": 9.9,
      "duration": 2.909
    },
    {
      "text": "stratification your opportunities your",
      "start": 10.95,
      "duration": 4.62
    },
    {
      "text": "mobility the connection between work and",
      "start": 12.809,
      "duration": 4.89
    },
    {
      "text": "reward are kind of stifled by all this",
      "start": 15.57,
      "duration": 5.94
    },
    {
      "text": "historical snobbery and I loved the open",
      "start": 17.699,
      "duration": 5.67
    },
    {
      "text": "vistas the opportunities the",
      "start": 21.51,
      "duration": 4.32
    },
    {
      "text": "possibilities that existed in Canada and",
      "start": 23.369,
      "duration": 5.641
    },
    {
      "text": "into Ontario I also loved the climate I",
      "start": 25.83,
      "duration": 5.07
    },
    {
      "text": "came from that fairly bland summer comes",
      "start": 29.01,
      "duration": 4.02
    },
    {
      "text": "on a Wednesday British damp clammy",
      "start": 30.9,
      "duration": 6.3
    },
    {
      "text": "climate and I arrived in 1977 which I",
      "start": 33.03,
      "duration": 6
    },
    {
      "text": "didn't know this at the time was an",
      "start": 37.2,
      "duration": 3.87
    },
    {
      "text": "amazingly snowy winter and I just loved",
      "start": 39.03,
      "duration": 5.189
    },
    {
      "text": "it so much and loved Lani had a skate",
      "start": 41.07,
      "duration": 5.009
    },
    {
      "text": "and toboggan and ski and all of these",
      "start": 44.219,
      "duration": 4.831
    },
    {
      "text": "great things and the people the",
      "start": 46.079,
      "duration": 4.771
    },
    {
      "text": "robustness and toughness of the people",
      "start": 49.05,
      "duration": 4.86
    },
    {
      "text": "was kind of shocking to me at the",
      "start": 50.85,
      "duration": 4.619
    },
    {
      "text": "beginning I wasn't exactly a snow flake",
      "start": 53.91,
      "duration": 3.84
    },
    {
      "text": "but I wasn't quite as robust then as I",
      "start": 55.469,
      "duration": 4.89
    },
    {
      "text": "am now and I really learned to love and",
      "start": 57.75,
      "duration": 4.079
    },
    {
      "text": "embrace the the toughness and",
      "start": 60.359,
      "duration": 4.791
    },
    {
      "text": "hard-working nature of Ontarians and",
      "start": 61.829,
      "duration": 5.881
    },
    {
      "text": "that affair ice person that passion has",
      "start": 65.15,
      "duration": 4.719
    },
    {
      "text": "continued ever since and I've seen a lot",
      "start": 67.71,
      "duration": 3.839
    },
    {
      "text": "of Ontario I think more than most as I",
      "start": 69.869,
      "duration": 4.201
    },
    {
      "text": "lived in the major cities and gone to",
      "start": 71.549,
      "duration": 5.61
    },
    {
      "text": "school in and graduate degree and my",
      "start": 74.07,
      "duration": 6.03
    },
    {
      "text": "graduate degrees in Toronto but I've",
      "start": 77.159,
      "duration": 5.191
    },
    {
      "text": "also gone to the wilds to the backwoods",
      "start": 80.1,
      "duration": 4.559
    },
    {
      "text": "Makena and and beyond I lived in Thunder",
      "start": 82.35,
      "duration": 4.68
    },
    {
      "text": "Bay for a while as a gold panner and",
      "start": 84.659,
      "duration": 5.431
    },
    {
      "text": "prospector I have seen the things I have",
      "start": 87.03,
      "duration": 5.96
    },
    {
      "text": "seen I have seen a lot of Ontario and",
      "start": 90.09,
      "duration": 5.639
    },
    {
      "text": "that's what makes this particular",
      "start": 92.99,
      "duration": 5.71
    },
    {
      "text": "presentation kind of heartbreaking I",
      "start": 95.729,
      "duration": 4.441
    },
    {
      "text": "mean I think things could be turned",
      "start": 98.7,
      "duration": 2.76
    },
    {
      "text": "around but we're gonna talk a lot about",
      "start": 100.17,
      "duration": 4.83
    },
    {
      "text": "the debt that has accumulated in Ontario",
      "start": 101.46,
      "duration": 5.339
    },
    {
      "text": "now maybe just because I grew up poor",
      "start": 105,
      "duration": 3.92
    },
    {
      "text": "but the idea of going into debt",
      "start": 106.799,
      "duration": 4.561
    },
    {
      "text": "unnecessarily was an athame you stay",
      "start": 108.92,
      "duration": 4.089
    },
    {
      "text": "away from debt it's a hole that takes",
      "start": 111.36,
      "duration": 3.299
    },
    {
      "text": "down into our families if you let it",
      "start": 113.009,
      "duration": 3.991
    },
    {
      "text": "and it it's a sucker for it it's a kind",
      "start": 114.659,
      "duration": 5.701
    },
    {
      "text": "of drug it numbs you it turns you into a",
      "start": 117,
      "duration": 6.54
    },
    {
      "text": "kind of unreal dependent on the next",
      "start": 120.36,
      "duration": 7.17
    },
    {
      "text": "round of financing and it makes you kind",
      "start": 123.54,
      "duration": 7.74
    },
    {
      "text": "of lazy debt it makes you complain a lot",
      "start": 127.53,
      "duration": 6.45
    },
    {
      "text": "because you get used to a lower level of",
      "start": 131.28,
      "duration": 4.429
    },
    {
      "text": "effort with a higher level of reward and",
      "start": 133.98,
      "duration": 4.71
    },
    {
      "text": "it is the great opiate of democracy",
      "start": 135.709,
      "duration": 5.2
    },
    {
      "text": "because politicians can come to you and",
      "start": 138.69,
      "duration": 3.269
    },
    {
      "text": "they can say we're going to give you all",
      "start": 140.909,
      "duration": 2.371
    },
    {
      "text": "this wonderful stuff but they don't have",
      "start": 141.959,
      "duration": 3.121
    },
    {
      "text": "to raise taxes immediately to give you",
      "start": 143.28,
      "duration": 4.23
    },
    {
      "text": "all that wonderful stuff because they",
      "start": 145.08,
      "duration": 3.54
    },
    {
      "text": "can just borrow it or they can print",
      "start": 147.51,
      "duration": 5.19
    },
    {
      "text": "money or whatever right so this issue",
      "start": 148.62,
      "duration": 7.979
    },
    {
      "text": "with Ontario's debt as a as a father as",
      "start": 152.7,
      "duration": 8.91
    },
    {
      "text": "a citizen it is deeply deeply troubling",
      "start": 156.599,
      "duration": 7.081
    },
    {
      "text": "and it's also deeply troubling that it's",
      "start": 161.61,
      "duration": 4.409
    },
    {
      "text": "not talked about more so we're gonna",
      "start": 163.68,
      "duration": 4.35
    },
    {
      "text": "talk about it today and I'm gonna",
      "start": 166.019,
      "duration": 5.791
    },
    {
      "text": "provide some solutions so let's get into",
      "start": 168.03,
      "duration": 3.929
    },
    {
      "text": "it",
      "start": 171.81,
      "duration": 2.7
    },
    {
      "text": "throughout Canadian history Ontario has",
      "start": 171.959,
      "duration": 3.541
    },
    {
      "text": "always been one of the wealthiest",
      "start": 174.51,
      "duration": 3.33
    },
    {
      "text": "provinces and a driver of national",
      "start": 175.5,
      "duration": 5.19
    },
    {
      "text": "economic growth a lot of entrepreneurs a",
      "start": 177.84,
      "duration": 4.59
    },
    {
      "text": "lot of business activity a lot of wisdom",
      "start": 180.69,
      "duration": 3.87
    },
    {
      "text": "a lot of networks and connections I",
      "start": 182.43,
      "duration": 4.38
    },
    {
      "text": "myself in the software field was an",
      "start": 184.56,
      "duration": 3.569
    },
    {
      "text": "entrepreneur co-founded and grew a",
      "start": 186.81,
      "duration": 3.84
    },
    {
      "text": "company in the 90s and it's a very very",
      "start": 188.129,
      "duration": 4.86
    },
    {
      "text": "powerful and positive place to do",
      "start": 190.65,
      "duration": 3.53
    },
    {
      "text": "business",
      "start": 192.989,
      "duration": 3.631
    },
    {
      "text": "Ontario's gross domestic product per",
      "start": 194.18,
      "duration": 5.02
    },
    {
      "text": "person has usually been above the",
      "start": 196.62,
      "duration": 4.5
    },
    {
      "text": "national average for years with decades",
      "start": 199.2,
      "duration": 3.539
    },
    {
      "text": "in fact after the second world war",
      "start": 201.12,
      "duration": 4.26
    },
    {
      "text": "household incomes in Ontario remained 10",
      "start": 202.739,
      "duration": 6.08
    },
    {
      "text": "to 20 percent above the national average",
      "start": 205.38,
      "duration": 8.52
    },
    {
      "text": "now in 2003 the leftist liberals take",
      "start": 208.819,
      "duration": 8.021
    },
    {
      "text": "over Ontario where they have remained in",
      "start": 213.9,
      "duration": 8.149
    },
    {
      "text": "power ever since and like a lot of",
      "start": 216.84,
      "duration": 8.459
    },
    {
      "text": "leftist they drive up the debt right",
      "start": 222.049,
      "duration": 5.53
    },
    {
      "text": "there's this old story Socrates and",
      "start": 225.299,
      "duration": 3.72
    },
    {
      "text": "Socrates says well you have two",
      "start": 227.579,
      "duration": 4.201
    },
    {
      "text": "politicians one offers the population",
      "start": 229.019,
      "duration": 5.461
    },
    {
      "text": "sugar and the other offers the",
      "start": 231.78,
      "duration": 4.829
    },
    {
      "text": "population vegetables well which is the",
      "start": 234.48,
      "duration": 4.2
    },
    {
      "text": "population going to choose well unless",
      "start": 236.609,
      "duration": 4.951
    },
    {
      "text": "they're wise they became urgent rather",
      "start": 238.68,
      "duration": 4.649
    },
    {
      "text": "than the person who gives you something",
      "start": 241.56,
      "duration": 4.35
    },
    {
      "text": "slightly less tasty but far more healthy",
      "start": 243.329,
      "duration": 4.951
    },
    {
      "text": "and Dalton McGuinty was the first",
      "start": 245.91,
      "duration": 5.18
    },
    {
      "text": "liberal took over in 2003 at that time",
      "start": 248.28,
      "duration": 5.459
    },
    {
      "text": "2003 the provinces debt was one hundred",
      "start": 251.09,
      "duration": 4.869
    },
    {
      "text": "thirty eight point eight billion dollars",
      "start": 253.739,
      "duration": 4.921
    },
    {
      "text": "now the current debt load of Ontario is",
      "start": 255.959,
      "duration": 4.261
    },
    {
      "text": "three hundred and eleven point seven",
      "start": 258.66,
      "duration": 4.8
    },
    {
      "text": "billion dollars and that is a one",
      "start": 260.22,
      "duration": 5.069
    },
    {
      "text": "hundred and twenty four percent increase",
      "start": 263.46,
      "duration": 4.41
    },
    {
      "text": "and there is in that's not",
      "start": 265.289,
      "duration": 4.681
    },
    {
      "text": "justing for inflation a dollar in 2003",
      "start": 267.87,
      "duration": 5.46
    },
    {
      "text": "is worth about a dollar 30 now but no",
      "start": 269.97,
      "duration": 5.13
    },
    {
      "text": "question that throughout Ontario's",
      "start": 273.33,
      "duration": 2.33
    },
    {
      "text": "history",
      "start": 275.1,
      "duration": 3.69
    },
    {
      "text": "recently it has gone undergone the most",
      "start": 275.66,
      "duration": 6.039
    },
    {
      "text": "prolonged and staggering period of debt",
      "start": 278.79,
      "duration": 7.409
    },
    {
      "text": "accumulation throughout its history so",
      "start": 281.699,
      "duration": 6.601
    },
    {
      "text": "2003 the Liberals take over Ontario if",
      "start": 286.199,
      "duration": 4.651
    },
    {
      "text": "you go from 2005 to 2015",
      "start": 288.3,
      "duration": 5.46
    },
    {
      "text": "Ontario currently ranks well as of 2015",
      "start": 290.85,
      "duration": 4.92
    },
    {
      "text": "ranks dead last in real median household",
      "start": 293.76,
      "duration": 4.129
    },
    {
      "text": "income change and look into that in more",
      "start": 295.77,
      "duration": 7.44
    },
    {
      "text": "detail but debt is the great deluder",
      "start": 297.889,
      "duration": 6.791
    },
    {
      "text": "because it says you could have something",
      "start": 303.21,
      "duration": 4.739
    },
    {
      "text": "for nothing but the liabilities and the",
      "start": 304.68,
      "duration": 5.19
    },
    {
      "text": "interest accumulate and begin to suck",
      "start": 307.949,
      "duration": 4.141
    },
    {
      "text": "you under and then it's really really",
      "start": 309.87,
      "duration": 4.26
    },
    {
      "text": "tough to turn things around especially",
      "start": 312.09,
      "duration": 3.9
    },
    {
      "text": "when we still have a lot of politicians",
      "start": 314.13,
      "duration": 3.24
    },
    {
      "text": "who aren't committed to addressing this",
      "start": 315.99,
      "duration": 5.61
    },
    {
      "text": "issue of the accumulated debt of the",
      "start": 317.37,
      "duration": 8.13
    },
    {
      "text": "past 15 years so let's look at some of",
      "start": 321.6,
      "duration": 5.789
    },
    {
      "text": "how this data looks and I do want to",
      "start": 325.5,
      "duration": 3.57
    },
    {
      "text": "thank members of the Fraser Institute",
      "start": 327.389,
      "duration": 3.121
    },
    {
      "text": "for putting this information together",
      "start": 329.07,
      "duration": 4.2
    },
    {
      "text": "the sources are below so this is average",
      "start": 330.51,
      "duration": 5.57
    },
    {
      "text": "annual real per-capita GDP growth rates",
      "start": 333.27,
      "duration": 8.459
    },
    {
      "text": "2007 to 2016 and these are some really",
      "start": 336.08,
      "duration": 8.98
    },
    {
      "text": "astounding numbers and if you look at",
      "start": 341.729,
      "duration": 4.711
    },
    {
      "text": "the very top here this is sort of lowest",
      "start": 345.06,
      "duration": 4.59
    },
    {
      "text": "to highest there has been negative",
      "start": 346.44,
      "duration": 5.94
    },
    {
      "text": "growth a reduction in per capita GDP",
      "start": 349.65,
      "duration": 5.1
    },
    {
      "text": "rates in Alberta in the time period",
      "start": 352.38,
      "duration": 4.44
    },
    {
      "text": "mentioned now of course lower resource",
      "start": 354.75,
      "duration": 4.47
    },
    {
      "text": "prices and from 2015 onwards they've had",
      "start": 356.82,
      "duration": 6.599
    },
    {
      "text": "a far left government the NDP the",
      "start": 359.22,
      "duration": 6.449
    },
    {
      "text": "Alberta New Democratic Party which very",
      "start": 363.419,
      "duration": 4.201
    },
    {
      "text": "very left I mean Bernie Sanders",
      "start": 365.669,
      "duration": 3.391
    },
    {
      "text": "territory it seems like from 2015",
      "start": 367.62,
      "duration": 3.06
    },
    {
      "text": "onwards they have not helped this",
      "start": 369.06,
      "duration": 3.87
    },
    {
      "text": "situation at all so they have had a",
      "start": 370.68,
      "duration": 4.859
    },
    {
      "text": "negative growth minus 0.4 percent now",
      "start": 372.93,
      "duration": 4.5
    },
    {
      "text": "some of these numbers look the same",
      "start": 375.539,
      "duration": 3.63
    },
    {
      "text": "they're a little bit different just as a",
      "start": 377.43,
      "duration": 3.359
    },
    {
      "text": "rounding stuff and again the source data",
      "start": 379.169,
      "duration": 4.881
    },
    {
      "text": "is below so New Brunswick",
      "start": 380.789,
      "duration": 6.051
    },
    {
      "text": "annual real per-capita GDP growth rates",
      "start": 384.05,
      "duration": 6.989
    },
    {
      "text": "0.3 percent and not super high but",
      "start": 386.84,
      "duration": 8.16
    },
    {
      "text": "Prince Edward Island 0.4 percent Ontario",
      "start": 391.039,
      "duration": 5.741
    },
    {
      "text": "0.4 percent remember we were talking",
      "start": 395,
      "duration": 5.289
    },
    {
      "text": "about how Ontario was the big powerful",
      "start": 396.78,
      "duration": 4.29
    },
    {
      "text": "10 to 20",
      "start": 400.289,
      "duration": 3.331
    },
    {
      "text": "and higher incomes the economic driver",
      "start": 401.07,
      "duration": 5.16
    },
    {
      "text": "well I think it's as of 2009 it's gone",
      "start": 403.62,
      "duration": 4.02
    },
    {
      "text": "from a half province where there's this",
      "start": 406.23,
      "duration": 2.76
    },
    {
      "text": "big redistribution it's an inter",
      "start": 407.64,
      "duration": 3.54
    },
    {
      "text": "provincial well first scheme to a half",
      "start": 408.99,
      "duration": 3.57
    },
    {
      "text": "not province and is actually receiving",
      "start": 411.18,
      "duration": 4.11
    },
    {
      "text": "transfer payments Ontario 0.4%",
      "start": 412.56,
      "duration": 5.39
    },
    {
      "text": "Newfoundland 0.4% Quebec 0.5%",
      "start": 415.29,
      "duration": 6.41
    },
    {
      "text": "Saskatchewan 0.7% Nova Scotia 0.8%",
      "start": 417.95,
      "duration": 6.73
    },
    {
      "text": "British Columbia 1.1 percent Manitoba",
      "start": 421.7,
      "duration": 8.8
    },
    {
      "text": "1.1 percent average growth rate in",
      "start": 424.68,
      "duration": 8.54
    },
    {
      "text": "private sector employment in Canada and",
      "start": 430.5,
      "duration": 8.73
    },
    {
      "text": "provinces private sector employment nova",
      "start": 433.22,
      "duration": 9.91
    },
    {
      "text": "scotia it's gone down this is from 2007",
      "start": 439.23,
      "duration": 7.67
    },
    {
      "text": "to 2016 minus 0.2 percent new brunswick",
      "start": 443.13,
      "duration": 9
    },
    {
      "text": "flatlined 0% ontario 0.6% pei prince",
      "start": 446.9,
      "duration": 6.94
    },
    {
      "text": "edward island 0.6 percent quebec",
      "start": 452.13,
      "duration": 5.19
    },
    {
      "text": "manitoba 0.9 all of Canada except",
      "start": 453.84,
      "duration": 6.36
    },
    {
      "text": "Ontario is 1.1 so as you can see the",
      "start": 457.32,
      "duration": 6.06
    },
    {
      "text": "average except for Ontario is almost",
      "start": 460.2,
      "duration": 6.21
    },
    {
      "text": "twice what Ontario was able to to manage",
      "start": 463.38,
      "duration": 4.32
    },
    {
      "text": "Newfoundland one point three percent",
      "start": 466.41,
      "duration": 3.03
    },
    {
      "text": "British Columbia 1.3 percent",
      "start": 467.7,
      "duration": 6.6
    },
    {
      "text": "Saskatchewan 1.7 percent Alberta 1.7",
      "start": 469.44,
      "duration": 9.99
    },
    {
      "text": "percent real median household income",
      "start": 474.3,
      "duration": 10.11
    },
    {
      "text": "percent change 2005 to 2015",
      "start": 479.43,
      "duration": 7.5
    },
    {
      "text": "now this is some chilling stuff so this",
      "start": 484.41,
      "duration": 5.25
    },
    {
      "text": "is the decade maybe it's been referred",
      "start": 486.93,
      "duration": 4.47
    },
    {
      "text": "to as Ontario's last decade which we can",
      "start": 489.66,
      "duration": 6.02
    },
    {
      "text": "sort of see here so the decade of",
      "start": 491.4,
      "duration": 4.28
    },
    {
      "text": "percent change of median household",
      "start": 496.01,
      "duration": 6.82
    },
    {
      "text": "income Ontario ranks dead last it is at",
      "start": 498.39,
      "duration": 6.33
    },
    {
      "text": "the very bottom of the pile at a truly",
      "start": 502.83,
      "duration": 5.01
    },
    {
      "text": "anemic 3.8 percent",
      "start": 504.72,
      "duration": 5.61
    },
    {
      "text": "so over 10 years there's been virtually",
      "start": 507.84,
      "duration": 5.34
    },
    {
      "text": "no change in real median household",
      "start": 510.33,
      "duration": 4.769
    },
    {
      "text": "income in Ontario this is from the",
      "start": 513.18,
      "duration": 4.08
    },
    {
      "text": "formerly great growth engine of the",
      "start": 515.099,
      "duration": 4.861
    },
    {
      "text": "Canadian economy now when it comes to",
      "start": 517.26,
      "duration": 5.1
    },
    {
      "text": "rational economics if you're less than",
      "start": 519.96,
      "duration": 4.71
    },
    {
      "text": "half of Quebec you are in a pretty",
      "start": 522.36,
      "duration": 4.98
    },
    {
      "text": "dismal place Quebec clocked in at eight",
      "start": 524.67,
      "duration": 6.24
    },
    {
      "text": "point nine percent growth Nova Scotia",
      "start": 527.34,
      "duration": 6.69
    },
    {
      "text": "10.2% New Brunswick 11% Pei",
      "start": 530.91,
      "duration": 3.82
    },
    {
      "text": "11",
      "start": 534.03,
      "duration": 2.47
    },
    {
      "text": "one percent British Columbia 12.2%",
      "start": 534.73,
      "duration": 4.2
    },
    {
      "text": "Manitoba 20.3%",
      "start": 536.5,
      "duration": 5.91
    },
    {
      "text": "Alberta 24 percent Newfoundland and",
      "start": 538.93,
      "duration": 6.9
    },
    {
      "text": "Labrador 28.9% and Saskatchewan clocking",
      "start": 542.41,
      "duration": 5.97
    },
    {
      "text": "in at thirty six point five percent so",
      "start": 545.83,
      "duration": 4.14
    },
    {
      "text": "here you can get a sense of just how",
      "start": 548.38,
      "duration": 7.56
    },
    {
      "text": "great the difference is that Ontario is",
      "start": 549.97,
      "duration": 10.5
    },
    {
      "text": "about one-tenth the growth in real",
      "start": 555.94,
      "duration": 6.48
    },
    {
      "text": "median household income as compared to",
      "start": 560.47,
      "duration": 4.5
    },
    {
      "text": "Saskatchewan now maybe this has",
      "start": 562.42,
      "duration": 3.69
    },
    {
      "text": "something to do with the fact that",
      "start": 564.97,
      "duration": 3.96
    },
    {
      "text": "certainly as of 2005 well over half of",
      "start": 566.11,
      "duration": 4.23
    },
    {
      "text": "the immigrants to Canada settled in",
      "start": 568.93,
      "duration": 3.93
    },
    {
      "text": "Ontario the vast majority of them in the",
      "start": 570.34,
      "duration": 6.63
    },
    {
      "text": "GTA itself and this was a little bit",
      "start": 572.86,
      "duration": 5.43
    },
    {
      "text": "lower and harper tried to redistribute",
      "start": 576.97,
      "duration": 3.48
    },
    {
      "text": "immigrants a little bit more and to make",
      "start": 578.29,
      "duration": 3.27
    },
    {
      "text": "things a little bit easier on the",
      "start": 580.45,
      "duration": 3.9
    },
    {
      "text": "infrastructure and growth and that's all",
      "start": 581.56,
      "duration": 4.98
    },
    {
      "text": "all changed Ontario's been out clocking",
      "start": 584.35,
      "duration": 4.5
    },
    {
      "text": "at higher rates of immigrants coming in",
      "start": 586.54,
      "duration": 4.17
    },
    {
      "text": "but very few of the immigrants of course",
      "start": 588.85,
      "duration": 4.73
    },
    {
      "text": "are going to places like Manitoba and",
      "start": 590.71,
      "duration": 6.51
    },
    {
      "text": "Saskatchewan and maybe that has",
      "start": 593.58,
      "duration": 5.02
    },
    {
      "text": "something to do with it maybe the cost",
      "start": 597.22,
      "duration": 3.51
    },
    {
      "text": "of immigration in these particular areas",
      "start": 598.6,
      "duration": 3.72
    },
    {
      "text": "particularly in terms of infrastructure",
      "start": 600.73,
      "duration": 4.05
    },
    {
      "text": "is retarding growth but there could be",
      "start": 602.32,
      "duration": 3.96
    },
    {
      "text": "any number of reasons I await your",
      "start": 604.78,
      "duration": 3.57
    },
    {
      "text": "comments below as to your theories but",
      "start": 606.28,
      "duration": 4.41
    },
    {
      "text": "the point is that Ontario from going it",
      "start": 608.35,
      "duration": 4.53
    },
    {
      "text": "has gone from a massive growth driver of",
      "start": 610.69,
      "duration": 3.96
    },
    {
      "text": "the Canadian economy to an anemic last",
      "start": 612.88,
      "duration": 5.52
    },
    {
      "text": "place less than a tenth of the greatest",
      "start": 614.65,
      "duration": 5.1
    },
    {
      "text": "increase in in a province in",
      "start": 618.4,
      "duration": 4.86
    },
    {
      "text": "Saskatchewan that is terrible because",
      "start": 619.75,
      "duration": 6.12
    },
    {
      "text": "this has been at a time when massive",
      "start": 623.26,
      "duration": 4.47
    },
    {
      "text": "debt has been accumulated so massive",
      "start": 625.87,
      "duration": 3.48
    },
    {
      "text": "debt has been accumulated at the same",
      "start": 627.73,
      "duration": 5.37
    },
    {
      "text": "time as real economic growth has stalled",
      "start": 629.35,
      "duration": 5.13
    },
    {
      "text": "to the point of being virtually",
      "start": 633.1,
      "duration": 2.55
    },
    {
      "text": "non-existent",
      "start": 634.48,
      "duration": 4.02
    },
    {
      "text": "this is over ten years that is a",
      "start": 635.65,
      "duration": 5.91
    },
    {
      "text": "terrible terrible I mean there's this",
      "start": 638.5,
      "duration": 4.44
    },
    {
      "text": "coincident Scylla or this this",
      "start": 641.56,
      "duration": 2.49
    },
    {
      "text": "intersection",
      "start": 642.94,
      "duration": 3.09
    },
    {
      "text": "I've massively increased debt with",
      "start": 644.05,
      "duration": 7.16
    },
    {
      "text": "anemic economic growth is terrible",
      "start": 646.03,
      "duration": 5.18
    },
    {
      "text": "so this is",
      "start": 651.27,
      "duration": 4.629
    },
    {
      "text": "change in net debt per capita from 2007",
      "start": 652.72,
      "duration": 8.219
    },
    {
      "text": "to 7 to 2016 and these are in nominal",
      "start": 655.899,
      "duration": 8.79
    },
    {
      "text": "dollars and here we can see that British",
      "start": 660.939,
      "duration": 7.71
    },
    {
      "text": "Columbia has jacked up its debt two",
      "start": 664.689,
      "duration": 5.311
    },
    {
      "text": "thousand three hundred and seventy",
      "start": 668.649,
      "duration": 3.3
    },
    {
      "text": "dollars this is change in net debt per",
      "start": 670,
      "duration": 5.069
    },
    {
      "text": "capita over the decade 2007 to 2016 Nova",
      "start": 671.949,
      "duration": 6.301
    },
    {
      "text": "Scotia 2808 Saskatchewan three thousand",
      "start": 675.069,
      "duration": 7.591
    },
    {
      "text": "twelve PEI 4749 movin in and Labrador",
      "start": 678.25,
      "duration": 5.879
    },
    {
      "text": "five thousand six hundred twenty seven",
      "start": 682.66,
      "duration": 6.929
    },
    {
      "text": "Quebec 5633 Manitoba eight thousand",
      "start": 684.129,
      "duration": 6.96
    },
    {
      "text": "three hundred and thirty-seven New",
      "start": 689.589,
      "duration": 6.06
    },
    {
      "text": "Brunswick 8770 for Ontario nine thousand",
      "start": 691.089,
      "duration": 7.521
    },
    {
      "text": "three hundred and thirteen Alberta",
      "start": 695.649,
      "duration": 8.94
    },
    {
      "text": "twelve thousand seventy four now that is",
      "start": 698.61,
      "duration": 8.079
    },
    {
      "text": "some astonishing numbers and it shows",
      "start": 704.589,
      "duration": 4.831
    },
    {
      "text": "the horrifying situation when the",
      "start": 706.689,
      "duration": 4.08
    },
    {
      "text": "government controls interest rates when",
      "start": 709.42,
      "duration": 2.729
    },
    {
      "text": "the government controls money printing",
      "start": 710.769,
      "duration": 3.63
    },
    {
      "text": "when basically it can type whatever it",
      "start": 712.149,
      "duration": 3.93
    },
    {
      "text": "once into its own bank account you do",
      "start": 714.399,
      "duration": 4.92
    },
    {
      "text": "see in late democratic structures always",
      "start": 716.079,
      "duration": 5.49
    },
    {
      "text": "this addiction to debt and the",
      "start": 719.319,
      "duration": 3.781
    },
    {
      "text": "debasement of currency I remember this",
      "start": 721.569,
      "duration": 2.94
    },
    {
      "text": "really vividly when it first came to",
      "start": 723.1,
      "duration": 5.19
    },
    {
      "text": "Canada I could buy a candy bar for ten",
      "start": 724.509,
      "duration": 7.56
    },
    {
      "text": "cents and the price very rapidly went up",
      "start": 728.29,
      "duration": 6.599
    },
    {
      "text": "and there was astonishing levels of the",
      "start": 732.069,
      "duration": 4.471
    },
    {
      "text": "devaluation of the currency massive",
      "start": 734.889,
      "duration": 3.151
    },
    {
      "text": "amounts of money printing and it just",
      "start": 736.54,
      "duration": 3.06
    },
    {
      "text": "got completely lunatic and it was very",
      "start": 738.04,
      "duration": 4.26
    },
    {
      "text": "relatively quickly that candy bars were",
      "start": 739.6,
      "duration": 5.159
    },
    {
      "text": "a 50 cent 75 cents a dollar I still",
      "start": 742.3,
      "duration": 6.089
    },
    {
      "text": "remember being able to go to the mall in",
      "start": 744.759,
      "duration": 7.56
    },
    {
      "text": "dumbbells and get a slice of pizza and a",
      "start": 748.389,
      "duration": 6.18
    },
    {
      "text": "drink for a dollar slice of pizza with",
      "start": 752.319,
      "duration": 6.27
    },
    {
      "text": "75 cents and the drink was 25 cents so",
      "start": 754.569,
      "duration": 5.851
    },
    {
      "text": "the debasement of the currency that",
      "start": 758.589,
      "duration": 4.651
    },
    {
      "text": "occurred in the 80s and 90s was just",
      "start": 760.42,
      "duration": 4.769
    },
    {
      "text": "astonishing and that's been reined in to",
      "start": 763.24,
      "duration": 4.019
    },
    {
      "text": "some degree although we still see that",
      "start": 765.189,
      "duration": 7.351
    },
    {
      "text": "from 2005 the dollar is now cost a",
      "start": 767.259,
      "duration": 8.221
    },
    {
      "text": "dollar 32 by what a dollar bought you",
      "start": 772.54,
      "duration": 6.21
    },
    {
      "text": "know just a little about 13 13 years ago",
      "start": 775.48,
      "duration": 6
    },
    {
      "text": "so yeah this is still going on but this",
      "start": 778.75,
      "duration": 4.199
    },
    {
      "text": "is this is crippling stuff and if you",
      "start": 781.48,
      "duration": 4.69
    },
    {
      "text": "can see net debt per capita",
      "start": 782.949,
      "duration": 5.411
    },
    {
      "text": "okay per capita is not who can actually",
      "start": 786.17,
      "duration": 3.96
    },
    {
      "text": "pay right because that's just the",
      "start": 788.36,
      "duration": 4.289
    },
    {
      "text": "general population that includes people",
      "start": 790.13,
      "duration": 3.87
    },
    {
      "text": "who aren't working it includes people",
      "start": 792.649,
      "duration": 2.731
    },
    {
      "text": "who are unwell it includes people who",
      "start": 794,
      "duration": 3.93
    },
    {
      "text": "are injured includes people who are home",
      "start": 795.38,
      "duration": 3.959
    },
    {
      "text": "raising children and therefore not",
      "start": 797.93,
      "duration": 2.88
    },
    {
      "text": "directly contributing to the immediate",
      "start": 799.339,
      "duration": 4.44
    },
    {
      "text": "economy but rather allowing the economy",
      "start": 800.81,
      "duration": 4.769
    },
    {
      "text": "to continue to future generations and",
      "start": 803.779,
      "duration": 6.481
    },
    {
      "text": "the culture in the country and this does",
      "start": 805.579,
      "duration": 6.51
    },
    {
      "text": "this includes very very poor people who",
      "start": 810.26,
      "duration": 3.15
    },
    {
      "text": "don't have any assets with which to pay",
      "start": 812.089,
      "duration": 3.571
    },
    {
      "text": "the debt so if you strip all of those",
      "start": 813.41,
      "duration": 5.91
    },
    {
      "text": "people out then basically I think it's",
      "start": 815.66,
      "duration": 5.369
    },
    {
      "text": "you and I her responsible for this debt",
      "start": 819.32,
      "duration": 4.53
    },
    {
      "text": "I don't know but it's going to be pretty",
      "start": 821.029,
      "duration": 5.071
    },
    {
      "text": "bad also does this include as it would",
      "start": 823.85,
      "duration": 3.81
    },
    {
      "text": "it includes all of the people who may be",
      "start": 826.1,
      "duration": 3.69
    },
    {
      "text": "working for the government who would",
      "start": 827.66,
      "duration": 3.84
    },
    {
      "text": "need to not work for the government in",
      "start": 829.79,
      "duration": 3.78
    },
    {
      "text": "order to begin to tamp down on some of",
      "start": 831.5,
      "duration": 3.69
    },
    {
      "text": "this debt and begin to repay it back and",
      "start": 833.57,
      "duration": 5.03
    },
    {
      "text": "so we would want relatively wealthy",
      "start": 835.19,
      "duration": 5.519
    },
    {
      "text": "private-sector workers to actually",
      "start": 838.6,
      "duration": 5.2
    },
    {
      "text": "shoulder the burden and well the numbers",
      "start": 840.709,
      "duration": 4.38
    },
    {
      "text": "are far worse when you grind it through",
      "start": 843.8,
      "duration": 6.39
    },
    {
      "text": "that kind of analysis so as mentioned",
      "start": 845.089,
      "duration": 6.601
    },
    {
      "text": "Ontario owes three hundred and twelve",
      "start": 850.19,
      "duration": 5.37
    },
    {
      "text": "billion dollars two thousand sorry",
      "start": 851.69,
      "duration": 5.04
    },
    {
      "text": "twenty two thousand nine hundred and",
      "start": 855.56,
      "duration": 5.55
    },
    {
      "text": "nineteen per capita that is 37.6 percent",
      "start": 856.73,
      "duration": 10.02
    },
    {
      "text": "of Ontario GDP so just to put this in",
      "start": 861.11,
      "duration": 8.599
    },
    {
      "text": "context in perspective Ontario's debt",
      "start": 866.75,
      "duration": 6.779
    },
    {
      "text": "not at income Ontario's debt is larger",
      "start": 869.709,
      "duration": 5.141
    },
    {
      "text": "than the gross domestic product of",
      "start": 873.529,
      "duration": 2.581
    },
    {
      "text": "seventy five percent of the world's",
      "start": 874.85,
      "duration": 5.25
    },
    {
      "text": "countries we just back over that bump so",
      "start": 876.11,
      "duration": 6.78
    },
    {
      "text": "we can see this again Ontario's debt is",
      "start": 880.1,
      "duration": 4.44
    },
    {
      "text": "larger than the gross domestic product",
      "start": 882.89,
      "duration": 3.09
    },
    {
      "text": "of seventy five percent of the world's",
      "start": 884.54,
      "duration": 7.59
    },
    {
      "text": "countries so Ontario's debt is larger",
      "start": 885.98,
      "duration": 7.979
    },
    {
      "text": "than the gross domestic product of New",
      "start": 892.13,
      "duration": 4.44
    },
    {
      "text": "Zealand Portugal Ukraine Kenya and",
      "start": 893.959,
      "duration": 10.38
    },
    {
      "text": "Romania in 2011 Ontario owed 236 billion",
      "start": 896.57,
      "duration": 11.03
    },
    {
      "text": "well that's quite a change now isn't it",
      "start": 904.339,
      "duration": 6.661
    },
    {
      "text": "in 2014 a report was published saying",
      "start": 907.6,
      "duration": 5.5
    },
    {
      "text": "that Ontario's bonded debt the desh debt",
      "start": 911,
      "duration": 3.63
    },
    {
      "text": "issued in the form of bonds outstripped",
      "start": 913.1,
      "duration": 3.75
    },
    {
      "text": "even that of California now California",
      "start": 914.63,
      "duration": 4.199
    },
    {
      "text": "the left coast of America is considered",
      "start": 916.85,
      "duration": 2.97
    },
    {
      "text": "to be the economic",
      "start": 918.829,
      "duration": 3.811
    },
    {
      "text": "basket case of America California is the",
      "start": 919.82,
      "duration": 8.12
    },
    {
      "text": "most indebted state in the US and no",
      "start": 922.64,
      "duration": 7.26
    },
    {
      "text": "let's just have a look at these numbers",
      "start": 927.94,
      "duration": 3.46
    },
    {
      "text": "it's not a little bit more it's a whole",
      "start": 929.9,
      "duration": 3.51
    },
    {
      "text": "lot more so California this is back in",
      "start": 931.4,
      "duration": 3.35
    },
    {
      "text": "2014",
      "start": 933.41,
      "duration": 4.08
    },
    {
      "text": "California per capita bonded debt was 42",
      "start": 934.75,
      "duration": 5.73
    },
    {
      "text": "hundred that's Canadian $4,200 Ontario",
      "start": 937.49,
      "duration": 8.78
    },
    {
      "text": "20 thousand five hundred dollars so",
      "start": 940.48,
      "duration": 8.74
    },
    {
      "text": "California is the economic basket basket",
      "start": 946.27,
      "duration": 5.92
    },
    {
      "text": "case in the laughingstock of any free",
      "start": 949.22,
      "duration": 6
    },
    {
      "text": "market thinker in America and is",
      "start": 952.19,
      "duration": 4.98
    },
    {
      "text": "considered to be massively indebted",
      "start": 955.22,
      "duration": 5.06
    },
    {
      "text": "particularly bonded debt Ontario has",
      "start": 957.17,
      "duration": 7.95
    },
    {
      "text": "about five times the bonded debt of",
      "start": 960.28,
      "duration": 8.85
    },
    {
      "text": "California five times",
      "start": 965.12,
      "duration": 4.01
    },
    {
      "text": "California's debt to GDP is seven point",
      "start": 969.22,
      "duration": 12.13
    },
    {
      "text": "six percent Ontario 40.9% again these",
      "start": 971.9,
      "duration": 10.74
    },
    {
      "text": "numbers are slightly different they've",
      "start": 981.35,
      "duration": 4.26
    },
    {
      "text": "gotten a little bit better but whether",
      "start": 982.64,
      "duration": 4.71
    },
    {
      "text": "it's thirty seven point six or forty",
      "start": 985.61,
      "duration": 3.24
    },
    {
      "text": "point nine given that there's a spread",
      "start": 987.35,
      "duration": 2.82
    },
    {
      "text": "of a few years between these two numbers",
      "start": 988.85,
      "duration": 3.93
    },
    {
      "text": "let's I think we can all agree that it's",
      "start": 990.17,
      "duration": 4.35
    },
    {
      "text": "a whole lot larger than seven point six",
      "start": 992.78,
      "duration": 3.6
    },
    {
      "text": "percent of California which is the most",
      "start": 994.52,
      "duration": 7.11
    },
    {
      "text": "indebted us date over the last ten years",
      "start": 996.38,
      "duration": 8.04
    },
    {
      "text": "ten years only Ontario debt has more",
      "start": 1001.63,
      "duration": 6.54
    },
    {
      "text": "than doubled more than doubled this is",
      "start": 1004.42,
      "duration": 6.93
    },
    {
      "text": "the accelerating nature of debt starts",
      "start": 1008.17,
      "duration": 5.1
    },
    {
      "text": "off small and it's snowballs you know",
      "start": 1011.35,
      "duration": 3.42
    },
    {
      "text": "that one little snowflake at the top of",
      "start": 1013.27,
      "duration": 2.76
    },
    {
      "text": "the mountain can wipe out a whole town",
      "start": 1014.77,
      "duration": 3.72
    },
    {
      "text": "at the bottom after momentum and",
      "start": 1016.03,
      "duration": 5.85
    },
    {
      "text": "acceleration and accumulation has taken",
      "start": 1018.49,
      "duration": 8.25
    },
    {
      "text": "taking place to death spiral so Ontario",
      "start": 1021.88,
      "duration": 7.47
    },
    {
      "text": "now has the largest sub-national debt in",
      "start": 1026.74,
      "duration": 4.44
    },
    {
      "text": "the world and what that means of course",
      "start": 1029.35,
      "duration": 4.71
    },
    {
      "text": "is that any political entity below the",
      "start": 1031.18,
      "duration": 4.58
    },
    {
      "text": "national level below the federal level",
      "start": 1034.06,
      "duration": 3.87
    },
    {
      "text": "Ontario now has the largest sub national",
      "start": 1035.76,
      "duration": 7.92
    },
    {
      "text": "debt hey number one in the world and",
      "start": 1037.93,
      "duration": 8.55
    },
    {
      "text": "Ontario continues to spend far more than",
      "start": 1043.68,
      "duration": 6.25
    },
    {
      "text": "it collects twelve billion dollars this",
      "start": 1046.48,
      "duration": 5.51
    },
    {
      "text": "year",
      "start": 1049.93,
      "duration": 2.06
    },
    {
      "text": "now a lot of this is the Liberals to do",
      "start": 1052.42,
      "duration": 3.96
    },
    {
      "text": "what they say they're going to do which",
      "start": 1055.03,
      "duration": 3.57
    },
    {
      "text": "is spend a huge amount of money on the",
      "start": 1056.38,
      "duration": 4.43
    },
    {
      "text": "government and it's another way of",
      "start": 1058.6,
      "duration": 4.83
    },
    {
      "text": "employing a lot of immigrants is to put",
      "start": 1060.81,
      "duration": 4.66
    },
    {
      "text": "them into government work but that is of",
      "start": 1063.43,
      "duration": 4.35
    },
    {
      "text": "the expense in general of the economy as",
      "start": 1065.47,
      "duration": 3.71
    },
    {
      "text": "a whole",
      "start": 1067.78,
      "duration": 5.22
    },
    {
      "text": "2003 to 2017 Ontario increased program",
      "start": 1069.18,
      "duration": 5.32
    },
    {
      "text": "spending at an average annual rate of",
      "start": 1073,
      "duration": 5.54
    },
    {
      "text": "4.9 percent and we can see how quickly",
      "start": 1074.5,
      "duration": 8.85
    },
    {
      "text": "that accumulates compounds over the last",
      "start": 1078.54,
      "duration": 6.7
    },
    {
      "text": "two years this increase to twelve point",
      "start": 1083.35,
      "duration": 6.27
    },
    {
      "text": "two percent that's far faster than",
      "start": 1085.24,
      "duration": 5.79
    },
    {
      "text": "economic growth inflation and population",
      "start": 1089.62,
      "duration": 4.26
    },
    {
      "text": "growth so the government dad government",
      "start": 1091.03,
      "duration": 4.89
    },
    {
      "text": "expansion government accumulation does",
      "start": 1093.88,
      "duration": 4.53
    },
    {
      "text": "take on a life and a sinister logic of",
      "start": 1095.92,
      "duration": 6.63
    },
    {
      "text": "its own the Ontario government spends a",
      "start": 1098.41,
      "duration": 5.55
    },
    {
      "text": "billion dollars a year on corporate",
      "start": 1102.55,
      "duration": 3.54
    },
    {
      "text": "welfare and doesn't even bother to track",
      "start": 1103.96,
      "duration": 3.84
    },
    {
      "text": "whether the spending achieves any goals",
      "start": 1106.09,
      "duration": 4.47
    },
    {
      "text": "meets any objectives produces a return",
      "start": 1107.8,
      "duration": 6.15
    },
    {
      "text": "on investment it's just well it's a it's",
      "start": 1110.56,
      "duration": 6.36
    },
    {
      "text": "a handout it's a a welfare to be",
      "start": 1113.95,
      "duration": 7.73
    },
    {
      "text": "monocled monopoly owners premier Wynne",
      "start": 1116.92,
      "duration": 6.99
    },
    {
      "text": "Avant area recently announced you is",
      "start": 1121.68,
      "duration": 4.62
    },
    {
      "text": "gifting Toyota a hundred and ten million",
      "start": 1123.91,
      "duration": 4.95
    },
    {
      "text": "dollars well of course not her",
      "start": 1126.3,
      "duration": 4.27
    },
    {
      "text": "personally and not you as a taxpayer",
      "start": 1128.86,
      "duration": 4.14
    },
    {
      "text": "most likely but in general your children",
      "start": 1130.57,
      "duration": 4.71
    },
    {
      "text": "and your children's children and so on",
      "start": 1133,
      "duration": 3.93
    },
    {
      "text": "ad infinitum well actually no not ad",
      "start": 1135.28,
      "duration": 3.24
    },
    {
      "text": "infinitum because mathematically that",
      "start": 1136.93,
      "duration": 3.86
    },
    {
      "text": "which cannot continue will not continue",
      "start": 1138.52,
      "duration": 4.46
    },
    {
      "text": "the previous year",
      "start": 1140.79,
      "duration": 5.44
    },
    {
      "text": "- when premier Wynne gave 110 million",
      "start": 1142.98,
      "duration": 5.41
    },
    {
      "text": "dollars to Toyota Toyota made a global",
      "start": 1146.23,
      "duration": 4.59
    },
    {
      "text": "profit of 22 billion dollars now of",
      "start": 1148.39,
      "duration": 3.57
    },
    {
      "text": "course if you're in business and someone",
      "start": 1150.82,
      "duration": 2.1
    },
    {
      "text": "offers you a hundred and ten million",
      "start": 1151.96,
      "duration": 5.04
    },
    {
      "text": "dollars for free you have to take it but",
      "start": 1152.92,
      "duration": 6.86
    },
    {
      "text": "a year we all know this is not right",
      "start": 1157,
      "duration": 6.42
    },
    {
      "text": "Ontario how is the sensible how sensible",
      "start": 1159.78,
      "duration": 4.84
    },
    {
      "text": "this is spending while it's been seventy",
      "start": 1163.42,
      "duration": 2.64
    },
    {
      "text": "million dollars on a provincial pension",
      "start": 1164.62,
      "duration": 3.05
    },
    {
      "text": "pension plan that never came to being",
      "start": 1166.06,
      "duration": 5.34
    },
    {
      "text": "1.1 famously 1.1 billion dollars of your",
      "start": 1167.67,
      "duration": 7.27
    },
    {
      "text": "money your future obligations were spent",
      "start": 1171.4,
      "duration": 4.97
    },
    {
      "text": "on gas plants that were never actually",
      "start": 1174.94,
      "duration": 7.47
    },
    {
      "text": "built and it's it's absolutely mental",
      "start": 1176.37,
      "duration": 9.04
    },
    {
      "text": "there are 37 billion dollars has been",
      "start": 1182.41,
      "duration": 3.73
    },
    {
      "text": "spent on",
      "start": 1185.41,
      "duration": 3.91
    },
    {
      "text": "market rates for renewable power 93",
      "start": 1186.14,
      "duration": 5.25
    },
    {
      "text": "billion dollars has been spent on the",
      "start": 1189.32,
      "duration": 3.78
    },
    {
      "text": "fair hydro plan designed to fix the high",
      "start": 1191.39,
      "duration": 3.39
    },
    {
      "text": "hydro rates that have been caused by the",
      "start": 1193.1,
      "duration": 4.08
    },
    {
      "text": "Green Energy Act there's a million",
      "start": 1194.78,
      "duration": 4.41
    },
    {
      "text": "dollars on this electric vehicle",
      "start": 1197.18,
      "duration": 4.59
    },
    {
      "text": "Discovery Center which was in North York",
      "start": 1199.19,
      "duration": 6.51
    },
    {
      "text": "people can test drive electric cars get",
      "start": 1201.77,
      "duration": 5.4
    },
    {
      "text": "a free coffee learn about taxpayer",
      "start": 1205.7,
      "duration": 4.08
    },
    {
      "text": "subsidies but you can actually buy a car",
      "start": 1207.17,
      "duration": 5.63
    },
    {
      "text": "there it's just you know for information",
      "start": 1209.78,
      "duration": 5.91
    },
    {
      "text": "recently Ontario paid taxpayers 47",
      "start": 1212.8,
      "duration": 4.42
    },
    {
      "text": "million dollars to subsidize their",
      "start": 1215.69,
      "duration": 5.04
    },
    {
      "text": "electric cars including things like the",
      "start": 1217.22,
      "duration": 6.48
    },
    {
      "text": "1.1 million dollar Porsche 918 Spyder so",
      "start": 1220.73,
      "duration": 3.93
    },
    {
      "text": "it's good thing they're getting those",
      "start": 1223.7,
      "duration": 3.33
    },
    {
      "text": "subsidies and a Tesla that costs 150",
      "start": 1224.66,
      "duration": 3.15
    },
    {
      "text": "thousand dollars",
      "start": 1227.03,
      "duration": 3.36
    },
    {
      "text": "get your subsidies right here yeah it",
      "start": 1227.81,
      "duration": 4.86
    },
    {
      "text": "just goes on and on but not all of the",
      "start": 1230.39,
      "duration": 3.84
    },
    {
      "text": "money is being spent wisely as you can",
      "start": 1232.67,
      "duration": 3.51
    },
    {
      "text": "imagine I mean it's a fire hose trying",
      "start": 1234.23,
      "duration": 3.39
    },
    {
      "text": "to fill up some cups so you can't aim it",
      "start": 1236.18,
      "duration": 7.83
    },
    {
      "text": "well government growth since 1997 the",
      "start": 1237.62,
      "duration": 7.74
    },
    {
      "text": "number of Ontario government employees",
      "start": 1244.01,
      "duration": 3.56
    },
    {
      "text": "has exploded by four hundred and three",
      "start": 1245.36,
      "duration": 4.29
    },
    {
      "text": "thousand one hundred or forty three",
      "start": 1247.57,
      "duration": 6.22
    },
    {
      "text": "point one percent the Ontario government",
      "start": 1249.65,
      "duration": 6.81
    },
    {
      "text": "recently reported that ten thousand 600",
      "start": 1253.79,
      "duration": 4.29
    },
    {
      "text": "jobs were added to the economy in March",
      "start": 1256.46,
      "duration": 3.48
    },
    {
      "text": "yay but the largest increase was in",
      "start": 1258.08,
      "duration": 5.1
    },
    {
      "text": "hiring government staff not so yay now",
      "start": 1259.94,
      "duration": 4.74
    },
    {
      "text": "government staff not only do they take",
      "start": 1263.18,
      "duration": 3.96
    },
    {
      "text": "people out of the private sector out of",
      "start": 1264.68,
      "duration": 3.75
    },
    {
      "text": "the remnants of the free market but also",
      "start": 1267.14,
      "duration": 3.27
    },
    {
      "text": "a lot of times they stand in the way of",
      "start": 1268.43,
      "duration": 4.56
    },
    {
      "text": "productivity in the free market because",
      "start": 1270.41,
      "duration": 4.59
    },
    {
      "text": "government staff have to do something so",
      "start": 1272.99,
      "duration": 3.27
    },
    {
      "text": "they pass resolutions they make",
      "start": 1275,
      "duration": 2.85
    },
    {
      "text": "regulations they actually stand in the",
      "start": 1276.26,
      "duration": 3.69
    },
    {
      "text": "way so it's a double whammy to economic",
      "start": 1277.85,
      "duration": 5.55
    },
    {
      "text": "growth government employees in Ontario",
      "start": 1279.95,
      "duration": 6.12
    },
    {
      "text": "on thirteen point four percent more than",
      "start": 1283.4,
      "duration": 7.53
    },
    {
      "text": "private sector workers and better",
      "start": 1286.07,
      "duration": 8.76
    },
    {
      "text": "pensions and better benefits and job",
      "start": 1290.93,
      "duration": 5.82
    },
    {
      "text": "security and so on it adds up to quite a",
      "start": 1294.83,
      "duration": 6
    },
    {
      "text": "lot of benefit since 1997 government",
      "start": 1296.75,
      "duration": 5.91
    },
    {
      "text": "staff in Canada have seen their wages",
      "start": 1300.83,
      "duration": 4.22
    },
    {
      "text": "grow by over twenty six percent on",
      "start": 1302.66,
      "duration": 6.42
    },
    {
      "text": "average on average and you compare that",
      "start": 1305.05,
      "duration": 6.07
    },
    {
      "text": "to some of the really low numbers we saw",
      "start": 1309.08,
      "duration": 3.06
    },
    {
      "text": "was at three point eight percent",
      "start": 1311.12,
      "duration": 3.87
    },
    {
      "text": "household median income increase well",
      "start": 1312.14,
      "duration": 5.889
    },
    {
      "text": "that's a lot higher",
      "start": 1314.99,
      "duration": 8.679
    },
    {
      "text": "a lot higher Ontario has 130 1741",
      "start": 1318.029,
      "duration": 6.9
    },
    {
      "text": "government employees making over",
      "start": 1323.669,
      "duration": 4.59
    },
    {
      "text": "$100,000 a year which went up almost 7",
      "start": 1324.929,
      "duration": 6.38
    },
    {
      "text": "percent year-over-year that's 518",
      "start": 1328.259,
      "duration": 5.16
    },
    {
      "text": "Toronto Transit Commission vehicle",
      "start": 1331.309,
      "duration": 4.09
    },
    {
      "text": "operators 25 summer school teachers",
      "start": 1333.419,
      "duration": 4.651
    },
    {
      "text": "making $100,000 summer a year 2 janitors",
      "start": 1335.399,
      "duration": 4.561
    },
    {
      "text": "14 Toronto parking enforcement officers",
      "start": 1338.07,
      "duration": 6.299
    },
    {
      "text": "and almost 8,000 staff at Ontario Power",
      "start": 1339.96,
      "duration": 11.429
    },
    {
      "text": "Generation so debt servicing by its the",
      "start": 1344.369,
      "duration": 8.461
    },
    {
      "text": "money you got to pay on the interest the",
      "start": 1351.389,
      "duration": 2.91
    },
    {
      "text": "money you got to pay on your payments we",
      "start": 1352.83,
      "duration": 2.61
    },
    {
      "text": "all know this you got your visa thing",
      "start": 1354.299,
      "duration": 2.93
    },
    {
      "text": "it's you probably your minimum payments",
      "start": 1355.44,
      "duration": 4.14
    },
    {
      "text": "but debt servicing is now Ontario's",
      "start": 1357.229,
      "duration": 4.54
    },
    {
      "text": "fourth largest cost after health care",
      "start": 1359.58,
      "duration": 6.75
    },
    {
      "text": "education and social services it costs",
      "start": 1361.769,
      "duration": 6.03
    },
    {
      "text": "more than double Ontario's justice",
      "start": 1366.33,
      "duration": 3.87
    },
    {
      "text": "system it consumes 88 percent of the",
      "start": 1367.799,
      "duration": 4.141
    },
    {
      "text": "thirteen point nine billion dollars in",
      "start": 1370.2,
      "duration": 4.219
    },
    {
      "text": "annual Ontario corporate taxes and",
      "start": 1371.94,
      "duration": 7.38
    },
    {
      "text": "corporate taxes are high and almost all",
      "start": 1374.419,
      "duration": 6.88
    },
    {
      "text": "of it goes to just servicing the debt",
      "start": 1379.32,
      "duration": 3.51
    },
    {
      "text": "rather than providing any actual",
      "start": 1381.299,
      "duration": 4.86
    },
    {
      "text": "services to employees Ontario's debt is",
      "start": 1382.83,
      "duration": 6.539
    },
    {
      "text": "actually as much as the annual revenues",
      "start": 1386.159,
      "duration": 8.6
    },
    {
      "text": "of Canada's eight largest companies",
      "start": 1389.369,
      "duration": 7.74
    },
    {
      "text": "interest payments on the debt are",
      "start": 1394.759,
      "duration": 4
    },
    {
      "text": "exactly half of the twenty four billion",
      "start": 1397.109,
      "duration": 5.91
    },
    {
      "text": "dollar education budget now some of",
      "start": 1398.759,
      "duration": 5.941
    },
    {
      "text": "Ontario's debt is locked in at low rates",
      "start": 1403.019,
      "duration": 3.39
    },
    {
      "text": "right because one of the things that",
      "start": 1404.7,
      "duration": 3.059
    },
    {
      "text": "happens when rates go down is",
      "start": 1406.409,
      "duration": 2.76
    },
    {
      "text": "government's like to borrow more and it",
      "start": 1407.759,
      "duration": 3.931
    },
    {
      "text": "seems like it's kind of free stuff you",
      "start": 1409.169,
      "duration": 4.771
    },
    {
      "text": "know like though you ever see those ads",
      "start": 1411.69,
      "duration": 3.839
    },
    {
      "text": "I'm sure you've seen those ads where is",
      "start": 1413.94,
      "duration": 5.76
    },
    {
      "text": "like introductory interest rate of 0.9",
      "start": 1415.529,
      "duration": 5.88
    },
    {
      "text": "percent for your credit card right and",
      "start": 1419.7,
      "duration": 2.849
    },
    {
      "text": "then if you read the fine print after",
      "start": 1421.409,
      "duration": 3.57
    },
    {
      "text": "six months it goes to 18 whatever it is",
      "start": 1422.549,
      "duration": 4.62
    },
    {
      "text": "right and this of course was one of the",
      "start": 1424.979,
      "duration": 4.14
    },
    {
      "text": "big problems with the housing crash and",
      "start": 1427.169,
      "duration": 3.36
    },
    {
      "text": "crisis in the United States that people",
      "start": 1429.119,
      "duration": 5.01
    },
    {
      "text": "got low interest rate loans for their",
      "start": 1430.529,
      "duration": 5.34
    },
    {
      "text": "houses but variable rate mortgages then",
      "start": 1434.129,
      "duration": 3.03
    },
    {
      "text": "kicked up when the interest rates went",
      "start": 1435.869,
      "duration": 2.48
    },
    {
      "text": "up and they couldn't afford their homes",
      "start": 1437.159,
      "duration": 4.08
    },
    {
      "text": "now if you borrow a lot of money at low",
      "start": 1438.349,
      "duration": 4.54
    },
    {
      "text": "interest rates your payment's creep up",
      "start": 1441.239,
      "duration": 3.66
    },
    {
      "text": "but what happens is there's a huge",
      "start": 1442.889,
      "duration": 4.26
    },
    {
      "text": "whiplash effect when the rates go up a",
      "start": 1444.899,
      "duration": 3.45
    },
    {
      "text": "percentage point or two percentage",
      "start": 1447.149,
      "duration": 2.73
    },
    {
      "text": "points which they almost do inevitably",
      "start": 1448.349,
      "duration": 3.081
    },
    {
      "text": "because if you keep crushing interest",
      "start": 1449.879,
      "duration": 3.801
    },
    {
      "text": "right slow you stimulate economic growth",
      "start": 1451.43,
      "duration": 5.1
    },
    {
      "text": "in the moment but you depress savings",
      "start": 1453.68,
      "duration": 4.2
    },
    {
      "text": "and because there's fewer savings",
      "start": 1456.53,
      "duration": 3.21
    },
    {
      "text": "there's less money available to invest",
      "start": 1457.88,
      "duration": 3.75
    },
    {
      "text": "in raising worker productivity growing",
      "start": 1459.74,
      "duration": 4.26
    },
    {
      "text": "businesses and so on and so what's",
      "start": 1461.63,
      "duration": 3.93
    },
    {
      "text": "happened is a huge amount of it the",
      "start": 1464,
      "duration": 4.29
    },
    {
      "text": "money has been borrowed because of these",
      "start": 1465.56,
      "duration": 5.52
    },
    {
      "text": "low interest rates and those interest",
      "start": 1468.29,
      "duration": 4.59
    },
    {
      "text": "rates are going to go up and the that",
      "start": 1471.08,
      "duration": 3.09
    },
    {
      "text": "doesn't just affect new borrowing that",
      "start": 1472.88,
      "duration": 4.5
    },
    {
      "text": "affects what has already been borrowed",
      "start": 1474.17,
      "duration": 5.01
    },
    {
      "text": "right so some of Ontario's dad is locked",
      "start": 1477.38,
      "duration": 3.87
    },
    {
      "text": "in at low rates but up to 40% of",
      "start": 1479.18,
      "duration": 3.36
    },
    {
      "text": "Ontario's three hundred eleven point",
      "start": 1481.25,
      "duration": 2.85
    },
    {
      "text": "seven billion dollar debt becomes you",
      "start": 1482.54,
      "duration": 5.54
    },
    {
      "text": "during the next governmental turn and",
      "start": 1484.1,
      "duration": 6.33
    },
    {
      "text": "people should be asking politicians",
      "start": 1488.08,
      "duration": 5.83
    },
    {
      "text": "about this but they're not which is kind",
      "start": 1490.43,
      "duration": 5.49
    },
    {
      "text": "of what I said that that debt makes you",
      "start": 1493.91,
      "duration": 3.54
    },
    {
      "text": "kind of lazy and distracted and",
      "start": 1495.92,
      "duration": 3.84
    },
    {
      "text": "irritable and dependent and whiny and",
      "start": 1497.45,
      "duration": 4.47
    },
    {
      "text": "complainy and avoidant and you know all",
      "start": 1499.76,
      "duration": 6.42
    },
    {
      "text": "the kind of stuff Ontario's debt to GDP",
      "start": 1501.92,
      "duration": 10.38
    },
    {
      "text": "ratio has exploded so 1980 to 1981 it",
      "start": 1506.18,
      "duration": 9.51
    },
    {
      "text": "was nine point one percent nine point",
      "start": 1512.3,
      "duration": 6
    },
    {
      "text": "one percent not great but manageable",
      "start": 1515.69,
      "duration": 5.28
    },
    {
      "text": "tonight now it's just under 40 percent",
      "start": 1518.3,
      "duration": 7.14
    },
    {
      "text": "at present so debt to GDP has gone up",
      "start": 1520.97,
      "duration": 7.86
    },
    {
      "text": "more than four times over the last",
      "start": 1525.44,
      "duration": 8.07
    },
    {
      "text": "couple decades now the NDP the national",
      "start": 1528.83,
      "duration": 6.78
    },
    {
      "text": "sorry the New Democratic Party want to",
      "start": 1533.51,
      "duration": 4.38
    },
    {
      "text": "increase program spending to 164 billion",
      "start": 1535.61,
      "duration": 5.64
    },
    {
      "text": "dollars by 2020 1/20 to about 5 billion",
      "start": 1537.89,
      "duration": 8.49
    },
    {
      "text": "more than the Liberals and I just you",
      "start": 1541.25,
      "duration": 5.94
    },
    {
      "text": "know sidebar",
      "start": 1546.38,
      "duration": 2.16
    },
    {
      "text": "I just want to point out how in",
      "start": 1547.19,
      "duration": 4.5
    },
    {
      "text": "comprehensible that says to me that you",
      "start": 1548.54,
      "duration": 5.79
    },
    {
      "text": "were already massively in debt interest",
      "start": 1551.69,
      "duration": 3.84
    },
    {
      "text": "rates are going to do an uptick you've",
      "start": 1554.33,
      "duration": 2.43
    },
    {
      "text": "got a refinance a whole bunch of that",
      "start": 1555.53,
      "duration": 2.46
    },
    {
      "text": "debt at higher interest rates and you",
      "start": 1556.76,
      "duration": 2.79
    },
    {
      "text": "just want to keep piling on the spending",
      "start": 1557.99,
      "duration": 5.61
    },
    {
      "text": "and building up the debt and I under",
      "start": 1559.55,
      "duration": 6.24
    },
    {
      "text": "matically don't understand I mean isn't",
      "start": 1563.6,
      "duration": 4.38
    },
    {
      "text": "that just a general desire to break any",
      "start": 1565.79,
      "duration": 5.36
    },
    {
      "text": "remnants of the free market system",
      "start": 1567.98,
      "duration": 3.17
    },
    {
      "text": "implementing the new democratic plan in",
      "start": 1572.56,
      "duration": 4.42
    },
    {
      "text": "Ontario would mean program spending in",
      "start": 1575.36,
      "duration": 4.23
    },
    {
      "text": "20 21 22 would increase by 26% in",
      "start": 1576.98,
      "duration": 5.07
    },
    {
      "text": "nominal terms over the five-year period",
      "start": 1579.59,
      "duration": 5.87
    },
    {
      "text": "starting 2016 to 2017",
      "start": 1582.05,
      "duration": 3.41
    },
    {
      "text": "and every dollar you borrow is multiple",
      "start": 1586.84,
      "duration": 6.339
    },
    {
      "text": "dollars you'll have to pay back in the",
      "start": 1591.44,
      "duration": 2.22
    },
    {
      "text": "future",
      "start": 1593.179,
      "duration": 2.281
    },
    {
      "text": "it's a drunk you understand it's like a",
      "start": 1593.66,
      "duration": 3.24
    },
    {
      "text": "drug rather than dealing with problems",
      "start": 1595.46,
      "duration": 4.68
    },
    {
      "text": "are becoming happy organically you just",
      "start": 1596.9,
      "duration": 5.1
    },
    {
      "text": "take cocaine and it's like hey I've",
      "start": 1600.14,
      "duration": 4.2
    },
    {
      "text": "solved my problems got a toothache yeah",
      "start": 1602,
      "duration": 5.04
    },
    {
      "text": "just take cocaine toothache feels better",
      "start": 1604.34,
      "duration": 4.35
    },
    {
      "text": "now doesn't it but the rock gets deeper",
      "start": 1607.04,
      "duration": 4.11
    },
    {
      "text": "and this avoidance a basic reality which",
      "start": 1608.69,
      "duration": 3.18
    },
    {
      "text": "is a collusion",
      "start": 1611.15,
      "duration": 2.52
    },
    {
      "text": "it's a collusion between the media the",
      "start": 1611.87,
      "duration": 3.21
    },
    {
      "text": "politicians the general public in",
      "start": 1613.67,
      "duration": 2.61
    },
    {
      "text": "particular or the general public seems",
      "start": 1615.08,
      "duration": 4.14
    },
    {
      "text": "pretty aware of these issues but there's",
      "start": 1616.28,
      "duration": 4.32
    },
    {
      "text": "this weird collusion that goes on",
      "start": 1619.22,
      "duration": 3.15
    },
    {
      "text": "mutually assured destruction what we",
      "start": 1620.6,
      "duration": 3.12
    },
    {
      "text": "won't talk about you're overspending but",
      "start": 1622.37,
      "duration": 2.939
    },
    {
      "text": "we won't do this or everybody's just",
      "start": 1623.72,
      "duration": 2.88
    },
    {
      "text": "colluding to kind of hide this stuff",
      "start": 1625.309,
      "duration": 6.211
    },
    {
      "text": "because it's become so bad that the kind",
      "start": 1626.6,
      "duration": 6.39
    },
    {
      "text": "of changes that would be required have",
      "start": 1631.52,
      "duration": 2.909
    },
    {
      "text": "become what many people would consider",
      "start": 1632.99,
      "duration": 4.319
    },
    {
      "text": "so radical that everybody's just step it",
      "start": 1634.429,
      "duration": 4.321
    },
    {
      "text": "around this big giant debt-ridden",
      "start": 1637.309,
      "duration": 3.87
    },
    {
      "text": "elephant in the room we got to stop that",
      "start": 1638.75,
      "duration": 8.669
    },
    {
      "text": "I mean we have to stop the liberal",
      "start": 1641.179,
      "duration": 8.13
    },
    {
      "text": "budget aims for a 6% increase in program",
      "start": 1647.419,
      "duration": 4.021
    },
    {
      "text": "spending this year is all spending",
      "start": 1649.309,
      "duration": 3.421
    },
    {
      "text": "outside of government debt interest",
      "start": 1651.44,
      "duration": 3.69
    },
    {
      "text": "payments last year the increase was",
      "start": 1652.73,
      "duration": 6.99
    },
    {
      "text": "close to 6% so spending grows by twelve",
      "start": 1655.13,
      "duration": 8.66
    },
    {
      "text": "point two percent in just two years",
      "start": 1659.72,
      "duration": 4.07
    },
    {
      "text": "projected operating deficits will be",
      "start": 1664.15,
      "duration": 4.72
    },
    {
      "text": "just less than seven billion dollars in",
      "start": 1666.65,
      "duration": 3.3
    },
    {
      "text": "each of the next three fiscal years",
      "start": 1668.87,
      "duration": 3.32
    },
    {
      "text": "that's income that doesn't cover",
      "start": 1669.95,
      "duration": 8.94
    },
    {
      "text": "spending astounding so another way",
      "start": 1672.19,
      "duration": 7.9
    },
    {
      "text": "putting this is the pace of debt",
      "start": 1678.89,
      "duration": 5.06
    },
    {
      "text": "accumulation will double and then some",
      "start": 1680.09,
      "duration": 5.88
    },
    {
      "text": "so this year the Ontario government",
      "start": 1683.95,
      "duration": 3.76
    },
    {
      "text": "plans to add sixteen point eight billion",
      "start": 1685.97,
      "duration": 4.079
    },
    {
      "text": "dollars to the provinces net debt and",
      "start": 1687.71,
      "duration": 3.839
    },
    {
      "text": "measured that adjusts for financial",
      "start": 1690.049,
      "duration": 4.831
    },
    {
      "text": "assets very similar increases are",
      "start": 1691.549,
      "duration": 4.681
    },
    {
      "text": "expected in the following three years",
      "start": 1694.88,
      "duration": 3.27
    },
    {
      "text": "this brings Ontario's net debt to three",
      "start": 1696.23,
      "duration": 4.62
    },
    {
      "text": "hundred and seventy seven billion",
      "start": 1698.15,
      "duration": 7.32
    },
    {
      "text": "dollars over the last three years",
      "start": 1700.85,
      "duration": 6.36
    },
    {
      "text": "Ontario's net debt increased by twenty",
      "start": 1705.47,
      "duration": 5.1
    },
    {
      "text": "two point eight billion dollars over the",
      "start": 1707.21,
      "duration": 4.56
    },
    {
      "text": "next three years the proposed budget",
      "start": 1710.57,
      "duration": 2.849
    },
    {
      "text": "calls for a provincial debt to grow by",
      "start": 1711.77,
      "duration": 6.06
    },
    {
      "text": "52 billion dollars now I'm aware in the",
      "start": 1713.419,
      "duration": 4.711
    },
    {
      "text": "elect",
      "start": 1717.83,
      "duration": 3.93
    },
    {
      "text": "that the Liberals have have conceded but",
      "start": 1718.13,
      "duration": 6.03
    },
    {
      "text": "this is the proposal this is what they",
      "start": 1721.76,
      "duration": 5.01
    },
    {
      "text": "wanted and we need people who are going",
      "start": 1724.16,
      "duration": 6.72
    },
    {
      "text": "to deal with this problem so between the",
      "start": 1726.77,
      "duration": 8.3
    },
    {
      "text": "fiscal years of 2008 to 2016 Ontario had",
      "start": 1730.88,
      "duration": 7.98
    },
    {
      "text": "uninterrupted deficits and added about a",
      "start": 1735.07,
      "duration": 5.35
    },
    {
      "text": "hundred and thirty billion dollars in",
      "start": 1738.86,
      "duration": 5.04
    },
    {
      "text": "new net debt now of course the",
      "start": 1740.42,
      "duration": 5.67
    },
    {
      "text": "government every year pretty much or",
      "start": 1743.9,
      "duration": 3.75
    },
    {
      "text": "certainly every election cycle said oh",
      "start": 1746.09,
      "duration": 4.05
    },
    {
      "text": "these deficits are temporary the budget",
      "start": 1747.65,
      "duration": 4.71
    },
    {
      "text": "is going to balance itself and don't",
      "start": 1750.14,
      "duration": 4.53
    },
    {
      "text": "worry by 27 and 2018 everything's gonna",
      "start": 1752.36,
      "duration": 3.81
    },
    {
      "text": "be hunky-dory we're gonna kick the can",
      "start": 1754.67,
      "duration": 3.3
    },
    {
      "text": "down the road magic is going to occur",
      "start": 1756.17,
      "duration": 3.54
    },
    {
      "text": "Pixies are gonna deliver the gold dust",
      "start": 1757.97,
      "duration": 4.53
    },
    {
      "text": "it's necessary to snort into the",
      "start": 1759.71,
      "duration": 4.08
    },
    {
      "text": "addiction of debt and we're just gonna",
      "start": 1762.5,
      "duration": 2.49
    },
    {
      "text": "solve everything every is going to be",
      "start": 1763.79,
      "duration": 3.27
    },
    {
      "text": "great now of course this time has come",
      "start": 1764.99,
      "duration": 7.8
    },
    {
      "text": "and it's just getting worse so the debt",
      "start": 1767.06,
      "duration": 12.06
    },
    {
      "text": "to GDP ratio in 2008 was 26 percent now",
      "start": 1772.79,
      "duration": 10.89
    },
    {
      "text": "it's 38 percent today so all the",
      "start": 1779.12,
      "duration": 6.45
    },
    {
      "text": "promises right all of the promises of",
      "start": 1783.68,
      "duration": 2.91
    },
    {
      "text": "course they're never delivered right",
      "start": 1785.57,
      "duration": 2.94
    },
    {
      "text": "this is the horrifying thing that",
      "start": 1786.59,
      "duration": 3.78
    },
    {
      "text": "happens okay let's do our fullscreen",
      "start": 1788.51,
      "duration": 4.35
    },
    {
      "text": "here so this is the horrifying thing",
      "start": 1790.37,
      "duration": 5.61
    },
    {
      "text": "that happens and there's no way around",
      "start": 1792.86,
      "duration": 5.55
    },
    {
      "text": "it given the way the system works at the",
      "start": 1795.98,
      "duration": 5.52
    },
    {
      "text": "moment politicians promise free stuff to",
      "start": 1798.41,
      "duration": 4.53
    },
    {
      "text": "people and you can see this in all the",
      "start": 1801.5,
      "duration": 2.82
    },
    {
      "text": "political programs and we get free",
      "start": 1802.94,
      "duration": 2.43
    },
    {
      "text": "daycare we're gonna get through this",
      "start": 1804.32,
      "duration": 2.64
    },
    {
      "text": "we're gonna get free that subsidize this",
      "start": 1805.37,
      "duration": 3.06
    },
    {
      "text": "maternity leave that everything's in",
      "start": 1806.96,
      "duration": 3.45
    },
    {
      "text": "increases for public sector workers more",
      "start": 1808.43,
      "duration": 3.45
    },
    {
      "text": "pensions more spending on this more",
      "start": 1810.41,
      "duration": 5.96
    },
    {
      "text": "spending on that and then the government",
      "start": 1811.88,
      "duration": 7.41
    },
    {
      "text": "borrows the money and spends it and it",
      "start": 1816.37,
      "duration": 4.66
    },
    {
      "text": "looks like there's this net increase in",
      "start": 1819.29,
      "duration": 3.66
    },
    {
      "text": "the economy back to you're just you know",
      "start": 1821.03,
      "duration": 3.06
    },
    {
      "text": "it's like if you don't work and you just",
      "start": 1822.95,
      "duration": 2.73
    },
    {
      "text": "start running up credit card bills",
      "start": 1824.09,
      "duration": 3.15
    },
    {
      "text": "you're like wow this guy's really got it",
      "start": 1825.68,
      "duration": 2.64
    },
    {
      "text": "made he doesn't have to work and he's",
      "start": 1827.24,
      "duration": 2.28
    },
    {
      "text": "got lots of money but all he's doing is",
      "start": 1828.32,
      "duration": 2.42
    },
    {
      "text": "setting himself up for future problems",
      "start": 1829.52,
      "duration": 3.12
    },
    {
      "text": "now because the debt is",
      "start": 1830.74,
      "duration": 3.25
    },
    {
      "text": "intergenerational because the debt is",
      "start": 1832.64,
      "duration": 3.87
    },
    {
      "text": "long-term I think it was Nova Scotia",
      "start": 1833.99,
      "duration": 4.95
    },
    {
      "text": "that have bonds that are like more than",
      "start": 1836.51,
      "duration": 4.59
    },
    {
      "text": "50 years well if you're in power you're",
      "start": 1838.94,
      "duration": 4.38
    },
    {
      "text": "a politician and you get that money for",
      "start": 1841.1,
      "duration": 5.61
    },
    {
      "text": "free and you kick the can 10 20 30 years",
      "start": 1843.32,
      "duration": 5.79
    },
    {
      "text": "down the road or more then what happens",
      "start": 1846.71,
      "duration": 4.16
    },
    {
      "text": "is you provide benefit quote",
      "start": 1849.11,
      "duration": 4.34
    },
    {
      "text": "to the voters and then by the time the",
      "start": 1850.87,
      "duration": 4.41
    },
    {
      "text": "bill comes to your long retired you out",
      "start": 1853.45,
      "duration": 4.5
    },
    {
      "text": "of the game you're done so who could",
      "start": 1855.28,
      "duration": 5.07
    },
    {
      "text": "possibly say no to such an unholy",
      "start": 1857.95,
      "duration": 5.609
    },
    {
      "text": "bargain the taxpayers can't seem to say",
      "start": 1860.35,
      "duration": 5.85
    },
    {
      "text": "no the politicians have no incentive to",
      "start": 1863.559,
      "duration": 5.161
    },
    {
      "text": "say no and the generally left leaving",
      "start": 1866.2,
      "duration": 4.53
    },
    {
      "text": "mainstream media has no incentive to",
      "start": 1868.72,
      "duration": 3.45
    },
    {
      "text": "hold the politicians feet to the fire",
      "start": 1870.73,
      "duration": 3.3
    },
    {
      "text": "and ask what are you going to do about",
      "start": 1872.17,
      "duration": 5.07
    },
    {
      "text": "the debt and there's this weird like",
      "start": 1874.03,
      "duration": 5.13
    },
    {
      "text": "we're separated from from the love we",
      "start": 1877.24,
      "duration": 3.3
    },
    {
      "text": "might have for our children",
      "start": 1879.16,
      "duration": 3.93
    },
    {
      "text": "you cannot burden the unborn the young",
      "start": 1880.54,
      "duration": 4.98
    },
    {
      "text": "vie no taxation without representation",
      "start": 1883.09,
      "duration": 3.75
    },
    {
      "text": "was the cry of the American",
      "start": 1885.52,
      "duration": 3
    },
    {
      "text": "revolutionaries right how on earth is",
      "start": 1886.84,
      "duration": 5.01
    },
    {
      "text": "ajust affair to ladle and Laden down",
      "start": 1888.52,
      "duration": 7.17
    },
    {
      "text": "children with this much debt they didn't",
      "start": 1891.85,
      "duration": 5.4
    },
    {
      "text": "choose they didn't vote they're not",
      "start": 1895.69,
      "duration": 3.119
    },
    {
      "text": "asking for it they gotta pay the bills",
      "start": 1897.25,
      "duration": 4.38
    },
    {
      "text": "and this is alienating us from our love",
      "start": 1898.809,
      "duration": 5.391
    },
    {
      "text": "for our children and as a father I care",
      "start": 1901.63,
      "duration": 4.92
    },
    {
      "text": "where my daughter is going to grow up",
      "start": 1904.2,
      "duration": 4.45
    },
    {
      "text": "and we all know I mean this is deep down",
      "start": 1906.55,
      "duration": 3.42
    },
    {
      "text": "we all know this this is absolutely",
      "start": 1908.65,
      "duration": 2.43
    },
    {
      "text": "wrong",
      "start": 1909.97,
      "duration": 4.68
    },
    {
      "text": "this is absolutely immoral to use the",
      "start": 1911.08,
      "duration": 5.31
    },
    {
      "text": "next generation as collateral to feed",
      "start": 1914.65,
      "duration": 5.61
    },
    {
      "text": "our greed in the here and now and then",
      "start": 1916.39,
      "duration": 8.22
    },
    {
      "text": "people say I've seen these ads - ah the",
      "start": 1920.26,
      "duration": 6.39
    },
    {
      "text": "Conservatives in Ontario they want to",
      "start": 1924.61,
      "duration": 4.83
    },
    {
      "text": "fire nurses and teachers female-centric",
      "start": 1926.65,
      "duration": 5.88
    },
    {
      "text": "occupations of course and it's like what",
      "start": 1929.44,
      "duration": 5.82
    },
    {
      "text": "this is terrible we can't have any",
      "start": 1932.53,
      "duration": 4.529
    },
    {
      "text": "sacrifices this is what I mean the",
      "start": 1935.26,
      "duration": 3.69
    },
    {
      "text": "toughness in the people in Ontario that",
      "start": 1937.059,
      "duration": 6.721
    },
    {
      "text": "I first encountered in the 70s seems to",
      "start": 1938.95,
      "duration": 7.979
    },
    {
      "text": "have faded just a smidge or two because",
      "start": 1943.78,
      "duration": 6.27
    },
    {
      "text": "now it's like well there was this",
      "start": 1946.929,
      "duration": 4.741
    },
    {
      "text": "massive amount of spending this massive",
      "start": 1950.05,
      "duration": 4.98
    },
    {
      "text": "amount of data accumulation and you can",
      "start": 1951.67,
      "duration": 4.95
    },
    {
      "text": "only party for so long before you got to",
      "start": 1955.03,
      "duration": 3.06
    },
    {
      "text": "end up waking up with a hangover right",
      "start": 1956.62,
      "duration": 4.35
    },
    {
      "text": "and so now yes some sacrifices are gonna",
      "start": 1958.09,
      "duration": 4.41
    },
    {
      "text": "have to be made and they're not gonna be",
      "start": 1960.97,
      "duration": 4.53
    },
    {
      "text": "fun for a lot of people of course but",
      "start": 1962.5,
      "duration": 4.26
    },
    {
      "text": "this idea that you have to make",
      "start": 1965.5,
      "duration": 3.09
    },
    {
      "text": "sacrifices you know men get yanked off",
      "start": 1966.76,
      "duration": 4.83
    },
    {
      "text": "to war and come back in a body bag or in",
      "start": 1968.59,
      "duration": 5.52
    },
    {
      "text": "a wheelchair or traumatized men get",
      "start": 1971.59,
      "duration": 4.68
    },
    {
      "text": "yanked off - Warren that's just the way",
      "start": 1974.11,
      "duration": 4.02
    },
    {
      "text": "things go but now we have a lot of",
      "start": 1976.27,
      "duration": 3.3
    },
    {
      "text": "people who are going to have to take",
      "start": 1978.13,
      "duration": 2.94
    },
    {
      "text": "reduce circumstances who are going to",
      "start": 1979.57,
      "duration": 3.54
    },
    {
      "text": "have to deal with moving from the public",
      "start": 1981.07,
      "duration": 3.66
    },
    {
      "text": "sector through the private sector and",
      "start": 1983.11,
      "duration": 3.87
    },
    {
      "text": "all of the attendant increases in",
      "start": 1984.73,
      "duration": 3.99
    },
    {
      "text": "requirements and discipline and so on",
      "start": 1986.98,
      "duration": 3.329
    },
    {
      "text": "people can have to get real jobs and",
      "start": 1988.72,
      "duration": 2.61
    },
    {
      "text": "suddenly though we can't have that",
      "start": 1990.309,
      "duration": 3.151
    },
    {
      "text": "sacrifice yeah we can send a billion men",
      "start": 1991.33,
      "duration": 4.26
    },
    {
      "text": "off to war but we can't possibly reduce",
      "start": 1993.46,
      "duration": 6.06
    },
    {
      "text": "government spending why what happened to",
      "start": 1995.59,
      "duration": 5.1
    },
    {
      "text": "our toughness what happened to our",
      "start": 1999.52,
      "duration": 2.85
    },
    {
      "text": "capacity to make sacrifices for the",
      "start": 2000.69,
      "duration": 3.69
    },
    {
      "text": "greater good what happened to us no",
      "start": 2002.37,
      "duration": 4.32
    },
    {
      "text": "longer being democratic vampires feeding",
      "start": 2004.38,
      "duration": 5.19
    },
    {
      "text": "on the unborn to prop up our incomes in",
      "start": 2006.69,
      "duration": 4.92
    },
    {
      "text": "the here and now this is predatory",
      "start": 2009.57,
      "duration": 4.43
    },
    {
      "text": "people this is intergenerational piracy",
      "start": 2011.61,
      "duration": 8.97
    },
    {
      "text": "this is wrong this is wrong we're gonna",
      "start": 2014,
      "duration": 8.08
    },
    {
      "text": "have to take those sacrifices we're",
      "start": 2020.58,
      "duration": 3.15
    },
    {
      "text": "gonna have to learn this lesson we can",
      "start": 2022.08,
      "duration": 3.24
    },
    {
      "text": "have to stop doing this stuff we can",
      "start": 2023.73,
      "duration": 2.819
    },
    {
      "text": "have to find ways to prevent it from",
      "start": 2025.32,
      "duration": 4.47
    },
    {
      "text": "happening again and it's gonna be tough",
      "start": 2026.549,
      "duration": 7.171
    },
    {
      "text": "and it's gonna be hard and that's why we",
      "start": 2029.79,
      "duration": 6.75
    },
    {
      "text": "should never have done this in the first",
      "start": 2033.72,
      "duration": 5.03
    },
    {
      "text": "place",
      "start": 2036.54,
      "duration": 2.21
    },
    {
      "text": "you",
      "start": 2045.779,
      "duration": 2.061
    }
  ],
  "Errors": null,
  "TranscriptStderr": null
}