{
  "Title": "Dawn of the Planet of the Apes - Revealed!",
  "Id": "tduWL6s5doE",
  "Transcript": [
    {
      "text": "hi everybody stefan molyneux from",
      "start": 0,
      "duration": 2.669
    },
    {
      "text": "freedomain radio I hope you're doing",
      "start": 1.62,
      "duration": 1.47
    },
    {
      "text": "well",
      "start": 2.669,
      "duration": 3.331
    },
    {
      "text": "day one of dawn at the Planet of the",
      "start": 3.09,
      "duration": 3.3
    },
    {
      "text": "Apes",
      "start": 6,
      "duration": 4.05
    },
    {
      "text": "I went with Mike to go and see the movie",
      "start": 6.39,
      "duration": 6.81
    },
    {
      "text": "there's so much to talk about in this",
      "start": 10.05,
      "duration": 7.559
    },
    {
      "text": "film I'll give it a medium to nose hair",
      "start": 13.2,
      "duration": 6.409
    },
    {
      "text": "thumb up I think it's worth watching",
      "start": 17.609,
      "duration": 4.771
    },
    {
      "text": "first of all I mean the technology the",
      "start": 19.609,
      "duration": 6.791
    },
    {
      "text": "CGI is truly astounding and when you are",
      "start": 22.38,
      "duration": 5.88
    },
    {
      "text": "as flatlined an actress as Keri Russell",
      "start": 26.4,
      "duration": 4.56
    },
    {
      "text": "and you can't even remotely hold pace",
      "start": 28.26,
      "duration": 6.18
    },
    {
      "text": "with electronically generated Apes I",
      "start": 30.96,
      "duration": 5.34
    },
    {
      "text": "guess it's time to return for some",
      "start": 34.44,
      "duration": 4.35
    },
    {
      "text": "serious Stanislavski brushing up on your",
      "start": 36.3,
      "duration": 5.55
    },
    {
      "text": "acting technique but there will be some",
      "start": 38.79,
      "duration": 5.31
    },
    {
      "text": "spoilers in this I can't really talk",
      "start": 41.85,
      "duration": 3.93
    },
    {
      "text": "about the philosophical depths of the",
      "start": 44.1,
      "duration": 4.11
    },
    {
      "text": "ape obsession movie land without a few",
      "start": 45.78,
      "duration": 4.41
    },
    {
      "text": "spoilers so if you haven't seen the foam",
      "start": 48.21,
      "duration": 3.15
    },
    {
      "text": "yet and you don't want them you might",
      "start": 50.19,
      "duration": 5.04
    },
    {
      "text": "want to wait until you have so the movie",
      "start": 51.36,
      "duration": 5.49
    },
    {
      "text": "starts this is all the very beginning",
      "start": 55.23,
      "duration": 4.53
    },
    {
      "text": "there's a an experiment being done on",
      "start": 56.85,
      "duration": 6.75
    },
    {
      "text": "monkeys simian virus emerges wipes out",
      "start": 59.76,
      "duration": 7.17
    },
    {
      "text": "most of mankind and you know you're in",
      "start": 63.6,
      "duration": 5.58
    },
    {
      "text": "for a bit of a propaganda fest when you",
      "start": 66.93,
      "duration": 6.21
    },
    {
      "text": "hear an announcer saying that the",
      "start": 69.18,
      "duration": 6.119
    },
    {
      "text": "essential functions of government are",
      "start": 73.14,
      "duration": 4.29
    },
    {
      "text": "shutting down and then sort of one by",
      "start": 75.299,
      "duration": 4.5
    },
    {
      "text": "one the lights of the cities go out and",
      "start": 77.43,
      "duration": 4.2
    },
    {
      "text": "mankind returns to a beastial state",
      "start": 79.799,
      "duration": 3.841
    },
    {
      "text": "because naturally with smaller",
      "start": 81.63,
      "duration": 4.62
    },
    {
      "text": "government you just get a completely Mel",
      "start": 83.64,
      "duration": 5.4
    },
    {
      "text": "Gibson inhabited hellscape of brain",
      "start": 86.25,
      "duration": 5.28
    },
    {
      "text": "slicing boomerangs and people on flaming",
      "start": 89.04,
      "duration": 4.32
    },
    {
      "text": "motorcycles shooting nunchucks at each",
      "start": 91.53,
      "duration": 7.339
    },
    {
      "text": "other and then we sort of switch to a",
      "start": 93.36,
      "duration": 8.52
    },
    {
      "text": "monkey community in a community and",
      "start": 98.869,
      "duration": 5.081
    },
    {
      "text": "they're all living together in kumbaya",
      "start": 101.88,
      "duration": 4.949
    },
    {
      "text": "peace and harmony not exactly the way",
      "start": 103.95,
      "duration": 5.72
    },
    {
      "text": "that apes are in the wild where they're",
      "start": 106.829,
      "duration": 5.701
    },
    {
      "text": "pretty rapey with each other and",
      "start": 109.67,
      "duration": 6.51
    },
    {
      "text": "actually really enjoy hunting and eating",
      "start": 112.53,
      "duration": 7.799
    },
    {
      "text": "each other but in this noble savage",
      "start": 116.18,
      "duration": 6.369
    },
    {
      "text": "Rousseau Ian fantasy they're all",
      "start": 120.329,
      "duration": 4.261
    },
    {
      "text": "learning ethics and listening to each",
      "start": 122.549,
      "duration": 3.721
    },
    {
      "text": "other and being wise and figuring out",
      "start": 124.59,
      "duration": 4.08
    },
    {
      "text": "all the deep complex problems of the",
      "start": 126.27,
      "duration": 4.17
    },
    {
      "text": "universe and trust in the future a lot",
      "start": 128.67,
      "duration": 4.92
    },
    {
      "text": "of really abstract concepts",
      "start": 130.44,
      "duration": 6.75
    },
    {
      "text": "for a group of individuals who have yet",
      "start": 133.59,
      "duration": 5.7
    },
    {
      "text": "to figure out pants",
      "start": 137.19,
      "duration": 4.95
    },
    {
      "text": "for instance and who have no genitals I",
      "start": 139.29,
      "duration": 4.74
    },
    {
      "text": "guess they come from the Kendall School",
      "start": 142.14,
      "duration": 5.25
    },
    {
      "text": "of asexual reproduction but you know not",
      "start": 144.03,
      "duration": 6.15
    },
    {
      "text": "that I was really hoping for but you",
      "start": 147.39,
      "duration": 4.02
    },
    {
      "text": "know for the amount of money you pay for",
      "start": 150.18,
      "duration": 2.88
    },
    {
      "text": "the 3d experience you want a few",
      "start": 151.41,
      "duration": 4.23
    },
    {
      "text": "swinging monkey balls in your face am i",
      "start": 153.06,
      "duration": 4.709
    },
    {
      "text": "right well let's find out if you go and",
      "start": 155.64,
      "duration": 4.77
    },
    {
      "text": "degree so in the ape communities ass",
      "start": 157.769,
      "duration": 4.531
    },
    {
      "text": "they're hunting these deer and they're",
      "start": 160.41,
      "duration": 3.6
    },
    {
      "text": "all swinging through the trees visually",
      "start": 162.3,
      "duration": 3.749
    },
    {
      "text": "spectacular I mean just amazing and",
      "start": 164.01,
      "duration": 3.3
    },
    {
      "text": "they're all swinging through the trees",
      "start": 166.049,
      "duration": 5.791
    },
    {
      "text": "and the the the Cesar and his son Cesar",
      "start": 167.31,
      "duration": 7.5
    },
    {
      "text": "is the her he's the alpha alpha male",
      "start": 171.84,
      "duration": 9.03
    },
    {
      "text": "who's in charge of the pack of Apes he",
      "start": 174.81,
      "duration": 8.1
    },
    {
      "text": "brings down her son brings down a deer",
      "start": 180.87,
      "duration": 5.28
    },
    {
      "text": "and then his son is about to go and get",
      "start": 182.91,
      "duration": 6.27
    },
    {
      "text": "the deer and his father is like wait son",
      "start": 186.15,
      "duration": 5.28
    },
    {
      "text": "wait but the son doesn't listen goes",
      "start": 189.18,
      "duration": 3.9
    },
    {
      "text": "forward and is almost killed by a bear",
      "start": 191.43,
      "duration": 4.639
    },
    {
      "text": "and all this kind of stuff and this is",
      "start": 193.08,
      "duration": 7.469
    },
    {
      "text": "again a real trope a real standard of",
      "start": 196.069,
      "duration": 6.911
    },
    {
      "text": "these kinds of movies where the wise",
      "start": 200.549,
      "duration": 5.671
    },
    {
      "text": "elder is in charge and you just gotta",
      "start": 202.98,
      "duration": 4.74
    },
    {
      "text": "listen and he says to his son afterwards",
      "start": 206.22,
      "duration": 4.47
    },
    {
      "text": "son think before you act whereas",
      "start": 207.72,
      "duration": 4.41
    },
    {
      "text": "actually he was not appealing to his",
      "start": 210.69,
      "duration": 3.66
    },
    {
      "text": "reason but only his filial obedience his",
      "start": 212.13,
      "duration": 5.28
    },
    {
      "text": "sense of doing what his father said",
      "start": 214.35,
      "duration": 6.09
    },
    {
      "text": "which is not really the same as thinking",
      "start": 217.41,
      "duration": 7.94
    },
    {
      "text": "for yourself and this filial piety this",
      "start": 220.44,
      "duration": 6.96
    },
    {
      "text": "photocopying of the traditions of the",
      "start": 225.35,
      "duration": 5.77
    },
    {
      "text": "tribe is one of these things it's very",
      "start": 227.4,
      "duration": 4.679
    },
    {
      "text": "common throughout human history",
      "start": 231.12,
      "duration": 3.239
    },
    {
      "text": "throughout human history more advanced",
      "start": 232.079,
      "duration": 4.651
    },
    {
      "text": "tribes some more advanced civilizations",
      "start": 234.359,
      "duration": 4.891
    },
    {
      "text": "or cultures often come crashing like",
      "start": 236.73,
      "duration": 4.83
    },
    {
      "text": "tsunamis into the brittle sand castles",
      "start": 239.25,
      "duration": 5.069
    },
    {
      "text": "of the more primitive more repressed",
      "start": 241.56,
      "duration": 6.209
    },
    {
      "text": "more brutal tribes and this is one of",
      "start": 244.319,
      "duration": 5.7
    },
    {
      "text": "the great tensions of human existence",
      "start": 247.769,
      "duration": 6.571
    },
    {
      "text": "that the old or the age never want to",
      "start": 250.019,
      "duration": 5.581
    },
    {
      "text": "feel obsolete they always want to feel",
      "start": 254.34,
      "duration": 2.73
    },
    {
      "text": "like their knowledge is valuable to the",
      "start": 255.6,
      "duration": 3.09
    },
    {
      "text": "young and therefore they hope that",
      "start": 257.07,
      "duration": 3.84
    },
    {
      "text": "society doesn't change if you're if",
      "start": 258.69,
      "duration": 3.539
    },
    {
      "text": "you've ever tried to explain to your",
      "start": 260.91,
      "duration": 3.96
    },
    {
      "text": "grandmother how to use a smartphone you",
      "start": 262.229,
      "duration": 4.871
    },
    {
      "text": "can understand that it's really hard",
      "start": 264.87,
      "duration": 4.48
    },
    {
      "text": "hold the Aged in high esteem and their",
      "start": 267.1,
      "duration": 3.78
    },
    {
      "text": "competence in the world when they seemed",
      "start": 269.35,
      "duration": 3.75
    },
    {
      "text": "bewildered by a good deal of what has",
      "start": 270.88,
      "duration": 4.23
    },
    {
      "text": "sprouted while they were looking the",
      "start": 273.1,
      "duration": 5.37
    },
    {
      "text": "other way and so the old always want",
      "start": 275.11,
      "duration": 5.91
    },
    {
      "text": "their knowledge to remain relevant to",
      "start": 278.47,
      "duration": 4.32
    },
    {
      "text": "the society that they live in which",
      "start": 281.02,
      "duration": 3
    },
    {
      "text": "means that they have a vested interest",
      "start": 282.79,
      "duration": 3.63
    },
    {
      "text": "in society not changing which is where",
      "start": 284.02,
      "duration": 4.62
    },
    {
      "text": "the conservative impulse in human nature",
      "start": 286.42,
      "duration": 5.16
    },
    {
      "text": "comes from the young generally one",
      "start": 288.64,
      "duration": 4.68
    },
    {
      "text": "society to change in progress and want",
      "start": 291.58,
      "duration": 4.53
    },
    {
      "text": "to challenge their elders now",
      "start": 293.32,
      "duration": 6.09
    },
    {
      "text": "Western European Society for a long time",
      "start": 296.11,
      "duration": 6.39
    },
    {
      "text": "was very much on the conservative side",
      "start": 299.41,
      "duration": 4.44
    },
    {
      "text": "this is sort of known as the Dark Ages",
      "start": 302.5,
      "duration": 4.08
    },
    {
      "text": "from sort of the Quattrocento onwards",
      "start": 303.85,
      "duration": 4.8
    },
    {
      "text": "through the the Renaissance the the age",
      "start": 306.58,
      "duration": 3.51
    },
    {
      "text": "of recent the Enlightenment the",
      "start": 308.65,
      "duration": 4.02
    },
    {
      "text": "Industrial Revolution and so on there",
      "start": 310.09,
      "duration": 4.1
    },
    {
      "text": "has been a lot of challenging of",
      "start": 312.67,
      "duration": 4.19
    },
    {
      "text": "existing wisdom a lot of challenging of",
      "start": 314.19,
      "duration": 4.96
    },
    {
      "text": "existing ways of thinking in existing",
      "start": 316.86,
      "duration": 3.85
    },
    {
      "text": "ways of doing things I mean in the",
      "start": 319.15,
      "duration": 3.84
    },
    {
      "text": "Middle Ages you basically inherited the",
      "start": 320.71,
      "duration": 6.48
    },
    {
      "text": "job that your father had and competition",
      "start": 322.99,
      "duration": 5.49
    },
    {
      "text": "was so frowned upon that you could",
      "start": 327.19,
      "duration": 4.2
    },
    {
      "text": "actually get in trouble for coughing you",
      "start": 328.48,
      "duration": 4.89
    },
    {
      "text": "know you cough when a guy walks past",
      "start": 331.39,
      "duration": 4.08
    },
    {
      "text": "your booth in the Medieval Faire you",
      "start": 333.37,
      "duration": 3.39
    },
    {
      "text": "could actually get in trouble it could",
      "start": 335.47,
      "duration": 3.87
    },
    {
      "text": "be break a law because if you cough or",
      "start": 336.76,
      "duration": 4.29
    },
    {
      "text": "you sneeze but then the person has to",
      "start": 339.34,
      "duration": 4.47
    },
    {
      "text": "say bless you and then you can gauge in",
      "start": 341.05,
      "duration": 4.05
    },
    {
      "text": "the conversation you might be taking",
      "start": 343.81,
      "duration": 3.69
    },
    {
      "text": "business away from the guy with the next",
      "start": 345.1,
      "duration": 5.99
    },
    {
      "text": "store so it was a very rigid very",
      "start": 347.5,
      "duration": 6.18
    },
    {
      "text": "photocopy the past kind of situation",
      "start": 351.09,
      "duration": 4.48
    },
    {
      "text": "which when the world doesn't change when",
      "start": 353.68,
      "duration": 3.81
    },
    {
      "text": "society doesn't change then the wisdom",
      "start": 355.57,
      "duration": 4.56
    },
    {
      "text": "of the elders remains sacrosanct when",
      "start": 357.49,
      "duration": 5.06
    },
    {
      "text": "society goes through a lot of changes",
      "start": 360.13,
      "duration": 7.86
    },
    {
      "text": "then society values the elderly much",
      "start": 362.55,
      "duration": 8.35
    },
    {
      "text": "less right so Society has done a huge",
      "start": 367.99,
      "duration": 5.76
    },
    {
      "text": "amount of work to outgrow racism and yet",
      "start": 370.9,
      "duration": 4.92
    },
    {
      "text": "there are a lot of older people on both",
      "start": 373.75,
      "duration": 4.31
    },
    {
      "text": "in a variety of races who remain",
      "start": 375.82,
      "duration": 4.74
    },
    {
      "text": "somewhat vestigial racists and they're",
      "start": 378.06,
      "duration": 4
    },
    {
      "text": "considered somewhat tolerable because",
      "start": 380.56,
      "duration": 3.18
    },
    {
      "text": "they're aged it would never be accepted",
      "start": 382.06,
      "duration": 3.81
    },
    {
      "text": "in a younger person and but they look",
      "start": 383.74,
      "duration": 3.66
    },
    {
      "text": "kind of foolish and they look kind of",
      "start": 385.87,
      "duration": 3.09
    },
    {
      "text": "retrograde and that kind of showing",
      "start": 387.4,
      "duration": 3.93
    },
    {
      "text": "the length of their teeth in their old",
      "start": 388.96,
      "duration": 4.17
    },
    {
      "text": "perspectives in their historical",
      "start": 391.33,
      "duration": 7.28
    },
    {
      "text": "perspectives now because Western",
      "start": 393.13,
      "duration": 7.95
    },
    {
      "text": "European culture",
      "start": 398.61,
      "duration": 5.739
    },
    {
      "text": "really going back to Socrates has really",
      "start": 401.08,
      "duration": 5.339
    },
    {
      "text": "fought against the ossification of",
      "start": 404.349,
      "duration": 4.081
    },
    {
      "text": "society through an over reverence of the",
      "start": 406.419,
      "duration": 3.42
    },
    {
      "text": "age in other words we've been willing to",
      "start": 408.43,
      "duration": 4.65
    },
    {
      "text": "kick down all of the sky shredding",
      "start": 409.839,
      "duration": 5.371
    },
    {
      "text": "Paragons of virtue known as historical",
      "start": 413.08,
      "duration": 5.369
    },
    {
      "text": "conservatism and carve new paths in the",
      "start": 415.21,
      "duration": 5.009
    },
    {
      "text": "world there's been a lot of progress and",
      "start": 418.449,
      "duration": 3.96
    },
    {
      "text": "a lot of technological advancement and",
      "start": 420.219,
      "duration": 4.98
    },
    {
      "text": "so on for good and for L now when",
      "start": 422.409,
      "duration": 4.951
    },
    {
      "text": "Europeans go crashing into societies",
      "start": 425.199,
      "duration": 4.47
    },
    {
      "text": "like Africa or North America where there",
      "start": 427.36,
      "duration": 4.799
    },
    {
      "text": "are natives to the country those natives",
      "start": 429.669,
      "duration": 4.58
    },
    {
      "text": "tend to be in a pretty stagnant",
      "start": 432.159,
      "duration": 4.68
    },
    {
      "text": "situation a very primitive or stagnant",
      "start": 434.249,
      "duration": 4.39
    },
    {
      "text": "now that's because there's a lot of",
      "start": 436.839,
      "duration": 3.6
    },
    {
      "text": "brutality towards the young to conform",
      "start": 438.639,
      "duration": 4.02
    },
    {
      "text": "to that which gives the elderly the most",
      "start": 440.439,
      "duration": 6.301
    },
    {
      "text": "value now in this movie there's a",
      "start": 442.659,
      "duration": 6.09
    },
    {
      "text": "challenging of the young towards the old",
      "start": 446.74,
      "duration": 5.19
    },
    {
      "text": "in the human communities but not really",
      "start": 448.749,
      "duration": 7.35
    },
    {
      "text": "in the ape communities and that again I",
      "start": 451.93,
      "duration": 7.319
    },
    {
      "text": "think is very telling you know son in",
      "start": 456.099,
      "duration": 4.71
    },
    {
      "text": "the ape communities don't do this and",
      "start": 459.249,
      "duration": 3.15
    },
    {
      "text": "the kid does this and almost gets killed",
      "start": 460.809,
      "duration": 5.01
    },
    {
      "text": "and it reinforces the value of the",
      "start": 462.399,
      "duration": 6.75
    },
    {
      "text": "father 8 and at the same time though",
      "start": 465.819,
      "duration": 7.231
    },
    {
      "text": "there's in this view of the Apes there's",
      "start": 469.149,
      "duration": 6.721
    },
    {
      "text": "this really fascinating and and very",
      "start": 473.05,
      "duration": 5.97
    },
    {
      "text": "common again it's a real standard in",
      "start": 475.87,
      "duration": 6.12
    },
    {
      "text": "sort of post Rousseau Ian's views of",
      "start": 479.02,
      "duration": 4.919
    },
    {
      "text": "ancient cultures or primitive cultures",
      "start": 481.99,
      "duration": 3.479
    },
    {
      "text": "which is it's called the noble savage",
      "start": 483.939,
      "duration": 4.171
    },
    {
      "text": "you know that the the conan who is in",
      "start": 485.469,
      "duration": 4.68
    },
    {
      "text": "touch with nature and uses all parts of",
      "start": 488.11,
      "duration": 3.809
    },
    {
      "text": "the buffalo and lives in harmony with",
      "start": 490.149,
      "duration": 3.661
    },
    {
      "text": "the natural elements and all this they",
      "start": 491.919,
      "duration": 3.631
    },
    {
      "text": "they're gentle they're beautiful they're",
      "start": 493.81,
      "duration": 4.079
    },
    {
      "text": "loving and and if they observe the",
      "start": 495.55,
      "duration": 5.099
    },
    {
      "text": "highly pradesh Aswang ban it is with a",
      "start": 497.889,
      "duration": 4.77
    },
    {
      "text": "tear rolling down there stone-faced",
      "start": 500.649,
      "duration": 3.83
    },
    {
      "text": "cheeks and all that kind of stuff and",
      "start": 502.659,
      "duration": 7.141
    },
    {
      "text": "that is a very common view and",
      "start": 504.479,
      "duration": 7.72
    },
    {
      "text": "essentially it comes from religion right",
      "start": 509.8,
      "duration": 6.45
    },
    {
      "text": "because in religion God who is perfect",
      "start": 512.199,
      "duration": 7.89
    },
    {
      "text": "made man and of course throughout most",
      "start": 516.25,
      "duration": 6.149
    },
    {
      "text": "of human history and even now man is in",
      "start": 520.089,
      "duration": 4.531
    },
    {
      "text": "a pretty sorry stage relative to divine",
      "start": 522.399,
      "duration": 5.701
    },
    {
      "text": "perfection right and so in religion",
      "start": 524.62,
      "duration": 6.959
    },
    {
      "text": "humanity as a creation of an all-knowing",
      "start": 528.1,
      "duration": 5.789
    },
    {
      "text": "all-loving all perfect guard",
      "start": 531.579,
      "duration": 6.66
    },
    {
      "text": "have started at the top and then somehow",
      "start": 533.889,
      "duration": 6.211
    },
    {
      "text": "it has to be explained how he's",
      "start": 538.239,
      "duration": 4.56
    },
    {
      "text": "wallowing in medieval crap and dying of",
      "start": 540.1,
      "duration": 5.009
    },
    {
      "text": "smallpox and getting cholera from",
      "start": 542.799,
      "duration": 3.84
    },
    {
      "text": "drinking from Moose Tracks and stuff",
      "start": 545.109,
      "duration": 3.84
    },
    {
      "text": "like that so how do we go from up here",
      "start": 546.639,
      "duration": 7.38
    },
    {
      "text": "one right down to here well this is you",
      "start": 548.949,
      "duration": 7.38
    },
    {
      "text": "know we disobeyed God there was a fall",
      "start": 554.019,
      "duration": 3.51
    },
    {
      "text": "from grace you get kicked out of the",
      "start": 556.329,
      "duration": 2.49
    },
    {
      "text": "Garden of Eden and so on and that's how",
      "start": 557.529,
      "duration": 3.84
    },
    {
      "text": "you explain you go from up here to down",
      "start": 558.819,
      "duration": 5.37
    },
    {
      "text": "here that's the religious approach",
      "start": 561.369,
      "duration": 4.74
    },
    {
      "text": "there's no Indian approach you know",
      "start": 564.189,
      "duration": 5.15
    },
    {
      "text": "really reverses this and says well we",
      "start": 566.109,
      "duration": 7.29
    },
    {
      "text": "started as like disgusting sexed",
      "start": 569.339,
      "duration": 5.86
    },
    {
      "text": "protozoa who were having orgies with",
      "start": 573.399,
      "duration": 5.19
    },
    {
      "text": "themselves in fetid primordial soup",
      "start": 575.199,
      "duration": 5.58
    },
    {
      "text": "rainwater and it was pretty much up hill",
      "start": 578.589,
      "duration": 5.28
    },
    {
      "text": "from there and so from the Darwinian",
      "start": 580.779,
      "duration": 5.191
    },
    {
      "text": "view we start low and we're trying to",
      "start": 583.869,
      "duration": 4.231
    },
    {
      "text": "sort of climb higher but from the",
      "start": 585.97,
      "duration": 3.539
    },
    {
      "text": "religious view we must have started high",
      "start": 588.1,
      "duration": 3.539
    },
    {
      "text": "and we have fallen from grace",
      "start": 589.509,
      "duration": 6.841
    },
    {
      "text": "now when the primitive more primitive",
      "start": 591.639,
      "duration": 7.53
    },
    {
      "text": "cultures were were found there was this",
      "start": 596.35,
      "duration": 5.099
    },
    {
      "text": "idea that again comes from the Garden of",
      "start": 599.169,
      "duration": 3.42
    },
    {
      "text": "Eden that we must it must have been",
      "start": 601.449,
      "duration": 2.461
    },
    {
      "text": "perfect at some point in the past when",
      "start": 602.589,
      "duration": 5.3
    },
    {
      "text": "we fell from grace there's this sense of",
      "start": 603.91,
      "duration": 6.619
    },
    {
      "text": "these primitive cultures have this",
      "start": 607.889,
      "duration": 5.021
    },
    {
      "text": "wonderful symbiosis with nature and they",
      "start": 610.529,
      "duration": 3.55
    },
    {
      "text": "love it and so on now I personally",
      "start": 612.91,
      "duration": 3.929
    },
    {
      "text": "myself I lived for a year and a half in",
      "start": 614.079,
      "duration": 5.85
    },
    {
      "text": "the woods in the middle of nowhere in a",
      "start": 616.839,
      "duration": 6.23
    },
    {
      "text": "tent in summer in winter",
      "start": 619.929,
      "duration": 6.301
    },
    {
      "text": "looking for gold and and prospecting and",
      "start": 623.069,
      "duration": 8.13
    },
    {
      "text": "flames taking and so on not that nice",
      "start": 626.23,
      "duration": 7.68
    },
    {
      "text": "it's not the end of the world a lot of",
      "start": 631.199,
      "duration": 6.19
    },
    {
      "text": "beauty and nature and so on but bucks",
      "start": 633.91,
      "duration": 6.57
    },
    {
      "text": "and bears and so on so I don't really",
      "start": 637.389,
      "duration": 5.64
    },
    {
      "text": "think that it's fair and realistic or",
      "start": 640.48,
      "duration": 5.189
    },
    {
      "text": "rational to say well you know back to",
      "start": 643.029,
      "duration": 4.35
    },
    {
      "text": "these ancient cultures it was just so",
      "start": 645.669,
      "duration": 4.02
    },
    {
      "text": "wonderful it was so great and so on that",
      "start": 647.379,
      "duration": 3.45
    },
    {
      "text": "again comes from the religious",
      "start": 649.689,
      "duration": 2.4
    },
    {
      "text": "standpoint but you can see it in this",
      "start": 650.829,
      "duration": 2.37
    },
    {
      "text": "movie man look at the AIDS",
      "start": 652.089,
      "duration": 3.54
    },
    {
      "text": "you know gentle and peaceful and they've",
      "start": 653.199,
      "duration": 5.1
    },
    {
      "text": "figured out an ethical system ape not",
      "start": 655.629,
      "duration": 5.07
    },
    {
      "text": "kill ape you know which is great to know",
      "start": 658.299,
      "duration": 3.78
    },
    {
      "text": "that apes that we taught how to speak",
      "start": 660.699,
      "duration": 4.32
    },
    {
      "text": "can figure out epics while we remain had",
      "start": 662.079,
      "duration": 5.431
    },
    {
      "text": "a brass cultural Marxist relativists",
      "start": 665.019,
      "duration": 4.291
    },
    {
      "text": "except when it comes to politically",
      "start": 667.51,
      "duration": 3.06
    },
    {
      "text": "incorrect stuff in which case it's",
      "start": 669.31,
      "duration": 3.51
    },
    {
      "text": "released the Tigers of moral outrage",
      "start": 670.57,
      "duration": 7.32
    },
    {
      "text": "from the Horde now something else which",
      "start": 672.82,
      "duration": 7.47
    },
    {
      "text": "you see and again I don't want to say",
      "start": 677.89,
      "duration": 3.75
    },
    {
      "text": "that the whole movie is cliche but there",
      "start": 680.29,
      "duration": 2.67
    },
    {
      "text": "are cliches in it that are really",
      "start": 681.64,
      "duration": 3.36
    },
    {
      "text": "important to see and know why they're",
      "start": 682.96,
      "duration": 5.9
    },
    {
      "text": "there okay so it's the jabber mob and",
      "start": 685,
      "duration": 20.33
    },
    {
      "text": "the jabber mob is the leader says enough",
      "start": 688.86,
      "duration": 20.08
    },
    {
      "text": "and everything all right you see this in",
      "start": 705.33,
      "duration": 6.58
    },
    {
      "text": "in courtroom movies all the time the",
      "start": 708.94,
      "duration": 6.39
    },
    {
      "text": "lawyers are like they're just like doing",
      "start": 711.91,
      "duration": 6.81
    },
    {
      "text": "my courtroom enough and the lawyers are",
      "start": 715.33,
      "duration": 5.52
    },
    {
      "text": "like okay let's just know what the judge",
      "start": 718.72,
      "duration": 5.1
    },
    {
      "text": "says so the jabber mob is this rising",
      "start": 720.85,
      "duration": 5.37
    },
    {
      "text": "cacophony of disagreeing views everyone",
      "start": 723.82,
      "duration": 4.77
    },
    {
      "text": "talking no one listening no sense being",
      "start": 726.22,
      "duration": 4.8
    },
    {
      "text": "made and you zoom in on the leader and",
      "start": 728.59,
      "duration": 6.03
    },
    {
      "text": "the leader gets this stony eyed feeis",
      "start": 731.02,
      "duration": 6.27
    },
    {
      "text": "Dwayne Johnson taking a deep crap face",
      "start": 734.62,
      "duration": 4.83
    },
    {
      "text": "look on their face and that it's like",
      "start": 737.29,
      "duration": 5.01
    },
    {
      "text": "enough and then everyone's like and this",
      "start": 739.45,
      "duration": 5.88
    },
    {
      "text": "is not only is this siblings with a",
      "start": 742.3,
      "duration": 4.53
    },
    {
      "text": "parent you know siblings yammering yeah",
      "start": 745.33,
      "duration": 2.85
    },
    {
      "text": "I didn't do it it's my fault he stepped",
      "start": 746.83,
      "duration": 2.73
    },
    {
      "text": "on my toe first he stole my toy army",
      "start": 748.18,
      "duration": 6.06
    },
    {
      "text": "enough but this is why people think you",
      "start": 749.56,
      "duration": 6.42
    },
    {
      "text": "need the centralized authority in",
      "start": 754.24,
      "duration": 3.66
    },
    {
      "text": "society to tell people what to do like",
      "start": 755.98,
      "duration": 4.95
    },
    {
      "text": "in the absence of a government you're",
      "start": 757.9,
      "duration": 4.89
    },
    {
      "text": "just gonna have this mad cacophony of",
      "start": 760.93,
      "duration": 3.36
    },
    {
      "text": "everyone disagreeing with everyone I'm",
      "start": 762.79,
      "duration": 3.63
    },
    {
      "text": "not listening and fighting so in order",
      "start": 764.29,
      "duration": 5.01
    },
    {
      "text": "to cut through the jabber mob you have",
      "start": 766.42,
      "duration": 7.05
    },
    {
      "text": "to enough you know we will do this I",
      "start": 769.3,
      "duration": 6.15
    },
    {
      "text": "will decide it dawn it was like okay I",
      "start": 773.47,
      "duration": 3.96
    },
    {
      "text": "guess that beats the jabber everyone's",
      "start": 775.45,
      "duration": 4.2
    },
    {
      "text": "saying rhubarb in the background and the",
      "start": 777.43,
      "duration": 3.36
    },
    {
      "text": "same thing happens in the human",
      "start": 779.65,
      "duration": 3.39
    },
    {
      "text": "community so the human community hears",
      "start": 780.79,
      "duration": 13.73
    },
    {
      "text": "about the Apes now or the Apes enough I",
      "start": 783.04,
      "duration": 13.95
    },
    {
      "text": "will give you a speech that will come",
      "start": 794.52,
      "duration": 5.53
    },
    {
      "text": "your rabid shriek cocaine based nervous",
      "start": 796.99,
      "duration": 3.79
    },
    {
      "text": "system",
      "start": 800.05,
      "duration": 2.76
    },
    {
      "text": "into some sort of compliance I mean",
      "start": 800.78,
      "duration": 4.53
    },
    {
      "text": "every time you see it it's literally the",
      "start": 802.81,
      "duration": 6.39
    },
    {
      "text": "same scene over and over and over again",
      "start": 805.31,
      "duration": 6.15
    },
    {
      "text": "obviously there's apes and lawyers",
      "start": 809.2,
      "duration": 4.6
    },
    {
      "text": "because one day we hope that lawyers is",
      "start": 811.46,
      "duration": 4.08
    },
    {
      "text": "the whole will evolve into some sort of",
      "start": 813.8,
      "duration": 4.89
    },
    {
      "text": "a plike life-form but this is something",
      "start": 815.54,
      "duration": 6
    },
    {
      "text": "that is so common and it also ties into",
      "start": 818.69,
      "duration": 5.04
    },
    {
      "text": "the fact is that it's really hard to",
      "start": 821.54,
      "duration": 5.49
    },
    {
      "text": "have social dramas without a very strict",
      "start": 823.73,
      "duration": 5.76
    },
    {
      "text": "hierarchy right so both the humans and",
      "start": 827.03,
      "duration": 6.66
    },
    {
      "text": "the Apes work on a very strict hierarchy",
      "start": 829.49,
      "duration": 6.57
    },
    {
      "text": "it's alpha you take orders there's a guy",
      "start": 833.69,
      "duration": 3.96
    },
    {
      "text": "in charge who tell us everyone what to",
      "start": 836.06,
      "duration": 4.88
    },
    {
      "text": "do when everyone's just like okay",
      "start": 837.65,
      "duration": 3.29
    },
    {
      "text": "imagine the you know if some some little",
      "start": 844.3,
      "duration": 6.31
    },
    {
      "text": "kid is playing around and says there",
      "start": 849.08,
      "duration": 2.73
    },
    {
      "text": "will be war",
      "start": 850.61,
      "duration": 2.67
    },
    {
      "text": "everyone's like okay I guess the kids",
      "start": 851.81,
      "duration": 5.88
    },
    {
      "text": "playing right but when the enough see",
      "start": 853.28,
      "duration": 7.28
    },
    {
      "text": "the leader says there will be war",
      "start": 857.69,
      "duration": 7.32
    },
    {
      "text": "everyone's like Oh war there will be war",
      "start": 860.56,
      "duration": 7.029
    },
    {
      "text": "so without the leader who gets to tell",
      "start": 865.01,
      "duration": 5.4
    },
    {
      "text": "everyone to do it's pretty hard to have",
      "start": 867.589,
      "duration": 6.621
    },
    {
      "text": "these big stone shaking dramas of",
      "start": 870.41,
      "duration": 7.89
    },
    {
      "text": "massive war they have to be like these",
      "start": 874.21,
      "duration": 9.61
    },
    {
      "text": "leaders enough war let's go along with",
      "start": 878.3,
      "duration": 8.22
    },
    {
      "text": "that guy and I mean this kind of a truth",
      "start": 883.82,
      "duration": 4.88
    },
    {
      "text": "in this in a lot of ways right I mean",
      "start": 886.52,
      "duration": 4.64
    },
    {
      "text": "most people live their lives like a",
      "start": 888.7,
      "duration": 5.2
    },
    {
      "text": "javelin thrown into a deep pond but I'll",
      "start": 891.16,
      "duration": 5.56
    },
    {
      "text": "even leave a ripple behind them and they",
      "start": 893.9,
      "duration": 8.49
    },
    {
      "text": "live their lives as badly rendered CGI",
      "start": 896.72,
      "duration": 8.07
    },
    {
      "text": "extras in the background that you don't",
      "start": 902.39,
      "duration": 3.87
    },
    {
      "text": "even know are there because there's just",
      "start": 904.79,
      "duration": 3.21
    },
    {
      "text": "some vague movement where the leaders",
      "start": 906.26,
      "duration": 5.49
    },
    {
      "text": "eyes are like you're not war and so",
      "start": 908,
      "duration": 6.63
    },
    {
      "text": "there's some kind of truth in it but it",
      "start": 911.75,
      "duration": 4.89
    },
    {
      "text": "is pretty revealing and it's interesting",
      "start": 914.63,
      "duration": 4.8
    },
    {
      "text": "to think what these movies would be like",
      "start": 916.64,
      "duration": 5.61
    },
    {
      "text": "if there wasn't this rigid hierarchical",
      "start": 919.43,
      "duration": 6.48
    },
    {
      "text": "leader based structure that everyone had",
      "start": 922.25,
      "duration": 6.24
    },
    {
      "text": "to sort of follow in line but also",
      "start": 925.91,
      "duration": 4.5
    },
    {
      "text": "fascinating in the movie is it is",
      "start": 928.49,
      "duration": 5.58
    },
    {
      "text": "rapidly pro-gun I mean gun control",
      "start": 930.41,
      "duration": 6.18
    },
    {
      "text": "you know it's the old saying goes God",
      "start": 934.07,
      "duration": 4.77
    },
    {
      "text": "created man and woman but Smith \u0026 Wesson",
      "start": 936.59,
      "duration": 6.17
    },
    {
      "text": "made them equal nobody listens to anyone",
      "start": 938.84,
      "duration": 6.93
    },
    {
      "text": "unless they have a gun you know I'm",
      "start": 942.76,
      "duration": 5.68
    },
    {
      "text": "sorry I can't hear you because your gun",
      "start": 945.77,
      "duration": 5.28
    },
    {
      "text": "comes with a silencer but if you can",
      "start": 948.44,
      "duration": 3.93
    },
    {
      "text": "hear the gun and see the gun it's like",
      "start": 951.05,
      "duration": 3.27
    },
    {
      "text": "okay now you have my attention",
      "start": 952.37,
      "duration": 4.23
    },
    {
      "text": "so of course you know nobody's scared of",
      "start": 954.32,
      "duration": 4.02
    },
    {
      "text": "the Apes nobody cares about the Apes",
      "start": 956.6,
      "duration": 3.93
    },
    {
      "text": "fundamentally until the Apes get a whole",
      "start": 958.34,
      "duration": 4.68
    },
    {
      "text": "bunch of guns and then magically learn",
      "start": 960.53,
      "duration": 4.98
    },
    {
      "text": "how to ride horses and shoot at with no",
      "start": 963.02,
      "duration": 4.71
    },
    {
      "text": "training or experience whatsoever but it",
      "start": 965.51,
      "duration": 6.83
    },
    {
      "text": "is amazing the degree to which it is",
      "start": 967.73,
      "duration": 7.14
    },
    {
      "text": "pro-gun and again there's nothing",
      "start": 972.34,
      "duration": 4.84
    },
    {
      "text": "explicit but it's very much in the movie",
      "start": 974.87,
      "duration": 4.71
    },
    {
      "text": "into woven the whole way through and I",
      "start": 977.18,
      "duration": 5.85
    },
    {
      "text": "think that's that's really important now",
      "start": 979.58,
      "duration": 7.86
    },
    {
      "text": "there's a bad ape and his numbers is",
      "start": 983.03,
      "duration": 8.22
    },
    {
      "text": "Koba now Koba has a hatred towards",
      "start": 987.44,
      "duration": 5.25
    },
    {
      "text": "humankind and that's because he was an",
      "start": 991.25,
      "duration": 4.44
    },
    {
      "text": "animal in a lab and they tested on him",
      "start": 992.69,
      "duration": 5.94
    },
    {
      "text": "and he says they tortured him and so on",
      "start": 995.69,
      "duration": 5.04
    },
    {
      "text": "and so he's really really dislikes",
      "start": 998.63,
      "duration": 5.19
    },
    {
      "text": "humans now there's also a human who",
      "start": 1000.73,
      "duration": 6.15
    },
    {
      "text": "really dislikes Apes for no reason other",
      "start": 1003.82,
      "duration": 4.95
    },
    {
      "text": "than he's a complete moron who blames",
      "start": 1006.88,
      "duration": 4.5
    },
    {
      "text": "the Apes for the virus that killed",
      "start": 1008.77,
      "duration": 4.95
    },
    {
      "text": "people even though the virus came from",
      "start": 1011.38,
      "duration": 3.9
    },
    {
      "text": "human beings experimenting on so he's",
      "start": 1013.72,
      "duration": 5.28
    },
    {
      "text": "ridiculous no reason whatsoever and that",
      "start": 1015.28,
      "duration": 6.12
    },
    {
      "text": "I think is is really interesting that",
      "start": 1019,
      "duration": 4.71
    },
    {
      "text": "the bad ape has to have a whole",
      "start": 1021.4,
      "duration": 6.929
    },
    {
      "text": "backstory that explains why he's bad but",
      "start": 1023.71,
      "duration": 8.01
    },
    {
      "text": "the guy the male the human male just bad",
      "start": 1028.329,
      "duration": 5.851
    },
    {
      "text": "just you know bad means stupid idiot guy",
      "start": 1031.72,
      "duration": 4.95
    },
    {
      "text": "and again I think that's really",
      "start": 1034.18,
      "duration": 5.04
    },
    {
      "text": "interesting and falls into what is",
      "start": 1036.67,
      "duration": 3.99
    },
    {
      "text": "generally the man-woman paradigm right",
      "start": 1039.22,
      "duration": 3.53
    },
    {
      "text": "though the eights are a weaker species",
      "start": 1040.66,
      "duration": 4.62
    },
    {
      "text": "they don't have guns right and so",
      "start": 1042.75,
      "duration": 4.9
    },
    {
      "text": "everything gets explained but the",
      "start": 1045.28,
      "duration": 4.74
    },
    {
      "text": "dominance the white male he's just bad",
      "start": 1047.65,
      "duration": 6.3
    },
    {
      "text": "right and again as people get worse I",
      "start": 1050.02,
      "duration": 8.28
    },
    {
      "text": "swear they get hairier and grimy err and",
      "start": 1053.95,
      "duration": 6.99
    },
    {
      "text": "more of the stuff that I talked about in",
      "start": 1058.3,
      "duration": 4.65
    },
    {
      "text": "a couple couple of other the movie",
      "start": 1060.94,
      "duration": 6
    },
    {
      "text": "reviews bad because beards there is one",
      "start": 1062.95,
      "duration": 4.89
    },
    {
      "text": "interesting character",
      "start": 1066.94,
      "duration": 4.02
    },
    {
      "text": "his name is Maurice and he basically is",
      "start": 1067.84,
      "duration": 6.63
    },
    {
      "text": "a pretty plump Chewbacca with an Astra",
      "start": 1070.96,
      "duration": 6.209
    },
    {
      "text": "face who's pretty maternal and caring",
      "start": 1074.47,
      "duration": 4.02
    },
    {
      "text": "and so on he's male",
      "start": 1077.169,
      "duration": 5.521
    },
    {
      "text": "Maurice French male French anyway worth",
      "start": 1078.49,
      "duration": 6.809
    },
    {
      "text": "worth watching to see what happens to do",
      "start": 1082.69,
      "duration": 4.4
    },
    {
      "text": "good people during a time of increasing",
      "start": 1085.299,
      "duration": 4.411
    },
    {
      "text": "tyranny I think that's fascinating to",
      "start": 1087.09,
      "duration": 4.329
    },
    {
      "text": "watch and again you know for those of us",
      "start": 1089.71,
      "duration": 2.76
    },
    {
      "text": "who are trying to fight for virtue",
      "start": 1091.419,
      "duration": 3.541
    },
    {
      "text": "during a time of significantly declining",
      "start": 1092.47,
      "duration": 5.699
    },
    {
      "text": "freedoms I guess I can count myself as",
      "start": 1094.96,
      "duration": 5.579
    },
    {
      "text": "among the tribe of the plump ass face",
      "start": 1098.169,
      "duration": 7.14
    },
    {
      "text": "Chewbacca types so the humans have to go",
      "start": 1100.539,
      "duration": 7.441
    },
    {
      "text": "and get a damn working to get power and",
      "start": 1105.309,
      "duration": 4.62
    },
    {
      "text": "again this is something that happens so",
      "start": 1107.98,
      "duration": 3.99
    },
    {
      "text": "often throughout human history which is",
      "start": 1109.929,
      "duration": 3.961
    },
    {
      "text": "the more advanced culture needs",
      "start": 1111.97,
      "duration": 4.679
    },
    {
      "text": "resources that the less advanced culture",
      "start": 1113.89,
      "duration": 4.769
    },
    {
      "text": "in this case the Apes happens to be",
      "start": 1116.649,
      "duration": 4.561
    },
    {
      "text": "sitting on and they try to negotiate and",
      "start": 1118.659,
      "duration": 4.5
    },
    {
      "text": "isn't that and again you know that the",
      "start": 1121.21,
      "duration": 3.63
    },
    {
      "text": "price of conformity is a lack of",
      "start": 1123.159,
      "duration": 3.961
    },
    {
      "text": "progress and the price that the the the",
      "start": 1124.84,
      "duration": 4.86
    },
    {
      "text": "reward for rebellion against the tropes",
      "start": 1127.12,
      "duration": 4.679
    },
    {
      "text": "and and sayings and quote wisdoms of",
      "start": 1129.7,
      "duration": 6.27
    },
    {
      "text": "your elders is is progress and the Apes",
      "start": 1131.799,
      "duration": 7.591
    },
    {
      "text": "pay a price for a strict hierarchy and",
      "start": 1135.97,
      "duration": 6.689
    },
    {
      "text": "for not questioning not being allowed to",
      "start": 1139.39,
      "duration": 5.97
    },
    {
      "text": "question that fathers and so on and that",
      "start": 1142.659,
      "duration": 4.981
    },
    {
      "text": "is really important as well the other",
      "start": 1145.36,
      "duration": 3.539
    },
    {
      "text": "thing that's important is that at the",
      "start": 1147.64,
      "duration": 4.47
    },
    {
      "text": "beginning the the mean ape the bad ape",
      "start": 1148.899,
      "duration": 5.191
    },
    {
      "text": "and you know he's bad because he looks",
      "start": 1152.11,
      "duration": 3.98
    },
    {
      "text": "like you put the Elephant Man in a",
      "start": 1154.09,
      "duration": 7.02
    },
    {
      "text": "blender and added dinosaur teeth he is",
      "start": 1156.09,
      "duration": 7.18
    },
    {
      "text": "incredibly violent and is willing to",
      "start": 1161.11,
      "duration": 4.02
    },
    {
      "text": "attack the bear and kill the bear and so",
      "start": 1163.27,
      "duration": 3.6
    },
    {
      "text": "on and then he turns out to be a bad guy",
      "start": 1165.13,
      "duration": 3.899
    },
    {
      "text": "who is a totalitarian dictator and so on",
      "start": 1166.87,
      "duration": 6.12
    },
    {
      "text": "well you know when when violence serves",
      "start": 1169.029,
      "duration": 6.39
    },
    {
      "text": "the state right serves in this case sees",
      "start": 1172.99,
      "duration": 3.809
    },
    {
      "text": "that the leader when they're really",
      "start": 1175.419,
      "duration": 2.73
    },
    {
      "text": "psychotically violent and aggressive",
      "start": 1176.799,
      "duration": 3.721
    },
    {
      "text": "serve the leader well then they're",
      "start": 1178.149,
      "duration": 4.711
    },
    {
      "text": "heroes but then when they turn on the",
      "start": 1180.52,
      "duration": 6.45
    },
    {
      "text": "leader that's well that's really bad",
      "start": 1182.86,
      "duration": 5.699
    },
    {
      "text": "right as the old saying goes",
      "start": 1186.97,
      "duration": 3.689
    },
    {
      "text": "treason doth never prosper what's the",
      "start": 1188.559,
      "duration": 4.411
    },
    {
      "text": "reason why if it profit if it prospers",
      "start": 1190.659,
      "duration": 10.14
    },
    {
      "text": "none dare call it treason so generally",
      "start": 1192.97,
      "duration": 8.85
    },
    {
      "text": "the last thing I'm",
      "start": 1200.799,
      "duration": 2.041
    },
    {
      "text": "want to say about the movie it's two",
      "start": 1201.82,
      "duration": 2.63
    },
    {
      "text": "things I want to say the first is that",
      "start": 1202.84,
      "duration": 6.45
    },
    {
      "text": "there's this cliche throughout history",
      "start": 1204.45,
      "duration": 7.95
    },
    {
      "text": "that war is a tragic misunderstanding",
      "start": 1209.29,
      "duration": 6.06
    },
    {
      "text": "war is you know just a tragic",
      "start": 1212.4,
      "duration": 4.45
    },
    {
      "text": "misunderstanding so there's a story of",
      "start": 1215.35,
      "duration": 3.75
    },
    {
      "text": "it I think it's ancient Greece this it's",
      "start": 1216.85,
      "duration": 3.81
    },
    {
      "text": "maybe in the Peloponnesian War there's",
      "start": 1219.1,
      "duration": 3.96
    },
    {
      "text": "these two armies that are facing each",
      "start": 1220.66,
      "duration": 5.61
    },
    {
      "text": "other and both generals have said there",
      "start": 1223.06,
      "duration": 4.32
    },
    {
      "text": "will be no war",
      "start": 1226.27,
      "duration": 5.04
    },
    {
      "text": "enough there will be no war unless",
      "start": 1227.38,
      "duration": 5.94
    },
    {
      "text": "somebody else like if you see the other",
      "start": 1231.31,
      "duration": 3.6
    },
    {
      "text": "guy making an aggressive move then",
      "start": 1233.32,
      "duration": 2.79
    },
    {
      "text": "there'll be a war and they're both sort",
      "start": 1234.91,
      "duration": 3.81
    },
    {
      "text": "of in this stasis and then one soldier",
      "start": 1236.11,
      "duration": 6.12
    },
    {
      "text": "sees a snake crawling up his leg he",
      "start": 1238.72,
      "duration": 5.01
    },
    {
      "text": "lifts up his sword and hacks it and",
      "start": 1242.23,
      "duration": 2.67
    },
    {
      "text": "everyone thinks that's a signal to",
      "start": 1243.73,
      "duration": 3.21
    },
    {
      "text": "charge and then the point there will be",
      "start": 1244.9,
      "duration": 7.43
    },
    {
      "text": "war this is huge war that goes on and",
      "start": 1246.94,
      "duration": 8.04
    },
    {
      "text": "it's all a tragic misunderstanding and",
      "start": 1252.33,
      "duration": 5.47
    },
    {
      "text": "this series of misunderstandings this is",
      "start": 1254.98,
      "duration": 5.31
    },
    {
      "text": "like a grim exceedingly hairy episode of",
      "start": 1257.8,
      "duration": 4.47
    },
    {
      "text": "Three's Company because there's all of",
      "start": 1260.29,
      "duration": 3.84
    },
    {
      "text": "these misunderstandings that like",
      "start": 1262.27,
      "duration": 4.34
    },
    {
      "text": "dominoes propel people into war and",
      "start": 1264.13,
      "duration": 5.88
    },
    {
      "text": "there are these betrayals and mistrusts",
      "start": 1266.61,
      "duration": 4.63
    },
    {
      "text": "and so on but basically it's just a",
      "start": 1270.01,
      "duration": 3.3
    },
    {
      "text": "bunch of misunderstandings there's this",
      "start": 1271.24,
      "duration": 5.16
    },
    {
      "text": "trope that this is cliche I think that",
      "start": 1273.31,
      "duration": 5.7
    },
    {
      "text": "the bloodthirsty mob clings to when the",
      "start": 1276.4,
      "duration": 4.98
    },
    {
      "text": "bloodlust has dissipated which is to say",
      "start": 1279.01,
      "duration": 4.23
    },
    {
      "text": "well that was the real tragedy wasn't it",
      "start": 1281.38,
      "duration": 5.7
    },
    {
      "text": "like you know like I go and and shoot",
      "start": 1283.24,
      "duration": 7.62
    },
    {
      "text": "some guy in the chest and then I throw",
      "start": 1287.08,
      "duration": 5.94
    },
    {
      "text": "the gun over my shoulder and I say whoa",
      "start": 1290.86,
      "duration": 5.52
    },
    {
      "text": "smell the cordite oh my god that guy has",
      "start": 1293.02,
      "duration": 5.4
    },
    {
      "text": "a giant hole in his chest and two",
      "start": 1296.38,
      "duration": 3.66
    },
    {
      "text": "shotguns sticking out of his shoulder",
      "start": 1298.42,
      "duration": 3.12
    },
    {
      "text": "two shotgun shells sticking out of his",
      "start": 1300.04,
      "duration": 2.25
    },
    {
      "text": "shoulder blades",
      "start": 1301.54,
      "duration": 3.93
    },
    {
      "text": "what a terrible tragedy I wonder how",
      "start": 1302.29,
      "duration": 5.07
    },
    {
      "text": "this happened and this is what is",
      "start": 1305.47,
      "duration": 5.1
    },
    {
      "text": "continually told as a story of war war",
      "start": 1307.36,
      "duration": 5.45
    },
    {
      "text": "and juice is a kind of bloodthirsty",
      "start": 1310.57,
      "duration": 5.16
    },
    {
      "text": "sociopathic alter ego state in people",
      "start": 1312.81,
      "duration": 4.24
    },
    {
      "text": "and you you know for those who around",
      "start": 1315.73,
      "duration": 4.14
    },
    {
      "text": "for the run-up to the Iraq war in 2003",
      "start": 1317.05,
      "duration": 7.14
    },
    {
      "text": "and to the retaliatory war against the",
      "start": 1319.87,
      "duration": 7.59
    },
    {
      "text": "Taliban Afghanistan after 9/11 you can",
      "start": 1324.19,
      "duration": 5.88
    },
    {
      "text": "see this war fever growing over people",
      "start": 1327.46,
      "duration": 4.89
    },
    {
      "text": "they go literally mental in all capacity",
      "start": 1330.07,
      "duration": 4.97
    },
    {
      "text": "for empathy all desires to understand",
      "start": 1332.35,
      "duration": 5.27
    },
    {
      "text": "and all desires to to search history to",
      "start": 1335.04,
      "duration": 4.29
    },
    {
      "text": "try and figure out why the attacks are",
      "start": 1337.62,
      "duration": 3.72
    },
    {
      "text": "occurring completely goes out the window",
      "start": 1339.33,
      "duration": 4.05
    },
    {
      "text": "and it's basically once drink blood",
      "start": 1341.34,
      "duration": 5.22
    },
    {
      "text": "brings skull of enemy I wish to take a",
      "start": 1343.38,
      "duration": 5.61
    },
    {
      "text": "sweet dump on their departed souls",
      "start": 1346.56,
      "duration": 4.38
    },
    {
      "text": "actually they probably don't quite say",
      "start": 1348.99,
      "duration": 2.84
    },
    {
      "text": "it like a gay",
      "start": 1350.94,
      "duration": 3.27
    },
    {
      "text": "Montgomery Clift but anyway there is",
      "start": 1351.83,
      "duration": 4.84
    },
    {
      "text": "this this bloodlust that happens for",
      "start": 1354.21,
      "duration": 5.82
    },
    {
      "text": "people and then the war happens and then",
      "start": 1356.67,
      "duration": 5.96
    },
    {
      "text": "the happens after the war and",
      "start": 1360.03,
      "duration": 6.33
    },
    {
      "text": "everyone's like wow that war was a total",
      "start": 1362.63,
      "duration": 5.83
    },
    {
      "text": "tragedy like they didn't take the",
      "start": 1366.36,
      "duration": 5.28
    },
    {
      "text": "shotgun and pointed at their enemy's",
      "start": 1368.46,
      "duration": 4.95
    },
    {
      "text": "chest and repeatedly pulled the trigger",
      "start": 1371.64,
      "duration": 4.74
    },
    {
      "text": "until their arms ached until there was",
      "start": 1373.41,
      "duration": 4.95
    },
    {
      "text": "just a clicking give me more shells",
      "start": 1376.38,
      "duration": 5.88
    },
    {
      "text": "there well they were right people do all",
      "start": 1378.36,
      "duration": 7.43
    },
    {
      "text": "of this crazy psychotic alter-ego",
      "start": 1382.26,
      "duration": 6.48
    },
    {
      "text": "sociopathic violent bloodlust cheering",
      "start": 1385.79,
      "duration": 7.3
    },
    {
      "text": "right and then when the crap of war",
      "start": 1388.74,
      "duration": 6.57
    },
    {
      "text": "occurs why did the body start coming",
      "start": 1393.09,
      "duration": 5.1
    },
    {
      "text": "home when the blowback continues to",
      "start": 1395.31,
      "duration": 5.58
    },
    {
      "text": "happen when the soldiers who are",
      "start": 1398.19,
      "duration": 5.37
    },
    {
      "text": "traumatized to come home because you",
      "start": 1400.89,
      "duration": 3.96
    },
    {
      "text": "know being a soldier in the repeated",
      "start": 1403.56,
      "duration": 3.78
    },
    {
      "text": "deployment basically its mass murderer",
      "start": 1404.85,
      "duration": 4.11
    },
    {
      "text": "training at serial killer training these",
      "start": 1407.34,
      "duration": 3.45
    },
    {
      "text": "guys come home completely traumatized",
      "start": 1408.96,
      "duration": 3.72
    },
    {
      "text": "which is why there's such high rates of",
      "start": 1410.79,
      "duration": 4.08
    },
    {
      "text": "suicide and divorce and so on so that's",
      "start": 1412.68,
      "duration": 5.49
    },
    {
      "text": "pretty crappy when let's say the",
      "start": 1414.87,
      "duration": 5.16
    },
    {
      "text": "government prints a massive amount of",
      "start": 1418.17,
      "duration": 3.48
    },
    {
      "text": "money so that it doesn't have to raise",
      "start": 1420.03,
      "duration": 3.39
    },
    {
      "text": "taxes to the point where personal",
      "start": 1421.65,
      "duration": 4.23
    },
    {
      "text": "financial losses might interfere to a",
      "start": 1423.42,
      "duration": 4.83
    },
    {
      "text": "small degree with the rabid soul",
      "start": 1425.88,
      "duration": 4.08
    },
    {
      "text": "slaughtering bloodlust of the general",
      "start": 1428.25,
      "duration": 3.63
    },
    {
      "text": "population when they pump a whole lot of",
      "start": 1429.96,
      "duration": 4.23
    },
    {
      "text": "money into the economy to shore up a war",
      "start": 1431.88,
      "duration": 5.07
    },
    {
      "text": "destroyed economy and then say let's say",
      "start": 1434.19,
      "duration": 4.71
    },
    {
      "text": "you know theoretically there's a housing",
      "start": 1436.95,
      "duration": 4.32
    },
    {
      "text": "crash as a result of a housing bubble",
      "start": 1438.9,
      "duration": 3.48
    },
    {
      "text": "that was created through the over",
      "start": 1441.27,
      "duration": 3.09
    },
    {
      "text": "printing of the money and then let's say",
      "start": 1442.38,
      "duration": 3.93
    },
    {
      "text": "there's massive unemployment and let's",
      "start": 1444.36,
      "duration": 4.47
    },
    {
      "text": "say when all of the crap of war happens",
      "start": 1446.31,
      "duration": 4.2
    },
    {
      "text": "everybody kind of wakes up from this",
      "start": 1448.83,
      "duration": 5.4
    },
    {
      "text": "bloodlust days this coma of vampiric",
      "start": 1450.51,
      "duration": 6.84
    },
    {
      "text": "flesh-eating madness they wake up and",
      "start": 1454.23,
      "duration": 5.85
    },
    {
      "text": "they say what a tragedy this war is what",
      "start": 1457.35,
      "duration": 4.29
    },
    {
      "text": "a horrible misunderstood but this all",
      "start": 1460.08,
      "duration": 4.53
    },
    {
      "text": "nonsense this is all nonsense this war",
      "start": 1461.64,
      "duration": 4.77
    },
    {
      "text": "the war between the humans and the Apes",
      "start": 1464.61,
      "duration": 3.03
    },
    {
      "text": "was not a result",
      "start": 1466.41,
      "duration": 2.76
    },
    {
      "text": "misunderstandings it was a result of",
      "start": 1467.64,
      "duration": 3.15
    },
    {
      "text": "manipulative blood laughs on the part of",
      "start": 1469.17,
      "duration": 4.14
    },
    {
      "text": "the leaders and everyone's willingness",
      "start": 1470.79,
      "duration": 5.13
    },
    {
      "text": "to follow those leaders everyone's",
      "start": 1473.31,
      "duration": 5.49
    },
    {
      "text": "willingness to follow those leaders now",
      "start": 1475.92,
      "duration": 7.95
    },
    {
      "text": "when the mean ape gets in charge of the",
      "start": 1478.8,
      "duration": 9.72
    },
    {
      "text": "Apes later on in the movie he kills an",
      "start": 1483.87,
      "duration": 9
    },
    {
      "text": "ape who won't kill a human and everyone",
      "start": 1488.52,
      "duration": 5.97
    },
    {
      "text": "all the other he's completely unarmed",
      "start": 1492.87,
      "duration": 3.09
    },
    {
      "text": "just standing there alone and all the",
      "start": 1494.49,
      "duration": 3
    },
    {
      "text": "other Apes around him and they've got",
      "start": 1495.96,
      "duration": 2.85
    },
    {
      "text": "guns why I don't know shoot this guy",
      "start": 1497.49,
      "duration": 3.87
    },
    {
      "text": "they've got a rule says ape not kill ape",
      "start": 1498.81,
      "duration": 6.03
    },
    {
      "text": "and he just killed someone so they",
      "start": 1501.36,
      "duration": 5.04
    },
    {
      "text": "should shoot him right I mean these",
      "start": 1504.84,
      "duration": 3.42
    },
    {
      "text": "according to sort of basic third-party",
      "start": 1506.4,
      "duration": 4.65
    },
    {
      "text": "self-defense ethics but they don't and",
      "start": 1508.26,
      "duration": 5.43
    },
    {
      "text": "then later he says the the some ape says",
      "start": 1511.05,
      "duration": 6.6
    },
    {
      "text": "they are following Co beard oh dear it's",
      "start": 1513.69,
      "duration": 5.94
    },
    {
      "text": "like fear they are following him out of",
      "start": 1517.65,
      "duration": 4.62
    },
    {
      "text": "fear because he's leading them to war if",
      "start": 1519.63,
      "duration": 3.99
    },
    {
      "text": "they were afraid then they wouldn't go",
      "start": 1522.27,
      "duration": 3.36
    },
    {
      "text": "to war right they're following him",
      "start": 1523.62,
      "duration": 4.11
    },
    {
      "text": "because he gives them permission to vent",
      "start": 1525.63,
      "duration": 3.15
    },
    {
      "text": "their bloodlust it's like political",
      "start": 1527.73,
      "duration": 3.72
    },
    {
      "text": "correctness political correctness puts",
      "start": 1528.78,
      "duration": 5.1
    },
    {
      "text": "like a sky painted laser target on",
      "start": 1531.45,
      "duration": 5.1
    },
    {
      "text": "groups you are now allowed to hate right",
      "start": 1533.88,
      "duration": 4.53
    },
    {
      "text": "you you're now allowed to hate a variety",
      "start": 1536.55,
      "duration": 3.93
    },
    {
      "text": "of groups who are labeled sexist or",
      "start": 1538.41,
      "duration": 4.17
    },
    {
      "text": "racist or misogynist or white males or",
      "start": 1540.48,
      "duration": 3.78
    },
    {
      "text": "privileged people or whatever the rich",
      "start": 1542.58,
      "duration": 3.66
    },
    {
      "text": "now you're allowed to just full-on",
      "start": 1544.26,
      "duration": 5.07
    },
    {
      "text": "full-bore hate in the same edit just",
      "start": 1546.24,
      "duration": 5.19
    },
    {
      "text": "hate the Taliban the same we just hate",
      "start": 1549.33,
      "duration": 4.08
    },
    {
      "text": "Saddam who's just allowed to hate these",
      "start": 1551.43,
      "duration": 4.62
    },
    {
      "text": "people and once people can generate that",
      "start": 1553.41,
      "duration": 5.4
    },
    {
      "text": "fiery smog breath furnace of hatred in",
      "start": 1556.05,
      "duration": 4.26
    },
    {
      "text": "your chest and they pointed at someone",
      "start": 1558.81,
      "duration": 3.63
    },
    {
      "text": "most people they just turn into these",
      "start": 1560.31,
      "duration": 5.04
    },
    {
      "text": "sky bombing drones of nationalistic",
      "start": 1562.44,
      "duration": 4.98
    },
    {
      "text": "compliance just willing to disassemble",
      "start": 1565.35,
      "duration": 3.6
    },
    {
      "text": "other human beings because some asshole",
      "start": 1567.42,
      "duration": 4.92
    },
    {
      "text": "points at them and says war bad people",
      "start": 1568.95,
      "duration": 10.77
    },
    {
      "text": "or rip them okay right I mean this is",
      "start": 1572.34,
      "duration": 9.15
    },
    {
      "text": "the war is the result of the compliance",
      "start": 1579.72,
      "duration": 4.2
    },
    {
      "text": "with the leaders but people don't like",
      "start": 1581.49,
      "duration": 5.61
    },
    {
      "text": "that they like to say it was a tragedy",
      "start": 1583.92,
      "duration": 6.83
    },
    {
      "text": "of misunderstandings and this is not",
      "start": 1587.1,
      "duration": 9.63
    },
    {
      "text": "what happens with war oh and then okay",
      "start": 1590.75,
      "duration": 7.23
    },
    {
      "text": "so the last thing I'm gonna say is that",
      "start": 1596.73,
      "duration": 4.08
    },
    {
      "text": "when a more advanced culture conquerors",
      "start": 1597.98,
      "duration": 3.58
    },
    {
      "text": "are less advanced",
      "start": 1600.81,
      "duration": 5.13
    },
    {
      "text": "culture and basically since most free",
      "start": 1601.56,
      "duration": 5.7
    },
    {
      "text": "people want to trade with each other",
      "start": 1605.94,
      "duration": 5.88
    },
    {
      "text": "this means when a government that has",
      "start": 1607.26,
      "duration": 6.51
    },
    {
      "text": "more resources because there's more of a",
      "start": 1611.82,
      "duration": 4.47
    },
    {
      "text": "free market in the home country right",
      "start": 1613.77,
      "duration": 4.02
    },
    {
      "text": "it's no accident that throughout history",
      "start": 1616.29,
      "duration": 3.57
    },
    {
      "text": "the big empires have always been",
      "start": 1617.79,
      "duration": 4.32
    },
    {
      "text": "preceded by massive advancements in free",
      "start": 1619.86,
      "duration": 3.99
    },
    {
      "text": "trade this is true for the Roman Empire",
      "start": 1622.11,
      "duration": 3.9
    },
    {
      "text": "which had free trade throughout most of",
      "start": 1623.85,
      "duration": 3.96
    },
    {
      "text": "the empires true of the the British the",
      "start": 1626.01,
      "duration": 5.04
    },
    {
      "text": "German the French you get freedom free",
      "start": 1627.81,
      "duration": 4.83
    },
    {
      "text": "trade and the wealth of your country",
      "start": 1631.05,
      "duration": 3.33
    },
    {
      "text": "vastly increases which you can then tax",
      "start": 1632.64,
      "duration": 4.14
    },
    {
      "text": "and use to build a military and then go",
      "start": 1634.38,
      "duration": 4.62
    },
    {
      "text": "and have an empire and the Empire then",
      "start": 1636.78,
      "duration": 4.44
    },
    {
      "text": "destroys your freedom it's a lovely",
      "start": 1639,
      "duration": 4.56
    },
    {
      "text": "lovely merry-go-round which hopefully at",
      "start": 1641.22,
      "duration": 3.81
    },
    {
      "text": "some point will have the good sense to",
      "start": 1643.56,
      "duration": 4.26
    },
    {
      "text": "step off these champing blood-soaked",
      "start": 1645.03,
      "duration": 5.13
    },
    {
      "text": "horses of history go around and round",
      "start": 1647.82,
      "duration": 4.76
    },
    {
      "text": "sometimes we will get tired of",
      "start": 1650.16,
      "duration": 4.83
    },
    {
      "text": "photocopying graves over and over again",
      "start": 1652.58,
      "duration": 7.17
    },
    {
      "text": "and calling them art and culture but",
      "start": 1654.99,
      "duration": 7.47
    },
    {
      "text": "what it means is that a a government",
      "start": 1659.75,
      "duration": 4.96
    },
    {
      "text": "that has grown fat on the fruits of free",
      "start": 1662.46,
      "duration": 4.2
    },
    {
      "text": "market freedoms and an economic progress",
      "start": 1664.71,
      "duration": 4.95
    },
    {
      "text": "then goes in attacks a country whose",
      "start": 1666.66,
      "duration": 5.28
    },
    {
      "text": "leadership whose state or tribal",
      "start": 1669.66,
      "duration": 4.41
    },
    {
      "text": "leadership has not allowed a free market",
      "start": 1671.94,
      "duration": 3.96
    },
    {
      "text": "and therefore has fewer resources with",
      "start": 1674.07,
      "duration": 4.79
    },
    {
      "text": "which to fight off the invaders that is",
      "start": 1675.9,
      "duration": 5.73
    },
    {
      "text": "the first round of cultural destruction",
      "start": 1678.86,
      "duration": 5.2
    },
    {
      "text": "and then the second round of cultural",
      "start": 1681.63,
      "duration": 5.64
    },
    {
      "text": "destruction occurs when the newly rulers",
      "start": 1684.06,
      "duration": 4.71
    },
    {
      "text": "of whatever land it is the new",
      "start": 1687.27,
      "duration": 4.53
    },
    {
      "text": "inhabitants the new citizens then get",
      "start": 1688.77,
      "duration": 5.7
    },
    {
      "text": "this sentimentality recoil and then",
      "start": 1691.8,
      "duration": 4.8
    },
    {
      "text": "where formerly they viewed like you come",
      "start": 1694.47,
      "duration": 4.11
    },
    {
      "text": "over to North America and the natives",
      "start": 1696.6,
      "duration": 3.54
    },
    {
      "text": "here first viewed us a little bit of",
      "start": 1698.58,
      "duration": 3.39
    },
    {
      "text": "savages you know are I scalped him kill",
      "start": 1700.14,
      "duration": 4.83
    },
    {
      "text": "him kill him and then you get sort of",
      "start": 1701.97,
      "duration": 5.61
    },
    {
      "text": "Graham green movies where they are noble",
      "start": 1704.97,
      "duration": 4.86
    },
    {
      "text": "savages and so on the first round is the",
      "start": 1707.58,
      "duration": 4.35
    },
    {
      "text": "military round which kills and the",
      "start": 1709.83,
      "duration": 3.51
    },
    {
      "text": "biomechanical warfare round which",
      "start": 1711.93,
      "duration": 2.7
    },
    {
      "text": "smallpox and all that which kills",
      "start": 1713.34,
      "duration": 3.39
    },
    {
      "text": "millions of the local inhabitants the",
      "start": 1714.63,
      "duration": 3.84
    },
    {
      "text": "second round which in some ways is",
      "start": 1716.73,
      "duration": 3.03
    },
    {
      "text": "really the coup de Gras to the entire",
      "start": 1718.47,
      "duration": 4.41
    },
    {
      "text": "culture is the sentimentality which then",
      "start": 1719.76,
      "duration": 6
    },
    {
      "text": "drives people to use the state to give a",
      "start": 1722.88,
      "duration": 8.06
    },
    {
      "text": "bunch of resources and ends the culture",
      "start": 1725.76,
      "duration": 7.68
    },
    {
      "text": "culture and progress it's like a muscle",
      "start": 1730.94,
      "duration": 4.42
    },
    {
      "text": "it it works again",
      "start": 1733.44,
      "duration": 4.29
    },
    {
      "text": "resistance if you want to be a stronger",
      "start": 1735.36,
      "duration": 4.74
    },
    {
      "text": "human being then get engaged in a",
      "start": 1737.73,
      "duration": 4.59
    },
    {
      "text": "difficult fight right if you want to be",
      "start": 1740.1,
      "duration": 4.17
    },
    {
      "text": "a stronger physically human being lift",
      "start": 1742.32,
      "duration": 3.359
    },
    {
      "text": "weights that are harder for you to lift",
      "start": 1744.27,
      "duration": 4.8
    },
    {
      "text": "and it's the same thing with with",
      "start": 1745.679,
      "duration": 6.211
    },
    {
      "text": "culture when resistance is removed human",
      "start": 1749.07,
      "duration": 5.46
    },
    {
      "text": "inspiration dies on the vine and there's",
      "start": 1751.89,
      "duration": 5.64
    },
    {
      "text": "been tons of experiments done throughout",
      "start": 1754.53,
      "duration": 5.16
    },
    {
      "text": "history whenever people get a lot of",
      "start": 1757.53,
      "duration": 5.64
    },
    {
      "text": "free stuff that cultures tend to to die",
      "start": 1759.69,
      "duration": 8.22
    },
    {
      "text": "or as the great economist Thomas Sol",
      "start": 1763.17,
      "duration": 6.84
    },
    {
      "text": "said the welfare state has done more",
      "start": 1767.91,
      "duration": 3.84
    },
    {
      "text": "damage to the black family than slavery",
      "start": 1770.01,
      "duration": 4.44
    },
    {
      "text": "ever did when you give people a whole",
      "start": 1771.75,
      "duration": 3.48
    },
    {
      "text": "bunch of free stuff",
      "start": 1774.45,
      "duration": 3.69
    },
    {
      "text": "the ethics decay there are communities",
      "start": 1775.23,
      "duration": 5.73
    },
    {
      "text": "decay their families decay it basically",
      "start": 1778.14,
      "duration": 5.46
    },
    {
      "text": "is like encasing a human being in a body",
      "start": 1780.96,
      "duration": 6.63
    },
    {
      "text": "cast the bones and the muscles rot from",
      "start": 1783.6,
      "duration": 7.079
    },
    {
      "text": "inactivity so when you overwhelm a more",
      "start": 1787.59,
      "duration": 4.829
    },
    {
      "text": "primitive culture with the military",
      "start": 1790.679,
      "duration": 3.721
    },
    {
      "text": "might that is horribly destructive",
      "start": 1792.419,
      "duration": 3.601
    },
    {
      "text": "enough but the final coup de Gras to",
      "start": 1794.4,
      "duration": 3.11
    },
    {
      "text": "that culture is then when you're",
      "start": 1796.02,
      "duration": 4.08
    },
    {
      "text": "guilt-ridden hallmarks sentimentality",
      "start": 1797.51,
      "duration": 4.96
    },
    {
      "text": "TLA sentimentality arises in your",
      "start": 1800.1,
      "duration": 4.8
    },
    {
      "text": "breasts then what you do is you then",
      "start": 1802.47,
      "duration": 3.93
    },
    {
      "text": "give them a whole bunch of guilt-ridden",
      "start": 1804.9,
      "duration": 3.029
    },
    {
      "text": "free stuff that you actually haven't",
      "start": 1806.4,
      "duration": 3.21
    },
    {
      "text": "earned but simply allow the government",
      "start": 1807.929,
      "duration": 3.391
    },
    {
      "text": "to borrow or print into existence you",
      "start": 1809.61,
      "duration": 2.97
    },
    {
      "text": "give them a whole bunch of free stuff",
      "start": 1811.32,
      "duration": 3.69
    },
    {
      "text": "out of guilt which is actually really",
      "start": 1812.58,
      "duration": 4.08
    },
    {
      "text": "the coup de Gras the end the",
      "start": 1815.01,
      "duration": 3.57
    },
    {
      "text": "slaughterhouse off the existing culture",
      "start": 1816.66,
      "duration": 4.98
    },
    {
      "text": "and that's why I think that the noble",
      "start": 1818.58,
      "duration": 5.219
    },
    {
      "text": "savage idea is is so dangerous it tends",
      "start": 1821.64,
      "duration": 5.789
    },
    {
      "text": "to provoke guilt and the guilt people",
      "start": 1823.799,
      "duration": 5.161
    },
    {
      "text": "who act out of guilt usually end up",
      "start": 1827.429,
      "duration": 3.091
    },
    {
      "text": "acting in an extremely destructive",
      "start": 1828.96,
      "duration": 3.839
    },
    {
      "text": "manner particularly when the guilt is",
      "start": 1830.52,
      "duration": 5.64
    },
    {
      "text": "unearned so I think it's worth going to",
      "start": 1832.799,
      "duration": 5.281
    },
    {
      "text": "see I hope that I've given you some",
      "start": 1836.16,
      "duration": 3.42
    },
    {
      "text": "stuff to think about I certainly thank",
      "start": 1838.08,
      "duration": 5.219
    },
    {
      "text": "the filmmakers and a good chunk of the",
      "start": 1839.58,
      "duration": 7.14
    },
    {
      "text": "actress forth the work that they did you",
      "start": 1843.299,
      "duration": 5.341
    },
    {
      "text": "really just you do have to listen to",
      "start": 1846.72,
      "duration": 5.22
    },
    {
      "text": "Carrie Russell has her character that",
      "start": 1848.64,
      "duration": 6.96
    },
    {
      "text": "they had one human habitation and they",
      "start": 1851.94,
      "duration": 5.55
    },
    {
      "text": "they go over a hill and the human",
      "start": 1855.6,
      "duration": 3.93
    },
    {
      "text": "habitation is burning in flames and",
      "start": 1857.49,
      "duration": 4.35
    },
    {
      "text": "she's like oh look the human cities in",
      "start": 1859.53,
      "duration": 5.79
    },
    {
      "text": "flames and you can almost hear like her",
      "start": 1861.84,
      "duration": 5.91
    },
    {
      "text": "teeth whitening a little bit as as she",
      "start": 1865.32,
      "duration": 3.87
    },
    {
      "text": "yawns saying the line",
      "start": 1867.75,
      "duration": 5.279
    },
    {
      "text": "it's the end of the world as we know it",
      "start": 1869.19,
      "duration": 7.319
    },
    {
      "text": "where's my Oscar oh yeah one more thing",
      "start": 1873.029,
      "duration": 5.041
    },
    {
      "text": "okay so we're one last thing Melissa",
      "start": 1876.509,
      "duration": 8.52
    },
    {
      "text": "okay so the leader of the apes is killed",
      "start": 1878.07,
      "duration": 11.339
    },
    {
      "text": "and he's on basically a mountaintop and",
      "start": 1885.029,
      "duration": 6.811
    },
    {
      "text": "he falls not down a mountain but he's",
      "start": 1889.409,
      "duration": 5.46
    },
    {
      "text": "falls onto the ground this is the middle",
      "start": 1891.84,
      "duration": 5.48
    },
    {
      "text": "of the night at some point in the night",
      "start": 1894.869,
      "duration": 6.571
    },
    {
      "text": "the human characters who were in the",
      "start": 1897.32,
      "duration": 8.319
    },
    {
      "text": "monkey slum the human characters run",
      "start": 1901.44,
      "duration": 6.809
    },
    {
      "text": "like the wind to secure their freedom",
      "start": 1905.639,
      "duration": 4.23
    },
    {
      "text": "and escape the Apes who are chasing them",
      "start": 1908.249,
      "duration": 4.831
    },
    {
      "text": "right flash forward to like 9,000 things",
      "start": 1909.869,
      "duration": 4.321
    },
    {
      "text": "that happen in the movie",
      "start": 1913.08,
      "duration": 4.529
    },
    {
      "text": "flash forward pass all of that what",
      "start": 1914.19,
      "duration": 6.239
    },
    {
      "text": "happens is the humans have been running",
      "start": 1917.609,
      "duration": 5.04
    },
    {
      "text": "and running and running for",
      "start": 1920.429,
      "duration": 8.911
    },
    {
      "text": "approximately 12 to 16 hours now I'm not",
      "start": 1922.649,
      "duration": 8.34
    },
    {
      "text": "a terrific leaf it fell and fairly fit",
      "start": 1929.34,
      "duration": 4.949
    },
    {
      "text": "pretty sure if somebody gave me 14 or 16",
      "start": 1930.989,
      "duration": 6.54
    },
    {
      "text": "hours to run I might make it slightly",
      "start": 1934.289,
      "duration": 6.39
    },
    {
      "text": "further than about 47 feet because",
      "start": 1937.529,
      "duration": 4.921
    },
    {
      "text": "they've left the top of the mountain",
      "start": 1940.679,
      "duration": 2.88
    },
    {
      "text": "they're running they're running they're",
      "start": 1942.45,
      "duration": 2.729
    },
    {
      "text": "running they're running literally it's",
      "start": 1943.559,
      "duration": 2.67
    },
    {
      "text": "the next day",
      "start": 1945.179,
      "duration": 4.74
    },
    {
      "text": "it's morning time it's the next not just",
      "start": 1946.229,
      "duration": 5.611
    },
    {
      "text": "a really bright full moon there's no",
      "start": 1949.919,
      "duration": 4.531
    },
    {
      "text": "giant supernova Zeus is not read",
      "start": 1951.84,
      "duration": 4.589
    },
    {
      "text": "ascending from his throne it's the next",
      "start": 1954.45,
      "duration": 4.169
    },
    {
      "text": "day and where have they gotten to",
      "start": 1956.429,
      "duration": 4.141
    },
    {
      "text": "they've gotten from the top of the",
      "start": 1958.619,
      "duration": 4.02
    },
    {
      "text": "mountain to where the monkeys body is",
      "start": 1960.57,
      "duration": 3.479
    },
    {
      "text": "first of all they find him which is a",
      "start": 1962.639,
      "duration": 3.78
    },
    {
      "text": "miracle itself and they fall to where",
      "start": 1964.049,
      "duration": 4.38
    },
    {
      "text": "the monkeys party they've run in 12 to",
      "start": 1966.419,
      "duration": 5.1
    },
    {
      "text": "14 hours about 45 to 50 feet I mean what",
      "start": 1968.429,
      "duration": 4.261
    },
    {
      "text": "are they stopping for rock paper",
      "start": 1971.519,
      "duration": 1.89
    },
    {
      "text": "scissors",
      "start": 1972.69,
      "duration": 2.429
    },
    {
      "text": "okay charades we're not rush right",
      "start": 1973.409,
      "duration": 3.9
    },
    {
      "text": "monkeys are anyway I just you know I",
      "start": 1975.119,
      "duration": 6.06
    },
    {
      "text": "don't mind you know a leap of faith in a",
      "start": 1977.309,
      "duration": 5.521
    },
    {
      "text": "movie but but please don't make it a",
      "start": 1981.179,
      "duration": 4.291
    },
    {
      "text": "leap of complete insanity that's just",
      "start": 1982.83,
      "duration": 4.979
    },
    {
      "text": "one minor bit that the movie makers work",
      "start": 1985.47,
      "duration": 3.6
    },
    {
      "text": "slightly hotter on but anyway enough",
      "start": 1987.809,
      "duration": 3.57
    },
    {
      "text": "enough enough thank you everyone so much",
      "start": 1989.07,
      "duration": 3.989
    },
    {
      "text": "for watching the review if you enjoy",
      "start": 1991.379,
      "duration": 3.05
    },
    {
      "text": "these reviews",
      "start": 1993.059,
      "duration": 4.32
    },
    {
      "text": "FDR URL com / donate if you'd like to",
      "start": 1994.429,
      "duration": 4.75
    },
    {
      "text": "help out the show this is stefan",
      "start": 1997.379,
      "duration": 5.311
    },
    {
      "text": "molyneux for freedomain radio",
      "start": 1999.179,
      "duration": 5.07
    },
    {
      "text": "saying have yourselves a great weekend",
      "start": 2002.69,
      "duration": 4.52
    },
    {
      "text": "everyone I'll talk to you soon",
      "start": 2004.249,
      "duration": 2.961
    }
  ],
  "Errors": null,
  "TranscriptStderr": null
}