{
  "Title": "The Sad Truth About The Paris Climate Accord",
  "Id": "TJNJ_k8SUkA",
  "Transcript": [
    {
      "text": "hi everybody safe and molyneux from",
      "start": 0,
      "duration": 4.23
    },
    {
      "text": "freedomain radio here to help you calm",
      "start": 1.199,
      "duration": 6.781
    },
    {
      "text": "down to chill dare i say because in a",
      "start": 4.23,
      "duration": 5.52
    },
    {
      "text": "few short hours president Trump is going",
      "start": 7.98,
      "duration": 4.67
    },
    {
      "text": "to talk about whether he's staying in or",
      "start": 9.75,
      "duration": 5.67
    },
    {
      "text": "enacting collects it the climate exit",
      "start": 12.65,
      "duration": 6.67
    },
    {
      "text": "from the UN Paris agreement and there",
      "start": 15.42,
      "duration": 5.369
    },
    {
      "text": "will of course be a huge amount of",
      "start": 19.32,
      "duration": 2.94
    },
    {
      "text": "chicken little sky is falling stuff",
      "start": 20.789,
      "duration": 2.851
    },
    {
      "text": "that's going to go on and I'm just here",
      "start": 22.26,
      "duration": 4.859
    },
    {
      "text": "to give you a sanity check a calm down",
      "start": 23.64,
      "duration": 8.28
    },
    {
      "text": "reality check so what is this agreement",
      "start": 27.119,
      "duration": 6.96
    },
    {
      "text": "well it's supposed to of course reduce",
      "start": 31.92,
      "duration": 4.52
    },
    {
      "text": "the amount of co2 in the air and prevent",
      "start": 34.079,
      "duration": 5.881
    },
    {
      "text": "runaway Venus style as it is described",
      "start": 36.44,
      "duration": 7.33
    },
    {
      "text": "global warming so does it do that well",
      "start": 39.96,
      "duration": 5.64
    },
    {
      "text": "you using the UN's own climate",
      "start": 43.77,
      "duration": 6.89
    },
    {
      "text": "prediction model it really doesn't so it",
      "start": 45.6,
      "duration": 7.889
    },
    {
      "text": "will cost a huge amount it would cost at",
      "start": 50.66,
      "duration": 7.649
    },
    {
      "text": "least 100 trillion dollars 100 trillion",
      "start": 53.489,
      "duration": 7.861
    },
    {
      "text": "dollars and what do you get that's quite",
      "start": 58.309,
      "duration": 4.75
    },
    {
      "text": "a hefty price tag I sure hope you get",
      "start": 61.35,
      "duration": 3.059
    },
    {
      "text": "something where the doors open to the",
      "start": 63.059,
      "duration": 1.771
    },
    {
      "text": "side",
      "start": 64.409,
      "duration": 4.561
    },
    {
      "text": "well this Paris climate Accord might",
      "start": 64.83,
      "duration": 5.76
    },
    {
      "text": "potentially reduce the earth's",
      "start": 68.97,
      "duration": 4.079
    },
    {
      "text": "temperature at the end of the century",
      "start": 70.59,
      "duration": 6.09
    },
    {
      "text": "2100 by three tenths of one degree this",
      "start": 73.049,
      "duration": 4.591
    },
    {
      "text": "is using the UN's",
      "start": 76.68,
      "duration": 4.829
    },
    {
      "text": "own climate models yes that's eighty six",
      "start": 77.64,
      "duration": 7.17
    },
    {
      "text": "one thousandth of a degree is that worth",
      "start": 81.509,
      "duration": 5.4
    },
    {
      "text": "a hundred trillion dollars that the UN",
      "start": 84.81,
      "duration": 5.01
    },
    {
      "text": "globalist want to spend I would pretty",
      "start": 86.909,
      "duration": 7.771
    },
    {
      "text": "much say you know so according to the",
      "start": 89.82,
      "duration": 8.03
    },
    {
      "text": "UN's own calculations this Paris treaty",
      "start": 94.68,
      "duration": 6.509
    },
    {
      "text": "achieves less than one percent of the",
      "start": 97.85,
      "duration": 4.839
    },
    {
      "text": "emission cuts that are actually needed",
      "start": 101.189,
      "duration": 4.47
    },
    {
      "text": "to meet its target temperatures so as is",
      "start": 102.689,
      "duration": 4.68
    },
    {
      "text": "usually the case hey would you like some",
      "start": 105.659,
      "duration": 4.471
    },
    {
      "text": "free old-age pensions don't worry we'll",
      "start": 107.369,
      "duration": 4.471
    },
    {
      "text": "have future generations long after we've",
      "start": 110.13,
      "duration": 3.18
    },
    {
      "text": "left office pay for the bill it'll be",
      "start": 111.84,
      "duration": 3.48
    },
    {
      "text": "just fine so the kick the can down the",
      "start": 113.31,
      "duration": 6
    },
    {
      "text": "road so 99% of what the UN claims is",
      "start": 115.32,
      "duration": 6.119
    },
    {
      "text": "necessary to control the Earth's climate",
      "start": 119.31,
      "duration": 3.599
    },
    {
      "text": "ninety nine percent of the reductions",
      "start": 121.439,
      "duration": 3.39
    },
    {
      "text": "and the problems are left for the",
      "start": 122.909,
      "duration": 7.32
    },
    {
      "text": "leaders in the 2030s who will well try",
      "start": 124.829,
      "duration": 6.941
    },
    {
      "text": "and try and wrestle with it so",
      "start": 130.229,
      "duration": 2.981
    },
    {
      "text": "in fact probably one of the most",
      "start": 131.77,
      "duration": 3.81
    },
    {
      "text": "expensive treaties in the history of the",
      "start": 133.21,
      "duration": 3.66
    },
    {
      "text": "world and the world has seen some",
      "start": 135.58,
      "duration": 3.72
    },
    {
      "text": "expensive treaties in the past actives",
      "start": 136.87,
      "duration": 5.7
    },
    {
      "text": "look at alimony and British divorces now",
      "start": 139.3,
      "duration": 6.93
    },
    {
      "text": "of course the US is a subset of the",
      "start": 142.57,
      "duration": 8.22
    },
    {
      "text": "Paris climate Accord so the u.s.",
      "start": 146.23,
      "duration": 5.34
    },
    {
      "text": "promises",
      "start": 150.79,
      "duration": 2.7
    },
    {
      "text": "alone and the promises that came in",
      "start": 151.57,
      "duration": 3.6
    },
    {
      "text": "under Obama to cut greenhouse gas",
      "start": 153.49,
      "duration": 3.93
    },
    {
      "text": "emissions between 26 and 28 percent",
      "start": 155.17,
      "duration": 6.21
    },
    {
      "text": "below 2005 levels by 2025 well that's",
      "start": 157.42,
      "duration": 5.4
    },
    {
      "text": "going to have a significant hit on the",
      "start": 161.38,
      "duration": 3.12
    },
    {
      "text": "US economy reduces gross domestic",
      "start": 162.82,
      "duration": 4.85
    },
    {
      "text": "products more than 150 billion dollars",
      "start": 164.5,
      "duration": 6.87
    },
    {
      "text": "annually right so these pretty crazy",
      "start": 167.67,
      "duration": 5.05
    },
    {
      "text": "pledges to cut these greenhouse",
      "start": 171.37,
      "duration": 4.26
    },
    {
      "text": "emissions will also cost not just 150",
      "start": 172.72,
      "duration": 4.77
    },
    {
      "text": "billion dollars here about 6 million",
      "start": 175.63,
      "duration": 5.19
    },
    {
      "text": "jobs and as really is quite astounding",
      "start": 177.49,
      "duration": 5.61
    },
    {
      "text": "now the US component of the Paris",
      "start": 180.82,
      "duration": 5.43
    },
    {
      "text": "climate agreement 6 million jobs 150",
      "start": 183.1,
      "duration": 5.34
    },
    {
      "text": "billion dollars a year minimum minimum",
      "start": 186.25,
      "duration": 5.34
    },
    {
      "text": "huge increases 20 to 30 percent in the",
      "start": 188.44,
      "duration": 5.52
    },
    {
      "text": "cost of electricity what is the net",
      "start": 191.59,
      "duration": 5.81
    },
    {
      "text": "result well it Pistone's global warming",
      "start": 193.96,
      "duration": 11.04
    },
    {
      "text": "by 115 thousands of a degree by 2100 and",
      "start": 197.4,
      "duration": 11.08
    },
    {
      "text": "let's just say President Obama's pretty",
      "start": 205,
      "duration": 5.49
    },
    {
      "text": "ambitious numbers and rhetoric let's say",
      "start": 208.48,
      "duration": 4.05
    },
    {
      "text": "that the US spent the entire century",
      "start": 210.49,
      "duration": 3.72
    },
    {
      "text": "delivering on what President Obama",
      "start": 212.53,
      "duration": 5.79
    },
    {
      "text": "promised it Pro spawns global warming by",
      "start": 214.21,
      "duration": 7.73
    },
    {
      "text": "the year 2100 by about eight months",
      "start": 218.32,
      "duration": 5.94
    },
    {
      "text": "eight months eight years would be tragic",
      "start": 221.94,
      "duration": 7.48
    },
    {
      "text": "eight months is beyond ridiculous so why",
      "start": 224.26,
      "duration": 6.63
    },
    {
      "text": "is everyone pushing for it if it does",
      "start": 229.42,
      "duration": 3.12
    },
    {
      "text": "almost nothing again according to the",
      "start": 230.89,
      "duration": 3.54
    },
    {
      "text": "UN's own calculations according to the",
      "start": 232.54,
      "duration": 6.42
    },
    {
      "text": "UN's own climate models well one of the",
      "start": 234.43,
      "duration": 6.48
    },
    {
      "text": "things that has a little bit more of an",
      "start": 238.96,
      "duration": 3.84
    },
    {
      "text": "immediate effect which Jess conceivably",
      "start": 240.91,
      "duration": 3.6
    },
    {
      "text": "might be why a lot of people are pushing",
      "start": 242.8,
      "duration": 3.87
    },
    {
      "text": "forward in the UN well the UN the US",
      "start": 244.51,
      "duration": 4.32
    },
    {
      "text": "taxpayers are forced to fund most of",
      "start": 246.67,
      "duration": 4.41
    },
    {
      "text": "this hundred billion dollar a year Green",
      "start": 248.83,
      "duration": 4.74
    },
    {
      "text": "Climate Fund which basically is a",
      "start": 251.08,
      "duration": 5.06
    },
    {
      "text": "transfer to third-world countries see",
      "start": 253.57,
      "duration": 6.599
    },
    {
      "text": "foreign aid has well it's lost a little",
      "start": 256.14,
      "duration": 5.92
    },
    {
      "text": "bit of its stellar reputation of late",
      "start": 260.169,
      "duration": 3.75
    },
    {
      "text": "because foreign aid appears to be",
      "start": 262.06,
      "duration": 3.49
    },
    {
      "text": "basically the process of transferring",
      "start": 263.919,
      "duration": 3.521
    },
    {
      "text": "money from poor people in rich countries",
      "start": 265.55,
      "duration": 4.019
    },
    {
      "text": "to rich people in poor countries and it",
      "start": 267.44,
      "duration": 4.159
    },
    {
      "text": "seems to have the effect pretty much are",
      "start": 269.569,
      "duration": 4.741
    },
    {
      "text": "producing enormous population explosions",
      "start": 271.599,
      "duration": 4.901
    },
    {
      "text": "that then seem to spill over to two",
      "start": 274.31,
      "duration": 5.4
    },
    {
      "text": "Western countries so foreign aid has",
      "start": 276.5,
      "duration": 6.419
    },
    {
      "text": "taken a little bit of a PR hit of late",
      "start": 279.71,
      "duration": 5.79
    },
    {
      "text": "and so they need another way to justify",
      "start": 282.919,
      "duration": 4.171
    },
    {
      "text": "massive transfers of money to the third",
      "start": 285.5,
      "duration": 3.09
    },
    {
      "text": "world so this is a hundred billion",
      "start": 287.09,
      "duration": 5.19
    },
    {
      "text": "dollar Green Climate Fund which US packs",
      "start": 288.59,
      "duration": 5.699
    },
    {
      "text": "taxpayers will be forced to to to pay",
      "start": 292.28,
      "duration": 5.099
    },
    {
      "text": "for and so if you are a un third world",
      "start": 294.289,
      "duration": 5.521
    },
    {
      "text": "or globalist or whatever and one hundred",
      "start": 297.379,
      "duration": 3.811
    },
    {
      "text": "billion dollars it's on the table to be",
      "start": 299.81,
      "duration": 2.699
    },
    {
      "text": "transferred to your country",
      "start": 301.19,
      "duration": 5.94
    },
    {
      "text": "maybe you just might find the future",
      "start": 302.509,
      "duration": 6.391
    },
    {
      "text": "climate of the planets so terrifying",
      "start": 307.13,
      "duration": 3.75
    },
    {
      "text": "that you must act now to save the world",
      "start": 308.9,
      "duration": 3.299
    },
    {
      "text": "oh and by the way get that hundred",
      "start": 310.88,
      "duration": 6.14
    },
    {
      "text": "billion dollars a year now the Germans",
      "start": 312.199,
      "duration": 8.101
    },
    {
      "text": "President Juncker when he was told that",
      "start": 317.02,
      "duration": 5.199
    },
    {
      "text": "Trump was considering it was a campaign",
      "start": 320.3,
      "duration": 3.089
    },
    {
      "text": "promise of Trump to pull out of this",
      "start": 322.219,
      "duration": 3.6
    },
    {
      "text": "ridiculous Accord when he was told that",
      "start": 323.389,
      "duration": 4.261
    },
    {
      "text": "this might happen he said that's not how",
      "start": 325.819,
      "duration": 2.4
    },
    {
      "text": "it works",
      "start": 327.65,
      "duration": 2.88
    },
    {
      "text": "the Americans can't just leave the crime",
      "start": 328.219,
      "duration": 4.651
    },
    {
      "text": "climate protection agreement mr. Trump",
      "start": 330.53,
      "duration": 3.84
    },
    {
      "text": "believes that because he doesn't get",
      "start": 332.87,
      "duration": 3.449
    },
    {
      "text": "close enough to the dossiers to fully",
      "start": 334.37,
      "duration": 4.109
    },
    {
      "text": "understand them it would take three to",
      "start": 336.319,
      "duration": 4.681
    },
    {
      "text": "four years after the agreement came into",
      "start": 338.479,
      "duration": 4.891
    },
    {
      "text": "force in November 2016 to leave the",
      "start": 341,
      "duration": 5.909
    },
    {
      "text": "agreement so this notion of Trump I am",
      "start": 343.37,
      "duration": 5.699
    },
    {
      "text": "American America first and I'm going to",
      "start": 346.909,
      "duration": 3
    },
    {
      "text": "get out of it",
      "start": 349.069,
      "duration": 3.84
    },
    {
      "text": "that won't happen we tried to explain",
      "start": 349.909,
      "duration": 6.391
    },
    {
      "text": "that to mr. Trump in Tara Mena in clear",
      "start": 352.909,
      "duration": 5.16
    },
    {
      "text": "German sentences",
      "start": 356.3,
      "duration": 4.049
    },
    {
      "text": "it seems our attempt failed but the law",
      "start": 358.069,
      "duration": 5.96
    },
    {
      "text": "is the law and it must be obeyed not",
      "start": 360.349,
      "duration": 6.421
    },
    {
      "text": "everything which is law and not",
      "start": 364.029,
      "duration": 5.38
    },
    {
      "text": "everything in international agreements",
      "start": 366.77,
      "duration": 5.639
    },
    {
      "text": "is fake news and we have to comply with",
      "start": 369.409,
      "duration": 7.771
    },
    {
      "text": "it hi Germany don't you have another",
      "start": 372.409,
      "duration": 6.931
    },
    {
      "text": "comedian to deliver to Turkish dictator",
      "start": 377.18,
      "duration": 5.13
    },
    {
      "text": "it again oh maybe you can prosecute more",
      "start": 379.34,
      "duration": 4.47
    },
    {
      "text": "people for questioning questioning",
      "start": 382.31,
      "duration": 3.75
    },
    {
      "text": "immigration policy now Germany of course",
      "start": 383.81,
      "duration": 4.199
    },
    {
      "text": "lecturing Trump on all of the stuff",
      "start": 386.06,
      "duration": 4.289
    },
    {
      "text": "German emissions have gone up over the",
      "start": 388.009,
      "duration": 5.31
    },
    {
      "text": "last two years so good job guys",
      "start": 390.349,
      "duration": 4.651
    },
    {
      "text": "excellent I'm sure it has nothing to do",
      "start": 393.319,
      "duration": 3.6
    },
    {
      "text": "with bringing a million migrants in and",
      "start": 395,
      "duration": 3.509
    },
    {
      "text": "throwing them on thousands of dollars",
      "start": 396.919,
      "duration": 2.191
    },
    {
      "text": "worth of",
      "start": 398.509,
      "duration": 2.881
    },
    {
      "text": "environmental destroying welfare checks",
      "start": 399.11,
      "duration": 4.92
    },
    {
      "text": "every single month ah you must obey the",
      "start": 401.39,
      "duration": 4.89
    },
    {
      "text": "law as this Germany you know like having",
      "start": 404.03,
      "duration": 3.36
    },
    {
      "text": "borders",
      "start": 406.28,
      "duration": 4.61
    },
    {
      "text": "oh it's tragic",
      "start": 407.39,
      "duration": 6.93
    },
    {
      "text": "now even somebody who's a fairly",
      "start": 410.89,
      "duration": 5.02
    },
    {
      "text": "significant it could be conceived as a",
      "start": 414.32,
      "duration": 3.27
    },
    {
      "text": "fairly significant alarmist this is",
      "start": 415.91,
      "duration": 3.9
    },
    {
      "text": "NASA's format lead global warming",
      "start": 417.59,
      "duration": 4.68
    },
    {
      "text": "scientist dr. James Hansen when he",
      "start": 419.81,
      "duration": 4.5
    },
    {
      "text": "looked at the details of the UN Paris",
      "start": 422.27,
      "duration": 4.14
    },
    {
      "text": "Accord he said quote the Paris agreement",
      "start": 424.31,
      "duration": 4.83
    },
    {
      "text": "is a fraud really a fake it's just bull",
      "start": 426.41,
      "duration": 5.13
    },
    {
      "text": "pit for them to say we'll have a two",
      "start": 429.14,
      "duration": 4.98
    },
    {
      "text": "degree warming target and then try to do",
      "start": 431.54,
      "duration": 4.77
    },
    {
      "text": "a little better every five years it's",
      "start": 434.12,
      "duration": 4.29
    },
    {
      "text": "just worthless words there's no action",
      "start": 436.31,
      "duration": 4.65
    },
    {
      "text": "just promises as long as fossil fuels",
      "start": 438.41,
      "duration": 4.44
    },
    {
      "text": "appear to be the cheapest fuels out",
      "start": 440.96,
      "duration": 5.22
    },
    {
      "text": "there they will be continued to be",
      "start": 442.85,
      "duration": 8.61
    },
    {
      "text": "burned so there's that now of course",
      "start": 446.18,
      "duration": 6.51
    },
    {
      "text": "what is the point of all of this well",
      "start": 451.46,
      "duration": 3.84
    },
    {
      "text": "alarmism when it comes to this",
      "start": 452.69,
      "duration": 6.24
    },
    {
      "text": "environmental stuff of course we can do",
      "start": 455.3,
      "duration": 4.86
    },
    {
      "text": "things to improve the environment and",
      "start": 458.93,
      "duration": 2.01
    },
    {
      "text": "I'm going to make a couple of",
      "start": 460.16,
      "duration": 2.16
    },
    {
      "text": "suggestions I actually had was a",
      "start": 460.94,
      "duration": 2.46
    },
    {
      "text": "suffering entrepreneur in the",
      "start": 462.32,
      "duration": 2.4
    },
    {
      "text": "environmental field know a little bit",
      "start": 463.4,
      "duration": 3.24
    },
    {
      "text": "about it but the idea of the general",
      "start": 464.72,
      "duration": 6.06
    },
    {
      "text": "idea is the alarmism is there to provoke",
      "start": 466.64,
      "duration": 5.7
    },
    {
      "text": "anxiety we're doing the world's going to",
      "start": 470.78,
      "duration": 3.21
    },
    {
      "text": "burst into flame from the fact that co2",
      "start": 472.34,
      "duration": 3.36
    },
    {
      "text": "levels were ten times higher during the",
      "start": 473.99,
      "duration": 3.75
    },
    {
      "text": "last global Ice Age well that's a topic",
      "start": 475.7,
      "duration": 3.51
    },
    {
      "text": "for another time so it's there to",
      "start": 477.74,
      "duration": 3.81
    },
    {
      "text": "provoke anxiety you feel bad you feel",
      "start": 479.21,
      "duration": 6.69
    },
    {
      "text": "anxious or worried and then if you pay",
      "start": 481.55,
      "duration": 6.51
    },
    {
      "text": "them they will mouths words to reduce",
      "start": 485.9,
      "duration": 3.75
    },
    {
      "text": "your anxiety don't worry the problems",
      "start": 488.06,
      "duration": 3.33
    },
    {
      "text": "taken care of we've got one fifteen",
      "start": 489.65,
      "duration": 4.68
    },
    {
      "text": "thousandth of a degree seventy point B",
      "start": 491.39,
      "duration": 5.76
    },
    {
      "text": "right so they want to provoke anxiety",
      "start": 494.33,
      "duration": 4.74
    },
    {
      "text": "and then if you pay the money they will",
      "start": 497.15,
      "duration": 3.45
    },
    {
      "text": "say magic words to reduce your anxiety",
      "start": 499.07,
      "duration": 4.08
    },
    {
      "text": "it's exactly like the concept of you",
      "start": 500.6,
      "duration": 3.93
    },
    {
      "text": "know paying a priest to absolve you of",
      "start": 503.15,
      "duration": 4.29
    },
    {
      "text": "sin they provoke anxiety you've sinned",
      "start": 504.53,
      "duration": 4.41
    },
    {
      "text": "and then you give the money and then",
      "start": 507.44,
      "duration": 3
    },
    {
      "text": "they speak magic words to reduce anxiety",
      "start": 508.94,
      "duration": 6.03
    },
    {
      "text": "it is just a secular form of religion",
      "start": 510.44,
      "duration": 6.93
    },
    {
      "text": "and the goal of course is massive",
      "start": 514.97,
      "duration": 5.25
    },
    {
      "text": "increases in state control over well you",
      "start": 517.37,
      "duration": 5.94
    },
    {
      "text": "and and your children so what can we do",
      "start": 520.22,
      "duration": 4.95
    },
    {
      "text": "the sort of productive when it comes to",
      "start": 523.31,
      "duration": 2.79
    },
    {
      "text": "helping the environment well have a",
      "start": 525.17,
      "duration": 2.4
    },
    {
      "text": "couple of good things first of all keep",
      "start": 526.1,
      "duration": 3.33
    },
    {
      "text": "manufacturing in first world countries",
      "start": 527.57,
      "duration": 3.99
    },
    {
      "text": "so you can do all you want to block and",
      "start": 529.43,
      "duration": 3.54
    },
    {
      "text": "stymie manufacture",
      "start": 531.56,
      "duration": 2.91
    },
    {
      "text": "we're going to destroy the coal industry",
      "start": 532.97,
      "duration": 3.89
    },
    {
      "text": "well that doesn't diminish people's need",
      "start": 534.47,
      "duration": 4.89
    },
    {
      "text": "for energy and so what happens is",
      "start": 536.86,
      "duration": 4.51
    },
    {
      "text": "production goes from first world",
      "start": 539.36,
      "duration": 3.72
    },
    {
      "text": "countries to third world countries and",
      "start": 541.37,
      "duration": 3
    },
    {
      "text": "they don't have environmental",
      "start": 543.08,
      "duration": 2.82
    },
    {
      "text": "regulations a lot of them there's not a",
      "start": 544.37,
      "duration": 3
    },
    {
      "text": "lot of control over what goes into the",
      "start": 545.9,
      "duration": 2.85
    },
    {
      "text": "groundwater what goes into the earth",
      "start": 547.37,
      "duration": 3.87
    },
    {
      "text": "what goes into the air so just if it's",
      "start": 548.75,
      "duration": 4.26
    },
    {
      "text": "out of sight it doesn't exist now if it",
      "start": 551.24,
      "duration": 3.24
    },
    {
      "text": "goes from first world countries to third",
      "start": 553.01,
      "duration": 2.67
    },
    {
      "text": "world countries the environmental",
      "start": 554.48,
      "duration": 3.45
    },
    {
      "text": "standards are much lower and you end up",
      "start": 555.68,
      "duration": 3.3
    },
    {
      "text": "with more pollution so keep your",
      "start": 557.93,
      "duration": 2.67
    },
    {
      "text": "manufacturing in first world countries",
      "start": 558.98,
      "duration": 3.42
    },
    {
      "text": "make it easier for manufacturers to do",
      "start": 560.6,
      "duration": 3.63
    },
    {
      "text": "business and keep their factories in the",
      "start": 562.4,
      "duration": 3.39
    },
    {
      "text": "first world where you can keep an eye on",
      "start": 564.23,
      "duration": 3.51
    },
    {
      "text": "them and keep their emissions relatively",
      "start": 565.79,
      "duration": 4.8
    },
    {
      "text": "low here's another one drill for oil",
      "start": 567.74,
      "duration": 5.7
    },
    {
      "text": "locally stop using ships which founder",
      "start": 570.59,
      "duration": 4.14
    },
    {
      "text": "and Kraken parts and seem to get",
      "start": 573.44,
      "duration": 3.06
    },
    {
      "text": "attacked by armoured seals on a regular",
      "start": 574.73,
      "duration": 2.25
    },
    {
      "text": "basis",
      "start": 576.5,
      "duration": 2.58
    },
    {
      "text": "drill locally not only does this mean",
      "start": 576.98,
      "duration": 4.11
    },
    {
      "text": "less money going to see aquatic",
      "start": 579.08,
      "duration": 3.3
    },
    {
      "text": "dictatorships in the Middle East but",
      "start": 581.09,
      "duration": 3.24
    },
    {
      "text": "fewer ships traversing the ocean less",
      "start": 582.38,
      "duration": 5.07
    },
    {
      "text": "energy to spend moving the stuff all",
      "start": 584.33,
      "duration": 5.43
    },
    {
      "text": "over the world so drill locally that",
      "start": 587.45,
      "duration": 4.83
    },
    {
      "text": "would be a good way to reduce damage to",
      "start": 589.76,
      "duration": 6.06
    },
    {
      "text": "the environment now when it comes to",
      "start": 592.28,
      "duration": 5.67
    },
    {
      "text": "some not necessarily intuitive but very",
      "start": 595.82,
      "duration": 3.6
    },
    {
      "text": "powerful things about how to help the",
      "start": 597.95,
      "duration": 3.12
    },
    {
      "text": "environment you know it's funny just",
      "start": 599.42,
      "duration": 3.78
    },
    {
      "text": "look at a simple one like Trump wants to",
      "start": 601.07,
      "duration": 3.78
    },
    {
      "text": "simplify taxes you know taxes on the",
      "start": 603.2,
      "duration": 3.9
    },
    {
      "text": "back of a postage stamp think how much",
      "start": 604.85,
      "duration": 5.1
    },
    {
      "text": "electricity computer power time energy",
      "start": 607.1,
      "duration": 5.01
    },
    {
      "text": "paperwork and so on is spent on",
      "start": 609.95,
      "duration": 5.34
    },
    {
      "text": "complying with a ridiculously Byzantine",
      "start": 612.11,
      "duration": 6.36
    },
    {
      "text": "tax code in the United States if you",
      "start": 615.29,
      "duration": 5.1
    },
    {
      "text": "simplify taxes it takes far less time",
      "start": 618.47,
      "duration": 3.93
    },
    {
      "text": "far less energy far less paperwork just",
      "start": 620.39,
      "duration": 4.17
    },
    {
      "text": "to pay your taxes very good for the",
      "start": 622.4,
      "duration": 3.99
    },
    {
      "text": "environment another key one reduce",
      "start": 624.56,
      "duration": 3.99
    },
    {
      "text": "government spending every dollar that",
      "start": 626.39,
      "duration": 4.08
    },
    {
      "text": "the government spends is a dollar that",
      "start": 628.55,
      "duration": 4.62
    },
    {
      "text": "is used to consume some part of nature",
      "start": 630.47,
      "duration": 5.34
    },
    {
      "text": "scarce and precious resources deficit",
      "start": 633.17,
      "duration": 4.65
    },
    {
      "text": "financing deficit spending the national",
      "start": 635.81,
      "duration": 5.43
    },
    {
      "text": "debt is consuming extra stuff in the",
      "start": 637.82,
      "duration": 5.43
    },
    {
      "text": "here and now right like if you run up",
      "start": 641.24,
      "duration": 3.84
    },
    {
      "text": "your visa to $5,000",
      "start": 643.25,
      "duration": 4.11
    },
    {
      "text": "you get to buy $5,000 more of stuff",
      "start": 645.08,
      "duration": 4.14
    },
    {
      "text": "which impacts the environment and then",
      "start": 647.36,
      "duration": 4.08
    },
    {
      "text": "at some point down the road what happens",
      "start": 649.22,
      "duration": 3.06
    },
    {
      "text": "what you're going to have to contract",
      "start": 651.44,
      "duration": 2.79
    },
    {
      "text": "your spending and so on so no government",
      "start": 652.28,
      "duration": 3.45
    },
    {
      "text": "deficits and reducing government",
      "start": 654.23,
      "duration": 3.45
    },
    {
      "text": "spending is a very very key part to",
      "start": 655.73,
      "duration": 4.73
    },
    {
      "text": "reduce human impact on the environment",
      "start": 657.68,
      "duration": 5.34
    },
    {
      "text": "stopping illegal immigration right if",
      "start": 660.46,
      "duration": 4.629
    },
    {
      "text": "you look at the environmental footprint",
      "start": 663.02,
      "duration": 3.64
    },
    {
      "text": "of somebody in Mexico",
      "start": 665.089,
      "duration": 3.071
    },
    {
      "text": "versus somebody who's an illegal",
      "start": 666.66,
      "duration": 3.119
    },
    {
      "text": "immigrant who's come to America well",
      "start": 668.16,
      "duration": 3.119
    },
    {
      "text": "their energy consumption goes up",
      "start": 669.779,
      "duration": 5.161
    },
    {
      "text": "enormously their their use of scarce",
      "start": 671.279,
      "duration": 6.631
    },
    {
      "text": "resources goes up enormously and so when",
      "start": 674.94,
      "duration": 4.17
    },
    {
      "text": "you have a legal immigration you're",
      "start": 677.91,
      "duration": 3.69
    },
    {
      "text": "basically burdening Mother Nature with",
      "start": 679.11,
      "duration": 6.18
    },
    {
      "text": "higher usage carbon-based life form who",
      "start": 681.6,
      "duration": 5.25
    },
    {
      "text": "are going to pray further on mother",
      "start": 685.29,
      "duration": 2.82
    },
    {
      "text": "nature so there's lots of other things",
      "start": 686.85,
      "duration": 2.64
    },
    {
      "text": "to talk about these are just a couple of",
      "start": 688.11,
      "duration": 4.05
    },
    {
      "text": "points of course the Paris Accord is",
      "start": 689.49,
      "duration": 4.529
    },
    {
      "text": "just another bit of for socialism which",
      "start": 692.16,
      "duration": 3.45
    },
    {
      "text": "is going to do more to wreck the third",
      "start": 694.019,
      "duration": 3.481
    },
    {
      "text": "world and thus the first world it's",
      "start": 695.61,
      "duration": 3.12
    },
    {
      "text": "unsustainable this ridiculous",
      "start": 697.5,
      "duration": 2.639
    },
    {
      "text": "ridiculously expensive",
      "start": 698.73,
      "duration": 3.359
    },
    {
      "text": "it's a massive cash grab and of course",
      "start": 700.139,
      "duration": 4.14
    },
    {
      "text": "any sane human being would want to have",
      "start": 702.089,
      "duration": 6.98
    },
    {
      "text": "nothing nothing to do with it whatsoever",
      "start": 704.279,
      "duration": 4.79
    },
    {
      "text": "you",
      "start": 715.44,
      "duration": 2.06
    }
  ],
  "Errors": null,
  "TranscriptStderr": null
}