[
    {
        "start": "0.53",
        "dur": "4.539",
        "text": "thanks everybody I appreciate your"
    },
    {
        "start": "2.79",
        "dur": "4.41",
        "text": "patience as everyone's planner doing all"
    },
    {
        "start": "5.069",
        "dur": "4.141",
        "text": "able to make it through all about try"
    },
    {
        "start": "7.2",
        "dur": "4.859",
        "text": "and be quick and brief I invite you to"
    },
    {
        "start": "9.21",
        "dur": "4.41",
        "text": "join me in a Tarantino movie we will be"
    },
    {
        "start": "12.059",
        "dur": "4.531",
        "text": "speaking very fast and have lots of guns"
    },
    {
        "start": "13.62",
        "dur": "4.499",
        "text": "but I won't make a case for more what"
    },
    {
        "start": "16.59",
        "dur": "2.88",
        "text": "we're trying to do as a community now of"
    },
    {
        "start": "18.119",
        "dur": "3.511",
        "text": "course nobody can be the voice of the"
    },
    {
        "start": "19.47",
        "dur": "3.92",
        "text": "community but I'd like to make a case as"
    },
    {
        "start": "21.63",
        "dur": "4.649",
        "text": "to what we're doing and how it can help"
    },
    {
        "start": "23.39",
        "dur": "4.03",
        "text": "liberate us in our interpersonal lives"
    },
    {
        "start": "26.279",
        "dur": "3.031",
        "text": "which is really the only place where"
    },
    {
        "start": "27.42",
        "dur": "3.66",
        "text": "Liberty can occur you know that one of"
    },
    {
        "start": "29.31",
        "dur": "4.47",
        "text": "the great temptations of being part of a"
    },
    {
        "start": "31.08",
        "dur": "4.05",
        "text": "big movement and the return ISM is the"
    },
    {
        "start": "33.78",
        "dur": "3.75",
        "text": "biggest movement because it's talking"
    },
    {
        "start": "35.13",
        "dur": "4.38",
        "text": "about the most fundamental moral issues"
    },
    {
        "start": "37.53",
        "dur": "3.959",
        "text": "to the greatest changes that society has"
    },
    {
        "start": "39.51",
        "dur": "5.639",
        "text": "ever seen one of the great temptations"
    },
    {
        "start": "41.489",
        "dur": "5.971",
        "text": "is for us to spend our precious energy"
    },
    {
        "start": "45.149",
        "dur": "3.93",
        "text": "our blood and treasure the blood and"
    },
    {
        "start": "47.46",
        "dur": "1.919",
        "text": "treasure of our souls on things we can't"
    },
    {
        "start": "49.079",
        "dur": "4.201",
        "text": "change"
    },
    {
        "start": "49.379",
        "dur": "5.43",
        "text": "and the phantom right so this is Jeff"
    },
    {
        "start": "53.28",
        "dur": "2.91",
        "text": "yes I'm talking about a mountain you"
    },
    {
        "start": "54.809",
        "dur": "2.791",
        "text": "know the mountain with all due respect"
    },
    {
        "start": "56.19",
        "dur": "5.04",
        "text": "not quite right metaphor because"
    },
    {
        "start": "57.6",
        "dur": "5.67",
        "text": "Mountain stayed the same science tends"
    },
    {
        "start": "61.23",
        "dur": "4.53",
        "text": "to get bigger in its which sometimes"
    },
    {
        "start": "63.27",
        "dur": "4.59",
        "text": "seems to come down very fast but maybe"
    },
    {
        "start": "65.76",
        "dur": "3.51",
        "text": "it's a dancing mountain I don't think"
    },
    {
        "start": "67.86",
        "dur": "4.86",
        "text": "that there's not a good dancer you know"
    },
    {
        "start": "69.27",
        "dur": "5.76",
        "text": "other folks gonna go but we have to make"
    },
    {
        "start": "72.72",
        "dur": "3.66",
        "text": "sure when we when we define things like"
    },
    {
        "start": "75.03",
        "dur": "4.11",
        "text": "the non-aggression principle like a"
    },
    {
        "start": "76.38",
        "dur": "4.169",
        "text": "respect for property rights that we put"
    },
    {
        "start": "79.14",
        "dur": "4.74",
        "text": "the rubber on the road we want our"
    },
    {
        "start": "80.549",
        "dur": "5.851",
        "text": "ethics to to work where we live so that"
    },
    {
        "start": "83.88",
        "dur": "4.59",
        "text": "we don't rail against the clouds and"
    },
    {
        "start": "86.4",
        "dur": "3.06",
        "text": "don't set out sign for the rain our you"
    },
    {
        "start": "88.47",
        "dur": "2.84",
        "text": "know I really want to really try to"
    },
    {
        "start": "89.46",
        "dur": "3.99",
        "text": "focus on practical philosophy on"
    },
    {
        "start": "91.31",
        "dur": "3.879",
        "text": "practical ethics things that we can do"
    },
    {
        "start": "93.45",
        "dur": "4.41",
        "text": "in our own life so to go back to the"
    },
    {
        "start": "95.189",
        "dur": "5.04",
        "text": "Tarantino film so imagine you've got a"
    },
    {
        "start": "97.86",
        "dur": "4.49",
        "text": "kind of seedy brother anyone in the know"
    },
    {
        "start": "100.229",
        "dur": "4.311",
        "text": "what it does in fact have seedy brother"
    },
    {
        "start": "102.35",
        "dur": "4.68",
        "text": "okay let's imagine you have a CD brother"
    },
    {
        "start": "104.54",
        "dur": "4.5",
        "text": "who you know he's kind of skimmed around"
    },
    {
        "start": "107.03",
        "dur": "4.769",
        "text": "the up-and-down side of the law and all"
    },
    {
        "start": "109.04",
        "dur": "5.4",
        "text": "that and he calls you up one morning and"
    },
    {
        "start": "111.799",
        "dur": "4.621",
        "text": "he's like hey man I yeah I need to go to"
    },
    {
        "start": "114.44",
        "dur": "4.53",
        "text": "the bank I'm gonna be good I was draw"
    },
    {
        "start": "116.42",
        "dur": "6.979",
        "text": "from the bank would you mind can i"
    },
    {
        "start": "118.97",
        "dur": "4.429",
        "text": "driving me I don't know what he's like"
    },
    {
        "start": "123.82",
        "dur": "5.169",
        "text": "drinks and smokes a lot his voice you"
    },
    {
        "start": "126.08",
        "dur": "5.04",
        "text": "know or whatever anyway so you say okay"
    },
    {
        "start": "128.989",
        "dur": "3.811",
        "text": "we my brother even kind of come clean"
    },
    {
        "start": "131.12",
        "dur": "2.93",
        "text": "and do the right things on it I'm gonna"
    },
    {
        "start": "132.8",
        "dur": "3.769",
        "text": "get my car and we'll drive it right"
    },
    {
        "start": "134.05",
        "dur": "5.05",
        "text": "anyway so you go and you pick him up and"
    },
    {
        "start": "136.569",
        "dur": "4.691",
        "text": "he's got a couple friends and they have"
    },
    {
        "start": "139.1",
        "dur": "4.02",
        "text": "why like and it'll be called in hockey"
    },
    {
        "start": "141.26",
        "dur": "5.28",
        "text": "banks and about the Konya duffel bags"
    },
    {
        "start": "143.12",
        "dur": "5.73",
        "text": "they got some duffel bags and and you're"
    },
    {
        "start": "146.54",
        "dur": "3.86",
        "text": "like huh I guess I guess he's got some"
    },
    {
        "start": "148.85",
        "dur": "4.889",
        "text": "friends who want to go to the bank to"
    },
    {
        "start": "150.4",
        "dur": "4.36",
        "text": "didn't mention that okay because you"
    },
    {
        "start": "153.739",
        "dur": "2.521",
        "text": "don't know which film you're in I told"
    },
    {
        "start": "154.76",
        "dur": "2.64",
        "text": "you you're in a Tarantino film so you"
    },
    {
        "start": "156.26",
        "dur": "2.46",
        "text": "know what's gonna happen but in real"
    },
    {
        "start": "157.4",
        "dur": "1.74",
        "text": "life nobody tells you the film you're"
    },
    {
        "start": "158.72",
        "dur": "2.25",
        "text": "right"
    },
    {
        "start": "159.14",
        "dur": "3.24",
        "text": "you know maybe you're gonna go into you"
    },
    {
        "start": "160.97",
        "dur": "3.36",
        "text": "know have a cartoon deer in the woods I"
    },
    {
        "start": "162.38",
        "dur": "3.03",
        "text": "know in this case is attempting to"
    },
    {
        "start": "164.33",
        "dur": "2.73",
        "text": "Phelps you know what's gonna go in there"
    },
    {
        "start": "165.41",
        "dur": "3.69",
        "text": "so that you you drive into the bank and"
    },
    {
        "start": "167.06",
        "dur": "4.38",
        "text": "he's like this and I'm just gonna be you"
    },
    {
        "start": "169.1",
        "dur": "5.22",
        "text": "know according to the plan six to seven"
    },
    {
        "start": "171.44",
        "dur": "4.769",
        "text": "and a half minutes very specific and"
    },
    {
        "start": "174.32",
        "dur": "2.47",
        "text": "he's not known for his capacity so this"
    },
    {
        "start": "176.209",
        "dur": "3.011",
        "text": "is"
    },
    {
        "start": "176.79",
        "dur": "7.38",
        "text": "another clue as to what is what is going"
    },
    {
        "start": "179.22",
        "dur": "7.59",
        "text": "to happen and and then you know he goes"
    },
    {
        "start": "184.17",
        "dur": "4.349",
        "text": "out and even though it's Vegas let's"
    },
    {
        "start": "186.81",
        "dur": "3.12",
        "text": "make this you know attempt Tina films"
    },
    {
        "start": "188.519",
        "dur": "4.231",
        "text": "gotta happen in Vegas in this business"
    },
    {
        "start": "189.93",
        "dur": "5.82",
        "text": "so it's Vegas but and it's of course I"
    },
    {
        "start": "192.75",
        "dur": "5.01",
        "text": "think if we convert from from Imperial"
    },
    {
        "start": "195.75",
        "dur": "5.37",
        "text": "to metric it's about four hundred fifty"
    },
    {
        "start": "197.76",
        "dur": "5.729",
        "text": "thousand degrees if I get that right so"
    },
    {
        "start": "201.12",
        "dur": "6",
        "text": "what he does is they pull on Dara"
    },
    {
        "start": "203.489",
        "dur": "4.86",
        "text": "balaclavas because they're chilly if you"
    },
    {
        "start": "207.12",
        "dur": "2.369",
        "text": "have the air conditioning turned up to"
    },
    {
        "start": "208.349",
        "dur": "3.36",
        "text": "life maybe they're expecting the"
    },
    {
        "start": "209.489",
        "dur": "3.36",
        "text": "air-conditioning at the bank to be kind"
    },
    {
        "start": "211.709",
        "dur": "3.981",
        "text": "of cranked up so the put on that"
    },
    {
        "start": "212.849",
        "dur": "5.581",
        "text": "balaclavas and they go running in and"
    },
    {
        "start": "215.69",
        "dur": "5.049",
        "text": "you sit in your car and you know it"
    },
    {
        "start": "218.43",
        "dur": "4.32",
        "text": "begins to don't a new baby that this is"
    },
    {
        "start": "220.739",
        "dur": "4.92",
        "text": "not going to be an ATM frenzy withdrawal"
    },
    {
        "start": "222.75",
        "dur": "4.319",
        "text": "from the bank anyway so then after the"
    },
    {
        "start": "225.659",
        "dur": "3.211",
        "text": "approximate six to seven oh five minutes"
    },
    {
        "start": "227.069",
        "dur": "3.54",
        "text": "you come speeding out the bank and he"
    },
    {
        "start": "228.87",
        "dur": "3.539",
        "text": "jumps into your car and clearly"
    },
    {
        "start": "230.609",
        "dur": "3.331",
        "text": "obviously somebody got you know maybe"
    },
    {
        "start": "232.409",
        "dur": "4.11",
        "text": "that was an ailment in the bank there's"
    },
    {
        "start": "233.94",
        "dur": "5.879",
        "text": "lots of sirens and so on and they've got"
    },
    {
        "start": "236.519",
        "dur": "5.61",
        "text": "big banks and money and they shot guns"
    },
    {
        "start": "239.819",
        "dur": "4.411",
        "text": "in their duffel bags and and he jumps"
    },
    {
        "start": "242.129",
        "dur": "4.5",
        "text": "into the pot he's like drive man drive"
    },
    {
        "start": "244.23",
        "dur": "4.77",
        "text": "he doesn't like well Brandon or the"
    },
    {
        "start": "246.629",
        "dur": "4.76",
        "text": "penny maybe that's another brand of"
    },
    {
        "start": "249",
        "dur": "5.609",
        "text": "Sam's for me penny but I'm off topic so"
    },
    {
        "start": "251.389",
        "dur": "7",
        "text": "in this moment it's very clear that you"
    },
    {
        "start": "254.609",
        "dur": "5.641",
        "text": "are now participating in a crime I agree"
    },
    {
        "start": "258.389",
        "dur": "3.75",
        "text": "with all there's no court you would say"
    },
    {
        "start": "260.25",
        "dur": "4.11",
        "text": "even after all these clues at this point"
    },
    {
        "start": "262.139",
        "dur": "4.861",
        "text": "you know need to drop the banking right"
    },
    {
        "start": "264.36",
        "dur": "4.44",
        "text": "and interestingly enough and you know if"
    },
    {
        "start": "267",
        "dur": "3.87",
        "text": "you do drive off right then you are now"
    },
    {
        "start": "268.8",
        "dur": "3.989",
        "text": "an accomplice right and a significant"
    },
    {
        "start": "270.87",
        "dur": "4.979",
        "text": "accomplice in an egregious crime"
    },
    {
        "start": "272.789",
        "dur": "5.701",
        "text": "definitely now I would argue that in"
    },
    {
        "start": "275.849",
        "dur": "4.771",
        "text": "libertarianism we're trying to wake"
    },
    {
        "start": "278.49",
        "dur": "3.81",
        "text": "people up to the movie they're in right"
    },
    {
        "start": "280.62",
        "dur": "3.18",
        "text": "because you know a lot of people think"
    },
    {
        "start": "282.3",
        "dur": "4.579",
        "text": "they're into you know mr. Smith goes to"
    },
    {
        "start": "283.8",
        "dur": "4.669",
        "text": "Washington or babe or you know"
    },
    {
        "start": "286.879",
        "dur": "3.421",
        "text": "I don't know whatever patriotic gums are"
    },
    {
        "start": "288.469",
        "dur": "4.65",
        "text": "around the longest day or whatever but"
    },
    {
        "start": "290.3",
        "dur": "5.159",
        "text": "they're not really enough there's"
    },
    {
        "start": "293.119",
        "dur": "5.07",
        "text": "somewhere between the Tarantino film and"
    },
    {
        "start": "295.459",
        "dur": "4.41",
        "text": "the matrix some something like that and"
    },
    {
        "start": "298.189",
        "dur": "4.891",
        "text": "we're trying to like try to wake them up"
    },
    {
        "start": "299.869",
        "dur": "5.491",
        "text": "so metaphor I sometimes used is you know"
    },
    {
        "start": "303.08",
        "dur": "4.53",
        "text": "they got these movies with it the guys"
    },
    {
        "start": "305.36",
        "dur": "3.869",
        "text": "go and steals on the cat burglars and"
    },
    {
        "start": "307.61",
        "dur": "3.929",
        "text": "you know the guys are all in suits and"
    },
    {
        "start": "309.229",
        "dur": "4.02",
        "text": "the women roll in spandex and what they"
    },
    {
        "start": "311.539",
        "dur": "3.09",
        "text": "do is they get these water spray and"
    },
    {
        "start": "313.249",
        "dur": "2.85",
        "text": "spray the water see the lasers through"
    },
    {
        "start": "314.629",
        "dur": "2.79",
        "text": "see the lasers right you don't see the"
    },
    {
        "start": "316.099",
        "dur": "2.49",
        "text": "lasers then you know you're gonna get"
    },
    {
        "start": "317.419",
        "dur": "3.87",
        "text": "caught and all that kind of stuff so I"
    },
    {
        "start": "318.589",
        "dur": "5.461",
        "text": "think that what we're trying to do is to"
    },
    {
        "start": "321.289",
        "dur": "4.65",
        "text": "reveal to people that they're"
    },
    {
        "start": "324.05",
        "dur": "4.829",
        "text": "participating in crimes I think this is"
    },
    {
        "start": "325.939",
        "dur": "4.74",
        "text": "what Wendy was talking about but that's"
    },
    {
        "start": "328.879",
        "dur": "2.701",
        "text": "a real challenge it's real challenge for"
    },
    {
        "start": "330.679",
        "dur": "2.76",
        "text": "people huh"
    },
    {
        "start": "331.58",
        "dur": "2.789",
        "text": "I was talking with Monday before an"
    },
    {
        "start": "333.439",
        "dur": "2.611",
        "text": "issue saying how do you get through"
    },
    {
        "start": "334.369",
        "dur": "3.241",
        "text": "customs and all that being you know"
    },
    {
        "start": "336.05",
        "dur": "2.899",
        "text": "downtrodden or whatever but you know"
    },
    {
        "start": "337.61",
        "dur": "4.139",
        "text": "they're in the matrix you know this is"
    },
    {
        "start": "338.949",
        "dur": "4.56",
        "text": "you know if some guy in the 1950s in"
    },
    {
        "start": "341.749",
        "dur": "4.081",
        "text": "Russia tends to have to be a communist"
    },
    {
        "start": "343.509",
        "dur": "3.791",
        "text": "well of course the whole point of"
    },
    {
        "start": "345.83",
        "dur": "4.769",
        "text": "propaganda but you can't say he chose"
    },
    {
        "start": "347.3",
        "dur": "4.759",
        "text": "communism people on shoes statism they"
    },
    {
        "start": "350.599",
        "dur": "3.63",
        "text": "don't choose patriotism"
    },
    {
        "start": "352.059",
        "dur": "5.41",
        "text": "that's what is inflicted upon them"
    },
    {
        "start": "354.229",
        "dur": "5.67",
        "text": "repeatedly aggressively emotionally"
    },
    {
        "start": "357.469",
        "dur": "5.79",
        "text": "manipulative Lee and and it goes on your"
    },
    {
        "start": "359.899",
        "dur": "5.37",
        "text": "whole life and it's really hard for"
    },
    {
        "start": "363.259",
        "dur": "3.9",
        "text": "people to unplug from that constant"
    },
    {
        "start": "365.269",
        "dur": "3.27",
        "text": "repetition if you need your government"
    },
    {
        "start": "367.159",
        "dur": "2.701",
        "text": "your government is good without your"
    },
    {
        "start": "368.539",
        "dur": "6.35",
        "text": "government well there would be"
    },
    {
        "start": "369.86",
        "dur": "5.029",
        "text": "lawlessness as if there any laws now"
    },
    {
        "start": "375.459",
        "dur": "4.96",
        "text": "nine people studied for decades the"
    },
    {
        "start": "378.439",
        "dur": "4.53",
        "text": "Constitution which is what 50 odd pages"
    },
    {
        "start": "380.419",
        "dur": "5.071",
        "text": "and they can't even remotely come to a"
    },
    {
        "start": "382.969",
        "dur": "4.47",
        "text": "consensus I mean it bounced by it you"
    },
    {
        "start": "385.49",
        "dur": "3.539",
        "text": "see as citizens that they penny can come"
    },
    {
        "start": "387.439",
        "dur": "3.51",
        "text": "to a consensus it's not a lot of"
    },
    {
        "start": "389.029",
        "dur": "4.65",
        "text": "discussion among biologists about"
    },
    {
        "start": "390.949",
        "dur": "5.07",
        "text": "evolution most of them admit it comes to"
    },
    {
        "start": "393.679",
        "dur": "6.181",
        "text": "law it's all just made-up nonsense"
    },
    {
        "start": "396.019",
        "dur": "5.16",
        "text": "and so what I try to do and I so suggest"
    },
    {
        "start": "399.86",
        "dur": "2.94",
        "text": "as approached you in terms they haven't"
    },
    {
        "start": "401.179",
        "dur": "3.75",
        "text": "read freedoms of your life have real"
    },
    {
        "start": "402.8",
        "dur": "4.139",
        "text": "freedom to your life is to recognize"
    },
    {
        "start": "404.929",
        "dur": "5.34",
        "text": "that I think the state and I have the"
    },
    {
        "start": "406.939",
        "dur": "4.77",
        "text": "state is not the guys at the top I would"
    },
    {
        "start": "410.269",
        "dur": "4.08",
        "text": "argue the men and women at the top it's"
    },
    {
        "start": "411.709",
        "dur": "4.17",
        "text": "not the cops it's not the soldiers it's"
    },
    {
        "start": "414.349",
        "dur": "1.981",
        "text": "not the prison guards"
    },
    {
        "start": "415.879",
        "dur": "3.991",
        "text": "it's"
    },
    {
        "start": "416.33",
        "dur": "5.579",
        "text": "the propagandists the state is"
    },
    {
        "start": "419.87",
        "dur": "5.849",
        "text": "horizontal the effect of the state is"
    },
    {
        "start": "421.909",
        "dur": "5.85",
        "text": "vertical but the states are think of a"
    },
    {
        "start": "425.719",
        "dur": "3.75",
        "text": "pyramid or a pyramid has got stuff at"
    },
    {
        "start": "427.759",
        "dur": "3.391",
        "text": "the top but it's all dependent upon"
    },
    {
        "start": "429.469",
        "dur": "4.741",
        "text": "what's on at the base what is the base"
    },
    {
        "start": "431.15",
        "dur": "6",
        "text": "so I would argue that the state is like"
    },
    {
        "start": "434.21",
        "dur": "4.769",
        "text": "this sword that's kept aloft by people's"
    },
    {
        "start": "437.15",
        "dur": "4.859",
        "text": "belief that it's good that it's"
    },
    {
        "start": "438.979",
        "dur": "4.141",
        "text": "necessary that it's virtuous right so"
    },
    {
        "start": "442.009",
        "dur": "7.951",
        "text": "how many people here have got in jail"
    },
    {
        "start": "443.12",
        "dur": "8.43",
        "text": "for libertarianism what - okay good"
    },
    {
        "start": "449.96",
        "dur": "3.54",
        "text": "all right so but how many people have"
    },
    {
        "start": "451.55",
        "dur": "4.799",
        "text": "experienced negative social"
    },
    {
        "start": "453.5",
        "dur": "5.12",
        "text": "repercussions or speaking the truth"
    },
    {
        "start": "456.349",
        "dur": "7.761",
        "text": "about the situation in the world"
    },
    {
        "start": "458.62",
        "dur": "5.49",
        "text": "right excellent the person who hasn't"
    },
    {
        "start": "465.039",
        "dur": "3.85",
        "text": "have some help you but but this is the"
    },
    {
        "start": "467.659",
        "dur": "2.701",
        "text": "reality that the negative social"
    },
    {
        "start": "468.889",
        "dur": "2.911",
        "text": "repercussions that we experience for"
    },
    {
        "start": "470.36",
        "dur": "2.73",
        "text": "speaking the truth are significant that"
    },
    {
        "start": "471.8",
        "dur": "3.899",
        "text": "you know the scientifically is very"
    },
    {
        "start": "473.09",
        "dur": "4.47",
        "text": "interesting do you know that when we"
    },
    {
        "start": "475.699",
        "dur": "3.72",
        "text": "experience social ostracism it activates"
    },
    {
        "start": "477.56",
        "dur": "4.38",
        "text": "exactly the same brain centers as"
    },
    {
        "start": "479.419",
        "dur": "3.99",
        "text": "physical pain exactly that it is to our"
    },
    {
        "start": "481.94",
        "dur": "3.089",
        "text": "minds deep down our bodies"
    },
    {
        "start": "483.409",
        "dur": "4.021",
        "text": "indistinguishable from physical man this"
    },
    {
        "start": "485.029",
        "dur": "6.651",
        "text": "is why ostracism is so pal and this is"
    },
    {
        "start": "487.43",
        "dur": "6.359",
        "text": "why we don't need to say babe so when we"
    },
    {
        "start": "491.68",
        "dur": "3.579",
        "text": "looking at the state we're looking at"
    },
    {
        "start": "493.789",
        "dur": "2.94",
        "text": "the effects and we want to make sure we"
    },
    {
        "start": "495.259",
        "dur": "3.03",
        "text": "look at the cause the cause is people's"
    },
    {
        "start": "496.729",
        "dur": "3.99",
        "text": "belief the state is virtuous and"
    },
    {
        "start": "498.289",
        "dur": "4.321",
        "text": "necessary and why do they believe that"
    },
    {
        "start": "500.719",
        "dur": "3.091",
        "text": "because that's what they've been told"
    },
    {
        "start": "502.61",
        "dur": "3.47",
        "text": "their whole lives I don't believe that"
    },
    {
        "start": "503.81",
        "dur": "5.669",
        "text": "they're morally responsible for that I"
    },
    {
        "start": "506.08",
        "dur": "5.049",
        "text": "mean if it turns out that the world is"
    },
    {
        "start": "509.479",
        "dur": "4.021",
        "text": "flat and I've been lied to my whole life"
    },
    {
        "start": "511.129",
        "dur": "4.35",
        "text": "you know I I can't trust you every"
    },
    {
        "start": "513.5",
        "dur": "3.539",
        "text": "conceivable fact in the known universe I"
    },
    {
        "start": "515.479",
        "dur": "2.97",
        "text": "have to accept some things on faith like"
    },
    {
        "start": "517.039",
        "dur": "2.94",
        "text": "I don't believe the moon is made of"
    },
    {
        "start": "518.449",
        "dur": "4.95",
        "text": "green cheese but if it turns out that it"
    },
    {
        "start": "519.979",
        "dur": "5.131",
        "text": "is am now hungry and be and it's not"
    },
    {
        "start": "523.399",
        "dur": "3.87",
        "text": "responsible for you haven't been lied to"
    },
    {
        "start": "525.11",
        "dur": "3.87",
        "text": "by everyone my whole life and so my"
    },
    {
        "start": "527.269",
        "dur": "4.621",
        "text": "argument is that what we're trying to do"
    },
    {
        "start": "528.98",
        "dur": "6.24",
        "text": "is we're trying to remind people what to"
    },
    {
        "start": "531.89",
        "dur": "6.6",
        "text": "bring people to the awareness that the"
    },
    {
        "start": "535.22",
        "dur": "5.309",
        "text": "state by initiating force is a criminal"
    },
    {
        "start": "538.49",
        "dur": "4.2",
        "text": "organization that's really hard for you"
    },
    {
        "start": "540.529",
        "dur": "4.691",
        "text": "to process because you know we all"
    },
    {
        "start": "542.69",
        "dur": "5.36",
        "text": "Stockholm Syndrome at the state you know"
    },
    {
        "start": "545.22",
        "dur": "3.25",
        "text": "the politicians I know the heroes are so"
    },
    {
        "start": "548.05",
        "dur": "2.76",
        "text": "right"
    },
    {
        "start": "548.47",
        "dur": "3.6",
        "text": "and so it's really hard for people to do"
    },
    {
        "start": "550.81",
        "dur": "2.61",
        "text": "that but I think it's really essential"
    },
    {
        "start": "552.07",
        "dur": "4.74",
        "text": "to do that I'll give you some one little"
    },
    {
        "start": "553.42",
        "dur": "6.33",
        "text": "tool that I've used over the years to to"
    },
    {
        "start": "556.81",
        "dur": "4.469",
        "text": "help people to understand this so just"
    },
    {
        "start": "559.75",
        "dur": "3.839",
        "text": "to give an example my show I do quality"
    },
    {
        "start": "561.279",
        "dur": "3.391",
        "text": "over Sundays one person called Dana that"
    },
    {
        "start": "563.589",
        "dur": "2.671",
        "text": "was really for the search"
    },
    {
        "start": "564.67",
        "dur": "3.15",
        "text": "remember the this is back of the days"
    },
    {
        "start": "566.26",
        "dur": "3.81",
        "text": "company who's going to surge in Iraq"
    },
    {
        "start": "567.82",
        "dur": "3.18",
        "text": "remember because it was going to solve"
    },
    {
        "start": "570.07",
        "dur": "2.16",
        "text": "all the problem"
    },
    {
        "start": "571",
        "dur": "2.339",
        "text": "I can't even say five steps with this"
    },
    {
        "start": "572.23",
        "dur": "2.64",
        "text": "dream that's gonna sell home and rather"
    },
    {
        "start": "573.339",
        "dur": "2.641",
        "text": "you know if I used to be able to say"
    },
    {
        "start": "574.87",
        "dur": "3.51",
        "text": "that some of this great if I can't"
    },
    {
        "start": "575.98",
        "dur": "3.96",
        "text": "anymore and and this one number scalding"
    },
    {
        "start": "578.38",
        "dur": "2.94",
        "text": "issue is really for the search now you"
    },
    {
        "start": "579.94",
        "dur": "2.639",
        "text": "know my old you know temptation would"
    },
    {
        "start": "581.32",
        "dur": "4.05",
        "text": "have been there pure listening level"
    },
    {
        "start": "582.579",
        "dur": "4.56",
        "text": "right but I said okay well if you're for"
    },
    {
        "start": "585.37",
        "dur": "2.94",
        "text": "the search that's fine that's your"
    },
    {
        "start": "587.139",
        "dur": "2.88",
        "text": "belief you shouldn't you should send"
    },
    {
        "start": "588.31",
        "dur": "3.029",
        "text": "them to money and and you should more"
    },
    {
        "start": "590.019",
        "dur": "2.671",
        "text": "volunteer or you know whatever it is"
    },
    {
        "start": "591.339",
        "dur": "4.261",
        "text": "that you feel is gonna support that"
    },
    {
        "start": "592.69",
        "dur": "6.329",
        "text": "particular course I respect your right"
    },
    {
        "start": "595.6",
        "dur": "6.599",
        "text": "to support the search and she said well"
    },
    {
        "start": "599.019",
        "dur": "6.031",
        "text": "that's nice and I said will you return"
    },
    {
        "start": "602.199",
        "dur": "4.981",
        "text": "it to me the same respect for me not to"
    },
    {
        "start": "605.05",
        "dur": "3.69",
        "text": "support the search let's pretend I'm"
    },
    {
        "start": "607.18",
        "dur": "2.82",
        "text": "American come on I got this two of the"
    },
    {
        "start": "608.74",
        "dur": "2.969",
        "text": "economy's absent the let's pretend that"
    },
    {
        "start": "610",
        "dur": "8.63",
        "text": "the colony entering is one that is you"
    },
    {
        "start": "611.709",
        "dur": "6.921",
        "text": "know going and we used to want you back"
    },
    {
        "start": "619.529",
        "dur": "12.281",
        "text": "we did the entire thing with rest but do"
    },
    {
        "start": "630.31",
        "dur": "2.85",
        "text": "you and you give me the same respect"
    },
    {
        "start": "631.81",
        "dur": "2.43",
        "text": "that she said yeah I give you the same"
    },
    {
        "start": "633.16",
        "dur": "2.91",
        "text": "effect that she thought she was just"
    },
    {
        "start": "634.24",
        "dur": "5.459",
        "text": "talking my opinion against a certain I"
    },
    {
        "start": "636.07",
        "dur": "7.62",
        "text": "said okay well if you respect my right"
    },
    {
        "start": "639.699",
        "dur": "6.031",
        "text": "to not support the search then you must"
    },
    {
        "start": "643.69",
        "dur": "2.99",
        "text": "respect my right not to be forced to"
    },
    {
        "start": "645.73",
        "dur": "3.18",
        "text": "funded"
    },
    {
        "start": "646.68",
        "dur": "4.51",
        "text": "there's no point having an opinion"
    },
    {
        "start": "648.91",
        "dur": "4.039",
        "text": "having a conscience that you are forced"
    },
    {
        "start": "651.19",
        "dur": "6.269",
        "text": "to act in opposition"
    },
    {
        "start": "652.949",
        "dur": "5.771",
        "text": "mimsey that's not freedom oh you're free"
    },
    {
        "start": "657.459",
        "dur": "4.211",
        "text": "to try it but you have to go to jail if"
    },
    {
        "start": "658.72",
        "dur": "4.36",
        "text": "you do well then you're not married"
    },
    {
        "start": "661.67",
        "dur": "3.57",
        "text": "this is the real thing you get into"
    },
    {
        "start": "663.08",
        "dur": "3.39",
        "text": "status right it's a social contract it's"
    },
    {
        "start": "665.24",
        "dur": "2.28",
        "text": "voluntary great then we don't need to"
    },
    {
        "start": "666.47",
        "dur": "3.57",
        "text": "enforce it but we know we have to"
    },
    {
        "start": "667.52",
        "dur": "4.35",
        "text": "enforce hope then it's not a social"
    },
    {
        "start": "670.04",
        "dur": "6.06",
        "text": "project now it's at such a time it's"
    },
    {
        "start": "671.87",
        "dur": "4.91",
        "text": "smaller but we have these revolving"
    },
    {
        "start": "676.1",
        "dur": "7.56",
        "text": "doors"
    },
    {
        "start": "676.78",
        "dur": "11.08",
        "text": "because you know so it was hard for her"
    },
    {
        "start": "683.66",
        "dur": "5.67",
        "text": "to process because the remember and"
    },
    {
        "start": "687.86",
        "dur": "3.99",
        "text": "that's you know Dominica sprints in the"
    },
    {
        "start": "689.33",
        "dur": "6.03",
        "text": "room yeah 12 to 16 months no problem"
    },
    {
        "start": "691.85",
        "dur": "5.82",
        "text": "waiting it's a big desert topped across"
    },
    {
        "start": "695.36",
        "dur": "4.92",
        "text": "we get lost just you know follow the old"
    },
    {
        "start": "697.67",
        "dur": "4.77",
        "text": "needles it's hard for people to"
    },
    {
        "start": "700.28",
        "dur": "5.85",
        "text": "understand that if you are against the"
    },
    {
        "start": "702.44",
        "dur": "6.78",
        "text": "drug war right and then some time for"
    },
    {
        "start": "706.13",
        "dur": "5.1",
        "text": "the dragon ball i think that cocaine"
    },
    {
        "start": "709.22",
        "dur": "5.34",
        "text": "users should be arrested in the woods"
    },
    {
        "start": "711.23",
        "dur": "4.65",
        "text": "right so what we recognize that you are"
    },
    {
        "start": "714.56",
        "dur": "2.82",
        "text": "supporting the initiation of force"
    },
    {
        "start": "715.88",
        "dur": "3.06",
        "text": "against me as an individual because the"
    },
    {
        "start": "717.38",
        "dur": "2.91",
        "text": "drug was very abstractly whoever state"
    },
    {
        "start": "718.94",
        "dur": "4.32",
        "text": "impaired it's all very abstract stuff"
    },
    {
        "start": "720.29",
        "dur": "4.23",
        "text": "but this is guns to flesh that people"
    },
    {
        "start": "723.26",
        "dur": "4.49",
        "text": "are talking about it's like that state"
    },
    {
        "start": "724.52",
        "dur": "7.53",
        "text": "force it's guns to flesh it's nice an"
    },
    {
        "start": "727.75",
        "dur": "7.33",
        "text": "ex-president woman will you allow me to"
    },
    {
        "start": "732.05",
        "dur": "8.01",
        "text": "not be kidnapped and caged if I don't"
    },
    {
        "start": "735.08",
        "dur": "7.47",
        "text": "agree with this video becomes dancing if"
    },
    {
        "start": "740.06",
        "dur": "4.65",
        "text": "I don't believe that the welfare state"
    },
    {
        "start": "742.55",
        "dur": "5.42",
        "text": "helps the poor if I believe it traps"
    },
    {
        "start": "744.71",
        "dur": "7.32",
        "text": "them in an underworld Perpetual poverty"
    },
    {
        "start": "747.97",
        "dur": "5.65",
        "text": "ignorance and declining prospects am I"
    },
    {
        "start": "752.03",
        "dur": "3.45",
        "text": "allowed to disagree with you about the"
    },
    {
        "start": "753.62",
        "dur": "4.5",
        "text": "welfare state without you supporting"
    },
    {
        "start": "755.48",
        "dur": "6.24",
        "text": "cats and blue coming through my window"
    },
    {
        "start": "758.12",
        "dur": "6.21",
        "text": "dragging me off to a cage I will let you"
    },
    {
        "start": "761.72",
        "dur": "5.19",
        "text": "have your beliefs without wanting force"
    },
    {
        "start": "764.33",
        "dur": "4.35",
        "text": "used against you will you return to me"
    },
    {
        "start": "766.91",
        "dur": "4.8",
        "text": "the same respect as a civilized and"
    },
    {
        "start": "768.68",
        "dur": "4.71",
        "text": "equal human being that is a very"
    },
    {
        "start": "771.71",
        "dur": "4.41",
        "text": "powerful argument to make because people"
    },
    {
        "start": "773.39",
        "dur": "5.88",
        "text": "talk about law and order and and you"
    },
    {
        "start": "776.12",
        "dur": "5.13",
        "text": "know courts they don't get that what"
    },
    {
        "start": "779.27",
        "dur": "2.31",
        "text": "they're advocating is the initiation of"
    },
    {
        "start": "781.25",
        "dur": "1.86",
        "text": "force"
    },
    {
        "start": "781.58",
        "dur": "4.04",
        "text": "that's after taxes a potential across"
    },
    {
        "start": "783.11",
        "dur": "4.65",
        "text": "public now about relatively unimportant"
    },
    {
        "start": "785.62",
        "dur": "4.6",
        "text": "how many times that people run it you"
    },
    {
        "start": "787.76",
        "dur": "5.97",
        "text": "could change so it's not often oh wait"
    },
    {
        "start": "790.22",
        "dur": "7.02",
        "text": "no that's really Tarantino movie the"
    },
    {
        "start": "793.73",
        "dur": "6.24",
        "text": "scream of the Ring but we are talking"
    },
    {
        "start": "797.24",
        "dur": "5.55",
        "text": "about the initiation of force and it is"
    },
    {
        "start": "799.97",
        "dur": "4.59",
        "text": "very real right the state is some in use"
    },
    {
        "start": "802.79",
        "dur": "4.76",
        "text": "it to abstract all the time abstract"
    },
    {
        "start": "804.56",
        "dur": "5.85",
        "text": "things all the time about it yet"
    },
    {
        "start": "807.55",
        "dur": "6.31",
        "text": "can I disagree with your health care"
    },
    {
        "start": "810.41",
        "dur": "5.55",
        "text": "plan without somebody pointing a gun at"
    },
    {
        "start": "813.86",
        "dur": "4.83",
        "text": "me will you grant me that respect as a"
    },
    {
        "start": "815.96",
        "dur": "4.23",
        "text": "civilized fellow human being even if you"
    },
    {
        "start": "818.69",
        "dur": "3.33",
        "text": "disagree with me perhaps especially if"
    },
    {
        "start": "820.19",
        "dur": "3.57",
        "text": "you disagree with me because I will"
    },
    {
        "start": "822.02",
        "dur": "3.69",
        "text": "allow you to disagree with me and not"
    },
    {
        "start": "823.76",
        "dur": "4.65",
        "text": "subject you to force when you allow me"
    },
    {
        "start": "825.71",
        "dur": "5.37",
        "text": "to disagree with you and not subject me"
    },
    {
        "start": "828.41",
        "dur": "5.84",
        "text": "to force in other words will you block"
    },
    {
        "start": "831.08",
        "dur": "7.1",
        "text": "them your support of violence against me"
    },
    {
        "start": "834.25",
        "dur": "8.08",
        "text": "for my conscience for my convictions"
    },
    {
        "start": "838.18",
        "dur": "6.31",
        "text": "will you put down the gun so that we can"
    },
    {
        "start": "842.33",
        "dur": "3.48",
        "text": "talk will you get out of the getaway car"
    },
    {
        "start": "844.49",
        "dur": "3.9",
        "text": "but you recognize that you are"
    },
    {
        "start": "845.81",
        "dur": "4.95",
        "text": "participating in a crime that you are"
    },
    {
        "start": "848.39",
        "dur": "4.41",
        "text": "supporting a crime you see the important"
    },
    {
        "start": "850.76",
        "dur": "5.76",
        "text": "thing is that the bank robbery can't"
    },
    {
        "start": "852.8",
        "dur": "4.76",
        "text": "happen without the getaway driver no"
    },
    {
        "start": "856.52",
        "dur": "5.84",
        "text": "getaway driver"
    },
    {
        "start": "857.56",
        "dur": "8.62",
        "text": "no bank robbery no support of"
    },
    {
        "start": "862.36",
        "dur": "6",
        "text": "institutional violence no institutional"
    },
    {
        "start": "866.18",
        "dur": "2.18",
        "text": "violence"
    },
    {
        "start": "868.38",
        "dur": "5.61",
        "text": "but we can never talk people out of that"
    },
    {
        "start": "871.65",
        "dur": "3.51",
        "text": "which they call virtue can never talk"
    },
    {
        "start": "873.99",
        "dur": "2.55",
        "text": "somebody out of that much they call"
    },
    {
        "start": "875.16",
        "dur": "4.44",
        "text": "Richard you can force them tank against"
    },
    {
        "start": "876.54",
        "dur": "5.79",
        "text": "if you can't talk to matter and this is"
    },
    {
        "start": "879.6",
        "dur": "4.62",
        "text": "why I write a book on ethics this is why"
    },
    {
        "start": "882.33",
        "dur": "2.43",
        "text": "I talk about I call the argument for a"
    },
    {
        "start": "884.22",
        "dur": "2.55",
        "text": "morality"
    },
    {
        "start": "884.76",
        "dur": "3.27",
        "text": "oh sorry freedomain radio freedom radio"
    },
    {
        "start": "886.77",
        "dur": "3.6",
        "text": "would have been a great idea"
    },
    {
        "start": "888.03",
        "dur": "5.01",
        "text": "but I'm too branded now I got the"
    },
    {
        "start": "890.37",
        "dur": "4.92",
        "text": "tattoos I can't change it and I tell it"
    },
    {
        "start": "893.04",
        "dur": "3.63",
        "text": "is it is essential that we keep"
    },
    {
        "start": "895.29",
        "dur": "2.43",
        "text": "hammering the arguments around people"
    },
    {
        "start": "896.67",
        "dur": "3.36",
        "text": "always want to talk about consequences"
    },
    {
        "start": "897.72",
        "dur": "3.45",
        "text": "well the consequence of Obamacare is"
    },
    {
        "start": "900.03",
        "dur": "3.84",
        "text": "some people will get health care who"
    },
    {
        "start": "901.17",
        "dur": "4.53",
        "text": "otherwise would that's exactly true the"
    },
    {
        "start": "903.87",
        "dur": "6.84",
        "text": "consequence of slavery is people get"
    },
    {
        "start": "905.7",
        "dur": "7.92",
        "text": "cheaper shirts don't make it right well"
    },
    {
        "start": "910.71",
        "dur": "4.31",
        "text": "if we get rid of slavery we're going to"
    },
    {
        "start": "913.62",
        "dur": "5.25",
        "text": "have any conduct"
    },
    {
        "start": "915.02",
        "dur": "7.51",
        "text": "no it's just that different machines"
    },
    {
        "start": "918.87",
        "dur": "5.97",
        "text": "will drink dinosaur juice and go across"
    },
    {
        "start": "922.53",
        "dur": "3.45",
        "text": "the plains and pick all the cotton in"
    },
    {
        "start": "924.84",
        "dur": "2.97",
        "text": "the known universe and we don't know"
    },
    {
        "start": "925.98",
        "dur": "2.91",
        "text": "what happens out for freedom but people"
    },
    {
        "start": "927.81",
        "dur": "3.81",
        "text": "always want to talk about consequences"
    },
    {
        "start": "928.89",
        "dur": "4.62",
        "text": "and that means nothing consequences is"
    },
    {
        "start": "931.62",
        "dur": "3.18",
        "text": "no way to judge an ethical theory you're"
    },
    {
        "start": "933.51",
        "dur": "5.79",
        "text": "the consequence for a mother as he's"
    },
    {
        "start": "934.8",
        "dur": "6.63",
        "text": "richer so he's all for it look I have a"
    },
    {
        "start": "939.3",
        "dur": "4.38",
        "text": "watch it a wallet these consequences"
    },
    {
        "start": "941.43",
        "dur": "4.38",
        "text": "Rock and the consequence for political"
    },
    {
        "start": "943.68",
        "dur": "4.95",
        "text": "power is idiots get to tell everyone"
    },
    {
        "start": "945.81",
        "dur": "4.62",
        "text": "else once it intamin idiots believe that"
    },
    {
        "start": "948.63",
        "dur": "3.02",
        "text": "they can't hate television people don't"
    },
    {
        "start": "950.43",
        "dur": "3.33",
        "text": "try to run that to other people's lives"
    },
    {
        "start": "951.65",
        "dur": "4.09",
        "text": "and so consequentialism and"
    },
    {
        "start": "953.76",
        "dur": "3.48",
        "text": "utilitarianism pragmatism salt nonsense"
    },
    {
        "start": "955.74",
        "dur": "3.83",
        "text": "it's a fundamental"
    },
    {
        "start": "957.24",
        "dur": "4.68",
        "text": "thou shalt not kill thou shalt not steal"
    },
    {
        "start": "959.57",
        "dur": "4.36",
        "text": "that we need to keep focusing on and to"
    },
    {
        "start": "961.92",
        "dur": "3.69",
        "text": "recognize the two people that to wake"
    },
    {
        "start": "963.93",
        "dur": "3.87",
        "text": "them up to the fact that they are I"
    },
    {
        "start": "965.61",
        "dur": "3.69",
        "text": "agree unknowingly and unwittingly head"
    },
    {
        "start": "967.8",
        "dur": "3.48",
        "text": "with all great sympathy that they are"
    },
    {
        "start": "969.3",
        "dur": "3.75",
        "text": "participating in price if they praise"
    },
    {
        "start": "971.28",
        "dur": "4.59",
        "text": "the state enormous animals got to go to"
    },
    {
        "start": "973.05",
        "dur": "5.13",
        "text": "jail what's not but if you praise the"
    },
    {
        "start": "975.87",
        "dur": "4.29",
        "text": "state if you don't recognize that the"
    },
    {
        "start": "978.18",
        "dur": "3.42",
        "text": "state is violence the state's coercion"
    },
    {
        "start": "980.16",
        "dur": "2.91",
        "text": "the state has been brutal and"
    },
    {
        "start": "981.6",
        "dur": "3.75",
        "text": "uncivilized and the state is a ten"
    },
    {
        "start": "983.07",
        "dur": "3.84",
        "text": "thousand year olds system didn't got"
    },
    {
        "start": "985.35",
        "dur": "3.99",
        "text": "what if your statism"
    },
    {
        "start": "986.91",
        "dur": "4.23",
        "text": "I think you just passed a law I don't"
    },
    {
        "start": "989.34",
        "dur": "4.44",
        "text": "you say than just massive law says that"
    },
    {
        "start": "991.14",
        "dur": "5.82",
        "text": "you can't use any technology newer than"
    },
    {
        "start": "993.78",
        "dur": "4.59",
        "text": "the oldest weren't you love oh you love"
    },
    {
        "start": "996.96",
        "dur": "3.06",
        "text": "the state that's about ten thousand year"
    },
    {
        "start": "998.37",
        "dur": "3.81",
        "text": "old sorry you don't get antibiotics"
    },
    {
        "start": "1000.02",
        "dur": "5.25",
        "text": "we've got some packet of leeches here"
    },
    {
        "start": "1002.18",
        "dur": "4.74",
        "text": "for you witch doctor you know but sorry"
    },
    {
        "start": "1005.27",
        "dur": "3.06",
        "text": "we can't we just can't give you a new"
    },
    {
        "start": "1006.92",
        "dur": "1.8",
        "text": "new technology because you love your old"
    },
    {
        "start": "1008.33",
        "dur": "1.89",
        "text": "school"
    },
    {
        "start": "1008.72",
        "dur": "2.67",
        "text": "you love that old stuff for a small"
    },
    {
        "start": "1010.22",
        "dur": "2.31",
        "text": "minority of people have all the guns in"
    },
    {
        "start": "1011.39",
        "dur": "4.56",
        "text": "the world so I don't want to do that's"
    },
    {
        "start": "1012.53",
        "dur": "7.95",
        "text": "tribalism miss wales airplane sorry"
    },
    {
        "start": "1015.95",
        "dur": "5.91",
        "text": "no no nonsense you could walk back to"
    },
    {
        "start": "1020.48",
        "dur": "3.36",
        "text": "max about it and the horses what"
    },
    {
        "start": "1021.86",
        "dur": "4.86",
        "text": "domesticated you know the way up the"
    },
    {
        "start": "1023.84",
        "dur": "4.83",
        "text": "state isn't it so do that later but I"
    },
    {
        "start": "1026.72",
        "dur": "4.08",
        "text": "think waking people up to the fact that"
    },
    {
        "start": "1028.67",
        "dur": "3.96",
        "text": "they are unknowingly I'm putting these"
    },
    {
        "start": "1030.8",
        "dur": "3.3",
        "text": "participating in a crime creates a moral"
    },
    {
        "start": "1032.63",
        "dur": "2.91",
        "text": "choice for them I believe when you're"
    },
    {
        "start": "1034.1",
        "dur": "2.85",
        "text": "interstate propaganda when you're in the"
    },
    {
        "start": "1035.54",
        "dur": "4.89",
        "text": "matrix you don't have a moral choice"
    },
    {
        "start": "1036.95",
        "dur": "5.16",
        "text": "choice is knowledge but morality is kind"
    },
    {
        "start": "1040.43",
        "dur": "3.27",
        "text": "of technology but you can't prescribe"
    },
    {
        "start": "1042.11",
        "dur": "3.6",
        "text": "antibiotics as a doctor before they're"
    },
    {
        "start": "1043.7",
        "dur": "4.47",
        "text": "invented and you can't make the choice"
    },
    {
        "start": "1045.71",
        "dur": "4.22",
        "text": "to oppose immorality if you mistakenly"
    },
    {
        "start": "1048.17",
        "dur": "3.9",
        "text": "believe that that much as evil is good"
    },
    {
        "start": "1049.93",
        "dur": "3.19",
        "text": "and I leave you just one final thought"
    },
    {
        "start": "1052.07",
        "dur": "3.84",
        "text": "I'm going to think the fundamental"
    },
    {
        "start": "1053.12",
        "dur": "6.21",
        "text": "mission statement of libertarianism is"
    },
    {
        "start": "1055.91",
        "dur": "4.83",
        "text": "fight evil find evil Amin you know I"
    },
    {
        "start": "1059.33",
        "dur": "4.95",
        "text": "mean yes my god we all looked fantastic"
    },
    {
        "start": "1060.74",
        "dur": "7.2",
        "text": "in capes and tights that would be that"
    },
    {
        "start": "1064.28",
        "dur": "6.12",
        "text": "would be the official I guess costume"
    },
    {
        "start": "1067.94",
        "dur": "3.6",
        "text": "anything past you our mascot I mean we"
    },
    {
        "start": "1070.4",
        "dur": "2.61",
        "text": "should because we're trying to fight"
    },
    {
        "start": "1071.54",
        "dur": "3.51",
        "text": "evil and it's early days right it's"
    },
    {
        "start": "1073.01",
        "dur": "3.27",
        "text": "really early days in this in this fight"
    },
    {
        "start": "1075.05",
        "dur": "2.82",
        "text": "that's not much fun being an"
    },
    {
        "start": "1076.28",
        "dur": "3.54",
        "text": "abolitionist now condemned to slavery"
    },
    {
        "start": "1077.87",
        "dur": "3",
        "text": "thing at least deep over kind so it's"
    },
    {
        "start": "1079.82",
        "dur": "2.34",
        "text": "really great to be in the ground floor"
    },
    {
        "start": "1080.87",
        "dur": "2.49",
        "text": "of a moral revolution that's where the"
    },
    {
        "start": "1082.16",
        "dur": "3.3",
        "text": "real metals are that's what the real"
    },
    {
        "start": "1083.36",
        "dur": "3.75",
        "text": "heroism is when we find a moment there's"
    },
    {
        "start": "1085.46",
        "dur": "3.24",
        "text": "no way to fight evil that's what's so"
    },
    {
        "start": "1087.11",
        "dur": "3.5",
        "text": "annoying about it's so slippery because"
    },
    {
        "start": "1088.7",
        "dur": "4.2",
        "text": "they always redefines itself as the good"
    },
    {
        "start": "1090.61",
        "dur": "4.57",
        "text": "alright it's a social contract its"
    },
    {
        "start": "1092.9",
        "dur": "3.99",
        "text": "market patron just don't you care about"
    },
    {
        "start": "1095.18",
        "dur": "3.09",
        "text": "the poor what you want to take health"
    },
    {
        "start": "1096.89",
        "dur": "3.65",
        "text": "care away from sick and old people what"
    },
    {
        "start": "1098.27",
        "dur": "2.27",
        "text": "kind of"
    },
    {
        "start": "1100.91",
        "dur": "10.68",
        "text": "don't you wanna bonds of democracy in"
    },
    {
        "start": "1104.25",
        "dur": "7.34",
        "text": "the people it's a trailer of freedom"
    },
    {
        "start": "1112.61",
        "dur": "8.11",
        "text": "their atoms will thank you as they float"
    },
    {
        "start": "1115.92",
        "dur": "7.8",
        "text": "amongst fans because it always redefines"
    },
    {
        "start": "1120.72",
        "dur": "4.59",
        "text": "itself as good once people see people"
    },
    {
        "start": "1123.72",
        "dur": "3.63",
        "text": "they reject people which is why evil is"
    },
    {
        "start": "1125.31",
        "dur": "5.64",
        "text": "the chameleon camouflages itself all the"
    },
    {
        "start": "1127.35",
        "dur": "5.25",
        "text": "time it's deleted it moves it changes it"
    },
    {
        "start": "1130.95",
        "dur": "3.39",
        "text": "redefines itself all the time and that's"
    },
    {
        "start": "1132.6",
        "dur": "3.99",
        "text": "why you go back to basic principles you"
    },
    {
        "start": "1134.34",
        "dur": "3.84",
        "text": "know spray that good old moral vapors"
    },
    {
        "start": "1136.59",
        "dur": "3.99",
        "text": "show the lasers show the violence and"
    },
    {
        "start": "1138.18",
        "dur": "4.29",
        "text": "reveal that this is not an ATM friendly"
    },
    {
        "start": "1140.58",
        "dur": "3.3",
        "text": "withdrawal this is not a man taking out"
    },
    {
        "start": "1142.47",
        "dur": "4.11",
        "text": "a bank something he put into the bank"
    },
    {
        "start": "1143.88",
        "dur": "3.99",
        "text": "this is a man taking my for sabot Bank"
    },
    {
        "start": "1146.58",
        "dur": "3.87",
        "text": "something you do not put into the bank"
    },
    {
        "start": "1147.87",
        "dur": "4.86",
        "text": "that's evil that's immoral that gives"
    },
    {
        "start": "1150.45",
        "dur": "3.48",
        "text": "people a choice about the moral"
    },
    {
        "start": "1152.73",
        "dur": "4.05",
        "text": "direction that they're going to take and"
    },
    {
        "start": "1153.93",
        "dur": "5.31",
        "text": "I believe that is the illumination of"
    },
    {
        "start": "1156.78",
        "dur": "4.11",
        "text": "that choice that is fundamental Frost"
    },
    {
        "start": "1159.24",
        "dur": "3.69",
        "text": "rose above the future if we don't see"
    },
    {
        "start": "1160.89",
        "dur": "4.86",
        "text": "that choice people will only escalate"
    },
    {
        "start": "1162.93",
        "dur": "4.83",
        "text": "and multiply if we see that choice when"
    },
    {
        "start": "1165.75",
        "dur": "4.98",
        "text": "people clearly see what evil is we"
    },
    {
        "start": "1167.76",
        "dur": "4.64",
        "text": "requirement from we reject it and that's"
    },
    {
        "start": "1170.73",
        "dur": "4.76",
        "text": "what we need nothing to say in future"
    },
    {
        "start": "1172.4",
        "dur": "3.09",
        "text": "thank you"
    }
]