{
  "Title": "The Hidden Dangers of Bitcoin",
  "Id": "tXBwcedQuQ0",
  "Transcript": [
    {
      "text": "fantastic well welcome everybody I'm",
      "start": 0.11,
      "duration": 4.899
    },
    {
      "text": "sorry I can't be there in person but",
      "start": 2.429,
      "duration": 5.131
    },
    {
      "text": "it's fantastic to see so many people out",
      "start": 5.009,
      "duration": 5.311
    },
    {
      "text": "there enjoying and being curious about",
      "start": 7.56,
      "duration": 6.3
    },
    {
      "text": "and explaining the Bitcoin experience so",
      "start": 10.32,
      "duration": 5.489
    },
    {
      "text": "you know that there are speakers who are",
      "start": 13.86,
      "duration": 4.74
    },
    {
      "text": "going to come to a gathering like this",
      "start": 15.809,
      "duration": 6.781
    },
    {
      "text": "and give you the rousing speech designed",
      "start": 18.6,
      "duration": 6.089
    },
    {
      "text": "to make you wildly enthusiastic charge",
      "start": 22.59,
      "duration": 3.75
    },
    {
      "text": "the ramparts of entrenched financial",
      "start": 24.689,
      "duration": 4.141
    },
    {
      "text": "interests and you know bite the heads",
      "start": 26.34,
      "duration": 5.519
    },
    {
      "text": "off anyone who stands in your way I'm",
      "start": 28.83,
      "duration": 5.01
    },
    {
      "text": "not going to be that speaker I've done",
      "start": 31.859,
      "duration": 3.811
    },
    {
      "text": "that before and I strongly believe in it",
      "start": 33.84,
      "duration": 4.23
    },
    {
      "text": "but I think that there's another side to",
      "start": 35.67,
      "duration": 5.069
    },
    {
      "text": "the Bitcoin future that really really",
      "start": 38.07,
      "duration": 7.559
    },
    {
      "text": "needs to be explored and that basically",
      "start": 40.739,
      "duration": 9.271
    },
    {
      "text": "is recognizing the size economic",
      "start": 45.629,
      "duration": 7.441
    },
    {
      "text": "strength and political power of the",
      "start": 50.01,
      "duration": 5.639
    },
    {
      "text": "entrenched interests that Bitcoin",
      "start": 53.07,
      "duration": 5.64
    },
    {
      "text": "directly threatens and I just wanted to",
      "start": 55.649,
      "duration": 6.511
    },
    {
      "text": "go over a few facts about that which is",
      "start": 58.71,
      "duration": 5.07
    },
    {
      "text": "to say we should continue to do what",
      "start": 62.16,
      "duration": 3.24
    },
    {
      "text": "we're doing which is I think to spread",
      "start": 63.78,
      "duration": 3.839
    },
    {
      "text": "horizontally through the economy but",
      "start": 65.4,
      "duration": 4.89
    },
    {
      "text": "recognize that at some point there is",
      "start": 67.619,
      "duration": 6.631
    },
    {
      "text": "going to be a conflict of biblical",
      "start": 70.29,
      "duration": 6.39
    },
    {
      "text": "proportions between decentralized",
      "start": 74.25,
      "duration": 4.95
    },
    {
      "text": "encrypted currency mechanisms and",
      "start": 76.68,
      "duration": 4.59
    },
    {
      "text": "dispute resolution third party trust",
      "start": 79.2,
      "duration": 4.83
    },
    {
      "text": "mechanisms and and the entrenched",
      "start": 81.27,
      "duration": 6.54
    },
    {
      "text": "financial interest so just a few days",
      "start": 84.03,
      "duration": 10.379
    },
    {
      "text": "ago the Bank of England has sounded off",
      "start": 87.81,
      "duration": 8.97
    },
    {
      "text": "or weighed in on the issue of Bitcoin",
      "start": 94.409,
      "duration": 5.401
    },
    {
      "text": "and this is what they say digital",
      "start": 96.78,
      "duration": 4.5
    },
    {
      "text": "currencies such as Bitcoin could",
      "start": 99.81,
      "duration": 3.809
    },
    {
      "text": "threaten the economy if they become",
      "start": 101.28,
      "duration": 3.99
    },
    {
      "text": "widespread the Bank of England has",
      "start": 103.619,
      "duration": 5.43
    },
    {
      "text": "warned in the most extreme case bitcoins",
      "start": 105.27,
      "duration": 5.82
    },
    {
      "text": "decentralized payment system and finite",
      "start": 109.049,
      "duration": 6.35
    },
    {
      "text": "supply could make central banks obsolete",
      "start": 111.09,
      "duration": 6.9
    },
    {
      "text": "should we take a moment to mourn their",
      "start": 115.399,
      "duration": 8.451
    },
    {
      "text": "passing not me they",
      "start": 117.99,
      "duration": 10.12
    },
    {
      "text": "also create huge economic risks and as",
      "start": 123.85,
      "duration": 4.89
    },
    {
      "text": "you well know",
      "start": 128.11,
      "duration": 2.16
    },
    {
      "text": "I'm sure this audience more than most",
      "start": 128.74,
      "duration": 4.29
    },
    {
      "text": "risks is just a synonym for opportunity",
      "start": 130.27,
      "duration": 8.49
    },
    {
      "text": "and Bitcoin and related currencies could",
      "start": 133.03,
      "duration": 10.92
    },
    {
      "text": "trigger deflation deflation deflation",
      "start": 138.76,
      "duration": 7.74
    },
    {
      "text": "you ever heard this Bugaboo it's just",
      "start": 143.95,
      "duration": 4.11
    },
    {
      "text": "supposed to scare people because they",
      "start": 146.5,
      "duration": 5.07
    },
    {
      "text": "don't want to use lowered prices because",
      "start": 148.06,
      "duration": 4.92
    },
    {
      "text": "lowered price is actually quite a good",
      "start": 151.57,
      "duration": 4.04
    },
    {
      "text": "thing but they say deflation",
      "start": 152.98,
      "duration": 6.66
    },
    {
      "text": "now why is deflation considered to be",
      "start": 155.61,
      "duration": 6.37
    },
    {
      "text": "such a bad thing I mean if you go to the",
      "start": 159.64,
      "duration": 4.98
    },
    {
      "text": "the petrol pump and the price is lower",
      "start": 161.98,
      "duration": 5.28
    },
    {
      "text": "you're like yay and the price of",
      "start": 164.62,
      "duration": 4.619
    },
    {
      "text": "computers and software and related",
      "start": 167.26,
      "duration": 3.87
    },
    {
      "text": "hardware is all going down",
      "start": 169.239,
      "duration": 4.081
    },
    {
      "text": "we are paying virtually nothing to have",
      "start": 171.13,
      "duration": 3.9
    },
    {
      "text": "this call whereas I remember having a",
      "start": 173.32,
      "duration": 2.85
    },
    {
      "text": "long-distance relationship with a",
      "start": 175.03,
      "duration": 2.7
    },
    {
      "text": "girlfriend in the 90s and basically",
      "start": 176.17,
      "duration": 4.05
    },
    {
      "text": "having to give up a half a kidney to the",
      "start": 177.73,
      "duration": 4.64
    },
    {
      "text": "phone company for long-distance calls",
      "start": 180.22,
      "duration": 4.56
    },
    {
      "text": "now you get you know two-way high",
      "start": 182.37,
      "duration": 4.23
    },
    {
      "text": "quality audio video pretty much for free",
      "start": 184.78,
      "duration": 5.09
    },
    {
      "text": "so what is the problem with deflation",
      "start": 186.6,
      "duration": 6.609
    },
    {
      "text": "well a deflation fundamentally is a",
      "start": 189.87,
      "duration": 5.32
    },
    {
      "text": "problem for governments not for private",
      "start": 193.209,
      "duration": 4.021
    },
    {
      "text": "citizens I'm not sure this is the very",
      "start": 195.19,
      "duration": 3.93
    },
    {
      "text": "first time in history where the",
      "start": 197.23,
      "duration": 3.21
    },
    {
      "text": "interests of governments and the",
      "start": 199.12,
      "duration": 2.88
    },
    {
      "text": "interests of private citizens have not",
      "start": 200.44,
      "duration": 4.32
    },
    {
      "text": "perfectly coincided I'll have to think",
      "start": 202,
      "duration": 4.32
    },
    {
      "text": "of if there are any other examples maybe",
      "start": 204.76,
      "duration": 2.88
    },
    {
      "text": "you can help me out in the Q\u0026A period",
      "start": 206.32,
      "duration": 4.91
    },
    {
      "text": "but what's the problem of deflation well",
      "start": 207.64,
      "duration": 6.659
    },
    {
      "text": "deflation lowers prices lowered prices",
      "start": 211.23,
      "duration": 6.16
    },
    {
      "text": "put downward pressure on wages lowered",
      "start": 214.299,
      "duration": 6.481
    },
    {
      "text": "wages means less tax revenue and of",
      "start": 217.39,
      "duration": 6.21
    },
    {
      "text": "course if you've ever faced a government",
      "start": 220.78,
      "duration": 5.64
    },
    {
      "text": "union saying that you need to lower",
      "start": 223.6,
      "duration": 6.09
    },
    {
      "text": "their wages not really the first thing",
      "start": 226.42,
      "duration": 6.3
    },
    {
      "text": "on the politicians happy go-go joy joy",
      "start": 229.69,
      "duration": 5.609
    },
    {
      "text": "juice agenda for the morning they really",
      "start": 232.72,
      "duration": 3.69
    },
    {
      "text": "don't want to do that and there's a lot",
      "start": 235.299,
      "duration": 3.601
    },
    {
      "text": "of other reasons but governments dislike",
      "start": 236.41,
      "duration": 4.35
    },
    {
      "text": "lowering the prices",
      "start": 238.9,
      "duration": 5.22
    },
    {
      "text": "whereas private citizens really really",
      "start": 240.76,
      "duration": 5.37
    },
    {
      "text": "like it the other thing they say is well",
      "start": 244.12,
      "duration": 4.26
    },
    {
      "text": "if prices are going down in other words",
      "start": 246.13,
      "duration": 4.02
    },
    {
      "text": "if your money is becoming more valuable",
      "start": 248.38,
      "duration": 4.44
    },
    {
      "text": "by you not spending it then they say",
      "start": 250.15,
      "duration": 5.04
    },
    {
      "text": "well people will hoard their money like",
      "start": 252.82,
      "duration": 4.919
    },
    {
      "text": "that's a really bad thing but that's",
      "start": 255.19,
      "duration": 5.879
    },
    {
      "text": "ridiculous I mean if you hoard money so",
      "start": 257.739,
      "duration": 5.191
    },
    {
      "text": "what it just means that there's less at",
      "start": 261.069,
      "duration": 3.03
    },
    {
      "text": "the environment destroyed through",
      "start": 262.93,
      "duration": 2.37
    },
    {
      "text": "useless consumerism",
      "start": 264.099,
      "duration": 3.211
    },
    {
      "text": "I can't think that that's a terribly bad",
      "start": 265.3,
      "duration": 4.53
    },
    {
      "text": "thing and banks which used to only sit",
      "start": 267.31,
      "duration": 3.75
    },
    {
      "text": "on a couple of billion dollars of",
      "start": 269.83,
      "duration": 2.61
    },
    {
      "text": "reserves are now sitting on over a",
      "start": 271.06,
      "duration": 2.91
    },
    {
      "text": "trillion dollars of reserves they're not",
      "start": 272.44,
      "duration": 2.909
    },
    {
      "text": "lending it to anyone and you don't see",
      "start": 273.97,
      "duration": 2.58
    },
    {
      "text": "the government's being too bothered by",
      "start": 275.349,
      "duration": 3.091
    },
    {
      "text": "that see again it's only the private",
      "start": 276.55,
      "duration": 4.649
    },
    {
      "text": "citizens sitting on money that is a the",
      "start": 278.44,
      "duration": 4.56
    },
    {
      "text": "problem because the private citizens sit",
      "start": 281.199,
      "duration": 4.62
    },
    {
      "text": "on money they can afford to challenge",
      "start": 283,
      "duration": 4.11
    },
    {
      "text": "the status quo because they've got some",
      "start": 285.819,
      "duration": 7.171
    },
    {
      "text": "savings some so also the bank has warned",
      "start": 287.11,
      "duration": 7.559
    },
    {
      "text": "the English bank has warned the Bank of",
      "start": 292.99,
      "duration": 2.91
    },
    {
      "text": "England has warned that of people that",
      "start": 294.669,
      "duration": 5.881
    },
    {
      "text": "people could be defrauded they could be",
      "start": 295.9,
      "duration": 9.139
    },
    {
      "text": "defrauded through cryptocurrencies I",
      "start": 300.55,
      "duration": 6.6
    },
    {
      "text": "guess that's a bit different from the",
      "start": 305.039,
      "duration": 3.97
    },
    {
      "text": "defrauding that occurs through the",
      "start": 307.15,
      "duration": 3.93
    },
    {
      "text": "inflation that is created through the",
      "start": 309.009,
      "duration": 4.44
    },
    {
      "text": "endless creation of money through",
      "start": 311.08,
      "duration": 4.829
    },
    {
      "text": "central banks so I guess they're really",
      "start": 313.449,
      "duration": 5.31
    },
    {
      "text": "concerned about you losing monetary",
      "start": 315.909,
      "duration": 5.01
    },
    {
      "text": "value which is why they want to keep a",
      "start": 318.759,
      "duration": 4.47
    },
    {
      "text": "central bank and keep jigging inflation",
      "start": 320.919,
      "duration": 4.201
    },
    {
      "text": "and money supply to the point where you",
      "start": 323.229,
      "duration": 4.021
    },
    {
      "text": "don't know which way is up economically",
      "start": 325.12,
      "duration": 3.57
    },
    {
      "text": "any war anymore and you have the basic",
      "start": 327.25,
      "duration": 4.32
    },
    {
      "text": "direction sense of a hamster in a tumble",
      "start": 328.69,
      "duration": 8.039
    },
    {
      "text": "dryer governments says the bank would",
      "start": 331.57,
      "duration": 7.279
    },
    {
      "text": "have to address issues off quote",
      "start": 336.729,
      "duration": 4.951
    },
    {
      "text": "taxation money laundering and the",
      "start": 338.849,
      "duration": 5.531
    },
    {
      "text": "possible use of new payment systems in",
      "start": 341.68,
      "duration": 7.789
    },
    {
      "text": "financing terrorism or other crime well",
      "start": 344.38,
      "duration": 8.219
    },
    {
      "text": "there's a little hobby that governments",
      "start": 349.469,
      "duration": 5.35
    },
    {
      "text": "developed and it really had it",
      "start": 352.599,
      "duration": 4.171
    },
    {
      "text": "throughout all of human history but they",
      "start": 354.819,
      "duration": 4.981
    },
    {
      "text": "really refined it to a fine dark art in",
      "start": 356.77,
      "duration": 4.769
    },
    {
      "text": "the 20th century that little hobby",
      "start": 359.8,
      "duration": 7.14
    },
    {
      "text": "called war and war in its current form",
      "start": 361.539,
      "duration": 9.66
    },
    {
      "text": "is completely impossible without fiat",
      "start": 366.94,
      "duration": 6.06
    },
    {
      "text": "currency and I've done a speech on this",
      "start": 371.199,
      "duration": 3.661
    },
    {
      "text": "in Toronto a Bitcoin versus war which",
      "start": 373,
      "duration": 4.77
    },
    {
      "text": "you can check out but funding even the",
      "start": 374.86,
      "duration": 5.16
    },
    {
      "text": "war on terror would require more gold",
      "start": 377.77,
      "duration": 3.75
    },
    {
      "text": "than has ever been mined in human",
      "start": 380.02,
      "duration": 2.699
    },
    {
      "text": "history in other words you'd run out of",
      "start": 381.52,
      "duration": 3.75
    },
    {
      "text": "money long before you ran out of bullets",
      "start": 382.719,
      "duration": 6.51
    },
    {
      "text": "and so it's really fascinating that",
      "start": 385.27,
      "duration": 6.299
    },
    {
      "text": "they're concerned about",
      "start": 389.229,
      "duration": 4.11
    },
    {
      "text": "people losing economic value through",
      "start": 391.569,
      "duration": 3.87
    },
    {
      "text": "Bitcoin so we should give them the power",
      "start": 393.339,
      "duration": 3.72
    },
    {
      "text": "of central banking to maintain that",
      "start": 395.439,
      "duration": 3.12
    },
    {
      "text": "value which has never happened the US",
      "start": 397.059,
      "duration": 3.78
    },
    {
      "text": "dollar has lost 98 percent of its value",
      "start": 398.559,
      "duration": 3.931
    },
    {
      "text": "since the creation of the Federal",
      "start": 400.839,
      "duration": 4.5
    },
    {
      "text": "Reserve in 1913 and they're really",
      "start": 402.49,
      "duration": 7.109
    },
    {
      "text": "concerned that Bitcoin might be used to",
      "start": 405.339,
      "duration": 7.59
    },
    {
      "text": "finance physical aggression terrorism",
      "start": 409.599,
      "duration": 6.06
    },
    {
      "text": "their concern about how fiat currencies",
      "start": 412.929,
      "duration": 4.2
    },
    {
      "text": "are used to finance say the war on",
      "start": 415.659,
      "duration": 2.04
    },
    {
      "text": "terror",
      "start": 417.129,
      "duration": 4.8
    },
    {
      "text": "appears to be notably absent so it's",
      "start": 417.699,
      "duration": 6.09
    },
    {
      "text": "important to recognize that it's a big",
      "start": 421.929,
      "duration": 4.14
    },
    {
      "text": "enough issue that banks are talking",
      "start": 423.789,
      "duration": 7.65
    },
    {
      "text": "about it and I think that where they get",
      "start": 426.069,
      "duration": 7.291
    },
    {
      "text": "to the you know will we'll provide a",
      "start": 431.439,
      "duration": 3.48
    },
    {
      "text": "link to this the conference organizers",
      "start": 433.36,
      "duration": 3.66
    },
    {
      "text": "to share as well where they really get",
      "start": 434.919,
      "duration": 4.261
    },
    {
      "text": "into the nitty-gritty though the bank",
      "start": 437.02,
      "duration": 4.289
    },
    {
      "text": "acknowledged bitcoins disruptive",
      "start": 439.18,
      "duration": 4.919
    },
    {
      "text": "potential by describing the technology",
      "start": 441.309,
      "duration": 4.95
    },
    {
      "text": "underpinning it as quote a first attempt",
      "start": 444.099,
      "duration": 3.12
    },
    {
      "text": "at an Internet",
      "start": 446.259,
      "duration": 4.68
    },
    {
      "text": "of Finance and a genuine innovation that",
      "start": 447.219,
      "duration": 5.16
    },
    {
      "text": "could be used to shake up traditional",
      "start": 450.939,
      "duration": 4.741
    },
    {
      "text": "banking so basically that their concern",
      "start": 452.379,
      "duration": 6.24
    },
    {
      "text": "is that it is a genuine innovation boy",
      "start": 455.68,
      "duration": 7.199
    },
    {
      "text": "that's absolutely terrible now",
      "start": 458.619,
      "duration": 6.57
    },
    {
      "text": "they say if Bitcoin use becomes",
      "start": 462.879,
      "duration": 5.91
    },
    {
      "text": "widespread the Bank of England's levers",
      "start": 465.189,
      "duration": 6.33
    },
    {
      "text": "to manage the economy through interest",
      "start": 468.789,
      "duration": 5.88
    },
    {
      "text": "rates and quantitative easing would no",
      "start": 471.519,
      "duration": 4.77
    },
    {
      "text": "longer work because both the supply and",
      "start": 474.669,
      "duration": 4.25
    },
    {
      "text": "price would be out of its control oh boy",
      "start": 476.289,
      "duration": 6.06
    },
    {
      "text": "wouldn't that be terrible government's",
      "start": 478.919,
      "duration": 5.98
    },
    {
      "text": "through central banks or central bank's",
      "start": 482.349,
      "duration": 3.63
    },
    {
      "text": "through government's whichever way you",
      "start": 484.899,
      "duration": 3.51
    },
    {
      "text": "want to spend that revolving door would",
      "start": 485.979,
      "duration": 5.73
    },
    {
      "text": "be unable to manage the economy remember",
      "start": 488.409,
      "duration": 6.18
    },
    {
      "text": "how stable the economy has been since",
      "start": 491.709,
      "duration": 4.35
    },
    {
      "text": "the introduction of central banking in",
      "start": 494.589,
      "duration": 2.341
    },
    {
      "text": "the 20th century",
      "start": 496.059,
      "duration": 2.76
    },
    {
      "text": "remember how stable banking and the",
      "start": 496.93,
      "duration": 3.81
    },
    {
      "text": "economy has been since Nixon uncoupled",
      "start": 498.819,
      "duration": 3.6
    },
    {
      "text": "the US dollar from the gold standard in",
      "start": 500.74,
      "duration": 5.879
    },
    {
      "text": "1971 it's completely met what they don't",
      "start": 502.419,
      "duration": 5.941
    },
    {
      "text": "that when they say manage the economy",
      "start": 506.619,
      "duration": 4.08
    },
    {
      "text": "what they really mean is manipulate the",
      "start": 508.36,
      "duration": 5.479
    },
    {
      "text": "economy for the special interests of the",
      "start": 510.699,
      "duration": 6.03
    },
    {
      "text": "0.0001% who seem to control the vast",
      "start": 513.839,
      "duration": 7.93
    },
    {
      "text": "majority of the world's wealth so the",
      "start": 516.729,
      "duration": 8.04
    },
    {
      "text": "fact that we would be taking out the",
      "start": 521.769,
      "duration": 3.481
    },
    {
      "text": "power",
      "start": 524.769,
      "duration": 2.341
    },
    {
      "text": "to control interest rates and create",
      "start": 525.25,
      "duration": 6.02
    },
    {
      "text": "money from the moneyed classes I cannot",
      "start": 527.11,
      "duration": 6.75
    },
    {
      "text": "see as anything other than one of the",
      "start": 531.27,
      "duration": 5.41
    },
    {
      "text": "greatest boons that could ever happen to",
      "start": 533.86,
      "duration": 4.74
    },
    {
      "text": "the species at any time throughout",
      "start": 536.68,
      "duration": 11.19
    },
    {
      "text": "history now how big is the financial",
      "start": 538.6,
      "duration": 18.36
    },
    {
      "text": "sector well in a word very 20% of the",
      "start": 547.87,
      "duration": 10.8
    },
    {
      "text": "America of America's entire gross",
      "start": 556.96,
      "duration": 4.29
    },
    {
      "text": "domestic product is generated by",
      "start": 558.67,
      "duration": 5.94
    },
    {
      "text": "industries whose main function is to act",
      "start": 561.25,
      "duration": 6.06
    },
    {
      "text": "as a trusted third party and here I use",
      "start": 564.61,
      "duration": 7.89
    },
    {
      "text": "the word trusted extremely loosely US",
      "start": 567.31,
      "duration": 7.92
    },
    {
      "text": "bank fees alone generate 250 billion",
      "start": 572.5,
      "duration": 6.39
    },
    {
      "text": "dollars a year Global Payments related",
      "start": 575.23,
      "duration": 6.75
    },
    {
      "text": "revenues exceed 300 billion dollars a",
      "start": 578.89,
      "duration": 10.38
    },
    {
      "text": "year why is that so big why is that so",
      "start": 581.98,
      "duration": 12.18
    },
    {
      "text": "enormous and how big is that really well",
      "start": 589.27,
      "duration": 12.09
    },
    {
      "text": "it's it's terrifyingly big so just think",
      "start": 594.16,
      "duration": 10.679
    },
    {
      "text": "of this size so the sum of the u.s.",
      "start": 601.36,
      "duration": 6.479
    },
    {
      "text": "trust based service sectors which is",
      "start": 604.839,
      "duration": 7.071
    },
    {
      "text": "directly challenged by Bitcoin is 3.4",
      "start": 607.839,
      "duration": 9.141
    },
    {
      "text": "get ready for the T trillion dollars",
      "start": 611.91,
      "duration": 9.12
    },
    {
      "text": "three point four trillion dollars a year",
      "start": 616.98,
      "duration": 7.48
    },
    {
      "text": "not since the dawn of time or until the",
      "start": 621.03,
      "duration": 7.87
    },
    {
      "text": "Sun goes cold every single year how big",
      "start": 624.46,
      "duration": 7.26
    },
    {
      "text": "is that that's the size of Germany's",
      "start": 628.9,
      "duration": 6.84
    },
    {
      "text": "entire gross domestic product it's more",
      "start": 631.72,
      "duration": 6.09
    },
    {
      "text": "than half of Japan's gross domestic",
      "start": 635.74,
      "duration": 5.67
    },
    {
      "text": "product 41 percent of China's gross",
      "start": 637.81,
      "duration": 5.52
    },
    {
      "text": "domestic product and far bigger than the",
      "start": 641.41,
      "duration": 6.75
    },
    {
      "text": "United Kingdom the size of the financial",
      "start": 643.33,
      "duration": 8.55
    },
    {
      "text": "industry in the United States is the",
      "start": 648.16,
      "duration": 6.57
    },
    {
      "text": "size of the entire US gross domestic",
      "start": 651.88,
      "duration": 6.97
    },
    {
      "text": "product as recently as 1963",
      "start": 654.73,
      "duration": 10.28
    },
    {
      "text": "so big is the is the keyword now of",
      "start": 658.85,
      "duration": 7.69
    },
    {
      "text": "course payment transaction fees are",
      "start": 665.01,
      "duration": 3.69
    },
    {
      "text": "directly threatened by Bitcoin but of",
      "start": 666.54,
      "duration": 3.87
    },
    {
      "text": "course a Bitcoin technology in",
      "start": 668.7,
      "duration": 4.01
    },
    {
      "text": "particularly blockchain asset ledger and",
      "start": 670.41,
      "duration": 5.82
    },
    {
      "text": "the protocol could also challenge fees",
      "start": 672.71,
      "duration": 6.3
    },
    {
      "text": "on deposit fees foreign exchange fees",
      "start": 676.23,
      "duration": 5.7
    },
    {
      "text": "escrow trust management fees collection",
      "start": 679.01,
      "duration": 9.13
    },
    {
      "text": "fees etc etc etc so I think it's really",
      "start": 681.93,
      "duration": 9.44
    },
    {
      "text": "really important to understand how big",
      "start": 688.14,
      "duration": 8.64
    },
    {
      "text": "the behemoth is that bitcoin is facing",
      "start": 691.37,
      "duration": 9.43
    },
    {
      "text": "and there will of course be efforts made",
      "start": 696.78,
      "duration": 7.71
    },
    {
      "text": "on the part of the financial government",
      "start": 700.8,
      "duration": 7.44
    },
    {
      "text": "complex to keep the technology at bay",
      "start": 704.49,
      "duration": 7.38
    },
    {
      "text": "now my guess is that they don't and they",
      "start": 708.24,
      "duration": 5.43
    },
    {
      "text": "won't like if I sort of put on my doctor",
      "start": 711.87,
      "duration": 4.02
    },
    {
      "text": "evil hat and imagine if I'm sitting in",
      "start": 713.67,
      "duration": 4.23
    },
    {
      "text": "the enormous satanic fair known as the",
      "start": 715.89,
      "duration": 3.9
    },
    {
      "text": "enormous satanic chair known as the",
      "start": 717.9,
      "duration": 4.34
    },
    {
      "text": "Federal Reserve Chairman's but warmer I",
      "start": 719.79,
      "duration": 5.13
    },
    {
      "text": "would say well let's not kill it",
      "start": 722.24,
      "duration": 5.04
    },
    {
      "text": "completely let's not kill it outright",
      "start": 724.92,
      "duration": 5.46
    },
    {
      "text": "because it's big enough now that people",
      "start": 727.28,
      "duration": 4.87
    },
    {
      "text": "will see what we've done and nobody it",
      "start": 730.38,
      "duration": 3.3
    },
    {
      "text": "really disturbs the villagers when a",
      "start": 732.15,
      "duration": 3.75
    },
    {
      "text": "body falls from the sky so they don't",
      "start": 733.68,
      "duration": 4.31
    },
    {
      "text": "want to do that what they want to do is",
      "start": 735.9,
      "duration": 5.76
    },
    {
      "text": "they want to regulate it and what that",
      "start": 737.99,
      "duration": 4.93
    },
    {
      "text": "means and of course they're talking",
      "start": 741.66,
      "duration": 2.67
    },
    {
      "text": "about this in New York with the",
      "start": 742.92,
      "duration": 4.98
    },
    {
      "text": "licensing for Bitcoin exchanges there",
      "start": 744.33,
      "duration": 5.49
    },
    {
      "text": "was just a sting operation in Florida",
      "start": 747.9,
      "duration": 6.93
    },
    {
      "text": "where two men were charged with a",
      "start": 749.82,
      "duration": 7.62
    },
    {
      "text": "variety of crimes because they exchanged",
      "start": 754.83,
      "duration": 6.02
    },
    {
      "text": "a bitcoins personally one of the",
      "start": 757.44,
      "duration": 6.06
    },
    {
      "text": "fascinating and I guess lesser reported",
      "start": 760.85,
      "duration": 4.69
    },
    {
      "text": "aspects of that is that it was special",
      "start": 763.5,
      "duration": 5.28
    },
    {
      "text": "agent Ponzi who was involved in this",
      "start": 765.54,
      "duration": 5.22
    },
    {
      "text": "sting operation so what they're going to",
      "start": 768.78,
      "duration": 3.48
    },
    {
      "text": "try and do is they're just going to try",
      "start": 770.76,
      "duration": 5.7
    },
    {
      "text": "and not take out the revving engine with",
      "start": 772.26,
      "duration": 6
    },
    {
      "text": "an airstrike but just throw little bits",
      "start": 776.46,
      "duration": 3.63
    },
    {
      "text": "of sand in it little bits of sand in it",
      "start": 778.26,
      "duration": 5.01
    },
    {
      "text": "little bits of sand in it until most",
      "start": 780.09,
      "duration": 4.65
    },
    {
      "text": "people find it too difficult and",
      "start": 783.27,
      "duration": 2.91
    },
    {
      "text": "cumbersome to use and then say well it",
      "start": 784.74,
      "duration": 3.09
    },
    {
      "text": "was an interesting idea just didn't",
      "start": 786.18,
      "duration": 3.24
    },
    {
      "text": "quite work out the way that people",
      "start": 787.83,
      "duration": 4.44
    },
    {
      "text": "wanted and I think that is that is the",
      "start": 789.42,
      "duration": 3.21
    },
    {
      "text": "great",
      "start": 792.27,
      "duration": 4.32
    },
    {
      "text": "danger the first bank or the first",
      "start": 792.63,
      "duration": 5.91
    },
    {
      "text": "government that outlaws it completely I",
      "start": 796.59,
      "duration": 3.54
    },
    {
      "text": "think is basically revealing to the",
      "start": 798.54,
      "duration": 3.3
    },
    {
      "text": "world the weakness of their own currency",
      "start": 800.13,
      "duration": 3.96
    },
    {
      "text": "and that may have negative impacts for",
      "start": 801.84,
      "duration": 5.52
    },
    {
      "text": "them in the long run but my concern is",
      "start": 804.09,
      "duration": 7.08
    },
    {
      "text": "that if they make it very difficult not",
      "start": 807.36,
      "duration": 6.36
    },
    {
      "text": "impossible but if they make it more and",
      "start": 811.17,
      "duration": 5.01
    },
    {
      "text": "more difficult for honest law-abiding",
      "start": 813.72,
      "duration": 4.98
    },
    {
      "text": "citizens to use Bitcoin then it will of",
      "start": 816.18,
      "duration": 5.7
    },
    {
      "text": "course displace itself into the black",
      "start": 818.7,
      "duration": 5.52
    },
    {
      "text": "market and the gray market and then of",
      "start": 821.88,
      "duration": 3.81
    },
    {
      "text": "course then they'll say well you see we",
      "start": 824.22,
      "duration": 2.61
    },
    {
      "text": "told you it was going to be used for",
      "start": 825.69,
      "duration": 3.69
    },
    {
      "text": "crime let's get back to fiat currencies",
      "start": 826.83,
      "duration": 4.02
    },
    {
      "text": "which is never used for anything",
      "start": 829.38,
      "duration": 3.96
    },
    {
      "text": "destructive so I think that's an",
      "start": 830.85,
      "duration": 6.87
    },
    {
      "text": "important consideration so my my caution",
      "start": 833.34,
      "duration": 7.56
    },
    {
      "text": "my advice my concern is that what I see",
      "start": 837.72,
      "duration": 6.33
    },
    {
      "text": "in the Bitcoin community is quite a bit",
      "start": 840.9,
      "duration": 6.09
    },
    {
      "text": "of optimism and I would also a little",
      "start": 844.05,
      "duration": 6.69
    },
    {
      "text": "bit of political naivete the financial",
      "start": 846.99,
      "duration": 6.56
    },
    {
      "text": "sector is the biggest single contributor",
      "start": 850.74,
      "duration": 5.43
    },
    {
      "text": "to politicians at least in the United",
      "start": 853.55,
      "duration": 8.41
    },
    {
      "text": "States Obama himself was elected largely",
      "start": 856.17,
      "duration": 8.7
    },
    {
      "text": "because he took so much money from the",
      "start": 861.96,
      "duration": 4.74
    },
    {
      "text": "financial sector and what did they buy",
      "start": 864.87,
      "duration": 4.44
    },
    {
      "text": "with that money well hundreds of",
      "start": 866.7,
      "duration": 6.81
    },
    {
      "text": "billions of dollars of bailouts and zero",
      "start": 869.31,
      "duration": 8.43
    },
    {
      "text": "prosecution for their admitted crimes so",
      "start": 873.51,
      "duration": 7.11
    },
    {
      "text": "they are buying themselves government's",
      "start": 877.74,
      "duration": 6.12
    },
    {
      "text": "and all of the associated power that",
      "start": 880.62,
      "duration": 6.57
    },
    {
      "text": "comes with governments when you can buy",
      "start": 883.86,
      "duration": 6.42
    },
    {
      "text": "a government you pretty much a force to",
      "start": 887.19,
      "duration": 5.22
    },
    {
      "text": "be reckoned with and this is occurring",
      "start": 890.28,
      "duration": 5.16
    },
    {
      "text": "throughout the world originally",
      "start": 892.41,
      "duration": 4.29
    },
    {
      "text": "governments were more powerful than",
      "start": 895.44,
      "duration": 4.86
    },
    {
      "text": "banks but as the logic of late",
      "start": 896.7,
      "duration": 6.08
    },
    {
      "text": "capitalism democracy continues its",
      "start": 900.3,
      "duration": 5.66
    },
    {
      "text": "unsteady march towards the cliff edge",
      "start": 902.78,
      "duration": 5.65
    },
    {
      "text": "what's happening is government's stay in",
      "start": 905.96,
      "duration": 4.45
    },
    {
      "text": "power by promising more to their",
      "start": 908.43,
      "duration": 3.42
    },
    {
      "text": "citizens than they're collecting in",
      "start": 910.41,
      "duration": 5.76
    },
    {
      "text": "taxes they can't do that mathematically",
      "start": 911.85,
      "duration": 5.88
    },
    {
      "text": "right if I'm a politician and I come to",
      "start": 916.17,
      "duration": 3.75
    },
    {
      "text": "you and say you know vote for me and",
      "start": 917.73,
      "duration": 3.78
    },
    {
      "text": "I'll give you five hundred dollars I",
      "start": 919.92,
      "duration": 3.96
    },
    {
      "text": "just need to tax you a thousand dollars",
      "start": 921.51,
      "duration": 4.38
    },
    {
      "text": "first then people will get that that's a",
      "start": 923.88,
      "duration": 2.699
    },
    {
      "text": "money-losing",
      "start": 925.89,
      "duration": 3.239
    },
    {
      "text": "opposition but if they say I'll give you",
      "start": 926.579,
      "duration": 4.17
    },
    {
      "text": "five hundred dollars and then they",
      "start": 929.129,
      "duration": 3.89
    },
    {
      "text": "create that money out of thin air and",
      "start": 930.749,
      "duration": 4.83
    },
    {
      "text": "the effects then slowly ripple through",
      "start": 933.019,
      "duration": 4.271
    },
    {
      "text": "the economy and there's not one more",
      "start": 935.579,
      "duration": 4.11
    },
    {
      "text": "than one person in a thousand who can",
      "start": 937.29,
      "duration": 5.88
    },
    {
      "text": "trace eighteen months later inflation to",
      "start": 939.689,
      "duration": 6.18
    },
    {
      "text": "fiat currency creation during times of",
      "start": 943.17,
      "duration": 5.579
    },
    {
      "text": "Elections then they can give you the",
      "start": 945.869,
      "duration": 6.18
    },
    {
      "text": "illusion of the government adding value",
      "start": 948.749,
      "duration": 7.59
    },
    {
      "text": "or creating value in the economy that",
      "start": 952.049,
      "duration": 8.611
    },
    {
      "text": "process is so necessary for politicians",
      "start": 956.339,
      "duration": 6.15
    },
    {
      "text": "to get elected they need to promise more",
      "start": 960.66,
      "duration": 3.69
    },
    {
      "text": "than their collecting in taxes and the",
      "start": 962.489,
      "duration": 3.21
    },
    {
      "text": "only way they can do that is to create",
      "start": 964.35,
      "duration": 3.329
    },
    {
      "text": "money and then they have to suppress",
      "start": 965.699,
      "duration": 4.05
    },
    {
      "text": "interest rates to avoid the resulting",
      "start": 967.679,
      "duration": 4.051
    },
    {
      "text": "inflation that comes from being excuse",
      "start": 969.749,
      "duration": 4.13
    },
    {
      "text": "me the inflation of the money supply",
      "start": 971.73,
      "duration": 6.539
    },
    {
      "text": "that process is so far along that I",
      "start": 973.879,
      "duration": 6.01
    },
    {
      "text": "would argue governments are absolutely",
      "start": 978.269,
      "duration": 3.78
    },
    {
      "text": "dependent upon the goodwill of central",
      "start": 979.889,
      "duration": 4.92
    },
    {
      "text": "banks which is why they don't prosecute",
      "start": 982.049,
      "duration": 6.48
    },
    {
      "text": "them which is why they bribe them with",
      "start": 984.809,
      "duration": 5.43
    },
    {
      "text": "money that they themselves have created",
      "start": 988.529,
      "duration": 4.05
    },
    {
      "text": "the banks themselves have created it is",
      "start": 990.239,
      "duration": 4.82
    },
    {
      "text": "an unholy alliance and it is generally",
      "start": 992.579,
      "duration": 6.72
    },
    {
      "text": "invisible to the majority of citizens in",
      "start": 995.059,
      "duration": 8.14
    },
    {
      "text": "the world it is a very abstract virus",
      "start": 999.299,
      "duration": 7.741
    },
    {
      "text": "you know we generally get for our fight",
      "start": 1003.199,
      "duration": 5.22
    },
    {
      "text": "and flight mechanism when a",
      "start": 1007.04,
      "duration": 4.019
    },
    {
      "text": "saber-toothed tiger jumps out of a cave",
      "start": 1008.419,
      "duration": 6.33
    },
    {
      "text": "but at this point the predation on the",
      "start": 1011.059,
      "duration": 6.09
    },
    {
      "text": "general citizen is so deferred through",
      "start": 1014.749,
      "duration": 4.95
    },
    {
      "text": "national debts is so invisible through",
      "start": 1017.149,
      "duration": 5.49
    },
    {
      "text": "inflation and requires such an oily and",
      "start": 1019.699,
      "duration": 5.72
    },
    {
      "text": "abstract and ethereal matcha nation of",
      "start": 1022.639,
      "duration": 5.04
    },
    {
      "text": "financial interests and obfuscation",
      "start": 1025.419,
      "duration": 5.831
    },
    {
      "text": "people can't see it so be careful when",
      "start": 1027.679,
      "duration": 4.801
    },
    {
      "text": "you're out there in the Bitcoin world",
      "start": 1031.25,
      "duration": 3
    },
    {
      "text": "talk to lawyers talk to accountants make",
      "start": 1032.48,
      "duration": 3.9
    },
    {
      "text": "sure you declare things where necessary",
      "start": 1034.25,
      "duration": 3.87
    },
    {
      "text": "make sure you stay on the right side of",
      "start": 1036.38,
      "duration": 4.949
    },
    {
      "text": "things don't become the equivalent of",
      "start": 1038.12,
      "duration": 5.01
    },
    {
      "text": "the seventh head of the Nobel that they",
      "start": 1041.329,
      "duration": 4.051
    },
    {
      "text": "put on pikes in the French Revolution",
      "start": 1043.13,
      "duration": 4.23
    },
    {
      "text": "don't become the example that scares",
      "start": 1045.38,
      "duration": 3.87
    },
    {
      "text": "other people away from what I've argued",
      "start": 1047.36,
      "duration": 3.809
    },
    {
      "text": "is the most beneficial technology to hit",
      "start": 1049.25,
      "duration": 4.62
    },
    {
      "text": "mankind since we first figured out how",
      "start": 1051.169,
      "duration": 5.421
    },
    {
      "text": "to make fire",
      "start": 1053.87,
      "duration": 2.72
    }
  ],
  "Errors": null,
  "TranscriptStderr": null
}