{
  "Title": "38 Philosophy Questions in 6 Minutes",
  "Id": "udLsGJbw4Hs",
  "Transcript": [
    {
      "text": "Who, in your opinion, is the enemy?\nWillful ignorance.",
      "start": 2.1,
      "duration": 4.929
    },
    {
      "text": "Do you believe 9-1-1 was an inside job?\nThe US government was responsible for 9/11,",
      "start": 7.029,
      "duration": 7.011
    },
    {
      "text": "through killing millions of Muslims, and supporting\nMiddle Eastern, in its endless foreign policy",
      "start": 14.04,
      "duration": 8.37
    },
    {
      "text": "disasters. I don’t have the expertise to\njudge the science, and it doesn’t matter.",
      "start": 22.41,
      "duration": 5.289
    },
    {
      "text": "There are enough admitted crimes already.",
      "start": 27.699,
      "duration": 7.481
    },
    {
      "text": "Which strategy for liberty?\nPeaceful parenting.",
      "start": 35.18,
      "duration": 6.71
    },
    {
      "text": "Do you need god to be good?\nYou cannot be good with gods, you can only",
      "start": 41.89,
      "duration": 5.57
    },
    {
      "text": "be obedient, which is amoral at best.",
      "start": 47.46,
      "duration": 5.419
    },
    {
      "text": "Would you circumcise your son?\nNo, and I would not cut the ears off my daughter",
      "start": 52.879,
      "duration": 4.721
    },
    {
      "text": "either.",
      "start": 57.6,
      "duration": 2.229
    },
    {
      "text": "Would you like to see the government taxing\nthe rich rather than the poor?",
      "start": 59.829,
      "duration": 4.33
    },
    {
      "text": "No amount of violence will solve our social\nproblems, it doesn't matter who the target",
      "start": 64.159,
      "duration": 4.07
    },
    {
      "text": "is.",
      "start": 68.229,
      "duration": 1.231
    },
    {
      "text": "Is there a God?\nNo.",
      "start": 69.46,
      "duration": 6.199
    },
    {
      "text": "What do you consider yourself politically?\nAnti.",
      "start": 75.659,
      "duration": 6.191
    },
    {
      "text": "Is it ok to jail children violently for experimenting\nwith Cannabis?",
      "start": 81.85,
      "duration": 5.18
    },
    {
      "text": "No, but someone should help the parents, who\nclearly aren't doing a great job.",
      "start": 87.03,
      "duration": 6.22
    },
    {
      "text": "If you had to pick one way to solve the national\neconomic crisis, what would it be?",
      "start": 93.25,
      "duration": 6.299
    },
    {
      "text": "Politicians need to put the guns down.",
      "start": 99.549,
      "duration": 3.93
    },
    {
      "text": "If you had to describe love (and its corollaries...compassion,\njustice, social justice, empathy, equality,",
      "start": 103.479,
      "duration": 5.041
    },
    {
      "text": "etc..), how would you do it?\nLove is our involuntary response to virtue,",
      "start": 108.52,
      "duration": 9.4
    },
    {
      "text": "if we are virtuous.",
      "start": 117.92,
      "duration": 5.1
    },
    {
      "text": "Best underdog of all time...\nThe majority.",
      "start": 123.02,
      "duration": 5.82
    },
    {
      "text": "Who would you like to see win the 2012 Presidential\nRace?",
      "start": 128.84,
      "duration": 5.09
    },
    {
      "text": "The majority, i.e. no politicians.",
      "start": 133.93,
      "duration": 6.68
    },
    {
      "text": "Tattooing a minor is illegal in the US. Do\nyou think piercing of minors should be illegal",
      "start": 140.61,
      "duration": 3.86
    },
    {
      "text": "too?\nI don't believe in laws. There are far better",
      "start": 144.47,
      "duration": 2.92
    },
    {
      "text": "ways of protecting children than pointing\nguns at parents.",
      "start": 147.39,
      "duration": 4.06
    },
    {
      "text": "Why am I so fucked up?\nBecause you were propagandized by the state,",
      "start": 151.45,
      "duration": 8.17
    },
    {
      "text": "lied to by politicians, and exploited by the\nnational debts of a vampiric democracy.",
      "start": 159.62,
      "duration": 10.97
    },
    {
      "text": "Bernard Von NotHaus committed the crime of\nmaking a virtual currency and the US Govt",
      "start": 170.59,
      "duration": 4.789
    },
    {
      "text": "labels him an economic terrorist. Who's the\nreal terrorist?",
      "start": 175.379,
      "duration": 4.511
    },
    {
      "text": "False philosophers. Mostly academics.",
      "start": 179.89,
      "duration": 3.02
    },
    {
      "text": "Who should be Ron Paul's VP candidate in 2012?\nSam Harris, to balance his religious fundamentalism.",
      "start": 182.91,
      "duration": 11.88
    },
    {
      "text": "Should our elected officials be subjected\nto the same polygraph testing requirements",
      "start": 194.79,
      "duration": 3.53
    },
    {
      "text": "as our police?\nNo, because they're much better liars.",
      "start": 198.32,
      "duration": 6
    },
    {
      "text": "Have you ever contributed to a Ron Paul Moneybomb?\nNo. I don't like the last syllable.",
      "start": 204.32,
      "duration": 7.32
    },
    {
      "text": "Would you grant anyone Power the right to\ndeprive you of the things you need to Survive?",
      "start": 211.64,
      "duration": 4.96
    },
    {
      "text": "No.",
      "start": 216.6,
      "duration": 1.1
    },
    {
      "text": "If new technologies would arrive that would\nextend life indefinitely (provided that you",
      "start": 217.7,
      "duration": 4.12
    },
    {
      "text": "would be rejuvenated to a healthy 20-30 something)\nwould you do it?",
      "start": 221.82,
      "duration": 3.54
    },
    {
      "text": "Absolutely.",
      "start": 225.36,
      "duration": 4.61
    },
    {
      "text": "Should products and services be provided at\ngun-point?",
      "start": 229.97,
      "duration": 4.34
    },
    {
      "text": "Only self-defense.",
      "start": 234.31,
      "duration": 3.4
    },
    {
      "text": "Do you find anime girls to be sexy?\nNo, those Bambi-eyes creep me out.",
      "start": 237.71,
      "duration": 6.78
    },
    {
      "text": "What is the worst government program?\nThe law.",
      "start": 244.49,
      "duration": 6.79
    },
    {
      "text": "What is your opinion of Bradley Manning?\nHe is a tragic and instructive sacrifice.",
      "start": 251.28,
      "duration": 8.29
    },
    {
      "text": "Please tell us who you would most likely support\nfor the Republican nomination for President",
      "start": 259.57,
      "duration": 3.91
    },
    {
      "text": "in 2012.\nA hand puppet, a ghost, Santa Claus or Gandalf.",
      "start": 263.48,
      "duration": 8.43
    },
    {
      "text": "Who's your favorite economist?\nAs long as he's not writing history, Murray",
      "start": 271.91,
      "duration": 5.91
    },
    {
      "text": "Rothbard. I find his historical works very\ndull reading.",
      "start": 277.82,
      "duration": 5.63
    },
    {
      "text": "Do you support a tax increase for Americans\nmaking over $250,000 per year?",
      "start": 283.45,
      "duration": 6.06
    },
    {
      "text": "Only if they are government employees, at\nwhich point the tax should be 100%.",
      "start": 289.51,
      "duration": 6.87
    },
    {
      "text": "What is your preferred web browser?\nChrome for speed.",
      "start": 296.38,
      "duration": 6.3
    },
    {
      "text": "What kind of anarchist are you?\nThe philosophical kind.",
      "start": 302.68,
      "duration": 6.44
    },
    {
      "text": "Who do you think won the first Republican\npresidential debate?",
      "start": 309.12,
      "duration": 3.82
    },
    {
      "text": "Everyone except the economically productive.",
      "start": 312.94,
      "duration": 4.37
    },
    {
      "text": "We need your help! What topic should the Canadian\nAwareness Network now focus most of our resources",
      "start": 317.31,
      "duration": 4.32
    },
    {
      "text": "on to create some real change in this country?\nChild abuse.",
      "start": 321.63,
      "duration": 6.95
    },
    {
      "text": "What is your favorite hot drink?\nLatte.",
      "start": 328.58,
      "duration": 5.18
    },
    {
      "text": "Is it a valid parental right to amputate healthy\nbody parts from children?",
      "start": 333.76,
      "duration": 5.73
    },
    {
      "text": "No, and this includes their brains, i.e. sending\nthem to public schools.",
      "start": 339.49,
      "duration": 9.68
    },
    {
      "text": "If you could work on a movie which job would\nyou want?",
      "start": 349.17,
      "duration": 3.37
    },
    {
      "text": "Writer, it's the only one that really matters.",
      "start": 352.54,
      "duration": 4.29
    },
    {
      "text": "Do you support the PATRIOT Act?\nI oppose the initiation of force in all its",
      "start": 356.83,
      "duration": 5.51
    },
    {
      "text": "forms.",
      "start": 362.34,
      "duration": 1
    },
    {
      "text": "Should you be arrested for dancing at the\nJefferson Memorial?",
      "start": 363.34,
      "duration": 4.31
    },
    {
      "text": "Only if you're vogueing.",
      "start": 367.65,
      "duration": 1
    },
    {
      "text": "Do you want genetically modified food on your\nplate?",
      "start": 368.65,
      "duration": 5.86
    },
    {
      "text": "I want the free market to decide what kind\nof food I eat, not the state.",
      "start": 374.51,
      "duration": 4.22
    }
  ],
  "Errors": null,
  "TranscriptStderr": null
}