{
  "Title": "Sen. Al Franken's Insane Resignation Speech | True News",
  "Id": "UEiwRwHcKmY",
  "Transcript": [
    {
      "text": "everybody's tatin molyneux hope you're",
      "start": 0.06,
      "duration": 3.27
    },
    {
      "text": "doing well don't panic if you're",
      "start": 1.74,
      "duration": 4.139
    },
    {
      "text": "watching video I've just replaced the",
      "start": 3.33,
      "duration": 4.739
    },
    {
      "text": "white ping-pong room with a giant bar of",
      "start": 5.879,
      "duration": 5.76
    },
    {
      "text": "chocolate so some very interesting stuff",
      "start": 8.069,
      "duration": 5.07
    },
    {
      "text": "going on politically at the moment and",
      "start": 11.639,
      "duration": 3.361
    },
    {
      "text": "more than politically to me this is in",
      "start": 13.139,
      "duration": 4.98
    },
    {
      "text": "terms of sophistry and philosophy of",
      "start": 15,
      "duration": 6.3
    },
    {
      "text": "very well as to say teachable moments so",
      "start": 18.119,
      "duration": 7.051
    },
    {
      "text": "Al Franken has just resigned he",
      "start": 21.3,
      "duration": 7.38
    },
    {
      "text": "announced this shortly ago and it's",
      "start": 25.17,
      "duration": 6.09
    },
    {
      "text": "really really fascinating all the",
      "start": 28.68,
      "duration": 4.44
    },
    {
      "text": "threads that are going through American",
      "start": 31.26,
      "duration": 4.049
    },
    {
      "text": "politics at the moment so we're going to",
      "start": 33.12,
      "duration": 4.2
    },
    {
      "text": "have a look at the speech and I really",
      "start": 35.309,
      "duration": 4.201
    },
    {
      "text": "want you to understand how this language",
      "start": 37.32,
      "duration": 5.88
    },
    {
      "text": "works and what it means so he starts by",
      "start": 39.51,
      "duration": 5.58
    },
    {
      "text": "saying I won't read the whole speech but",
      "start": 43.2,
      "duration": 3.21
    },
    {
      "text": "he starts by saying a couple of months",
      "start": 45.09,
      "duration": 2.67
    },
    {
      "text": "ago I felt that we had entered an",
      "start": 46.41,
      "duration": 2.55
    },
    {
      "text": "important moment in the history of this",
      "start": 47.76,
      "duration": 1.68
    },
    {
      "text": "country",
      "start": 48.96,
      "duration": 2.489
    },
    {
      "text": "we were finally beginning to listen to",
      "start": 49.44,
      "duration": 3.42
    },
    {
      "text": "women about the ways in which men's",
      "start": 51.449,
      "duration": 4.921
    },
    {
      "text": "actions affect them that moment was long",
      "start": 52.86,
      "duration": 4.89
    },
    {
      "text": "overdue I was excited for that",
      "start": 56.37,
      "duration": 2.759
    },
    {
      "text": "conversation and hopeful that it would",
      "start": 57.75,
      "duration": 3.69
    },
    {
      "text": "result in real change that made life",
      "start": 59.129,
      "duration": 4.11
    },
    {
      "text": "better for women all across the country",
      "start": 61.44,
      "duration": 6.78
    },
    {
      "text": "and in every part of our society now",
      "start": 63.239,
      "duration": 8.791
    },
    {
      "text": "this is very interesting the language",
      "start": 68.22,
      "duration": 5.7
    },
    {
      "text": "none of this is accidental language is",
      "start": 72.03,
      "duration": 6.629
    },
    {
      "text": "very very carefully chosen so first of",
      "start": 73.92,
      "duration": 7.83
    },
    {
      "text": "all Al Franken he worked in Hollywood he",
      "start": 78.659,
      "duration": 5.551
    },
    {
      "text": "worked on television he made a movies",
      "start": 81.75,
      "duration": 6.18
    },
    {
      "text": "medic Apple in movies and the idea that",
      "start": 84.21,
      "duration": 7.17
    },
    {
      "text": "he had no idea of any sexual sexual",
      "start": 87.93,
      "duration": 5.67
    },
    {
      "text": "predation that occurred in Hollywood is",
      "start": 91.38,
      "duration": 4.71
    },
    {
      "text": "beyond comprehension especially because",
      "start": 93.6,
      "duration": 4.47
    },
    {
      "text": "he has been accused I think it's up to",
      "start": 96.09,
      "duration": 4.23
    },
    {
      "text": "eight women now of groping and grabbing",
      "start": 98.07,
      "duration": 3.479
    },
    {
      "text": "and there is of course the infamous",
      "start": 100.32,
      "duration": 3.96
    },
    {
      "text": "picture of him grabbing at the woman's",
      "start": 101.549,
      "duration": 4.801
    },
    {
      "text": "breasts on the airplane when she's",
      "start": 104.28,
      "duration": 5.549
    },
    {
      "text": "fallen asleep so the idea that this",
      "start": 106.35,
      "duration": 6.42
    },
    {
      "text": "conversation he knew nothing about any",
      "start": 109.829,
      "duration": 5.281
    },
    {
      "text": "form of sexual predation upon women",
      "start": 112.77,
      "duration": 4.83
    },
    {
      "text": "beforehand but he welcomes a",
      "start": 115.11,
      "duration": 4.35
    },
    {
      "text": "conversation that kind of comes out of",
      "start": 117.6,
      "duration": 5.07
    },
    {
      "text": "nowhere well you know there's pictures",
      "start": 119.46,
      "duration": 7.38
    },
    {
      "text": "of him grabbing it joy the woman from",
      "start": 122.67,
      "duration": 5.64
    },
    {
      "text": "the view joy bear her I think his name",
      "start": 126.84,
      "duration": 3.99
    },
    {
      "text": "is and so the idea that he had",
      "start": 128.31,
      "duration": 4.78
    },
    {
      "text": "absolutely no clue no",
      "start": 130.83,
      "duration": 4.78
    },
    {
      "text": "of any form of sexual predation when",
      "start": 133.09,
      "duration": 4.02
    },
    {
      "text": "he'd worked in television late-night",
      "start": 135.61,
      "duration": 3
    },
    {
      "text": "comedy television when he'd worked",
      "start": 137.11,
      "duration": 3.989
    },
    {
      "text": "making movies when he had been in around",
      "start": 138.61,
      "duration": 3.51
    },
    {
      "text": "the entertainment industry for decades",
      "start": 141.099,
      "duration": 3.961
    },
    {
      "text": "come on come on yeah I mean you'd have",
      "start": 142.12,
      "duration": 5.369
    },
    {
      "text": "to be naive to the point of being",
      "start": 145.06,
      "duration": 4.53
    },
    {
      "text": "completely vacuous and retarded to think",
      "start": 147.489,
      "duration": 4.08
    },
    {
      "text": "that he'd never had he'd never heard",
      "start": 149.59,
      "duration": 4.02
    },
    {
      "text": "even the slightest whisper so he could",
      "start": 151.569,
      "duration": 3.75
    },
    {
      "text": "have brought this conversation about at",
      "start": 153.61,
      "duration": 4.56
    },
    {
      "text": "any time but he didn't so they were",
      "start": 155.319,
      "duration": 4.621
    },
    {
      "text": "finally beginning to listen to women",
      "start": 158.17,
      "duration": 4.41
    },
    {
      "text": "about the ways now listen to this Jim we",
      "start": 159.94,
      "duration": 4.29
    },
    {
      "text": "were finally beginning to listen to the",
      "start": 162.58,
      "duration": 3.239
    },
    {
      "text": "listen to women about the ways in which",
      "start": 164.23,
      "duration": 8.729
    },
    {
      "text": "men's actions affect them that's very",
      "start": 165.819,
      "duration": 11.971
    },
    {
      "text": "interesting so let's say someone Rob's",
      "start": 172.959,
      "duration": 9.451
    },
    {
      "text": "your house and the police show up and",
      "start": 177.79,
      "duration": 7.259
    },
    {
      "text": "they say we really want to listen to how",
      "start": 182.41,
      "duration": 6.659
    },
    {
      "text": "this robbery has affected you hmm",
      "start": 185.049,
      "duration": 8.991
    },
    {
      "text": "you see the rampant subterranean sexism",
      "start": 189.069,
      "duration": 7.53
    },
    {
      "text": "in this comment is really really",
      "start": 194.04,
      "duration": 4.419
    },
    {
      "text": "important because if the police show up",
      "start": 196.599,
      "duration": 3.571
    },
    {
      "text": "and say oh been robbed - have you well",
      "start": 198.459,
      "duration": 3.84
    },
    {
      "text": "we'd love to sit down and interview you",
      "start": 200.17,
      "duration": 4.14
    },
    {
      "text": "for hours about how this has affected",
      "start": 202.299,
      "duration": 5.75
    },
    {
      "text": "you do you feel unhappy do you feel",
      "start": 204.31,
      "duration": 7.739
    },
    {
      "text": "unsafe do you feel that you have been",
      "start": 208.049,
      "duration": 7.541
    },
    {
      "text": "violated and and you'd say I don't want",
      "start": 212.049,
      "duration": 5.851
    },
    {
      "text": "to talk about my feelings I want you to",
      "start": 215.59,
      "duration": 4.85
    },
    {
      "text": "catch the criminal and get my stuff back",
      "start": 217.9,
      "duration": 5.16
    },
    {
      "text": "right this is very a very interesting",
      "start": 220.44,
      "duration": 4.6
    },
    {
      "text": "finally beginning to listen to him about",
      "start": 223.06,
      "duration": 3.81
    },
    {
      "text": "the ways in which men's actions affect",
      "start": 225.04,
      "duration": 6.779
    },
    {
      "text": "them not the man sexually preyed upon",
      "start": 226.87,
      "duration": 8.19
    },
    {
      "text": "women against ethics against the law and",
      "start": 231.819,
      "duration": 4.771
    },
    {
      "text": "certainly against most company's",
      "start": 235.06,
      "duration": 5.67
    },
    {
      "text": "policies you know when he's given the",
      "start": 236.59,
      "duration": 8.1
    },
    {
      "text": "honkey hands to the woman who's fallen",
      "start": 240.73,
      "duration": 7.8
    },
    {
      "text": "asleep on the airplane she and when she",
      "start": 244.69,
      "duration": 5.37
    },
    {
      "text": "claims like he was stuffing his tongue",
      "start": 248.53,
      "duration": 3.84
    },
    {
      "text": "down her throat like you as a",
      "start": 250.06,
      "duration": 7.41
    },
    {
      "text": "proctologist who'd lost a watch and the",
      "start": 252.37,
      "duration": 7.589
    },
    {
      "text": "idea that that well I I need to I need",
      "start": 257.47,
      "duration": 4.62
    },
    {
      "text": "to hear how my actions have affected you",
      "start": 259.959,
      "duration": 4.411
    },
    {
      "text": "know what you did was wrong",
      "start": 262.09,
      "duration": 4.26
    },
    {
      "text": "she did was wrong",
      "start": 264.37,
      "duration": 4.32
    },
    {
      "text": "well it's either morally wrong it's",
      "start": 266.35,
      "duration": 4.71
    },
    {
      "text": "against procedure for most organizations",
      "start": 268.69,
      "duration": 7.35
    },
    {
      "text": "or it's criminal so the important thing",
      "start": 271.06,
      "duration": 8.52
    },
    {
      "text": "is not how the women feel about being",
      "start": 276.04,
      "duration": 6.38
    },
    {
      "text": "grabbed and groped and raped and abused",
      "start": 279.58,
      "duration": 5.97
    },
    {
      "text": "it's not how they how how did the",
      "start": 282.42,
      "duration": 6.25
    },
    {
      "text": "actions affect them now it doesn't oh my",
      "start": 285.55,
      "duration": 3.6
    },
    {
      "text": "god",
      "start": 288.67,
      "duration": 2.79
    },
    {
      "text": "what can you even say what can you even",
      "start": 289.15,
      "duration": 5.97
    },
    {
      "text": "say so he's talking about how great this",
      "start": 291.46,
      "duration": 5.49
    },
    {
      "text": "conversation is and then he says then",
      "start": 295.12,
      "duration": 5.04
    },
    {
      "text": "the conversation turned to me over the",
      "start": 296.95,
      "duration": 4.35
    },
    {
      "text": "last few weeks a number of women have",
      "start": 300.16,
      "duration": 3.48
    },
    {
      "text": "come forward to talk about how they felt",
      "start": 301.3,
      "duration": 6.39
    },
    {
      "text": "my actions had affected the pool you see",
      "start": 303.64,
      "duration": 8.52
    },
    {
      "text": "we're back to how women feel how they",
      "start": 307.69,
      "duration": 8.85
    },
    {
      "text": "feel what their feelings are no they're",
      "start": 312.16,
      "duration": 6.15
    },
    {
      "text": "not talking about how of course they",
      "start": 316.54,
      "duration": 3.48
    },
    {
      "text": "have mentioned their feelings if",
      "start": 318.31,
      "duration": 4.71
    },
    {
      "text": "somebody says to someone you got robbed",
      "start": 320.02,
      "duration": 5.19
    },
    {
      "text": "and so I'm angry I'm horrified but it's",
      "start": 323.02,
      "duration": 3.63
    },
    {
      "text": "not the feelings that matters not the",
      "start": 325.21,
      "duration": 8.85
    },
    {
      "text": "feelings that Kant felt deal effect come",
      "start": 326.65,
      "duration": 8.85
    },
    {
      "text": "forward to talk about how they felt my",
      "start": 334.06,
      "duration": 3.48
    },
    {
      "text": "actions had affected them I was shocked",
      "start": 335.5,
      "duration": 7.2
    },
    {
      "text": "I was upset ah mm-hmm see you can't help",
      "start": 337.54,
      "duration": 6.3
    },
    {
      "text": "it when you have this kind of",
      "start": 342.7,
      "duration": 5.49
    },
    {
      "text": "personality you just can't help it when",
      "start": 343.84,
      "duration": 5.88
    },
    {
      "text": "you're talking about how great it is to",
      "start": 348.19,
      "duration": 5.73
    },
    {
      "text": "listen to women about how predatory",
      "start": 349.72,
      "duration": 7.47
    },
    {
      "text": "actions have affected them then the",
      "start": 353.92,
      "duration": 5.67
    },
    {
      "text": "first thing al franken talks about are",
      "start": 357.19,
      "duration": 5.85
    },
    {
      "text": "his own feelings you see how this works",
      "start": 359.59,
      "duration": 6.9
    },
    {
      "text": "the first thing that Al Franken talks",
      "start": 363.04,
      "duration": 9.23
    },
    {
      "text": "about or his own I was shot I was upset",
      "start": 366.49,
      "duration": 5.78
    },
    {
      "text": "can't can't process other people's",
      "start": 372.84,
      "duration": 6.46
    },
    {
      "text": "emotions can't process what has happened",
      "start": 375.16,
      "duration": 5.55
    },
    {
      "text": "to other people can only talk about",
      "start": 379.3,
      "duration": 5.13
    },
    {
      "text": "yourself he goes on to say but in",
      "start": 380.71,
      "duration": 5.64
    },
    {
      "text": "responding to their claims I also wanted",
      "start": 384.43,
      "duration": 3.93
    },
    {
      "text": "to be respectful of that broader",
      "start": 386.35,
      "duration": 3.96
    },
    {
      "text": "conversation because all women deserve",
      "start": 388.36,
      "duration": 4.23
    },
    {
      "text": "to be heard and their experiences taken",
      "start": 390.31,
      "duration": 9.81
    },
    {
      "text": "seriously see again if a man has robbed",
      "start": 392.59,
      "duration": 10.89
    },
    {
      "text": "your house and he's caught and he says",
      "start": 400.12,
      "duration": 5.58
    },
    {
      "text": "well I want to be respectful of the",
      "start": 403.48,
      "duration": 3.689
    },
    {
      "text": "broader conversation about property",
      "start": 405.7,
      "duration": 4.35
    },
    {
      "text": "rights and theft and and how people feel",
      "start": 407.169,
      "duration": 4.741
    },
    {
      "text": "about it because all of my victims",
      "start": 410.05,
      "duration": 3.51
    },
    {
      "text": "deserve to be heard and their experience",
      "start": 411.91,
      "duration": 3.69
    },
    {
      "text": "is taken seriously you would understand",
      "start": 413.56,
      "duration": 5.07
    },
    {
      "text": "that he's not saying I was wrong to rob",
      "start": 415.6,
      "duration": 6.06
    },
    {
      "text": "your house I am a terrible person for",
      "start": 418.63,
      "duration": 5.46
    },
    {
      "text": "having done that I really want to do",
      "start": 421.66,
      "duration": 4.53
    },
    {
      "text": "better and I have to figure out how I",
      "start": 424.09,
      "duration": 5.28
    },
    {
      "text": "ended up to be such a terrible horrible",
      "start": 426.19,
      "duration": 7.11
    },
    {
      "text": "nasty thief when that would be taking",
      "start": 429.37,
      "duration": 5.16
    },
    {
      "text": "ownership that would be taking",
      "start": 433.3,
      "duration": 3.75
    },
    {
      "text": "responsibility but if the thief says",
      "start": 434.53,
      "duration": 4.71
    },
    {
      "text": "well all of the people I've robbed",
      "start": 437.05,
      "duration": 3.75
    },
    {
      "text": "deserve to be heard and their",
      "start": 439.24,
      "duration": 3.3
    },
    {
      "text": "experiences need to be taken seriously",
      "start": 440.8,
      "duration": 3.72
    },
    {
      "text": "you'd be like what are you talking about",
      "start": 442.54,
      "duration": 6.62
    },
    {
      "text": "don't get it at all don't get it at all",
      "start": 444.52,
      "duration": 7.77
    },
    {
      "text": "so he's saying all women deserve to be",
      "start": 449.16,
      "duration": 4.48
    },
    {
      "text": "heard and their experience is taken",
      "start": 452.29,
      "duration": 5.16
    },
    {
      "text": "seriously except he's only talking about",
      "start": 453.64,
      "duration": 8.19
    },
    {
      "text": "his own feelings and he's only ever",
      "start": 457.45,
      "duration": 6.06
    },
    {
      "text": "indicating that the important thing is",
      "start": 461.83,
      "duration": 3.18
    },
    {
      "text": "how the woman felt about it not what he",
      "start": 463.51,
      "duration": 5.31
    },
    {
      "text": "did he goes on to say I think that was",
      "start": 465.01,
      "duration": 5.37
    },
    {
      "text": "the right thing to do I also think it",
      "start": 468.82,
      "duration": 2.76
    },
    {
      "text": "gave some people the false impression",
      "start": 470.38,
      "duration": 2.76
    },
    {
      "text": "that I was admitting to doing things",
      "start": 471.58,
      "duration": 4.5
    },
    {
      "text": "that in fact I haven't done some of the",
      "start": 473.14,
      "duration": 4.83
    },
    {
      "text": "allegations against me are simply not",
      "start": 476.08,
      "duration": 5.48
    },
    {
      "text": "true others I remember very differently",
      "start": 477.97,
      "duration": 4.77
    },
    {
      "text": "mm-hmm",
      "start": 481.56,
      "duration": 3.52
    },
    {
      "text": "see it's really really important you see",
      "start": 482.74,
      "duration": 4.86
    },
    {
      "text": "to take all women deserve to be heard",
      "start": 485.08,
      "duration": 4.22
    },
    {
      "text": "and their experience is taken seriously",
      "start": 487.6,
      "duration": 3.78
    },
    {
      "text": "but there are kind of a bunch of crazy",
      "start": 489.3,
      "duration": 6.49
    },
    {
      "text": "liars mm-hmm what that fits together in",
      "start": 491.38,
      "duration": 6.66
    },
    {
      "text": "the Rubik's Cube of leftist thinking",
      "start": 495.79,
      "duration": 4.23
    },
    {
      "text": "that is quite something",
      "start": 498.04,
      "duration": 3.78
    },
    {
      "text": "admitting to doing things that in fact I",
      "start": 500.02,
      "duration": 4.02
    },
    {
      "text": "haven't done well there is that picture",
      "start": 501.82,
      "duration": 5.82
    },
    {
      "text": "out yes the grabby hands picture where",
      "start": 504.04,
      "duration": 6.72
    },
    {
      "text": "it looks like some shaggy-haired ha ha",
      "start": 507.64,
      "duration": 4.949
    },
    {
      "text": "bad alien is trying to implant his young",
      "start": 510.76,
      "duration": 4.53
    },
    {
      "text": "into a woman's Kevlar boobs using his",
      "start": 512.589,
      "duration": 6.541
    },
    {
      "text": "fingertips there is that picture now",
      "start": 515.29,
      "duration": 6.45
    },
    {
      "text": "whether you you know say well he wasn't",
      "start": 519.13,
      "duration": 4.98
    },
    {
      "text": "making full contact with her breath it's",
      "start": 521.74,
      "duration": 6.15
    },
    {
      "text": "a very disrespectful thing to do imagine",
      "start": 524.11,
      "duration": 6
    },
    {
      "text": "that's your mommy yeah or your daughter",
      "start": 527.89,
      "duration": 3.72
    },
    {
      "text": "or your wife",
      "start": 530.11,
      "duration": 3.57
    },
    {
      "text": "it's a very disrespect this woman was",
      "start": 531.61,
      "duration": 4.32
    },
    {
      "text": "she had a boyfriend she did it's a very",
      "start": 533.68,
      "duration": 6.45
    },
    {
      "text": "disrespectful thing to do now this is a",
      "start": 535.93,
      "duration": 6.54
    },
    {
      "text": "great challenge though because the left",
      "start": 540.13,
      "duration": 7.53
    },
    {
      "text": "has weaponized women against Republicans",
      "start": 542.47,
      "duration": 9.48
    },
    {
      "text": "right I mean we'll get to the Donald",
      "start": 547.66,
      "duration": 6.119
    },
    {
      "text": "Trump stuff I mean they weaponized a",
      "start": 551.95,
      "duration": 3.569
    },
    {
      "text": "whole bunch of women to accuse Donald",
      "start": 553.779,
      "duration": 3.661
    },
    {
      "text": "Trump of terrible things and then they",
      "start": 555.519,
      "duration": 5.94
    },
    {
      "text": "all vanished when it didn't work and of",
      "start": 557.44,
      "duration": 6.72
    },
    {
      "text": "course there seems very strong",
      "start": 561.459,
      "duration": 6.481
    },
    {
      "text": "indications that the women who alleged",
      "start": 564.16,
      "duration": 7.23
    },
    {
      "text": "that Roy more like decades ago I touched",
      "start": 567.94,
      "duration": 5.16
    },
    {
      "text": "them inappropriately and then there was",
      "start": 571.39,
      "duration": 3.27
    },
    {
      "text": "this year book signing and so on it's",
      "start": 573.1,
      "duration": 5.46
    },
    {
      "text": "really tough because the left when they",
      "start": 574.66,
      "duration": 6.09
    },
    {
      "text": "have weaponized women against Republican",
      "start": 578.56,
      "duration": 3.6
    },
    {
      "text": "candidates they have said well you have",
      "start": 580.75,
      "duration": 3.72
    },
    {
      "text": "to believe women no matter what late you",
      "start": 582.16,
      "duration": 4.26
    },
    {
      "text": "have to believe women to doubt a woman",
      "start": 584.47,
      "duration": 4.91
    },
    {
      "text": "is to reach Ramat eyes there is to",
      "start": 586.42,
      "duration": 7.289
    },
    {
      "text": "rehabilitate and it that a woman's",
      "start": 589.38,
      "duration": 7.78
    },
    {
      "text": "claims must be believed now anybody with",
      "start": 593.709,
      "duration": 4.891
    },
    {
      "text": "half a brain I mean not only is that",
      "start": 597.16,
      "duration": 5.13
    },
    {
      "text": "wrong women if women are equal then",
      "start": 598.6,
      "duration": 6.15
    },
    {
      "text": "their testimony should have no greater",
      "start": 602.29,
      "duration": 4.56
    },
    {
      "text": "weight than a man's if we're looking for",
      "start": 604.75,
      "duration": 3.66
    },
    {
      "text": "equality between the genders right so if",
      "start": 606.85,
      "duration": 2.85
    },
    {
      "text": "a woman buckets that he said she said",
      "start": 608.41,
      "duration": 3.45
    },
    {
      "text": "stuff this is why the law can't handle",
      "start": 609.7,
      "duration": 7.05
    },
    {
      "text": "he said she said stuff because if men",
      "start": 611.86,
      "duration": 6.719
    },
    {
      "text": "and women are equal under the law then",
      "start": 616.75,
      "duration": 4.05
    },
    {
      "text": "they they're opposite tails cancel each",
      "start": 618.579,
      "duration": 3.421
    },
    {
      "text": "other out and you can I mean less",
      "start": 620.8,
      "duration": 2.37
    },
    {
      "text": "there's physical evidence of the woman",
      "start": 622,
      "duration": 2.91
    },
    {
      "text": "gets beaten up and vaginas torn and of",
      "start": 623.17,
      "duration": 3.539
    },
    {
      "text": "course it's rape and no question right",
      "start": 624.91,
      "duration": 5.46
    },
    {
      "text": "but if it's like well I didn't say no it",
      "start": 626.709,
      "duration": 5.491
    },
    {
      "text": "was consensual I went along I regret",
      "start": 630.37,
      "duration": 3.45
    },
    {
      "text": "later I mean this is the law can't",
      "start": 632.2,
      "duration": 2.94
    },
    {
      "text": "handle this kind of stuff in my opinion",
      "start": 633.82,
      "duration": 3.48
    },
    {
      "text": "it just they can't there's no evidence",
      "start": 635.14,
      "duration": 6.93
    },
    {
      "text": "and so in order to weaponize female",
      "start": 637.3,
      "duration": 6.479
    },
    {
      "text": "sexual allegations against male",
      "start": 642.07,
      "duration": 3.84
    },
    {
      "text": "Republicans the left has had to push",
      "start": 643.779,
      "duration": 4.201
    },
    {
      "text": "this narrative that a woman's were to",
      "start": 645.91,
      "duration": 5.039
    },
    {
      "text": "somehow holy or superior women don't lie",
      "start": 647.98,
      "duration": 6.09
    },
    {
      "text": "this is like Madonna thing it's a",
      "start": 650.949,
      "duration": 4.621
    },
    {
      "text": "Madonna whore thing right that the women",
      "start": 654.07,
      "duration": 2.94
    },
    {
      "text": "that we back weaponize against",
      "start": 655.57,
      "duration": 4.11
    },
    {
      "text": "Republicans are all Madonna's but when",
      "start": 657.01,
      "duration": 5.88
    },
    {
      "text": "we have allegations against ass well",
      "start": 659.68,
      "duration": 5.71
    },
    {
      "text": "they're Liars in know Chris",
      "start": 662.89,
      "duration": 5.08
    },
    {
      "text": "and that's a very nobody wants to",
      "start": 665.39,
      "duration": 5.91
    },
    {
      "text": "elevate like nobody sane wants to",
      "start": 667.97,
      "duration": 5.79
    },
    {
      "text": "elevate any particular group beyond the",
      "start": 671.3,
      "duration": 5.01
    },
    {
      "text": "need for proof innocent until proven",
      "start": 673.76,
      "duration": 3.21
    },
    {
      "text": "guilty and so on",
      "start": 676.31,
      "duration": 2.43
    },
    {
      "text": "nobody wants because of course it's",
      "start": 676.97,
      "duration": 3.78
    },
    {
      "text": "gonna be used against you of course it's",
      "start": 678.74,
      "duration": 3.39
    },
    {
      "text": "like the digging through old tweet stuff",
      "start": 680.75,
      "duration": 2.779
    },
    {
      "text": "that my external bitches are brilliantly",
      "start": 682.13,
      "duration": 6.269
    },
    {
      "text": "revealed tightly so nobody hussein's",
      "start": 683.529,
      "duration": 6.671
    },
    {
      "text": "wants to say well women have to be",
      "start": 688.399,
      "duration": 3.06
    },
    {
      "text": "believed just because there are women",
      "start": 690.2,
      "duration": 3
    },
    {
      "text": "because of course it's gonna it's gonna",
      "start": 691.459,
      "duration": 3.75
    },
    {
      "text": "get blowback this is why it's like free",
      "start": 693.2,
      "duration": 5.22
    },
    {
      "text": "speech it's like I mean you want you you",
      "start": 695.209,
      "duration": 5.31
    },
    {
      "text": "extend the protection of law to your",
      "start": 698.42,
      "duration": 4.14
    },
    {
      "text": "enemies because you want it for yourself",
      "start": 700.519,
      "duration": 6
    },
    {
      "text": "anyway so this idea that a man is guilty",
      "start": 702.56,
      "duration": 6.33
    },
    {
      "text": "if a woman accuses him just based on her",
      "start": 706.519,
      "duration": 3.201
    },
    {
      "text": "say-so",
      "start": 708.89,
      "duration": 3.509
    },
    {
      "text": "this has been pushed by the left well",
      "start": 709.72,
      "duration": 4.09
    },
    {
      "text": "they've had a very uneasy relationship",
      "start": 712.399,
      "duration": 3.81
    },
    {
      "text": "with it I mean they had horrible things",
      "start": 713.81,
      "duration": 4.2
    },
    {
      "text": "to say Hillary Clinton was in charge of",
      "start": 716.209,
      "duration": 3
    },
    {
      "text": "coming up with horrible things to say",
      "start": 718.01,
      "duration": 4.47
    },
    {
      "text": "about the women who accused Bill Clinton",
      "start": 719.209,
      "duration": 4.801
    },
    {
      "text": "and Bill Clinton in settled with Paula",
      "start": 722.48,
      "duration": 4.68
    },
    {
      "text": "Jones for $850,000 I think it was back",
      "start": 724.01,
      "duration": 4.41
    },
    {
      "text": "when there was real money and not just",
      "start": 727.16,
      "duration": 4.95
    },
    {
      "text": "for bitcoins so they left us at a very",
      "start": 728.42,
      "duration": 5.01
    },
    {
      "text": "uneasy relationship when they're",
      "start": 732.11,
      "duration": 3.03
    },
    {
      "text": "attacked women are crazy when the women",
      "start": 733.43,
      "duration": 3.42
    },
    {
      "text": "attack Republicans well it's important",
      "start": 735.14,
      "duration": 3
    },
    {
      "text": "to listen to women's voices and they're",
      "start": 736.85,
      "duration": 3.33
    },
    {
      "text": "true and women don't lie and so on so",
      "start": 738.14,
      "duration": 4.61
    },
    {
      "text": "it's terrible terrible sophistry",
      "start": 740.18,
      "duration": 6.69
    },
    {
      "text": "terrible so now Franklin goes on to say",
      "start": 742.75,
      "duration": 5.35
    },
    {
      "text": "I said at the outset that the ethics",
      "start": 746.87,
      "duration": 2.969
    },
    {
      "text": "committee was the right venue for these",
      "start": 748.1,
      "duration": 3.96
    },
    {
      "text": "allegations to be heard and investigated",
      "start": 749.839,
      "duration": 4.62
    },
    {
      "text": "and evaluated on their merits that I was",
      "start": 752.06,
      "duration": 4.11
    },
    {
      "text": "prepared to cooperate fully and that I",
      "start": 754.459,
      "duration": 6.391
    },
    {
      "text": "was confident in the outcome now this",
      "start": 756.17,
      "duration": 7.919
    },
    {
      "text": "idea that when you have a he-said",
      "start": 760.85,
      "duration": 4.919
    },
    {
      "text": "she-said situation when there's no",
      "start": 764.089,
      "duration": 6.151
    },
    {
      "text": "evidence that somehow more investigation",
      "start": 765.769,
      "duration": 8.851
    },
    {
      "text": "is going to happen you can't objectively",
      "start": 770.24,
      "duration": 8.159
    },
    {
      "text": "prove differences in recollection you",
      "start": 774.62,
      "duration": 6.089
    },
    {
      "text": "can if there has to be witnesses there",
      "start": 778.399,
      "duration": 4.5
    },
    {
      "text": "has to be some physical corroboration",
      "start": 780.709,
      "duration": 4.231
    },
    {
      "text": "he-said she-said staff cancels each",
      "start": 782.899,
      "duration": 3.661
    },
    {
      "text": "other out so the idea that well if we",
      "start": 784.94,
      "duration": 3.329
    },
    {
      "text": "have more people listen to the he-said",
      "start": 786.56,
      "duration": 6.089
    },
    {
      "text": "she-said stuff then somehow we'll",
      "start": 788.269,
      "duration": 6.421
    },
    {
      "text": "resolve it well we need an ethics",
      "start": 792.649,
      "duration": 3.69
    },
    {
      "text": "committee we need an investigation this",
      "start": 794.69,
      "duration": 3
    },
    {
      "text": "is all a smokescreen it's a big delay",
      "start": 796.339,
      "duration": 2.261
    },
    {
      "text": "tactic",
      "start": 797.69,
      "duration": 2.44
    },
    {
      "text": "you know if you've cleaned out a room",
      "start": 798.6,
      "duration": 3.03
    },
    {
      "text": "looking for your keys and the room is",
      "start": 800.13,
      "duration": 3.329
    },
    {
      "text": "now completely empty its bare and there",
      "start": 801.63,
      "duration": 4.62
    },
    {
      "text": "are no keys in there and you say well if",
      "start": 803.459,
      "duration": 4.831
    },
    {
      "text": "I get my friends to come over and check",
      "start": 806.25,
      "duration": 2.819
    },
    {
      "text": "out the room",
      "start": 808.29,
      "duration": 3.15
    },
    {
      "text": "I'll find the keys well not what you",
      "start": 809.069,
      "duration": 5.401
    },
    {
      "text": "want and so when you can't get to a",
      "start": 811.44,
      "duration": 4.589
    },
    {
      "text": "legal resolution because it's word",
      "start": 814.47,
      "duration": 5.13
    },
    {
      "text": "against word then having more people",
      "start": 816.029,
      "duration": 5.071
    },
    {
      "text": "look into it Oh there'll be a review",
      "start": 819.6,
      "duration": 3.299
    },
    {
      "text": "there'll be it's designed to simply",
      "start": 821.1,
      "duration": 5.159
    },
    {
      "text": "delay and obfuscate and then what",
      "start": 822.899,
      "duration": 5.041
    },
    {
      "text": "happens is is politically motivated so",
      "start": 826.259,
      "duration": 3.27
    },
    {
      "text": "the Ethics Committee maybe then finds",
      "start": 827.94,
      "duration": 3.329
    },
    {
      "text": "out that he's innocent and then he says",
      "start": 829.529,
      "duration": 3.391
    },
    {
      "text": "well the ethics committee investigated",
      "start": 831.269,
      "duration": 3.331
    },
    {
      "text": "and I'm innocent it's got nothing to do",
      "start": 832.92,
      "duration": 5.25
    },
    {
      "text": "with anything it's he said she said so",
      "start": 834.6,
      "duration": 5.039
    },
    {
      "text": "he goes on to say you know an important",
      "start": 838.17,
      "duration": 2.969
    },
    {
      "text": "part of the conversation we've been",
      "start": 839.639,
      "duration": 3
    },
    {
      "text": "having the last few months has been",
      "start": 841.139,
      "duration": 3.06
    },
    {
      "text": "about how men abuse their power and",
      "start": 842.639,
      "duration": 8.31
    },
    {
      "text": "privilege to hurt women again that's",
      "start": 844.199,
      "duration": 12.69
    },
    {
      "text": "feeling it's hurt a man steals your car",
      "start": 850.949,
      "duration": 8.37
    },
    {
      "text": "your precious car and drives it into a",
      "start": 856.889,
      "duration": 7.591
    },
    {
      "text": "tree well are your feelings the most",
      "start": 859.319,
      "duration": 7.26
    },
    {
      "text": "important thing here now so again to",
      "start": 864.48,
      "duration": 5.94
    },
    {
      "text": "hurt women that doesn't make any sense",
      "start": 866.579,
      "duration": 6.93
    },
    {
      "text": "at all a woman can be hurt because she",
      "start": 870.42,
      "duration": 5.43
    },
    {
      "text": "has lost a running race a woman can be",
      "start": 873.509,
      "duration": 4.89
    },
    {
      "text": "hurt because she lost a job a woman can",
      "start": 875.85,
      "duration": 3.96
    },
    {
      "text": "be hurt because her boyfriend dumps her",
      "start": 878.399,
      "duration": 2.971
    },
    {
      "text": "all of these are perfectly legal and",
      "start": 879.81,
      "duration": 4.74
    },
    {
      "text": "natural events in the course of human",
      "start": 881.37,
      "duration": 4.13
    },
    {
      "text": "affairs",
      "start": 884.55,
      "duration": 4.649
    },
    {
      "text": "so conflating a woman's feelings of",
      "start": 885.5,
      "duration": 7.12
    },
    {
      "text": "being hurt with being sexually preyed",
      "start": 889.199,
      "duration": 5.401
    },
    {
      "text": "upon with being raped with being",
      "start": 892.62,
      "duration": 5.069
    },
    {
      "text": "assaulted in general with being groped",
      "start": 894.6,
      "duration": 6.179
    },
    {
      "text": "with being semi forcibly tongue kissed",
      "start": 897.689,
      "duration": 7.281
    },
    {
      "text": "as part of a USO tour I mean that is not",
      "start": 900.779,
      "duration": 6.571
    },
    {
      "text": "like inflating that with the generic",
      "start": 904.97,
      "duration": 4.419
    },
    {
      "text": "term hurt is again just putting the",
      "start": 907.35,
      "duration": 4.349
    },
    {
      "text": "primacy of female emotion front and",
      "start": 909.389,
      "duration": 7.161
    },
    {
      "text": "center which is extraordinarily sexist",
      "start": 911.699,
      "duration": 4.851
    },
    {
      "text": "so he says I'm proud that you're in my",
      "start": 917.54,
      "duration": 4.149
    },
    {
      "text": "time in the Senate I've used my power to",
      "start": 920.25,
      "duration": 3.209
    },
    {
      "text": "be a champion for women and that I've",
      "start": 921.689,
      "duration": 2.88
    },
    {
      "text": "earned a reputation as someone who",
      "start": 923.459,
      "duration": 2.701
    },
    {
      "text": "respects the women I work alongside",
      "start": 924.569,
      "duration": 3.421
    },
    {
      "text": "every day I know there's been a very",
      "start": 926.16,
      "duration": 3.96
    },
    {
      "text": "different picture of me painted over the",
      "start": 927.99,
      "duration": 4.2
    },
    {
      "text": "last few weeks but I know who",
      "start": 930.12,
      "duration": 4.53
    },
    {
      "text": "really am see not an argument not a",
      "start": 932.19,
      "duration": 6.18
    },
    {
      "text": "defense and it's funny because the",
      "start": 934.65,
      "duration": 6.78
    },
    {
      "text": "picture of him groping the woman on the",
      "start": 938.37,
      "duration": 6.6
    },
    {
      "text": "plane that's not painted that was taken",
      "start": 941.43,
      "duration": 5.82
    },
    {
      "text": "was taken I think by his brother and it",
      "start": 944.97,
      "duration": 8.04
    },
    {
      "text": "was included in a CD of the pictures",
      "start": 947.25,
      "duration": 7.47
    },
    {
      "text": "taken on that trip on that tour so he",
      "start": 953.01,
      "duration": 3.45
    },
    {
      "text": "actually gave to the woman the picture",
      "start": 954.72,
      "duration": 3.72
    },
    {
      "text": "of him groping her that's how confident",
      "start": 956.46,
      "duration": 4.11
    },
    {
      "text": "he was that the mainstream media would",
      "start": 958.44,
      "duration": 5.1
    },
    {
      "text": "never report on it would never reveal it",
      "start": 960.57,
      "duration": 4.74
    },
    {
      "text": "right this I've said this before how",
      "start": 963.54,
      "duration": 3.24
    },
    {
      "text": "confident you have to be to give a",
      "start": 965.31,
      "duration": 3.57
    },
    {
      "text": "picture of you groping a woman who also",
      "start": 966.78,
      "duration": 4.26
    },
    {
      "text": "claims that you were highly",
      "start": 968.88,
      "duration": 4.65
    },
    {
      "text": "inappropriate with her on stage how",
      "start": 971.04,
      "duration": 3.93
    },
    {
      "text": "confident you have to be in your power",
      "start": 973.53,
      "duration": 3.18
    },
    {
      "text": "and the fact that you're on the left and",
      "start": 974.97,
      "duration": 2.97
    },
    {
      "text": "you're gonna be protected by the media",
      "start": 976.71,
      "duration": 4.49
    },
    {
      "text": "to hand a picture like that to the woman",
      "start": 977.94,
      "duration": 5.25
    },
    {
      "text": "knowing she can't do anything with if",
      "start": 981.2,
      "duration": 3.55
    },
    {
      "text": "that's the kind of sadism in humiliation",
      "start": 983.19,
      "duration": 3.9
    },
    {
      "text": "well here's the picture honey you can't",
      "start": 984.75,
      "duration": 3.57
    },
    {
      "text": "do anything with it because I'm a",
      "start": 987.09,
      "duration": 4.95
    },
    {
      "text": "Democrat and we got the media so you can",
      "start": 988.32,
      "duration": 5.16
    },
    {
      "text": "go and bleed about it all you want no",
      "start": 992.04,
      "duration": 2.85
    },
    {
      "text": "one's gonna but you know this is before",
      "start": 993.48,
      "duration": 3.36
    },
    {
      "text": "social media this is before Twitter",
      "start": 994.89,
      "duration": 3.6
    },
    {
      "text": "before Facebook before the internet",
      "start": 996.84,
      "duration": 3.33
    },
    {
      "text": "before YouTube before people like myself",
      "start": 998.49,
      "duration": 5.58
    },
    {
      "text": "before other people so your",
      "start": 1000.17,
      "duration": 6.03
    },
    {
      "text": "overconfidence is your weakness so a",
      "start": 1004.07,
      "duration": 5.25
    },
    {
      "text": "picture has been painted a picture that",
      "start": 1006.2,
      "duration": 4.29
    },
    {
      "text": "has been painted it's a very interesting",
      "start": 1009.32,
      "duration": 2.55
    },
    {
      "text": "phrase because it does of course",
      "start": 1010.49,
      "duration": 4.29
    },
    {
      "text": "indicate that it's not real it's not",
      "start": 1011.87,
      "duration": 5.43
    },
    {
      "text": "real which again says these women are",
      "start": 1014.78,
      "duration": 5.81
    },
    {
      "text": "wrong they're liars they're crazy and",
      "start": 1017.3,
      "duration": 8.57
    },
    {
      "text": "let's forget about the photo fascinating",
      "start": 1020.59,
      "duration": 5.28
    },
    {
      "text": "so he then says he's going to in the",
      "start": 1026.23,
      "duration": 8.56
    },
    {
      "text": "coming weeks he's going to resign now he",
      "start": 1031.64,
      "duration": 5.819
    },
    {
      "text": "says and of course it's impossible for a",
      "start": 1034.79,
      "duration": 5.159
    },
    {
      "text": "Democrat to even pretend to take any",
      "start": 1037.459,
      "duration": 4.591
    },
    {
      "text": "responsibility without blaming Trump I",
      "start": 1039.949,
      "duration": 3.721
    },
    {
      "text": "mean this is almost like impossible and",
      "start": 1042.05,
      "duration": 3
    },
    {
      "text": "he says I of all people I'm aware that",
      "start": 1043.67,
      "duration": 3.419
    },
    {
      "text": "there is some irony in the fact that I'm",
      "start": 1045.05,
      "duration": 3.57
    },
    {
      "text": "leaving while a man who's bragged on",
      "start": 1047.089,
      "duration": 3.391
    },
    {
      "text": "tape about his history of sexual assault",
      "start": 1048.62,
      "duration": 10.08
    },
    {
      "text": "sits in the Oval Office now the capacity",
      "start": 1050.48,
      "duration": 10.26
    },
    {
      "text": "of people on the left to not hear simple",
      "start": 1058.7,
      "duration": 4.5
    },
    {
      "text": "language like he said when when Donald",
      "start": 1060.74,
      "duration": 3.54
    },
    {
      "text": "Trump says they're not sending their",
      "start": 1063.2,
      "duration": 2.82
    },
    {
      "text": "best some are good people",
      "start": 1064.28,
      "duration": 3.66
    },
    {
      "text": "suddenly all immigrants are rapists all",
      "start": 1066.02,
      "duration": 5.01
    },
    {
      "text": "Mexican enriched the capacity to not",
      "start": 1067.94,
      "duration": 6.869
    },
    {
      "text": "hear basic phrases to me is like it's a",
      "start": 1071.03,
      "duration": 4.8
    },
    {
      "text": "form of mental health like it's",
      "start": 1074.809,
      "duration": 2.431
    },
    {
      "text": "craziness it's it's literally crazy",
      "start": 1075.83,
      "duration": 4.26
    },
    {
      "text": "because the Billy Bush tape it's very",
      "start": 1077.24,
      "duration": 4.47
    },
    {
      "text": "clear the Donald Trump says women will",
      "start": 1080.09,
      "duration": 3.03
    },
    {
      "text": "let you grab them by the pussy if you're",
      "start": 1081.71,
      "duration": 3.24
    },
    {
      "text": "rich and famous something like that",
      "start": 1083.12,
      "duration": 2.28
    },
    {
      "text": "right",
      "start": 1084.95,
      "duration": 3.359
    },
    {
      "text": "women will let you it's consensual they",
      "start": 1085.4,
      "duration": 7.02
    },
    {
      "text": "consent to it they can send to it that's",
      "start": 1088.309,
      "duration": 8.221
    },
    {
      "text": "not sexual assault if a woman lets you",
      "start": 1092.42,
      "duration": 8.4
    },
    {
      "text": "kiss her that's not any way I mean so",
      "start": 1096.53,
      "duration": 5.61
    },
    {
      "text": "but this is just a narrative that they",
      "start": 1100.82,
      "duration": 3.08
    },
    {
      "text": "have to have to have right",
      "start": 1102.14,
      "duration": 4.41
    },
    {
      "text": "so no he did not brag about his history",
      "start": 1103.9,
      "duration": 4.75
    },
    {
      "text": "of sexual assault and they say and he",
      "start": 1106.55,
      "duration": 3.24
    },
    {
      "text": "goes on to say at a man who has",
      "start": 1108.65,
      "duration": 2.18
    },
    {
      "text": "repeatedly preyed on young girls",
      "start": 1109.79,
      "duration": 2.82
    },
    {
      "text": "campaigns for the Senate with the full",
      "start": 1110.83,
      "duration": 3.27
    },
    {
      "text": "support of his party",
      "start": 1112.61,
      "duration": 4.56
    },
    {
      "text": "see now that's interesting so the Roy",
      "start": 1114.1,
      "duration": 7.99
    },
    {
      "text": "Moore accusers who have 40 years who",
      "start": 1117.17,
      "duration": 8.22
    },
    {
      "text": "have material facts that disprove their",
      "start": 1122.09,
      "duration": 5.64
    },
    {
      "text": "allegations try one of the women says",
      "start": 1125.39,
      "duration": 4.11
    },
    {
      "text": "well you know after he assaulted me I",
      "start": 1127.73,
      "duration": 3.69
    },
    {
      "text": "got into real trouble I got him to drink",
      "start": 1129.5,
      "duration": 3.6
    },
    {
      "text": "I got it and turns out that no she had",
      "start": 1131.42,
      "duration": 3.29
    },
    {
      "text": "real trouble before",
      "start": 1133.1,
      "duration": 4.079
    },
    {
      "text": "so and I won't go into all of these",
      "start": 1134.71,
      "duration": 4.5
    },
    {
      "text": "details you can look them up if you want",
      "start": 1137.179,
      "duration": 4.831
    },
    {
      "text": "so the way it works you see for those",
      "start": 1139.21,
      "duration": 4.78
    },
    {
      "text": "who are trying to follow at home the way",
      "start": 1142.01,
      "duration": 5.94
    },
    {
      "text": "it works is if you are a Republican and",
      "start": 1143.99,
      "duration": 5.52
    },
    {
      "text": "you're accused of something that",
      "start": 1147.95,
      "duration": 5.609
    },
    {
      "text": "happened 40 years ago it's absolutely",
      "start": 1149.51,
      "duration": 7.2
    },
    {
      "text": "true right now he doesn't say a man who",
      "start": 1153.559,
      "duration": 4.831
    },
    {
      "text": "has been accused of repeatedly playing",
      "start": 1156.71,
      "duration": 3.33
    },
    {
      "text": "preying on young girls known enough and",
      "start": 1158.39,
      "duration": 4.14
    },
    {
      "text": "a man who has repeatedly preyed on young",
      "start": 1160.04,
      "duration": 6.42
    },
    {
      "text": "girls Roy Moore right so those",
      "start": 1162.53,
      "duration": 7.02
    },
    {
      "text": "allegations are all absolutely true",
      "start": 1166.46,
      "duration": 4.56
    },
    {
      "text": "because they're made against the",
      "start": 1169.55,
      "duration": 4.02
    },
    {
      "text": "Republican but the allegations against",
      "start": 1171.02,
      "duration": 5.37
    },
    {
      "text": "him are false or the women are",
      "start": 1173.57,
      "duration": 6.33
    },
    {
      "text": "misremembering or there's a dispute so",
      "start": 1176.39,
      "duration": 7.38
    },
    {
      "text": "his accusers are wrong or liars or at",
      "start": 1179.9,
      "duration": 6.18
    },
    {
      "text": "least as a different memory but Roy",
      "start": 1183.77,
      "duration": 4.8
    },
    {
      "text": "Moore's accusers are absolutely",
      "start": 1186.08,
      "duration": 6.09
    },
    {
      "text": "completely and totally true do you see",
      "start": 1188.57,
      "duration": 7.2
    },
    {
      "text": "how this like holding this kind of",
      "start": 1192.17,
      "duration": 4.86
    },
    {
      "text": "doublethink",
      "start": 1195.77,
      "duration": 3.99
    },
    {
      "text": "is indicative of",
      "start": 1197.03,
      "duration": 5.16
    },
    {
      "text": "to me a debilitating disconnection from",
      "start": 1199.76,
      "duration": 4.68
    },
    {
      "text": "reality to put it as nice as humanly",
      "start": 1202.19,
      "duration": 5.19
    },
    {
      "text": "possible so anyway he goes on to try and",
      "start": 1204.44,
      "duration": 6.45
    },
    {
      "text": "provide this big speech about follow you",
      "start": 1207.38,
      "duration": 5.45
    },
    {
      "text": "follow your dreams climb every mountain",
      "start": 1210.89,
      "duration": 4.32
    },
    {
      "text": "because I say what I want you to know is",
      "start": 1212.83,
      "duration": 3.88
    },
    {
      "text": "that even today even on the worst day of",
      "start": 1215.21,
      "duration": 3.33
    },
    {
      "text": "my political life I feel like it's all",
      "start": 1216.71,
      "duration": 5.04
    },
    {
      "text": "been worth it he also says he wouldn't",
      "start": 1218.54,
      "duration": 5.7
    },
    {
      "text": "change a thing he wouldn't change a",
      "start": 1221.75,
      "duration": 6.9
    },
    {
      "text": "thing that he's done wouldn't change a",
      "start": 1224.24,
      "duration": 6.42
    },
    {
      "text": "thing that he's done so when someone is",
      "start": 1228.65,
      "duration": 3.51
    },
    {
      "text": "okay mama gifted anything",
      "start": 1230.66,
      "duration": 3.75
    },
    {
      "text": "he goes on to say politics Paul Ballston",
      "start": 1232.16,
      "duration": 3.51
    },
    {
      "text": "told us is about the improvement of",
      "start": 1234.41,
      "duration": 3.51
    },
    {
      "text": "people's lives I know that the work I've",
      "start": 1235.67,
      "duration": 3.42
    },
    {
      "text": "been able to do has improved people's",
      "start": 1237.92,
      "duration": 4.38
    },
    {
      "text": "lives I would do it all over again in a",
      "start": 1239.09,
      "duration": 4.44
    },
    {
      "text": "heartbeat and I assume that he just",
      "start": 1242.3,
      "duration": 2.73
    },
    {
      "text": "means his political career but it's kind",
      "start": 1243.53,
      "duration": 3.38
    },
    {
      "text": "of ambiguous I assume that he wouldn't",
      "start": 1245.03,
      "duration": 5.25
    },
    {
      "text": "grope the woman on the plane again and",
      "start": 1246.91,
      "duration": 5.74
    },
    {
      "text": "have a photo and give the photo to the",
      "start": 1250.28,
      "duration": 5.34
    },
    {
      "text": "woman as part of a package I I assumed",
      "start": 1252.65,
      "duration": 5.64
    },
    {
      "text": "that he wouldn't do that again but",
      "start": 1255.62,
      "duration": 4.23
    },
    {
      "text": "politics is about the improvement of",
      "start": 1258.29,
      "duration": 3.93
    },
    {
      "text": "people's lives and it's one of these big",
      "start": 1259.85,
      "duration": 3.93
    },
    {
      "text": "fundamental questions is why do you need",
      "start": 1262.22,
      "duration": 2.73
    },
    {
      "text": "the government to improve your life why",
      "start": 1263.78,
      "duration": 2.73
    },
    {
      "text": "can't you improve your own life why",
      "start": 1264.95,
      "duration": 3.18
    },
    {
      "text": "can't you keep your own money have your",
      "start": 1266.51,
      "duration": 3.27
    },
    {
      "text": "own freedom have your own liberty have",
      "start": 1268.13,
      "duration": 3.63
    },
    {
      "text": "your own community and improve your own",
      "start": 1269.78,
      "duration": 3.69
    },
    {
      "text": "life why do you need the government to",
      "start": 1271.76,
      "duration": 4.52
    },
    {
      "text": "improve your life how sad is that what a",
      "start": 1273.47,
      "duration": 5.52
    },
    {
      "text": "perpetual child in your mind and heart",
      "start": 1276.28,
      "duration": 4.51
    },
    {
      "text": "you would have to remain you know to",
      "start": 1278.99,
      "duration": 4.41
    },
    {
      "text": "feel that you need this big agency of",
      "start": 1280.79,
      "duration": 5.13
    },
    {
      "text": "coercion of violence of debt and plunder",
      "start": 1283.4,
      "duration": 5.67
    },
    {
      "text": "and war to give you a better life why",
      "start": 1285.92,
      "duration": 5.85
    },
    {
      "text": "would you need that why can't you make",
      "start": 1289.07,
      "duration": 3.93
    },
    {
      "text": "your own life better why can't you be",
      "start": 1291.77,
      "duration": 2.55
    },
    {
      "text": "responsible for yourself why do you have",
      "start": 1293,
      "duration": 4.32
    },
    {
      "text": "to remain a perpetual child and he talks",
      "start": 1294.32,
      "duration": 4.5
    },
    {
      "text": "about how proud he was and he also talks",
      "start": 1297.32,
      "duration": 2.76
    },
    {
      "text": "about it's very narrow victory in",
      "start": 1298.82,
      "duration": 3.99
    },
    {
      "text": "Minnesota and this is the basic reality",
      "start": 1300.08,
      "duration": 5.28
    },
    {
      "text": "that he won because the left had",
      "start": 1302.81,
      "duration": 6.21
    },
    {
      "text": "imported massive tens of thousands of",
      "start": 1305.36,
      "duration": 5.22
    },
    {
      "text": "Somalians to live in Minnesota those",
      "start": 1309.02,
      "duration": 3.66
    },
    {
      "text": "Somalians all voted for the left I",
      "start": 1310.58,
      "duration": 3.39
    },
    {
      "text": "assume they were ordered to because it's",
      "start": 1312.68,
      "duration": 3.24
    },
    {
      "text": "not like they just landed on America in",
      "start": 1313.97,
      "duration": 3.45
    },
    {
      "text": "America and got the entire history of",
      "start": 1315.92,
      "duration": 3.39
    },
    {
      "text": "Western democracy and free speech and",
      "start": 1317.42,
      "duration": 3.18
    },
    {
      "text": "property rights the separation of church",
      "start": 1319.31,
      "duration": 3.15
    },
    {
      "text": "and state they were told they were",
      "start": 1320.6,
      "duration": 7.02
    },
    {
      "text": "ordered to vote for Al Franken and Al",
      "start": 1322.46,
      "duration": 6.78
    },
    {
      "text": "Franken then cast the deciding vote for",
      "start": 1327.62,
      "duration": 3.54
    },
    {
      "text": "Obamacare so because there were",
      "start": 1329.24,
      "duration": 4.2
    },
    {
      "text": "Somalians imported by the boatload into",
      "start": 1331.16,
      "duration": 2.85
    },
    {
      "text": "a",
      "start": 1333.44,
      "duration": 3.72
    },
    {
      "text": "to vote for the left America's Got",
      "start": 1334.01,
      "duration": 4.95
    },
    {
      "text": "Obamacare and then the left claims to be",
      "start": 1337.16,
      "duration": 4.65
    },
    {
      "text": "genuinely confused why people whose",
      "start": 1338.96,
      "duration": 4.23
    },
    {
      "text": "premiums have gone up three or four",
      "start": 1341.81,
      "duration": 4.35
    },
    {
      "text": "times and who have worst coverage and",
      "start": 1343.19,
      "duration": 5.34
    },
    {
      "text": "higher deductibles why people would have",
      "start": 1346.16,
      "duration": 4.53
    },
    {
      "text": "any problem with immigration third world",
      "start": 1348.53,
      "duration": 4.11
    },
    {
      "text": "immigration when the only reason that",
      "start": 1350.69,
      "duration": 3.36
    },
    {
      "text": "the government was able to take over",
      "start": 1352.64,
      "duration": 4.32
    },
    {
      "text": "about 1/5 of the US economy was because",
      "start": 1354.05,
      "duration": 6.53
    },
    {
      "text": "of their world immigration people are",
      "start": 1356.96,
      "duration": 6.6
    },
    {
      "text": "confused by that but of course there's",
      "start": 1360.58,
      "duration": 4.42
    },
    {
      "text": "no reason to be confused by that at all",
      "start": 1363.56,
      "duration": 5.04
    },
    {
      "text": "so the thing I wanted to mention sort of",
      "start": 1365,
      "duration": 8.45
    },
    {
      "text": "the final point is this what the hell",
      "start": 1368.6,
      "duration": 8.82
    },
    {
      "text": "what so if you're resigning it's because",
      "start": 1373.45,
      "duration": 6.28
    },
    {
      "text": "you did something wrong right I mean if",
      "start": 1377.42,
      "duration": 3.69
    },
    {
      "text": "you didn't do anything wrong",
      "start": 1379.73,
      "duration": 4.56
    },
    {
      "text": "then resigning is betraying your",
      "start": 1381.11,
      "duration": 4.71
    },
    {
      "text": "principles it's betraying your voters",
      "start": 1384.29,
      "duration": 3.06
    },
    {
      "text": "it's betraying your party it's betraying",
      "start": 1385.82,
      "duration": 4.65
    },
    {
      "text": "your legacy it's betraying you don't",
      "start": 1387.35,
      "duration": 4.8
    },
    {
      "text": "resign if you've done nothing wrong I",
      "start": 1390.47,
      "duration": 3.54
    },
    {
      "text": "don't back down when I haven't done",
      "start": 1392.15,
      "duration": 3.42
    },
    {
      "text": "anything wrong if I said something wrong",
      "start": 1394.01,
      "duration": 3.12
    },
    {
      "text": "not corrected well I don't back down",
      "start": 1395.57,
      "duration": 3.09
    },
    {
      "text": "when I've done something wrong what's",
      "start": 1397.13,
      "duration": 2.85
    },
    {
      "text": "the point of having principles if so",
      "start": 1398.66,
      "duration": 2.97
    },
    {
      "text": "well I'm unpopular longhand them all",
      "start": 1399.98,
      "duration": 4.31
    },
    {
      "text": "over and so he's resigning",
      "start": 1401.63,
      "duration": 4.8
    },
    {
      "text": "maybe because Roy Moore is doing so well",
      "start": 1404.29,
      "duration": 3.34
    },
    {
      "text": "but he's resigning",
      "start": 1406.43,
      "duration": 5.1
    },
    {
      "text": "so then he's saying he did something",
      "start": 1407.63,
      "duration": 6.09
    },
    {
      "text": "wrong now if he's saying he did",
      "start": 1411.53,
      "duration": 3.63
    },
    {
      "text": "something wrong why is he calling all",
      "start": 1413.72,
      "duration": 3.69
    },
    {
      "text": "the women who accused him wrong or",
      "start": 1415.16,
      "duration": 5.1
    },
    {
      "text": "liners if they're wrong and if they're",
      "start": 1417.41,
      "duration": 5.19
    },
    {
      "text": "lying you don't give up your seat you",
      "start": 1420.26,
      "duration": 7.62
    },
    {
      "text": "don't what why why would you and he's",
      "start": 1422.6,
      "duration": 6.33
    },
    {
      "text": "like well you know there's his big",
      "start": 1427.88,
      "duration": 2.85
    },
    {
      "text": "ethics investigation that could be",
      "start": 1428.93,
      "duration": 3.09
    },
    {
      "text": "coming out but it might distract me it's",
      "start": 1430.73,
      "duration": 3.66
    },
    {
      "text": "like oh come on if that was the case",
      "start": 1432.02,
      "duration": 4.23
    },
    {
      "text": "then you should have been calling for as",
      "start": 1434.39,
      "duration": 2.85
    },
    {
      "text": "all the Democrats should have been",
      "start": 1436.25,
      "duration": 3.21
    },
    {
      "text": "calling for when Trump was being in",
      "start": 1437.24,
      "duration": 4.65
    },
    {
      "text": "parity when when Clinton when Bill",
      "start": 1439.46,
      "duration": 5.88
    },
    {
      "text": "Clinton was being impeached when he was",
      "start": 1441.89,
      "duration": 4.11
    },
    {
      "text": "going through all of these",
      "start": 1445.34,
      "duration": 2.01
    },
    {
      "text": "investigations when he was being",
      "start": 1446,
      "duration": 3.72
    },
    {
      "text": "consumed by all these legal problems",
      "start": 1447.35,
      "duration": 5.55
    },
    {
      "text": "then the the left should all open and I",
      "start": 1449.72,
      "duration": 4.41
    },
    {
      "text": "assume Franklin as well should have all",
      "start": 1452.9,
      "duration": 2.52
    },
    {
      "text": "been saying to him you have to resign",
      "start": 1454.13,
      "duration": 2.58
    },
    {
      "text": "because you can't concentrate at me in",
      "start": 1455.42,
      "duration": 2.7
    },
    {
      "text": "the president when you going through all",
      "start": 1456.71,
      "duration": 4.05
    },
    {
      "text": "this crap so this idea and the and the",
      "start": 1458.12,
      "duration": 4.29
    },
    {
      "text": "ethics investigation is what is what",
      "start": 1460.76,
      "duration": 3.84
    },
    {
      "text": "they say it happened he says it didn't",
      "start": 1462.41,
      "duration": 5.16
    },
    {
      "text": "the hell is dinner to investigate",
      "start": 1464.6,
      "duration": 6.12
    },
    {
      "text": "what is there to investigate you can't",
      "start": 1467.57,
      "duration": 5.969
    },
    {
      "text": "investigate you walk into a room you do",
      "start": 1470.72,
      "duration": 4.709
    },
    {
      "text": "two kids and they're crying and both of",
      "start": 1473.539,
      "duration": 3.12
    },
    {
      "text": "them are saying they hit each other and",
      "start": 1475.429,
      "duration": 3.87
    },
    {
      "text": "they other one started it you okay let's",
      "start": 1476.659,
      "duration": 4.64
    },
    {
      "text": "investigate I didn't mean come on",
      "start": 1479.299,
      "duration": 4.59
    },
    {
      "text": "but no this actually happened 10 years",
      "start": 1481.299,
      "duration": 5.08
    },
    {
      "text": "ago or 40 years ago come on there's no",
      "start": 1483.889,
      "duration": 3.75
    },
    {
      "text": "one how distracting with this",
      "start": 1486.379,
      "duration": 5.9
    },
    {
      "text": "investigation be so he said she said no",
      "start": 1487.639,
      "duration": 7.65
    },
    {
      "text": "the number of people the number of women",
      "start": 1492.279,
      "duration": 5.321
    },
    {
      "text": "who accused him became so great that it",
      "start": 1495.289,
      "duration": 5.61
    },
    {
      "text": "they became more credible and there's",
      "start": 1497.6,
      "duration": 5.1
    },
    {
      "text": "probably more to come and maybe just",
      "start": 1500.899,
      "duration": 5.58
    },
    {
      "text": "maybe who knows is it possible that he's",
      "start": 1502.7,
      "duration": 6
    },
    {
      "text": "involved in some of these 16 billion",
      "start": 1506.479,
      "duration": 3.961
    },
    {
      "text": "dollars worth of payouts for sexual",
      "start": 1508.7,
      "duration": 4.349
    },
    {
      "text": "indiscretions or harassment or God knows",
      "start": 1510.44,
      "duration": 7.369
    },
    {
      "text": "whatever else who knows No",
      "start": 1513.049,
      "duration": 4.76
    },
    {
      "text": "so I have trouble understanding why he's",
      "start": 1530.37,
      "duration": 4.62
    },
    {
      "text": "resigning if he didn't do anything wrong",
      "start": 1533.01,
      "duration": 4.98
    },
    {
      "text": "if you didn't do anything wrong",
      "start": 1534.99,
      "duration": 7.08
    },
    {
      "text": "you don't resign you fight now if you",
      "start": 1537.99,
      "duration": 7.26
    },
    {
      "text": "did do something wrong then resigning",
      "start": 1542.07,
      "duration": 6.15
    },
    {
      "text": "makes more sense but then it makes no",
      "start": 1545.25,
      "duration": 5.159
    },
    {
      "text": "sense why if you did something wrong and",
      "start": 1548.22,
      "duration": 5.189
    },
    {
      "text": "that's why you're resigning you never",
      "start": 1550.409,
      "duration": 4.821
    },
    {
      "text": "used the word",
      "start": 1553.409,
      "duration": 7.321
    },
    {
      "text": "sorry or I apologize but why would you",
      "start": 1555.23,
      "duration": 7.6
    },
    {
      "text": "want to take any personal ownership when",
      "start": 1560.73,
      "duration": 6.02
    },
    {
      "text": "you can just blame Trump",
      "start": 1562.83,
      "duration": 3.92
    },
    {
      "text": "you",
      "start": 1573.19,
      "duration": 2.06
    }
  ],
  "Errors": null,
  "TranscriptStderr": null
}