{
  "Title": "Were You Bred for War?",
  "Id": "uIruXQws97g",
  "Transcript": [
    {
      "text": "hi everybody it's deven molyneux from",
      "start": 0.199,
      "duration": 4.12
    },
    {
      "text": "freedomain radio I hope you doing very",
      "start": 2.61,
      "duration": 4.919
    },
    {
      "text": "well somebody asked me on the message",
      "start": 4.319,
      "duration": 5.551
    },
    {
      "text": "board why it said at one point in a",
      "start": 7.529,
      "duration": 5.971
    },
    {
      "text": "podcast some time ago why I had",
      "start": 9.87,
      "duration": 6.419
    },
    {
      "text": "mentioned that dudes and cars you know",
      "start": 13.5,
      "duration": 4.59
    },
    {
      "text": "big meaty muscle cars monster truck",
      "start": 16.289,
      "duration": 3.931
    },
    {
      "text": "rallies what's up with that and I said",
      "start": 18.09,
      "duration": 4.679
    },
    {
      "text": "well it had to do with poor father",
      "start": 20.22,
      "duration": 4.68
    },
    {
      "text": "fathering either absent fathering or bad",
      "start": 22.769,
      "duration": 5.25
    },
    {
      "text": "fathering and people for you rightfully",
      "start": 24.9,
      "duration": 5.879
    },
    {
      "text": "said baha and so I thought I would",
      "start": 28.019,
      "duration": 4.74
    },
    {
      "text": "explain a little bit more of what I said",
      "start": 30.779,
      "duration": 5.331
    },
    {
      "text": "what I meant so there are two basic",
      "start": 32.759,
      "duration": 5.73
    },
    {
      "text": "survival strategies or fatherhood",
      "start": 36.11,
      "duration": 7.99
    },
    {
      "text": "strategies for the adult human male 1 is",
      "start": 38.489,
      "duration": 8.791
    },
    {
      "text": "to spread your seed as widely as",
      "start": 44.1,
      "duration": 5.639
    },
    {
      "text": "possible and by that I do not mean",
      "start": 47.28,
      "duration": 4.77
    },
    {
      "text": "masturbating while parachuting not that",
      "start": 49.739,
      "duration": 5.401
    },
    {
      "text": "that isn't fun but I mean that you",
      "start": 52.05,
      "duration": 4.95
    },
    {
      "text": "basically have a strategy called have a",
      "start": 55.14,
      "duration": 4.2
    },
    {
      "text": "have sex voluntarily or involuntary with",
      "start": 57,
      "duration": 4.739
    },
    {
      "text": "as many women as possible and you know",
      "start": 59.34,
      "duration": 4.05
    },
    {
      "text": "hopefully one of those little barons",
      "start": 61.739,
      "duration": 3.301
    },
    {
      "text": "will make it to adulthood and start",
      "start": 63.39,
      "duration": 5.46
    },
    {
      "text": "doing the same and the other is you pair",
      "start": 65.04,
      "duration": 5.91
    },
    {
      "text": "bond right you you stick around with the",
      "start": 68.85,
      "duration": 3.66
    },
    {
      "text": "woman you raise the children you have",
      "start": 70.95,
      "duration": 3.51
    },
    {
      "text": "much fewer children and you invest far",
      "start": 72.51,
      "duration": 4.859
    },
    {
      "text": "more resources in them now I think it's",
      "start": 74.46,
      "duration": 9.15
    },
    {
      "text": "fairly clear that the rape / war / seed",
      "start": 77.369,
      "duration": 10.261
    },
    {
      "text": "spraying behavior is what happens when",
      "start": 83.61,
      "duration": 6.09
    },
    {
      "text": "you're in a society of both scarcity and",
      "start": 87.63,
      "duration": 6.029
    },
    {
      "text": "violence whereas the pair bond and",
      "start": 89.7,
      "duration": 6.75
    },
    {
      "text": "invest a lot in your children and have",
      "start": 93.659,
      "duration": 4.89
    },
    {
      "text": "far fewer children of course happens",
      "start": 96.45,
      "duration": 4.349
    },
    {
      "text": "when you're in a situation of peace",
      "start": 98.549,
      "duration": 10.14
    },
    {
      "text": "trade plenty and and so on and so when",
      "start": 100.799,
      "duration": 11.761
    },
    {
      "text": "you are in the war / rape reproductive",
      "start": 108.689,
      "duration": 5.671
    },
    {
      "text": "strategy or the spray your seed",
      "start": 112.56,
      "duration": 4.589
    },
    {
      "text": "reproductive strategy you are very",
      "start": 114.36,
      "duration": 6.359
    },
    {
      "text": "interested in dominance interactions are",
      "start": 117.149,
      "duration": 8.701
    },
    {
      "text": "win-lose I will dominate you and that is",
      "start": 120.719,
      "duration": 7.141
    },
    {
      "text": "how reproduction occurs and that is a",
      "start": 125.85,
      "duration": 3.359
    },
    {
      "text": "you know we're just talking from an",
      "start": 127.86,
      "duration": 4.69
    },
    {
      "text": "amoral you know reproduce your genes",
      "start": 129.209,
      "duration": 4.991
    },
    {
      "text": "m point from a pure biology standpoint",
      "start": 132.55,
      "duration": 3.48
    },
    {
      "text": "that's the best reproductive strategy in",
      "start": 134.2,
      "duration": 3.69
    },
    {
      "text": "a time of want and scarcity and war is",
      "start": 136.03,
      "duration": 4.23
    },
    {
      "text": "to be an aggressive dominating",
      "start": 137.89,
      "duration": 5.46
    },
    {
      "text": "conquering male and therefore your",
      "start": 140.26,
      "duration": 4.44
    },
    {
      "text": "interactions are going to be wind loose",
      "start": 143.35,
      "duration": 2.58
    },
    {
      "text": "the woman's going to have sex would be",
      "start": 144.7,
      "duration": 2.79
    },
    {
      "text": "whether she likes it or not you're gonna",
      "start": 145.93,
      "duration": 2.88
    },
    {
      "text": "stick a spear through the guy's head",
      "start": 147.49,
      "duration": 4.29
    },
    {
      "text": "whether he likes it or not and this is",
      "start": 148.81,
      "duration": 5.13
    },
    {
      "text": "the Genghis Khan approach and given the",
      "start": 151.78,
      "duration": 4.26
    },
    {
      "text": "number of Asians who can trace their",
      "start": 153.94,
      "duration": 4.74
    },
    {
      "text": "lineage to Genghis Khan's hyperactive",
      "start": 156.04,
      "duration": 5.85
    },
    {
      "text": "balls well it's a fairly successful",
      "start": 158.68,
      "duration": 9.53
    },
    {
      "text": "reproductive strategy and so if you are",
      "start": 161.89,
      "duration": 10.49
    },
    {
      "text": "in a situation of violence aggression",
      "start": 168.21,
      "duration": 7.18
    },
    {
      "text": "and farther less Ness right because",
      "start": 172.38,
      "duration": 4.12
    },
    {
      "text": "these fathers don't tend to stick around",
      "start": 175.39,
      "duration": 4.17
    },
    {
      "text": "and so I mean Genghis Khan didn't stick",
      "start": 176.5,
      "duration": 4.68
    },
    {
      "text": "around to raise all 12 billion of his",
      "start": 179.56,
      "duration": 5.31
    },
    {
      "text": "children and so if you're a boy and you",
      "start": 181.18,
      "duration": 7.2
    },
    {
      "text": "are raised without a father then the",
      "start": 184.87,
      "duration": 5.34
    },
    {
      "text": "epigenetics of your situation say",
      "start": 188.38,
      "duration": 4.02
    },
    {
      "text": "something like this ok ok so dad's not",
      "start": 190.21,
      "duration": 5.3
    },
    {
      "text": "around which means that we're in the",
      "start": 192.4,
      "duration": 6
    },
    {
      "text": "screw as many women as you can and hope",
      "start": 195.51,
      "duration": 4.69
    },
    {
      "text": "that some of the kids reach adulthood",
      "start": 198.4,
      "duration": 4.47
    },
    {
      "text": "which means that I better be really",
      "start": 200.2,
      "duration": 4.95
    },
    {
      "text": "aggressive and means that I better be",
      "start": 202.87,
      "duration": 4.83
    },
    {
      "text": "conquering it means that I'd better be",
      "start": 205.15,
      "duration": 6.15
    },
    {
      "text": "you know a thunder chested Conan style",
      "start": 207.7,
      "duration": 7.23
    },
    {
      "text": "warrior bastard and so that's what you",
      "start": 211.3,
      "duration": 6.96
    },
    {
      "text": "do you become obsessed with power you",
      "start": 214.93,
      "duration": 5.37
    },
    {
      "text": "become obsessed with size you become",
      "start": 218.26,
      "duration": 4.05
    },
    {
      "text": "obsessed with dominance you become",
      "start": 220.3,
      "duration": 4.409
    },
    {
      "text": "obsessed with winning and this is why",
      "start": 222.31,
      "duration": 5.31
    },
    {
      "text": "you're into the Tyrannosaurus Rex that",
      "start": 224.709,
      "duration": 6.211
    },
    {
      "text": "eats everything in its path and muscle",
      "start": 227.62,
      "duration": 6.119
    },
    {
      "text": "cars with big loud noises and you're",
      "start": 230.92,
      "duration": 6.72
    },
    {
      "text": "into muscular men and sorry that's",
      "start": 233.739,
      "duration": 5.761
    },
    {
      "text": "probably that's not exactly the same",
      "start": 237.64,
      "duration": 4.56
    },
    {
      "text": "reproductive strategy but but that's the",
      "start": 239.5,
      "duration": 5.94
    },
    {
      "text": "general issue that occurs now this",
      "start": 242.2,
      "duration": 4.86
    },
    {
      "text": "occurs even before you're born right",
      "start": 245.44,
      "duration": 3.06
    },
    {
      "text": "because the baby receives information",
      "start": 247.06,
      "duration": 2.97
    },
    {
      "text": "about the environment it's going to be",
      "start": 248.5,
      "duration": 4.95
    },
    {
      "text": "born into even before it exits the",
      "start": 250.03,
      "duration": 6.81
    },
    {
      "text": "vagina and so if the mother is",
      "start": 253.45,
      "duration": 4.89
    },
    {
      "text": "undergoing stress or privation",
      "start": 256.84,
      "duration": 3.86
    },
    {
      "text": "starvation thirst want of any kind",
      "start": 258.34,
      "duration": 4.5
    },
    {
      "text": "changes the way the baby's mind works",
      "start": 260.7,
      "duration": 3.4
    },
    {
      "text": "baby comes out tends to be more",
      "start": 262.84,
      "duration": 2.46
    },
    {
      "text": "aggressive more because that's the",
      "start": 264.1,
      "duration": 2.43
    },
    {
      "text": "environment they're going to have to",
      "start": 265.3,
      "duration": 2.67
    },
    {
      "text": "it's going to be win-lose is not going",
      "start": 266.53,
      "duration": 3.57
    },
    {
      "text": "to be win-win and therefore you know",
      "start": 267.97,
      "duration": 5.84
    },
    {
      "text": "dominance and muscularity and a kind of",
      "start": 270.1,
      "duration": 7.86
    },
    {
      "text": "bad stereotype of masculinity is what",
      "start": 273.81,
      "duration": 7
    },
    {
      "text": "rises to the forefront of the young boys",
      "start": 277.96,
      "duration": 6.09
    },
    {
      "text": "minds and this isn't this is just one",
      "start": 280.81,
      "duration": 4.95
    },
    {
      "text": "reproductive strategy is not the way",
      "start": 284.05,
      "duration": 3.51
    },
    {
      "text": "that it has to be it's just how human",
      "start": 285.76,
      "duration": 3.75
    },
    {
      "text": "beings adapt to their particular",
      "start": 287.56,
      "duration": 6.63
    },
    {
      "text": "environment and this is something that",
      "start": 289.51,
      "duration": 6.24
    },
    {
      "text": "you can really trace right i mean",
      "start": 294.19,
      "duration": 6.15
    },
    {
      "text": "there's some evidence for this when you",
      "start": 295.75,
      "duration": 6.93
    },
    {
      "text": "look at the the modern epidemic of",
      "start": 300.34,
      "duration": 4.44
    },
    {
      "text": "fatherlessness started in the 70s when",
      "start": 302.68,
      "duration": 3.18
    },
    {
      "text": "you had a sort of three hundred percent",
      "start": 304.78,
      "duration": 4.59
    },
    {
      "text": "rise in the divorce rate and it was",
      "start": 305.86,
      "duration": 5.69
    },
    {
      "text": "during this time that you began to see",
      "start": 309.37,
      "duration": 7.16
    },
    {
      "text": "really hyper masculine kinds of images",
      "start": 311.55,
      "duration": 8.59
    },
    {
      "text": "arising at the culture right so if you",
      "start": 316.53,
      "duration": 7.66
    },
    {
      "text": "look at sort of the male heroes even for",
      "start": 320.14,
      "duration": 6.69
    },
    {
      "text": "boys and young men you had you know",
      "start": 324.19,
      "duration": 6.81
    },
    {
      "text": "pretty gentle kinds of you know the ward",
      "start": 326.83,
      "duration": 6.149
    },
    {
      "text": "cleavers and the father knows best and",
      "start": 331,
      "duration": 3.39
    },
    {
      "text": "my three sons and all that kind of stuff",
      "start": 332.979,
      "duration": 3.271
    },
    {
      "text": "got a little bit darker with wait till",
      "start": 334.39,
      "duration": 3.33
    },
    {
      "text": "your father gets home but but the",
      "start": 336.25,
      "duration": 2.64
    },
    {
      "text": "flintstones and all of that they were",
      "start": 337.72,
      "duration": 3.27
    },
    {
      "text": "all kind of genial and and all of that",
      "start": 338.89,
      "duration": 4.35
    },
    {
      "text": "kind of stuff but what changed of course",
      "start": 340.99,
      "duration": 4.47
    },
    {
      "text": "in the 70s was and they weren't",
      "start": 343.24,
      "duration": 3.9
    },
    {
      "text": "particularly muscular right i mean the",
      "start": 345.46,
      "duration": 3.99
    },
    {
      "text": "Gregory Peck and and Humphrey Bogart and",
      "start": 347.14,
      "duration": 4.95
    },
    {
      "text": "all of these guys Dayven you didn't have",
      "start": 349.45,
      "duration": 6.06
    },
    {
      "text": "to be particularly muscular but with the",
      "start": 352.09,
      "duration": 5.61
    },
    {
      "text": "rise of fatherlessness you get the rise",
      "start": 355.51,
      "duration": 8.27
    },
    {
      "text": "of win-lose dominant hyper-masculine",
      "start": 357.7,
      "duration": 9
    },
    {
      "text": "manhood coming to the forefront which is",
      "start": 363.78,
      "duration": 4.42
    },
    {
      "text": "one of the reasons why in the 70s you",
      "start": 366.7,
      "duration": 4.31
    },
    {
      "text": "start to see really muscular kinds of",
      "start": 368.2,
      "duration": 5.55
    },
    {
      "text": "men becoming the heroes right so the",
      "start": 371.01,
      "duration": 5.38
    },
    {
      "text": "rocky kind of her you know really big",
      "start": 373.75,
      "duration": 6.21
    },
    {
      "text": "meaty you know massive biceps kind of",
      "start": 376.39,
      "duration": 5.31
    },
    {
      "text": "thing I remember just by the by when I",
      "start": 379.96,
      "duration": 5.04
    },
    {
      "text": "first saw the Blues Brothers there was",
      "start": 381.7,
      "duration": 5.37
    },
    {
      "text": "Matt guitar Murphy was the guitarist I",
      "start": 385,
      "duration": 4.32
    },
    {
      "text": "mean the man had biceps the size of my",
      "start": 387.07,
      "duration": 3.659
    },
    {
      "text": "thighs I mean I remember being really",
      "start": 389.32,
      "duration": 3.06
    },
    {
      "text": "impressed by that in wanting to get sort",
      "start": 390.729,
      "duration": 3.151
    },
    {
      "text": "of big and and all that kind of stuff",
      "start": 392.38,
      "duration": 3.57
    },
    {
      "text": "and they so the hyper muscularity the",
      "start": 393.88,
      "duration": 4.23
    },
    {
      "text": "six-packs and the sort of the Viper that",
      "start": 395.95,
      "duration": 3.59
    },
    {
      "text": "sort of v-shaped",
      "start": 398.11,
      "duration": 3.98
    },
    {
      "text": "back that you're supposed to get as a",
      "start": 399.54,
      "duration": 5.43
    },
    {
      "text": "man but all this is because when there",
      "start": 402.09,
      "duration": 5.28
    },
    {
      "text": "aren't dads around you assume it's going",
      "start": 404.97,
      "duration": 6.06
    },
    {
      "text": "to be a rape / war spray / spray your",
      "start": 407.37,
      "duration": 5.55
    },
    {
      "text": "seed kind of reproductive environment so",
      "start": 411.03,
      "duration": 3.78
    },
    {
      "text": "you want to be dominant you want to be",
      "start": 412.92,
      "duration": 3.12
    },
    {
      "text": "aggressive you want to be big you want",
      "start": 414.81,
      "duration": 2.82
    },
    {
      "text": "to be strong and this is why you get the",
      "start": 416.04,
      "duration": 4.23
    },
    {
      "text": "rise of jocks and the diminishment of",
      "start": 417.63,
      "duration": 4.8
    },
    {
      "text": "nerds right I mean this is what happens",
      "start": 420.27,
      "duration": 4.92
    },
    {
      "text": "in this kind of hyper masculine assuming",
      "start": 422.43,
      "duration": 4.2
    },
    {
      "text": "that you're going to have to punch your",
      "start": 425.19,
      "duration": 3.3
    },
    {
      "text": "way through life so you know the bigger",
      "start": 426.63,
      "duration": 3.45
    },
    {
      "text": "people who are physically more strong",
      "start": 428.49,
      "duration": 3.78
    },
    {
      "text": "and more adept they become the heroes",
      "start": 430.08,
      "duration": 4.14
    },
    {
      "text": "and the people who are intellectually or",
      "start": 432.27,
      "duration": 4.74
    },
    {
      "text": "even morally more virtuous and smarter",
      "start": 434.22,
      "duration": 3.9
    },
    {
      "text": "and better they become the de",
      "start": 437.01,
      "duration": 3.09
    },
    {
      "text": "pencil-necked geeks and so on this is",
      "start": 438.12,
      "duration": 4.2
    },
    {
      "text": "all part of the plague of fatherlessness",
      "start": 440.1,
      "duration": 5.52
    },
    {
      "text": "that has really cursed damned undermined",
      "start": 442.32,
      "duration": 4.71
    },
    {
      "text": "and probably will eventually destroy",
      "start": 445.62,
      "duration": 5.46
    },
    {
      "text": "Western civilization as soon as you have",
      "start": 447.03,
      "duration": 5.88
    },
    {
      "text": "no dad's in the picture you begin to get",
      "start": 451.08,
      "duration": 4.65
    },
    {
      "text": "this kind of feral aggression that goes",
      "start": 452.91,
      "duration": 4.77
    },
    {
      "text": "on particularly among boys it also",
      "start": 455.73,
      "duration": 5.61
    },
    {
      "text": "changes what women look for because if a",
      "start": 457.68,
      "duration": 6.96
    },
    {
      "text": "woman is needs a man as women generally",
      "start": 461.34,
      "duration": 4.8
    },
    {
      "text": "do is women if a woman needs a man to",
      "start": 464.64,
      "duration": 4.08
    },
    {
      "text": "stick around to pair bond right to to to",
      "start": 466.14,
      "duration": 3.78
    },
    {
      "text": "love and to have a great family",
      "start": 468.72,
      "duration": 4.71
    },
    {
      "text": "connection and to raise the children in",
      "start": 469.92,
      "duration": 4.95
    },
    {
      "text": "a peaceful and productive and loving and",
      "start": 473.43,
      "duration": 3.21
    },
    {
      "text": "long-term manner then she's gonna have",
      "start": 474.87,
      "duration": 4.2
    },
    {
      "text": "to look for a guy who's a good guy not",
      "start": 476.64,
      "duration": 6
    },
    {
      "text": "just a you know he's cute and funny and",
      "start": 479.07,
      "duration": 5.94
    },
    {
      "text": "big chested and with a ripping Jersey",
      "start": 482.64,
      "duration": 4.74
    },
    {
      "text": "Shore body she's gonna have to look for",
      "start": 485.01,
      "duration": 3.84
    },
    {
      "text": "a guy who's actually reliable who's",
      "start": 487.38,
      "duration": 3.84
    },
    {
      "text": "who's productive who's dependable who's",
      "start": 488.85,
      "duration": 4.56
    },
    {
      "text": "you know not going to stray and all that",
      "start": 491.22,
      "duration": 4.08
    },
    {
      "text": "kind of stuff so when you have a",
      "start": 493.41,
      "duration": 4.05
    },
    {
      "text": "situation where fatherlessness becomes",
      "start": 495.3,
      "duration": 4.02
    },
    {
      "text": "more and more of the norm than women",
      "start": 497.46,
      "duration": 3
    },
    {
      "text": "tend to adopt more short-term",
      "start": 499.32,
      "duration": 2.73
    },
    {
      "text": "reproductive strategies again the",
      "start": 500.46,
      "duration": 3.09
    },
    {
      "text": "women's jeans want to reproduce just as",
      "start": 502.05,
      "duration": 3.56
    },
    {
      "text": "much as the men do and if the woman is",
      "start": 503.55,
      "duration": 5.13
    },
    {
      "text": "if the woman's jeans or or sexual",
      "start": 505.61,
      "duration": 5.05
    },
    {
      "text": "desires are being shaped in an",
      "start": 508.68,
      "duration": 4.739
    },
    {
      "text": "environment where fatherlessness or war",
      "start": 510.66,
      "duration": 5.58
    },
    {
      "text": "/ rape is the reproductive strategy then",
      "start": 513.419,
      "duration": 4.56
    },
    {
      "text": "she's gonna start looking for different",
      "start": 516.24,
      "duration": 4.73
    },
    {
      "text": "things then long-term dependable",
      "start": 517.979,
      "duration": 6.241
    },
    {
      "text": "virtuous loving patient calm fatherhood",
      "start": 520.97,
      "duration": 5.32
    },
    {
      "text": "she's going to start looking for the",
      "start": 524.22,
      "duration": 3.78
    },
    {
      "text": "physically most dominant physically most",
      "start": 526.29,
      "duration": 3.15
    },
    {
      "text": "aggressive physically most muscular",
      "start": 528,
      "duration": 4.32
    },
    {
      "text": "biggest asshole around because that's",
      "start": 529.44,
      "duration": 4.05
    },
    {
      "text": "going to give her strapping",
      "start": 532.32,
      "duration": 2.67
    },
    {
      "text": "who are going to grow up and dominate",
      "start": 533.49,
      "duration": 3.24
    },
    {
      "text": "other men and so on and this is why you",
      "start": 534.99,
      "duration": 4.86
    },
    {
      "text": "see the rise of hyper muscular six-pack",
      "start": 536.73,
      "duration": 6.69
    },
    {
      "text": "Jacques approaches to what women find",
      "start": 539.85,
      "duration": 5.929
    },
    {
      "text": "attractive and this is why the sort of",
      "start": 543.42,
      "duration": 4.65
    },
    {
      "text": "the body image issues have begun to",
      "start": 545.779,
      "duration": 4.211
    },
    {
      "text": "plague men as much as they used to play",
      "start": 548.07,
      "duration": 4.5
    },
    {
      "text": "women because women now have shorter",
      "start": 549.99,
      "duration": 4.44
    },
    {
      "text": "term reproductive strategies and looking",
      "start": 552.57,
      "duration": 5.37
    },
    {
      "text": "for mere physical attractiveness or",
      "start": 554.43,
      "duration": 5.82
    },
    {
      "text": "physical dominance characteristics",
      "start": 557.94,
      "duration": 4.89
    },
    {
      "text": "rather than long-term virtue and this of",
      "start": 560.25,
      "duration": 4.41
    },
    {
      "text": "course is I get these emails all the",
      "start": 562.83,
      "duration": 4.379
    },
    {
      "text": "time saying wha I'm a nice guy and you",
      "start": 564.66,
      "duration": 3.989
    },
    {
      "text": "know women did keep going for the bad",
      "start": 567.209,
      "duration": 4.591
    },
    {
      "text": "boy but that's because the bad boy wins",
      "start": 568.649,
      "duration": 6.69
    },
    {
      "text": "in a time of enormous conflict and",
      "start": 571.8,
      "duration": 5.96
    },
    {
      "text": "violence and destruction in society and",
      "start": 575.339,
      "duration": 6.951
    },
    {
      "text": "fatherlessness is a cue to women to even",
      "start": 577.76,
      "duration": 7.18
    },
    {
      "text": "fetuses to two babies to the development",
      "start": 582.29,
      "duration": 5.23
    },
    {
      "text": "of the human psyche it is a cue to say",
      "start": 584.94,
      "duration": 4.589
    },
    {
      "text": "you better be dominant you better be",
      "start": 587.52,
      "duration": 3.99
    },
    {
      "text": "aggressive you better be punchy you",
      "start": 589.529,
      "duration": 3.421
    },
    {
      "text": "better not take any shit and you better",
      "start": 591.51,
      "duration": 4.32
    },
    {
      "text": "beat others right because to get back to",
      "start": 592.95,
      "duration": 4.11
    },
    {
      "text": "the race kind of thing while race cars",
      "start": 595.83,
      "duration": 3.21
    },
    {
      "text": "are big and powerful the muscular but",
      "start": 597.06,
      "duration": 3.99
    },
    {
      "text": "they also to win lose thing right it's",
      "start": 599.04,
      "duration": 4.919
    },
    {
      "text": "like kids addictions to this sort of",
      "start": 601.05,
      "duration": 4.86
    },
    {
      "text": "came out in the 70s as well where kids",
      "start": 603.959,
      "duration": 4.591
    },
    {
      "text": "really got into martial arts right like",
      "start": 605.91,
      "duration": 4.14
    },
    {
      "text": "the mighty morphin power rangers and",
      "start": 608.55,
      "duration": 4.02
    },
    {
      "text": "they really got into teenage mutant",
      "start": 610.05,
      "duration": 4.74
    },
    {
      "text": "ninja turtles and all of this fisty",
      "start": 612.57,
      "duration": 3.72
    },
    {
      "text": "fisty fight fight stuff that wasn't",
      "start": 614.79,
      "duration": 2.88
    },
    {
      "text": "really so much around when I was younger",
      "start": 616.29,
      "duration": 3.989
    },
    {
      "text": "at least and that's because you're",
      "start": 617.67,
      "duration": 4.83
    },
    {
      "text": "getting these cues dad's on around we",
      "start": 620.279,
      "duration": 4.201
    },
    {
      "text": "better be tough because the strategy is",
      "start": 622.5,
      "duration": 6.87
    },
    {
      "text": "to kill and to rape or at least to have",
      "start": 624.48,
      "duration": 6.54
    },
    {
      "text": "those characteristics of dominance which",
      "start": 629.37,
      "duration": 3.51
    },
    {
      "text": "women are more likely to go for when the",
      "start": 631.02,
      "duration": 3.569
    },
    {
      "text": "social cues around now of course the",
      "start": 632.88,
      "duration": 5.19
    },
    {
      "text": "reality is that the reason that there",
      "start": 634.589,
      "duration": 5.281
    },
    {
      "text": "was a father greater fatherlessness was",
      "start": 638.07,
      "duration": 3
    },
    {
      "text": "not because there was a social",
      "start": 639.87,
      "duration": 3.06
    },
    {
      "text": "disintegration in society but because of",
      "start": 641.07,
      "duration": 4.05
    },
    {
      "text": "the rise of the welfare state sent the",
      "start": 642.93,
      "duration": 6.12
    },
    {
      "text": "wrong cues to society right so a woman",
      "start": 645.12,
      "duration": 6.15
    },
    {
      "text": "could have children without the dad",
      "start": 649.05,
      "duration": 3.69
    },
    {
      "text": "being around because of the welfare",
      "start": 651.27,
      "duration": 4.379
    },
    {
      "text": "state and so you kind of have this",
      "start": 652.74,
      "duration": 4.289
    },
    {
      "text": "mismatch it's really really important to",
      "start": 655.649,
      "duration": 2.611
    },
    {
      "text": "understand this when you're talking to",
      "start": 657.029,
      "duration": 3.841
    },
    {
      "text": "people it's really I sort of do this",
      "start": 658.26,
      "duration": 4.14
    },
    {
      "text": "when I'm talking to people say okay what",
      "start": 660.87,
      "duration": 3.63
    },
    {
      "text": "are you bred for what were you bred for",
      "start": 662.4,
      "duration": 4.41
    },
    {
      "text": "what kind of world will you bred for or",
      "start": 664.5,
      "duration": 2.61
    },
    {
      "text": "you",
      "start": 666.81,
      "duration": 2.79
    },
    {
      "text": "read for a world of peace and plenty and",
      "start": 667.11,
      "duration": 4.53
    },
    {
      "text": "cooperation and win-win negotiations",
      "start": 669.6,
      "duration": 6.21
    },
    {
      "text": "over you bread for you know fight fight",
      "start": 671.64,
      "duration": 8.67
    },
    {
      "text": "fight win lose dominate because in that",
      "start": 675.81,
      "duration": 9.269
    },
    {
      "text": "society there is not pair-bonding",
      "start": 680.31,
      "duration": 7.41
    },
    {
      "text": "there's not you know one girl for every",
      "start": 685.079,
      "duration": 3.991
    },
    {
      "text": "boy or whatever it's a different kind of",
      "start": 687.72,
      "duration": 3.39
    },
    {
      "text": "environment the women tend to submit to",
      "start": 689.07,
      "duration": 4.829
    },
    {
      "text": "the most powerful alpha male around and",
      "start": 691.11,
      "duration": 5.34
    },
    {
      "text": "that's very different situation so I've",
      "start": 693.899,
      "duration": 3.69
    },
    {
      "text": "always asked myself when I'm debating",
      "start": 696.45,
      "duration": 2.97
    },
    {
      "text": "with someone when I'm interacting with",
      "start": 697.589,
      "duration": 3.151
    },
    {
      "text": "someone it's a really really important",
      "start": 699.42,
      "duration": 2.82
    },
    {
      "text": "question asked which world are you",
      "start": 700.74,
      "duration": 2.94
    },
    {
      "text": "living in which world are you living in",
      "start": 702.24,
      "duration": 3.089
    },
    {
      "text": "the world of war or are you living in",
      "start": 703.68,
      "duration": 2.88
    },
    {
      "text": "the world of peace where you bread for",
      "start": 705.329,
      "duration": 2.611
    },
    {
      "text": "the world of conflicts or were you bread",
      "start": 706.56,
      "duration": 2.67
    },
    {
      "text": "for the world of cooperation are you",
      "start": 707.94,
      "duration": 3.45
    },
    {
      "text": "bread for win lose or are you bread for",
      "start": 709.23,
      "duration": 4.26
    },
    {
      "text": "a win win now of course there's more to",
      "start": 711.39,
      "duration": 3.569
    },
    {
      "text": "it than breeding I mean obviously you",
      "start": 713.49,
      "duration": 3.24
    },
    {
      "text": "can change the world you really have to",
      "start": 714.959,
      "duration": 2.82
    },
    {
      "text": "be conscious about it and really work",
      "start": 716.73,
      "duration": 3.21
    },
    {
      "text": "hard to do it but you can change the",
      "start": 717.779,
      "duration": 4.74
    },
    {
      "text": "world that you currently inhabit but",
      "start": 719.94,
      "duration": 4.019
    },
    {
      "text": "that's really really important to",
      "start": 722.519,
      "duration": 3.451
    },
    {
      "text": "understand just look back in your own",
      "start": 723.959,
      "duration": 3.481
    },
    {
      "text": "life you know what's there are a lot of",
      "start": 725.97,
      "duration": 2.82
    },
    {
      "text": "conflicts that your parents divorce with",
      "start": 727.44,
      "duration": 2.31
    },
    {
      "text": "there are a lot of conflicts in the",
      "start": 728.79,
      "duration": 2.729
    },
    {
      "text": "marriage did you grow up without a dad",
      "start": 729.75,
      "duration": 4.32
    },
    {
      "text": "as so many people do that has profound",
      "start": 731.519,
      "duration": 6.481
    },
    {
      "text": "effects on your body's reaction and",
      "start": 734.07,
      "duration": 5.73
    },
    {
      "text": "preparation for what it means to be an",
      "start": 738,
      "duration": 3.42
    },
    {
      "text": "adult for what it means to be a man for",
      "start": 739.8,
      "duration": 3.39
    },
    {
      "text": "what it means to be a woman for what you",
      "start": 741.42,
      "duration": 5.01
    },
    {
      "text": "find sexually attractive right so the",
      "start": 743.19,
      "duration": 4.8
    },
    {
      "text": "other comment that I get constantly it's",
      "start": 746.43,
      "duration": 3.96
    },
    {
      "text": "like well she's a good woman but I just",
      "start": 747.99,
      "duration": 4.8
    },
    {
      "text": "don't feel that Spock well the spark",
      "start": 750.39,
      "duration": 4.5
    },
    {
      "text": "that that sort of flash fire of sexual",
      "start": 752.79,
      "duration": 4.25
    },
    {
      "text": "attraction that's for the world of war",
      "start": 754.89,
      "duration": 4.62
    },
    {
      "text": "that's for the world of war and that's",
      "start": 757.04,
      "duration": 4.419
    },
    {
      "text": "if you follow that you will I'm in my",
      "start": 759.51,
      "duration": 4.019
    },
    {
      "text": "opinion you will not develop good pair",
      "start": 761.459,
      "duration": 3.901
    },
    {
      "text": "bonding but if you look for somebody",
      "start": 763.529,
      "duration": 3.331
    },
    {
      "text": "who's virtuous and you look for somebody",
      "start": 765.36,
      "duration": 3.839
    },
    {
      "text": "who's you know the hotness of your wife",
      "start": 766.86,
      "duration": 3.659
    },
    {
      "text": "doesn't matter at three o'clock in the",
      "start": 769.199,
      "duration": 2.82
    },
    {
      "text": "morning when your baby's been up for the",
      "start": 770.519,
      "duration": 3.421
    },
    {
      "text": "third time that night what really",
      "start": 772.019,
      "duration": 3.81
    },
    {
      "text": "matters is you know patients in calm and",
      "start": 773.94,
      "duration": 3.329
    },
    {
      "text": "and all that kind of stuff not a woman",
      "start": 775.829,
      "duration": 2.88
    },
    {
      "text": "who's irritated because she wants to be",
      "start": 777.269,
      "duration": 2.721
    },
    {
      "text": "at a disco",
      "start": 778.709,
      "duration": 5.63
    },
    {
      "text": "so look at that in your world look at",
      "start": 779.99,
      "duration": 5.969
    },
    {
      "text": "that in yourself what kind of world was",
      "start": 784.339,
      "duration": 3.721
    },
    {
      "text": "i bred for what kind of reproductive",
      "start": 785.959,
      "duration": 4.231
    },
    {
      "text": "strategy is my body attuned to or",
      "start": 788.06,
      "duration": 5.01
    },
    {
      "text": "prepared for and you will learn an awful",
      "start": 790.19,
      "duration": 4.38
    },
    {
      "text": "lot about yourself and the people around",
      "start": 793.07,
      "duration": 3.63
    },
    {
      "text": "you if you grew up in a situation or a",
      "start": 794.57,
      "duration": 4.2
    },
    {
      "text": "family environment of peace and plenty",
      "start": 796.7,
      "duration": 4.05
    },
    {
      "text": "and cooperation and patience and so on",
      "start": 798.77,
      "duration": 3.96
    },
    {
      "text": "then you're you're built for pair",
      "start": 800.75,
      "duration": 3.209
    },
    {
      "text": "bonding you're built for win-win",
      "start": 802.73,
      "duration": 2.37
    },
    {
      "text": "negotiations you're built for",
      "start": 803.959,
      "duration": 2.82
    },
    {
      "text": "cooperation that's the way your brain",
      "start": 805.1,
      "duration": 3.359
    },
    {
      "text": "your body your nervous system the whole",
      "start": 806.779,
      "duration": 6.841
    },
    {
      "text": "physiology is tuned but if you were born",
      "start": 808.459,
      "duration": 6.661
    },
    {
      "text": "into conflict if you were born into",
      "start": 813.62,
      "duration": 3.6
    },
    {
      "text": "aggression verbal abuse physical abuse",
      "start": 815.12,
      "duration": 3.719
    },
    {
      "text": "if you were born into a single parent",
      "start": 817.22,
      "duration": 6.179
    },
    {
      "text": "household my guess my guess is that you",
      "start": 818.839,
      "duration": 7.711
    },
    {
      "text": "my friend attuned for war and you really",
      "start": 823.399,
      "duration": 4.591
    },
    {
      "text": "really need to look at how to change",
      "start": 826.55,
      "duration": 3.42
    },
    {
      "text": "your pitch to end up with a happier life",
      "start": 827.99,
      "duration": 5.719
    },
    {
      "text": "that the one-year program for",
      "start": 829.97,
      "duration": 3.739
    }
  ],
  "Errors": null,
  "TranscriptStderr": null
}