[
    {
        "start": "0",
        "dur": "4.17",
        "text": "hi everybody its defan molyneux from"
    },
    {
        "start": "2.01",
        "dur": "4.11",
        "text": "freedomain radio up here in the top"
    },
    {
        "start": "4.17",
        "dur": "3.72",
        "text": "right hand corner i'm going to try a"
    },
    {
        "start": "6.12",
        "dur": "4.89",
        "text": "little experiment which is rather than"
    },
    {
        "start": "7.89",
        "dur": "5.159",
        "text": "set up my study to be whiteboard central"
    },
    {
        "start": "11.01",
        "dur": "3.9",
        "text": "for the planet i got myself a little pen"
    },
    {
        "start": "13.049",
        "dur": "4.081",
        "text": "tablet and we'll see if we can't take"
    },
    {
        "start": "14.91",
        "dur": "4.41",
        "text": "this as an approach for putting together"
    },
    {
        "start": "17.13",
        "dur": "5.19",
        "text": "an argument or two so i apologize for"
    },
    {
        "start": "19.32",
        "dur": "5.549",
        "text": "the grade 2 lettering but i'm still"
    },
    {
        "start": "22.32",
        "dur": "4.86",
        "text": "getting used to it so one of the"
    },
    {
        "start": "24.869",
        "dur": "6.871",
        "text": "criticisms that i received with regards"
    },
    {
        "start": "27.18",
        "dur": "8.52",
        "text": "to my video on christianity was the idea"
    },
    {
        "start": "31.74",
        "dur": "7.38",
        "text": "that god does not work directly to"
    },
    {
        "start": "35.7",
        "dur": "6.21",
        "text": "people or speak directly to people but"
    },
    {
        "start": "39.12",
        "dur": "4.11",
        "text": "rather god in fact works through human"
    },
    {
        "start": "41.91",
        "dur": "3.989",
        "text": "intermediaries in the form of giving"
    },
    {
        "start": "43.23",
        "dur": "5.43",
        "text": "them information giving them visions"
    },
    {
        "start": "45.899",
        "dur": "4.531",
        "text": "insights and so on so in the sort of"
    },
    {
        "start": "48.66",
        "dur": "3.6",
        "text": "standard christian way of looking at"
    },
    {
        "start": "50.43",
        "dur": "6.96",
        "text": "things as far as i understand it you"
    },
    {
        "start": "52.26",
        "dur": "13.77",
        "text": "know we have God up here along the along"
    },
    {
        "start": "57.39",
        "dur": "11.58",
        "text": "the top and God comes up with the"
    },
    {
        "start": "66.03",
        "dur": "7.409",
        "text": "original rules and then what happens is"
    },
    {
        "start": "68.97",
        "dur": "10.56",
        "text": "God talks to what is colloquially called"
    },
    {
        "start": "73.439",
        "dur": "9.271",
        "text": "a dude and then what happens is this"
    },
    {
        "start": "79.53",
        "dur": "6.06",
        "text": "dude then takes God's words and passes"
    },
    {
        "start": "82.71",
        "dur": "5.82",
        "text": "it to another dude who then passes it to"
    },
    {
        "start": "85.59",
        "dur": "6.9",
        "text": "another dude who then passes it and you"
    },
    {
        "start": "88.53",
        "dur": "7.29",
        "text": "this goes on and on and on and this is"
    },
    {
        "start": "92.49",
        "dur": "5.58",
        "text": "considered to be the way that religious"
    },
    {
        "start": "95.82",
        "dur": "6.119",
        "text": "instruction is passed and of course the"
    },
    {
        "start": "98.07",
        "dur": "7.35",
        "text": "first cause is considered to be God now"
    },
    {
        "start": "101.939",
        "dur": "5.82",
        "text": "clearly God is aware and understands"
    },
    {
        "start": "105.42",
        "dur": "4.14",
        "text": "because he designed human beings that"
    },
    {
        "start": "107.759",
        "dur": "4.29",
        "text": "human memory is fallible that human"
    },
    {
        "start": "109.56",
        "dur": "4.83",
        "text": "beings are susceptible to greed to"
    },
    {
        "start": "112.049",
        "dur": "4.86",
        "text": "political pressure to the desire for"
    },
    {
        "start": "114.39",
        "dur": "4.049",
        "text": "control they have a lust for power he"
    },
    {
        "start": "116.909",
        "dur": "3.57",
        "text": "knows all of this because he of course"
    },
    {
        "start": "118.439",
        "dur": "7.32",
        "text": "made a human being so he knows where all"
    },
    {
        "start": "120.479",
        "dur": "7.861",
        "text": "of this goes along so he also has a rule"
    },
    {
        "start": "125.759",
        "dur": "5.071",
        "text": "which this you know this particular"
    },
    {
        "start": "128.34",
        "dur": "5.21",
        "text": "instantiation of the rule where he talks"
    },
    {
        "start": "130.83",
        "dur": "5.45",
        "text": "to dude numero uno"
    },
    {
        "start": "133.55",
        "dur": "5.37",
        "text": "that is a pretty important aspect of the"
    },
    {
        "start": "136.28",
        "dur": "4.74",
        "text": "rule of God because he's saying I will"
    },
    {
        "start": "138.92",
        "dur": "4.14",
        "text": "directly talk to human beings revealed"
    },
    {
        "start": "141.02",
        "dur": "5.34",
        "text": "himself I reveal myself and all their"
    },
    {
        "start": "143.06",
        "dur": "4.92",
        "text": "glory and so on and then he's going to"
    },
    {
        "start": "146.36",
        "dur": "3.6",
        "text": "tell this guy and he told to friends and"
    },
    {
        "start": "147.98",
        "dur": "5.46",
        "text": "so on and it's going to go on through"
    },
    {
        "start": "149.96",
        "dur": "7.35",
        "text": "all of the through all of the"
    },
    {
        "start": "153.44",
        "dur": "6",
        "text": "translation problems and so on so God of"
    },
    {
        "start": "157.31",
        "dur": "9.17",
        "text": "course judges people by their knowledge"
    },
    {
        "start": "159.44",
        "dur": "10.26",
        "text": "of God so if we say that this guy has a"
    },
    {
        "start": "166.48",
        "dur": "5.14",
        "text": "knowledge factor of 10 because he's the"
    },
    {
        "start": "169.7",
        "dur": "3.99",
        "text": "guy out of 10 let's and let's say that"
    },
    {
        "start": "171.62",
        "dur": "5.49",
        "text": "God correctly imprints and prince"
    },
    {
        "start": "173.69",
        "dur": "5.94",
        "text": "himself on dude number one then we know"
    },
    {
        "start": "177.11",
        "dur": "4.86",
        "text": "for sure that because human language is"
    },
    {
        "start": "179.63",
        "dur": "3.96",
        "text": "finite and human beings can't put a"
    },
    {
        "start": "181.97",
        "dur": "4.35",
        "text": "thoughts visions and ideas in other"
    },
    {
        "start": "183.59",
        "dur": "6.39",
        "text": "human beings heads that this guy is"
    },
    {
        "start": "186.32",
        "dur": "7.14",
        "text": "going to be a 10 now this guy if he's"
    },
    {
        "start": "189.98",
        "dur": "5.82",
        "text": "lucky is going to be a 9 right and then"
    },
    {
        "start": "193.46",
        "dur": "4.38",
        "text": "this guy is going to be an eight and a"
    },
    {
        "start": "195.8",
        "dur": "4.89",
        "text": "seven and a six so pretty much we're"
    },
    {
        "start": "197.84",
        "dur": "6.84",
        "text": "going to get a very very quick"
    },
    {
        "start": "200.69",
        "dur": "6.75",
        "text": "degradation of the accuracy of God's"
    },
    {
        "start": "204.68",
        "dur": "6.93",
        "text": "initial conversation with dude number"
    },
    {
        "start": "207.44",
        "dur": "6.72",
        "text": "number one to the point where what"
    },
    {
        "start": "211.61",
        "dur": "4.26",
        "text": "happens after again this is all stuff"
    },
    {
        "start": "214.16",
        "dur": "4.829",
        "text": "that God knows because you know God is"
    },
    {
        "start": "215.87",
        "dur": "5.7",
        "text": "all-knowing and God did create man and"
    },
    {
        "start": "218.989",
        "dur": "4.411",
        "text": "so on so what we have is if we say that"
    },
    {
        "start": "221.57",
        "dur": "5.52",
        "text": "God you know let's say I don't know what"
    },
    {
        "start": "223.4",
        "dur": "6.63",
        "text": "it was 5,000 years ago talked to Moses"
    },
    {
        "start": "227.09",
        "dur": "4.59",
        "text": "or whatever then we're talking about I"
    },
    {
        "start": "230.03",
        "dur": "3.72",
        "text": "don't know how many generations that is"
    },
    {
        "start": "231.68",
        "dur": "4.59",
        "text": "but probably about two hundred"
    },
    {
        "start": "233.75",
        "dur": "5.82",
        "text": "generations 170 generations and so on"
    },
    {
        "start": "236.27",
        "dur": "5.61",
        "text": "right and of course it's going to be"
    },
    {
        "start": "239.57",
        "dur": "5.16",
        "text": "sort of an asymptotic decline right in"
    },
    {
        "start": "241.88",
        "dur": "6.51",
        "text": "so far as if we look at you know this is"
    },
    {
        "start": "244.73",
        "dur": "5.82",
        "text": "time the x axis is time can I put a"
    },
    {
        "start": "248.39",
        "dur": "5.04",
        "text": "clock in I don't think so and then this"
    },
    {
        "start": "250.55",
        "dur": "5.219",
        "text": "is comprehension right so what happens"
    },
    {
        "start": "253.43",
        "dur": "3.779",
        "text": "in any form of human communication if"
    },
    {
        "start": "255.769",
        "dur": "3.03",
        "text": "you've ever played that game you know"
    },
    {
        "start": "257.209",
        "dur": "3.571",
        "text": "where you tell a secret down a line when"
    },
    {
        "start": "258.799",
        "dur": "4.711",
        "text": "you're a kid you know kind of what"
    },
    {
        "start": "260.78",
        "dur": "6.48",
        "text": "happens as a result of all of this that"
    },
    {
        "start": "263.51",
        "dur": "4.08",
        "text": "the guy starts off here and what happens"
    },
    {
        "start": "267.26",
        "dur": "3",
        "text": "is"
    },
    {
        "start": "267.59",
        "dur": "5.79",
        "text": "knowledge quickly declines and then"
    },
    {
        "start": "270.26",
        "dur": "4.62",
        "text": "maybe it shallows out here as time goes"
    },
    {
        "start": "273.38",
        "dur": "3.48",
        "text": "forward the accuracy of something"
    },
    {
        "start": "274.88",
        "dur": "3.18",
        "text": "completely diminishes and declines and"
    },
    {
        "start": "276.86",
        "dur": "2.85",
        "text": "you can see this in the study of any"
    },
    {
        "start": "278.06",
        "dur": "8.16",
        "text": "math and then it continues with a few"
    },
    {
        "start": "279.71",
        "dur": "7.769",
        "text": "shreds of possible of possible accuracy"
    },
    {
        "start": "286.22",
        "dur": "4.259",
        "text": "as time goes forward I'm sort of"
    },
    {
        "start": "287.479",
        "dur": "4.5",
        "text": "reminded of an old myth that sort of"
    },
    {
        "start": "290.479",
        "dur": "5.281",
        "text": "story that I remember hearing as a kid"
    },
    {
        "start": "291.979",
        "dur": "6.631",
        "text": "that a woman was attacked by a murderer"
    },
    {
        "start": "295.76",
        "dur": "4.86",
        "text": "but her child hid by hid in the oven and"
    },
    {
        "start": "298.61",
        "dur": "3.33",
        "text": "thus survived and the truth of the"
    },
    {
        "start": "300.62",
        "dur": "3",
        "text": "matter was that a pregnant woman was"
    },
    {
        "start": "301.94",
        "dur": "5.13",
        "text": "attached but the baby was was attacked"
    },
    {
        "start": "303.62",
        "dur": "5.31",
        "text": "and killed but the baby was was sort of"
    },
    {
        "start": "307.07",
        "dur": "4.38",
        "text": "carved out of the mother's stomach after"
    },
    {
        "start": "308.93",
        "dur": "4.2",
        "text": "she died and survived and this is known"
    },
    {
        "start": "311.45",
        "dur": "3.15",
        "text": "as a bun in the oven to be pregnant you"
    },
    {
        "start": "313.13",
        "dur": "3.21",
        "text": "have a bun in the oven and so the kid"
    },
    {
        "start": "314.6",
        "dur": "3.81",
        "text": "hid in the oven is a shred of truth"
    },
    {
        "start": "316.34",
        "dur": "5.16",
        "text": "that's left after a certain amount of"
    },
    {
        "start": "318.41",
        "dur": "6.3",
        "text": "time when it comes to myth now the"
    },
    {
        "start": "321.5",
        "dur": "5.76",
        "text": "problem of course is that well a problem"
    },
    {
        "start": "324.71",
        "dur": "5.579",
        "text": "is that God knows for sure that this"
    },
    {
        "start": "327.26",
        "dur": "5.129",
        "text": "decline of accuracy is going to occur"
    },
    {
        "start": "330.289",
        "dur": "4.401",
        "text": "over time he knows exactly the the"
    },
    {
        "start": "332.389",
        "dur": "5.191",
        "text": "strengths and weaknesses of his creation"
    },
    {
        "start": "334.69",
        "dur": "6.58",
        "text": "so the problem is that he's got a"
    },
    {
        "start": "337.58",
        "dur": "5.7",
        "text": "standard which is up here for not"
    },
    {
        "start": "341.27",
        "dur": "3.18",
        "text": "sinning right so if you if you don't"
    },
    {
        "start": "343.28",
        "dur": "3.15",
        "text": "want to sin then you have to have"
    },
    {
        "start": "344.45",
        "dur": "3.87",
        "text": "perfect fidelity to God's original"
    },
    {
        "start": "346.43",
        "dur": "5.31",
        "text": "communication now no matter how"
    },
    {
        "start": "348.32",
        "dur": "5.069",
        "text": "wonderful human communication is there"
    },
    {
        "start": "351.74",
        "dur": "3.359",
        "text": "is no possibility that it can be as good"
    },
    {
        "start": "353.389",
        "dur": "2.911",
        "text": "as God because God gets you know can in"
    },
    {
        "start": "355.099",
        "dur": "3.781",
        "text": "your head and illuminates everything"
    },
    {
        "start": "356.3",
        "dur": "6.179",
        "text": "that you could possibly want or need to"
    },
    {
        "start": "358.88",
        "dur": "5.159",
        "text": "to have so God can directly wire into"
    },
    {
        "start": "362.479",
        "dur": "4.081",
        "text": "you and get the information across other"
    },
    {
        "start": "364.039",
        "dur": "5.88",
        "text": "people political motivations problems"
    },
    {
        "start": "366.56",
        "dur": "6.18",
        "text": "with memory personal ambitions agreed a"
    },
    {
        "start": "369.919",
        "dur": "5.101",
        "text": "fear and also just being insane right"
    },
    {
        "start": "372.74",
        "dur": "3.899",
        "text": "God knows that people are insane he"
    },
    {
        "start": "375.02",
        "dur": "5.04",
        "text": "knows that the old wetware is a little"
    },
    {
        "start": "376.639",
        "dur": "6.96",
        "text": "buggy from time to time so the standard"
    },
    {
        "start": "380.06",
        "dur": "6.84",
        "text": "of course is up here and the problem is"
    },
    {
        "start": "383.599",
        "dur": "5.94",
        "text": "with sin of course is that sin is"
    },
    {
        "start": "386.9",
        "dur": "6.21",
        "text": "occurring in this sort of area here and"
    },
    {
        "start": "389.539",
        "dur": "5.401",
        "text": "sin is constant right so we have an"
    },
    {
        "start": "393.11",
        "dur": "5.309",
        "text": "increase in sin through no fault of"
    },
    {
        "start": "394.94",
        "dur": "4.77",
        "text": "anybody's own as time goes forward so to"
    },
    {
        "start": "398.419",
        "dur": "3.871",
        "text": "judge"
    },
    {
        "start": "399.71",
        "dur": "5.67",
        "text": "someone by saying you know the first guy"
    },
    {
        "start": "402.29",
        "dur": "6.59",
        "text": "remember had a knowledge of ten ten you"
    },
    {
        "start": "405.38",
        "dur": "6.96",
        "text": "know out of 10 and so he was expected to"
    },
    {
        "start": "408.88",
        "dur": "7.47",
        "text": "to meet this thing right unfortunately"
    },
    {
        "start": "412.34",
        "dur": "6.45",
        "text": "now we were talking about 0.02 maybe"
    },
    {
        "start": "416.35",
        "dur": "4.51",
        "text": "that we have and yet the standard is"
    },
    {
        "start": "418.79",
        "dur": "5.67",
        "text": "still compared to 10 which is clearly"
    },
    {
        "start": "420.86",
        "dur": "4.89",
        "text": "not not a reasonable proposition and of"
    },
    {
        "start": "424.46",
        "dur": "4.5",
        "text": "course God knows all of this going"
    },
    {
        "start": "425.75",
        "dur": "4.83",
        "text": "forward so this is a little hard to to"
    },
    {
        "start": "428.96",
        "dur": "3.54",
        "text": "understand now people are going to say"
    },
    {
        "start": "430.58",
        "dur": "4.17",
        "text": "and this of course is is the challenge"
    },
    {
        "start": "432.5",
        "dur": "4.35",
        "text": "right people are going to have to say so"
    },
    {
        "start": "434.75",
        "dur": "6.15",
        "text": "there's God right right up front and"
    },
    {
        "start": "436.85",
        "dur": "7.2",
        "text": "then God transmits to let's say Moses or"
    },
    {
        "start": "440.9",
        "dur": "5.61",
        "text": "whoever you know one hundred percent of"
    },
    {
        "start": "444.05",
        "dur": "5.52",
        "text": "of the truth that he kind of wants to"
    },
    {
        "start": "446.51",
        "dur": "5.01",
        "text": "get across so far so good we're"
    },
    {
        "start": "449.57",
        "dur": "6.39",
        "text": "relatively happy with the logic of it"
    },
    {
        "start": "451.52",
        "dur": "6.63",
        "text": "and then Moses carves down and says to"
    },
    {
        "start": "455.96",
        "dur": "5.46",
        "text": "you know number 2 i'm even remember who"
    },
    {
        "start": "458.15",
        "dur": "5.55",
        "text": "that is number two maybe he gets ninety"
    },
    {
        "start": "461.42",
        "dur": "6.15",
        "text": "percent or ninety five percent of the"
    },
    {
        "start": "463.7",
        "dur": "5.79",
        "text": "information across now what has to"
    },
    {
        "start": "467.57",
        "dur": "4.29",
        "text": "happen in order for the people down the"
    },
    {
        "start": "469.49",
        "dur": "5.52",
        "text": "chain of understanding to be held to the"
    },
    {
        "start": "471.86",
        "dur": "5.82",
        "text": "standard that moses did was that god has"
    },
    {
        "start": "475.01",
        "dur": "5.55",
        "text": "to come in and say no no no if you get"
    },
    {
        "start": "477.68",
        "dur": "6.12",
        "text": "anything wrong right if you get anything"
    },
    {
        "start": "480.56",
        "dur": "6.12",
        "text": "wrong i'm going to bump that up to a"
    },
    {
        "start": "483.8",
        "dur": "5.1",
        "text": "hundred percent again right so Moses if"
    },
    {
        "start": "486.68",
        "dur": "4.02",
        "text": "use if you have the impulse to say that"
    },
    {
        "start": "488.9",
        "dur": "3.63",
        "text": "you know God believes that chicken"
    },
    {
        "start": "490.7",
        "dur": "3.21",
        "text": "chickens can fly or God told me the"
    },
    {
        "start": "492.53",
        "dur": "4.02",
        "text": "chickens can fly when chickens can't fly"
    },
    {
        "start": "493.91",
        "dur": "5.25",
        "text": "God is going to intervene and is going"
    },
    {
        "start": "496.55",
        "dur": "4.32",
        "text": "to say to Moses you can't say that that"
    },
    {
        "start": "499.16",
        "dur": "2.88",
        "text": "is not valid I'm going to block those"
    },
    {
        "start": "500.87",
        "dur": "4.47",
        "text": "woods near mouth and I'm going to"
    },
    {
        "start": "502.04",
        "dur": "5.73",
        "text": "replace it with chickens are in the bird"
    },
    {
        "start": "505.34",
        "dur": "4.71",
        "text": "family or something like that so all of"
    },
    {
        "start": "507.77",
        "dur": "3.93",
        "text": "the communication that goes between"
    },
    {
        "start": "510.05",
        "dur": "4.73",
        "text": "generations from God's original"
    },
    {
        "start": "511.7",
        "dur": "5.88",
        "text": "communication to to Moses has to be"
    },
    {
        "start": "514.78",
        "dur": "7.45",
        "text": "constantly propped up a reinforced door"
    },
    {
        "start": "517.58",
        "dur": "8.01",
        "text": "or renewed or guided by god so that so"
    },
    {
        "start": "522.23",
        "dur": "5.76",
        "text": "that the standard of no sin is the same"
    },
    {
        "start": "525.59",
        "dur": "5.22",
        "text": "for number two number number three"
    },
    {
        "start": "527.99",
        "dur": "5.37",
        "text": "number four number five number 150 that"
    },
    {
        "start": "530.81",
        "dur": "6.209",
        "text": "the standard remains the same the info"
    },
    {
        "start": "533.36",
        "dur": "6.27",
        "text": "has to be has to remain carved out by"
    },
    {
        "start": "537.019",
        "dur": "8.911",
        "text": "God now let's look at another situation"
    },
    {
        "start": "539.63",
        "dur": "10.949",
        "text": "where in Moses writes down ye olde Cecil"
    },
    {
        "start": "545.93",
        "dur": "6.42",
        "text": "B DeMille Ten Commandments and what"
    },
    {
        "start": "550.579",
        "dur": "3.931",
        "text": "happens of course is that some of those"
    },
    {
        "start": "552.35",
        "dur": "6.479",
        "text": "Commandments originally of course you"
    },
    {
        "start": "554.51",
        "dur": "6.54",
        "text": "know no kill right no killing no kill"
    },
    {
        "start": "558.829",
        "dur": "3.931",
        "text": "was originally of course meant don't"
    },
    {
        "start": "561.05",
        "dur": "3.09",
        "text": "kill other Jews you're allowed to kill"
    },
    {
        "start": "562.76",
        "dur": "3.93",
        "text": "other people of course and Lord knows"
    },
    {
        "start": "564.14",
        "dur": "3.84",
        "text": "the Bible has is full of that both in"
    },
    {
        "start": "566.69",
        "dur": "3.36",
        "text": "the old and new Testament the murder"
    },
    {
        "start": "567.98",
        "dur": "4.14",
        "text": "slaughter and rape of non-jews so"
    },
    {
        "start": "570.05",
        "dur": "4.11",
        "text": "originally it was don't kill Jews and"
    },
    {
        "start": "572.12",
        "dur": "3.899",
        "text": "then when it was translated to thou"
    },
    {
        "start": "574.16",
        "dur": "6.21",
        "text": "shalt not kill and it was expanded to"
    },
    {
        "start": "576.019",
        "dur": "6",
        "text": "include non-jews so the no kill don't"
    },
    {
        "start": "580.37",
        "dur": "5.43",
        "text": "kill the Jews which was the original"
    },
    {
        "start": "582.019",
        "dur": "8.721",
        "text": "commandment was then translated into no"
    },
    {
        "start": "585.8",
        "dur": "8.19",
        "text": "kill anyone right no kill period and so"
    },
    {
        "start": "590.74",
        "dur": "4.659",
        "text": "we don't know of course which one God"
    },
    {
        "start": "593.99",
        "dur": "3.719",
        "text": "meant we assumed that the original one"
    },
    {
        "start": "595.399",
        "dur": "4.38",
        "text": "was one what God meant did God change"
    },
    {
        "start": "597.709",
        "dur": "6.211",
        "text": "his mind between don't kill Jews and"
    },
    {
        "start": "599.779",
        "dur": "6.42",
        "text": "don't kill anyone or was this a sort of"
    },
    {
        "start": "603.92",
        "dur": "4.02",
        "text": "squiggly bad mistranslation of course"
    },
    {
        "start": "606.199",
        "dur": "4.25",
        "text": "the virgin birth is a mistranslation the"
    },
    {
        "start": "607.94",
        "dur": "5.49",
        "text": "original hebrew word for woman was a"
    },
    {
        "start": "610.449",
        "dur": "5.431",
        "text": "young young maiden or whatever and this"
    },
    {
        "start": "613.43",
        "dur": "5.07",
        "text": "was mistranslated 22 virgin so"
    },
    {
        "start": "615.88",
        "dur": "4.6",
        "text": "generations of italian men have horrible"
    },
    {
        "start": "618.5",
        "dur": "3.39",
        "text": "complexes about women because of a"
    },
    {
        "start": "620.48",
        "dur": "4.95",
        "text": "mistranslation from the ancient Hebrew"
    },
    {
        "start": "621.89",
        "dur": "5.85",
        "text": "Hebrew so here if we have the situation"
    },
    {
        "start": "625.43",
        "dur": "6.69",
        "text": "where the commandments change over time"
    },
    {
        "start": "627.74",
        "dur": "7.349",
        "text": "and we then have to sort of try and"
    },
    {
        "start": "632.12",
        "dur": "5.459",
        "text": "figure out if they're written down is"
    },
    {
        "start": "635.089",
        "dur": "4.981",
        "text": "the person who's translating them being"
    },
    {
        "start": "637.579",
        "dur": "5.401",
        "text": "told by God what to translate in other"
    },
    {
        "start": "640.07",
        "dur": "5.519",
        "text": "words is he being reinspect right slate"
    },
    {
        "start": "642.98",
        "dur": "4.229",
        "text": "accurately as is the case with Martin"
    },
    {
        "start": "645.589",
        "dur": "5.911",
        "text": "Luther when he wrote the vulgate version"
    },
    {
        "start": "647.209",
        "dur": "8.611",
        "text": "of the Bible 16th century then god is"
    },
    {
        "start": "651.5",
        "dur": "6.6",
        "text": "clearly saying that he wants to continue"
    },
    {
        "start": "655.82",
        "dur": "4.139",
        "text": "I'm going to just take my video off for"
    },
    {
        "start": "658.1",
        "dur": "4.59",
        "text": "a second he wants to continue this"
    },
    {
        "start": "659.959",
        "dur": "5.401",
        "text": "process of getting information across"
    },
    {
        "start": "662.69",
        "dur": "3.87",
        "text": "right so then now we have a situation"
    },
    {
        "start": "665.36",
        "dur": "4.44",
        "text": "where"
    },
    {
        "start": "666.56",
        "dur": "5.52",
        "text": "a guy is writing let me just do my"
    },
    {
        "start": "669.8",
        "dur": "4.95",
        "text": "little graphic here he's writing down a"
    },
    {
        "start": "672.08",
        "dur": "5.699",
        "text": "book and then this book sort of becomes"
    },
    {
        "start": "674.75",
        "dur": "4.62",
        "text": "that which is then transmitted to you"
    },
    {
        "start": "677.779",
        "dur": "4.051",
        "text": "know guy number one guy number two three"
    },
    {
        "start": "679.37",
        "dur": "4.53",
        "text": "four five six seven and so on now this"
    },
    {
        "start": "681.83",
        "dur": "4.86",
        "text": "book as its translated from prior"
    },
    {
        "start": "683.9",
        "dur": "4.379",
        "text": "versions is God coming in there and"
    },
    {
        "start": "686.69",
        "dur": "3.18",
        "text": "saying right this right that right the"
    },
    {
        "start": "688.279",
        "dur": "4.021",
        "text": "other if it contradicts what God said"
    },
    {
        "start": "689.87",
        "dur": "4.17",
        "text": "earlier which is the real version did"
    },
    {
        "start": "692.3",
        "dur": "3.75",
        "text": "God change his mind if God is outside of"
    },
    {
        "start": "694.04",
        "dur": "3.27",
        "text": "time then contradictions like this"
    },
    {
        "start": "696.05",
        "dur": "3.75",
        "text": "shouldn't exist he shouldn't be able to"
    },
    {
        "start": "697.31",
        "dur": "4.86",
        "text": "change his mind and so on so in all of"
    },
    {
        "start": "699.8",
        "dur": "5.46",
        "text": "these kinds of situations I think it's"
    },
    {
        "start": "702.17",
        "dur": "5.04",
        "text": "sort of important to understand that the"
    },
    {
        "start": "705.26",
        "dur": "5.49",
        "text": "story that is being told in terms of"
    },
    {
        "start": "707.21",
        "dur": "7.44",
        "text": "human accuracy of God's Word since God"
    },
    {
        "start": "710.75",
        "dur": "9.54",
        "text": "is perfectly happy right God will talk"
    },
    {
        "start": "714.65",
        "dur": "8.04",
        "text": "to a guy God will also talk to another"
    },
    {
        "start": "720.29",
        "dur": "5.46",
        "text": "guy God may in fact talk to the guy who"
    },
    {
        "start": "722.69",
        "dur": "4.62",
        "text": "does the translation and so on so to"
    },
    {
        "start": "725.75",
        "dur": "5.28",
        "text": "sort of move this up to the present"
    },
    {
        "start": "727.31",
        "dur": "6.48",
        "text": "right let's just say that you are some"
    },
    {
        "start": "731.03",
        "dur": "6.59",
        "text": "little kid I'll put you down here some"
    },
    {
        "start": "733.79",
        "dur": "7.2",
        "text": "little kid of Christian parents and"
    },
    {
        "start": "737.62",
        "dur": "5.52",
        "text": "what's happened is you are responsible"
    },
    {
        "start": "740.99",
        "dur": "4.53",
        "text": "for receipt for a hundred percent"
    },
    {
        "start": "743.14",
        "dur": "4.84",
        "text": "knowledge of God's will and adherence to"
    },
    {
        "start": "745.52",
        "dur": "3.99",
        "text": "it however if we look back with sort of"
    },
    {
        "start": "747.98",
        "dur": "4.7",
        "text": "up the well of time or back the well of"
    },
    {
        "start": "749.51",
        "dur": "7.79",
        "text": "time what happens is we have a situation"
    },
    {
        "start": "752.68",
        "dur": "8.86",
        "text": "where you know God has talked to Moses"
    },
    {
        "start": "757.3",
        "dur": "9.19",
        "text": "Moses talked to guy guy guy guy guy guy"
    },
    {
        "start": "761.54",
        "dur": "12.26",
        "text": "translated from let's say Hebrew to"
    },
    {
        "start": "766.49",
        "dur": "13.68",
        "text": "Aramaic Aramaic to Greek Greek to Latin"
    },
    {
        "start": "773.8",
        "dur": "8.44",
        "text": "Latin Latin latin to english or actually"
    },
    {
        "start": "780.17",
        "dur": "4.35",
        "text": "i guess it was german originally and so"
    },
    {
        "start": "782.24",
        "dur": "4.5",
        "text": "on right so we have all of this"
    },
    {
        "start": "784.52",
        "dur": "6.3",
        "text": "situation where there is an enormous"
    },
    {
        "start": "786.74",
        "dur": "10.59",
        "text": "amount of human intervention to get the"
    },
    {
        "start": "790.82",
        "dur": "9.09",
        "text": "word from you know 5,000 BC 5kb see all"
    },
    {
        "start": "797.33",
        "dur": "4.5",
        "text": "the way down to some kid who's"
    },
    {
        "start": "799.91",
        "dur": "6.09",
        "text": "up to bible school and who is receiving"
    },
    {
        "start": "801.83",
        "dur": "6.36",
        "text": "his instruction in 2008 hundreds of"
    },
    {
        "start": "806",
        "dur": "7.77",
        "text": "generations of mistranslation confusion"
    },
    {
        "start": "808.19",
        "dur": "8.82",
        "text": "and so on so then we have a situation if"
    },
    {
        "start": "813.77",
        "dur": "6.6",
        "text": "the instruction right that this little"
    },
    {
        "start": "817.01",
        "dur": "6",
        "text": "kid is receiving if his if this"
    },
    {
        "start": "820.37",
        "dur": "4.23",
        "text": "instruction is one hundred percent or if"
    },
    {
        "start": "823.01",
        "dur": "3.48",
        "text": "he's responsible let's say for one"
    },
    {
        "start": "824.6",
        "dur": "4.62",
        "text": "hundred percent of it then what has"
    },
    {
        "start": "826.49",
        "dur": "9.24",
        "text": "happened is if we just say roughly you"
    },
    {
        "start": "829.22",
        "dur": "12.86",
        "text": "know 175 175 generations right God has"
    },
    {
        "start": "835.73",
        "dur": "8.58",
        "text": "accurately given the information to 175"
    },
    {
        "start": "842.08",
        "dur": "3.64",
        "text": "generations of human beings and made"
    },
    {
        "start": "844.31",
        "dur": "3.83",
        "text": "sure that there be no mistakes no"
    },
    {
        "start": "845.72",
        "dur": "8.91",
        "text": "mistranslations no problems whatsoever"
    },
    {
        "start": "848.14",
        "dur": "9.39",
        "text": "but then he says on generation 176 no"
    },
    {
        "start": "854.63",
        "dur": "6.78",
        "text": "way not going to talk to generation 176"
    },
    {
        "start": "857.53",
        "dur": "5.38",
        "text": "175 times he said this is how it should"
    },
    {
        "start": "861.41",
        "dur": "3.75",
        "text": "be this is how it is exactly this is"
    },
    {
        "start": "862.91",
        "dur": "5.1",
        "text": "exactly what my will is 176 he"
    },
    {
        "start": "865.16",
        "dur": "4.41",
        "text": "mysteriously stops doing that and this"
    },
    {
        "start": "868.01",
        "dur": "3.36",
        "text": "of course is the only way that this"
    },
    {
        "start": "869.57",
        "dur": "3.6",
        "text": "person could be this kid could be a"
    },
    {
        "start": "871.37",
        "dur": "4.53",
        "text": "hundred percent responsible for"
    },
    {
        "start": "873.17",
        "dur": "8.97",
        "text": "adherence to the moral rules of the word"
    },
    {
        "start": "875.9",
        "dur": "9.54",
        "text": "of God now if on the other hand we have"
    },
    {
        "start": "882.14",
        "dur": "6",
        "text": "a situation where let me just erase all"
    },
    {
        "start": "885.44",
        "dur": "5.97",
        "text": "this stuff if we have a situation where"
    },
    {
        "start": "888.14",
        "dur": "5.76",
        "text": "we accept that there has been some human"
    },
    {
        "start": "891.41",
        "dur": "4.83",
        "text": "intervention in this question of"
    },
    {
        "start": "893.9",
        "dur": "5.55",
        "text": "information that has been provided then"
    },
    {
        "start": "896.24",
        "dur": "9.81",
        "text": "of course even if we say that God to"
    },
    {
        "start": "899.45",
        "dur": "8.64",
        "text": "Moses was 100% then we know with 175"
    },
    {
        "start": "906.05",
        "dur": "6.54",
        "text": "going down going down going down gun"
    },
    {
        "start": "908.09",
        "dur": "6.78",
        "text": "down we get to 2008 we are talking a you"
    },
    {
        "start": "912.59",
        "dur": "4.23",
        "text": "know tiny tiny tiny tiny this could go"
    },
    {
        "start": "914.87",
        "dur": "3.42",
        "text": "on and on percent of accurate"
    },
    {
        "start": "916.82",
        "dur": "4.05",
        "text": "information with regards to the original"
    },
    {
        "start": "918.29",
        "dur": "4.47",
        "text": "word of God so what that means of course"
    },
    {
        "start": "920.87",
        "dur": "3.36",
        "text": "is where we could legitimately say Moses"
    },
    {
        "start": "922.76",
        "dur": "3.63",
        "text": "had a hundred percent responsibility for"
    },
    {
        "start": "924.23",
        "dur": "3.03",
        "text": "matching the will of God on the other"
    },
    {
        "start": "926.39",
        "dur": "3.63",
        "text": "hand"
    },
    {
        "start": "927.26",
        "dur": "5.15",
        "text": "we have a problem insofar as the kid in"
    },
    {
        "start": "930.02",
        "dur": "4.92",
        "text": "2008 has an infinitesimally small"
    },
    {
        "start": "932.41",
        "dur": "4.51",
        "text": "capacity to understand the Word of God"
    },
    {
        "start": "934.94",
        "dur": "3.42",
        "text": "so either and this is the logical"
    },
    {
        "start": "936.92",
        "dur": "3.63",
        "text": "problem which is one of many many"
    },
    {
        "start": "938.36",
        "dur": "6.33",
        "text": "logical problems that occurs in the"
    },
    {
        "start": "940.55",
        "dur": "6.09",
        "text": "realm of religion that either God has"
    },
    {
        "start": "944.69",
        "dur": "7.32",
        "text": "spoken 275 generations and then"
    },
    {
        "start": "946.64",
        "dur": "7.2",
        "text": "mysteriously stops at 176 or God has not"
    },
    {
        "start": "952.01",
        "dur": "3.81",
        "text": "spoken to anyone since Moses and a few"
    },
    {
        "start": "953.84",
        "dur": "3.66",
        "text": "other people and therefore we have no"
    },
    {
        "start": "955.82",
        "dur": "4.11",
        "text": "knowledge of what God actually wanted in"
    },
    {
        "start": "957.5",
        "dur": "5.43",
        "text": "the first place and this is the kind of"
    },
    {
        "start": "959.93",
        "dur": "5.04",
        "text": "nonsense that when you start to defend"
    },
    {
        "start": "962.93",
        "dur": "3.36",
        "text": "God by saying well God doesn't talk to"
    },
    {
        "start": "964.97",
        "dur": "3.33",
        "text": "people anymore and somewhat that's fine"
    },
    {
        "start": "966.29",
        "dur": "4.44",
        "text": "but then God knows that imperfect"
    },
    {
        "start": "968.3",
        "dur": "6.72",
        "text": "vessels are transmitting his word and"
    },
    {
        "start": "970.73",
        "dur": "5.91",
        "text": "therefore he cannot punish them for for"
    },
    {
        "start": "975.02",
        "dur": "5.76",
        "text": "kind of he cannot punish people for"
    },
    {
        "start": "976.64",
        "dur": "6.81",
        "text": "failing to meet the standards of a of a"
    },
    {
        "start": "980.78",
        "dur": "5.46",
        "text": "life sorry / of a knowledge base that he"
    },
    {
        "start": "983.45",
        "dur": "4.95",
        "text": "simply is not giving to them with any"
    },
    {
        "start": "986.24",
        "dur": "4.38",
        "text": "kind of accuracy right I mean just to"
    },
    {
        "start": "988.4",
        "dur": "4.83",
        "text": "take a sort of silly example right if I"
    },
    {
        "start": "990.62",
        "dur": "7.52",
        "text": "have you know let me use the pen again"
    },
    {
        "start": "993.23",
        "dur": "8.64",
        "text": "if I have you know urgent message right"
    },
    {
        "start": "998.14",
        "dur": "8.62",
        "text": "urgent right and I deliver it to a guy"
    },
    {
        "start": "1001.87",
        "dur": "8.46",
        "text": "who's just kind of an idiot right and"
    },
    {
        "start": "1006.76",
        "dur": "5.73",
        "text": "maybe doesn't speak English has an IQ of"
    },
    {
        "start": "1010.33",
        "dur": "4.77",
        "text": "70 and so on and it's a highly complex"
    },
    {
        "start": "1012.49",
        "dur": "4.08",
        "text": "topic like a scientific theorem or proof"
    },
    {
        "start": "1015.1",
        "dur": "4.95",
        "text": "or some sort of piece of coding or"
    },
    {
        "start": "1016.57",
        "dur": "7.5",
        "text": "whatever and then I have it hand it to"
    },
    {
        "start": "1020.05",
        "dur": "7.2",
        "text": "you the fact that I have chosen this"
    },
    {
        "start": "1024.07",
        "dur": "6.269",
        "text": "fool to be my messenger absolves you of"
    },
    {
        "start": "1027.25",
        "dur": "4.89",
        "text": "the responsibility of of obeying or"
    },
    {
        "start": "1030.339",
        "dur": "5.071",
        "text": "finding what it is that i say to you"
    },
    {
        "start": "1032.14",
        "dur": "4.92",
        "text": "accurate because of course if if this is"
    },
    {
        "start": "1035.41",
        "dur": "3.15",
        "text": "the person that I choose to convey the"
    },
    {
        "start": "1037.06",
        "dur": "2.97",
        "text": "message clearly the message isn't really"
    },
    {
        "start": "1038.56",
        "dur": "3.21",
        "text": "that important I didn't call you"
    },
    {
        "start": "1040.03",
        "dur": "3.059",
        "text": "directly and explain it to you I just"
    },
    {
        "start": "1041.77",
        "dur": "3.45",
        "text": "chose someone who clearly doesn't"
    },
    {
        "start": "1043.089",
        "dur": "4.831",
        "text": "understand what it is that I'm talking"
    },
    {
        "start": "1045.22",
        "dur": "5.55",
        "text": "about who is going to be confused and so"
    },
    {
        "start": "1047.92",
        "dur": "4.38",
        "text": "on so obviously that is not something"
    },
    {
        "start": "1050.77",
        "dur": "4.62",
        "text": "that's going to work particularly well"
    },
    {
        "start": "1052.3",
        "dur": "5.31",
        "text": "now if we get rid of this and we say"
    },
    {
        "start": "1055.39",
        "dur": "4.6",
        "text": "that this fool you know tells another"
    },
    {
        "start": "1057.61",
        "dur": "4.3",
        "text": "idiot tells another idiot idea right"
    },
    {
        "start": "1059.99",
        "dur": "3.66",
        "text": "175 idiots and then you get the message"
    },
    {
        "start": "1061.91",
        "dur": "2.94",
        "text": "is it can visited all reasonable for me"
    },
    {
        "start": "1063.65",
        "dur": "2.79",
        "text": "to say that you're responsible for"
    },
    {
        "start": "1064.85",
        "dur": "4.74",
        "text": "accurately knowing and understanding the"
    },
    {
        "start": "1066.44",
        "dur": "5.52",
        "text": "message of course not of course not so"
    },
    {
        "start": "1069.59",
        "dur": "3.9",
        "text": "this is all the kind of nonsense that"
    },
    {
        "start": "1071.96",
        "dur": "3.96",
        "text": "people get into when they start to try"
    },
    {
        "start": "1073.49",
        "dur": "4.53",
        "text": "and justify superstition and cultism and"
    },
    {
        "start": "1075.92",
        "dur": "4.2",
        "text": "religion and I hope that this has been a"
    },
    {
        "start": "1078.02",
        "dur": "4.08",
        "text": "fun little demonstration of how not to"
    },
    {
        "start": "1080.12",
        "dur": "3.15",
        "text": "use a pen tablet thank you so much for"
    },
    {
        "start": "1082.1",
        "dur": "3.41",
        "text": "listening and watching and I will talk"
    },
    {
        "start": "1083.27",
        "dur": "2.24",
        "text": "to you soon"
    }
]