{
  "Title": "Ireland Abortion Referendum: Irish Abortion Ban Overturned | True News",
  "Id": "vvev94XKqZQ",
  "Transcript": [
    {
      "text": "there's a referendum in Ireland being",
      "start": 0,
      "duration": 4.41
    },
    {
      "text": "counted today which is to open the way",
      "start": 1.35,
      "duration": 6.919
    },
    {
      "text": "to legal abortion in the country and",
      "start": 4.41,
      "duration": 6.96
    },
    {
      "text": "it's a very big and complicated subject",
      "start": 8.269,
      "duration": 5.41
    },
    {
      "text": "at least for me maybe for you and I'm",
      "start": 11.37,
      "duration": 3.63
    },
    {
      "text": "gonna unpack sort of what I think and",
      "start": 13.679,
      "duration": 3.481
    },
    {
      "text": "feel about it in the hopes that together",
      "start": 15,
      "duration": 4.56
    },
    {
      "text": "we can achieve some kind of wisdom on",
      "start": 17.16,
      "duration": 6.81
    },
    {
      "text": "the passage now I was born in Ireland in",
      "start": 19.56,
      "duration": 7.53
    },
    {
      "text": "Athlone Ireland and spend a lot of time",
      "start": 23.97,
      "duration": 5.85
    },
    {
      "text": "there growing up I grew up mostly in",
      "start": 27.09,
      "duration": 5.16
    },
    {
      "text": "London but I spent a lot of time in",
      "start": 29.82,
      "duration": 3.84
    },
    {
      "text": "Ireland left the Irish people loved the",
      "start": 32.25,
      "duration": 7.04
    },
    {
      "text": "Irish culture loved Irish history now",
      "start": 33.66,
      "duration": 8.85
    },
    {
      "text": "there is something really astonishing",
      "start": 39.29,
      "duration": 6.82
    },
    {
      "text": "that happened basically since the 1960s",
      "start": 42.51,
      "duration": 8.66
    },
    {
      "text": "and that is that sexual licentiousness",
      "start": 46.11,
      "duration": 7.769
    },
    {
      "text": "and the postponement of marriage and",
      "start": 51.17,
      "duration": 5.2
    },
    {
      "text": "children and so on has become really the",
      "start": 53.879,
      "duration": 4.621
    },
    {
      "text": "norm for people particularly people who",
      "start": 56.37,
      "duration": 4.95
    },
    {
      "text": "want higher education everyone's told",
      "start": 58.5,
      "duration": 4.35
    },
    {
      "text": "and particularly women of course you're",
      "start": 61.32,
      "duration": 3.809
    },
    {
      "text": "told you know get your education start",
      "start": 62.85,
      "duration": 5.879
    },
    {
      "text": "your career and marriage and family if",
      "start": 65.129,
      "duration": 5.161
    },
    {
      "text": "they're gonna happen at all we'll just",
      "start": 68.729,
      "duration": 6.71
    },
    {
      "text": "happen mmm sometime down the road and",
      "start": 70.29,
      "duration": 8.25
    },
    {
      "text": "women are not told about the fertility",
      "start": 75.439,
      "duration": 5.081
    },
    {
      "text": "decline the significant fertility",
      "start": 78.54,
      "duration": 4.95
    },
    {
      "text": "decline that starts even in the late 20s",
      "start": 80.52,
      "duration": 5.16
    },
    {
      "text": "they're not talked about thought about",
      "start": 83.49,
      "duration": 6.3
    },
    {
      "text": "the lack of available productive men in",
      "start": 85.68,
      "duration": 6.63
    },
    {
      "text": "their 30s and they're not taught about",
      "start": 89.79,
      "duration": 3.719
    },
    {
      "text": "the growing desperation that they're",
      "start": 92.31,
      "duration": 3.84
    },
    {
      "text": "going to feel when they try to rope a",
      "start": 93.509,
      "duration": 5.161
    },
    {
      "text": "man into a commitment at a time when",
      "start": 96.15,
      "duration": 4.56
    },
    {
      "text": "they have fading sexual market value as",
      "start": 98.67,
      "duration": 3.78
    },
    {
      "text": "the result of aging and growing",
      "start": 100.71,
      "duration": 6.089
    },
    {
      "text": "infertility now culture as a whole",
      "start": 102.45,
      "duration": 6.89
    },
    {
      "text": "society as a whole history as a whole I",
      "start": 106.799,
      "duration": 5.041
    },
    {
      "text": "mean when I was younger I used to sort",
      "start": 109.34,
      "duration": 4.239
    },
    {
      "text": "of think of culture as you know it's the",
      "start": 111.84,
      "duration": 3.27
    },
    {
      "text": "dances it's the traditions it's the",
      "start": 113.579,
      "duration": 3.54
    },
    {
      "text": "costumes it's the flags it's that I",
      "start": 115.11,
      "duration": 3.539
    },
    {
      "text": "don't really think anymore it's any of",
      "start": 117.119,
      "duration": 3.691
    },
    {
      "text": "those things or if it is those things",
      "start": 118.649,
      "duration": 5.07
    },
    {
      "text": "are merely the conduit like the pipes to",
      "start": 120.81,
      "duration": 4.53
    },
    {
      "text": "your house are there to deliver the",
      "start": 123.719,
      "duration": 4.77
    },
    {
      "text": "water and what is it that culture is",
      "start": 125.34,
      "duration": 5.669
    },
    {
      "text": "there to deliver culture is centered",
      "start": 128.489,
      "duration": 4.23
    },
    {
      "text": "around",
      "start": 131.009,
      "duration": 5.381
    },
    {
      "text": "basic fact in this life which is that",
      "start": 132.719,
      "duration": 7.211
    },
    {
      "text": "human beings take an astounding amount",
      "start": 136.39,
      "duration": 6.269
    },
    {
      "text": "of time and energy to raise from",
      "start": 139.93,
      "duration": 6.72
    },
    {
      "text": "conception to adulthood I mean we are",
      "start": 142.659,
      "duration": 6.571
    },
    {
      "text": "one slow growing species I think there",
      "start": 146.65,
      "duration": 4.8
    },
    {
      "text": "are crystals in deep caves that grow",
      "start": 149.23,
      "duration": 4.41
    },
    {
      "text": "faster stalagmites grow faster than",
      "start": 151.45,
      "duration": 4.409
    },
    {
      "text": "human beings a time I say this is the",
      "start": 153.64,
      "duration": 4.349
    },
    {
      "text": "father of a nine year old girl only",
      "start": 155.859,
      "duration": 4.41
    },
    {
      "text": "halfway through and it is a long time a",
      "start": 157.989,
      "duration": 5.521
    },
    {
      "text": "great time but it's a long time in",
      "start": 160.269,
      "duration": 6.06
    },
    {
      "text": "particular the sort of nine months or a",
      "start": 163.51,
      "duration": 4.379
    },
    {
      "text": "year after birth which is sometimes",
      "start": 166.329,
      "duration": 3.931
    },
    {
      "text": "called the fourth trimester we basically",
      "start": 167.889,
      "duration": 4.32
    },
    {
      "text": "should ideally stay on our mother's",
      "start": 170.26,
      "duration": 7.47
    },
    {
      "text": "wombs for longer but we come out of our",
      "start": 172.209,
      "duration": 7.441
    },
    {
      "text": "mother as shortly before our heads get",
      "start": 177.73,
      "duration": 3.599
    },
    {
      "text": "so big that coming out of them if we",
      "start": 179.65,
      "duration": 3.149
    },
    {
      "text": "waited another five minutes coming out",
      "start": 181.329,
      "duration": 3.541
    },
    {
      "text": "of them would split her moms into like",
      "start": 182.799,
      "duration": 4.59
    },
    {
      "text": "two Tigers fighting over a dousing stick",
      "start": 184.87,
      "duration": 6.869
    },
    {
      "text": "so we come out and we're astonishingly",
      "start": 187.389,
      "duration": 9.93
    },
    {
      "text": "helpless and we require 24/7 care we",
      "start": 191.739,
      "duration": 8.46
    },
    {
      "text": "require breastfeeding for optimal brain",
      "start": 197.319,
      "duration": 5.371
    },
    {
      "text": "development we require touch and whoever",
      "start": 200.199,
      "duration": 5.341
    },
    {
      "text": "is providing that care the mom because",
      "start": 202.69,
      "duration": 4.139
    },
    {
      "text": "first learning for the breastfeeding",
      "start": 205.54,
      "duration": 4.919
    },
    {
      "text": "whoever is providing that care it's",
      "start": 206.829,
      "duration": 5.791
    },
    {
      "text": "all-consuming I'm happy to stay at home",
      "start": 210.459,
      "duration": 4.5
    },
    {
      "text": "dad for the time that my daughter has",
      "start": 212.62,
      "duration": 4.949
    },
    {
      "text": "been been around and it is a big",
      "start": 214.959,
      "duration": 4.261
    },
    {
      "text": "particularly one thing it's a massive",
      "start": 217.569,
      "duration": 3.39
    },
    {
      "text": "huge job the amount of resources is",
      "start": 219.22,
      "duration": 4.439
    },
    {
      "text": "hexxus is staggering write a book easy",
      "start": 220.959,
      "duration": 5.161
    },
    {
      "text": "you know raise a kid now that's a",
      "start": 223.659,
      "duration": 7.55
    },
    {
      "text": "challenge and this basic reality that",
      "start": 226.12,
      "duration": 7.92
    },
    {
      "text": "human children have the most astounding",
      "start": 231.209,
      "duration": 4.691
    },
    {
      "text": "potential but require the most",
      "start": 234.04,
      "duration": 3.569
    },
    {
      "text": "astounding devotion of resources when",
      "start": 235.9,
      "duration": 3.899
    },
    {
      "text": "they're young that's what culture is all",
      "start": 237.609,
      "duration": 5.611
    },
    {
      "text": "about who is gonna take care of the",
      "start": 239.799,
      "duration": 6.541
    },
    {
      "text": "children that is foundational to what",
      "start": 243.22,
      "duration": 5.699
    },
    {
      "text": "culture is that's foundational to",
      "start": 246.34,
      "duration": 3.979
    },
    {
      "text": "monogamy",
      "start": 248.919,
      "duration": 4.981
    },
    {
      "text": "you know the monogamy that is actually",
      "start": 250.319,
      "duration": 6.401
    },
    {
      "text": "more associated in some ways with the",
      "start": 253.9,
      "duration": 4.53
    },
    {
      "text": "matriarchy than the patriarchy and a",
      "start": 256.72,
      "duration": 3.509
    },
    {
      "text": "patriarchy that tends to be polygamy",
      "start": 258.43,
      "duration": 4.26
    },
    {
      "text": "where the top 20 percent money way you",
      "start": 260.229,
      "duration": 4.811
    },
    {
      "text": "understand something",
      "start": 262.69,
      "duration": 8.66
    },
    {
      "text": "this reality that for children to the",
      "start": 265.04,
      "duration": 9.25
    },
    {
      "text": "waffle culture to continue then children",
      "start": 271.35,
      "duration": 4.56
    },
    {
      "text": "need to be taken care of",
      "start": 274.29,
      "duration": 3.24
    },
    {
      "text": "and the way in which they're taken care",
      "start": 275.91,
      "duration": 5.49
    },
    {
      "text": "of has a lot to do with culture there",
      "start": 277.53,
      "duration": 5.46
    },
    {
      "text": "are some cultures which put kids into",
      "start": 281.4,
      "duration": 3.03
    },
    {
      "text": "religious instruction very early and",
      "start": 282.99,
      "duration": 3.83
    },
    {
      "text": "hard and a very rough and harsh and and",
      "start": 284.43,
      "duration": 4.53
    },
    {
      "text": "violent sometimes in the raising of",
      "start": 286.82,
      "duration": 3.81
    },
    {
      "text": "those children and that's part of that",
      "start": 288.96,
      "duration": 6.42
    },
    {
      "text": "culture so the fact that children",
      "start": 290.63,
      "duration": 6.52
    },
    {
      "text": "require so many resources the fact that",
      "start": 295.38,
      "duration": 6.12
    },
    {
      "text": "this means that you need a pair bonded",
      "start": 297.15,
      "duration": 8.37
    },
    {
      "text": "family unit to raise children well you",
      "start": 301.5,
      "duration": 5.58
    },
    {
      "text": "need someone stay at home with the",
      "start": 305.52,
      "duration": 4.38
    },
    {
      "text": "children ideally and you need someone",
      "start": 307.08,
      "duration": 4.62
    },
    {
      "text": "going out and gathering the resources",
      "start": 309.9,
      "duration": 3.78
    },
    {
      "text": "and because men don't have the feedbags",
      "start": 311.7,
      "duration": 3.81
    },
    {
      "text": "it is the men who go out and gather the",
      "start": 313.68,
      "duration": 3.15
    },
    {
      "text": "resources and the women who stay home",
      "start": 315.51,
      "duration": 6
    },
    {
      "text": "and a breastfeed and you know when kids",
      "start": 316.83,
      "duration": 5.94
    },
    {
      "text": "are little they're tiny little",
      "start": 321.51,
      "duration": 3.12
    },
    {
      "text": "exploratory death magnets that need",
      "start": 322.77,
      "duration": 3.3
    },
    {
      "text": "constant supervision so they don't",
      "start": 324.63,
      "duration": 3.539
    },
    {
      "text": "tumble downstairs and stick Forks and",
      "start": 326.07,
      "duration": 3.75
    },
    {
      "text": "electrical sockets and you know all of",
      "start": 328.169,
      "duration": 3.601
    },
    {
      "text": "the other cliches that people use to",
      "start": 329.82,
      "duration": 3.51
    },
    {
      "text": "excuse hitting children which is",
      "start": 331.77,
      "duration": 4.89
    },
    {
      "text": "unnecessary but so around this the",
      "start": 333.33,
      "duration": 5.22
    },
    {
      "text": "sexuality is this incredibly powerful",
      "start": 336.66,
      "duration": 3.569
    },
    {
      "text": "and potent force that produces real-life",
      "start": 338.55,
      "duration": 3.63
    },
    {
      "text": "human beings and sexuality needs to be",
      "start": 340.229,
      "duration": 5.101
    },
    {
      "text": "tamed it needs to be contained it needs",
      "start": 342.18,
      "duration": 7.17
    },
    {
      "text": "to be focused it needs to be bottled up",
      "start": 345.33,
      "duration": 6.72
    },
    {
      "text": "like a genie so that it's wishes and",
      "start": 349.35,
      "duration": 4.65
    },
    {
      "text": "fantasies don't undo the world as a",
      "start": 352.05,
      "duration": 5.67
    },
    {
      "text": "whole and this containment and focusing",
      "start": 354,
      "duration": 6.45
    },
    {
      "text": "of sexuality within a pair bonded",
      "start": 357.72,
      "duration": 6.24
    },
    {
      "text": "monogamous marriage that has been the",
      "start": 360.45,
      "duration": 7.14
    },
    {
      "text": "point of our culture that has been the",
      "start": 363.96,
      "duration": 6.24
    },
    {
      "text": "point in many ways of religiosity until",
      "start": 367.59,
      "duration": 6.449
    },
    {
      "text": "death do us part what God has put",
      "start": 370.2,
      "duration": 5.94
    },
    {
      "text": "together let no man tear apart this is",
      "start": 374.039,
      "duration": 5.391
    },
    {
      "text": "why there was such bans in the past such",
      "start": 376.14,
      "duration": 6.48
    },
    {
      "text": "either illegalities or massive social",
      "start": 379.43,
      "duration": 4.81
    },
    {
      "text": "ostracism to people who broke up",
      "start": 382.62,
      "duration": 4.799
    },
    {
      "text": "marriages except in the most extreme of",
      "start": 384.24,
      "duration": 5.04
    },
    {
      "text": "cases and the guy has a brain injury",
      "start": 387.419,
      "duration": 4.171
    },
    {
      "text": "loses his mind or whatever it is but the",
      "start": 389.28,
      "duration": 5.389
    },
    {
      "text": "people who slept around the people who",
      "start": 391.59,
      "duration": 5.099
    },
    {
      "text": "destroyed the marriage refused to work",
      "start": 394.669,
      "duration": 4.99
    },
    {
      "text": "got drunk were heavily censored in",
      "start": 396.689,
      "duration": 8.391
    },
    {
      "text": "society because it's all centered around",
      "start": 399.659,
      "duration": 9.93
    },
    {
      "text": "the resource hole called children",
      "start": 405.08,
      "duration": 7.229
    },
    {
      "text": "particularly when they're young and",
      "start": 409.589,
      "duration": 4.62
    },
    {
      "text": "let's just thinking about this the other",
      "start": 412.309,
      "duration": 7.59
    },
    {
      "text": "day that when I was a teenager in my 20s",
      "start": 414.209,
      "duration": 9.98
    },
    {
      "text": "the hedonism that was around was",
      "start": 419.899,
      "duration": 8.68
    },
    {
      "text": "absolutely astonishing absolutely",
      "start": 424.189,
      "duration": 9.13
    },
    {
      "text": "astonishing all of the restraints in",
      "start": 428.579,
      "duration": 7.56
    },
    {
      "text": "society for the most part certainly in",
      "start": 433.319,
      "duration": 4.38
    },
    {
      "text": "my generation maybe it was more of a",
      "start": 436.139,
      "duration": 2.971
    },
    {
      "text": "single mom thing I was raised by single",
      "start": 437.699,
      "duration": 4.08
    },
    {
      "text": "mom so to speak well she wasn't so to",
      "start": 439.11,
      "duration": 4.109
    },
    {
      "text": "speak of single mom it was so to speak",
      "start": 441.779,
      "duration": 2.61
    },
    {
      "text": "that she raised me",
      "start": 443.219,
      "duration": 2.85
    },
    {
      "text": "I was tumbled up as Dickens would say",
      "start": 444.389,
      "duration": 8.1
    },
    {
      "text": "but but all of the all of the sexual",
      "start": 446.069,
      "duration": 8.75
    },
    {
      "text": "restraint all of the focus on",
      "start": 452.489,
      "duration": 4.621
    },
    {
      "text": "sexualities appear bonding mechanism to",
      "start": 454.819,
      "duration": 6.791
    },
    {
      "text": "keep two parents together for the",
      "start": 457.11,
      "duration": 7.799
    },
    {
      "text": "Odyssey of raising children I mean the",
      "start": 461.61,
      "duration": 6.779
    },
    {
      "text": "female brain of our species it takes",
      "start": 464.909,
      "duration": 6.54
    },
    {
      "text": "until the late teens to physically",
      "start": 468.389,
      "duration": 5.49
    },
    {
      "text": "mature the male brain takes up to a",
      "start": 471.449,
      "duration": 5.55
    },
    {
      "text": "quarter century to physically mature and",
      "start": 473.879,
      "duration": 5.64
    },
    {
      "text": "that is a massive investment then you",
      "start": 476.999,
      "duration": 6.57
    },
    {
      "text": "have three kids two years apart I mean",
      "start": 479.519,
      "duration": 6.39
    },
    {
      "text": "we're talking over three decades I mean",
      "start": 483.569,
      "duration": 3.63
    },
    {
      "text": "you don't have to raise them all the way",
      "start": 485.909,
      "duration": 2.85
    },
    {
      "text": "to 25 but it's at least two decades",
      "start": 487.199,
      "duration": 4.68
    },
    {
      "text": "maybe three decades and certainly one 10",
      "start": 488.759,
      "duration": 5.88
    },
    {
      "text": "to 15 years of really intense effort to",
      "start": 491.879,
      "duration": 9.57
    },
    {
      "text": "keep kids on the right path so I was",
      "start": 494.639,
      "duration": 11.18
    },
    {
      "text": "sold hedonism but in exchange for what I",
      "start": 501.449,
      "duration": 7.08
    },
    {
      "text": "think most of us was sold sexual license",
      "start": 505.819,
      "duration": 4.3
    },
    {
      "text": "in exchange for what",
      "start": 508.529,
      "duration": 4.021
    },
    {
      "text": "as always a price always a price when",
      "start": 510.119,
      "duration": 4.381
    },
    {
      "text": "you're offered nothing is too free in",
      "start": 512.55,
      "duration": 3.839
    },
    {
      "text": "this world or the next well maybe the",
      "start": 514.5,
      "duration": 3.629
    },
    {
      "text": "next but certainly not in this world",
      "start": 516.389,
      "duration": 6.9
    },
    {
      "text": "and my generation we were offered sexual",
      "start": 518.129,
      "duration": 9.511
    },
    {
      "text": "licentiousness in exchange for what",
      "start": 523.289,
      "duration": 7.021
    },
    {
      "text": "in exchange for our culture because you",
      "start": 527.64,
      "duration": 5.34
    },
    {
      "text": "have sexual licentiousness or you have a",
      "start": 530.31,
      "duration": 8.339
    },
    {
      "text": "culture the two are can opposites so I",
      "start": 532.98,
      "duration": 9.51
    },
    {
      "text": "was bribed with my own hormones in order",
      "start": 538.649,
      "duration": 7.44
    },
    {
      "text": "to give up my own history in order to",
      "start": 542.49,
      "duration": 6.029
    },
    {
      "text": "participate in the great Eurasia the",
      "start": 546.089,
      "duration": 4.461
    },
    {
      "text": "great unlearning of that which took",
      "start": 548.519,
      "duration": 4.081
    },
    {
      "text": "thousands and thousands of years to",
      "start": 550.55,
      "duration": 5.14
    },
    {
      "text": "evolve it can all like your reputation",
      "start": 552.6,
      "duration": 12.89
    },
    {
      "text": "vanish in a very very short timeframe so",
      "start": 555.69,
      "duration": 14.3
    },
    {
      "text": "when you can just kind of sleep around",
      "start": 565.49,
      "duration": 6.73
    },
    {
      "text": "then the pair-bonding gets kind of",
      "start": 569.99,
      "duration": 4.15
    },
    {
      "text": "screwed up and then particularly for",
      "start": 572.22,
      "duration": 3.6
    },
    {
      "text": "women I think when like the more",
      "start": 574.14,
      "duration": 3.3
    },
    {
      "text": "relationships they have the less they're",
      "start": 575.82,
      "duration": 7.53
    },
    {
      "text": "able to stay married divorce is dick",
      "start": 577.44,
      "duration": 8.04
    },
    {
      "text": "dependent the more dicks the more",
      "start": 583.35,
      "duration": 5.75
    },
    {
      "text": "divorce no offense to Richard Platon",
      "start": 585.48,
      "duration": 7.289
    },
    {
      "text": "this reality of what we were bribed with",
      "start": 589.1,
      "duration": 6.489
    },
    {
      "text": "and what we had to give up we were",
      "start": 592.769,
      "duration": 7.651
    },
    {
      "text": "bribed with free stuff right bribed with",
      "start": 595.589,
      "duration": 6.721
    },
    {
      "text": "free healthcare bribed with free welfare",
      "start": 600.42,
      "duration": 4.979
    },
    {
      "text": "bribed with free education primary",
      "start": 602.31,
      "duration": 5.19
    },
    {
      "text": "school and high school and so on we were",
      "start": 605.399,
      "duration": 3.781
    },
    {
      "text": "bribed with free daycare for a lot of",
      "start": 607.5,
      "duration": 4.649
    },
    {
      "text": "people free food subsidized housing or",
      "start": 609.18,
      "duration": 4.32
    },
    {
      "text": "free house we were bribed with free",
      "start": 612.149,
      "duration": 2.761
    },
    {
      "text": "stuff and then the question is okay well",
      "start": 613.5,
      "duration": 5.55
    },
    {
      "text": "that's free but what is the cost what is",
      "start": 614.91,
      "duration": 7.679
    },
    {
      "text": "the price that we have to pay for what",
      "start": 619.05,
      "duration": 4.62
    },
    {
      "text": "we think is free isn't this what the",
      "start": 622.589,
      "duration": 3.62
    },
    {
      "text": "devil always does walks up to you",
      "start": 623.67,
      "duration": 4.68
    },
    {
      "text": "sneezes and smoke out of his ears and",
      "start": 626.209,
      "duration": 4.361
    },
    {
      "text": "then says I can give you the world I can",
      "start": 628.35,
      "duration": 4.95
    },
    {
      "text": "give you power I can give you glory I",
      "start": 630.57,
      "duration": 5.34
    },
    {
      "text": "can give you freedom from consequences",
      "start": 633.3,
      "duration": 5.01
    },
    {
      "text": "and then you sign on the dotted line and",
      "start": 635.91,
      "duration": 6.21
    },
    {
      "text": "you enjoy the generosity of the devil",
      "start": 638.31,
      "duration": 8.7
    },
    {
      "text": "for some time and then the price the",
      "start": 642.12,
      "duration": 9.27
    },
    {
      "text": "bill comes to you and right now we are",
      "start": 647.01,
      "duration": 9.449
    },
    {
      "text": "starting to wake up to the price of the",
      "start": 651.39,
      "duration": 7.679
    },
    {
      "text": "free stuff we got through the welfare",
      "start": 656.459,
      "duration": 3.781
    },
    {
      "text": "state through",
      "start": 659.069,
      "duration": 3.571
    },
    {
      "text": "fiat currency through money printing",
      "start": 660.24,
      "duration": 4.92
    },
    {
      "text": "through debt through dad through debt",
      "start": 662.64,
      "duration": 4.5
    },
    {
      "text": "through debt we get all this free stuff",
      "start": 665.16,
      "duration": 3.81
    },
    {
      "text": "but then the bill comes - who comes",
      "start": 667.14,
      "duration": 4.949
    },
    {
      "text": "through the price comes to you why do",
      "start": 668.97,
      "duration": 4.35
    },
    {
      "text": "you need culture why do you need",
      "start": 672.089,
      "duration": 3.241
    },
    {
      "text": "discipline why do you need mythos why do",
      "start": 673.32,
      "duration": 7.29
    },
    {
      "text": "you need restraint because particularly",
      "start": 675.33,
      "duration": 9
    },
    {
      "text": "in the realm of pregnancy there are huge",
      "start": 680.61,
      "duration": 7.979
    },
    {
      "text": "consequences huge consequences you know",
      "start": 684.33,
      "duration": 6.03
    },
    {
      "text": "it can take ten minutes to make make a",
      "start": 688.589,
      "duration": 3.301
    },
    {
      "text": "baby that takes a quarter century to",
      "start": 690.36,
      "duration": 7.65
    },
    {
      "text": "raise and that imbalance of reward and",
      "start": 691.89,
      "duration": 8.58
    },
    {
      "text": "cost of stimulus and response that",
      "start": 698.01,
      "duration": 5.73
    },
    {
      "text": "imbalance is why there was a thority",
      "start": 700.47,
      "duration": 5.82
    },
    {
      "text": "from the elders that said get married",
      "start": 703.74,
      "duration": 4.469
    },
    {
      "text": "before you have sex because when you",
      "start": 706.29,
      "duration": 3.72
    },
    {
      "text": "have sex and you're married then the",
      "start": 708.209,
      "duration": 3.811
    },
    {
      "text": "framework for sexuality the framework",
      "start": 710.01,
      "duration": 8.61
    },
    {
      "text": "for children is there is there be a",
      "start": 712.02,
      "duration": 9.2
    },
    {
      "text": "trapeze artists all you want have a net",
      "start": 718.62,
      "duration": 5.46
    },
    {
      "text": "have a net so that you don't fall and",
      "start": 721.22,
      "duration": 6.28
    },
    {
      "text": "die and when we took all the free stuff",
      "start": 724.08,
      "duration": 6.96
    },
    {
      "text": "then all of the restraint fell away all",
      "start": 727.5,
      "duration": 7.23
    },
    {
      "text": "of the need for self monitoring self",
      "start": 731.04,
      "duration": 6.15
    },
    {
      "text": "management self control it all went away",
      "start": 734.73,
      "duration": 6.21
    },
    {
      "text": "and then our elders seemed ridiculous",
      "start": 737.19,
      "duration": 7.25
    },
    {
      "text": "and her elders gave up on instructing us",
      "start": 740.94,
      "duration": 6.39
    },
    {
      "text": "because they no longer face negative",
      "start": 744.44,
      "duration": 5.58
    },
    {
      "text": "consequences for failing to instruct us",
      "start": 747.33,
      "duration": 4.8
    },
    {
      "text": "because the way it used to work before",
      "start": 750.02,
      "duration": 3.43
    },
    {
      "text": "the welfare state is if a girl got",
      "start": 752.13,
      "duration": 3.48
    },
    {
      "text": "pregnant or a young woman got pregnant",
      "start": 753.45,
      "duration": 4.35
    },
    {
      "text": "and she didn't have a father then either",
      "start": 755.61,
      "duration": 3.93
    },
    {
      "text": "or didn't ever husband then the father",
      "start": 757.8,
      "duration": 3.69
    },
    {
      "text": "would be forced to marry the shotgun",
      "start": 759.54,
      "duration": 4.02
    },
    {
      "text": "right father would be forced to marry",
      "start": 761.49,
      "duration": 5.46
    },
    {
      "text": "the girl or if the father wasn't around",
      "start": 763.56,
      "duration": 5.16
    },
    {
      "text": "wasn't available that standard went back",
      "start": 766.95,
      "duration": 6.8
    },
    {
      "text": "to wherever then what would happen is",
      "start": 768.72,
      "duration": 8.1
    },
    {
      "text": "well the parents would have to pay for",
      "start": 773.75,
      "duration": 4.779
    },
    {
      "text": "the upkeep of that child and their",
      "start": 776.82,
      "duration": 3.57
    },
    {
      "text": "daughter would now be unmarriable she",
      "start": 778.529,
      "duration": 3.06
    },
    {
      "text": "would be a fallen woman she would be",
      "start": 780.39,
      "duration": 5.189
    },
    {
      "text": "damaged goods and it would be a disaster",
      "start": 781.589,
      "duration": 5.31
    },
    {
      "text": "the parents would have to pay the",
      "start": 785.579,
      "duration": 2.431
    },
    {
      "text": "hundreds of thousands of dollars to",
      "start": 786.899,
      "duration": 2.811
    },
    {
      "text": "raise the child and then would have to",
      "start": 788.01,
      "duration": 4.04
    },
    {
      "text": "to deal with the daughter who couldn't",
      "start": 789.71,
      "duration": 3.72
    },
    {
      "text": "get married and their family reputation",
      "start": 792.05,
      "duration": 3.09
    },
    {
      "text": "would be thrown into disrepute and this",
      "start": 793.43,
      "duration": 3.84
    },
    {
      "text": "might even even spill over to siblings",
      "start": 795.14,
      "duration": 5.07
    },
    {
      "text": "right and so because the negative",
      "start": 797.27,
      "duration": 4.89
    },
    {
      "text": "consequences accrued to the parents the",
      "start": 800.21,
      "duration": 5.25
    },
    {
      "text": "parents damn well instructed the",
      "start": 802.16,
      "duration": 5.58
    },
    {
      "text": "children exercised authority because",
      "start": 805.46,
      "duration": 4.43
    },
    {
      "text": "society have the power of ostracism",
      "start": 807.74,
      "duration": 5.99
    },
    {
      "text": "which is to disengage from people whose",
      "start": 809.89,
      "duration": 6.73
    },
    {
      "text": "behavior you significantly disagree with",
      "start": 813.73,
      "duration": 5.68
    },
    {
      "text": "Society had the power of ostracism the",
      "start": 816.62,
      "duration": 6.3
    },
    {
      "text": "power to say no ostracism we think is it",
      "start": 819.41,
      "duration": 5.07
    },
    {
      "text": "if you want to understand what like the",
      "start": 822.92,
      "duration": 3.36
    },
    {
      "text": "power of that think of societies where",
      "start": 824.48,
      "duration": 3.87
    },
    {
      "text": "they're arranged marriages where young",
      "start": 826.28,
      "duration": 3.45
    },
    {
      "text": "people are just forced to marry each",
      "start": 828.35,
      "duration": 3.9
    },
    {
      "text": "other versus sort of free you can date",
      "start": 829.73,
      "duration": 3.99
    },
    {
      "text": "you can say yes you can say now all that",
      "start": 832.25,
      "duration": 3.48
    },
    {
      "text": "kind of stuff so when we had the power",
      "start": 833.72,
      "duration": 4.02
    },
    {
      "text": "of ostracism when we were free with",
      "start": 835.73,
      "duration": 3.42
    },
    {
      "text": "regards to each other we always think",
      "start": 837.74,
      "duration": 2.67
    },
    {
      "text": "it's freedom with regards to the state",
      "start": 839.15,
      "duration": 2.76
    },
    {
      "text": "it's freedom with regards to each other",
      "start": 840.41,
      "duration": 2.97
    },
    {
      "text": "if you disagree with what I do and say",
      "start": 841.91,
      "duration": 3.99
    },
    {
      "text": "you shared the right to disengage do not",
      "start": 843.38,
      "duration": 5.01
    },
    {
      "text": "support me do not fund what it is that",
      "start": 845.9,
      "duration": 5.61
    },
    {
      "text": "I'm doing if you like what it is that",
      "start": 848.39,
      "duration": 4.02
    },
    {
      "text": "I'm doing then you should have the",
      "start": 851.51,
      "duration": 2.25
    },
    {
      "text": "freedom to fund and support what I do",
      "start": 852.41,
      "duration": 2.64
    },
    {
      "text": "which you can by the way at",
      "start": 853.76,
      "duration": 4.77
    },
    {
      "text": "freedomainradio.com slash donate but",
      "start": 855.05,
      "duration": 4.71
    },
    {
      "text": "once we lost her through the welfare",
      "start": 858.53,
      "duration": 2.97
    },
    {
      "text": "state we lost the power of ostracism we",
      "start": 859.76,
      "duration": 4.79
    },
    {
      "text": "lost the power of managing each other",
      "start": 861.5,
      "duration": 5.09
    },
    {
      "text": "through positive and negative feedback",
      "start": 864.55,
      "duration": 4.45
    },
    {
      "text": "because the welfare state means it's",
      "start": 866.59,
      "duration": 5.44
    },
    {
      "text": "impossible to ostracize irresponsible",
      "start": 869,
      "duration": 4.55
    },
    {
      "text": "people it's impossible to ostracize",
      "start": 872.03,
      "duration": 6.54
    },
    {
      "text": "sexually licentiousness eyes unwanted",
      "start": 873.55,
      "duration": 6.88
    },
    {
      "text": "pregnancies it's impossible to do all of",
      "start": 878.57,
      "duration": 3.87
    },
    {
      "text": "that people all think it's about the",
      "start": 880.43,
      "duration": 9.12
    },
    {
      "text": "pill that's not the welfare state so we",
      "start": 882.44,
      "duration": 8.1
    },
    {
      "text": "lost like this",
      "start": 889.55,
      "duration": 2.4
    },
    {
      "text": "this lack of continuity that has been",
      "start": 890.54,
      "duration": 3.84
    },
    {
      "text": "remarked upon from boomers to the",
      "start": 891.95,
      "duration": 4.55
    },
    {
      "text": "Millennials this lack of the transfer of",
      "start": 894.38,
      "duration": 4.86
    },
    {
      "text": "hard-won and accumulated social romantic",
      "start": 896.5,
      "duration": 6.94
    },
    {
      "text": "sexual and familial wisdom well why",
      "start": 899.24,
      "duration": 8.91
    },
    {
      "text": "bother why bother if you have become an",
      "start": 903.44,
      "duration": 6.48
    },
    {
      "text": "atheist towards the religion of your own",
      "start": 908.15,
      "duration": 3.96
    },
    {
      "text": "culture then you don't take your",
      "start": 909.92,
      "duration": 5.91
    },
    {
      "text": "children to church so to speak if",
      "start": 912.11,
      "duration": 5.64
    },
    {
      "text": "culture is there to protect us from",
      "start": 915.83,
      "duration": 3.93
    },
    {
      "text": "negative consequences but the welfare",
      "start": 917.75,
      "duration": 4.29
    },
    {
      "text": "state steps in and says you won't have",
      "start": 919.76,
      "duration": 4.17
    },
    {
      "text": "to suffer those negative consequences in",
      "start": 922.04,
      "duration": 3.18
    },
    {
      "text": "fact I'll give you more money if you",
      "start": 923.93,
      "duration": 7.02
    },
    {
      "text": "have more illegitimate children and",
      "start": 925.22,
      "duration": 6.84
    },
    {
      "text": "there's no point transferring the",
      "start": 930.95,
      "duration": 6
    },
    {
      "text": "knowledge very few people study these",
      "start": 932.06,
      "duration": 8.58
    },
    {
      "text": "days to become VCR repair man or how",
      "start": 936.95,
      "duration": 5.37
    },
    {
      "text": "best to replace the 2k memory in a",
      "start": 940.64,
      "duration": 6.62
    },
    {
      "text": "Commodore pet its kind of computer-based",
      "start": 942.32,
      "duration": 9.66
    },
    {
      "text": "be a calculator with the screen but why",
      "start": 947.26,
      "duration": 6.28
    },
    {
      "text": "bother transferring knowledge to people",
      "start": 951.98,
      "duration": 5.58
    },
    {
      "text": "to protect them if they really have",
      "start": 953.54,
      "duration": 7.86
    },
    {
      "text": "nothing to be protected from if you are",
      "start": 957.56,
      "duration": 6.93
    },
    {
      "text": "an atheist or an agnostic I doubt that",
      "start": 961.4,
      "duration": 4.53
    },
    {
      "text": "you spend a lot of time warning your",
      "start": 964.49,
      "duration": 3.9
    },
    {
      "text": "children about the dangers of Satan or",
      "start": 965.93,
      "duration": 4.56
    },
    {
      "text": "demonic possession or temptation from",
      "start": 968.39,
      "duration": 11.94
    },
    {
      "text": "the devil you don't and it is I think",
      "start": 970.49,
      "duration": 12.06
    },
    {
      "text": "foundationally true I know that",
      "start": 980.33,
      "duration": 4.53
    },
    {
      "text": "correlation is not causation but I think",
      "start": 982.55,
      "duration": 3.69
    },
    {
      "text": "I'm making a reasonable case I",
      "start": 984.86,
      "duration": 5.39
    },
    {
      "text": "I think it's foundationally true that",
      "start": 986.24,
      "duration": 4.01
    },
    {
      "text": "when you are shielded from the",
      "start": 991.15,
      "duration": 5.83
    },
    {
      "text": "consequences of bad actions you no",
      "start": 994.1,
      "duration": 5.82
    },
    {
      "text": "longer have a need for culture I mean",
      "start": 996.98,
      "duration": 5.78
    },
    {
      "text": "very few people are philosophical",
      "start": 999.92,
      "duration": 7.5
    },
    {
      "text": "trial-and-error hardens into the tough",
      "start": 1002.76,
      "duration": 7.27
    },
    {
      "text": "fabric we call culture you try things",
      "start": 1007.42,
      "duration": 4.05
    },
    {
      "text": "you fail you try things you fail you try",
      "start": 1010.03,
      "duration": 3.06
    },
    {
      "text": "things you fail hope they succeeded okay",
      "start": 1011.47,
      "duration": 2.43
    },
    {
      "text": "we're going to create a myth that",
      "start": 1013.09,
      "duration": 3.81
    },
    {
      "text": "supports that because philosophy was in",
      "start": 1013.9,
      "duration": 4.62
    },
    {
      "text": "general banned throughout most of human",
      "start": 1016.9,
      "duration": 2.94
    },
    {
      "text": "history I know that there's a history of",
      "start": 1018.52,
      "duration": 3.24
    },
    {
      "text": "philosophy but it's really a history of",
      "start": 1019.84,
      "duration": 4.23
    },
    {
      "text": "people whose writings were allowed to be",
      "start": 1021.76,
      "duration": 6.6
    },
    {
      "text": "propagated by the rulers and the priests",
      "start": 1024.07,
      "duration": 11.28
    },
    {
      "text": "so why why did you need to transfer",
      "start": 1028.36,
      "duration": 8.94
    },
    {
      "text": "knowledge if negative consequences don't",
      "start": 1035.35,
      "duration": 6.36
    },
    {
      "text": "accrue and this great giving up of the",
      "start": 1037.3,
      "duration": 7.53
    },
    {
      "text": "hard-won lessons of monogamy and",
      "start": 1041.71,
      "duration": 6.15
    },
    {
      "text": "pair-bonding and being home to raise",
      "start": 1044.83,
      "duration": 8.34
    },
    {
      "text": "your children I mean what happened well",
      "start": 1047.86,
      "duration": 7.5
    },
    {
      "text": "what happened was through the welfare",
      "start": 1053.17,
      "duration": 4.41
    },
    {
      "text": "state more responsible people were",
      "start": 1055.36,
      "duration": 4.11
    },
    {
      "text": "forced to pay for less responsible",
      "start": 1057.58,
      "duration": 3.78
    },
    {
      "text": "people those less responsible people",
      "start": 1059.47,
      "duration": 3.24
    },
    {
      "text": "ended up not spending that much time",
      "start": 1061.36,
      "duration": 4.74
    },
    {
      "text": "interacting with their children where is",
      "start": 1062.71,
      "duration": 5.91
    },
    {
      "text": "the more responsible people most parents",
      "start": 1066.1,
      "duration": 4.95
    },
    {
      "text": "these days strongly feel and there's",
      "start": 1068.62,
      "duration": 4.95
    },
    {
      "text": "reason to sit under stand why that both",
      "start": 1071.05,
      "duration": 4.77
    },
    {
      "text": "of them have to work in order to pay for",
      "start": 1073.57,
      "duration": 4.53
    },
    {
      "text": "to a large degree the people who aren't",
      "start": 1075.82,
      "duration": 5.67
    },
    {
      "text": "working and so the smartest most",
      "start": 1078.1,
      "duration": 4.92
    },
    {
      "text": "ambitious people have less time around",
      "start": 1081.49,
      "duration": 3.69
    },
    {
      "text": "their children the less bar less smart",
      "start": 1083.02,
      "duration": 3.81
    },
    {
      "text": "more irresponsible and less ambitious",
      "start": 1085.18,
      "duration": 3.09
    },
    {
      "text": "have more time around their children",
      "start": 1086.83,
      "duration": 2.79
    },
    {
      "text": "which they don't really spend",
      "start": 1088.27,
      "duration": 2.79
    },
    {
      "text": "interacting with their children very",
      "start": 1089.62,
      "duration": 10.85
    },
    {
      "text": "much and thus our love for our children",
      "start": 1091.06,
      "duration": 12.81
    },
    {
      "text": "evaporates and if there's one thing that",
      "start": 1100.47,
      "duration": 4.78
    },
    {
      "text": "I would talk about with regard to the",
      "start": 1103.87,
      "duration": 2.94
    },
    {
      "text": "West it would be this foundational issue",
      "start": 1105.25,
      "duration": 8.55
    },
    {
      "text": "I love for our children as significantly",
      "start": 1106.81,
      "duration": 11.22
    },
    {
      "text": "diminished also our respect for our",
      "start": 1113.8,
      "duration": 6.45
    },
    {
      "text": "parents has significantly diminished we",
      "start": 1118.03,
      "duration": 3.51
    },
    {
      "text": "feel that they don't have much to teach",
      "start": 1120.25,
      "duration": 5.79
    },
    {
      "text": "us because we view them like I don't",
      "start": 1121.54,
      "duration": 5.84
    },
    {
      "text": "know maybe like the penny-pinching",
      "start": 1126.04,
      "duration": 3.21
    },
    {
      "text": "generation that grew up during the Great",
      "start": 1127.38,
      "duration": 4.36
    },
    {
      "text": "Depression in the 1930s and you know",
      "start": 1129.25,
      "duration": 5.64
    },
    {
      "text": "hung on to a dime with a double-fisted",
      "start": 1131.74,
      "duration": 5.67
    },
    {
      "text": "grip I say oh well you don't need that",
      "start": 1134.89,
      "duration": 6.21
    },
    {
      "text": "anymore or there's a a line that's",
      "start": 1137.41,
      "duration": 5.49
    },
    {
      "text": "always stuck with me from Eugene",
      "start": 1141.1,
      "duration": 5.61
    },
    {
      "text": "O'Neill's play about his acting as actor",
      "start": 1142.9,
      "duration": 5.07
    },
    {
      "text": "father and morphine addicted mother",
      "start": 1146.71,
      "duration": 2.4
    },
    {
      "text": "called the long day's journey and",
      "start": 1147.97,
      "duration": 6.699
    },
    {
      "text": "tonight it's a very apt title his father",
      "start": 1149.11,
      "duration": 7.87
    },
    {
      "text": "this constantly wanted worried about the",
      "start": 1154.669,
      "duration": 3.84
    },
    {
      "text": "lights being on I mean I know this one",
      "start": 1156.98,
      "duration": 3.24
    },
    {
      "text": "as I grew up well you had to you got",
      "start": 1158.509,
      "duration": 3.15
    },
    {
      "text": "cold and you had to feed money into the",
      "start": 1160.22,
      "duration": 3.329
    },
    {
      "text": "meter to get any heating if you didn't",
      "start": 1161.659,
      "duration": 4.52
    },
    {
      "text": "have any money you didn't get any heat",
      "start": 1163.549,
      "duration": 5.911
    },
    {
      "text": "and he says to his father he says dad",
      "start": 1166.179,
      "duration": 5.141
    },
    {
      "text": "I've shown you the math leaving the",
      "start": 1169.46,
      "duration": 3.63
    },
    {
      "text": "light on costs virtually nothing come on",
      "start": 1171.32,
      "duration": 3.66
    },
    {
      "text": "I turn that light off as you seem",
      "start": 1173.09,
      "duration": 4.169
    },
    {
      "text": "ridiculous right sexual restraint",
      "start": 1174.98,
      "duration": 4.71
    },
    {
      "text": "monogamy getting married and then having",
      "start": 1177.259,
      "duration": 7.38
    },
    {
      "text": "sex that's old values that that doesn't",
      "start": 1179.69,
      "duration": 6.119
    },
    {
      "text": "mean anything anymore doesn't matter",
      "start": 1184.639,
      "duration": 1.561
    },
    {
      "text": "anymore",
      "start": 1185.809,
      "duration": 3.12
    },
    {
      "text": "and so the boomers have nothing to teach",
      "start": 1186.2,
      "duration": 3.929
    },
    {
      "text": "and the Millennials feel like they have",
      "start": 1188.929,
      "duration": 3.21
    },
    {
      "text": "nothing to learn and each generation has",
      "start": 1190.129,
      "duration": 3.48
    },
    {
      "text": "decayed has bounced back now where",
      "start": 1192.139,
      "duration": 2.701
    },
    {
      "text": "people are really seeing the price",
      "start": 1193.609,
      "duration": 6.3
    },
    {
      "text": "because when you turn your children from",
      "start": 1194.84,
      "duration": 7.019
    },
    {
      "text": "manifestations of your love for life and",
      "start": 1199.909,
      "duration": 4.2
    },
    {
      "text": "your love for your spouse when you turn",
      "start": 1201.859,
      "duration": 4.32
    },
    {
      "text": "children from manifestations of a love",
      "start": 1204.109,
      "duration": 9.41
    },
    {
      "text": "for life into fundamentally collateral",
      "start": 1206.179,
      "duration": 9.87
    },
    {
      "text": "whose future earnings you use to borrow",
      "start": 1213.519,
      "duration": 5.62
    },
    {
      "text": "against in order to feed you agreed in",
      "start": 1216.049,
      "duration": 4.051
    },
    {
      "text": "the here and now as we know how",
      "start": 1219.139,
      "duration": 2.581
    },
    {
      "text": "democracy works the next generation pays",
      "start": 1220.1,
      "duration": 3.12
    },
    {
      "text": "for the greed of the current generation",
      "start": 1221.72,
      "duration": 2.939
    },
    {
      "text": "the current generation wants all this",
      "start": 1223.22,
      "duration": 3.12
    },
    {
      "text": "free stuff but there's no such thing as",
      "start": 1224.659,
      "duration": 3.661
    },
    {
      "text": "free the next generation has to pay for",
      "start": 1226.34,
      "duration": 3.539
    },
    {
      "text": "it and the longer that is deferred the",
      "start": 1228.32,
      "duration": 3.419
    },
    {
      "text": "worse the bill becomes to the point now",
      "start": 1229.879,
      "duration": 4.29
    },
    {
      "text": "where I mean certainly in America kids",
      "start": 1231.739,
      "duration": 3.721
    },
    {
      "text": "are born into over a million dollars",
      "start": 1234.169,
      "duration": 4.74
    },
    {
      "text": "worth of debt and unfunded liabilities",
      "start": 1235.46,
      "duration": 6.059
    },
    {
      "text": "and that's great the whole population of",
      "start": 1238.909,
      "duration": 3.931
    },
    {
      "text": "the planet is tens of thousands of",
      "start": 1241.519,
      "duration": 3.23
    },
    {
      "text": "dollars in debt every single human being",
      "start": 1242.84,
      "duration": 7.98
    },
    {
      "text": "it's horrible so when you your children",
      "start": 1244.749,
      "duration": 9.55
    },
    {
      "text": "become collateral that you used to",
      "start": 1250.82,
      "duration": 6.989
    },
    {
      "text": "borrow against because you don't want to",
      "start": 1254.299,
      "duration": 5.671
    },
    {
      "text": "pay for what you want to consume in the",
      "start": 1257.809,
      "duration": 3.631
    },
    {
      "text": "here and now government promises you all",
      "start": 1259.97,
      "duration": 2.699
    },
    {
      "text": "this free stuff but there is no such",
      "start": 1261.44,
      "duration": 2.91
    },
    {
      "text": "thing as free if the government says I'm",
      "start": 1262.669,
      "duration": 2.7
    },
    {
      "text": "going to give you five hundred dollars",
      "start": 1264.35,
      "duration": 2.34
    },
    {
      "text": "worth the benefits it has to tax you a",
      "start": 1265.369,
      "duration": 2.67
    },
    {
      "text": "thousand dollars to pay for those five",
      "start": 1266.69,
      "duration": 3.449
    },
    {
      "text": "hundred dollars worth of benefits so you",
      "start": 1268.039,
      "duration": 4.25
    },
    {
      "text": "very quickly understand the game the con",
      "start": 1270.139,
      "duration": 5.431
    },
    {
      "text": "the government add value government is",
      "start": 1272.289,
      "duration": 7.87
    },
    {
      "text": "overhead subtracts value so they say",
      "start": 1275.57,
      "duration": 4.92
    },
    {
      "text": "well we",
      "start": 1280.159,
      "duration": 3.691
    },
    {
      "text": "give you this benefit we're gonna have a",
      "start": 1280.49,
      "duration": 5.939
    },
    {
      "text": "war in Vietnam and a welfare state at",
      "start": 1283.85,
      "duration": 3.63
    },
    {
      "text": "the same time oops",
      "start": 1286.429,
      "duration": 5.821
    },
    {
      "text": "sorry we have to decouple gold from",
      "start": 1287.48,
      "duration": 6.57
    },
    {
      "text": "money so we can print as much as we want",
      "start": 1292.25,
      "duration": 3.78
    },
    {
      "text": "and now your earnings will never go up",
      "start": 1294.05,
      "duration": 9.02
    },
    {
      "text": "but your debt constantly well this",
      "start": 1296.03,
      "duration": 8.88
    },
    {
      "text": "horrible belief that you can get",
      "start": 1303.07,
      "duration": 3.73
    },
    {
      "text": "something for nothing means that you",
      "start": 1304.91,
      "duration": 5.28
    },
    {
      "text": "shift the burden onto your children and",
      "start": 1306.8,
      "duration": 4.65
    },
    {
      "text": "how do you look your children in the eye",
      "start": 1310.19,
      "duration": 3.21
    },
    {
      "text": "this is something I genuinely cannot",
      "start": 1311.45,
      "duration": 3.54
    },
    {
      "text": "figure out I mean if you can help me",
      "start": 1313.4,
      "duration": 3.45
    },
    {
      "text": "please let me know what it is in the",
      "start": 1314.99,
      "duration": 3.75
    },
    {
      "text": "comments below but I can't figure this",
      "start": 1316.85,
      "duration": 3.27
    },
    {
      "text": "out like how do you look at your kids",
      "start": 1318.74,
      "duration": 6.36
    },
    {
      "text": "and say this is great system you've got",
      "start": 1320.12,
      "duration": 7.59
    },
    {
      "text": "terrible schools mom and dad both have",
      "start": 1325.1,
      "duration": 6.54
    },
    {
      "text": "to work to pay for everyone else you're",
      "start": 1327.71,
      "duration": 6.66
    },
    {
      "text": "massively in debt oh and we're gonna lie",
      "start": 1331.64,
      "duration": 3.81
    },
    {
      "text": "to you about the value of a college",
      "start": 1334.37,
      "duration": 1.67
    },
    {
      "text": "degree",
      "start": 1335.45,
      "duration": 3.09
    },
    {
      "text": "that's affectingly giving you a debt",
      "start": 1336.04,
      "duration": 7
    },
    {
      "text": "vasectomy or a gender studies based",
      "start": 1338.54,
      "duration": 6.42
    },
    {
      "text": "hysterectomy because you can end up",
      "start": 1343.04,
      "duration": 3.66
    },
    {
      "text": "spending so much time paying off your",
      "start": 1344.96,
      "duration": 2.79
    },
    {
      "text": "debt that you won't be able to get your",
      "start": 1346.7,
      "duration": 3.54
    },
    {
      "text": "life your family started until your eggs",
      "start": 1347.75,
      "duration": 4.02
    },
    {
      "text": "are so old you're gonna give birth to",
      "start": 1350.24,
      "duration": 6.18
    },
    {
      "text": "dusty pterodactyls how do we have a",
      "start": 1351.77,
      "duration": 7.86
    },
    {
      "text": "system that treats children as financial",
      "start": 1356.42,
      "duration": 8.85
    },
    {
      "text": "objects to be sold at auction to bankers",
      "start": 1359.63,
      "duration": 11.37
    },
    {
      "text": "in China and Japan and other places how",
      "start": 1365.27,
      "duration": 8.9
    },
    {
      "text": "do we have a slave market of the unborn",
      "start": 1371,
      "duration": 5.64
    },
    {
      "text": "selling off their future earnings to",
      "start": 1374.17,
      "duration": 3.97
    },
    {
      "text": "foreign bank stirs so we can stuff our",
      "start": 1376.64,
      "duration": 2.7
    },
    {
      "text": "faces in the here and now",
      "start": 1378.14,
      "duration": 3.84
    },
    {
      "text": "call us alpha Society and we want we",
      "start": 1379.34,
      "duration": 4.5
    },
    {
      "text": "want people to respect our society we",
      "start": 1381.98,
      "duration": 3.329
    },
    {
      "text": "want people to hey you really should",
      "start": 1383.84,
      "duration": 4.65
    },
    {
      "text": "emulate us we prey on our children like",
      "start": 1385.309,
      "duration": 6.831
    },
    {
      "text": "dishonest financial ink sucking vampires",
      "start": 1388.49,
      "duration": 8.33
    },
    {
      "text": "want to be like hath bet he don't and",
      "start": 1392.14,
      "duration": 9.73
    },
    {
      "text": "this brings me to Ireland I know it's a",
      "start": 1396.82,
      "duration": 7.18
    },
    {
      "text": "long voyage but I live in Canada so you",
      "start": 1401.87,
      "duration": 3.45
    },
    {
      "text": "know it's a long way across the",
      "start": 1404,
      "duration": 2.76
    },
    {
      "text": "rhetorical Atlantic Hey look I'm",
      "start": 1405.32,
      "duration": 6.78
    },
    {
      "text": "delaying it even further so this means",
      "start": 1406.76,
      "duration": 6.16
    },
    {
      "text": "that it's",
      "start": 1412.1,
      "duration": 4.78
    },
    {
      "text": "you're likely then relatively soon Irish",
      "start": 1412.92,
      "duration": 9.21
    },
    {
      "text": "women will be able to kill their unborn",
      "start": 1416.88,
      "duration": 8.37
    },
    {
      "text": "babies in their wombs and there are I",
      "start": 1422.13,
      "duration": 4.62
    },
    {
      "text": "mean you can see this if you do a search",
      "start": 1425.25,
      "duration": 6.36
    },
    {
      "text": "there are women who are you screaming",
      "start": 1426.75,
      "duration": 7.58
    },
    {
      "text": "with joy who are cheering who are",
      "start": 1431.61,
      "duration": 8.13
    },
    {
      "text": "ecstatic at this self-detonating",
      "start": 1434.33,
      "duration": 11.16
    },
    {
      "text": "murderer ah cracy of the hesitant womb",
      "start": 1439.74,
      "duration": 8.97
    },
    {
      "text": "now I know it's a complicated moral",
      "start": 1445.49,
      "duration": 5.559
    },
    {
      "text": "issue and I've talked at length before",
      "start": 1448.71,
      "duration": 4.53
    },
    {
      "text": "about my solutions regarding this issue",
      "start": 1451.049,
      "duration": 3.991
    },
    {
      "text": "and I'm not a status so I don't believe",
      "start": 1453.24,
      "duration": 5.4
    },
    {
      "text": "that the law is the solution but",
      "start": 1455.04,
      "duration": 7.34
    },
    {
      "text": "nonetheless it is extraordinary and",
      "start": 1458.64,
      "duration": 6.51
    },
    {
      "text": "unsustainable how much deference there",
      "start": 1462.38,
      "duration": 8.07
    },
    {
      "text": "is towards female wishes in the West",
      "start": 1465.15,
      "duration": 11.159
    },
    {
      "text": "it's absolutely unsustainable and this",
      "start": 1470.45,
      "duration": 7.719
    },
    {
      "text": "idea that now women have the sole right",
      "start": 1476.309,
      "duration": 5.101
    },
    {
      "text": "of arbitration over the survival of",
      "start": 1478.169,
      "duration": 4.321
    },
    {
      "text": "their children or whether they become",
      "start": 1481.41,
      "duration": 3.149
    },
    {
      "text": "mothers or not of course it should be",
      "start": 1482.49,
      "duration": 5.4
    },
    {
      "text": "accompanied by an opt-out clause for",
      "start": 1484.559,
      "duration": 7.381
    },
    {
      "text": "fathers who don't want to be fathers so",
      "start": 1487.89,
      "duration": 5.279
    },
    {
      "text": "that the fathers can opt out being",
      "start": 1491.94,
      "duration": 3.54
    },
    {
      "text": "fathers and then they have no right of",
      "start": 1493.169,
      "duration": 3.571
    },
    {
      "text": "visitation they have no financial",
      "start": 1495.48,
      "duration": 3.21
    },
    {
      "text": "obligations because why is it that women",
      "start": 1496.74,
      "duration": 3.3
    },
    {
      "text": "can solely choose whether to become",
      "start": 1498.69,
      "duration": 4.2
    },
    {
      "text": "mothers but men can be forced by the",
      "start": 1500.04,
      "duration": 5.82
    },
    {
      "text": "choice of the woman to become fathers in",
      "start": 1502.89,
      "duration": 6.96
    },
    {
      "text": "the real sort of practical sense and it",
      "start": 1505.86,
      "duration": 8.25
    },
    {
      "text": "won't solve anything it won't it won't",
      "start": 1509.85,
      "duration": 9.329
    },
    {
      "text": "solve anything because this is the",
      "start": 1514.11,
      "duration": 8.33
    },
    {
      "text": "reality is that once the woman decides",
      "start": 1519.179,
      "duration": 7.681
    },
    {
      "text": "to give birth to her child hundreds of",
      "start": 1522.44,
      "duration": 6.25
    },
    {
      "text": "thousands of resources and thousands of",
      "start": 1526.86,
      "duration": 4.89
    },
    {
      "text": "hours need to be poured in to help that",
      "start": 1528.69,
      "duration": 5.58
    },
    {
      "text": "woman raise the child and it's either",
      "start": 1531.75,
      "duration": 3.299
    },
    {
      "text": "going to be a father",
      "start": 1534.27,
      "duration": 2.76
    },
    {
      "text": "voluntarily or it's going to be a",
      "start": 1535.049,
      "duration": 3.721
    },
    {
      "text": "taxpayer involuntarily",
      "start": 1537.03,
      "duration": 5.279
    },
    {
      "text": "or more likely she gets resources from",
      "start": 1538.77,
      "duration": 5.789
    },
    {
      "text": "her newborn child by selling through the",
      "start": 1542.309,
      "duration": 4.531
    },
    {
      "text": "state her child on the",
      "start": 1544.559,
      "duration": 5.161
    },
    {
      "text": "eBay B auction block a foreign bank",
      "start": 1546.84,
      "duration": 8.1
    },
    {
      "text": "stress sure we'll lend you a little",
      "start": 1549.72,
      "duration": 7.26
    },
    {
      "text": "money take care of your kid but your kid",
      "start": 1554.94,
      "duration": 5.609
    },
    {
      "text": "when he grows up belongs to us you get a",
      "start": 1556.98,
      "duration": 5.88
    },
    {
      "text": "Meli's young will get a man he's older",
      "start": 1560.549,
      "duration": 5.941
    },
    {
      "text": "and how can this be sustained how can",
      "start": 1562.86,
      "duration": 8.399
    },
    {
      "text": "this be processed children need",
      "start": 1566.49,
      "duration": 13.439
    },
    {
      "text": "resources and who once we view or once",
      "start": 1571.259,
      "duration": 11.071
    },
    {
      "text": "our system requires that children be",
      "start": 1579.929,
      "duration": 4.35
    },
    {
      "text": "collateral rather than loving",
      "start": 1582.33,
      "duration": 7.169
    },
    {
      "text": "expressions of our joy of life we have a",
      "start": 1584.279,
      "duration": 9.661
    },
    {
      "text": "system that can't last and as far as",
      "start": 1589.499,
      "duration": 9.12
    },
    {
      "text": "this sentimentality goes it is a strange",
      "start": 1593.94,
      "duration": 10.16
    },
    {
      "text": "world to live in you think about it when",
      "start": 1598.619,
      "duration": 8.93
    },
    {
      "text": "the Irish can have a referendum on",
      "start": 1604.1,
      "duration": 7.649
    },
    {
      "text": "killing fetuses which lowers birthrate",
      "start": 1607.549,
      "duration": 7.901
    },
    {
      "text": "but not one population in the Western",
      "start": 1611.749,
      "duration": 6.54
    },
    {
      "text": "world is allowed to have a referendum on",
      "start": 1615.45,
      "duration": 5.49
    },
    {
      "text": "say third world mass migration into",
      "start": 1618.289,
      "duration": 9.551
    },
    {
      "text": "their countries almost like there's some",
      "start": 1620.94,
      "duration": 9.89
    },
    {
      "text": "kind of agenda at work",
      "start": 1627.84,
      "duration": 2.99
    },
    {
      "text": "you",
      "start": 1637.69,
      "duration": 2.06
    }
  ],
  "Errors": null,
  "TranscriptStderr": null
}