[
    {
        "start": "0.03",
        "dur": "6.269",
        "text": "good morning everybody its defend Molony"
    },
    {
        "start": "2.879",
        "dur": "5.22",
        "text": "ten o'clock in the a.m. on the 28th of"
    },
    {
        "start": "6.299",
        "dur": "4.8",
        "text": "April 2013 I hope you doing"
    },
    {
        "start": "8.099",
        "dur": "5.491",
        "text": "magnificently I will not be speaking"
    },
    {
        "start": "11.099",
        "dur": "5.821",
        "text": "with you until the end of the month so I"
    },
    {
        "start": "13.59",
        "dur": "6.39",
        "text": "must assume my happy hooker position say"
    },
    {
        "start": "16.92",
        "dur": "6.269",
        "text": "Xavier Hollander oh my goodness yes I"
    },
    {
        "start": "19.98",
        "dur": "5.639",
        "text": "was around in the 70s and request"
    },
    {
        "start": "23.189",
        "dur": "6.24",
        "text": "donations as always it's something that"
    },
    {
        "start": "25.619",
        "dur": "7.111",
        "text": "I I must do I must do for the sake"
    },
    {
        "start": "29.429",
        "dur": "7.831",
        "text": "philosophy it's not fun but it certainly"
    },
    {
        "start": "32.73",
        "dur": "7.5",
        "text": "is important so to help get the word out"
    },
    {
        "start": "37.26",
        "dur": "6.36",
        "text": "to help as you probably know we have"
    },
    {
        "start": "40.23",
        "dur": "4.829",
        "text": "employee number pi number two the"
    },
    {
        "start": "43.62",
        "dur": "2.91",
        "text": "fabulous michael DeMarco if you have"
    },
    {
        "start": "45.059",
        "dur": "3.781",
        "text": "questions comments or issues you can"
    },
    {
        "start": "46.53",
        "dur": "7.919",
        "text": "contact him operations at"
    },
    {
        "start": "48.84",
        "dur": "8.039",
        "text": "freedomainradio.com and he is you know"
    },
    {
        "start": "54.449",
        "dur": "4.141",
        "text": "one more barrier between me and reality"
    },
    {
        "start": "56.879",
        "dur": "3.36",
        "text": "which of course is absolutely essential"
    },
    {
        "start": "58.59",
        "dur": "4.35",
        "text": "if you're going to explore the life of"
    },
    {
        "start": "60.239",
        "dur": "4.92",
        "text": "the bite so my wife of course a huge"
    },
    {
        "start": "62.94",
        "dur": "4.17",
        "text": "barrier between me and reality my"
    },
    {
        "start": "65.159",
        "dur": "3.511",
        "text": "daughter of course since I now spend a"
    },
    {
        "start": "67.11",
        "dur": "4.259",
        "text": "good deal of my time engaged in fantasy"
    },
    {
        "start": "68.67",
        "dur": "5.01",
        "text": "play during the day now Mike so I feel"
    },
    {
        "start": "71.369",
        "dur": "5.04",
        "text": "that I'm now a toad approaching a"
    },
    {
        "start": "73.68",
        "dur": "5.64",
        "text": "plutonic state a pure idealized abstract"
    },
    {
        "start": "76.409",
        "dur": "5.521",
        "text": "bliss so so if you would like to help"
    },
    {
        "start": "79.32",
        "dur": "5.13",
        "text": "out he's got to eat I've got to eat now"
    },
    {
        "start": "81.93",
        "dur": "5",
        "text": "you can think of us as two chirping baby"
    },
    {
        "start": "84.45",
        "dur": "4.98",
        "text": "birds in the nest so if you have any"
    },
    {
        "start": "86.93",
        "dur": "3.7",
        "text": "financial worms to cough up into our"
    },
    {
        "start": "89.43",
        "dur": "1.619",
        "text": "gaping maws we would really appreciate"
    },
    {
        "start": "90.63",
        "dur": "2.55",
        "text": "it"
    },
    {
        "start": "91.049",
        "dur": "6.151",
        "text": "freedomainradio.com forward slash donate"
    },
    {
        "start": "93.18",
        "dur": "6.81",
        "text": "or FDR a URL com forward slash donate we"
    },
    {
        "start": "97.2",
        "dur": "4.65",
        "text": "take bitcoins I like our CIO slip the"
    },
    {
        "start": "99.99",
        "dur": "4.159",
        "text": "plural in there not just a Bitcoin not"
    },
    {
        "start": "101.85",
        "dur": "6.29",
        "text": "just part of a Bitcoin but bitcoins"
    },
    {
        "start": "104.149",
        "dur": "7.121",
        "text": "would really be appreciated as well so"
    },
    {
        "start": "108.14",
        "dur": "7.479",
        "text": "yeah please donate and we will keep"
    },
    {
        "start": "111.27",
        "dur": "6.75",
        "text": "things a-movin on the show so that's"
    },
    {
        "start": "115.619",
        "dur": "4.71",
        "text": "really it for my intro I now must get"
    },
    {
        "start": "118.02",
        "dur": "4.08",
        "text": "off my presidential kneepads and assume"
    },
    {
        "start": "120.329",
        "dur": "4.021",
        "text": "the listening position so James if you"
    },
    {
        "start": "122.1",
        "dur": "4.409",
        "text": "would like to kick up the first Q I'm"
    },
    {
        "start": "124.35",
        "dur": "6.779",
        "text": "happy to hear alright first up today we"
    },
    {
        "start": "126.509",
        "dur": "6.421",
        "text": "have Robert so we start with giving and"
    },
    {
        "start": "131.129",
        "dur": "4.431",
        "text": "we go to Rob fantastic I like the"
    },
    {
        "start": "132.93",
        "dur": "6.08",
        "text": "duality please go ahead"
    },
    {
        "start": "135.56",
        "dur": "6.67",
        "text": "hi Stefan thanks for taking my call um I"
    },
    {
        "start": "139.01",
        "dur": "6.399",
        "text": "had a question I sent you an email"
    },
    {
        "start": "142.23",
        "dur": "5.16",
        "text": "before and I was trying to find out"
    },
    {
        "start": "145.409",
        "dur": "5.61",
        "text": "whether you think how much trouble do"
    },
    {
        "start": "147.39",
        "dur": "6.78",
        "text": "you think I might be in should I read"
    },
    {
        "start": "151.019",
        "dur": "4.67",
        "text": "you off the letter perhaps I'm right now"
    },
    {
        "start": "154.17",
        "dur": "5.84",
        "text": "okay I should probably explain myself I"
    },
    {
        "start": "155.689",
        "dur": "7.3",
        "text": "do web development PHP my sequel CSS"
    },
    {
        "start": "160.01",
        "dur": "5.41",
        "text": "JavaScript etc should I read you off the"
    },
    {
        "start": "162.989",
        "dur": "3.87",
        "text": "letter would they be helpful or if you"
    },
    {
        "start": "165.42",
        "dur": "2.87",
        "text": "could just cut to the core pod about the"
    },
    {
        "start": "166.859",
        "dur": "5.25",
        "text": "problems that would be great"
    },
    {
        "start": "168.29",
        "dur": "7.809",
        "text": "well I'm being told that I okay so I got"
    },
    {
        "start": "172.109",
        "dur": "6.391",
        "text": "an email saying that he is disappointed"
    },
    {
        "start": "176.099",
        "dur": "4.411",
        "text": "in the progress of two projects and it"
    },
    {
        "start": "178.5",
        "dur": "7.23",
        "text": "says that he says you better get it done"
    },
    {
        "start": "180.51",
        "dur": "7.08",
        "text": "by the end of this week and I'm just"
    },
    {
        "start": "185.73",
        "dur": "4.95",
        "text": "wondering when you get that kind of"
    },
    {
        "start": "187.59",
        "dur": "6.17",
        "text": "letter is that sort of thing mean that"
    },
    {
        "start": "190.68",
        "dur": "5.369",
        "text": "the considering getting rid of you or"
    },
    {
        "start": "193.76",
        "dur": "5.379",
        "text": "well tell me a little bit more about the"
    },
    {
        "start": "196.049",
        "dur": "5.28",
        "text": "project is it behind schedule yeah it is"
    },
    {
        "start": "199.139",
        "dur": "4.921",
        "text": "behind schedule and there's actually two"
    },
    {
        "start": "201.329",
        "dur": "5.19",
        "text": "projects unfortunately so one project is"
    },
    {
        "start": "204.06",
        "dur": "5.37",
        "text": "at least it's been in progress about a"
    },
    {
        "start": "206.519",
        "dur": "4.68",
        "text": "year or two I've not been in charge of"
    },
    {
        "start": "209.43",
        "dur": "4.38",
        "text": "it I've only been dealing with it for"
    },
    {
        "start": "211.199",
        "dur": "4.68",
        "text": "the past eight months and he really"
    },
    {
        "start": "213.81",
        "dur": "5.669",
        "text": "wanted to have gotten it done once"
    },
    {
        "start": "215.879",
        "dur": "8.25",
        "text": "before and another one same similar"
    },
    {
        "start": "219.479",
        "dur": "7.23",
        "text": "situation and one thing he pointed out"
    },
    {
        "start": "224.129",
        "dur": "6.75",
        "text": "is that on a live site that a client"
    },
    {
        "start": "226.709",
        "dur": "5.661",
        "text": "could see they could see a major error"
    },
    {
        "start": "230.879",
        "dur": "3.51",
        "text": "or something that wasn't updated"
    },
    {
        "start": "232.37",
        "dur": "3.579",
        "text": "technically on that response I don't"
    },
    {
        "start": "234.389",
        "dur": "6.361",
        "text": "think I'm I don't if I'm responsible for"
    },
    {
        "start": "235.949",
        "dur": "7.561",
        "text": "this or not but I'm just trying to"
    },
    {
        "start": "240.75",
        "dur": "5.659",
        "text": "figure out well he's okay so women in"
    },
    {
        "start": "243.51",
        "dur": "7.83",
        "text": "the detail as to what the issue was and"
    },
    {
        "start": "246.409",
        "dur": "6.58",
        "text": "why it's wrong and how these two"
    },
    {
        "start": "251.34",
        "dur": "8.299",
        "text": "projects because they're not being done"
    },
    {
        "start": "252.989",
        "dur": "6.65",
        "text": "they're delaying other projects right I"
    },
    {
        "start": "259.789",
        "dur": "8.071",
        "text": "just thought I'm just wondering if the"
    },
    {
        "start": "263.46",
        "dur": "7.2",
        "text": "tone of the email indicates you know"
    },
    {
        "start": "267.86",
        "dur": "4.42",
        "text": "are they really I mean he sounds like"
    },
    {
        "start": "270.66",
        "dur": "4.92",
        "text": "he's angry that I mean I'm just warning"
    },
    {
        "start": "272.28",
        "dur": "5.55",
        "text": "now look I'm gonna make a guess here now"
    },
    {
        "start": "275.58",
        "dur": "4.32",
        "text": "it's somewhat educated guess as you know"
    },
    {
        "start": "277.83",
        "dur": "3.96",
        "text": "I spent 15 years in entrepreneurial"
    },
    {
        "start": "279.9",
        "dur": "5.16",
        "text": "somewhat are mostly entrepreneurial"
    },
    {
        "start": "281.79",
        "dur": "8.189",
        "text": "software development so so it's unlikely"
    },
    {
        "start": "285.06",
        "dur": "6.359",
        "text": "that he is going to fire you because"
    },
    {
        "start": "289.979",
        "dur": "3.811",
        "text": "what happens of course when you're the"
    },
    {
        "start": "291.419",
        "dur": "4.231",
        "text": "client is that if it's if you're so"
    },
    {
        "start": "293.79",
        "dur": "5.07",
        "text": "embedded in the project he's either"
    },
    {
        "start": "295.65",
        "dur": "7.019",
        "text": "gonna drop the project completely or"
    },
    {
        "start": "298.86",
        "dur": "6.059",
        "text": "he's going to kind of try to get you"
    },
    {
        "start": "302.669",
        "dur": "4.081",
        "text": "finished faster because imagine if he"
    },
    {
        "start": "304.919",
        "dur": "3",
        "text": "gets rid of you and he hires someone new"
    },
    {
        "start": "306.75",
        "dur": "2.4",
        "text": "how long is it going to take for that"
    },
    {
        "start": "307.919",
        "dur": "6.06",
        "text": "person to get up to speed and what's"
    },
    {
        "start": "309.15",
        "dur": "7.17",
        "text": "going on right I mean it's kind of"
    },
    {
        "start": "313.979",
        "dur": "5.521",
        "text": "important because I mean I don't plan on"
    },
    {
        "start": "316.32",
        "dur": "4.14",
        "text": "being in the USA hang on sorry I don't"
    },
    {
        "start": "319.5",
        "dur": "2.34",
        "text": "wanna get I don't wanna get a huge"
    },
    {
        "start": "320.46",
        "dur": "4.55",
        "text": "amount of backstory I want to focus on"
    },
    {
        "start": "321.84",
        "dur": "7.65",
        "text": "sorry no no no problem at all so so he's"
    },
    {
        "start": "325.01",
        "dur": "6.25",
        "text": "he's he's at your mercy because I'm"
    },
    {
        "start": "329.49",
        "dur": "3.39",
        "text": "assuming he can't drop the project right"
    },
    {
        "start": "331.26",
        "dur": "3.48",
        "text": "right he's already got a lot of sunk"
    },
    {
        "start": "332.88",
        "dur": "3.27",
        "text": "costs in right so if he's dropped a"
    },
    {
        "start": "334.74",
        "dur": "2.82",
        "text": "couple of hundred K in the project he"
    },
    {
        "start": "336.15",
        "dur": "4.59",
        "text": "can't just drop it because then he's"
    },
    {
        "start": "337.56",
        "dur": "5.46",
        "text": "left with nothing right right well - -"
    },
    {
        "start": "340.74",
        "dur": "5.359",
        "text": "huge amount of time money energy and"
    },
    {
        "start": "343.02",
        "dur": "7.8",
        "text": "happiness so he can't drop the project"
    },
    {
        "start": "346.099",
        "dur": "6.911",
        "text": "and so and he can't replace you I mean"
    },
    {
        "start": "350.82",
        "dur": "3.45",
        "text": "at least it would be pretty unwise at"
    },
    {
        "start": "353.01",
        "dur": "3.36",
        "text": "this point if you're fairly close to the"
    },
    {
        "start": "354.27",
        "dur": "3.869",
        "text": "end it would be fairly and wise to"
    },
    {
        "start": "356.37",
        "dur": "4.35",
        "text": "replace you so he's really helpless"
    },
    {
        "start": "358.139",
        "dur": "4.411",
        "text": "right and if you're on the client side"
    },
    {
        "start": "360.72",
        "dur": "3.12",
        "text": "of things helplessness is one of the"
    },
    {
        "start": "362.55",
        "dur": "2.67",
        "text": "worst feelings I mean it's one of the"
    },
    {
        "start": "363.84",
        "dur": "6.03",
        "text": "worst feelings in the world as a whole"
    },
    {
        "start": "365.22",
        "dur": "6.87",
        "text": "to be helpless it is it provokes our"
    },
    {
        "start": "369.87",
        "dur": "4.38",
        "text": "fight-or-flight mechanism you know so"
    },
    {
        "start": "372.09",
        "dur": "4.079",
        "text": "helpless is that I don't know you your"
    },
    {
        "start": "374.25",
        "dur": "4.74",
        "text": "skin diving is your foot caught in some"
    },
    {
        "start": "376.169",
        "dur": "4.381",
        "text": "giant clam then you you know you're"
    },
    {
        "start": "378.99",
        "dur": "2.82",
        "text": "helpless to get back to the surface so"
    },
    {
        "start": "380.55",
        "dur": "2.97",
        "text": "you can imagine the surge of adrenaline"
    },
    {
        "start": "381.81",
        "dur": "3",
        "text": "and cortisol and all that kind of good"
    },
    {
        "start": "383.52",
        "dur": "5.7",
        "text": "stuff that's not flooding through your"
    },
    {
        "start": "384.81",
        "dur": "6.359",
        "text": "system so he is in a vulnerable position"
    },
    {
        "start": "389.22",
        "dur": "4.319",
        "text": "and people forget this on the technical"
    },
    {
        "start": "391.169",
        "dur": "4.411",
        "text": "side it just how vulnerable the clients"
    },
    {
        "start": "393.539",
        "dur": "3.301",
        "text": "are to what it is that we need to get"
    },
    {
        "start": "395.58",
        "dur": "6.12",
        "text": "down on what it is that they need for us"
    },
    {
        "start": "396.84",
        "dur": "7.5",
        "text": "to finish right so so some my guess is"
    },
    {
        "start": "401.7",
        "dur": "4.38",
        "text": "that because he's he's experiencing this"
    },
    {
        "start": "404.34",
        "dur": "3.66",
        "text": "hapless Ness he's also gonna experience"
    },
    {
        "start": "406.08",
        "dur": "4.8",
        "text": "a surge of aggression which is what"
    },
    {
        "start": "408",
        "dur": "4.92",
        "text": "generally accompanies helplessness right"
    },
    {
        "start": "410.88",
        "dur": "3.36",
        "text": "and you know unless he's got a lot of"
    },
    {
        "start": "412.92",
        "dur": "3.75",
        "text": "self knowledge and great communication"
    },
    {
        "start": "414.24",
        "dur": "4.05",
        "text": "skills he's not going to be able to call"
    },
    {
        "start": "416.67",
        "dur": "3.84",
        "text": "you up and and say listen I feel"
    },
    {
        "start": "418.29",
        "dur": "3.72",
        "text": "incredibly helpless this project has"
    },
    {
        "start": "420.51",
        "dur": "3.72",
        "text": "been dragging on and on I don't have an"
    },
    {
        "start": "422.01",
        "dur": "3.84",
        "text": "end date I really need this to go live"
    },
    {
        "start": "424.23",
        "dur": "3.45",
        "text": "my livelihood depends on it I poured"
    },
    {
        "start": "425.85",
        "dur": "3.39",
        "text": "huge amounts of money into this and I"
    },
    {
        "start": "427.68",
        "dur": "3.21",
        "text": "just you know every time I click around"
    },
    {
        "start": "429.24",
        "dur": "4.52",
        "text": "I see errors like I'm just I'm going"
    },
    {
        "start": "430.89",
        "dur": "5.67",
        "text": "mental with frustration and and fear and"
    },
    {
        "start": "433.76",
        "dur": "4.12",
        "text": "and anger and you know you could say"
    },
    {
        "start": "436.56",
        "dur": "4.44",
        "text": "it's not necessarily your fault or"
    },
    {
        "start": "437.88",
        "dur": "6.12",
        "text": "anything like that but so so I would be"
    },
    {
        "start": "441",
        "dur": "4.2",
        "text": "aware of the vulnerability I mean it's"
    },
    {
        "start": "444",
        "dur": "3.15",
        "text": "funny you know everyone thinks that the"
    },
    {
        "start": "445.2",
        "dur": "5.25",
        "text": "bosses are the ones who are always in"
    },
    {
        "start": "447.15",
        "dur": "6.21",
        "text": "charge right but but bosses are very"
    },
    {
        "start": "450.45",
        "dur": "4.77",
        "text": "helpless when it comes to actually"
    },
    {
        "start": "453.36",
        "dur": "4.53",
        "text": "getting things done because you don't"
    },
    {
        "start": "455.22",
        "dur": "6.33",
        "text": "actually do things as a boss you manage"
    },
    {
        "start": "457.89",
        "dur": "9.84",
        "text": "people and yet you're held responsible"
    },
    {
        "start": "461.55",
        "dur": "8.37",
        "text": "for the actions of these people and so"
    },
    {
        "start": "467.73",
        "dur": "4.68",
        "text": "it's it's a very vulnerable position to"
    },
    {
        "start": "469.92",
        "dur": "6.72",
        "text": "be to be a client particularly a client"
    },
    {
        "start": "472.41",
        "dur": "7.77",
        "text": "of of i.t because you can't go in and do"
    },
    {
        "start": "476.64",
        "dur": "5.19",
        "text": "it yourself right right so I mean you"
    },
    {
        "start": "480.18",
        "dur": "3.87",
        "text": "know the the closest analogy I can think"
    },
    {
        "start": "481.83",
        "dur": "4.98",
        "text": "of is you really need your car to go"
    },
    {
        "start": "484.05",
        "dur": "4.29",
        "text": "somewhere and you go to the you know you"
    },
    {
        "start": "486.81",
        "dur": "3.45",
        "text": "drop it off to get an oil change and you"
    },
    {
        "start": "488.34",
        "dur": "5.43",
        "text": "come back and half the engines on the"
    },
    {
        "start": "490.26",
        "dur": "5.69",
        "text": "floor and they don't know they can't"
    },
    {
        "start": "493.77",
        "dur": "4.38",
        "text": "tell you when it's gonna be fixed right"
    },
    {
        "start": "495.95",
        "dur": "3.94",
        "text": "right of course with that you have"
    },
    {
        "start": "498.15",
        "dur": "3.21",
        "text": "alternatives you take a cab or when but"
    },
    {
        "start": "499.89",
        "dur": "3.15",
        "text": "just imagine that the car is the only"
    },
    {
        "start": "501.36",
        "dur": "3.81",
        "text": "thing that you know when's it gonna be"
    },
    {
        "start": "503.04",
        "dur": "5.01",
        "text": "done oh I don't know I we found a"
    },
    {
        "start": "505.17",
        "dur": "5.43",
        "text": "problem with the flange vandal a bolt or"
    },
    {
        "start": "508.05",
        "dur": "3.93",
        "text": "something right I mean the widget is do"
    },
    {
        "start": "510.6",
        "dur": "3.21",
        "text": "you wish you did or something and you"
    },
    {
        "start": "511.98",
        "dur": "2.97",
        "text": "know we're waiting on some parts and you"
    },
    {
        "start": "513.81",
        "dur": "2.46",
        "text": "just sit in there right waiting and"
    },
    {
        "start": "514.95",
        "dur": "2.91",
        "text": "waiting it and and you're gonna feel"
    },
    {
        "start": "516.27",
        "dur": "3.959",
        "text": "like you're the client you're gonna pay"
    },
    {
        "start": "517.86",
        "dur": "5.52",
        "text": "and imagine if they keep charging you"
    },
    {
        "start": "520.229",
        "dur": "5.461",
        "text": "every day and all that so that kind of"
    },
    {
        "start": "523.38",
        "dur": "7.22",
        "text": "helplessness is probably what's going on"
    },
    {
        "start": "525.69",
        "dur": "8.54",
        "text": "and the key thing with with IT in my"
    },
    {
        "start": "530.6",
        "dur": "3.63",
        "text": "experience and opinion is"
    },
    {
        "start": "534.34",
        "dur": "3.39",
        "text": "I mean if you're a coder you got in it"
    },
    {
        "start": "536.2",
        "dur": "3.27",
        "text": "to do the coding right you wanna you"
    },
    {
        "start": "537.73",
        "dur": "3.3",
        "text": "want to sit - how to code me that's what"
    },
    {
        "start": "539.47",
        "dur": "5.61",
        "text": "you yeah yeah I've got a I got a project"
    },
    {
        "start": "541.03",
        "dur": "5.22",
        "text": "great I'm just gonna start typing and if"
    },
    {
        "start": "545.08",
        "dur": "3.03",
        "text": "you're if certainly if you're anything"
    },
    {
        "start": "546.25",
        "dur": "3.48",
        "text": "like me or my impulses in the IT world"
    },
    {
        "start": "548.11",
        "dur": "3.57",
        "text": "it's not so much planning and"
    },
    {
        "start": "549.73",
        "dur": "4.23",
        "text": "communication and all that boring kind"
    },
    {
        "start": "551.68",
        "dur": "3.9",
        "text": "of Gantt charts and all that kind of"
    },
    {
        "start": "553.96",
        "dur": "3.06",
        "text": "stuff you just want to get in there and"
    },
    {
        "start": "555.58",
        "dur": "3.36",
        "text": "start coding man because that actually"
    },
    {
        "start": "557.02",
        "dur": "3.75",
        "text": "makes things happen and you probably"
    },
    {
        "start": "558.94",
        "dur": "3.68",
        "text": "spend a lot more time coding than you do"
    },
    {
        "start": "560.77",
        "dur": "6.42",
        "text": "communicating with the client right oh"
    },
    {
        "start": "562.62",
        "dur": "7.24",
        "text": "yes yeah well I mean if you want to have"
    },
    {
        "start": "567.19",
        "dur": "4.32",
        "text": "a relationship with clients and you want"
    },
    {
        "start": "569.86",
        "dur": "3.54",
        "text": "to have the independence of the"
    },
    {
        "start": "571.51",
        "dur": "5.07",
        "text": "Entrepreneurship and you want to have"
    },
    {
        "start": "573.4",
        "dur": "5.57",
        "text": "the the income that entrepreneurship can"
    },
    {
        "start": "576.58",
        "dur": "7.74",
        "text": "grants you then you need to do more"
    },
    {
        "start": "578.97",
        "dur": "6.4",
        "text": "communicating and less coding right you"
    },
    {
        "start": "584.32",
        "dur": "5.28",
        "text": "think that you're gonna solve the"
    },
    {
        "start": "585.37",
        "dur": "7.71",
        "text": "project problems by coding right well"
    },
    {
        "start": "589.6",
        "dur": "6.63",
        "text": "the in immediate right well in the short"
    },
    {
        "start": "593.08",
        "dur": "4.41",
        "text": "term yes right and I would argue that"
    },
    {
        "start": "596.23",
        "dur": "3.48",
        "text": "you're going to solve the project"
    },
    {
        "start": "597.49",
        "dur": "4.8",
        "text": "problems by communicating not by coding"
    },
    {
        "start": "599.71",
        "dur": "5.28",
        "text": "fundamentally because you have been"
    },
    {
        "start": "602.29",
        "dur": "4.86",
        "text": "coding for a year or two or a you know"
    },
    {
        "start": "604.99",
        "dur": "3.87",
        "text": "eight months or whatever and the project"
    },
    {
        "start": "607.15",
        "dur": "5.79",
        "text": "programs aren't solved so another day or"
    },
    {
        "start": "608.86",
        "dur": "5.13",
        "text": "two of coding is not it is not going to"
    },
    {
        "start": "612.94",
        "dur": "2.88",
        "text": "solve the problem but this is feeling"
    },
    {
        "start": "613.99",
        "dur": "6.57",
        "text": "like if we just keep coding we'll solve"
    },
    {
        "start": "615.82",
        "dur": "6.33",
        "text": "the problem but the problem is that the"
    },
    {
        "start": "620.56",
        "dur": "3.81",
        "text": "the client does not lack code he's got"
    },
    {
        "start": "622.15",
        "dur": "3.57",
        "text": "years and years of code right so another"
    },
    {
        "start": "624.37",
        "dur": "4.32",
        "text": "day or two of code isn't gonna solve his"
    },
    {
        "start": "625.72",
        "dur": "5.28",
        "text": "problem what he needs is is a plan what"
    },
    {
        "start": "628.69",
        "dur": "4.68",
        "text": "he needs is an overview what he needs is"
    },
    {
        "start": "631",
        "dur": "6.24",
        "text": "some sense of comfort that you have an"
    },
    {
        "start": "633.37",
        "dur": "8.01",
        "text": "end goal that you have a that there's a"
    },
    {
        "start": "637.24",
        "dur": "6.42",
        "text": "shape to it that he can understand so it"
    },
    {
        "start": "641.38",
        "dur": "4.74",
        "text": "may be worth it I mean if I were in your"
    },
    {
        "start": "643.66",
        "dur": "5.85",
        "text": "shoes and again I get the sense of"
    },
    {
        "start": "646.12",
        "dur": "5.04",
        "text": "urgency code you know but you know my"
    },
    {
        "start": "649.51",
        "dur": "4.92",
        "text": "you know if you're lost in the woods so"
    },
    {
        "start": "651.16",
        "dur": "5.37",
        "text": "to speak you obviously feel like you"
    },
    {
        "start": "654.43",
        "dur": "3.42",
        "text": "need to keep walking right but that's"
    },
    {
        "start": "656.53",
        "dur": "3.21",
        "text": "not a great idea if you don't know where"
    },
    {
        "start": "657.85",
        "dur": "3.27",
        "text": "you're going because you could be"
    },
    {
        "start": "659.74",
        "dur": "2.64",
        "text": "walking the wrong way or whatever and"
    },
    {
        "start": "661.12",
        "dur": "2.43",
        "text": "and I don't mean this in terms of"
    },
    {
        "start": "662.38",
        "dur": "2.57",
        "text": "finishing the project I just mean in"
    },
    {
        "start": "663.55",
        "dur": "4.38",
        "text": "terms of communicating with the client"
    },
    {
        "start": "664.95",
        "dur": "5.41",
        "text": "so you know this is the time to"
    },
    {
        "start": "667.93",
        "dur": "4.92",
        "text": "you know pull out the map pull out the"
    },
    {
        "start": "670.36",
        "dur": "4.44",
        "text": "the compass maybe the GPS figure out"
    },
    {
        "start": "672.85",
        "dur": "4.89",
        "text": "where you are you know stop stop walking"
    },
    {
        "start": "674.8",
        "dur": "4.62",
        "text": "and get the big picture overview to make"
    },
    {
        "start": "677.74",
        "dur": "4.83",
        "text": "sure that when you continue you're in"
    },
    {
        "start": "679.42",
        "dur": "4.53",
        "text": "the right direction so this is to me"
    },
    {
        "start": "682.57",
        "dur": "4.68",
        "text": "this would be the time in the project"
    },
    {
        "start": "683.95",
        "dur": "4.829",
        "text": "where you you you know force your hands"
    },
    {
        "start": "687.25",
        "dur": "3.149",
        "text": "away from the typing keep with like"
    },
    {
        "start": "688.779",
        "dur": "2.941",
        "text": "coding keyboard and just go to the"
    },
    {
        "start": "690.399",
        "dur": "3.871",
        "text": "typing keyboard and the typing keyboard"
    },
    {
        "start": "691.72",
        "dur": "4.11",
        "text": "would be I don't know if you have this"
    },
    {
        "start": "694.27",
        "dur": "3.42",
        "text": "kind of project document that you share"
    },
    {
        "start": "695.83",
        "dur": "3.03",
        "text": "with the client but you know here's what"
    },
    {
        "start": "697.69",
        "dur": "4.769",
        "text": "still needs to be done"
    },
    {
        "start": "698.86",
        "dur": "5.039",
        "text": "here's my time estimate here is 50% more"
    },
    {
        "start": "702.459",
        "dur": "7.801",
        "text": "of my time estimate just because that's"
    },
    {
        "start": "703.899",
        "dur": "9.81",
        "text": "what always happens in IT and yeah so so"
    },
    {
        "start": "710.26",
        "dur": "6.9",
        "text": "I mean to to to sort of stop the sort of"
    },
    {
        "start": "713.709",
        "dur": "4.741",
        "text": "forward careening of coding which is"
    },
    {
        "start": "717.16",
        "dur": "3.33",
        "text": "really just around anxiety management"
    },
    {
        "start": "718.45",
        "dur": "4.71",
        "text": "and doesn't help your client to"
    },
    {
        "start": "720.49",
        "dur": "4.71",
        "text": "understand when this damn thing is going"
    },
    {
        "start": "723.16",
        "dur": "3.39",
        "text": "to be done right this is already late he"
    },
    {
        "start": "725.2",
        "dur": "4.8",
        "text": "probably doesn't have a due date that he"
    },
    {
        "start": "726.55",
        "dur": "4.979",
        "text": "feels comfortable about and the problem"
    },
    {
        "start": "730",
        "dur": "3.12",
        "text": "is when you're coding you can so jump"
    },
    {
        "start": "731.529",
        "dur": "3.271",
        "text": "show some progress but it caused a lot"
    },
    {
        "start": "733.12",
        "dur": "4.17",
        "text": "of stuff is under the hood optimizations"
    },
    {
        "start": "734.8",
        "dur": "4.92",
        "text": "and all that kind of stuff so so I would"
    },
    {
        "start": "737.29",
        "dur": "6.419",
        "text": "say you know I would call I would call"
    },
    {
        "start": "739.72",
        "dur": "5.28",
        "text": "this client up and say listen the you"
    },
    {
        "start": "743.709",
        "dur": "2.851",
        "text": "know I've been coding to try and get"
    },
    {
        "start": "745",
        "dur": "3.66",
        "text": "this thing finished and you know feel"
    },
    {
        "start": "746.56",
        "dur": "5.49",
        "text": "good about our progress and you you can"
    },
    {
        "start": "748.66",
        "dur": "5.79",
        "text": "say like I want to take a day to rice up"
    },
    {
        "start": "752.05",
        "dur": "4.2",
        "text": "the progress that has been made and"
    },
    {
        "start": "754.45",
        "dur": "4.2",
        "text": "where things are still deficient where"
    },
    {
        "start": "756.25",
        "dur": "4.05",
        "text": "there are still problems and give you a"
    },
    {
        "start": "758.65",
        "dur": "5.97",
        "text": "sense of time estimate and also to help"
    },
    {
        "start": "760.3",
        "dur": "5.97",
        "text": "you to prioritize what I'm going to be"
    },
    {
        "start": "764.62",
        "dur": "4.02",
        "text": "working on right cuz I mean there's"
    },
    {
        "start": "766.27",
        "dur": "4.02",
        "text": "stuff that is going to make the website"
    },
    {
        "start": "768.64",
        "dur": "3.54",
        "text": "work and then there's stuff that makes"
    },
    {
        "start": "770.29",
        "dur": "3.45",
        "text": "it work even better and I can guarantee"
    },
    {
        "start": "772.18",
        "dur": "3.99",
        "text": "you that he at this point he wants it to"
    },
    {
        "start": "773.74",
        "dur": "4.32",
        "text": "work and he could he'll have it worked"
    },
    {
        "start": "776.17",
        "dur": "4.02",
        "text": "better later right so to speak"
    },
    {
        "start": "778.06",
        "dur": "3.66",
        "text": "there also are going to be things that"
    },
    {
        "start": "780.19",
        "dur": "3.26",
        "text": "are more important and things that are"
    },
    {
        "start": "781.72",
        "dur": "4.77",
        "text": "less important in terms of functionality"
    },
    {
        "start": "783.45",
        "dur": "5.23",
        "text": "so I would and I would do this in a"
    },
    {
        "start": "786.49",
        "dur": "4.92",
        "text": "face-to-face or at least overs so to"
    },
    {
        "start": "788.68",
        "dur": "4.23",
        "text": "Skype and you know share a document and"
    },
    {
        "start": "791.41",
        "dur": "3.09",
        "text": "that kind of stuff so that he gets a"
    },
    {
        "start": "792.91",
        "dur": "2.85",
        "text": "sense of the big picture because people"
    },
    {
        "start": "794.5",
        "dur": "4.079",
        "text": "freak out when they feel like they don't"
    },
    {
        "start": "795.76",
        "dur": "4.43",
        "text": "have knowledge or control over something"
    },
    {
        "start": "798.579",
        "dur": "2.851",
        "text": "that is essential and expensive to them"
    },
    {
        "start": "800.19",
        "dur": "2.74",
        "text": "and"
    },
    {
        "start": "801.43",
        "dur": "2.73",
        "text": "so I mean I hope this this makes some"
    },
    {
        "start": "802.93",
        "dur": "3.42",
        "text": "kind of sense but I think it would be a"
    },
    {
        "start": "804.16",
        "dur": "4.739",
        "text": "time to stop and and do the project"
    },
    {
        "start": "806.35",
        "dur": "4.23",
        "text": "planning to to give this this person a"
    },
    {
        "start": "808.899",
        "dur": "5.821",
        "text": "sense of where things are how much more"
    },
    {
        "start": "810.58",
        "dur": "6.33",
        "text": "time could be expected and I mean there"
    },
    {
        "start": "814.72",
        "dur": "3.96",
        "text": "are necessary compromises in business I"
    },
    {
        "start": "816.91",
        "dur": "3.48",
        "text": "mean it's funny you know we all sort of"
    },
    {
        "start": "818.68",
        "dur": "3.36",
        "text": "understand this when when we go buy a"
    },
    {
        "start": "820.39",
        "dur": "1.92",
        "text": "car you know it's like hey if I want"
    },
    {
        "start": "822.04",
        "dur": "3.33",
        "text": "that"
    },
    {
        "start": "822.31",
        "dur": "5.279",
        "text": "blindspot computer laser then I'm gonna"
    },
    {
        "start": "825.37",
        "dur": "5.52",
        "text": "have to either cuff up more cash get rid"
    },
    {
        "start": "827.589",
        "dur": "4.531",
        "text": "of something else but because because"
    },
    {
        "start": "830.89",
        "dur": "2.49",
        "text": "tech people sometimes though aren't"
    },
    {
        "start": "832.12",
        "dur": "2.64",
        "text": "always the best in fact a lot of people"
    },
    {
        "start": "833.38",
        "dur": "3.57",
        "text": "go into tech because they prefer"
    },
    {
        "start": "834.76",
        "dur": "4.23",
        "text": "computers to people at least in terms of"
    },
    {
        "start": "836.95",
        "dur": "5.009",
        "text": "conflict because if you have conflict"
    },
    {
        "start": "838.99",
        "dur": "4.83",
        "text": "for the computer you can you can do a"
    },
    {
        "start": "841.959",
        "dur": "6.061",
        "text": "workaround you can try and you know I"
    },
    {
        "start": "843.82",
        "dur": "6.9",
        "text": "remember many years ago we had a web"
    },
    {
        "start": "848.02",
        "dur": "5.37",
        "text": "program that produced reports in"
    },
    {
        "start": "850.72",
        "dur": "4.65",
        "text": "Microsoft Access but unfortunately on"
    },
    {
        "start": "853.39",
        "dur": "4.5",
        "text": "the windows servers at the time if you"
    },
    {
        "start": "855.37",
        "dur": "5.339",
        "text": "weren't logged in the the access runtime"
    },
    {
        "start": "857.89",
        "dur": "6.21",
        "text": "wouldn't work and this was something"
    },
    {
        "start": "860.709",
        "dur": "5.521",
        "text": "completely unanticipated and the client"
    },
    {
        "start": "864.1",
        "dur": "4.17",
        "text": "didn't want of course to leave a logged"
    },
    {
        "start": "866.23",
        "dur": "5.01",
        "text": "in server because that was a security"
    },
    {
        "start": "868.27",
        "dur": "5.03",
        "text": "risk and so we ended up having to create"
    },
    {
        "start": "871.24",
        "dur": "5.19",
        "text": "a huge workaround like when we basically"
    },
    {
        "start": "873.3",
        "dur": "5.83",
        "text": "we would figure out the coordinates of"
    },
    {
        "start": "876.43",
        "dur": "5.67",
        "text": "the report and reproduce it using RTF"
    },
    {
        "start": "879.13",
        "dur": "4.35",
        "text": "which was a big but how could you how"
    },
    {
        "start": "882.1",
        "dur": "3.87",
        "text": "could you know before you can't test"
    },
    {
        "start": "883.48",
        "dur": "3.81",
        "text": "everything and I swear to god it seems"
    },
    {
        "start": "885.97",
        "dur": "4.41",
        "text": "to me like half the time with me with"
    },
    {
        "start": "887.29",
        "dur": "4.98",
        "text": "computers shit just doesn't work yeah"
    },
    {
        "start": "890.38",
        "dur": "5.61",
        "text": "just it doesn't work I mean I'm still"
    },
    {
        "start": "892.27",
        "dur": "5.97",
        "text": "struggling to record video after you"
    },
    {
        "start": "895.99",
        "dur": "4.02",
        "text": "know four or five years of working I"
    },
    {
        "start": "898.24",
        "dur": "4.44",
        "text": "still I've tried so many different"
    },
    {
        "start": "900.01",
        "dur": "4.74",
        "text": "programs and they're all great until one"
    },
    {
        "start": "902.68",
        "dur": "3.779",
        "text": "of them doesn't work and then you're you"
    },
    {
        "start": "904.75",
        "dur": "4.17",
        "text": "freaking out about it because it's like"
    },
    {
        "start": "906.459",
        "dur": "3",
        "text": "well if it doesn't work then what am I"
    },
    {
        "start": "908.92",
        "dur": "4.47",
        "text": "going to do"
    },
    {
        "start": "909.459",
        "dur": "7.38",
        "text": "right what am i if it doesn't work like"
    },
    {
        "start": "913.39",
        "dur": "4.74",
        "text": "I tried I mean I'm down to the point"
    },
    {
        "start": "916.839",
        "dur": "3.301",
        "text": "when I'm doing screen recorders if the"
    },
    {
        "start": "918.13",
        "dur": "3.86",
        "text": "video I'm actually trying to think of"
    },
    {
        "start": "920.14",
        "dur": "4.17",
        "text": "how I can simply point a freaking camera"
    },
    {
        "start": "921.99",
        "dur": "3.4",
        "text": "at the screen and record that because"
    },
    {
        "start": "924.31",
        "dur": "3.39",
        "text": "then at least I know I have something"
    },
    {
        "start": "925.39",
        "dur": "4.23",
        "text": "even if it's not great but for my debate"
    },
    {
        "start": "927.7",
        "dur": "4.1",
        "text": "with strong clouds gathering and debate"
    },
    {
        "start": "929.62",
        "dur": "6.119",
        "text": "as properties do kind of work but for my"
    },
    {
        "start": "931.8",
        "dur": "5.92",
        "text": "flyby frown at some cloud together"
    },
    {
        "start": "935.739",
        "dur": "3.39",
        "text": "he's in Google+ I don't know how to"
    },
    {
        "start": "937.72",
        "dur": "3.119",
        "text": "record Google+ so I did a screen"
    },
    {
        "start": "939.129",
        "dur": "3.42",
        "text": "recording and it came out one frame a"
    },
    {
        "start": "940.839",
        "dur": "3.54",
        "text": "second even though I asked it for 25"
    },
    {
        "start": "942.549",
        "dur": "4.23",
        "text": "frames a second came out why I don't"
    },
    {
        "start": "944.379",
        "dur": "5.04",
        "text": "know right so so stuff I mean I'm"
    },
    {
        "start": "946.779",
        "dur": "6.06",
        "text": "seriously considering doing a Mac do a"
    },
    {
        "start": "949.419",
        "dur": "6.12",
        "text": "GoPro and say you could use a GoPro here"
    },
    {
        "start": "952.839",
        "dur": "5.76",
        "text": "but that would work what's it Oh"
    },
    {
        "start": "955.539",
        "dur": "4.8",
        "text": "GoPro that's like um yeah they evac or"
    },
    {
        "start": "958.599",
        "dur": "3.96",
        "text": "they record independent of the computer"
    },
    {
        "start": "960.339",
        "dur": "5.9",
        "text": "itself but I mean you could use it like"
    },
    {
        "start": "962.559",
        "dur": "6",
        "text": "as a secondary camera that sort of thing"
    },
    {
        "start": "966.239",
        "dur": "4.72",
        "text": "okay thanks I'll make a note of that but"
    },
    {
        "start": "968.559",
        "dur": "5.19",
        "text": "so I mean like literally half the day"
    },
    {
        "start": "970.959",
        "dur": "5.31",
        "text": "things it feels to me like half the day"
    },
    {
        "start": "973.749",
        "dur": "5.34",
        "text": "it's just things don't work yeah and"
    },
    {
        "start": "976.269",
        "dur": "4.11",
        "text": "this is just IT I mean I mean a lot of"
    },
    {
        "start": "979.089",
        "dur": "3.24",
        "text": "stuff does work and with a certain"
    },
    {
        "start": "980.379",
        "dur": "5.31",
        "text": "amount of muscle and ingenuity you can"
    },
    {
        "start": "982.329",
        "dur": "7.74",
        "text": "make things work but you know like I did"
    },
    {
        "start": "985.689",
        "dur": "6.51",
        "text": "a I did a I had my first three-way with"
    },
    {
        "start": "990.069",
        "dur": "4.26",
        "text": "the girl rights what and dr. Warren"
    },
    {
        "start": "992.199",
        "dur": "5.04",
        "text": "Farrell the other day at night Amana"
    },
    {
        "start": "994.329",
        "dur": "5.19",
        "text": "used Evo which records to FLV I've used"
    },
    {
        "start": "997.239",
        "dur": "5.67",
        "text": "it before never had any problems and"
    },
    {
        "start": "999.519",
        "dur": "4.74",
        "text": "Mike recorded on his end too but then"
    },
    {
        "start": "1002.909",
        "dur": "3.061",
        "text": "his internet crapped out when he came"
    },
    {
        "start": "1004.259",
        "dur": "3.6",
        "text": "back in who who said it was recording"
    },
    {
        "start": "1005.97",
        "dur": "3.779",
        "text": "but then it wasn't so we got the first"
    },
    {
        "start": "1007.859",
        "dur": "3.42",
        "text": "twenty minutes of that I got the whole"
    },
    {
        "start": "1009.749",
        "dur": "3.27",
        "text": "thing but then when I asked it to"
    },
    {
        "start": "1011.279",
        "dur": "5.43",
        "text": "convert for its internal format to FLV"
    },
    {
        "start": "1013.019",
        "dur": "6.51",
        "text": "it it got to 49% and then said error"
    },
    {
        "start": "1016.709",
        "dur": "7.95",
        "text": "occurred which is spectacularly not"
    },
    {
        "start": "1019.529",
        "dur": "6.87",
        "text": "helpful and so I had to go to Connick at"
    },
    {
        "start": "1024.659",
        "dur": "3.24",
        "text": "the company I uploaded it to their site"
    },
    {
        "start": "1026.399",
        "dur": "3.69",
        "text": "and they did fix it like they they got"
    },
    {
        "start": "1027.899",
        "dur": "4.68",
        "text": "me the whole video it took about a week"
    },
    {
        "start": "1030.089",
        "dur": "3.69",
        "text": "and lots of back-and-forth but that's"
    },
    {
        "start": "1032.579",
        "dur": "2.55",
        "text": "just the kind of stuff that happens all"
    },
    {
        "start": "1033.779",
        "dur": "4.8",
        "text": "the time and it makes you incredibly"
    },
    {
        "start": "1035.129",
        "dur": "5.731",
        "text": "frustrated Tech just doesn't work"
    },
    {
        "start": "1038.579",
        "dur": "3.81",
        "text": "they're fundamentally very well it works"
    },
    {
        "start": "1040.86",
        "dur": "3.87",
        "text": "you know for the majority of people do"
    },
    {
        "start": "1042.389",
        "dur": "5.961",
        "text": "web browsing email at word processing"
    },
    {
        "start": "1044.73",
        "dur": "7.169",
        "text": "and so on it it works fairly well but"
    },
    {
        "start": "1048.35",
        "dur": "5.22",
        "text": "unfortunately for a lot of the stuff"
    },
    {
        "start": "1051.899",
        "dur": "4.291",
        "text": "that you want to do that'sthat's claims"
    },
    {
        "start": "1053.57",
        "dur": "5.64",
        "text": "it just doesn't work I've probably tried"
    },
    {
        "start": "1056.19",
        "dur": "7.53",
        "text": "now five different video recorders and"
    },
    {
        "start": "1059.21",
        "dur": "6.13",
        "text": "all of them have problems all of them"
    },
    {
        "start": "1063.72",
        "dur": "3.72",
        "text": "have problems like Pamela records just"
    },
    {
        "start": "1065.34",
        "dur": "3.9",
        "text": "quarter of the screen I use one called"
    },
    {
        "start": "1067.44",
        "dur": "4.23",
        "text": "void burner that stops record"
    },
    {
        "start": "1069.24",
        "dur": "4.53",
        "text": "sometimes after about half an hour and"
    },
    {
        "start": "1071.67",
        "dur": "3.69",
        "text": "I've used one called aver which"
    },
    {
        "start": "1073.77",
        "dur": "3.03",
        "text": "sometimes the audio and video goes out a"
    },
    {
        "start": "1075.36",
        "dur": "5.52",
        "text": "sink no matter how fast a computer"
    },
    {
        "start": "1076.8",
        "dur": "5.52",
        "text": "you're using I mean it just is it just"
    },
    {
        "start": "1080.88",
        "dur": "2.52",
        "text": "doesn't so so I mean this sorry I don't"
    },
    {
        "start": "1082.32",
        "dur": "2.91",
        "text": "mean to get into my issues but that's"
    },
    {
        "start": "1083.4",
        "dur": "4.71",
        "text": "just in tech there's just a lot of stuff"
    },
    {
        "start": "1085.23",
        "dur": "5.88",
        "text": "that that hugely doesn't work and is is"
    },
    {
        "start": "1088.11",
        "dur": "4.38",
        "text": "just annoying and it distract it's"
    },
    {
        "start": "1091.11",
        "dur": "2.85",
        "text": "distracting because you know I just want"
    },
    {
        "start": "1092.49",
        "dur": "3.09",
        "text": "to do an interview and publish a video"
    },
    {
        "start": "1093.96",
        "dur": "4.38",
        "text": "it shouldn't really be that hard you"
    },
    {
        "start": "1095.58",
        "dur": "4.83",
        "text": "know I'm running it on an i7 should"
    },
    {
        "start": "1098.34",
        "dur": "4.83",
        "text": "should have the power to to save some"
    },
    {
        "start": "1100.41",
        "dur": "4.47",
        "text": "video so anyway but so the point is that"
    },
    {
        "start": "1103.17",
        "dur": "3.3",
        "text": "from from a customer from a sort of"
    },
    {
        "start": "1104.88",
        "dur": "4.26",
        "text": "customer standpoint which is sort of who"
    },
    {
        "start": "1106.47",
        "dur": "5.82",
        "text": "you're facing it's really frustrating"
    },
    {
        "start": "1109.14",
        "dur": "8.1",
        "text": "and what you want is is the big-picture"
    },
    {
        "start": "1112.29",
        "dur": "6.33",
        "text": "stuff and I mean I I personally I just"
    },
    {
        "start": "1117.24",
        "dur": "2.46",
        "text": "give up you know because then I spend a"
    },
    {
        "start": "1118.62",
        "dur": "3.54",
        "text": "hundred bucks on a program and it"
    },
    {
        "start": "1119.7",
        "dur": "4.14",
        "text": "doesn't work what am I gonna do get them"
    },
    {
        "start": "1122.16",
        "dur": "3.12",
        "text": "to build me a new version it does I mean"
    },
    {
        "start": "1123.84",
        "dur": "3.45",
        "text": "I guess I can wait for the next version"
    },
    {
        "start": "1125.28",
        "dur": "3.99",
        "text": "but half the time a new version causes"
    },
    {
        "start": "1127.29",
        "dur": "3.51",
        "text": "more problems right I used the program"
    },
    {
        "start": "1129.27",
        "dur": "3.69",
        "text": "call supertintin which used to work with"
    },
    {
        "start": "1130.8",
        "dur": "4.11",
        "text": "Pamela okay because I want a separate"
    },
    {
        "start": "1132.96",
        "dur": "3.66",
        "text": "audio recording from the video recording"
    },
    {
        "start": "1134.91",
        "dur": "4.41",
        "text": "because the audio recording is in graph"
    },
    {
        "start": "1136.62",
        "dur": "3.72",
        "text": "form it has two channels and it used to"
    },
    {
        "start": "1139.32",
        "dur": "2.67",
        "text": "it used to give you a warning saying"
    },
    {
        "start": "1140.34",
        "dur": "3.87",
        "text": "well I'm working with Pamela therefore"
    },
    {
        "start": "1141.99",
        "dur": "4.88",
        "text": "and the new newest and until I upgraded"
    },
    {
        "start": "1144.21",
        "dur": "6.9",
        "text": "to a new version because sometimes"
    },
    {
        "start": "1146.87",
        "dur": "6.58",
        "text": "supertintin wouldn't stop recording they"
    },
    {
        "start": "1151.11",
        "dur": "4.83",
        "text": "wouldn't stop recording when you hung up"
    },
    {
        "start": "1153.45",
        "dur": "4.5",
        "text": "and you couldn't stop it by clicking on"
    },
    {
        "start": "1155.94",
        "dur": "5.1",
        "text": "anything and so you'd have to reboot but"
    },
    {
        "start": "1157.95",
        "dur": "4.53",
        "text": "then it wouldn't close the video file"
    },
    {
        "start": "1161.04",
        "dur": "2.85",
        "text": "with all the correct information so then"
    },
    {
        "start": "1162.48",
        "dur": "3.15",
        "text": "you have got a spinner upload it to"
    },
    {
        "start": "1163.89",
        "dur": "4.169",
        "text": "someone spend spend 100 bucks to get"
    },
    {
        "start": "1165.63",
        "dur": "4.02",
        "text": "them to to process the video for you and"
    },
    {
        "start": "1168.059",
        "dur": "4.981",
        "text": "then it always comes back slide slightly"
    },
    {
        "start": "1169.65",
        "dur": "9.12",
        "text": "too fast or too slow and anyway so these"
    },
    {
        "start": "1173.04",
        "dur": "7.019",
        "text": "are just problems that Tech has that you"
    },
    {
        "start": "1178.77",
        "dur": "3.36",
        "text": "know sometimes it's almost worse than"
    },
    {
        "start": "1180.059",
        "dur": "4.471",
        "text": "just not having a solution because you"
    },
    {
        "start": "1182.13",
        "dur": "3.87",
        "text": "you spend a lot of money and and time"
    },
    {
        "start": "1184.53",
        "dur": "4.38",
        "text": "and energy just trying to get something"
    },
    {
        "start": "1186",
        "dur": "4.29",
        "text": "simple fairly simple to work and then it"
    },
    {
        "start": "1188.91",
        "dur": "3.84",
        "text": "just doesn't work and then you're like"
    },
    {
        "start": "1190.29",
        "dur": "4.08",
        "text": "okay so if it doesn't work 1 out of 10"
    },
    {
        "start": "1192.75",
        "dur": "3.72",
        "text": "times do I just throw out 1 of 10 one"
    },
    {
        "start": "1194.37",
        "dur": "4.77",
        "text": "out of ten interviews anyway again to"
    },
    {
        "start": "1196.47",
        "dur": "6.439",
        "text": "the point is that it is it is unknowable"
    },
    {
        "start": "1199.14",
        "dur": "5.209",
        "text": "in some ways to get tech to work and I"
    },
    {
        "start": "1202.909",
        "dur": "3.51",
        "text": "but I think spending a lot more time"
    },
    {
        "start": "1204.349",
        "dur": "4.981",
        "text": "communicating the project as a whole is"
    },
    {
        "start": "1206.419",
        "dur": "5.01",
        "text": "probably the best way to go to ensure"
    },
    {
        "start": "1209.33",
        "dur": "3.839",
        "text": "and so sit down with the person and say"
    },
    {
        "start": "1211.429",
        "dur": "2.911",
        "text": "okay here's here's what we've gotten"
    },
    {
        "start": "1213.169",
        "dur": "2.31",
        "text": "done because a lot of times people"
    },
    {
        "start": "1214.34",
        "dur": "4.019",
        "text": "forget about that right so here's what"
    },
    {
        "start": "1215.479",
        "dur": "6.091",
        "text": "we've gotten done here's what we haven't"
    },
    {
        "start": "1218.359",
        "dur": "4.711",
        "text": "gotten done what's what are your"
    },
    {
        "start": "1221.57",
        "dur": "3",
        "text": "priorities you know what is it that's"
    },
    {
        "start": "1223.07",
        "dur": "3.479",
        "text": "the most important thing because the"
    },
    {
        "start": "1224.57",
        "dur": "3.87",
        "text": "priority for the technical person tends"
    },
    {
        "start": "1226.549",
        "dur": "3.48",
        "text": "to be a combination of that which you're"
    },
    {
        "start": "1228.44",
        "dur": "5.099",
        "text": "good at and that which is interesting"
    },
    {
        "start": "1230.029",
        "dur": "5.07",
        "text": "and challenging and that may not match"
    },
    {
        "start": "1233.539",
        "dur": "3.27",
        "text": "the business objectives of the person"
    },
    {
        "start": "1235.099",
        "dur": "3.06",
        "text": "who's paying you and so I would really"
    },
    {
        "start": "1236.809",
        "dur": "2.58",
        "text": "sit down and say here's the things that"
    },
    {
        "start": "1238.159",
        "dur": "3.21",
        "text": "still need to be down here's my time"
    },
    {
        "start": "1239.389",
        "dur": "3.21",
        "text": "estimates what do you think you know"
    },
    {
        "start": "1241.369",
        "dur": "3.87",
        "text": "what would be working on what has the"
    },
    {
        "start": "1242.599",
        "dur": "5.371",
        "text": "greatest business value for you right"
    },
    {
        "start": "1245.239",
        "dur": "4.831",
        "text": "because the purpose of technology is his"
    },
    {
        "start": "1247.97",
        "dur": "3.87",
        "text": "productivity is efficiency is profit"
    },
    {
        "start": "1250.07",
        "dur": "3.089",
        "text": "fundamentally now the guy is not making"
    },
    {
        "start": "1251.84",
        "dur": "2.669",
        "text": "any money out of paying a whole bunch of"
    },
    {
        "start": "1253.159",
        "dur": "3.47",
        "text": "people for a website that he can't send"
    },
    {
        "start": "1254.509",
        "dur": "5.37",
        "text": "clients to that's a huge net loss right"
    },
    {
        "start": "1256.629",
        "dur": "4.811",
        "text": "yeah that figure try and figure out what"
    },
    {
        "start": "1259.879",
        "dur": "3.6",
        "text": "gives him the best drivers for his"
    },
    {
        "start": "1261.44",
        "dur": "6.03",
        "text": "profit and try to view the project"
    },
    {
        "start": "1263.479",
        "dur": "6.45",
        "text": "through the lens of your customers"
    },
    {
        "start": "1267.47",
        "dur": "5.429",
        "text": "profit and then I don't think you can"
    },
    {
        "start": "1269.929",
        "dur": "6.74",
        "text": "particularly go wrong does that make any"
    },
    {
        "start": "1272.899",
        "dur": "7.2",
        "text": "sense all right so just go over what he"
    },
    {
        "start": "1276.669",
        "dur": "7.44",
        "text": "what you know what has been done what is"
    },
    {
        "start": "1280.099",
        "dur": "6.93",
        "text": "yet to be what is yet to do and also"
    },
    {
        "start": "1284.109",
        "dur": "7",
        "text": "explain know what value is provided by"
    },
    {
        "start": "1287.029",
        "dur": "5.7",
        "text": "what has so far been done well yeah I"
    },
    {
        "start": "1291.109",
        "dur": "3.42",
        "text": "mean I think you just you really want to"
    },
    {
        "start": "1292.729",
        "dur": "4.05",
        "text": "understand the business purpose and the"
    },
    {
        "start": "1294.529",
        "dur": "4.38",
        "text": "profit driver of the website and that"
    },
    {
        "start": "1296.779",
        "dur": "3.96",
        "text": "will focus that will help you drive what"
    },
    {
        "start": "1298.909",
        "dur": "5.76",
        "text": "you're working on so if you can get 80%"
    },
    {
        "start": "1300.739",
        "dur": "5.88",
        "text": "of his profit form from working on the"
    },
    {
        "start": "1304.669",
        "dur": "3.48",
        "text": "next three things then you need to know"
    },
    {
        "start": "1306.619",
        "dur": "3.12",
        "text": "that because then the other stuff you"
    },
    {
        "start": "1308.149",
        "dur": "3.09",
        "text": "can probably get done and he can pay you"
    },
    {
        "start": "1309.739",
        "dur": "5.4",
        "text": "from the profit he's making from his"
    },
    {
        "start": "1311.239",
        "dur": "5.31",
        "text": "website but if he's mortgaged his house"
    },
    {
        "start": "1315.139",
        "dur": "3.451",
        "text": "to pay you for a website that isn't"
    },
    {
        "start": "1316.549",
        "dur": "5.07",
        "text": "coming I mean I trust you he's gonna go"
    },
    {
        "start": "1318.59",
        "dur": "4.919",
        "text": "mental and and I again I can I can"
    },
    {
        "start": "1321.619",
        "dur": "3.571",
        "text": "understand it of course right yeah I"
    },
    {
        "start": "1323.509",
        "dur": "3.12",
        "text": "just really try and focus on you know"
    },
    {
        "start": "1325.19",
        "dur": "4.289",
        "text": "and you can ask him the basic question"
    },
    {
        "start": "1326.629",
        "dur": "4.441",
        "text": "what is going to get you the most money"
    },
    {
        "start": "1329.479",
        "dur": "2.76",
        "text": "you know what is going to make you the"
    },
    {
        "start": "1331.07",
        "dur": "3.319",
        "text": "most profit what is going to help you"
    },
    {
        "start": "1332.239",
        "dur": "5.841",
        "text": "pay for this thing the quickest and"
    },
    {
        "start": "1334.389",
        "dur": "7.571",
        "text": "really really focus of course on that"
    },
    {
        "start": "1338.08",
        "dur": "5.64",
        "text": "okay all right yeah I guess that makes"
    },
    {
        "start": "1341.96",
        "dur": "6.63",
        "text": "sense"
    },
    {
        "start": "1343.72",
        "dur": "6.46",
        "text": "you sound entirely skeptical well I"
    },
    {
        "start": "1348.59",
        "dur": "4.05",
        "text": "definitely want to address the things"
    },
    {
        "start": "1350.18",
        "dur": "7.29",
        "text": "that he wanted you know the the but the"
    },
    {
        "start": "1352.64",
        "dur": "8.04",
        "text": "specific fixes and afterwards I mean I"
    },
    {
        "start": "1357.47",
        "dur": "4.92",
        "text": "guess we could discuss what he would you"
    },
    {
        "start": "1360.68",
        "dur": "4.86",
        "text": "know it would be overall the most"
    },
    {
        "start": "1362.39",
        "dur": "4.62",
        "text": "beneficial I guess we could discuss"
    },
    {
        "start": "1365.54",
        "dur": "4.29",
        "text": "afterwards what would be the most"
    },
    {
        "start": "1367.01",
        "dur": "6.15",
        "text": "beneficial to the you know I guess for"
    },
    {
        "start": "1369.83",
        "dur": "4.5",
        "text": "revenue generation as you put it as long"
    },
    {
        "start": "1373.16",
        "dur": "4.14",
        "text": "as I'm just trying to make sure I"
    },
    {
        "start": "1374.33",
        "dur": "6.69",
        "text": "understand you correctly well yeah I"
    },
    {
        "start": "1377.3",
        "dur": "6.66",
        "text": "mean look this I mean there's the order"
    },
    {
        "start": "1381.02",
        "dur": "4.98",
        "text": "button makes you money right yeah so so"
    },
    {
        "start": "1383.96",
        "dur": "5.849",
        "text": "if the order button doesn't work it's"
    },
    {
        "start": "1386",
        "dur": "6.83",
        "text": "huge loss right right the about button"
    },
    {
        "start": "1389.809",
        "dur": "5.641",
        "text": "doesn't make you a lot of money right"
    },
    {
        "start": "1392.83",
        "dur": "3.7",
        "text": "correct so if you and again I'm not"
    },
    {
        "start": "1395.45",
        "dur": "2.46",
        "text": "saying you would but if you're working"
    },
    {
        "start": "1396.53",
        "dur": "6.779",
        "text": "on the about button rather than the"
    },
    {
        "start": "1397.91",
        "dur": "6.72",
        "text": "order button then or or if you're saying"
    },
    {
        "start": "1403.309",
        "dur": "3.351",
        "text": "well I'm not gonna have the order the"
    },
    {
        "start": "1404.63",
        "dur": "6.38",
        "text": "order button can't work yet because if"
    },
    {
        "start": "1406.66",
        "dur": "7.3",
        "text": "somebody's running Firefox 3 on a Newton"
    },
    {
        "start": "1411.01",
        "dur": "5.68",
        "text": "and there's a problem and he may say I"
    },
    {
        "start": "1413.96",
        "dur": "4.77",
        "text": "have like three customers out of 10,000"
    },
    {
        "start": "1416.69",
        "dur": "4.32",
        "text": "to have that configuration so please get"
    },
    {
        "start": "1418.73",
        "dur": "3.81",
        "text": "me the order button working and we'll"
    },
    {
        "start": "1421.01",
        "dur": "3.51",
        "text": "we'll fix the rest later or we'll just"
    },
    {
        "start": "1422.54",
        "dur": "4.26",
        "text": "tell them they need to you know to"
    },
    {
        "start": "1424.52",
        "dur": "5.039",
        "text": "upgrade to a Newton 2 or so or something"
    },
    {
        "start": "1426.8",
        "dur": "5.04",
        "text": "like that sure so I mean and I say this"
    },
    {
        "start": "1429.559",
        "dur": "4.5",
        "text": "from experience in that when I was"
    },
    {
        "start": "1431.84",
        "dur": "5.28",
        "text": "working on a program I mean just the"
    },
    {
        "start": "1434.059",
        "dur": "4.651",
        "text": "most obscure errors might come up and I"
    },
    {
        "start": "1437.12",
        "dur": "3.03",
        "text": "was like well I've got to fix those cuz"
    },
    {
        "start": "1438.71",
        "dur": "3.66",
        "text": "their errors and QA has sent them back"
    },
    {
        "start": "1440.15",
        "dur": "3.36",
        "text": "as errors and you know but then shaking"
    },
    {
        "start": "1442.37",
        "dur": "3.66",
        "text": "my head from the business standpoint"
    },
    {
        "start": "1443.51",
        "dur": "6.51",
        "text": "saying we'll wait a sec this is gonna"
    },
    {
        "start": "1446.03",
        "dur": "6.3",
        "text": "happen like once every six months and so"
    },
    {
        "start": "1450.02",
        "dur": "4.5",
        "text": "let's let's get this thing out trap the"
    },
    {
        "start": "1452.33",
        "dur": "3.479",
        "text": "errors and send the people back and say"
    },
    {
        "start": "1454.52",
        "dur": "2.789",
        "text": "this is not a feature that's available"
    },
    {
        "start": "1455.809",
        "dur": "3.841",
        "text": "at the you know that kind of stuff right"
    },
    {
        "start": "1457.309",
        "dur": "3.541",
        "text": "just just get it working and so I would"
    },
    {
        "start": "1459.65",
        "dur": "1.5",
        "text": "really really focus on that kind of"
    },
    {
        "start": "1460.85",
        "dur": "2.22",
        "text": "stuff"
    },
    {
        "start": "1461.15",
        "dur": "3.48",
        "text": "to look for heaviness to live here in"
    },
    {
        "start": "1463.07",
        "dur": "3.09",
        "text": "hell right to aim for perfection is to"
    },
    {
        "start": "1464.63",
        "dur": "5.69",
        "text": "live in a state of perpetual discontent"
    },
    {
        "start": "1466.16",
        "dur": "4.16",
        "text": "and deferment of profitability"
    },
    {
        "start": "1470.38",
        "dur": "6.22",
        "text": "another job I've had once said that the"
    },
    {
        "start": "1474.59",
        "dur": "3.39",
        "text": "perfect is the enemy of the possible I'm"
    },
    {
        "start": "1476.6",
        "dur": "3.3",
        "text": "ever here at once hearing that one I"
    },
    {
        "start": "1477.98",
        "dur": "3.18",
        "text": "don't view her that yeah I've heard the"
    },
    {
        "start": "1479.9",
        "dur": "5.31",
        "text": "perfect is the enemy of the good"
    },
    {
        "start": "1481.16",
        "dur": "7.47",
        "text": "and so yeah again it the computers are a"
    },
    {
        "start": "1485.21",
        "dur": "7.44",
        "text": "tool that should be driven towards"
    },
    {
        "start": "1488.63",
        "dur": "8.43",
        "text": "profitability right so profitability is"
    },
    {
        "start": "1492.65",
        "dur": "6.27",
        "text": "the driver of Technology not coding"
    },
    {
        "start": "1497.06",
        "dur": "3.44",
        "text": "coding is a means to the end and the end"
    },
    {
        "start": "1498.92",
        "dur": "3.84",
        "text": "is profitability"
    },
    {
        "start": "1500.5",
        "dur": "3.73",
        "text": "now there's profitability for you and"
    },
    {
        "start": "1502.76",
        "dur": "3.21",
        "text": "there's profitability for your client"
    },
    {
        "start": "1504.23",
        "dur": "3.57",
        "text": "and I would argue that if you're"
    },
    {
        "start": "1505.97",
        "dur": "4.55",
        "text": "focusing on profitability for you"
    },
    {
        "start": "1507.8",
        "dur": "5.13",
        "text": "without focusing without driving that"
    },
    {
        "start": "1510.52",
        "dur": "5.74",
        "text": "through the lens of profitability for"
    },
    {
        "start": "1512.93",
        "dur": "5.01",
        "text": "your client then it you won't you won't"
    },
    {
        "start": "1516.26",
        "dur": "2.94",
        "text": "succeed for long as an entrepreneur and"
    },
    {
        "start": "1517.94",
        "dur": "2.61",
        "text": "again I'm not sort of saying you were"
    },
    {
        "start": "1519.2",
        "dur": "4.17",
        "text": "mean in particular just as a general"
    },
    {
        "start": "1520.55",
        "dur": "5.43",
        "text": "principle you know if you're not making"
    },
    {
        "start": "1523.37",
        "dur": "4.44",
        "text": "money for your client but you're making"
    },
    {
        "start": "1525.98",
        "dur": "3.06",
        "text": "money for yourself then clearly that's a"
    },
    {
        "start": "1527.81",
        "dur": "3.18",
        "text": "win-lose and I'm not saying that you're"
    },
    {
        "start": "1529.04",
        "dur": "3.8",
        "text": "trying to do anything negative please"
    },
    {
        "start": "1530.99",
        "dur": "4.68",
        "text": "understand that I mean it's just that"
    },
    {
        "start": "1532.84",
        "dur": "5.95",
        "text": "you have to view yourself as a means to"
    },
    {
        "start": "1535.67",
        "dur": "4.71",
        "text": "an end right so so wait way back in the"
    },
    {
        "start": "1538.79",
        "dur": "3.96",
        "text": "day this would be sort of very earlier"
    },
    {
        "start": "1540.38",
        "dur": "5.72",
        "text": "the podcast stream you know I used to"
    },
    {
        "start": "1542.75",
        "dur": "7.59",
        "text": "record two podcasts a day in my car and"
    },
    {
        "start": "1546.1",
        "dur": "6.49",
        "text": "one time I went through the podcast and"
    },
    {
        "start": "1550.34",
        "dur": "4.04",
        "text": "it was about a 45-minute podcast this"
    },
    {
        "start": "1552.59",
        "dur": "4.38",
        "text": "took about two hours I went through and"
    },
    {
        "start": "1554.38",
        "dur": "4.54",
        "text": "I took out all of the errors and the"
    },
    {
        "start": "1556.97",
        "dur": "4.2",
        "text": "arms and one or two tangents and the"
    },
    {
        "start": "1558.92",
        "dur": "4.77",
        "text": "breaths and I you know really just"
    },
    {
        "start": "1561.17",
        "dur": "5.43",
        "text": "cleaned it up so that it went really"
    },
    {
        "start": "1563.69",
        "dur": "5.46",
        "text": "more smoothly and I put it out there"
    },
    {
        "start": "1566.6",
        "dur": "7.32",
        "text": "just as an experiment and nobody noticed"
    },
    {
        "start": "1569.15",
        "dur": "6.75",
        "text": "anything at all and that was sort of"
    },
    {
        "start": "1573.92",
        "dur": "3.6",
        "text": "instructive for me because of course if"
    },
    {
        "start": "1575.9",
        "dur": "4.65",
        "text": "I had spent you know I had a full-time"
    },
    {
        "start": "1577.52",
        "dur": "6.56",
        "text": "executive level time consuming job at"
    },
    {
        "start": "1580.55",
        "dur": "6.06",
        "text": "the time and if I had spent two hours"
    },
    {
        "start": "1584.08",
        "dur": "4.45",
        "text": "per podcast which would be an additional"
    },
    {
        "start": "1586.61",
        "dur": "3.96",
        "text": "four hours of work a day cleaning up the"
    },
    {
        "start": "1588.53",
        "dur": "3.87",
        "text": "podcast my guess is that they would be"
    },
    {
        "start": "1590.57",
        "dur": "4.89",
        "text": "five or ten percent more enjoyable to"
    },
    {
        "start": "1592.4",
        "dur": "6.66",
        "text": "listen to but I wouldn't have any time"
    },
    {
        "start": "1595.46",
        "dur": "4.68",
        "text": "with my wife you know since part of our"
    },
    {
        "start": "1599.06",
        "dur": "2.82",
        "text": "philosophy is to help improve the"
    },
    {
        "start": "1600.14",
        "dur": "4.02",
        "text": "quality of your relationships that would"
    },
    {
        "start": "1601.88",
        "dur": "4.799",
        "text": "seem to be counter philosophical"
    },
    {
        "start": "1604.16",
        "dur": "4.8",
        "text": "and so anyway so the point is that if"
    },
    {
        "start": "1606.679",
        "dur": "5.761",
        "text": "you look for a perfection then you can"
    },
    {
        "start": "1608.96",
        "dur": "6.15",
        "text": "very often end up with them with"
    },
    {
        "start": "1612.44",
        "dur": "5.52",
        "text": "paralysis and the purpose was of course"
    },
    {
        "start": "1615.11",
        "dur": "5.78",
        "text": "to get the podcast out there rather than"
    },
    {
        "start": "1617.96",
        "dur": "5.31",
        "text": "to edit them down to a state of"
    },
    {
        "start": "1620.89",
        "dur": "4.02",
        "text": "potential perfection but they also the"
    },
    {
        "start": "1623.27",
        "dur": "3.93",
        "text": "other thing too is that when you edit"
    },
    {
        "start": "1624.91",
        "dur": "4.24",
        "text": "what you say like when you edit a"
    },
    {
        "start": "1627.2",
        "dur": "4.56",
        "text": "podcast you're also editing your"
    },
    {
        "start": "1629.15",
        "dur": "4.38",
        "text": "thinking process and so it may actually"
    },
    {
        "start": "1631.76",
        "dur": "4.909",
        "text": "be counterproductive to try and aim for"
    },
    {
        "start": "1633.53",
        "dur": "6.06",
        "text": "perfection from a concision standpoint"
    },
    {
        "start": "1636.669",
        "dur": "4.87",
        "text": "because even the pauses can be pregnant"
    },
    {
        "start": "1639.59",
        "dur": "4.41",
        "text": "so to speak right so anyway so that's"
    },
    {
        "start": "1641.539",
        "dur": "4.441",
        "text": "just it I would really really you know"
    },
    {
        "start": "1644",
        "dur": "3.12",
        "text": "focus and say look this I get this since"
    },
    {
        "start": "1645.98",
        "dur": "2.28",
        "text": "we're driving you crazy try and put"
    },
    {
        "start": "1647.12",
        "dur": "4.47",
        "text": "yourself with the other person's shoes"
    },
    {
        "start": "1648.26",
        "dur": "6.24",
        "text": "and and really try and figure out if you"
    },
    {
        "start": "1651.59",
        "dur": "4.35",
        "text": "don't know as yet you can make your"
    },
    {
        "start": "1654.5",
        "dur": "2.61",
        "text": "assumptions and then confirm them which"
    },
    {
        "start": "1655.94",
        "dur": "3.9",
        "text": "is probably the best thing to do but"
    },
    {
        "start": "1657.11",
        "dur": "4.86",
        "text": "really try to understand what is the"
    },
    {
        "start": "1659.84",
        "dur": "3.42",
        "text": "button that needs to be working that's"
    },
    {
        "start": "1661.97",
        "dur": "3.18",
        "text": "going to make you the most money or the"
    },
    {
        "start": "1663.26",
        "dur": "4.5",
        "text": "page or the whatever in the database"
    },
    {
        "start": "1665.15",
        "dur": "4.98",
        "text": "reads and pretend displays and and"
    },
    {
        "start": "1667.76",
        "dur": "5.99",
        "text": "really really focus on getting him"
    },
    {
        "start": "1670.13",
        "dur": "3.62",
        "text": "profit as soon as humanly possible"
    },
    {
        "start": "1677.02",
        "dur": "7.09",
        "text": "definitely makes sense well yeah to drop"
    },
    {
        "start": "1682.309",
        "dur": "4.531",
        "text": "me a line let me know how it goes and"
    },
    {
        "start": "1684.11",
        "dur": "7.86",
        "text": "and you know be aware be aware of some"
    },
    {
        "start": "1686.84",
        "dur": "11.79",
        "text": "some flack just because it is going to"
    },
    {
        "start": "1691.97",
        "dur": "8.25",
        "text": "be a if he's if he's if he's already in"
    },
    {
        "start": "1698.63",
        "dur": "2.97",
        "text": "the state of frustration then it's gonna"
    },
    {
        "start": "1700.22",
        "dur": "3.87",
        "text": "be you know it's gonna happen right so"
    },
    {
        "start": "1701.6",
        "dur": "3.9",
        "text": "just sort of point out that it's okay if"
    },
    {
        "start": "1704.09",
        "dur": "2.79",
        "text": "he's frustrated it's not not going to"
    },
    {
        "start": "1705.5",
        "dur": "2.61",
        "text": "kill anyone but it's certainly"
    },
    {
        "start": "1706.88",
        "dur": "3.419",
        "text": "understandable from from what he's"
    },
    {
        "start": "1708.11",
        "dur": "5.58",
        "text": "invested so anything else you wanted to"
    },
    {
        "start": "1710.299",
        "dur": "4.801",
        "text": "ask yeah one thing I know well we'll"
    },
    {
        "start": "1713.69",
        "dur": "3.3",
        "text": "just be clear this guy he's not really"
    },
    {
        "start": "1715.1",
        "dur": "5.059",
        "text": "the I don't have call McClay he's more"
    },
    {
        "start": "1716.99",
        "dur": "7.2",
        "text": "like the guy who was above me"
    },
    {
        "start": "1720.159",
        "dur": "6.161",
        "text": "I'm salaried and this guy is a I guess"
    },
    {
        "start": "1724.19",
        "dur": "5.609",
        "text": "have no business development or whatever"
    },
    {
        "start": "1726.32",
        "dur": "5.4",
        "text": "I'm not even but he has his profit which"
    },
    {
        "start": "1729.799",
        "dur": "3.961",
        "text": "is called his paycheck right okay it's"
    },
    {
        "start": "1731.72",
        "dur": "3.689",
        "text": "pretty much the same thing yeah yeah is"
    },
    {
        "start": "1733.76",
        "dur": "3.899",
        "text": "that yeah he's he's in charge of this"
    },
    {
        "start": "1735.409",
        "dur": "2.641",
        "text": "and he's he's going up right he sees him"
    },
    {
        "start": "1737.659",
        "dur": "2.221",
        "text": "he's going"
    },
    {
        "start": "1738.05",
        "dur": "3.21",
        "text": "- the big boardrooms and all the big"
    },
    {
        "start": "1739.88",
        "dur": "2.94",
        "text": "board when people are saying what the"
    },
    {
        "start": "1741.26",
        "dur": "3.96",
        "text": "hell is going on with this project and"
    },
    {
        "start": "1742.82",
        "dur": "4.44",
        "text": "he's saying what is he saying he's"
    },
    {
        "start": "1745.22",
        "dur": "3.45",
        "text": "saying it's not done yet and they're"
    },
    {
        "start": "1747.26",
        "dur": "3.3",
        "text": "saying well why isn't it done yet and he"
    },
    {
        "start": "1748.67",
        "dur": "3.42",
        "text": "say because there are problems there's"
    },
    {
        "start": "1750.56",
        "dur": "4.17",
        "text": "like what were these problems forseeable"
    },
    {
        "start": "1752.09",
        "dur": "4.2",
        "text": "I don't know I'd like at some point he's"
    },
    {
        "start": "1754.73",
        "dur": "2.94",
        "text": "you know why not just talk to you he's"
    },
    {
        "start": "1756.29",
        "dur": "3.6",
        "text": "he's either gonna understand what's"
    },
    {
        "start": "1757.67",
        "dur": "5.73",
        "text": "going on or he's gonna look kind of"
    },
    {
        "start": "1759.89",
        "dur": "4.92",
        "text": "extraneous right sure so he needs more"
    },
    {
        "start": "1763.4",
        "dur": "3.96",
        "text": "information he needs"
    },
    {
        "start": "1764.81",
        "dur": "3.87",
        "text": "um he needs to say if he can go up and"
    },
    {
        "start": "1767.36",
        "dur": "3.96",
        "text": "say look I've had a talk with the"
    },
    {
        "start": "1768.68",
        "dur": "3.84",
        "text": "developer we figured out here's the the"
    },
    {
        "start": "1771.32",
        "dur": "3.09",
        "text": "profit goals that we're trying to"
    },
    {
        "start": "1772.52",
        "dur": "4.5",
        "text": "achieve and here's how long the time is"
    },
    {
        "start": "1774.41",
        "dur": "4.2",
        "text": "gonna be and and and all that then then"
    },
    {
        "start": "1777.02",
        "dur": "4.68",
        "text": "you know then he's doing something he's"
    },
    {
        "start": "1778.61",
        "dur": "4.59",
        "text": "actually got something to value and he"
    },
    {
        "start": "1781.7",
        "dur": "3.75",
        "text": "can review know check with them about"
    },
    {
        "start": "1783.2",
        "dur": "3.84",
        "text": "whether it's the right stuff or not and"
    },
    {
        "start": "1785.45",
        "dur": "3.75",
        "text": "and you know whether it's doing the"
    },
    {
        "start": "1787.04",
        "dur": "5.73",
        "text": "right thing so I think all of that stuff"
    },
    {
        "start": "1789.2",
        "dur": "8.24",
        "text": "is is important to give him something of"
    },
    {
        "start": "1792.77",
        "dur": "7.53",
        "text": "utility sure thing all right all right"
    },
    {
        "start": "1797.44",
        "dur": "4.93",
        "text": "all right well thanks very much and best"
    },
    {
        "start": "1800.3",
        "dur": "4.14",
        "text": "of luck with that I hope it works that"
    },
    {
        "start": "1802.37",
        "dur": "4.4",
        "text": "well well thank you very much you're"
    },
    {
        "start": "1804.44",
        "dur": "2.33",
        "text": "very lucky"
    }
]