[
    {
        "start": "7.24",
        "dur": "2.57",
        "text": "but he is stefan molyneux from"
    },
    {
        "start": "8.32",
        "dur": "4.93",
        "text": "freedomain radio i hope"
    },
    {
        "start": "9.81",
        "dur": "6.96",
        "text": "very well I'm going to read a short"
    },
    {
        "start": "13.25",
        "dur": "6.01",
        "text": "article a short story ish a very very"
    },
    {
        "start": "16.77",
        "dur": "4.68",
        "text": "subtle parable that I wrote I guess"
    },
    {
        "start": "19.26",
        "dur": "7.31",
        "text": "about a year and a half ago called space"
    },
    {
        "start": "21.45",
        "dur": "5.12",
        "text": "aliens from Luxembourg a horror story"
    },
    {
        "start": "26.77",
        "dur": "6.09",
        "text": "let us imagine that tomorrow morning"
    },
    {
        "start": "28.69",
        "dur": "6.99",
        "text": "when you flip on CNN you see Wolf"
    },
    {
        "start": "32.86",
        "dur": "5.43",
        "text": "Blitzer being jostled by surging crowds"
    },
    {
        "start": "35.68",
        "dur": "5.58",
        "text": "everyone is running staring at the sky"
    },
    {
        "start": "38.29",
        "dur": "5.43",
        "text": "in fear space aliens have landed in"
    },
    {
        "start": "41.26",
        "dur": "4.65",
        "text": "Luxembourg cries wolf wide-eyed and"
    },
    {
        "start": "43.72",
        "dur": "5.21",
        "text": "almost hysterical and they have a"
    },
    {
        "start": "45.91",
        "dur": "3.02",
        "text": "message for all mankind"
    },
    {
        "start": "49",
        "dur": "6.62",
        "text": "there is a burst of static and then you"
    },
    {
        "start": "52.3",
        "dur": "6.3",
        "text": "see a drooling bulging eyed monstrosity"
    },
    {
        "start": "55.62",
        "dur": "6.43",
        "text": "gripping prepared notes in its slimy"
    },
    {
        "start": "58.6",
        "dur": "7.72",
        "text": "sea-green tentacles"
    },
    {
        "start": "62.05",
        "dur": "8.38",
        "text": "citizens of Earth it gurgles will be"
    },
    {
        "start": "66.32",
        "dur": "7.2",
        "text": "weeping good news we see that all over"
    },
    {
        "start": "70.43",
        "dur": "6.98",
        "text": "the world citizens who liveth under the"
    },
    {
        "start": "73.52",
        "dur": "7.94",
        "text": "slavery of what you call governments"
    },
    {
        "start": "77.41",
        "dur": "7.03",
        "text": "millions of Limu are unjustly imprisoned"
    },
    {
        "start": "81.46",
        "dur": "7.32",
        "text": "millions are stolen from you through"
    },
    {
        "start": "84.44",
        "dur": "6.63",
        "text": "taxation and government ballooned WMDs"
    },
    {
        "start": "88.78",
        "dur": "6.25",
        "text": "threatened the very survival of the"
    },
    {
        "start": "91.07",
        "dur": "8.1",
        "text": "planet this is a moral abomination and"
    },
    {
        "start": "95.03",
        "dur": "7.85",
        "text": "we have come to put a stop to it"
    },
    {
        "start": "99.17",
        "dur": "6.36",
        "text": "well you think munching you're toast"
    },
    {
        "start": "102.88",
        "dur": "8.11",
        "text": "this might bring my property taxes down"
    },
    {
        "start": "105.53",
        "dur": "8.46",
        "text": "a bit the alien continues we are fully"
    },
    {
        "start": "110.99",
        "dur": "5.76",
        "text": "dedicated to freeing you from the"
    },
    {
        "start": "113.99",
        "dur": "6.57",
        "text": "monstrous evil of these governments and"
    },
    {
        "start": "116.75",
        "dur": "9.54",
        "text": "we have decided to start with the United"
    },
    {
        "start": "120.56",
        "dur": "7.8",
        "text": "States of America now although you are"
    },
    {
        "start": "126.29",
        "dur": "6",
        "text": "not a great fan of the US government a"
    },
    {
        "start": "128.36",
        "dur": "4.94",
        "text": "strange sense of foreboding rises in"
    },
    {
        "start": "132.29",
        "dur": "4.59",
        "text": "your stomach"
    },
    {
        "start": "133.3",
        "dur": "8.17",
        "text": "sure enough the slavering alien"
    },
    {
        "start": "136.88",
        "dur": "10.17",
        "text": "continues freedom does not come cheap"
    },
    {
        "start": "141.47",
        "dur": "8.91",
        "text": "of course sacrifices must be made as we"
    },
    {
        "start": "147.05",
        "dur": "7.409",
        "text": "dislodge your existing government there"
    },
    {
        "start": "150.38",
        "dur": "9.98",
        "text": "will be suffering but no matter freedom"
    },
    {
        "start": "154.459",
        "dur": "5.901",
        "text": "is worth every tear every sacrifice"
    },
    {
        "start": "160.98",
        "dur": "7.92",
        "text": "well that's interesting you think"
    },
    {
        "start": "164.61",
        "dur": "6.09",
        "text": "stirring your cereal slowly I don't see"
    },
    {
        "start": "168.9",
        "dur": "7.41",
        "text": "how there are gonna be sacrificing"
    },
    {
        "start": "170.7",
        "dur": "10.05",
        "text": "anything but let's see what they mean"
    },
    {
        "start": "176.31",
        "dur": "7.35",
        "text": "we will use a two-faced approach to set"
    },
    {
        "start": "180.75",
        "dur": "4.65",
        "text": "you free gurgles the alien squinting"
    },
    {
        "start": "183.66",
        "dur": "5.28",
        "text": "into the camera with at least a dozen"
    },
    {
        "start": "185.4",
        "dur": "7.38",
        "text": "eyes first we will impose economic"
    },
    {
        "start": "188.94",
        "dur": "7.98",
        "text": "sanctions designed to force your leaders"
    },
    {
        "start": "192.78",
        "dur": "6.81",
        "text": "to relinquish their ill-gotten power as"
    },
    {
        "start": "196.92",
        "dur": "5.789",
        "text": "part of this process we will use raised"
    },
    {
        "start": "199.59",
        "dur": "6.869",
        "text": "shields to block international trade"
    },
    {
        "start": "202.709",
        "dur": "7.471",
        "text": "ground your airplanes and irradiate your"
    },
    {
        "start": "206.459",
        "dur": "7.981",
        "text": "food and medicine two of the aliens eyes"
    },
    {
        "start": "210.18",
        "dur": "7.47",
        "text": "dot down to check some figures based on"
    },
    {
        "start": "214.44",
        "dur": "6.57",
        "text": "our prior experience we calculate that"
    },
    {
        "start": "217.65",
        "dur": "5.7",
        "text": "this place will call us the death of no"
    },
    {
        "start": "221.01",
        "dur": "7.59",
        "text": "more than five to six and million of"
    },
    {
        "start": "223.35",
        "dur": "8.25",
        "text": "your children all fellow about 13% of"
    },
    {
        "start": "228.6",
        "dur": "6.87",
        "text": "your newborns will die before reaching"
    },
    {
        "start": "231.6",
        "dur": "7.169",
        "text": "the age will close but we are willing to"
    },
    {
        "start": "235.47",
        "dur": "7.98",
        "text": "make that sacrifice because we believe"
    },
    {
        "start": "238.769",
        "dur": "8.311",
        "text": "it's worth it for freedom"
    },
    {
        "start": "243.45",
        "dur": "9.93",
        "text": "the space alien frowns and flips some"
    },
    {
        "start": "247.08",
        "dur": "9.48",
        "text": "pages your mouth hangs open we slow keep"
    },
    {
        "start": "253.38",
        "dur": "7.44",
        "text": "these sanctions in place for 13 or so"
    },
    {
        "start": "256.56",
        "dur": "6.21",
        "text": "years if after that time your student"
    },
    {
        "start": "260.82",
        "dur": "6.96",
        "text": "your leaders have not given up their"
    },
    {
        "start": "262.77",
        "dur": "8.67",
        "text": "power we will move on to stage 2 in"
    },
    {
        "start": "267.78",
        "dur": "6.63",
        "text": "stage 2 we will directly invade your"
    },
    {
        "start": "271.44",
        "dur": "5.55",
        "text": "country in order to overthrow your"
    },
    {
        "start": "274.41",
        "dur": "4.16",
        "text": "existing government and replace it with"
    },
    {
        "start": "276.99",
        "dur": "6.36",
        "text": "a better government"
    },
    {
        "start": "278.57",
        "dur": "7.72",
        "text": "this will also entail some suffering we"
    },
    {
        "start": "283.35",
        "dur": "5.91",
        "text": "imagine that approximately twenty to"
    },
    {
        "start": "286.29",
        "dur": "6.24",
        "text": "thirty of your cities will be destroyed"
    },
    {
        "start": "289.26",
        "dur": "7.05",
        "text": "just over a million of you will be"
    },
    {
        "start": "292.53",
        "dur": "7.02",
        "text": "killed about 8 million will be wounded"
    },
    {
        "start": "296.31",
        "dur": "9.18",
        "text": "and tens of millions of you will be"
    },
    {
        "start": "299.55",
        "dur": "9.06",
        "text": "rendered homeless about 50% of you who"
    },
    {
        "start": "305.49",
        "dur": "6.33",
        "text": "lose your jobs most of your roads"
    },
    {
        "start": "308.61",
        "dur": "7.619",
        "text": "bridges electrical and water systems"
    },
    {
        "start": "311.82",
        "dur": "8.099",
        "text": "will be obliterated if your food supply"
    },
    {
        "start": "316.229",
        "dur": "6.571",
        "text": "will be largely destroyed but do not"
    },
    {
        "start": "319.919",
        "dur": "6.481",
        "text": "worry our goal is to replace your"
    },
    {
        "start": "322.8",
        "dur": "5.85",
        "text": "existing leaders with new leaders and we"
    },
    {
        "start": "326.4",
        "dur": "5.66",
        "text": "believe that is worth all the blood"
    },
    {
        "start": "328.65",
        "dur": "6.41",
        "text": "sweat tears and death you will"
    },
    {
        "start": "332.06",
        "dur": "3",
        "text": "experience"
    },
    {
        "start": "335.319",
        "dur": "6.3",
        "text": "with a clatter your cereal bowl falls to"
    },
    {
        "start": "339.759",
        "dur": "6.24",
        "text": "the floor spraying milk all over your"
    },
    {
        "start": "341.619",
        "dur": "7.431",
        "text": "legs your pregnant wife wanders into the"
    },
    {
        "start": "345.999",
        "dur": "6.961",
        "text": "room and asks what on earth is going on"
    },
    {
        "start": "349.05",
        "dur": "7.959",
        "text": "wait the kids you whisper hoarsely we've"
    },
    {
        "start": "352.96",
        "dur": "7.319",
        "text": "got to get out of here but the space"
    },
    {
        "start": "357.009",
        "dur": "7.921",
        "text": "aliens from Luxembourg are as good as"
    },
    {
        "start": "360.279",
        "dur": "8.551",
        "text": "their word there is no escape shimmering"
    },
    {
        "start": "364.93",
        "dur": "5.969",
        "text": "purple ray shields spring up around the"
    },
    {
        "start": "368.83",
        "dur": "3.509",
        "text": "u.s. borders preventing anyone from"
    },
    {
        "start": "370.899",
        "dur": "5.431",
        "text": "entering or leaving the country"
    },
    {
        "start": "372.339",
        "dur": "6.681",
        "text": "the aliens set up no-fly zones which is"
    },
    {
        "start": "376.33",
        "dur": "6.149",
        "text": "pretty much the entire US airspace"
    },
    {
        "start": "379.02",
        "dur": "5.709",
        "text": "several times a day heat rays sliced"
    },
    {
        "start": "382.479",
        "dur": "4.11",
        "text": "down from buzzing spaceships burning"
    },
    {
        "start": "384.729",
        "dur": "3.66",
        "text": "alive hundreds of citizens as they"
    },
    {
        "start": "386.589",
        "dur": "3.83",
        "text": "huddle in their homes screaming with"
    },
    {
        "start": "388.389",
        "dur": "2.03",
        "text": "terror"
    },
    {
        "start": "390.58",
        "dur": "7.97",
        "text": "every now and then the space aliens drop"
    },
    {
        "start": "394.24",
        "dur": "4.31",
        "text": "leaflets explaining their actions"
    },
    {
        "start": "398.64",
        "dur": "4.84",
        "text": "citizens of America they read we are not"
    },
    {
        "start": "402.52",
        "dur": "3.24",
        "text": "angry with you"
    },
    {
        "start": "403.48",
        "dur": "5.85",
        "text": "we are only angry with your political"
    },
    {
        "start": "405.76",
        "dur": "8.01",
        "text": "leaders that subjugate you be patient as"
    },
    {
        "start": "409.33",
        "dur": "6.63",
        "text": "we work to remove your leaders we cannot"
    },
    {
        "start": "413.77",
        "dur": "8.6",
        "text": "allow them to continue to wield their"
    },
    {
        "start": "415.96",
        "dur": "6.41",
        "text": "WMDs we shall save you from their evil"
    },
    {
        "start": "422.88",
        "dur": "7.57",
        "text": "however you notice the leaders don't"
    },
    {
        "start": "427.87",
        "dur": "4.83",
        "text": "seem to be harmed at all by the alien"
    },
    {
        "start": "430.45",
        "dur": "6",
        "text": "sanctions in fact their wealth and power"
    },
    {
        "start": "432.7",
        "dur": "7.59",
        "text": "seems to grow as the economy dies"
    },
    {
        "start": "436.45",
        "dur": "7.46",
        "text": "however your life and the lives of your"
    },
    {
        "start": "440.29",
        "dur": "6.22",
        "text": "neighbors become an unrecognizable"
    },
    {
        "start": "443.91",
        "dur": "6.23",
        "text": "medieval hell"
    },
    {
        "start": "446.51",
        "dur": "5.85",
        "text": "there is almost no medicine no clean"
    },
    {
        "start": "450.14",
        "dur": "4.68",
        "text": "running water or electricity children"
    },
    {
        "start": "452.36",
        "dur": "6.57",
        "text": "and the old died like flies and are"
    },
    {
        "start": "454.82",
        "dur": "8.19",
        "text": "buried in empty stadiums dysentery and"
    },
    {
        "start": "458.93",
        "dur": "8.4",
        "text": "cholera run rampant people flee the"
    },
    {
        "start": "463.01",
        "dur": "6.8",
        "text": "cities to live in tent communities after"
    },
    {
        "start": "467.33",
        "dur": "5.87",
        "text": "your wife gives birth your baby dies"
    },
    {
        "start": "469.81",
        "dur": "3.39",
        "text": "within a few weeks"
    },
    {
        "start": "473.37",
        "dur": "5.87",
        "text": "as the sanctions we're on the"
    },
    {
        "start": "477.03",
        "dur": "4.44",
        "text": "frightening rumors begin to circulate"
    },
    {
        "start": "479.24",
        "dur": "5.56",
        "text": "rumors so horrifying that they can"
    },
    {
        "start": "481.47",
        "dur": "5.699",
        "text": "scarcely be believed one rumor says that"
    },
    {
        "start": "484.8",
        "dur": "5.13",
        "text": "the very political leaders that the"
    },
    {
        "start": "487.169",
        "dur": "6.121",
        "text": "space aliens claimed hate were in fact"
    },
    {
        "start": "489.93",
        "dur": "8.79",
        "text": "funded sponsored and installed by the"
    },
    {
        "start": "493.29",
        "dur": "8.849",
        "text": "space aliens to begin with another says"
    },
    {
        "start": "498.72",
        "dur": "5.669",
        "text": "that the very same Dublin WMDs that the"
    },
    {
        "start": "502.139",
        "dur": "4.111",
        "text": "aliens claimed to be horrified by were"
    },
    {
        "start": "504.389",
        "dur": "5.211",
        "text": "given to your leaders by the space"
    },
    {
        "start": "506.25",
        "dur": "3.35",
        "text": "aliens in the first place"
    },
    {
        "start": "510.52",
        "dur": "10.259",
        "text": "finally after 13 long years after"
    },
    {
        "start": "516.839",
        "dur": "6.671",
        "text": "millions of children have died and in an"
    },
    {
        "start": "520.779",
        "dur": "7.411",
        "text": "entire generation has grown up knowing"
    },
    {
        "start": "523.51",
        "dur": "9.41",
        "text": "only despair poverty death disease and"
    },
    {
        "start": "528.19",
        "dur": "9.839",
        "text": "hopelessness the day finally arrives"
    },
    {
        "start": "532.92",
        "dur": "7.3",
        "text": "invasion endless fleets of spaceships"
    },
    {
        "start": "538.029",
        "dur": "5.491",
        "text": "flash across the skies over America"
    },
    {
        "start": "540.22",
        "dur": "5.64",
        "text": "turning cities into flames they claim to"
    },
    {
        "start": "543.52",
        "dur": "7.11",
        "text": "be aiming for the leaders but instead"
    },
    {
        "start": "545.86",
        "dur": "6.39",
        "text": "over a million American men women and"
    },
    {
        "start": "550.63",
        "dur": "3.99",
        "text": "children get burned up in their own"
    },
    {
        "start": "552.25",
        "dur": "4.73",
        "text": "homes screaming and burrowing for"
    },
    {
        "start": "554.62",
        "dur": "2.36",
        "text": "shelter"
    },
    {
        "start": "558.12",
        "dur": "6.93",
        "text": "the war is relatively short since"
    },
    {
        "start": "562.339",
        "dur": "5.481",
        "text": "electromagnetic rays disabled almost all"
    },
    {
        "start": "565.05",
        "dur": "5.29",
        "text": "the u.s. defense systems"
    },
    {
        "start": "567.82",
        "dur": "5.55",
        "text": "the space aliens take over the burning"
    },
    {
        "start": "570.34",
        "dur": "7.02",
        "text": "wreckage of Washington and immediately"
    },
    {
        "start": "573.37",
        "dur": "8.85",
        "text": "impose rigid curfews because some"
    },
    {
        "start": "577.36",
        "dur": "6.87",
        "text": "Americans perhaps those whose children"
    },
    {
        "start": "582.22",
        "dur": "4.47",
        "text": "or wives were murdered by the sanctions"
    },
    {
        "start": "584.23",
        "dur": "4.08",
        "text": "or the fleets of spaceships have formed"
    },
    {
        "start": "586.69",
        "dur": "4.56",
        "text": "an underground rebellion against the"
    },
    {
        "start": "588.31",
        "dur": "5.31",
        "text": "occupation alien troops start invading"
    },
    {
        "start": "591.25",
        "dur": "6.32",
        "text": "homes and dragging men and women into"
    },
    {
        "start": "593.62",
        "dur": "3.95",
        "text": "concentration camps without trial"
    },
    {
        "start": "599.16",
        "dur": "7.98",
        "text": "one night your door is kicked in and"
    },
    {
        "start": "604.14",
        "dur": "6.09",
        "text": "your eldest son is dragged away his"
    },
    {
        "start": "607.14",
        "dur": "5.67",
        "text": "screams were muffled by the black bag"
    },
    {
        "start": "610.23",
        "dur": "8.91",
        "text": "over his head and you stand there"
    },
    {
        "start": "612.81",
        "dur": "8.55",
        "text": "helpless sick with fear the next morning"
    },
    {
        "start": "619.14",
        "dur": "3.57",
        "text": "you drift around your tent city asking"
    },
    {
        "start": "621.36",
        "dur": "4.08",
        "text": "questions most people turn away"
    },
    {
        "start": "622.71",
        "dur": "6.75",
        "text": "terrified that you are an informer for"
    },
    {
        "start": "625.44",
        "dur": "6.38",
        "text": "the aliens but a few tell you terrible"
    },
    {
        "start": "629.46",
        "dur": "5.75",
        "text": "stories about the concentration camps"
    },
    {
        "start": "631.82",
        "dur": "10",
        "text": "hushed voices tell tales of torture and"
    },
    {
        "start": "635.21",
        "dur": "10.54",
        "text": "rape and murder and you slowly find out"
    },
    {
        "start": "641.82",
        "dur": "6.48",
        "text": "that more than a quarter of a million"
    },
    {
        "start": "645.75",
        "dur": "4.65",
        "text": "Americans have been dragged into these"
    },
    {
        "start": "648.3",
        "dur": "4.17",
        "text": "goo legs without trial or access to"
    },
    {
        "start": "650.4",
        "dur": "4.22",
        "text": "lawyers no one knows what becomes of"
    },
    {
        "start": "652.47",
        "dur": "2.15",
        "text": "them"
    },
    {
        "start": "655.9",
        "dur": "8.64",
        "text": "every day your wife lines up in front of"
    },
    {
        "start": "660.73",
        "dur": "6.66",
        "text": "one of these sprawling camps hoping for"
    },
    {
        "start": "664.54",
        "dur": "6.21",
        "text": "a chance to find out about your son"
    },
    {
        "start": "667.39",
        "dur": "8.009",
        "text": "she's told nothing he could be alive or"
    },
    {
        "start": "670.75",
        "dur": "7.649",
        "text": "dead there's no way to tell you're"
    },
    {
        "start": "675.399",
        "dur": "7.231",
        "text": "desperate to find him but her terrified"
    },
    {
        "start": "678.399",
        "dur": "6.921",
        "text": "that if your wife keeps asking she too"
    },
    {
        "start": "682.63",
        "dur": "2.69",
        "text": "will disappear"
    },
    {
        "start": "685.85",
        "dur": "10.47",
        "text": "then one sweltering summer day the city"
    },
    {
        "start": "692.1",
        "dur": "7.32",
        "text": "of New York is encircled by spaceships"
    },
    {
        "start": "696.32",
        "dur": "6.54",
        "text": "from blaring loudspeakers all the women"
    },
    {
        "start": "699.42",
        "dur": "6.12",
        "text": "and children are told to flee the city"
    },
    {
        "start": "702.86",
        "dur": "7.24",
        "text": "any men who tried to escape are beaten"
    },
    {
        "start": "705.54",
        "dur": "7.83",
        "text": "and turned back the aliens turn off New"
    },
    {
        "start": "710.1",
        "dur": "6",
        "text": "York's water and electricity after about"
    },
    {
        "start": "713.37",
        "dur": "4.95",
        "text": "2 million people flee New York the space"
    },
    {
        "start": "716.1",
        "dur": "4.64",
        "text": "aliens burn it to the ground with their"
    },
    {
        "start": "718.32",
        "dur": "2.42",
        "text": "heat rays"
    },
    {
        "start": "721.65",
        "dur": "3.63",
        "text": "hospitals are targeted"
    },
    {
        "start": "726.03",
        "dur": "4.88",
        "text": "the screams of the dying can be heard"
    },
    {
        "start": "728.01",
        "dur": "2.9",
        "text": "from across the river"
    },
    {
        "start": "733.03",
        "dur": "8.11",
        "text": "as the occupation grinds on"
    },
    {
        "start": "737.139",
        "dur": "6.591",
        "text": "there seems to be no end in sight"
    },
    {
        "start": "741.14",
        "dur": "4.48",
        "text": "the aliens who said that their mission"
    },
    {
        "start": "743.73",
        "dur": "4.77",
        "text": "was to free Americans are now building"
    },
    {
        "start": "745.62",
        "dur": "5.7",
        "text": "permanent military bases and have"
    },
    {
        "start": "748.5",
        "dur": "5.24",
        "text": "installed a puppet government that they"
    },
    {
        "start": "751.32",
        "dur": "2.42",
        "text": "control"
    },
    {
        "start": "758.96",
        "dur": "5.76",
        "text": "one evening as you sit with the remnants"
    },
    {
        "start": "762.56",
        "dur": "5.12",
        "text": "of your family in front of your ragged"
    },
    {
        "start": "764.72",
        "dur": "8.01",
        "text": "tent starving"
    },
    {
        "start": "767.68",
        "dur": "8.64",
        "text": "terrified you hear a tinny voice coming"
    },
    {
        "start": "772.73",
        "dur": "3.59",
        "text": "from a neighbor's radio"
    },
    {
        "start": "777.21",
        "dur": "6.9",
        "text": "one of the alien leaders is complaining"
    },
    {
        "start": "780.64",
        "dur": "3.47",
        "text": "that Americans seem ungrateful"
    },
    {
        "start": "785.28",
        "dur": "3.5",
        "text": "for their liberation"
    },
    {
        "start": "789.139",
        "dur": "6.091",
        "text": "I guess there are just some bad apples"
    },
    {
        "start": "791.48",
        "dur": "10.639",
        "text": "he sighs who hate us for our innate"
    },
    {
        "start": "795.23",
        "dur": "9.53",
        "text": "goodness and as you close your eyes and"
    },
    {
        "start": "802.119",
        "dur": "9.501",
        "text": "try to sleep"
    },
    {
        "start": "804.76",
        "dur": "6.86",
        "text": "you think of your son missing for years"
    },
    {
        "start": "813.95",
        "dur": "8.82",
        "text": "picturing him bruised and broken in some"
    },
    {
        "start": "816.56",
        "dur": "12.29",
        "text": "airless cell and wonder if he is better"
    },
    {
        "start": "822.77",
        "dur": "6.08",
        "text": "off alive or dead"
    },
    {
        "start": "833.089",
        "dur": "4.58",
        "text": "thank you so much for watching"
    },
    {
        "start": "841.87",
        "dur": "2.06",
        "text": "you"
    }
]