{
  "Title": "The Sad Crazy Story of Justin Trudeau's Blackface",
  "Id": "XtciLvDssis",
  "Transcript": [
    {
      "text": "blame it all on my roots I showed up in",
      "start": 0.319,
      "duration": 7.74
    },
    {
      "text": "boots drilling your black-tie affair",
      "start": 4.44,
      "duration": 6.6
    },
    {
      "text": "it's really really getting strange out",
      "start": 8.059,
      "duration": 5.861
    },
    {
      "text": "here in Canada land so the number one",
      "start": 11.04,
      "duration": 6.06
    },
    {
      "text": "worldwide trains trending story its",
      "start": 13.92,
      "duration": 4.8
    },
    {
      "text": "Justin Trudeau and his black face now",
      "start": 17.1,
      "duration": 5.55
    },
    {
      "text": "his original story you see was that well",
      "start": 18.72,
      "duration": 6.27
    },
    {
      "text": "hey man it was a dress-up ball and you",
      "start": 22.65,
      "duration": 3.84
    },
    {
      "text": "know I chose to dress up in something",
      "start": 24.99,
      "duration": 3.42
    },
    {
      "text": "that was kind of insensitive but you",
      "start": 26.49,
      "duration": 3.359
    },
    {
      "text": "know we all make decisions when we're",
      "start": 28.41,
      "duration": 3.599
    },
    {
      "text": "almost 30 and a teacher and so on right",
      "start": 29.849,
      "duration": 7.771
    },
    {
      "text": "so this is what it's been has just came",
      "start": 32.009,
      "duration": 7.98
    },
    {
      "text": "out from the Sunday Telegraph on the",
      "start": 37.62,
      "duration": 5.73
    },
    {
      "text": "evening of February 24 2001 Justin",
      "start": 39.989,
      "duration": 4.621
    },
    {
      "text": "Trudeau breezed into the palatial",
      "start": 43.35,
      "duration": 3
    },
    {
      "text": "Fairmont Hotel overlooking Vancouver",
      "start": 44.61,
      "duration": 4.379
    },
    {
      "text": "harbour for a charity gala the",
      "start": 46.35,
      "duration": 6.15
    },
    {
      "text": "invitations had said it was black-tie",
      "start": 48.989,
      "duration": 6.271
    },
    {
      "text": "with an Arabian Nights theme in the form",
      "start": 52.5,
      "duration": 5.43
    },
    {
      "text": "of belly dances and middle-eastern music",
      "start": 55.26,
      "duration": 5.549
    },
    {
      "text": "so just pause on this a moment my",
      "start": 57.93,
      "duration": 5.34
    },
    {
      "text": "friends because his was like hey man was",
      "start": 60.809,
      "duration": 3.99
    },
    {
      "text": "kind of like Halloween it's like no it",
      "start": 63.27,
      "duration": 3.389
    },
    {
      "text": "wasn't it was a black-tie event which is",
      "start": 64.799,
      "duration": 4.32
    },
    {
      "text": "the top tier of dress up like the women",
      "start": 66.659,
      "duration": 5.07
    },
    {
      "text": "in formal elegant evening gowns the men",
      "start": 69.119,
      "duration": 5.461
    },
    {
      "text": "in tuxedos and so on and so it was not",
      "start": 71.729,
      "duration": 6.451
    },
    {
      "text": "not specifically not a dress-up event",
      "start": 74.58,
      "duration": 5.82
    },
    {
      "text": "and that is very very important because",
      "start": 78.18,
      "duration": 4.5
    },
    {
      "text": "it's just one more lie about the whole",
      "start": 80.4,
      "duration": 4.44
    },
    {
      "text": "thing so yeah it was an Arabian Nights",
      "start": 82.68,
      "duration": 4.17
    },
    {
      "text": "theme which means there are belly dances",
      "start": 84.84,
      "duration": 3.27
    },
    {
      "text": "Middle Eastern music I assume Middle",
      "start": 86.85,
      "duration": 5.07
    },
    {
      "text": "Eastern food but not dress up as genie",
      "start": 88.11,
      "duration": 5.49
    },
    {
      "text": "Sambo like that's just that's not the",
      "start": 91.92,
      "duration": 6.449
    },
    {
      "text": "thing now can you imagine coming in I'm",
      "start": 93.6,
      "duration": 6.21
    },
    {
      "text": "British so you know social embarrassment",
      "start": 98.369,
      "duration": 2.82
    },
    {
      "text": "is a challenge for me but can you",
      "start": 99.81,
      "duration": 6.53
    },
    {
      "text": "imagine showing up in this absolutely",
      "start": 101.189,
      "duration": 8.881
    },
    {
      "text": "wrong horrible racist nasty ridiculous",
      "start": 106.34,
      "duration": 7.029
    },
    {
      "text": "getup and just breezing in and wandering",
      "start": 110.07,
      "duration": 5.31
    },
    {
      "text": "around wouldn't you notice that other",
      "start": 113.369,
      "duration": 5.761
    },
    {
      "text": "people weren't in costumes wouldn't this",
      "start": 115.38,
      "duration": 5.489
    },
    {
      "text": "you pick up this a little bit I mean I",
      "start": 119.13,
      "duration": 4.739
    },
    {
      "text": "don't know was he high was he stoned I",
      "start": 120.869,
      "duration": 5.79
    },
    {
      "text": "mean how on earth does this happen so to",
      "start": 123.869,
      "duration": 3.991
    },
    {
      "text": "go on with the article up with the link",
      "start": 126.659,
      "duration": 1.501
    },
    {
      "text": "below",
      "start": 127.86,
      "duration": 2.759
    },
    {
      "text": "more than 500 guests showed up all the",
      "start": 128.16,
      "duration": 5.24
    },
    {
      "text": "men wore tuxedos except mr. Trudeau",
      "start": 130.619,
      "duration": 4.611
    },
    {
      "text": "he had painted his face hands and feet",
      "start": 133.4,
      "duration": 3.869
    },
    {
      "text": "black donning billowing robes and placed",
      "start": 135.23,
      "duration": 4.5
    },
    {
      "text": "a turban on his head not one other",
      "start": 137.269,
      "duration": 9.541
    },
    {
      "text": "person was in blackface if the future",
      "start": 139.73,
      "duration": 10.2
    },
    {
      "text": "Canadian Prime Minister felt any",
      "start": 146.81,
      "duration": 4.59
    },
    {
      "text": "embarrassment at his jaw-dropping faux",
      "start": 149.93,
      "duration": 4.08
    },
    {
      "text": "pas he didn't show it quote we were",
      "start": 151.4,
      "duration": 4.32
    },
    {
      "text": "taken aback when he walked in but it",
      "start": 154.01,
      "duration": 4.14
    },
    {
      "text": "just didn't seem to register with Justin",
      "start": 155.72,
      "duration": 4.26
    },
    {
      "text": "one guest told The Sunday Telegraph it",
      "start": 158.15,
      "duration": 2.97
    },
    {
      "text": "was like the black and white minstrel",
      "start": 159.98,
      "duration": 4.619
    },
    {
      "text": "show and you know collie wags it was not",
      "start": 161.12,
      "duration": 6.119
    },
    {
      "text": "okay the gala was held to raise money",
      "start": 164.599,
      "duration": 4.321
    },
    {
      "text": "for the private West Point Grey Academy",
      "start": 167.239,
      "duration": 3.421
    },
    {
      "text": "where the 29 year old Trudeau was",
      "start": 168.92,
      "duration": 3.81
    },
    {
      "text": "teaching maths humanities social studies",
      "start": 170.66,
      "duration": 5.31
    },
    {
      "text": "French and Drama no one appears to have",
      "start": 172.73,
      "duration": 5.25
    },
    {
      "text": "said anything to him about his attire",
      "start": 175.97,
      "duration": 3.72
    },
    {
      "text": "those presidents said they put it down",
      "start": 177.98,
      "duration": 3.929
    },
    {
      "text": "to him being quote larger than life and",
      "start": 179.69,
      "duration": 5.43
    },
    {
      "text": "a known quote character but for some it",
      "start": 181.909,
      "duration": 4.47
    },
    {
      "text": "was the elephant in the room all evening",
      "start": 185.12,
      "duration": 3.119
    },
    {
      "text": "one guest said people didn't say",
      "start": 186.379,
      "duration": 3.091
    },
    {
      "text": "anything to his face because of who he",
      "start": 188.239,
      "duration": 3.271
    },
    {
      "text": "was we didn't know then he'd go into",
      "start": 189.47,
      "duration": 3.57
    },
    {
      "text": "politics or anything but he was still",
      "start": 191.51,
      "duration": 4.74
    },
    {
      "text": "Justin Trudeau we just thought he was",
      "start": 193.04,
      "duration": 4.5
    },
    {
      "text": "somebody who was privileged and should",
      "start": 196.25,
      "duration": 2.489
    },
    {
      "text": "have known better but I thought it was",
      "start": 197.54,
      "duration": 4.559
    },
    {
      "text": "wrong at the time and so did others the",
      "start": 198.739,
      "duration": 4.951
    },
    {
      "text": "Sunday Telegraph can disclose that the",
      "start": 202.099,
      "duration": 3.151
    },
    {
      "text": "woman photographed in the arms of mr.",
      "start": 203.69,
      "duration": 4.139
    },
    {
      "text": "Trudeau was Miriam Matt Olien a fellow",
      "start": 205.25,
      "duration": 4.169
    },
    {
      "text": "teacher misma Toshi and who is are of",
      "start": 207.829,
      "duration": 3.871
    },
    {
      "text": "Armenian descent later him marked on a",
      "start": 209.419,
      "duration": 5.311
    },
    {
      "text": "career as a writer and performer of",
      "start": 211.7,
      "duration": 5.31
    },
    {
      "text": "Armenian folk songs The Sunday Telegraph",
      "start": 214.73,
      "duration": 5.339
    },
    {
      "text": "was unable to reach her for comment the",
      "start": 217.01,
      "duration": 4.349
    },
    {
      "text": "other three women in the photograph were",
      "start": 220.069,
      "duration": 3.81
    },
    {
      "text": "also understood to be teachers excellent",
      "start": 221.359,
      "duration": 4.38
    },
    {
      "text": "I really like seeing that level of moral",
      "start": 223.879,
      "duration": 3.98
    },
    {
      "text": "courage in teachers don't you think",
      "start": 225.739,
      "duration": 4.65
    },
    {
      "text": "Roger husband who made a promotional",
      "start": 227.859,
      "duration": 4.511
    },
    {
      "text": "video shown at the event said that mr.",
      "start": 230.389,
      "duration": 3.75
    },
    {
      "text": "Trudeau's appearance quote stood out he",
      "start": 232.37,
      "duration": 3.239
    },
    {
      "text": "added it was staggering it was almost",
      "start": 234.139,
      "duration": 7.32
    },
    {
      "text": "overpowering so anyway um the evening",
      "start": 235.609,
      "duration": 7.621
    },
    {
      "text": "raised a bunch of money photographs went",
      "start": 241.459,
      "duration": 2.941
    },
    {
      "text": "up on the school wall for children to",
      "start": 243.23,
      "duration": 4.259
    },
    {
      "text": "see the school was established in 1996",
      "start": 244.4,
      "duration": 5.459
    },
    {
      "text": "in an area that had no co-educational",
      "start": 247.489,
      "duration": 4.08
    },
    {
      "text": "schools and was founded as a progressive",
      "start": 249.859,
      "duration": 4.201
    },
    {
      "text": "institution on a spot overlooking",
      "start": 251.569,
      "duration": 5.04
    },
    {
      "text": "English Bay mr. Trudeau left the school",
      "start": 254.06,
      "duration": 4.049
    },
    {
      "text": "a few months after the incident moving",
      "start": 256.609,
      "duration": 2.85
    },
    {
      "text": "to the nearby so Winston Churchill",
      "start": 258.109,
      "duration": 3.451
    },
    {
      "text": "secondary school no one has suggested it",
      "start": 259.459,
      "duration": 5.341
    },
    {
      "text": "was the reason for him leaving honey",
      "start": 261.56,
      "duration": 5.31
    },
    {
      "text": "madam melon sorry who seek has been in",
      "start": 264.8,
      "duration": 2.29
    },
    {
      "text": "broad",
      "start": 266.87,
      "duration": 1.84
    },
    {
      "text": "post with the black-faced mr. Trudell in",
      "start": 267.09,
      "duration": 2.91
    },
    {
      "text": "another photograph that emerges weak",
      "start": 268.71,
      "duration": 2.55
    },
    {
      "text": "said it wasn't racist you got a",
      "start": 270,
      "duration": 5.479
    },
    {
      "text": "Halloween parties and you dress up so",
      "start": 271.26,
      "duration": 7.159
    },
    {
      "text": "but it wasn't a dress-up party Frank",
      "start": 275.479,
      "duration": 5.111
    },
    {
      "text": "Canada's Global News obtained a separate",
      "start": 278.419,
      "duration": 3.791
    },
    {
      "text": "video of Trudeau in blackface in the",
      "start": 280.59,
      "duration": 3.03
    },
    {
      "text": "early 90s instead it came from a source",
      "start": 282.21,
      "duration": 3.42
    },
    {
      "text": "within the Conservative Party that's the",
      "start": 283.62,
      "duration": 4.71
    },
    {
      "text": "one where he's you know stuff the",
      "start": 285.63,
      "duration": 4.23
    },
    {
      "text": "Gherkin down his pants to imitate the",
      "start": 288.33,
      "duration": 3.39
    },
    {
      "text": "giant black penis but don't worry it's",
      "start": 289.86,
      "duration": 4.98
    },
    {
      "text": "not an all racist mr. Trudeau apologized",
      "start": 291.72,
      "duration": 4.32
    },
    {
      "text": "twice this week saying he did not",
      "start": 294.84,
      "duration": 2.7
    },
    {
      "text": "realize it was racist at the time but",
      "start": 296.04,
      "duration": 4.26
    },
    {
      "text": "now does it's just not true S is not",
      "start": 297.54,
      "duration": 5.129
    },
    {
      "text": "true again as I said before students",
      "start": 300.3,
      "duration": 4.53
    },
    {
      "text": "were being kicked out of school for",
      "start": 302.669,
      "duration": 3.841
    },
    {
      "text": "having done blackface in in high school",
      "start": 304.83,
      "duration": 3.21
    },
    {
      "text": "had the idea that he didn't know this",
      "start": 306.51,
      "duration": 2.76
    },
    {
      "text": "and of course it's a progressive school",
      "start": 308.04,
      "duration": 3.66
    },
    {
      "text": "if a progressive school doesn't know",
      "start": 309.27,
      "duration": 4.17
    },
    {
      "text": "something that's racist which everyone",
      "start": 311.7,
      "duration": 3.18
    },
    {
      "text": "else knows about well then they're not",
      "start": 313.44,
      "duration": 5.94
    },
    {
      "text": "very progressive on Friday mr. Trudeau",
      "start": 314.88,
      "duration": 5.82
    },
    {
      "text": "Trudeau hit the campaign trail in",
      "start": 319.38,
      "duration": 2.61
    },
    {
      "text": "Toronto the Liberals need to hang onto",
      "start": 320.7,
      "duration": 2.76
    },
    {
      "text": "Canada's largest city to have any chance",
      "start": 321.99,
      "duration": 3.36
    },
    {
      "text": "of retaining power on the street a woman",
      "start": 323.46,
      "duration": 3.84
    },
    {
      "text": "yelled where's your black face he",
      "start": 325.35,
      "duration": 7.439
    },
    {
      "text": "replied good morning so I mean this is",
      "start": 327.3,
      "duration": 6.989
    },
    {
      "text": "real power right again this is the kind",
      "start": 332.789,
      "duration": 4.44
    },
    {
      "text": "of power that you and I will never",
      "start": 334.289,
      "duration": 6.711
    },
    {
      "text": "experience never be able to understand",
      "start": 337.229,
      "duration": 7.831
    },
    {
      "text": "which is you're so wealthy you're so",
      "start": 341,
      "duration": 8.05
    },
    {
      "text": "powerful you're so I guess good-looking",
      "start": 345.06,
      "duration": 5.6
    },
    {
      "text": "but in this case it was hard to tell",
      "start": 349.05,
      "duration": 4.47
    },
    {
      "text": "that you can walk into a party dressed",
      "start": 350.66,
      "duration": 5.439
    },
    {
      "text": "in out outlandish Lee racist costume",
      "start": 353.52,
      "duration": 5.04
    },
    {
      "text": "there's 500 people there well first of",
      "start": 356.099,
      "duration": 4.021
    },
    {
      "text": "all you get led into I mean if this was",
      "start": 358.56,
      "duration": 3.78
    },
    {
      "text": "my party if I was running this party and",
      "start": 360.12,
      "duration": 5.4
    },
    {
      "text": "it was a black-tie event and some freak",
      "start": 362.34,
      "duration": 6.48
    },
    {
      "text": "showed up in a Sambo costume I'd be like",
      "start": 365.52,
      "duration": 5.73
    },
    {
      "text": "what are you doing like no you can't",
      "start": 368.82,
      "duration": 3.75
    },
    {
      "text": "come in this is like there's not really",
      "start": 371.25,
      "duration": 3.03
    },
    {
      "text": "this offensive but it's not even part of",
      "start": 372.57,
      "duration": 2.73
    },
    {
      "text": "the evening you're supposed to be an",
      "start": 374.28,
      "duration": 5.97
    },
    {
      "text": "ataxia freak but he gets let in and he",
      "start": 375.3,
      "duration": 7.17
    },
    {
      "text": "wanders around and everybody you know",
      "start": 380.25,
      "duration": 4.289
    },
    {
      "text": "has those weird Stepford Wives Joker",
      "start": 382.47,
      "duration": 4.59
    },
    {
      "text": "smiles when he's grappling at their",
      "start": 384.539,
      "duration": 4.891
    },
    {
      "text": "breasts or near their breasts and that's",
      "start": 387.06,
      "duration": 4.169
    },
    {
      "text": "power man you can just you can walk in",
      "start": 389.43,
      "duration": 3.95
    },
    {
      "text": "you can be the only guy dressed in a",
      "start": 391.229,
      "duration": 8.011
    },
    {
      "text": "racist golliwog outfit and you can just",
      "start": 393.38,
      "duration": 7.589
    },
    {
      "text": "go through everyone smiles and takes",
      "start": 399.24,
      "duration": 2.989
    },
    {
      "text": "photographs with you no one says",
      "start": 400.969,
      "duration": 4.56
    },
    {
      "text": "anything and in the close to 20 years",
      "start": 402.229,
      "duration": 5.94
    },
    {
      "text": "since no one has said anything so people",
      "start": 405.529,
      "duration": 3.51
    },
    {
      "text": "said well we didn't know he was gonna",
      "start": 408.169,
      "duration": 3.18
    },
    {
      "text": "run for office well how about when he",
      "start": 409.039,
      "duration": 4.56
    },
    {
      "text": "did run for office do you want to bring",
      "start": 411.349,
      "duration": 4.89
    },
    {
      "text": "that it's it's like the photograph that",
      "start": 413.599,
      "duration": 5.88
    },
    {
      "text": "the guy he was a photographer of course",
      "start": 416.239,
      "duration": 5.34
    },
    {
      "text": "in the media he held onto a photograph",
      "start": 419.479,
      "duration": 6.87
    },
    {
      "text": "of Louis Farrakhan or Louis Farrakhan",
      "start": 421.579,
      "duration": 7.05
    },
    {
      "text": "sitting there grinning away with Barack",
      "start": 426.349,
      "duration": 4.44
    },
    {
      "text": "Obama Louis Farrakhan is a black",
      "start": 428.629,
      "duration": 3.87
    },
    {
      "text": "nationalist and racist has reviewed two",
      "start": 430.789,
      "duration": 3.45
    },
    {
      "text": "Jews referred to Jews as termites and so",
      "start": 432.499,
      "duration": 3.06
    },
    {
      "text": "on and he's just sitting there grinning",
      "start": 434.239,
      "duration": 2.88
    },
    {
      "text": "away with Barack Obama which is why",
      "start": 435.559,
      "duration": 3.27
    },
    {
      "text": "people said Barack Obama is far too",
      "start": 437.119,
      "duration": 3.3
    },
    {
      "text": "radical and far too lefty to be elected",
      "start": 438.829,
      "duration": 3.57
    },
    {
      "text": "but he hung on to this because he didn't",
      "start": 440.419,
      "duration": 3.12
    },
    {
      "text": "want to rock the boat or he wanted",
      "start": 442.399,
      "duration": 2.55
    },
    {
      "text": "Barack Obama to get in or whatever it is",
      "start": 443.539,
      "duration": 5.49
    },
    {
      "text": "right so five hundred people knew this",
      "start": 444.949,
      "duration": 6.09
    },
    {
      "text": "at least five hundred people again the",
      "start": 449.029,
      "duration": 3.69
    },
    {
      "text": "people who saw the photos in the school",
      "start": 451.039,
      "duration": 3.06
    },
    {
      "text": "right five hundred a thousand fifteen",
      "start": 452.719,
      "duration": 4.11
    },
    {
      "text": "hundred people we don't know but a very",
      "start": 454.099,
      "duration": 5.13
    },
    {
      "text": "large number of people knew about this",
      "start": 456.829,
      "duration": 5.49
    },
    {
      "text": "in the run-up to Justin Trudeau's",
      "start": 459.229,
      "duration": 4.56
    },
    {
      "text": "election when he was first going to be",
      "start": 462.319,
      "duration": 2.76
    },
    {
      "text": "an MP then we went when he went for",
      "start": 463.789,
      "duration": 2.61
    },
    {
      "text": "prime minister everybody know about this",
      "start": 465.079,
      "duration": 5.6
    },
    {
      "text": "no one said a thing no one said a thing",
      "start": 466.399,
      "duration": 6.45
    },
    {
      "text": "so you can just wander in dressed in",
      "start": 470.679,
      "duration": 3.7
    },
    {
      "text": "this offensive costume nobody else is in",
      "start": 472.849,
      "duration": 3.39
    },
    {
      "text": "costume you can wander around people",
      "start": 474.379,
      "duration": 4.77
    },
    {
      "text": "giggle giggle into her and and are happy",
      "start": 476.239,
      "duration": 4.2
    },
    {
      "text": "to have photographs taken with you",
      "start": 479.149,
      "duration": 2.61
    },
    {
      "text": "nobody says anything about it nobody",
      "start": 480.439,
      "duration": 3.45
    },
    {
      "text": "brings it up that's power man that is",
      "start": 481.759,
      "duration": 6.06
    },
    {
      "text": "power that is real honest-to-god power",
      "start": 483.889,
      "duration": 10.23
    },
    {
      "text": "and this is why I mean you can't run a",
      "start": 487.819,
      "duration": 8.19
    },
    {
      "text": "country because he's lived his life",
      "start": 494.119,
      "duration": 4.741
    },
    {
      "text": "consequence-free he's lived his life",
      "start": 496.009,
      "duration": 3.75
    },
    {
      "text": "consequence-free",
      "start": 498.86,
      "duration": 4.679
    },
    {
      "text": "the media has covered up for him the the",
      "start": 499.759,
      "duration": 6.72
    },
    {
      "text": "women who swoon over him have adore him",
      "start": 503.539,
      "duration": 4.71
    },
    {
      "text": "no matter what in some weird 50 shades",
      "start": 506.479,
      "duration": 4.14
    },
    {
      "text": "of grey immigration nightmare and so",
      "start": 508.249,
      "duration": 3.84
    },
    {
      "text": "he's just he's a he's a consequence-free",
      "start": 510.619,
      "duration": 5.36
    },
    {
      "text": "guy and and living consequence-free",
      "start": 512.089,
      "duration": 7.44
    },
    {
      "text": "makes you silly makes you shallow makes",
      "start": 515.979,
      "duration": 5.47
    },
    {
      "text": "you foppish i guess this is why he's got",
      "start": 519.529,
      "duration": 4.26
    },
    {
      "text": "these goofy socks and he shows up in",
      "start": 521.449,
      "duration": 4.5
    },
    {
      "text": "costume everywhere and you know nobody",
      "start": 523.789,
      "duration": 4.561
    },
    {
      "text": "takes him seriously and he's laughed at",
      "start": 525.949,
      "duration": 4.62
    },
    {
      "text": "by the Chinese and and Trump ignores him",
      "start": 528.35,
      "duration": 4.169
    },
    {
      "text": "at summits and so on cuz I mean he sees",
      "start": 530.569,
      "duration": 4.441
    },
    {
      "text": "just these feckless ease",
      "start": 532.519,
      "duration": 4.601
    },
    {
      "text": "he's a trust-fund kid he's a rich kid",
      "start": 535.01,
      "duration": 4.36
    },
    {
      "text": "and what has he done to earn what he's",
      "start": 537.12,
      "duration": 5.07
    },
    {
      "text": "got did he earn his good looks now did",
      "start": 539.37,
      "duration": 5.07
    },
    {
      "text": "he earn his hair did he earn his family",
      "start": 542.19,
      "duration": 4.5
    },
    {
      "text": "name did he earn his fortune now it's",
      "start": 544.44,
      "duration": 4.89
    },
    {
      "text": "just the way he is right I mean so when",
      "start": 546.69,
      "duration": 4.26
    },
    {
      "text": "you haven't earned the benefits in your",
      "start": 549.33,
      "duration": 3.15
    },
    {
      "text": "life you kind of take them for granted",
      "start": 550.95,
      "duration": 4.17
    },
    {
      "text": "right so and the other thing too man",
      "start": 552.48,
      "duration": 6.18
    },
    {
      "text": "like I mean the Trudeau family life was",
      "start": 555.12,
      "duration": 5.31
    },
    {
      "text": "a complete nightmare I mean not only did",
      "start": 558.66,
      "duration": 6.47
    },
    {
      "text": "his father begin the process of",
      "start": 560.43,
      "duration": 7.58
    },
    {
      "text": "transforming Canada into the",
      "start": 565.13,
      "duration": 6.01
    },
    {
      "text": "multicultural immanent hellhole that",
      "start": 568.01,
      "duration": 5.019
    },
    {
      "text": "it's become now where Toronto which was",
      "start": 571.14,
      "duration": 3.509
    },
    {
      "text": "incredibly safe when I was growing up so",
      "start": 573.029,
      "duration": 3.661
    },
    {
      "text": "safe it was called Toronto the good now",
      "start": 574.649,
      "duration": 5.641
    },
    {
      "text": "has a higher murder rate than New York",
      "start": 576.69,
      "duration": 8.22
    },
    {
      "text": "City absolutely appalling he also you",
      "start": 580.29,
      "duration": 5.609
    },
    {
      "text": "know worked on making sure that",
      "start": 584.91,
      "duration": 2.549
    },
    {
      "text": "Canadians were indebted to a central",
      "start": 585.899,
      "duration": 3.63
    },
    {
      "text": "bank he praised Fidel Castro he praised",
      "start": 587.459,
      "duration": 4.741
    },
    {
      "text": "communism this is Justin Trudeau's",
      "start": 589.529,
      "duration": 8.521
    },
    {
      "text": "father father and I mean it was just an",
      "start": 592.2,
      "duration": 8.009
    },
    {
      "text": "appalling situation so let's learn a",
      "start": 598.05,
      "duration": 3.75
    },
    {
      "text": "little bit about Justin Trudeau's family",
      "start": 600.209,
      "duration": 3.541
    },
    {
      "text": "life and he was growing up this is not",
      "start": 601.8,
      "duration": 4.979
    },
    {
      "text": "necessarily to to put him in a context",
      "start": 603.75,
      "duration": 4.709
    },
    {
      "text": "of sympathy but just so you understand",
      "start": 606.779,
      "duration": 6.12
    },
    {
      "text": "you know how this formless man was",
      "start": 608.459,
      "duration": 8.25
    },
    {
      "text": "formed right so I'll put the sources to",
      "start": 612.899,
      "duration": 5.991
    },
    {
      "text": "this below his mother Margaret Trudeau",
      "start": 616.709,
      "duration": 6.211
    },
    {
      "text": "was a bipolar institutionalized I would",
      "start": 618.89,
      "duration": 5.92
    },
    {
      "text": "say drug addict or certainly somebody",
      "start": 622.92,
      "duration": 4.53
    },
    {
      "text": "who has had repetitive use of marijuana",
      "start": 624.81,
      "duration": 4.29
    },
    {
      "text": "to the point where she herself confessed",
      "start": 627.45,
      "duration": 3.27
    },
    {
      "text": "that her marijuana use had her become",
      "start": 629.1,
      "duration": 4.26
    },
    {
      "text": "institutionalized so a very very bad",
      "start": 630.72,
      "duration": 6.63
    },
    {
      "text": "situation so here's here's a quote and",
      "start": 633.36,
      "duration": 5.789
    },
    {
      "text": "who was Maggie Trudeau Margaret Trudeau",
      "start": 637.35,
      "duration": 3.9
    },
    {
      "text": "an adventurous young woman who at the",
      "start": 639.149,
      "duration": 4.38
    },
    {
      "text": "age of 22 married a politician of 51",
      "start": 641.25,
      "duration": 4.23
    },
    {
      "text": "that's Pierre Trudeau Justin Trudeau's",
      "start": 643.529,
      "duration": 4.321
    },
    {
      "text": "father and found herself wildly",
      "start": 645.48,
      "duration": 3.599
    },
    {
      "text": "unprepared for the fish ball that came",
      "start": 647.85,
      "duration": 2.489
    },
    {
      "text": "with being the wife of a national leader",
      "start": 649.079,
      "duration": 3.961
    },
    {
      "text": "a wild child who traded that restrictive",
      "start": 650.339,
      "duration": 4.62
    },
    {
      "text": "existence for a glittering jet set life",
      "start": 653.04,
      "duration": 3.81
    },
    {
      "text": "that almost killed her and for affairs",
      "start": 654.959,
      "duration": 3.75
    },
    {
      "text": "with some of the world's some of the",
      "start": 656.85,
      "duration": 3.239
    },
    {
      "text": "most powerful and editorials Playboy's",
      "start": 658.709,
      "duration": 4.591
    },
    {
      "text": "of the 1970s Oh Neil that's Ryan O'Neal",
      "start": 660.089,
      "duration": 4.56
    },
    {
      "text": "who was in that release a Korean drama",
      "start": 663.3,
      "duration": 3.42
    },
    {
      "text": "love story Jack Nicholson Ron Wood",
      "start": 664.649,
      "duration": 3.221
    },
    {
      "text": "guitarist for",
      "start": 666.72,
      "duration": 4.41
    },
    {
      "text": "or the Rolling Stones Ted Kennedy",
      "start": 667.87,
      "duration": 5.82
    },
    {
      "text": "Perrier water air Bruce Nevins and",
      "start": 671.13,
      "duration": 4.149
    },
    {
      "text": "countless others including a notorious",
      "start": 673.69,
      "duration": 4.77
    },
    {
      "text": "cocaine dealer right so this is just",
      "start": 675.279,
      "duration": 6.511
    },
    {
      "text": "intruders mother wild set of affairs and",
      "start": 678.46,
      "duration": 5.51
    },
    {
      "text": "had an affair with the notorious cocaine",
      "start": 681.79,
      "duration": 5.19
    },
    {
      "text": "dealer and yet she never completely lost",
      "start": 683.97,
      "duration": 7.21
    },
    {
      "text": "her wide-eyed wonder it's an act Diane",
      "start": 686.98,
      "duration": 6.54
    },
    {
      "text": "von Furstenberg who socialized with",
      "start": 691.18,
      "duration": 4.02
    },
    {
      "text": "Margaret in those heady days recalls her",
      "start": 693.52,
      "duration": 4.38
    },
    {
      "text": "as quote beautiful fun vulnerable",
      "start": 695.2,
      "duration": 5.579
    },
    {
      "text": "indeed von Furstenberg says that when",
      "start": 697.9,
      "duration": 4.71
    },
    {
      "text": "she first met Margaret's son Canada's",
      "start": 700.779,
      "duration": 3.601
    },
    {
      "text": "new prime minister quote I had to hug",
      "start": 702.61,
      "duration": 3.33
    },
    {
      "text": "him this compassionate powerful head of",
      "start": 704.38,
      "duration": 4.76
    },
    {
      "text": "state because he reminded me so much of",
      "start": 705.94,
      "duration": 8.73
    },
    {
      "text": "his mother and this is I guess she's in",
      "start": 709.14,
      "duration": 8.05
    },
    {
      "text": "her 60s now 70s Margaret Trudeau",
      "start": 714.67,
      "duration": 5.94
    },
    {
      "text": "recently said I have been confined in a",
      "start": 717.19,
      "duration": 5.97
    },
    {
      "text": "psychiatric institution my bank account",
      "start": 720.61,
      "duration": 8.94
    },
    {
      "text": "and life in shambles now Teddy Kennedy",
      "start": 723.16,
      "duration": 8.46
    },
    {
      "text": "of course I've done a show on this was",
      "start": 729.55,
      "duration": 6.81
    },
    {
      "text": "the guy who was driving the car that",
      "start": 731.62,
      "duration": 7.29
    },
    {
      "text": "drowned Mary Jo Kopechne II you've seen",
      "start": 736.36,
      "duration": 5.82
    },
    {
      "text": "the movie perhaps and was instrumental",
      "start": 738.91,
      "duration": 6.36
    },
    {
      "text": "in also shifting America to third world",
      "start": 742.18,
      "duration": 4.83
    },
    {
      "text": "immigration but the heart cellar Act in",
      "start": 745.27,
      "duration": 6.42
    },
    {
      "text": "1965 and Margaret Trudeau said quote sex",
      "start": 747.01,
      "duration": 6.18
    },
    {
      "text": "is a Basic Instinct and sexual",
      "start": 751.69,
      "duration": 3.48
    },
    {
      "text": "attraction can be incredibly powerful I",
      "start": 753.19,
      "duration": 3.899
    },
    {
      "text": "remember the first time I met Teddy",
      "start": 755.17,
      "duration": 3.6
    },
    {
      "text": "Kennedy we were at a state dinner in New",
      "start": 757.089,
      "duration": 3.421
    },
    {
      "text": "York I would later come to know him as a",
      "start": 758.77,
      "duration": 4.2
    },
    {
      "text": "very kind thoughtful person but that",
      "start": 760.51,
      "duration": 4.59
    },
    {
      "text": "evening I felt such a pull toward him",
      "start": 762.97,
      "duration": 4.14
    },
    {
      "text": "that we couldn't even stand within a",
      "start": 765.1,
      "duration": 3.66
    },
    {
      "text": "couple of meters of one another",
      "start": 767.11,
      "duration": 4.77
    },
    {
      "text": "Pierre her husband was not amused her",
      "start": 768.76,
      "duration": 7.53
    },
    {
      "text": "judgment right Margaret Trudeau says I",
      "start": 771.88,
      "duration": 6.209
    },
    {
      "text": "still enjoy the occasional joint pot is",
      "start": 776.29,
      "duration": 4.049
    },
    {
      "text": "to me as the occasional glass of wine is",
      "start": 778.089,
      "duration": 4.081
    },
    {
      "text": "to many others I like the way I suddenly",
      "start": 780.339,
      "duration": 3.75
    },
    {
      "text": "noticed the colors of my flowers the way",
      "start": 782.17,
      "duration": 3.45
    },
    {
      "text": "I see the moon with fresh eyes my",
      "start": 784.089,
      "duration": 2.821
    },
    {
      "text": "imagination becomes more vivid and",
      "start": 785.62,
      "duration": 4.53
    },
    {
      "text": "active and I feel happy my Gurudev said",
      "start": 786.91,
      "duration": 5.58
    },
    {
      "text": "marijuana can trigger a psychosis every",
      "start": 790.15,
      "duration": 4.08
    },
    {
      "text": "time I was hospitalized it was preceded",
      "start": 792.49,
      "duration": 6.28
    },
    {
      "text": "by heavy use of marijuana",
      "start": 794.23,
      "duration": 6.46
    },
    {
      "text": "now if you've ever had an ex-girlfriend",
      "start": 798.77,
      "duration": 3.78
    },
    {
      "text": "like this I haven't but I've heard the",
      "start": 800.69,
      "duration": 5.339
    },
    {
      "text": "stories here's a description of Margaret",
      "start": 802.55,
      "duration": 5.55
    },
    {
      "text": "Trudeau when she was in her dating",
      "start": 806.029,
      "duration": 6.271
    },
    {
      "text": "heyday and this is regarding O'Neill",
      "start": 808.1,
      "duration": 6
    },
    {
      "text": "ready the movie actor as most of her",
      "start": 812.3,
      "duration": 3.3
    },
    {
      "text": "Neil's conquest did Margaret Android",
      "start": 814.1,
      "duration": 3.66
    },
    {
      "text": "frisky fun with him tumbling for his mix",
      "start": 815.6,
      "duration": 4.049
    },
    {
      "text": "of boy-next-door charm and a touch of",
      "start": 817.76,
      "duration": 4.949
    },
    {
      "text": "menace until the day she taped an",
      "start": 819.649,
      "duration": 4.44
    },
    {
      "text": "episode of the Mike Douglas show and",
      "start": 822.709,
      "duration": 3.361
    },
    {
      "text": "then went to his house to see him this",
      "start": 824.089,
      "duration": 3.961
    },
    {
      "text": "is the director only to be told he",
      "start": 826.07,
      "duration": 3.12
    },
    {
      "text": "couldn't let her in because his son was",
      "start": 828.05,
      "duration": 3.3
    },
    {
      "text": "at home peaked and undaunted she hiked",
      "start": 829.19,
      "duration": 4.14
    },
    {
      "text": "up her tight leather skirt and scaled",
      "start": 831.35,
      "duration": 3.42
    },
    {
      "text": "the high wall surrounding O'Neill's",
      "start": 833.33,
      "duration": 3.6
    },
    {
      "text": "mansion teetering on black suede pumps",
      "start": 834.77,
      "duration": 4.97
    },
    {
      "text": "as her driver looked on suitably a gawk",
      "start": 836.93,
      "duration": 5.19
    },
    {
      "text": "O'Neill had been appalled amused and",
      "start": 839.74,
      "duration": 4.12
    },
    {
      "text": "impressed but not enough to hang around",
      "start": 842.12,
      "duration": 5.13
    },
    {
      "text": "for more things quickly flamed out so",
      "start": 843.86,
      "duration": 4.89
    },
    {
      "text": "Margaret Trudeau did the only thing she",
      "start": 847.25,
      "duration": 2.97
    },
    {
      "text": "could think of which was to stop for",
      "start": 848.75,
      "duration": 3.81
    },
    {
      "text": "Japanese takeout then half the driver",
      "start": 850.22,
      "duration": 4.05
    },
    {
      "text": "pull over on Sunset Boulevard so she",
      "start": 852.56,
      "duration": 3.3
    },
    {
      "text": "could toss the entire meal at a",
      "start": 854.27,
      "duration": 3.36
    },
    {
      "text": "billboard for the main event O'Neill's",
      "start": 855.86,
      "duration": 7.74
    },
    {
      "text": "next a new mutiny movie and this is his",
      "start": 857.63,
      "duration": 7.8
    },
    {
      "text": "mother I mean it says this is tragic",
      "start": 863.6,
      "duration": 3.96
    },
    {
      "text": "it's really is I mean it's very tragic",
      "start": 865.43,
      "duration": 4.23
    },
    {
      "text": "here's another quote no one knew just",
      "start": 867.56,
      "duration": 4.589
    },
    {
      "text": "how vulnerable Margaret win because for",
      "start": 869.66,
      "duration": 4.02
    },
    {
      "text": "much of her life she'd hidden a terrible",
      "start": 872.149,
      "duration": 1.951
    },
    {
      "text": "secret",
      "start": 873.68,
      "duration": 2.31
    },
    {
      "text": "even from herself that she was suffering",
      "start": 874.1,
      "duration": 4.2
    },
    {
      "text": "from bipolar disorder undiagnosed and",
      "start": 875.99,
      "duration": 4.62
    },
    {
      "text": "untreated she would spiral into",
      "start": 878.3,
      "duration": 5.07
    },
    {
      "text": "depression only to zoom up into mania",
      "start": 880.61,
      "duration": 4.77
    },
    {
      "text": "the outside world saw the dervish the",
      "start": 883.37,
      "duration": 4.05
    },
    {
      "text": "poster girl for the 70s Lucia a",
      "start": 885.38,
      "duration": 4.019
    },
    {
      "text": "free-for-all as she sipped champagne at",
      "start": 887.42,
      "duration": 3.479
    },
    {
      "text": "the Savoy roared through shopping sprees",
      "start": 889.399,
      "duration": 4.051
    },
    {
      "text": "at khloe Ungaro and Charles Jourdan and",
      "start": 890.899,
      "duration": 6.201
    },
    {
      "text": "sought love and sex from powerful men",
      "start": 893.45,
      "duration": 5.67
    },
    {
      "text": "and this is my Gertrude I was saying",
      "start": 897.1,
      "duration": 4.42
    },
    {
      "text": "self-loathing is the biggest hurdle you",
      "start": 899.12,
      "duration": 5.279
    },
    {
      "text": "have to get over when I was living it up",
      "start": 901.52,
      "duration": 6.059
    },
    {
      "text": "no one could have told me I was as mad",
      "start": 904.399,
      "duration": 5.31
    },
    {
      "text": "as a hatter clearly I was beyond reason",
      "start": 907.579,
      "duration": 4.26
    },
    {
      "text": "I wasn't thinking with a rational mind",
      "start": 909.709,
      "duration": 3.661
    },
    {
      "text": "that is the essence of mental illness",
      "start": 911.839,
      "duration": 2.851
    },
    {
      "text": "not being able to access the recent",
      "start": 913.37,
      "duration": 5.279
    },
    {
      "text": "judgment part of your brain in March",
      "start": 914.69,
      "duration": 7.649
    },
    {
      "text": "1977 she decided on a trial separation",
      "start": 918.649,
      "duration": 5.401
    },
    {
      "text": "this is from Pierre Trudeau her husband",
      "start": 922.339,
      "duration": 4.261
    },
    {
      "text": "they later divorced a period she would",
      "start": 924.05,
      "duration": 5.159
    },
    {
      "text": "later call two years of mayhem which",
      "start": 926.6,
      "duration": 5.4
    },
    {
      "text": "started when Margaret Trudeau met the",
      "start": 929.209,
      "duration": 4.361
    },
    {
      "text": "Rolling Stones",
      "start": 932,
      "duration": 4.13
    },
    {
      "text": "the night of her 6th wedding anniversary",
      "start": 933.57,
      "duration": 3.91
    },
    {
      "text": "Margaret went to Toronto to see the",
      "start": 936.13,
      "duration": 2.82
    },
    {
      "text": "stones at a rare Club date at the el",
      "start": 937.48,
      "duration": 4.23
    },
    {
      "text": "mocambo dressed in a jumpsuit in a",
      "start": 938.95,
      "duration": 5.19
    },
    {
      "text": "Pierre Cardin scarf she left her table",
      "start": 941.71,
      "duration": 3.84
    },
    {
      "text": "to sit at Mick Jagger's feet as he sang",
      "start": 944.14,
      "duration": 3.12
    },
    {
      "text": "and strutted she stared at him",
      "start": 945.55,
      "duration": 2.91
    },
    {
      "text": "worshipfully throughout the performance",
      "start": 947.26,
      "duration": 2.94
    },
    {
      "text": "the daily math mirror would Blair",
      "start": 948.46,
      "duration": 5.37
    },
    {
      "text": "premier his wife in stones scandal being",
      "start": 950.2,
      "duration": 5.04
    },
    {
      "text": "Margaret she returned for the Stones",
      "start": 953.83,
      "duration": 3.03
    },
    {
      "text": "concert the following night and reports",
      "start": 955.24,
      "duration": 3.18
    },
    {
      "text": "surfaced that she'd hosted a party for",
      "start": 956.86,
      "duration": 4.38
    },
    {
      "text": "the band in her hotel suite a few months",
      "start": 958.42,
      "duration": 4.08
    },
    {
      "text": "later Mick Jagger told The Evening",
      "start": 961.24,
      "duration": 3.45
    },
    {
      "text": "Standard quote she is a very sick girl",
      "start": 962.5,
      "duration": 4.26
    },
    {
      "text": "in search of something she found it but",
      "start": 964.69,
      "duration": 5.19
    },
    {
      "text": "not with me I wouldn't go near her with",
      "start": 966.76,
      "duration": 4.55
    },
    {
      "text": "a bargepole",
      "start": 969.88,
      "duration": 3.78
    },
    {
      "text": "now wasn't it Mick Jagger's girlfriend",
      "start": 971.31,
      "duration": 3.94
    },
    {
      "text": "later committed suicide or more recently",
      "start": 973.66,
      "duration": 5.49
    },
    {
      "text": "committed suicide so Mick Jagger whose",
      "start": 975.25,
      "duration": 6.38
    },
    {
      "text": "girlfriend committed suicide well",
      "start": 979.15,
      "duration": 5.1
    },
    {
      "text": "Margaret Trudeau was just way too crazy",
      "start": 981.63,
      "duration": 6.85
    },
    {
      "text": "for him then Marga Trudeau went on a",
      "start": 984.25,
      "duration": 7.44
    },
    {
      "text": "two-year Lost Weekend stopping only to",
      "start": 988.48,
      "duration": 5.16
    },
    {
      "text": "see her son's then turning around to run",
      "start": 991.69,
      "duration": 4.17
    },
    {
      "text": "back to the dance floor at 54 at Studio",
      "start": 993.64,
      "duration": 5.52
    },
    {
      "text": "54 where Steve Rubell made sure she",
      "start": 995.86,
      "duration": 6.81
    },
    {
      "text": "always breezed in in the summer of 1979",
      "start": 999.16,
      "duration": 4.56
    },
    {
      "text": "she would make one of the biggest",
      "start": 1002.67,
      "duration": 2.58
    },
    {
      "text": "mistakes of her life she granted an",
      "start": 1003.72,
      "duration": 3.78
    },
    {
      "text": "interview to Playgirl magazine the",
      "start": 1005.25,
      "duration": 4.26
    },
    {
      "text": "result a largely incoherent Margaret",
      "start": 1007.5,
      "duration": 3.78
    },
    {
      "text": "recounted that she'd had an abortion at",
      "start": 1009.51,
      "duration": 4.95
    },
    {
      "text": "17 that she'd once spent 8 hours sitting",
      "start": 1011.28,
      "duration": 5.58
    },
    {
      "text": "in a tree high and masculine and that",
      "start": 1014.46,
      "duration": 3.81
    },
    {
      "text": "she was now in love with singer lou",
      "start": 1016.86,
      "duration": 1.8
    },
    {
      "text": "rawls",
      "start": 1018.27,
      "duration": 2.01
    },
    {
      "text": "whom she'd just met on the Mike Douglas",
      "start": 1018.66,
      "duration": 5.01
    },
    {
      "text": "show these are other reports again I",
      "start": 1020.28,
      "duration": 6.45
    },
    {
      "text": "will put the links below",
      "start": 1023.67,
      "duration": 4.77
    },
    {
      "text": "Margaret should have smuggled drugs in",
      "start": 1026.73,
      "duration": 3.479
    },
    {
      "text": "the Prime Minister's luggage made",
      "start": 1028.44,
      "duration": 3.96
    },
    {
      "text": "scantily-clad appearances at Studio 54",
      "start": 1030.209,
      "duration": 4.321
    },
    {
      "text": "and tore apart a quilt made by Canadian",
      "start": 1032.4,
      "duration": 5.04
    },
    {
      "text": "conceptual artist Joyce Weiland on the",
      "start": 1034.53,
      "duration": 4.41
    },
    {
      "text": "wall in the Prime Minister's political",
      "start": 1037.44,
      "duration": 3.149
    },
    {
      "text": "official residence in Ottawa because it",
      "start": 1038.94,
      "duration": 4.5
    },
    {
      "text": "celebrated quote reason over passion",
      "start": 1040.589,
      "duration": 5.971
    },
    {
      "text": "right so she hated to the point where",
      "start": 1043.44,
      "duration": 5.25
    },
    {
      "text": "she tore apart a quilt because it said",
      "start": 1046.56,
      "duration": 6.99
    },
    {
      "text": "reason over passion reason of her",
      "start": 1048.69,
      "duration": 7.74
    },
    {
      "text": "passion as relavant tweed did not put",
      "start": 1053.55,
      "duration": 5.76
    },
    {
      "text": "the link to this below in the 1970s",
      "start": 1056.43,
      "duration": 5.49
    },
    {
      "text": "Pierre Trudeau beat up Margaret his wife",
      "start": 1059.31,
      "duration": 5.58
    },
    {
      "text": "so badly she got a black eye she said it",
      "start": 1061.92,
      "duration": 4.22
    },
    {
      "text": "was proof",
      "start": 1064.89,
      "duration": 9.3
    },
    {
      "text": "that Trudeau still loved her so this is",
      "start": 1066.14,
      "duration": 9.58
    },
    {
      "text": "poor little Justin I mean seriously I",
      "start": 1074.19,
      "duration": 4.71
    },
    {
      "text": "mean whatever he's become as an adult I",
      "start": 1075.72,
      "duration": 6.06
    },
    {
      "text": "mean his support for Justin Trudeau's",
      "start": 1078.9,
      "duration": 4.74
    },
    {
      "text": "support for abortion is so fanatical",
      "start": 1081.78,
      "duration": 4.38
    },
    {
      "text": "that he's dropped 650 million dollars of",
      "start": 1083.64,
      "duration": 6.42
    },
    {
      "text": "taxpayers money to promote and support",
      "start": 1086.16,
      "duration": 6.54
    },
    {
      "text": "and pay for abortion in the third world",
      "start": 1090.06,
      "duration": 5.16
    },
    {
      "text": "black and brown babies are going down",
      "start": 1092.7,
      "duration": 4.5
    },
    {
      "text": "under Justin Trudeau's money like wheat",
      "start": 1095.22,
      "duration": 3.45
    },
    {
      "text": "under a combine harvesters it's",
      "start": 1097.2,
      "duration": 5.28
    },
    {
      "text": "appalling I get caught the racism is",
      "start": 1098.67,
      "duration": 6.66
    },
    {
      "text": "astounding stuff but this is the life of",
      "start": 1102.48,
      "duration": 5.28
    },
    {
      "text": "these kinds of people it is monstrous",
      "start": 1105.33,
      "duration": 6.26
    },
    {
      "text": "this is Pierre Trudeau whose judgment",
      "start": 1107.76,
      "duration": 6.75
    },
    {
      "text": "fundamentally reshaped Canada and put it",
      "start": 1111.59,
      "duration": 4.27
    },
    {
      "text": "heavily in debt and changed its",
      "start": 1114.51,
      "duration": 3.21
    },
    {
      "text": "demographics perhaps beyond the point of",
      "start": 1115.86,
      "duration": 3.09
    },
    {
      "text": "return probably beyond the point of",
      "start": 1117.72,
      "duration": 5.13
    },
    {
      "text": "return and this is his judgment this is",
      "start": 1118.95,
      "duration": 5.13
    },
    {
      "text": "Pierre Trudeau's judgment that he",
      "start": 1122.85,
      "duration": 4.23
    },
    {
      "text": "marries a woman like this highly",
      "start": 1124.08,
      "duration": 4.53
    },
    {
      "text": "promiscuous according to reports as a",
      "start": 1127.08,
      "duration": 5.07
    },
    {
      "text": "teenager she says she had an abortion at",
      "start": 1128.61,
      "duration": 7.92
    },
    {
      "text": "the age of 17 heavily dependent on drugs",
      "start": 1132.15,
      "duration": 7.35
    },
    {
      "text": "to self-medicate for this bipolar and",
      "start": 1136.53,
      "duration": 4.83
    },
    {
      "text": "whether you know whether bipolar is is",
      "start": 1139.5,
      "duration": 3.81
    },
    {
      "text": "biochemical or whether it's the result",
      "start": 1141.36,
      "duration": 4.89
    },
    {
      "text": "of untreated child abuse in trauma I",
      "start": 1143.31,
      "duration": 4.62
    },
    {
      "text": "tend to was the latter but I know that",
      "start": 1146.25,
      "duration": 3.51
    },
    {
      "text": "the jury is still out on that but this",
      "start": 1147.93,
      "duration": 5.37
    },
    {
      "text": "is the judgment of this man's father and",
      "start": 1149.76,
      "duration": 6.66
    },
    {
      "text": "this is the heartbreak of Justin",
      "start": 1153.3,
      "duration": 6.75
    },
    {
      "text": "Trudeau's mother it's it's it's it's",
      "start": 1156.42,
      "duration": 5.73
    },
    {
      "text": "appalling trying to keep the attention",
      "start": 1160.05,
      "duration": 4.71
    },
    {
      "text": "of your mother when she's high when",
      "start": 1162.15,
      "duration": 5.37
    },
    {
      "text": "she's having all of these Affairs when",
      "start": 1164.76,
      "duration": 4.23
    },
    {
      "text": "she's running around the world for at",
      "start": 1167.52,
      "duration": 2.88
    },
    {
      "text": "least two years and not really spending",
      "start": 1168.99,
      "duration": 6.17
    },
    {
      "text": "much time with her children that is a",
      "start": 1170.4,
      "duration": 7.41
    },
    {
      "text": "real mess and and then of course to live",
      "start": 1175.16,
      "duration": 5.05
    },
    {
      "text": "a life of such privilege privilege plus",
      "start": 1177.81,
      "duration": 5.4
    },
    {
      "text": "trauma is is a deadly combination right",
      "start": 1180.21,
      "duration": 4.98
    },
    {
      "text": "there is an old saying from Nietzsche",
      "start": 1183.21,
      "duration": 5.94
    },
    {
      "text": "which says something like it is almost",
      "start": 1185.19,
      "duration": 6.15
    },
    {
      "text": "impossible for the rich and the powerful",
      "start": 1189.15,
      "duration": 4.65
    },
    {
      "text": "and the beautiful to hear the truth",
      "start": 1191.34,
      "duration": 4.32
    },
    {
      "text": "because the incentive is for everyone to",
      "start": 1193.8,
      "duration": 3.3
    },
    {
      "text": "bend the truth around them in order to",
      "start": 1195.66,
      "duration": 3.54
    },
    {
      "text": "gain access to their wealth or their",
      "start": 1197.1,
      "duration": 2.82
    },
    {
      "text": "power or",
      "start": 1199.2,
      "duration": 6.27
    },
    {
      "text": "their beauty this is a man who I believe",
      "start": 1199.92,
      "duration": 8.64
    },
    {
      "text": "had a terrible childhood terrible",
      "start": 1205.47,
      "duration": 7.92
    },
    {
      "text": "parents and has lived consequence-free",
      "start": 1208.56,
      "duration": 6.78
    },
    {
      "text": "and that's a really really terrible",
      "start": 1213.39,
      "duration": 3.96
    },
    {
      "text": "combination for people not just for an",
      "start": 1215.34,
      "duration": 4.65
    },
    {
      "text": "individual for a country as a whole so",
      "start": 1217.35,
      "duration": 6.03
    },
    {
      "text": "the fact that he wanders into a",
      "start": 1219.99,
      "duration": 8.88
    },
    {
      "text": "black-tie event and doesn't even notice",
      "start": 1223.38,
      "duration": 6.99
    },
    {
      "text": "that really nobody else is stressed to",
      "start": 1228.87,
      "duration": 3.32
    },
    {
      "text": "have nobody else is dressed up and",
      "start": 1230.37,
      "duration": 4.95
    },
    {
      "text": "smiles and grins and takes pictures with",
      "start": 1232.19,
      "duration": 4.33
    },
    {
      "text": "all of the awkward people who were",
      "start": 1235.32,
      "duration": 2.49
    },
    {
      "text": "smiling and grinning because of his",
      "start": 1236.52,
      "duration": 3.03
    },
    {
      "text": "power and his prestige and his pedigree",
      "start": 1237.81,
      "duration": 6.23
    },
    {
      "text": "that is somebody of course who has no",
      "start": 1239.55,
      "duration": 7.5
    },
    {
      "text": "capacity to process what life is like",
      "start": 1244.04,
      "duration": 6.49
    },
    {
      "text": "for ordinary Canadians which is why he",
      "start": 1247.05,
      "duration": 5.16
    },
    {
      "text": "refuses to deal with the concerns of",
      "start": 1250.53,
      "duration": 3.99
    },
    {
      "text": "ordinary Canadians which is basically",
      "start": 1252.21,
      "duration": 4.8
    },
    {
      "text": "immigration as immigration to Canada",
      "start": 1254.52,
      "duration": 4.41
    },
    {
      "text": "which is going to push whites into a",
      "start": 1257.01,
      "duration": 4.59
    },
    {
      "text": "minority position within a half a",
      "start": 1258.93,
      "duration": 5.16
    },
    {
      "text": "century or so but 20% of the population",
      "start": 1261.6,
      "duration": 4.86
    },
    {
      "text": "is going to be white and that's a big",
      "start": 1264.09,
      "duration": 3.9
    },
    {
      "text": "problem we see it in Zimbabwe is a big",
      "start": 1266.46,
      "duration": 2.73
    },
    {
      "text": "problem we've seen it in South Africa",
      "start": 1267.99,
      "duration": 2.76
    },
    {
      "text": "it's a huge problem and a dangerous",
      "start": 1269.19,
      "duration": 4.29
    },
    {
      "text": "problem and of course Canadians want to",
      "start": 1270.75,
      "duration": 4.08
    },
    {
      "text": "have a conversation about this which he",
      "start": 1273.48,
      "duration": 2.97
    },
    {
      "text": "refuses to allow esters of course the",
      "start": 1274.83,
      "duration": 2.97
    },
    {
      "text": "mainstream media broadcast is that",
      "start": 1276.45,
      "duration": 2.94
    },
    {
      "text": "Justin Trudeau has showered his 600",
      "start": 1277.8,
      "duration": 2.79
    },
    {
      "text": "million dollars on to buy their",
      "start": 1279.39,
      "duration": 3.63
    },
    {
      "text": "allegiance and the other is the vast",
      "start": 1280.59,
      "duration": 4.35
    },
    {
      "text": "majority of Canadians well over 70",
      "start": 1283.02,
      "duration": 3.03
    },
    {
      "text": "percent believe that political",
      "start": 1284.94,
      "duration": 2.37
    },
    {
      "text": "correctness has gone way too far",
      "start": 1286.05,
      "duration": 3.9
    },
    {
      "text": "and having Waldorf sealed-off areas",
      "start": 1287.31,
      "duration": 4.32
    },
    {
      "text": "where discussion is impossible because",
      "start": 1289.95,
      "duration": 3
    },
    {
      "text": "of verbal abuse and character",
      "start": 1291.63,
      "duration": 3.62
    },
    {
      "text": "assassination and slander and libel is",
      "start": 1292.95,
      "duration": 5.28
    },
    {
      "text": "antithetical to the nature of a free",
      "start": 1295.25,
      "duration": 4.69
    },
    {
      "text": "society you know it's because people",
      "start": 1298.23,
      "duration": 3.24
    },
    {
      "text": "call it like cancelled culture it's not",
      "start": 1299.94,
      "duration": 2.85
    },
    {
      "text": "canceled culture like you know where you",
      "start": 1301.47,
      "duration": 2.91
    },
    {
      "text": "try and get people deep platformed and",
      "start": 1302.79,
      "duration": 3.75
    },
    {
      "text": "thrown off payment processes and and you",
      "start": 1304.38,
      "duration": 3.72
    },
    {
      "text": "get their advertisers to stop and you",
      "start": 1306.54,
      "duration": 3.09
    },
    {
      "text": "shut down their events and their",
      "start": 1308.1,
      "duration": 2.91
    },
    {
      "text": "speeches which of course has happened to",
      "start": 1309.63,
      "duration": 3.27
    },
    {
      "text": "me in a variety of places it's not",
      "start": 1311.01,
      "duration": 4.89
    },
    {
      "text": "canceled culture it's not good because",
      "start": 1312.9,
      "duration": 5.1
    },
    {
      "text": "culture you see culture is the sparks",
      "start": 1315.9,
      "duration": 4.26
    },
    {
      "text": "that are thrown off by strong",
      "start": 1318,
      "duration": 3.51
    },
    {
      "text": "disagreements in the public square",
      "start": 1320.16,
      "duration": 4.14
    },
    {
      "text": "that's what culture is culture is when",
      "start": 1321.51,
      "duration": 4.44
    },
    {
      "text": "the sword of tradition meets the",
      "start": 1324.3,
      "duration": 5.55
    },
    {
      "text": "whetstone of reason sparks get thrown up",
      "start": 1325.95,
      "duration": 6
    },
    {
      "text": "and and creativity flourishes in that",
      "start": 1329.85,
      "duration": 3.4
    },
    {
      "text": "kind of environment that's",
      "start": 1331.95,
      "duration": 6.34
    },
    {
      "text": "culture cancel culture is the opposite",
      "start": 1333.25,
      "duration": 6.71
    },
    {
      "text": "it creates a void of conformity and",
      "start": 1338.29,
      "duration": 4.44
    },
    {
      "text": "treading sloping shoulder nose to the",
      "start": 1339.96,
      "duration": 6.19
    },
    {
      "text": "ground MPC boredom where you know",
      "start": 1342.73,
      "duration": 4.59
    },
    {
      "text": "everything that everyone's going to say",
      "start": 1346.15,
      "duration": 3.42
    },
    {
      "text": "because free speech exists only on paper",
      "start": 1347.32,
      "duration": 4.68
    },
    {
      "text": "not in the life mind and conversations",
      "start": 1349.57,
      "duration": 5.52
    },
    {
      "text": "of the community we need to have",
      "start": 1352,
      "duration": 6.53
    },
    {
      "text": "essential conversations in the world",
      "start": 1355.09,
      "duration": 7.47
    },
    {
      "text": "privilege traumatized fools who are in",
      "start": 1358.53,
      "duration": 6.37
    },
    {
      "text": "the way of us having these essential",
      "start": 1362.56,
      "duration": 3.69
    },
    {
      "text": "conversations about the nature of",
      "start": 1364.9,
      "duration": 2.97
    },
    {
      "text": "society not just in Canada but in the",
      "start": 1366.25,
      "duration": 7.86
    },
    {
      "text": "West well you know it's like trying to",
      "start": 1367.87,
      "duration": 9.06
    },
    {
      "text": "have a reasonable conversation with a",
      "start": 1374.11,
      "duration": 5.75
    },
    {
      "text": "car alarm going off right next to you",
      "start": 1376.93,
      "duration": 7.04
    },
    {
      "text": "you can't talk because of all the noise",
      "start": 1379.86,
      "duration": 7
    },
    {
      "text": "so nuts quiet things down let's get the",
      "start": 1383.97,
      "duration": 8.31
    },
    {
      "text": "adults back in power and let's talk",
      "start": 1386.86,
      "duration": 5.42
    }
  ],
  "Errors": null,
  "TranscriptStderr": null
}