{
  "Title": "The Truth about American Teachers (and Education)",
  "Id": "XwoM7jjBHH8",
  "Transcript": [
    {
      "text": "good morning everybody hope you're doing",
      "start": 0.06,
      "duration": 5.489
    },
    {
      "text": "well good morning good morning it's time",
      "start": 3.3,
      "duration": 4.799
    },
    {
      "text": "to philosophize it's a lovely day in the",
      "start": 5.549,
      "duration": 3.421
    },
    {
      "text": "neighborhood",
      "start": 8.099,
      "duration": 4.141
    },
    {
      "text": "lovely day for thinking good I hope",
      "start": 8.97,
      "duration": 4.65
    },
    {
      "text": "you're doing all well thank you for",
      "start": 12.24,
      "duration": 3.18
    },
    {
      "text": "dragging your philosophically bleary",
      "start": 13.62,
      "duration": 3.69
    },
    {
      "text": "eyes out of bed at this crack of 10:00",
      "start": 15.42,
      "duration": 4.76
    },
    {
      "text": "a.m. getting up at the crack of noon and",
      "start": 17.31,
      "duration": 5.94
    },
    {
      "text": "it's great to chat with everyone thank",
      "start": 20.18,
      "duration": 4.3
    },
    {
      "text": "you so much for your time and for your",
      "start": 23.25,
      "duration": 4.5
    },
    {
      "text": "support so I'm going to yell give it to",
      "start": 24.48,
      "duration": 4.709
    },
    {
      "text": "one more answer the martial arts thing I",
      "start": 27.75,
      "duration": 3.9
    },
    {
      "text": "really want to thank everyone for giving",
      "start": 29.189,
      "duration": 4.201
    },
    {
      "text": "thoughts and opinions and ideas it's",
      "start": 31.65,
      "duration": 3.179
    },
    {
      "text": "been very very interesting and I",
      "start": 33.39,
      "duration": 3.3
    },
    {
      "text": "appreciate it's good to be controversial",
      "start": 34.829,
      "duration": 3.631
    },
    {
      "text": "but it means that you're either",
      "start": 36.69,
      "duration": 3.33
    },
    {
      "text": "completely right or you're doing",
      "start": 38.46,
      "duration": 3.869
    },
    {
      "text": "something completely useful so time will",
      "start": 40.02,
      "duration": 2.73
    },
    {
      "text": "tell",
      "start": 42.329,
      "duration": 1.951
    },
    {
      "text": "let's talk a little bit more about",
      "start": 42.75,
      "duration": 4.559
    },
    {
      "text": "education I think it's quite interesting",
      "start": 44.28,
      "duration": 5.58
    },
    {
      "text": "so you know the teachers all sort of",
      "start": 47.309,
      "duration": 4.861
    },
    {
      "text": "talking about being underpaid underpaid",
      "start": 49.86,
      "duration": 4.08
    },
    {
      "text": "well it's hard to find some of the new",
      "start": 52.17,
      "duration": 5.549
    },
    {
      "text": "information but in 2001 and this would",
      "start": 53.94,
      "duration": 5.31
    },
    {
      "text": "be of course compared to the private",
      "start": 57.719,
      "duration": 2.941
    },
    {
      "text": "sector and I bet you that gap is well I",
      "start": 59.25,
      "duration": 3
    },
    {
      "text": "know for sure that gap is whitened quite",
      "start": 60.66,
      "duration": 4.109
    },
    {
      "text": "a bit weekly pay for teachers in 2001",
      "start": 62.25,
      "duration": 5.1
    },
    {
      "text": "was about the same idea within 10% as",
      "start": 64.769,
      "duration": 4.261
    },
    {
      "text": "for accountants biological and life",
      "start": 67.35,
      "duration": 3.48
    },
    {
      "text": "scientists registered nerdist nurses and",
      "start": 69.03,
      "duration": 4.47
    },
    {
      "text": "editors and reporters teachers and a",
      "start": 70.83,
      "duration": 4.02
    },
    {
      "text": "heck of a lot more than social workers",
      "start": 73.5,
      "duration": 3.78
    },
    {
      "text": "and artists in fact the only group out",
      "start": 74.85,
      "duration": 4.26
    },
    {
      "text": "of seven professionals in the survey",
      "start": 77.28,
      "duration": 3.87
    },
    {
      "text": "with a higher weekly pay were lawyers",
      "start": 79.11,
      "duration": 5.549
    },
    {
      "text": "and judges and they of course don't get",
      "start": 81.15,
      "duration": 5.46
    },
    {
      "text": "summer vacations PD days of professional",
      "start": 84.659,
      "duration": 3.691
    },
    {
      "text": "development days off snow days federal",
      "start": 86.61,
      "duration": 4.71
    },
    {
      "text": "holidays and so on so hourly wages and",
      "start": 88.35,
      "duration": 4.53
    },
    {
      "text": "this is based on self-reported data",
      "start": 91.32,
      "duration": 3.63
    },
    {
      "text": "compiled by the Bureau of Labor",
      "start": 92.88,
      "duration": 4.65
    },
    {
      "text": "Statistics teachers earn more per hour",
      "start": 94.95,
      "duration": 4.47
    },
    {
      "text": "than architects civil engineers",
      "start": 97.53,
      "duration": 3.51
    },
    {
      "text": "mechanical engineers statisticians",
      "start": 99.42,
      "duration": 3
    },
    {
      "text": "biological and life scientists",
      "start": 101.04,
      "duration": 2.789
    },
    {
      "text": "atmospheric and space scientists",
      "start": 102.42,
      "duration": 3.269
    },
    {
      "text": "registered nurses physical therapists",
      "start": 103.829,
      "duration": 3.691
    },
    {
      "text": "university level foreign language",
      "start": 105.689,
      "duration": 3.39
    },
    {
      "text": "teachers librarians technical writers",
      "start": 107.52,
      "duration": 3.3
    },
    {
      "text": "musicians artists and editors and",
      "start": 109.079,
      "duration": 4.171
    },
    {
      "text": "reporters and of course you get massive",
      "start": 110.82,
      "duration": 4.409
    },
    {
      "text": "pensions you have health insurance plans",
      "start": 113.25,
      "duration": 4.02
    },
    {
      "text": "which mostly require no contribution and",
      "start": 115.229,
      "duration": 5.721
    },
    {
      "text": "you have pretty much absolute job",
      "start": 117.27,
      "duration": 7.26
    },
    {
      "text": "security now maybe the very best people",
      "start": 120.95,
      "duration": 4.9
    },
    {
      "text": "are going into education and that's why",
      "start": 124.53,
      "duration": 2.85
    },
    {
      "text": "they can command such high salaries are",
      "start": 125.85,
      "duration": 4.799
    },
    {
      "text": "sadly the data does not support them",
      "start": 127.38,
      "duration": 5.85
    },
    {
      "text": "so undergraduate education majors",
      "start": 130.649,
      "duration": 5.161
    },
    {
      "text": "typically have lower SAT and a CT scores",
      "start": 133.23,
      "duration": 4.619
    },
    {
      "text": "than other students and there's quite a",
      "start": 135.81,
      "duration": 3.87
    },
    {
      "text": "strong correlation the lower the quality",
      "start": 137.849,
      "duration": 3.121
    },
    {
      "text": "if we hunt a graduate institution a",
      "start": 139.68,
      "duration": 3.54
    },
    {
      "text": "person attends the more likely he or she",
      "start": 140.97,
      "duration": 3.799
    },
    {
      "text": "is to wind up in the teaching profession",
      "start": 143.22,
      "duration": 6.12
    },
    {
      "text": "in 2001 only 60% of education students",
      "start": 144.769,
      "duration": 5.881
    },
    {
      "text": "ie people who want to become teachers",
      "start": 149.34,
      "duration": 4.11
    },
    {
      "text": "only 60% of education students could",
      "start": 150.65,
      "duration": 4.899
    },
    {
      "text": "pass the basic teacher licensing exam in",
      "start": 153.45,
      "duration": 4.97
    },
    {
      "text": "Virginia Virginia stall what responds",
      "start": 155.549,
      "duration": 4.651
    },
    {
      "text": "well the State Board of Education",
      "start": 158.42,
      "duration": 4.48
    },
    {
      "text": "lowered the requirements hoo-hoo-hoo-hoo",
      "start": 160.2,
      "duration": 7.379
    },
    {
      "text": "isn't that as precious in Massachusetts",
      "start": 162.9,
      "duration": 6.479
    },
    {
      "text": "they know at the passing grade for basic",
      "start": 167.579,
      "duration": 3.871
    },
    {
      "text": "skills tests for teachers in 1998 when",
      "start": 169.379,
      "duration": 3.541
    },
    {
      "text": "nearly two-thirds of the teachers failed",
      "start": 171.45,
      "duration": 1.8
    },
    {
      "text": "it",
      "start": 172.92,
      "duration": 3.75
    },
    {
      "text": "so failed the test you get an F no no if",
      "start": 173.25,
      "duration": 4.65
    },
    {
      "text": "you're a teacher who's administering the",
      "start": 176.67,
      "duration": 2.76
    },
    {
      "text": "test you get to take the test again but",
      "start": 177.9,
      "duration": 2.789
    },
    {
      "text": "they make it a whole lot easier for you",
      "start": 179.43,
      "duration": 3.959
    },
    {
      "text": "and I've had some questions about this",
      "start": 180.689,
      "duration": 5.041
    },
    {
      "text": "information and I'll put the sources for",
      "start": 183.389,
      "duration": 5.791
    },
    {
      "text": "this in the notes for the podcast in the",
      "start": 185.73,
      "duration": 7.319
    },
    {
      "text": "link or the video below so professor the",
      "start": 189.18,
      "duration": 6.239
    },
    {
      "text": "Charles shakes shaft interesting",
      "start": 193.049,
      "duration": 4.02
    },
    {
      "text": "analyzed data from the American",
      "start": 195.419,
      "duration": 2.91
    },
    {
      "text": "Association of University Women",
      "start": 197.069,
      "duration": 3.121
    },
    {
      "text": "Education Foundation survey and quote",
      "start": 198.329,
      "duration": 5.581
    },
    {
      "text": "estimates that between 1991 and 2000",
      "start": 200.19,
      "duration": 5.669
    },
    {
      "text": "roughly 290 thousand students were",
      "start": 203.91,
      "duration": 4.409
    },
    {
      "text": "subject to physical sexual abuse by",
      "start": 205.859,
      "duration": 5.1
    },
    {
      "text": "teachers or other school personnel right",
      "start": 208.319,
      "duration": 4.111
    },
    {
      "text": "so you understand burned priests and",
      "start": 210.959,
      "duration": 2.911
    },
    {
      "text": "coaches do it everyone goes insane",
      "start": 212.43,
      "duration": 3.149
    },
    {
      "text": "that's right they should but have you",
      "start": 213.87,
      "duration": 4.17
    },
    {
      "text": "heard this statistic that almost a third",
      "start": 215.579,
      "duration": 5.071
    },
    {
      "text": "of a million students were subjected to",
      "start": 218.04,
      "duration": 4.229
    },
    {
      "text": "physical sexual abuse this is not",
      "start": 220.65,
      "duration": 3.089
    },
    {
      "text": "emotional abuse this is not physical",
      "start": 222.269,
      "duration": 3.481
    },
    {
      "text": "abuse this is not verbal abuse this is",
      "start": 223.739,
      "duration": 4.021
    },
    {
      "text": "just physical sexual abuse by teachers",
      "start": 225.75,
      "duration": 3.75
    },
    {
      "text": "or other school personnel do you hear",
      "start": 227.76,
      "duration": 6.089
    },
    {
      "text": "about that heck no only 12% of American",
      "start": 229.5,
      "duration": 6.9
    },
    {
      "text": "students attend private schools but 39%",
      "start": 233.849,
      "duration": 3.961
    },
    {
      "text": "of Chicago public school teachers send",
      "start": 236.4,
      "duration": 3.78
    },
    {
      "text": "their children to private schools and of",
      "start": 237.81,
      "duration": 3.66
    },
    {
      "text": "course those politicians who were",
      "start": 240.18,
      "duration": 3.179
    },
    {
      "text": "against school choice all send their",
      "start": 241.47,
      "duration": 3.12
    },
    {
      "text": "kids to private schools",
      "start": 243.359,
      "duration": 3.09
    },
    {
      "text": "President Obama Nancy Pelosi Jesse",
      "start": 244.59,
      "duration": 4.829
    },
    {
      "text": "Jackson Hillary Clinton and Al Gore to",
      "start": 246.449,
      "duration": 6.951
    },
    {
      "text": "name just a few and how is all of this",
      "start": 249.419,
      "duration": 7.38
    },
    {
      "text": "wonderful education year after year",
      "start": 253.4,
      "duration": 5.11
    },
    {
      "text": "after year of monopoly education doing",
      "start": 256.799,
      "duration": 3.69
    },
    {
      "text": "well the Oklahoma counts the Public",
      "start": 258.51,
      "duration": 3.779
    },
    {
      "text": "Affairs Commission a civic education pol",
      "start": 260.489,
      "duration": 4.251
    },
    {
      "text": "among public school students",
      "start": 262.289,
      "duration": 4.921
    },
    {
      "text": "77% didn't know that George Washington",
      "start": 264.74,
      "duration": 4.75
    },
    {
      "text": "was the first president couldn't name",
      "start": 267.21,
      "duration": 4.38
    },
    {
      "text": "Thomas Jefferson as the author of the",
      "start": 269.49,
      "duration": 4.74
    },
    {
      "text": "Declaration of Independence and only 2.8",
      "start": 271.59,
      "duration": 4.02
    },
    {
      "text": "percent of the students actually passed",
      "start": 274.23,
      "duration": 5.13
    },
    {
      "text": "this citizenship test the Goldwater",
      "start": 275.61,
      "duration": 5.37
    },
    {
      "text": "Institute of Phoenix at the same survey",
      "start": 279.36,
      "duration": 3.03
    },
    {
      "text": "and only three and a half percent of",
      "start": 280.98,
      "duration": 4.76
    },
    {
      "text": "students passed the civics test",
      "start": 282.39,
      "duration": 5.49
    },
    {
      "text": "recording to National Research Council",
      "start": 285.74,
      "duration": 4.33
    },
    {
      "text": "report and only 28 percent of high",
      "start": 287.88,
      "duration": 3.6
    },
    {
      "text": "school science teachers consistently",
      "start": 290.07,
      "duration": 2.6
    },
    {
      "text": "follow the National Research Council",
      "start": 291.48,
      "duration": 4.41
    },
    {
      "text": "guidelines on teaching evolution and 13",
      "start": 292.67,
      "duration": 4.69
    },
    {
      "text": "percent of those teachers explicitly",
      "start": 295.89,
      "duration": 2.79
    },
    {
      "text": "advocate creationism or intelligent",
      "start": 297.36,
      "duration": 4.98
    },
    {
      "text": "design how how is our critical thinking",
      "start": 298.68,
      "duration": 5.19
    },
    {
      "text": "skills on the eve of the first Iraq war",
      "start": 302.34,
      "duration": 3.36
    },
    {
      "text": "almost 70 percent of Americans thought",
      "start": 303.87,
      "duration": 3.57
    },
    {
      "text": "Saddam Hussein was involved in the 9/11",
      "start": 305.7,
      "duration": 3.84
    },
    {
      "text": "attacks four years later even though",
      "start": 307.44,
      "duration": 3.36
    },
    {
      "text": "proof have been provided that he was not",
      "start": 309.54,
      "duration": 5.78
    },
    {
      "text": "over third still believed that he wants",
      "start": 310.8,
      "duration": 4.52
    },
    {
      "text": "an Antonette sorry an analysis of",
      "start": 316.79,
      "duration": 5.14
    },
    {
      "text": "300,000 torrents creativity test scores",
      "start": 320.01,
      "duration": 3.72
    },
    {
      "text": "of adults and children in the u.s. found",
      "start": 321.93,
      "duration": 4.17
    },
    {
      "text": "creativity and IQ scores rose steadily",
      "start": 323.73,
      "duration": 4.17
    },
    {
      "text": "until 1990 of them and were in decline",
      "start": 326.1,
      "duration": 3.78
    },
    {
      "text": "thereafter and the most serious decline",
      "start": 327.9,
      "duration": 4.82
    },
    {
      "text": "occurred for the youngest children in",
      "start": 329.88,
      "duration": 5.76
    },
    {
      "text": "1966 Oh a banner year for the birth of",
      "start": 332.72,
      "duration": 6.58
    },
    {
      "text": "philosophy I would say in 1966 267 about",
      "start": 335.64,
      "duration": 5.4
    },
    {
      "text": "one and a half million students who took",
      "start": 339.3,
      "duration": 4.47
    },
    {
      "text": "the verbal portion of the SAT had a",
      "start": 341.04,
      "duration": 6.75
    },
    {
      "text": "score of 700 or more and sorry a score",
      "start": 343.77,
      "duration": 8.01
    },
    {
      "text": "of 700 or more was achieved by 33,000",
      "start": 347.79,
      "duration": 6.3
    },
    {
      "text": "students in 86 87 almost two million",
      "start": 351.78,
      "duration": 4.05
    },
    {
      "text": "students took the test and fewer than",
      "start": 354.09,
      "duration": 6.18
    },
    {
      "text": "14,000 achieves that score should we go",
      "start": 355.83,
      "duration": 6.71
    },
    {
      "text": "on one or two more we could go on",
      "start": 360.27,
      "duration": 4.29
    },
    {
      "text": "according to the National Endowment for",
      "start": 362.54,
      "duration": 4.54
    },
    {
      "text": "the Arts report in 82 1982 do you think",
      "start": 364.56,
      "duration": 5.49
    },
    {
      "text": "this is better yeah 82 percent of",
      "start": 367.08,
      "duration": 5.01
    },
    {
      "text": "college graduates read novels or poems",
      "start": 370.05,
      "duration": 3.42
    },
    {
      "text": "for pleasure two decades two decades",
      "start": 372.09,
      "duration": 4.35
    },
    {
      "text": "later only 67 percent did more than 40",
      "start": 373.47,
      "duration": 5.1
    },
    {
      "text": "percent of Americans under 44 did not",
      "start": 376.44,
      "duration": 3.96
    },
    {
      "text": "read a single book fiction or nonfiction",
      "start": 378.57,
      "duration": 4.05
    },
    {
      "text": "over the course of the year the",
      "start": 380.4,
      "duration": 3.69
    },
    {
      "text": "proportion of 17 year olds who read",
      "start": 382.62,
      "duration": 3.48
    },
    {
      "text": "nothing unless required by school has",
      "start": 384.09,
      "duration": 6.36
    },
    {
      "text": "doubled between 1984 and 2004 between",
      "start": 386.1,
      "duration": 6.96
    },
    {
      "text": "1968 and 1988 the average sound byte on",
      "start": 390.45,
      "duration": 4.88
    },
    {
      "text": "the news for a presidential candidate",
      "start": 393.06,
      "duration": 4.47
    },
    {
      "text": "featuring the candidates own voice has",
      "start": 395.33,
      "duration": 3.02
    },
    {
      "text": "dropped from 42",
      "start": 397.53,
      "duration": 2.2
    },
    {
      "text": "point three seconds to nine point eight",
      "start": 398.35,
      "duration": 4.41
    },
    {
      "text": "seconds by 98 by 2002 according to",
      "start": 399.73,
      "duration": 5.01
    },
    {
      "text": "another Harvard study the bike was down",
      "start": 402.76,
      "duration": 5.46
    },
    {
      "text": "to seven point eight seconds more than",
      "start": 404.74,
      "duration": 4.74
    },
    {
      "text": "fifty percent of students at four-year",
      "start": 408.22,
      "duration": 2.61
    },
    {
      "text": "schools in more than seventy five",
      "start": 409.48,
      "duration": 3.84
    },
    {
      "text": "percent at 2-year colleges this is after",
      "start": 410.83,
      "duration": 4.05
    },
    {
      "text": "high school lacked the skills to perform",
      "start": 413.32,
      "duration": 4.47
    },
    {
      "text": "complex literary tasks this is three",
      "start": 414.88,
      "duration": 4.62
    },
    {
      "text": "kinds of literacy analyzing news stories",
      "start": 417.79,
      "duration": 3.3
    },
    {
      "text": "and other pros understanding documents",
      "start": 419.5,
      "duration": 2.79
    },
    {
      "text": "in having the math skills needed for",
      "start": 421.09,
      "duration": 4.23
    },
    {
      "text": "checkbooks or restaurant tips this is",
      "start": 422.29,
      "duration": 6.41
    },
    {
      "text": "completely shocking completely shocking",
      "start": 425.32,
      "duration": 5.52
    },
    {
      "text": "almost 20% of students pursuing",
      "start": 428.7,
      "duration": 3.91
    },
    {
      "text": "four-year college degrees had only basic",
      "start": 430.84,
      "duration": 3.54
    },
    {
      "text": "quantitative skills for example the",
      "start": 432.61,
      "duration": 3.15
    },
    {
      "text": "students could not estimate if their car",
      "start": 434.38,
      "duration": 2.85
    },
    {
      "text": "had enough gas to get to the service",
      "start": 435.76,
      "duration": 4.86
    },
    {
      "text": "station most Chicago Public Schools",
      "start": 437.23,
      "duration": 5.76
    },
    {
      "text": "alumni must take remedial classes at the",
      "start": 440.62,
      "duration": 4.98
    },
    {
      "text": "Chicago City Colleges 74% must take",
      "start": 442.99,
      "duration": 4.95
    },
    {
      "text": "remedial English 94% must take remedial",
      "start": 445.6,
      "duration": 5.88
    },
    {
      "text": "math more than 20% of adults in the US",
      "start": 447.94,
      "duration": 5.79
    },
    {
      "text": "read at or below a 5th grade level far",
      "start": 451.48,
      "duration": 3.87
    },
    {
      "text": "below the level needed to earn a living",
      "start": 453.73,
      "duration": 6.03
    },
    {
      "text": "wage nearly half of America's adults the",
      "start": 455.35,
      "duration": 5.67
    },
    {
      "text": "poor readers are functionally illiterate",
      "start": 459.76,
      "duration": 3.42
    },
    {
      "text": "they can't carry out simple tasks like",
      "start": 461.02,
      "duration": 3.42
    },
    {
      "text": "balancing checkbooks reading drugs",
      "start": 463.18,
      "duration": 3.69
    },
    {
      "text": "liquid labels or writing essays for a",
      "start": 464.44,
      "duration": 4.5
    },
    {
      "text": "job 44 million adults in the US can't",
      "start": 466.87,
      "duration": 3.8
    },
    {
      "text": "read well enough to read a simple story",
      "start": 468.94,
      "duration": 6.29
    },
    {
      "text": "to a child do we need to go on",
      "start": 470.67,
      "duration": 6.4
    },
    {
      "text": "approximately 50% of the nation's",
      "start": 475.23,
      "duration": 4.12
    },
    {
      "text": "unemployed youth ages 16 to 21 are",
      "start": 477.07,
      "duration": 4.14
    },
    {
      "text": "functionally illiterate with virtually",
      "start": 479.35,
      "duration": 5.33
    },
    {
      "text": "no prospects of obtaining good jobs",
      "start": 481.21,
      "duration": 5.73
    },
    {
      "text": "well anyway because let it go on but I",
      "start": 484.68,
      "duration": 3.73
    },
    {
      "text": "mean this is absolutely catastrophic and",
      "start": 486.94,
      "duration": 2.91
    },
    {
      "text": "one of the things I think that's",
      "start": 488.41,
      "duration": 2.94
    },
    {
      "text": "happened is that people who were older",
      "start": 489.85,
      "duration": 4.32
    },
    {
      "text": "and you know in my sort of category the",
      "start": 491.35,
      "duration": 4.35
    },
    {
      "text": "education that we got wasn't so bad",
      "start": 494.17,
      "duration": 4.5
    },
    {
      "text": "remember it takes a generation it takes",
      "start": 495.7,
      "duration": 7.32
    },
    {
      "text": "a generation after the socialization of",
      "start": 498.67,
      "duration": 6.99
    },
    {
      "text": "a particular program for the real right",
      "start": 503.02,
      "duration": 5.49
    },
    {
      "text": "to set in right so I was being taught",
      "start": 505.66,
      "duration": 6.24
    },
    {
      "text": "like the okay so the sector's public",
      "start": 508.51,
      "duration": 4.89
    },
    {
      "text": "sector unions really took over education",
      "start": 511.9,
      "duration": 3.15
    },
    {
      "text": "and made it impossible to fire people in",
      "start": 513.4,
      "duration": 4.35
    },
    {
      "text": "the 60s so in the 70s and 80s you still",
      "start": 515.05,
      "duration": 6.869
    },
    {
      "text": "had teachers who'd come in and word came",
      "start": 517.75,
      "duration": 5.82
    },
    {
      "text": "in through the voluntary system I mean",
      "start": 521.919,
      "duration": 3.331
    },
    {
      "text": "voluntary relative to is still",
      "start": 523.57,
      "duration": 3.03
    },
    {
      "text": "government systems still pay for through",
      "start": 525.25,
      "duration": 3.12
    },
    {
      "text": "taxation but you weren't heavily",
      "start": 526.6,
      "duration": 3.21
    },
    {
      "text": "unionized and you could get fired for",
      "start": 528.37,
      "duration": 4.269
    },
    {
      "text": "being a bad teacher so in the 70s and 80",
      "start": 529.81,
      "duration": 5.29
    },
    {
      "text": "education wasn't so bad it's like all of",
      "start": 532.639,
      "duration": 4.351
    },
    {
      "text": "the people in NASA who came in in the",
      "start": 535.1,
      "duration": 3.12
    },
    {
      "text": "original space program came from the",
      "start": 536.99,
      "duration": 2.61
    },
    {
      "text": "private sector and were really good and",
      "start": 538.22,
      "duration": 2.789
    },
    {
      "text": "kept that work ethic and then it decayed",
      "start": 539.6,
      "duration": 2.969
    },
    {
      "text": "over time that's why you went to the",
      "start": 541.009,
      "duration": 2.94
    },
    {
      "text": "moon very quickly and then had the Space",
      "start": 542.569,
      "duration": 4.741
    },
    {
      "text": "Shuttle for the next 30 years and so the",
      "start": 543.949,
      "duration": 4.83
    },
    {
      "text": "education that people received in the",
      "start": 547.31,
      "duration": 4.499
    },
    {
      "text": "70s and 80s maybe even into the early",
      "start": 548.779,
      "duration": 5.1
    },
    {
      "text": "90s was not nearly as bad as it is now",
      "start": 551.809,
      "duration": 5.82
    },
    {
      "text": "because now it's a whole different kind",
      "start": 553.879,
      "duration": 6.27
    },
    {
      "text": "of teacher who's in there and of course",
      "start": 557.629,
      "duration": 3.51
    },
    {
      "text": "the people who have a lot of influence",
      "start": 560.149,
      "duration": 4.23
    },
    {
      "text": "look back and say education was pretty",
      "start": 561.139,
      "duration": 5.07
    },
    {
      "text": "good for me these kids must be",
      "start": 564.379,
      "duration": 5.58
    },
    {
      "text": "unmotivated well I would doubt that a",
      "start": 566.209,
      "duration": 5.221
    },
    {
      "text": "human nature doesn't really change that",
      "start": 569.959,
      "duration": 4.62
    },
    {
      "text": "much generation to generation so I would",
      "start": 571.43,
      "duration": 5.19
    },
    {
      "text": "look at the quality of education now",
      "start": 574.579,
      "duration": 3.87
    },
    {
      "text": "people have said to me a very",
      "start": 576.62,
      "duration": 3.24
    },
    {
      "text": "interesting thing they say well it's the",
      "start": 578.449,
      "duration": 3.781
    },
    {
      "text": "families it's the families well the you",
      "start": 579.86,
      "duration": 3.779
    },
    {
      "text": "know you need to read the be eater a",
      "start": 582.23,
      "duration": 2.94
    },
    {
      "text": "biography of Michelle Rhee it's",
      "start": 583.639,
      "duration": 2.731
    },
    {
      "text": "available on Kindle it's a couple of",
      "start": 585.17,
      "duration": 5.31
    },
    {
      "text": "bucks you can also read how are the worm",
      "start": 586.37,
      "duration": 5.31
    },
    {
      "text": "in the Apple ethic is called healthy",
      "start": 590.48,
      "duration": 2.729
    },
    {
      "text": "teachers unions destroyed public",
      "start": 591.68,
      "duration": 5.07
    },
    {
      "text": "education and you need to know that when",
      "start": 593.209,
      "duration": 5.221
    },
    {
      "text": "bad teachers are replaced with good",
      "start": 596.75,
      "duration": 4.129
    },
    {
      "text": "teachers students do a whole lot better",
      "start": 598.43,
      "duration": 5.19
    },
    {
      "text": "their teachers have a huge huge impact",
      "start": 600.879,
      "duration": 5.801
    },
    {
      "text": "on students I mean you understand",
      "start": 603.62,
      "duration": 5.699
    },
    {
      "text": "teachers see students more than parents",
      "start": 606.68,
      "duration": 5.849
    },
    {
      "text": "do for the most part so I think and",
      "start": 609.319,
      "duration": 5.58
    },
    {
      "text": "certainly interact with them more so I",
      "start": 612.529,
      "duration": 5.011
    },
    {
      "text": "think that's important that scores do go",
      "start": 614.899,
      "duration": 4.23
    },
    {
      "text": "up when the quality of education it",
      "start": 617.54,
      "duration": 3.839
    },
    {
      "text": "improves and not just empty scores but",
      "start": 619.129,
      "duration": 3.93
    },
    {
      "text": "it's actually quite useful scores like",
      "start": 621.379,
      "duration": 3.421
    },
    {
      "text": "can you read and understand something so",
      "start": 623.059,
      "duration": 4.26
    },
    {
      "text": "it to say it's just families is nonsense",
      "start": 624.8,
      "duration": 4.769
    },
    {
      "text": "families of course are important but the",
      "start": 627.319,
      "duration": 3.57
    },
    {
      "text": "recent families are so important is",
      "start": 629.569,
      "duration": 3.901
    },
    {
      "text": "because education is so bad if you have",
      "start": 630.889,
      "duration": 4.471
    },
    {
      "text": "a good family you get educated at home",
      "start": 633.47,
      "duration": 5.01
    },
    {
      "text": "and that gives you a huge advantage if",
      "start": 635.36,
      "duration": 4.74
    },
    {
      "text": "you have a bad family and you're not",
      "start": 638.48,
      "duration": 3.299
    },
    {
      "text": "educated at school you're screwed well",
      "start": 640.1,
      "duration": 2.729
    },
    {
      "text": "you become part of the permanent",
      "start": 641.779,
      "duration": 3.36
    },
    {
      "text": "underclass that socialism has created",
      "start": 642.829,
      "duration": 3.961
    },
    {
      "text": "and overs will create and always has",
      "start": 645.139,
      "duration": 3.93
    },
    {
      "text": "created the last thing that I wanted to",
      "start": 646.79,
      "duration": 3.539
    },
    {
      "text": "say before we get on to the most",
      "start": 649.069,
      "duration": 5.671
    },
    {
      "text": "excellent callers is and now excuse me",
      "start": 650.329,
      "duration": 7.651
    },
    {
      "text": "for being outraged but I am and maybe",
      "start": 654.74,
      "duration": 5.25
    },
    {
      "text": "I'm wrong I'm happy to be corrected as",
      "start": 657.98,
      "duration": 3.779
    },
    {
      "text": "always that's these are my thoughts so I",
      "start": 659.99,
      "duration": 3.659
    },
    {
      "text": "don't know how many teachers wrote to me",
      "start": 661.759,
      "duration": 3.991
    },
    {
      "text": "and said you don't understand man a",
      "start": 663.649,
      "duration": 7.291
    },
    {
      "text": "they didn't say man they said I spend a",
      "start": 665.75,
      "duration": 10.32
    },
    {
      "text": "lot of time creating lesson plans lesson",
      "start": 670.94,
      "duration": 7.83
    },
    {
      "text": "plans this is like that magic spell word",
      "start": 676.07,
      "duration": 4.98
    },
    {
      "text": "that everyone uses who's a teacher to",
      "start": 678.77,
      "duration": 5.61
    },
    {
      "text": "explain why they only teach for about 2",
      "start": 681.05,
      "duration": 7.14
    },
    {
      "text": "and 3/4 hours a day no no I'm doing my",
      "start": 684.38,
      "duration": 7.14
    },
    {
      "text": "lesson plans and I must say I have a",
      "start": 688.19,
      "duration": 7.92
    },
    {
      "text": "little bit of trouble understanding what",
      "start": 691.52,
      "duration": 6.48
    },
    {
      "text": "is meant by this is a very confusing",
      "start": 696.11,
      "duration": 6.15
    },
    {
      "text": "thing so you do go to Teachers College",
      "start": 698,
      "duration": 6.6
    },
    {
      "text": "to learn how to teach and I assume that",
      "start": 702.26,
      "duration": 4.02
    },
    {
      "text": "you create some lesson plans and get",
      "start": 704.6,
      "duration": 4.95
    },
    {
      "text": "them vetted by your teachers in Teachers",
      "start": 706.28,
      "duration": 5.16
    },
    {
      "text": "College right the professors in Teachers",
      "start": 709.55,
      "duration": 3.96
    },
    {
      "text": "College must be teaching you how to do a",
      "start": 711.44,
      "duration": 3.69
    },
    {
      "text": "lesson plan and what the best lessons",
      "start": 713.51,
      "duration": 4.44
    },
    {
      "text": "plans are which are validated and vetted",
      "start": 715.13,
      "duration": 4.77
    },
    {
      "text": "by statistical analysis and you know all",
      "start": 717.95,
      "duration": 2.72
    },
    {
      "text": "that kind of stuff",
      "start": 719.9,
      "duration": 2.97
    },
    {
      "text": "you also know what you're going to be",
      "start": 720.67,
      "duration": 4.42
    },
    {
      "text": "teaching I assume you know study science",
      "start": 722.87,
      "duration": 4.37
    },
    {
      "text": "and end up teaching the humanities and",
      "start": 725.09,
      "duration": 6.39
    },
    {
      "text": "so by the time you graduate and get a",
      "start": 727.24,
      "duration": 6.72
    },
    {
      "text": "job you should already have lesson plans",
      "start": 731.48,
      "duration": 6.03
    },
    {
      "text": "now if you don't have lesson plans then",
      "start": 733.96,
      "duration": 5.32
    },
    {
      "text": "what the hell are you doing creating",
      "start": 737.51,
      "duration": 3.39
    },
    {
      "text": "them as a new teacher I mean you",
      "start": 739.28,
      "duration": 4.14
    },
    {
      "text": "understand that's insane if you're a new",
      "start": 740.9,
      "duration": 4.83
    },
    {
      "text": "teacher by definition and you don't",
      "start": 743.42,
      "duration": 3.66
    },
    {
      "text": "already have lesson plans that have been",
      "start": 745.73,
      "duration": 3.66
    },
    {
      "text": "vetted by how well they work and so on",
      "start": 747.08,
      "duration": 5.37
    },
    {
      "text": "right best practices then you damn well",
      "start": 749.39,
      "duration": 4.5
    },
    {
      "text": "shouldn't be creating them because it is",
      "start": 752.45,
      "duration": 3.36
    },
    {
      "text": "absolutely unfair to experiment on",
      "start": 753.89,
      "duration": 5.18
    },
    {
      "text": "children on something so important as",
      "start": 755.81,
      "duration": 6.66
    },
    {
      "text": "education why are you creating lesson",
      "start": 759.07,
      "duration": 5.32
    },
    {
      "text": "plans as a new teacher do you not know",
      "start": 762.47,
      "duration": 3.51
    },
    {
      "text": "what works do you have no idea what",
      "start": 764.39,
      "duration": 3.06
    },
    {
      "text": "works do you have no clue what's been",
      "start": 765.98,
      "duration": 3.96
    },
    {
      "text": "proven to work you should not be",
      "start": 767.45,
      "duration": 3.93
    },
    {
      "text": "creating lesson plans if you're a new",
      "start": 769.94,
      "duration": 4.05
    },
    {
      "text": "teacher you should be using lesson plans",
      "start": 771.38,
      "duration": 4.41
    },
    {
      "text": "that have been proven to work can you",
      "start": 773.99,
      "duration": 3.48
    },
    {
      "text": "throw a little personal idiosyncrasy in",
      "start": 775.79,
      "duration": 4.32
    },
    {
      "text": "sure but you don't go to McDonald's say",
      "start": 777.47,
      "duration": 5.1
    },
    {
      "text": "I want a Big Mac and the McDonald's says",
      "start": 780.11,
      "duration": 4.44
    },
    {
      "text": "I'm sorry we don't have any because",
      "start": 782.57,
      "duration": 3
    },
    {
      "text": "we're still trying to figure out how to",
      "start": 784.55,
      "duration": 2.46
    },
    {
      "text": "make them it's like no no there's",
      "start": 785.57,
      "duration": 3.12
    },
    {
      "text": "already a recipe for a Big Mac you don't",
      "start": 787.01,
      "duration": 5.24
    },
    {
      "text": "need to do that go to a surgeon who says",
      "start": 788.69,
      "duration": 6.72
    },
    {
      "text": "I'm gonna try doing it appendicitis by",
      "start": 792.25,
      "duration": 6.88
    },
    {
      "text": "going in from the foot and",
      "start": 795.41,
      "duration": 5.91
    },
    {
      "text": "unfolded because I want to retain my end",
      "start": 799.13,
      "duration": 3.47
    },
    {
      "text": "of it",
      "start": 801.32,
      "duration": 3.63
    },
    {
      "text": "doing an appendicitis already you don't",
      "start": 802.6,
      "duration": 4.69
    },
    {
      "text": "need to reinvent the wheel I did a",
      "start": 804.95,
      "duration": 4.5
    },
    {
      "text": "search on Google there are thousands of",
      "start": 807.29,
      "duration": 4.08
    },
    {
      "text": "websites with literally thousands or",
      "start": 809.45,
      "duration": 3.27
    },
    {
      "text": "tens of thousands of lesson plans",
      "start": 811.37,
      "duration": 4.83
    },
    {
      "text": "available that's pretty scary that is",
      "start": 812.72,
      "duration": 6
    },
    {
      "text": "pretty scary why the hell are there so",
      "start": 816.2,
      "duration": 4.89
    },
    {
      "text": "many lesson plans is there nothing that",
      "start": 818.72,
      "duration": 5.67
    },
    {
      "text": "has been proven to actually work is it",
      "start": 821.09,
      "duration": 5.82
    },
    {
      "text": "just make up whatever you want call",
      "start": 824.39,
      "duration": 4.77
    },
    {
      "text": "it a lesson plan and consider yourself",
      "start": 826.91,
      "duration": 4.62
    },
    {
      "text": "an individual why are there so many",
      "start": 829.16,
      "duration": 5.97
    },
    {
      "text": "lesson plans I mean imagine if you do",
      "start": 831.53,
      "duration": 5.87
    },
    {
      "text": "some research all you have to get you",
      "start": 835.13,
      "duration": 4.35
    },
    {
      "text": "gallbladder out or something you do some",
      "start": 837.4,
      "duration": 4.21
    },
    {
      "text": "research and there are thousands of",
      "start": 839.48,
      "duration": 3.51
    },
    {
      "text": "different ways to take out your",
      "start": 841.61,
      "duration": 4.11
    },
    {
      "text": "gallbladder every surgeon has their own",
      "start": 842.99,
      "duration": 5.28
    },
    {
      "text": "way of taking out your gallbladder how",
      "start": 845.72,
      "duration": 5.58
    },
    {
      "text": "does that sound to you how does that",
      "start": 848.27,
      "duration": 3.78
    },
    {
      "text": "sound to you",
      "start": 851.3,
      "duration": 3.99
    },
    {
      "text": "and there are lesson plans of course",
      "start": 852.05,
      "duration": 6.99
    },
    {
      "text": "already there are lesson plans and you",
      "start": 855.29,
      "duration": 5.01
    },
    {
      "text": "understand if you're making up your own",
      "start": 859.04,
      "duration": 3.12
    },
    {
      "text": "lesson plan how do you know if it's",
      "start": 860.3,
      "duration": 3.33
    },
    {
      "text": "going to be the most effective way that",
      "start": 862.16,
      "duration": 2.46
    },
    {
      "text": "you could spend your time in the",
      "start": 863.63,
      "duration": 2.52
    },
    {
      "text": "classroom how do you know it's the best",
      "start": 864.62,
      "duration": 4.95
    },
    {
      "text": "way to teach kids how do you know don't",
      "start": 866.15,
      "duration": 6.3
    },
    {
      "text": "make up lesson plans that is",
      "start": 869.57,
      "duration": 4.65
    },
    {
      "text": "irresponsible that is experimenting on",
      "start": 872.45,
      "duration": 4.77
    },
    {
      "text": "children plus you have all summer to",
      "start": 874.22,
      "duration": 7.31
    },
    {
      "text": "make up your lesson plans yeah I just",
      "start": 877.22,
      "duration": 6.33
    },
    {
      "text": "lesson plans is just something that",
      "start": 881.53,
      "duration": 4.06
    },
    {
      "text": "people say that makes no sense to me",
      "start": 883.55,
      "duration": 5.19
    },
    {
      "text": "whatsoever if you're a new teacher you",
      "start": 885.59,
      "duration": 4.8
    },
    {
      "text": "should be using lesson plans already if",
      "start": 888.74,
      "duration": 4.56
    },
    {
      "text": "you're an experienced teacher then you",
      "start": 890.39,
      "duration": 4.17
    },
    {
      "text": "already know how to teach the subject",
      "start": 893.3,
      "duration": 3.33
    },
    {
      "text": "maybe you make some notes or maybe you",
      "start": 894.56,
      "duration": 3.48
    },
    {
      "text": "found a slightly better way to improve",
      "start": 896.63,
      "duration": 3.99
    },
    {
      "text": "it but of course if you have found the",
      "start": 898.04,
      "duration": 4.02
    },
    {
      "text": "best way to teach history then you",
      "start": 900.62,
      "duration": 4.23
    },
    {
      "text": "should make sure it gets standardized as",
      "start": 902.06,
      "duration": 3.36
    },
    {
      "text": "best you can",
      "start": 904.85,
      "duration": 2.94
    },
    {
      "text": "right but this individuality stuff I",
      "start": 905.42,
      "duration": 4.05
    },
    {
      "text": "mean it's really crappy it's crappy for",
      "start": 907.79,
      "duration": 3.21
    },
    {
      "text": "the kids it's a really crappy for the",
      "start": 909.47,
      "duration": 4.71
    },
    {
      "text": "kids and of course you know if they move",
      "start": 911,
      "duration": 5.04
    },
    {
      "text": "from one school to another or even a new",
      "start": 914.18,
      "duration": 4.17
    },
    {
      "text": "teacher comes along how the hell is",
      "start": 916.04,
      "duration": 3.78
    },
    {
      "text": "anyone supposed to know what's going on",
      "start": 918.35,
      "duration": 3.27
    },
    {
      "text": "you move to some new school where some",
      "start": 919.82,
      "duration": 2.7
    },
    {
      "text": "teacher is working on their own",
      "start": 921.62,
      "duration": 2.7
    },
    {
      "text": "individualized lesson plan and there's",
      "start": 922.52,
      "duration": 3.84
    },
    {
      "text": "no standardization and where there's no",
      "start": 924.32,
      "duration": 3.63
    },
    {
      "text": "standardization there's no possibility",
      "start": 926.36,
      "duration": 4.08
    },
    {
      "text": "of excellence where there's no",
      "start": 927.95,
      "duration": 4.23
    },
    {
      "text": "standardization there's no possibility",
      "start": 930.44,
      "duration": 3.42
    },
    {
      "text": "of excellence",
      "start": 932.18,
      "duration": 4.81
    },
    {
      "text": "quality is measurability if you can't",
      "start": 933.86,
      "duration": 4.36
    },
    {
      "text": "measure it you can't manage it if you",
      "start": 936.99,
      "duration": 3.57
    },
    {
      "text": "can't manage it you can't improve it and",
      "start": 938.22,
      "duration": 3.69
    },
    {
      "text": "sort of reminds me of when Bill Gates",
      "start": 940.56,
      "duration": 3.12
    },
    {
      "text": "started working with the Bill and",
      "start": 941.91,
      "duration": 4.29
    },
    {
      "text": "Melinda Gates Foundation and they were",
      "start": 943.68,
      "duration": 4.92
    },
    {
      "text": "trying to get mosquito nets you know two",
      "start": 946.2,
      "duration": 4.98
    },
    {
      "text": "people and they just gave no they wanted",
      "start": 948.6,
      "duration": 3.75
    },
    {
      "text": "to give a bunch of money to people and",
      "start": 951.18,
      "duration": 2.49
    },
    {
      "text": "then they said okay well how do you",
      "start": 952.35,
      "duration": 2.64
    },
    {
      "text": "measure your success how do you measure",
      "start": 953.67,
      "duration": 2.4
    },
    {
      "text": "how many people are using him they're",
      "start": 954.99,
      "duration": 2.61
    },
    {
      "text": "like oh we don't you know we're not",
      "start": 956.07,
      "duration": 3.709
    },
    {
      "text": "government a non-government organization",
      "start": 957.6,
      "duration": 4.89
    },
    {
      "text": "for an NGO man we don't do that we just",
      "start": 959.779,
      "duration": 5.321
    },
    {
      "text": "you know hand out hold hands sing",
      "start": 962.49,
      "duration": 4.92
    },
    {
      "text": "Kumbaya have a fire light get stung and",
      "start": 965.1,
      "duration": 4.83
    },
    {
      "text": "Bill Gates was like no no no no come on",
      "start": 967.41,
      "duration": 3.81
    },
    {
      "text": "I'm gonna give you this money I'm gonna",
      "start": 969.93,
      "duration": 2.28
    },
    {
      "text": "give you these you need to track where",
      "start": 971.22,
      "duration": 2.13
    },
    {
      "text": "they go and you need to report back to",
      "start": 972.21,
      "duration": 2.4
    },
    {
      "text": "me they had no idea what he was talking",
      "start": 973.35,
      "duration": 4.17
    },
    {
      "text": "about because they're socialized meeting",
      "start": 974.61,
      "duration": 6.96
    },
    {
      "text": "a pseudo capitalist so I'm afraid I am",
      "start": 977.52,
      "duration": 7.5
    },
    {
      "text": "tempted I am tempted to call extreme",
      "start": 981.57,
      "duration": 7.28
    },
    {
      "text": " on the lesson plan claim I just",
      "start": 985.02,
      "duration": 6.75
    },
    {
      "text": "again I'm happy to be proven wrong but",
      "start": 988.85,
      "duration": 4.33
    },
    {
      "text": "here you know for those who don't know",
      "start": 991.77,
      "duration": 4.97
    },
    {
      "text": "how to prove me wrong here's a tip so",
      "start": 993.18,
      "duration": 7.05
    },
    {
      "text": "you have to show me why everybody should",
      "start": 996.74,
      "duration": 5.11
    },
    {
      "text": "be creating their own lesson plan you",
      "start": 1000.23,
      "duration": 3.27
    },
    {
      "text": "have to show me how those individually",
      "start": 1001.85,
      "duration": 3.51
    },
    {
      "text": "created lesson plans are objectively the",
      "start": 1003.5,
      "duration": 4.14
    },
    {
      "text": "best thing for the students and a couple",
      "start": 1005.36,
      "duration": 3.45
    },
    {
      "text": "of other things I mean I don't even need",
      "start": 1007.64,
      "duration": 3.03
    },
    {
      "text": "to go on because you can't the moment",
      "start": 1008.81,
      "duration": 3.149
    },
    {
      "text": "you create an individual lesson plan",
      "start": 1010.67,
      "duration": 3.3
    },
    {
      "text": "you're immediately saying I have no idea",
      "start": 1011.959,
      "duration": 3.511
    },
    {
      "text": "whether this is going to work or not in",
      "start": 1013.97,
      "duration": 4.65
    },
    {
      "text": "any statistically significant way I mean",
      "start": 1015.47,
      "duration": 4.98
    },
    {
      "text": "teachers resist standardization for a",
      "start": 1018.62,
      "duration": 3.6
    },
    {
      "text": "very simple and obvious reason and not",
      "start": 1020.45,
      "duration": 3.18
    },
    {
      "text": "all teachers right a couple of good",
      "start": 1022.22,
      "duration": 2.88
    },
    {
      "text": "teachers out there I'm sure I never met",
      "start": 1023.63,
      "duration": 5.13
    },
    {
      "text": "them but maybe there are but teachers",
      "start": 1025.1,
      "duration": 5.01
    },
    {
      "text": "resist standardization because",
      "start": 1028.76,
      "duration": 3.75
    },
    {
      "text": "standardization means you can be",
      "start": 1030.11,
      "duration": 6.209
    },
    {
      "text": "measured right so if you are supposed to",
      "start": 1032.51,
      "duration": 5.46
    },
    {
      "text": "on the fourth week if your kids are",
      "start": 1036.319,
      "duration": 3.181
    },
    {
      "text": "supposed to know X Y and Zed then they",
      "start": 1037.97,
      "duration": 3.06
    },
    {
      "text": "can be tested whether they know X Y and",
      "start": 1039.5,
      "duration": 3.329
    },
    {
      "text": "Zed if you're following your own lesson",
      "start": 1041.03,
      "duration": 4.32
    },
    {
      "text": "plan man you're hiding your camouflaged",
      "start": 1042.829,
      "duration": 4.921
    },
    {
      "text": "your chameleons in the undergrowth you",
      "start": 1045.35,
      "duration": 4.2
    },
    {
      "text": "can't be measured and the whole point of",
      "start": 1047.75,
      "duration": 4.05
    },
    {
      "text": "individualized lesson plan if it's",
      "start": 1049.55,
      "duration": 4.23
    },
    {
      "text": "nonsense lesson plan means going to the",
      "start": 1051.8,
      "duration": 4.41
    },
    {
      "text": "internet downloading something but the",
      "start": 1053.78,
      "duration": 3.75
    },
    {
      "text": "whole point of individualized lessons",
      "start": 1056.21,
      "duration": 4.44
    },
    {
      "text": "plan lesson plan is simply to avoid",
      "start": 1057.53,
      "duration": 6.09
    },
    {
      "text": "being measured and the only people who",
      "start": 1060.65,
      "duration": 4.7
    },
    {
      "text": "are afraid of being measured",
      "start": 1063.62,
      "duration": 4.939
    },
    {
      "text": "are the people who don't measure up so",
      "start": 1065.35,
      "duration": 5.25
    },
    {
      "text": "anyway sorry for a long intro thank you",
      "start": 1068.559,
      "duration": 3.211
    },
    {
      "text": "for your patience wanted to get those",
      "start": 1070.6,
      "duration": 2.34
    },
    {
      "text": "few things off my chest",
      "start": 1071.77,
      "duration": 4.83
    },
    {
      "text": "but I'm happy to hear from the brains of",
      "start": 1072.94,
      "duration": 6.39
    },
    {
      "text": "the outfit the listeners and oh if for",
      "start": 1076.6,
      "duration": 5.79
    },
    {
      "text": "you do get a chance to donate I would",
      "start": 1079.33,
      "duration": 4.11
    },
    {
      "text": "really appreciate it",
      "start": 1082.39,
      "duration": 3.75
    },
    {
      "text": "handing out money hand-over-fist to make",
      "start": 1083.44,
      "duration": 4.38
    },
    {
      "text": "this documentary thousands and thousands",
      "start": 1086.14,
      "duration": 3.09
    },
    {
      "text": "and thousands of dollars to make this",
      "start": 1087.82,
      "duration": 3.33
    },
    {
      "text": "documentary and it's only gonna get",
      "start": 1089.23,
      "duration": 4.43
    },
    {
      "text": "worse so if you would like to support I",
      "start": 1091.15,
      "duration": 5.13
    },
    {
      "text": "would really appreciate it it's been a",
      "start": 1093.66,
      "duration": 6.43
    },
    {
      "text": "rather exciting week for donations it's",
      "start": 1096.28,
      "duration": 6.93
    },
    {
      "text": "been what yesterday I got $5 from",
      "start": 1100.09,
      "duration": 7.53
    },
    {
      "text": "someone and let's see on Friday I got",
      "start": 1103.21,
      "duration": 12.32
    },
    {
      "text": "$20 Thursday $25 $15 on Wednesday and",
      "start": 1107.62,
      "duration": 9.9
    },
    {
      "text": "$25 on Wednesday as well holy that was",
      "start": 1115.53,
      "duration": 3.79
    },
    {
      "text": "food so what I'm saying is that you",
      "start": 1117.52,
      "duration": 5.13
    },
    {
      "text": "really do need to it's to help out if",
      "start": 1119.32,
      "duration": 4.62
    },
    {
      "text": "you could I would really appreciate it",
      "start": 1122.65,
      "duration": 3.6
    },
    {
      "text": "it's very important I'm happy to spend",
      "start": 1123.94,
      "duration": 4.29
    },
    {
      "text": "this money but I do need the support of",
      "start": 1126.25,
      "duration": 3.72
    },
    {
      "text": "the community to to make it work so",
      "start": 1128.23,
      "duration": 3.48
    },
    {
      "text": "please go to freedomainradio.com forward",
      "start": 1129.97,
      "duration": 4.38
    },
    {
      "text": "slash donate to help out thank you so",
      "start": 1131.71,
      "duration": 6.02
    },
    {
      "text": "much let's move out of the course",
      "start": 1134.35,
      "duration": 3.38
    }
  ],
  "Errors": null,
  "TranscriptStderr": null
}