{
  "Title": "Does Power Corrupt?",
  "Id": "YwaRwb7kOFU",
  "Transcript": [
    {
      "text": "hi everybody's defend molyneux from",
      "start": 0,
      "duration": 4.2
    },
    {
      "text": "freedomain radio hope that you're doing",
      "start": 1.829,
      "duration": 4.381
    },
    {
      "text": "magnificently it is time to dip into the",
      "start": 4.2,
      "duration": 5.16
    },
    {
      "text": "deep brain well of the listener mailbag",
      "start": 6.21,
      "duration": 7.02
    },
    {
      "text": "let me fondle the listener bag you can",
      "start": 9.36,
      "duration": 5.64
    },
    {
      "text": "email mike at operations of freedomain",
      "start": 13.23,
      "duration": 3.21
    },
    {
      "text": "radio to come if you would like to push",
      "start": 15,
      "duration": 3
    },
    {
      "text": "a question back out through my molars",
      "start": 16.44,
      "duration": 3.87
    },
    {
      "text": "and we'll start with Andy who says who",
      "start": 18,
      "duration": 6.51
    },
    {
      "text": "asks is it better to be alone or to have",
      "start": 20.31,
      "duration": 5.67
    },
    {
      "text": "friends you can get along with and laugh",
      "start": 24.51,
      "duration": 3.75
    },
    {
      "text": "with not particularly in a fake way but",
      "start": 25.98,
      "duration": 5.459
    },
    {
      "text": "don't like I know what your advice will",
      "start": 28.26,
      "duration": 4.889
    },
    {
      "text": "be but I'm going to ask you to treat",
      "start": 31.439,
      "duration": 4.321
    },
    {
      "text": "this as a true dichotomy is it better to",
      "start": 33.149,
      "duration": 4.171
    },
    {
      "text": "be alone but have friends you can get",
      "start": 35.76,
      "duration": 6.619
    },
    {
      "text": "along with and laugh with but don't like",
      "start": 37.32,
      "duration": 5.059
    },
    {
      "text": "well if you don't like them how can they",
      "start": 43.19,
      "duration": 3.91
    },
    {
      "text": "really be funny that would sort of be a",
      "start": 45.84,
      "duration": 4.649
    },
    {
      "text": "question for me like I've liked people's",
      "start": 47.1,
      "duration": 4.979
    },
    {
      "text": "comedy in the past then I find out more",
      "start": 50.489,
      "duration": 3
    },
    {
      "text": "about them and I really don't find them",
      "start": 52.079,
      "duration": 3.151
    },
    {
      "text": "particularly funny anymore that's me and",
      "start": 53.489,
      "duration": 3.381
    },
    {
      "text": "it could be different for everyone but",
      "start": 55.23,
      "duration": 3.96
    },
    {
      "text": "is it better to be alone I have friends",
      "start": 56.87,
      "duration": 3.849
    },
    {
      "text": "you can get along with and laugh with I",
      "start": 59.19,
      "duration": 4.049
    },
    {
      "text": "think this is a false dichotomy and it",
      "start": 60.719,
      "duration": 5.101
    },
    {
      "text": "also really depends on what you mean by",
      "start": 63.239,
      "duration": 5.161
    },
    {
      "text": "the word alone I mean are you lonely in",
      "start": 65.82,
      "duration": 4.83
    },
    {
      "text": "a crowd are you long can you be lonely",
      "start": 68.4,
      "duration": 4.02
    },
    {
      "text": "in a subway you know as the comedian",
      "start": 70.65,
      "duration": 4.56
    },
    {
      "text": "used to say hey now that our groins have",
      "start": 72.42,
      "duration": 4.5
    },
    {
      "text": "been matched together for 45 minutes you",
      "start": 75.21,
      "duration": 4.56
    },
    {
      "text": "want to start a family so I think that",
      "start": 76.92,
      "duration": 6.5
    },
    {
      "text": "you can be very alone with people and",
      "start": 79.77,
      "duration": 5.76
    },
    {
      "text": "it's another great quote by Oscar Wilde",
      "start": 83.42,
      "duration": 4.03
    },
    {
      "text": "it says be yourself everyone else is",
      "start": 85.53,
      "duration": 5.76
    },
    {
      "text": "taken and I try not to be around people",
      "start": 87.45,
      "duration": 10.11
    },
    {
      "text": "who want me to be somebody else I mean",
      "start": 91.29,
      "duration": 7.829
    },
    {
      "text": "fundamentally you can't be somebody else",
      "start": 97.56,
      "duration": 4.099
    },
    {
      "text": "you can only be less of who you are and",
      "start": 99.119,
      "duration": 5.64
    },
    {
      "text": "so I would say this a bit of a false",
      "start": 101.659,
      "duration": 6.401
    },
    {
      "text": "dichotomy because the obvious question",
      "start": 104.759,
      "duration": 4.441
    },
    {
      "text": "is why don't you find people that you",
      "start": 108.06,
      "duration": 4.8
    },
    {
      "text": "can laugh with and who you like we have",
      "start": 109.2,
      "duration": 6.51
    },
    {
      "text": "this belief with relationships because",
      "start": 112.86,
      "duration": 5.46
    },
    {
      "text": "we're social beings and we rely on the",
      "start": 115.71,
      "duration": 4.89
    },
    {
      "text": "tribe and others to to flourish and and",
      "start": 118.32,
      "duration": 5.189
    },
    {
      "text": "to feel happy we have this belief with",
      "start": 120.6,
      "duration": 5.519
    },
    {
      "text": "relationships like you know like a",
      "start": 123.509,
      "duration": 5.61
    },
    {
      "text": "drowning man with a barrel like we just",
      "start": 126.119,
      "duration": 4.321
    },
    {
      "text": "hang on to them no matter what and",
      "start": 129.119,
      "duration": 2.991
    },
    {
      "text": "letting go of them feels like death and",
      "start": 130.44,
      "duration": 3.48
    },
    {
      "text": "there is a little death",
      "start": 132.11,
      "duration": 5.849
    },
    {
      "text": "in the transition from a dead soul to",
      "start": 133.92,
      "duration": 6.45
    },
    {
      "text": "live flesh so to speak like when you",
      "start": 137.959,
      "duration": 5.381
    },
    {
      "text": "cast off the old and you embrace the new",
      "start": 140.37,
      "duration": 5.1
    },
    {
      "text": "it is a kind of death as I wrote my gosh",
      "start": 143.34,
      "duration": 3.84
    },
    {
      "text": "when I was 18 or 19 in the poem I",
      "start": 145.47,
      "duration": 3.989
    },
    {
      "text": "believe we must bury ourselves in order",
      "start": 147.18,
      "duration": 5.04
    },
    {
      "text": "to be resurrected although it usually is",
      "start": 149.459,
      "duration": 5.25
    },
    {
      "text": "in fact coming to life for the first",
      "start": 152.22,
      "duration": 6.57
    },
    {
      "text": "time leaving dead relationships feels",
      "start": 154.709,
      "duration": 7.381
    },
    {
      "text": "like throwing yourself into a grave and",
      "start": 158.79,
      "duration": 6.57
    },
    {
      "text": "it feels like you will not have anything",
      "start": 162.09,
      "duration": 7.08
    },
    {
      "text": "after that overcoming that fear of the",
      "start": 165.36,
      "duration": 7.26
    },
    {
      "text": "nothingness that comes after habit is",
      "start": 169.17,
      "duration": 5.78
    },
    {
      "text": "one of the great essences of philosophy",
      "start": 172.62,
      "duration": 6.869
    },
    {
      "text": "to have the courage to face the dark",
      "start": 174.95,
      "duration": 6.94
    },
    {
      "text": "space after the over bright and cheery",
      "start": 179.489,
      "duration": 5.821
    },
    {
      "text": "light is really essential to travel",
      "start": 181.89,
      "duration": 5.04
    },
    {
      "text": "outside the solar system knowing that",
      "start": 185.31,
      "duration": 4.08
    },
    {
      "text": "there's heaven in the unknown that is",
      "start": 186.93,
      "duration": 4.02
    },
    {
      "text": "really essential to claims of the known",
      "start": 189.39,
      "duration": 3.96
    },
    {
      "text": "is to sink into the swamp of history and",
      "start": 190.95,
      "duration": 4.83
    },
    {
      "text": "not even produce useful oil for the",
      "start": 193.35,
      "duration": 5.34
    },
    {
      "text": "future so I would definitely question",
      "start": 195.78,
      "duration": 6.769
    },
    {
      "text": "hanging with people you don't like and",
      "start": 198.69,
      "duration": 7.71
    },
    {
      "text": "ask you to raise your standards because",
      "start": 202.549,
      "duration": 5.051
    },
    {
      "text": "that's really what it's all about we",
      "start": 206.4,
      "duration": 5.91
    },
    {
      "text": "just just raise your standards and try",
      "start": 207.6,
      "duration": 6.96
    },
    {
      "text": "to find people that you do like because",
      "start": 212.31,
      "duration": 4.08
    },
    {
      "text": "then you can have sustained and happy",
      "start": 214.56,
      "duration": 4.53
    },
    {
      "text": "laughter the laughter of relief of not",
      "start": 216.39,
      "duration": 4.5
    },
    {
      "text": "having to contort yourself into",
      "start": 219.09,
      "duration": 3.39
    },
    {
      "text": "something that you're not in order to",
      "start": 220.89,
      "duration": 3.689
    },
    {
      "text": "ring a few giggles from the empty souls",
      "start": 222.48,
      "duration": 7.349
    },
    {
      "text": "around you Dustin writes what are your",
      "start": 224.579,
      "duration": 8.461
    },
    {
      "text": "thoughts on why Secretary of State John",
      "start": 229.829,
      "duration": 6.271
    },
    {
      "text": "Kerry said this little thing called the",
      "start": 233.04,
      "duration": 5.449
    },
    {
      "text": "Internet makes it much harder to govern",
      "start": 236.1,
      "duration": 6.33
    },
    {
      "text": "phrase a little thing called web well it",
      "start": 238.489,
      "duration": 6.241
    },
    {
      "text": "does make it harder to govern because",
      "start": 242.43,
      "duration": 4.559
    },
    {
      "text": "the first thing you have to govern is",
      "start": 244.73,
      "duration": 3.7
    },
    {
      "text": "information the first thing you have to",
      "start": 246.989,
      "duration": 3.451
    },
    {
      "text": "govern is language it's really important",
      "start": 248.43,
      "duration": 3.809
    },
    {
      "text": "to recognize that language is just",
      "start": 250.44,
      "duration": 4.62
    },
    {
      "text": "another government program and this is",
      "start": 252.239,
      "duration": 5.131
    },
    {
      "text": "so obvious here in Canada some years ago",
      "start": 255.06,
      "duration": 5.519
    },
    {
      "text": "they came up with this thing it was a",
      "start": 257.37,
      "duration": 5.04
    },
    {
      "text": "tax and it's supposed to pay for health",
      "start": 260.579,
      "duration": 4.081
    },
    {
      "text": "care and the reason they say that this",
      "start": 262.41,
      "duration": 3.42
    },
    {
      "text": "tax is supposed to pay for health care",
      "start": 264.66,
      "duration": 3.27
    },
    {
      "text": "is because then if you oppose the tax",
      "start": 265.83,
      "duration": 4.78
    },
    {
      "text": "obviously you oppose health care like",
      "start": 267.93,
      "duration": 3.97
    },
    {
      "text": "you know if you oppose the welfare state",
      "start": 270.61,
      "duration": 3.47
    },
    {
      "text": "it's because you want to you know fry up",
      "start": 271.9,
      "duration": 4.89
    },
    {
      "text": "the poor with fava beans and a nice",
      "start": 274.08,
      "duration": 8.13
    },
    {
      "text": "white sauce so I would say that",
      "start": 276.79,
      "duration": 7.62
    },
    {
      "text": "recognize the language the affordable",
      "start": 282.21,
      "duration": 5.74
    },
    {
      "text": "care and patient Protection Act in",
      "start": 284.41,
      "duration": 5.25
    },
    {
      "text": "Canada the taxes can believe it or not",
      "start": 287.95,
      "duration": 4.32
    },
    {
      "text": "the tax was called the the fair share",
      "start": 289.66,
      "duration": 7.41
    },
    {
      "text": "health levy levy you seed not tax fair",
      "start": 292.27,
      "duration": 6.72
    },
    {
      "text": "share if you're against a fair share",
      "start": 297.07,
      "duration": 4.47
    },
    {
      "text": "levy then clearly you're against paying",
      "start": 298.99,
      "duration": 3.9
    },
    {
      "text": "your fair share and it's it's a health",
      "start": 301.54,
      "duration": 4.05
    },
    {
      "text": "levy so are you against health and this",
      "start": 302.89,
      "duration": 5.07
    },
    {
      "text": "is literally the level at which we work",
      "start": 305.59,
      "duration": 4.8
    },
    {
      "text": "at as thinkers and opposes of the status",
      "start": 307.96,
      "duration": 3.87
    },
    {
      "text": "quo we have to fight them fight the",
      "start": 310.39,
      "duration": 2.94
    },
    {
      "text": "language what do they call it the",
      "start": 311.83,
      "duration": 3.29
    },
    {
      "text": "Patriot Act",
      "start": 313.33,
      "duration": 5.25
    },
    {
      "text": "thank you against patriotism Social",
      "start": 315.12,
      "duration": 5.41
    },
    {
      "text": "Security Security you see I mean it's",
      "start": 318.58,
      "duration": 3.36
    },
    {
      "text": "all they invent the language and then",
      "start": 320.53,
      "duration": 3.15
    },
    {
      "text": "you have to refer to it that way and for",
      "start": 321.94,
      "duration": 3.18
    },
    {
      "text": "99 percent of the population that",
      "start": 323.68,
      "duration": 3.93
    },
    {
      "text": "clinches the argument I really should",
      "start": 325.12,
      "duration": 5.37
    },
    {
      "text": "have called this the excellent and most",
      "start": 327.61,
      "duration": 6.36
    },
    {
      "text": "perfect in an erroneous philosophy show",
      "start": 330.49,
      "duration": 5.88
    },
    {
      "text": "now that's too big the always writes",
      "start": 333.97,
      "duration": 5.04
    },
    {
      "text": "deaf and then you know people will be",
      "start": 336.37,
      "duration": 5.22
    },
    {
      "text": "like well I mean it's called that it it",
      "start": 339.01,
      "duration": 6.09
    },
    {
      "text": "must be that and so that's the level of",
      "start": 341.59,
      "duration": 5.31
    },
    {
      "text": "which we're looking at working at and so",
      "start": 345.1,
      "duration": 4.04
    },
    {
      "text": "what's the internet is doing is it is",
      "start": 346.9,
      "duration": 6.12
    },
    {
      "text": "exploding the government monopoly over",
      "start": 349.14,
      "duration": 6.25
    },
    {
      "text": "the fundamental means of production for",
      "start": 353.02,
      "duration": 5.66
    },
    {
      "text": "power in the world which is language and",
      "start": 355.39,
      "duration": 5.67
    },
    {
      "text": "so you have new words being invented all",
      "start": 358.68,
      "duration": 4.48
    },
    {
      "text": "the time things are being revealed very",
      "start": 361.06,
      "duration": 5.07
    },
    {
      "text": "quickly and very easily as corrupt and",
      "start": 363.16,
      "duration": 5.61
    },
    {
      "text": "all of this is just making it fantastic",
      "start": 366.13,
      "duration": 6.3
    },
    {
      "text": "it is also very it's so simple now to",
      "start": 368.77,
      "duration": 5.19
    },
    {
      "text": "get out of the biosphere of your own",
      "start": 372.43,
      "duration": 5.85
    },
    {
      "text": "culture that you can go and find out",
      "start": 373.96,
      "duration": 7.5
    },
    {
      "text": "what Saudi Arabia newspapers are saying",
      "start": 378.28,
      "duration": 5.88
    },
    {
      "text": "about the Iraq war or what Palestinian",
      "start": 381.46,
      "duration": 4.98
    },
    {
      "text": "newspapers are saying about the Israeli",
      "start": 384.16,
      "duration": 5.85
    },
    {
      "text": "occupation and you can go and find out",
      "start": 386.44,
      "duration": 5.7
    },
    {
      "text": "what Chinese investors are saying about",
      "start": 390.01,
      "duration": 3.75
    },
    {
      "text": "the US dollar all of this information",
      "start": 392.14,
      "duration": 4.32
    },
    {
      "text": "was incredibly tightly controlled back",
      "start": 393.76,
      "duration": 3.96
    },
    {
      "text": "when I was growing up as a kid there",
      "start": 396.46,
      "duration": 4.71
    },
    {
      "text": "were like three TV stations and you paid",
      "start": 397.72,
      "duration": 3.96
    },
    {
      "text": "a license",
      "start": 401.17,
      "duration": 2.61
    },
    {
      "text": "I think you still pay a license in the",
      "start": 401.68,
      "duration": 5.28
    },
    {
      "text": "in the UK for your TV but now you can",
      "start": 403.78,
      "duration": 5.49
    },
    {
      "text": "get information from anywhere like what",
      "start": 406.96,
      "duration": 4.709
    },
    {
      "text": "I'm doing research for my presentations",
      "start": 409.27,
      "duration": 4.019
    },
    {
      "text": "I mean I go all over the world basically",
      "start": 411.669,
      "duration": 3.481
    },
    {
      "text": "to try and get information and it's",
      "start": 413.289,
      "duration": 3.63
    },
    {
      "text": "instantaneous it's incredibly available",
      "start": 415.15,
      "duration": 4.56
    },
    {
      "text": "and you know politicians and some",
      "start": 416.919,
      "duration": 4.791
    },
    {
      "text": "pundits are saying well all you see that",
      "start": 419.71,
      "duration": 4.38
    },
    {
      "text": "the Internet is becoming like an echo",
      "start": 421.71,
      "duration": 4.179
    },
    {
      "text": "chamber like if you're a libertarian you",
      "start": 424.09,
      "duration": 3.03
    },
    {
      "text": "just get your news feeds from",
      "start": 425.889,
      "duration": 3.181
    },
    {
      "text": "libertarian sites and if you're a",
      "start": 427.12,
      "duration": 3.75
    },
    {
      "text": "Marxist you just got a Marxist sites and",
      "start": 429.07,
      "duration": 2.939
    },
    {
      "text": "if you're a feminist you just go to",
      "start": 430.87,
      "duration": 3.419
    },
    {
      "text": "feminist sites and so on saying okay so",
      "start": 432.009,
      "duration": 3.931
    },
    {
      "text": "but the government has no problem with a",
      "start": 434.289,
      "duration": 3.69
    },
    {
      "text": "monopoly on narrative I mean that's what",
      "start": 435.94,
      "duration": 3.39
    },
    {
      "text": "the public schools are it's",
      "start": 437.979,
      "duration": 6.69
    },
    {
      "text": "complete monopoly on narrative and they",
      "start": 439.33,
      "duration": 6.57
    },
    {
      "text": "teach you don't the only reason they",
      "start": 444.669,
      "duration": 4.981
    },
    {
      "text": "teach you any reason in high school or",
      "start": 445.9,
      "duration": 4.98
    },
    {
      "text": "junior high school is to make you bored",
      "start": 449.65,
      "duration": 2.85
    },
    {
      "text": "of reason right so you learn Euclidean",
      "start": 450.88,
      "duration": 3.18
    },
    {
      "text": "geometry and so on and say well what use",
      "start": 452.5,
      "duration": 4.62
    },
    {
      "text": "is this in my life perfect so now you",
      "start": 454.06,
      "duration": 7.109
    },
    {
      "text": "think that reason is is useless it's",
      "start": 457.12,
      "duration": 5.519
    },
    {
      "text": "beautiful and then you taught all this",
      "start": 461.169,
      "duration": 3
    },
    {
      "text": "history the delicious punch of lies in",
      "start": 462.639,
      "duration": 5.34
    },
    {
      "text": "garbage and state serving propaganda but",
      "start": 464.169,
      "duration": 5.791
    },
    {
      "text": "then they say well you see you sue the",
      "start": 467.979,
      "duration": 3.271
    },
    {
      "text": "internet makes people an echo chamber",
      "start": 469.96,
      "duration": 3.47
    },
    {
      "text": "it's like Jesus I went through",
      "start": 471.25,
      "duration": 4.169
    },
    {
      "text": "government schools my whole life it was",
      "start": 473.43,
      "duration": 3.76
    },
    {
      "text": "complete echo chamber of here's why we",
      "start": 475.419,
      "duration": 2.641
    },
    {
      "text": "need the government here's why",
      "start": 477.19,
      "duration": 2.34
    },
    {
      "text": "government is good and boy would it be",
      "start": 478.06,
      "duration": 4.5
    },
    {
      "text": "great if we had more of it so the fact",
      "start": 479.53,
      "duration": 4.5
    },
    {
      "text": "that the the central narrative is",
      "start": 482.56,
      "duration": 2.91
    },
    {
      "text": "fragmenting makes it impossible to",
      "start": 484.03,
      "duration": 2.699
    },
    {
      "text": "govern because people are getting their",
      "start": 485.47,
      "duration": 2.189
    },
    {
      "text": "own thoughts they're getting other",
      "start": 486.729,
      "duration": 2.641
    },
    {
      "text": "perspectives they're getting different",
      "start": 487.659,
      "duration": 6.63
    },
    {
      "text": "words and it's a beautiful thing it",
      "start": 489.37,
      "duration": 7.229
    },
    {
      "text": "can't be undone it can't be reversed we",
      "start": 494.289,
      "duration": 4.021
    },
    {
      "text": "just need to make sure that we keep",
      "start": 496.599,
      "duration": 3.421
    },
    {
      "text": "pointing the redefinition of language",
      "start": 498.31,
      "duration": 3.69
    },
    {
      "text": "towards reason and evidence rather than",
      "start": 500.02,
      "duration": 8.57
    },
    {
      "text": "towards anger and resentment all right",
      "start": 502,
      "duration": 6.59
    },
    {
      "text": "Brent writes",
      "start": 508.65,
      "duration": 3.07
    },
    {
      "text": "I was recently having a discussion with",
      "start": 510.37,
      "duration": 4.08
    },
    {
      "text": "someone associated but the libertarian",
      "start": 511.72,
      "duration": 3.9
    },
    {
      "text": "party they mentioned that when they get",
      "start": 514.45,
      "duration": 2.55
    },
    {
      "text": "into a discussion of morality was",
      "start": 515.62,
      "duration": 3.45
    },
    {
      "text": "someone who was inclined towards",
      "start": 517,
      "duration": 4.38
    },
    {
      "text": "socialism this person typically makes",
      "start": 519.07,
      "duration": 4.139
    },
    {
      "text": "the argument that the moral goal of",
      "start": 521.38,
      "duration": 4.98
    },
    {
      "text": "helping the poor is a higher goal than",
      "start": 523.209,
      "duration": 5.19
    },
    {
      "text": "the moral goal of non-aggression to",
      "start": 526.36,
      "duration": 3.419
    },
    {
      "text": "which our libertarian friend of course",
      "start": 528.399,
      "duration": 3.241
    },
    {
      "text": "gets into the argument of the more",
      "start": 529.779,
      "duration": 3.511
    },
    {
      "text": "practical and pragmatic arguments for",
      "start": 531.64,
      "duration": 3.18
    },
    {
      "text": "milk is Amharic ISM explained the ways",
      "start": 533.29,
      "duration": 3.18
    },
    {
      "text": "in which it is more effective at",
      "start": 534.82,
      "duration": 2.94
    },
    {
      "text": "achieving the goal of helping the poor",
      "start": 536.47,
      "duration": 8.94
    },
    {
      "text": "than socialism and welfarism he is a",
      "start": 537.76,
      "duration": 8.91
    },
    {
      "text": "perfect example of what we were just",
      "start": 545.41,
      "duration": 4.44
    },
    {
      "text": "talking about where the state controls",
      "start": 546.67,
      "duration": 4.68
    },
    {
      "text": "the language because when you refer to",
      "start": 549.85,
      "duration": 5.66
    },
    {
      "text": "the welfare state as helping the poor I",
      "start": 551.35,
      "duration": 8.609
    },
    {
      "text": "mean that's like referring to a rape",
      "start": 555.51,
      "duration": 6.88
    },
    {
      "text": "victim of somebody who was helped to get",
      "start": 559.959,
      "duration": 7.771
    },
    {
      "text": "sex welfare state has nothing to do with",
      "start": 562.39,
      "duration": 9.12
    },
    {
      "text": "helping the poor I mean surely by now",
      "start": 567.73,
      "duration": 6.12
    },
    {
      "text": "this is all completely obvious and does",
      "start": 571.51,
      "duration": 6
    },
    {
      "text": "not need much iteration if the goal was",
      "start": 573.85,
      "duration": 6.69
    },
    {
      "text": "to help the poor from the welfare state",
      "start": 577.51,
      "duration": 4.38
    },
    {
      "text": "of the state and all the state programs",
      "start": 580.54,
      "duration": 2.789
    },
    {
      "text": "if the goal was actually to help the",
      "start": 581.89,
      "duration": 5.01
    },
    {
      "text": "poor then the program's would have",
      "start": 583.329,
      "duration": 6.391
    },
    {
      "text": "changed to reflect the reality that the",
      "start": 586.9,
      "duration": 6.689
    },
    {
      "text": "poor are not being helped I mean I I",
      "start": 589.72,
      "duration": 6.15
    },
    {
      "text": "find it remarkable that this even needs",
      "start": 593.589,
      "duration": 3.721
    },
    {
      "text": "to be said but I guess that just goes to",
      "start": 595.87,
      "duration": 3.68
    },
    {
      "text": "show how powerful state propaganda is",
      "start": 597.31,
      "duration": 4.44
    },
    {
      "text": "it's their Department of Health and",
      "start": 599.55,
      "duration": 3.7
    },
    {
      "text": "Human Services so they're into Health",
      "start": 601.75,
      "duration": 3.63
    },
    {
      "text": "and servicing humans it's like that's",
      "start": 603.25,
      "duration": 4.829
    },
    {
      "text": "just the Mafia can call themself your",
      "start": 605.38,
      "duration": 4.53
    },
    {
      "text": "friendly neighborhood Italian man and it",
      "start": 608.079,
      "duration": 3
    },
    {
      "text": "doesn't mean that they're not gonna",
      "start": 609.91,
      "duration": 3.39
    },
    {
      "text": "break your kneecaps if you don't pay the",
      "start": 611.079,
      "duration": 3.87
    },
    {
      "text": "protection money I mean that the",
      "start": 613.3,
      "duration": 2.909
    },
    {
      "text": "language means nothing there",
      "start": 614.949,
      "duration": 4.021
    },
    {
      "text": "in fact if governments is at work I mean",
      "start": 616.209,
      "duration": 4.081
    },
    {
      "text": "whatever they say in terms of or help",
      "start": 618.97,
      "duration": 2.94
    },
    {
      "text": "the poor heads and nothing to do with",
      "start": 620.29,
      "duration": 5.489
    },
    {
      "text": "helping the poor the welfare state is to",
      "start": 621.91,
      "duration": 5.61
    },
    {
      "text": "do with with taking money and gaining",
      "start": 625.779,
      "duration": 3.361
    },
    {
      "text": "power and creating a dependent class",
      "start": 627.52,
      "duration": 3
    },
    {
      "text": "that will always vote to keep the",
      "start": 629.14,
      "duration": 3.569
    },
    {
      "text": "government in power once you create a",
      "start": 630.52,
      "duration": 4.5
    },
    {
      "text": "dependent class on the state that",
      "start": 632.709,
      "duration": 4.681
    },
    {
      "text": "dependent class will resist fiercely",
      "start": 635.02,
      "duration": 5.79
    },
    {
      "text": "anybody's attempt to restrain the growth",
      "start": 637.39,
      "duration": 4.15
    },
    {
      "text": "or",
      "start": 640.81,
      "duration": 5.35
    },
    {
      "text": "even the size of the state created",
      "start": 641.54,
      "duration": 6.84
    },
    {
      "text": "depending the Democrats get voted for a",
      "start": 646.16,
      "duration": 4.739
    },
    {
      "text": "lot by Hispanics and other minorities so",
      "start": 648.38,
      "duration": 4.079
    },
    {
      "text": "they want to import 10 million more",
      "start": 650.899,
      "duration": 4.261
    },
    {
      "text": "voters by relaxing immigration rules I",
      "start": 652.459,
      "duration": 4.62
    },
    {
      "text": "mean I don't get me wrong I mean I'm a",
      "start": 655.16,
      "duration": 4.169
    },
    {
      "text": "no border kind of guy but I mean just",
      "start": 657.079,
      "duration": 5.551
    },
    {
      "text": "recognize it for what it is I mean it's",
      "start": 659.329,
      "duration": 5.611
    },
    {
      "text": "like same public school education it's",
      "start": 662.63,
      "duration": 6.689
    },
    {
      "text": "about educating the young come on give",
      "start": 664.94,
      "duration": 6.81
    },
    {
      "text": "me a break record dropout rates",
      "start": 669.319,
      "duration": 4.741
    },
    {
      "text": "illiteracy it's got nothing to do with",
      "start": 671.75,
      "duration": 5.13
    },
    {
      "text": "educating the young whatever continues",
      "start": 674.06,
      "duration": 5.07
    },
    {
      "text": "in its course is doing what it is",
      "start": 676.88,
      "duration": 5.459
    },
    {
      "text": "designed to do right whatever stays the",
      "start": 679.13,
      "duration": 6.019
    },
    {
      "text": "same is doing what it's supposed to do",
      "start": 682.339,
      "duration": 4.8
    },
    {
      "text": "if the government we're about helping",
      "start": 685.149,
      "duration": 4.24
    },
    {
      "text": "the poor there would be no such thing as",
      "start": 687.139,
      "duration": 3.481
    },
    {
      "text": "the national debt that'd be no such",
      "start": 689.389,
      "duration": 3.091
    },
    {
      "text": "thing as inflation there'd be no such",
      "start": 690.62,
      "duration": 3.089
    },
    {
      "text": "thing as the welfare state in its",
      "start": 692.48,
      "duration": 3.39
    },
    {
      "text": "current manifestation it's nothing to do",
      "start": 693.709,
      "duration": 5.13
    },
    {
      "text": "with helping the poor at all because",
      "start": 695.87,
      "duration": 6.12
    },
    {
      "text": "it's not helping the poor at all I mean",
      "start": 698.839,
      "duration": 4.201
    },
    {
      "text": "if the government's not changing it",
      "start": 701.99,
      "duration": 2.519
    },
    {
      "text": "because it's doing exactly what it needs",
      "start": 703.04,
      "duration": 2.609
    },
    {
      "text": "to do which is to create a dependent",
      "start": 704.509,
      "duration": 2.76
    },
    {
      "text": "class who's almost gonna vote for the",
      "start": 705.649,
      "duration": 6.031
    },
    {
      "text": "government I mean it's like saying the",
      "start": 707.269,
      "duration": 6.3
    },
    {
      "text": "heroin dealer his goal is to have you",
      "start": 711.68,
      "duration": 5.01
    },
    {
      "text": "enjoy your drug trip no his goal is to",
      "start": 713.569,
      "duration": 4.591
    },
    {
      "text": "create you dependent upon him so that he",
      "start": 716.69,
      "duration": 3.24
    },
    {
      "text": "can start milking you for money anyway",
      "start": 718.16,
      "duration": 5.13
    },
    {
      "text": "so anybody who says that the welfare",
      "start": 719.93,
      "duration": 4.98
    },
    {
      "text": "state is about helping the poor I mean",
      "start": 723.29,
      "duration": 4.46
    },
    {
      "text": "they're just living in you know such",
      "start": 724.91,
      "duration": 7.369
    },
    {
      "text": "pink unicorn icing hellscape of deranged",
      "start": 727.75,
      "duration": 6.819
    },
    {
      "text": "seduction to the propaganda from the",
      "start": 732.279,
      "duration": 4.54
    },
    {
      "text": "powers that be that but I mean why even",
      "start": 734.569,
      "duration": 6.96
    },
    {
      "text": "bother talking to them honest the people",
      "start": 736.819,
      "duration": 8.13
    },
    {
      "text": "who say that the spanking is there to to",
      "start": 741.529,
      "duration": 5.101
    },
    {
      "text": "help children become better people no",
      "start": 744.949,
      "duration": 3.901
    },
    {
      "text": "spanking this is their to discharge",
      "start": 746.63,
      "duration": 4.709
    },
    {
      "text": "sadism that's what it's for because",
      "start": 748.85,
      "duration": 3.599
    },
    {
      "text": "that's what it always does the fact that",
      "start": 751.339,
      "duration": 3.631
    },
    {
      "text": "kids get worse doesn't change that",
      "start": 752.449,
      "duration": 4.801
    },
    {
      "text": "spanking continues if spanking continues",
      "start": 754.97,
      "duration": 4.41
    },
    {
      "text": "for 40% of Americans into their high",
      "start": 757.25,
      "duration": 6.75
    },
    {
      "text": "school years right I mean if I say I'm",
      "start": 759.38,
      "duration": 7.8
    },
    {
      "text": "gonna hit my dog with a rake to make him",
      "start": 764,
      "duration": 5.31
    },
    {
      "text": "more friendly and every time I hit my",
      "start": 767.18,
      "duration": 3.959
    },
    {
      "text": "dog with the rike he gets less friendly",
      "start": 769.31,
      "duration": 3.629
    },
    {
      "text": "and then I hit him because he's not",
      "start": 771.139,
      "duration": 3.51
    },
    {
      "text": "friendly enough you understand that my",
      "start": 772.939,
      "duration": 2.581
    },
    {
      "text": "story about him",
      "start": 774.649,
      "duration": 2.281
    },
    {
      "text": "with the rake to make him more friendly",
      "start": 775.52,
      "duration": 3.66
    },
    {
      "text": "as I just want to hit my dog",
      "start": 776.93,
      "duration": 5.599
    },
    {
      "text": "with a rake because I'm an asshole",
      "start": 779.18,
      "duration": 3.349
    },
    {
      "text": "so that would be my particular and its",
      "start": 782.77,
      "duration": 5.92
    },
    {
      "text": "idea that the helping the poor is a",
      "start": 786.77,
      "duration": 3.33
    },
    {
      "text": "higher goal than the moral goal of",
      "start": 788.69,
      "duration": 4.589
    },
    {
      "text": "non-aggression my God in heaven what",
      "start": 790.1,
      "duration": 5.51
    },
    {
      "text": "would help the poor more than a",
      "start": 793.279,
      "duration": 4.041
    },
    {
      "text": "universal non-aggression principle",
      "start": 795.61,
      "duration": 3.7
    },
    {
      "text": "because the universal non-aggression",
      "start": 797.32,
      "duration": 3.34
    },
    {
      "text": "principle would bar the poor from",
      "start": 799.31,
      "duration": 2.79
    },
    {
      "text": "hitting their children which would raise",
      "start": 800.66,
      "duration": 3.03
    },
    {
      "text": "the IQ their social skills their",
      "start": 802.1,
      "duration": 3.65
    },
    {
      "text": "negotiation skills their economic skills",
      "start": 803.69,
      "duration": 4.92
    },
    {
      "text": "their win-win skills and they'd no",
      "start": 805.75,
      "duration": 5.17
    },
    {
      "text": "longer be poor it's nothing that will",
      "start": 808.61,
      "duration": 3.45
    },
    {
      "text": "help the poor more than the",
      "start": 810.92,
      "duration": 2.46
    },
    {
      "text": "non-aggression principle because if it",
      "start": 812.06,
      "duration": 3.089
    },
    {
      "text": "involved the peaceful and benevolent",
      "start": 813.38,
      "duration": 3.39
    },
    {
      "text": "raising of children which is the single",
      "start": 815.149,
      "duration": 3.031
    },
    {
      "text": "biggest factor in determining whether",
      "start": 816.77,
      "duration": 6.06
    },
    {
      "text": "somebody ends up rich or poor all right",
      "start": 818.18,
      "duration": 7.409
    },
    {
      "text": "I've encountered says Danny Boy I've",
      "start": 822.83,
      "duration": 4.23
    },
    {
      "text": "encountered a unique type of Christian",
      "start": 825.589,
      "duration": 4.711
    },
    {
      "text": "argumentation as presuppositional ISM I",
      "start": 827.06,
      "duration": 4.529
    },
    {
      "text": "like it",
      "start": 830.3,
      "duration": 3.539
    },
    {
      "text": "the arguments usually start with a",
      "start": 831.589,
      "duration": 4.111
    },
    {
      "text": "series of questions such as is it",
      "start": 833.839,
      "duration": 4.111
    },
    {
      "text": "circular reasoning to use your reasoning",
      "start": 835.7,
      "duration": 5.1
    },
    {
      "text": "to justify your reasoning or if a",
      "start": 837.95,
      "duration": 4.829
    },
    {
      "text": "person's reasoning can be wrong how do",
      "start": 840.8,
      "duration": 3.72
    },
    {
      "text": "you know that your reasoning is not",
      "start": 842.779,
      "duration": 4.651
    },
    {
      "text": "wrong or how do you know that you're not",
      "start": 844.52,
      "duration": 5.009
    },
    {
      "text": "in a mental hospital and think that your",
      "start": 847.43,
      "duration": 3.899
    },
    {
      "text": "reasoning is valid when it is actually",
      "start": 849.529,
      "duration": 3.841
    },
    {
      "text": "not what the difference is I actually",
      "start": 851.329,
      "duration": 3.991
    },
    {
      "text": "know that I'm in a mental hospital with",
      "start": 853.37,
      "duration": 5.07
    },
    {
      "text": "a few sane people around but a mental",
      "start": 855.32,
      "duration": 8.1
    },
    {
      "text": "hospital is it's a country the country",
      "start": 858.44,
      "duration": 7.74
    },
    {
      "text": "is a mental hospital and a mental",
      "start": 863.42,
      "duration": 4.109
    },
    {
      "text": "hospital there's no particular interest",
      "start": 866.18,
      "duration": 3.63
    },
    {
      "text": "in making you sane but rather profiting",
      "start": 867.529,
      "duration": 4.531
    },
    {
      "text": "from your madness and a country it's",
      "start": 869.81,
      "duration": 4.23
    },
    {
      "text": "mental hospital that in no way profits",
      "start": 872.06,
      "duration": 4.26
    },
    {
      "text": "from you being sane but profits from",
      "start": 874.04,
      "duration": 3.93
    },
    {
      "text": "your continued madness your allegiance",
      "start": 876.32,
      "duration": 3.889
    },
    {
      "text": "to your rulers your belief in imaginary",
      "start": 877.97,
      "duration": 5.489
    },
    {
      "text": "magic flags and carpet rides of",
      "start": 880.209,
      "duration": 6.581
    },
    {
      "text": "delusionary nonsense so I know that I'm",
      "start": 883.459,
      "duration": 4.461
    },
    {
      "text": "in a mental hospital",
      "start": 886.79,
      "duration": 3.299
    },
    {
      "text": "because to see the farm is to leave it",
      "start": 887.92,
      "duration": 4.51
    },
    {
      "text": "at least in your mind and if an atheists",
      "start": 890.089,
      "duration": 3.391
    },
    {
      "text": "were to ask how do you know your",
      "start": 892.43,
      "duration": 1.92
    },
    {
      "text": "reasoning is valid the",
      "start": 893.48,
      "duration": 2.31
    },
    {
      "text": "presuppositionalist would appeal to",
      "start": 894.35,
      "duration": 3.75
    },
    {
      "text": "divine revelation and say God made me",
      "start": 895.79,
      "duration": 4.56
    },
    {
      "text": "certain and the Atheist would ask how do",
      "start": 898.1,
      "duration": 3.72
    },
    {
      "text": "you know that God made you certain",
      "start": 900.35,
      "duration": 3
    },
    {
      "text": "and the presuppositionalist would",
      "start": 901.82,
      "duration": 3.78
    },
    {
      "text": "respond with because God may made me",
      "start": 903.35,
      "duration": 4.47
    },
    {
      "text": "certain right am i doing a pattern here",
      "start": 905.6,
      "duration": 3.87
    },
    {
      "text": "the Atheist would respond",
      "start": 907.82,
      "duration": 3.3
    },
    {
      "text": "isn't that circular reasoning if the",
      "start": 909.47,
      "duration": 3.09
    },
    {
      "text": "presupposition is which respondents say",
      "start": 911.12,
      "duration": 3.06
    },
    {
      "text": "yes that is circular but your argument",
      "start": 912.56,
      "duration": 3.36
    },
    {
      "text": "is viciously circle circular because",
      "start": 914.18,
      "duration": 3.36
    },
    {
      "text": "God's knowledge and reasoning is perfect",
      "start": 915.92,
      "duration": 4.52
    },
    {
      "text": "and man's reasoning and knowledge is not",
      "start": 917.54,
      "duration": 5.91
    },
    {
      "text": "the same argument argument applies to",
      "start": 920.44,
      "duration": 6.22
    },
    {
      "text": "the validity of the senses as with",
      "start": 923.45,
      "duration": 4.98
    },
    {
      "text": "reasoning and the conversation goes to",
      "start": 926.66,
      "duration": 4.71
    },
    {
      "text": "hell from there the presupposition list",
      "start": 928.43,
      "duration": 5.82
    },
    {
      "text": "would go on a rant on how that there are",
      "start": 931.37,
      "duration": 5.04
    },
    {
      "text": "no atheists and that God has revealed",
      "start": 934.25,
      "duration": 3.6
    },
    {
      "text": "himself to everyone and that the",
      "start": 936.41,
      "duration": 3.09
    },
    {
      "text": "atheists are not really atheists and are",
      "start": 937.85,
      "duration": 4.91
    },
    {
      "text": "suppressing the truth in unrighteousness",
      "start": 939.5,
      "duration": 6.03
    },
    {
      "text": "I have too short to talk with these",
      "start": 942.76,
      "duration": 4.36
    },
    {
      "text": "people any objections to the claimed",
      "start": 945.53,
      "duration": 3.42
    },
    {
      "text": "results in the presupposition is saying",
      "start": 947.12,
      "duration": 3.81
    },
    {
      "text": "but you could be wrong about that like a",
      "start": 948.95,
      "duration": 3.99
    },
    {
      "text": "childish Sophists like the childish",
      "start": 950.93,
      "duration": 3.6
    },
    {
      "text": "suffice that he is I have a gut feeling",
      "start": 952.94,
      "duration": 2.46
    },
    {
      "text": "that there is something fundamentally",
      "start": 954.53,
      "duration": 3.36
    },
    {
      "text": "wrong with the arguments I just don't",
      "start": 955.4,
      "duration": 6.15
    },
    {
      "text": "know how to express it into words if you",
      "start": 957.89,
      "duration": 5.73
    },
    {
      "text": "could address these arguments I would",
      "start": 961.55,
      "duration": 3.44
    },
    {
      "text": "very much appreciate it",
      "start": 963.62,
      "duration": 3.99
    },
    {
      "text": "is it circular reasoning to use your",
      "start": 964.99,
      "duration": 4.06
    },
    {
      "text": "reasoning to justify your reasoning",
      "start": 967.61,
      "duration": 4.07
    },
    {
      "text": "that's the first question",
      "start": 969.05,
      "duration": 2.63
    },
    {
      "text": "use your reasoning to justify your",
      "start": 973.48,
      "duration": 5.01
    },
    {
      "text": "reasoning is an incomprehensible",
      "start": 975.89,
      "duration": 4.92
    },
    {
      "text": "statement so the question is asked well",
      "start": 978.49,
      "duration": 5.41
    },
    {
      "text": "why is reason valid or how do you know",
      "start": 980.81,
      "duration": 5.52
    },
    {
      "text": "that reason is valid and so on well",
      "start": 983.9,
      "duration": 4.17
    },
    {
      "text": "first of all you can ask the question",
      "start": 986.33,
      "duration": 4.74
    },
    {
      "text": "without using reason I mean we organize",
      "start": 988.07,
      "duration": 4.47
    },
    {
      "text": "our sentences according to rational",
      "start": 991.07,
      "duration": 4.14
    },
    {
      "text": "principles we use words that mean what",
      "start": 992.54,
      "duration": 4.17
    },
    {
      "text": "we hope they mean and what we hope the",
      "start": 995.21,
      "duration": 3.39
    },
    {
      "text": "other person knows that they mean in",
      "start": 996.71,
      "duration": 4.11
    },
    {
      "text": "particular sequences we use the",
      "start": 998.6,
      "duration": 5.76
    },
    {
      "text": "objective reality of physical properties",
      "start": 1000.82,
      "duration": 5.61
    },
    {
      "text": "and and physics and so on physical laws",
      "start": 1004.36,
      "duration": 4.47
    },
    {
      "text": "in order to communicate because we don't",
      "start": 1006.43,
      "duration": 4.62
    },
    {
      "text": "do mind mails that much at least as yet",
      "start": 1008.83,
      "duration": 4.47
    },
    {
      "text": "I have to communicate to you using my",
      "start": 1011.05,
      "duration": 5.16
    },
    {
      "text": "voice and using my voice means that I'm",
      "start": 1013.3,
      "duration": 6
    },
    {
      "text": "going to rely upon the objectivity for",
      "start": 1016.21,
      "duration": 5.37
    },
    {
      "text": "sound waves and and the capacity of your",
      "start": 1019.3,
      "duration": 3.78
    },
    {
      "text": "ears to hear what it is that I'm saying",
      "start": 1021.58,
      "duration": 2.7
    },
    {
      "text": "doesn't mean we agree it just means that",
      "start": 1023.08,
      "duration": 3.33
    },
    {
      "text": "you sort of understand what I'm saying",
      "start": 1024.28,
      "duration": 4.23
    },
    {
      "text": "these are all rational assumptions you",
      "start": 1026.41,
      "duration": 4.5
    },
    {
      "text": "simply you cannot argue against the",
      "start": 1028.51,
      "duration": 4.29
    },
    {
      "text": "senses without using the senses like",
      "start": 1030.91,
      "duration": 5.13
    },
    {
      "text": "read this argument that I wrote that",
      "start": 1032.8,
      "duration": 5.07
    },
    {
      "text": "says your eyes are fallible it's like",
      "start": 1036.04,
      "duration": 3.33
    },
    {
      "text": "okay well which part of this argument",
      "start": 1037.87,
      "duration": 4.079
    },
    {
      "text": "and my eyes not seeing correctly well no",
      "start": 1039.37,
      "duration": 3.959
    },
    {
      "text": "you understand the argument",
      "start": 1041.949,
      "duration": 3.39
    },
    {
      "text": "because you just read it back to me so",
      "start": 1043.329,
      "duration": 4.11
    },
    {
      "text": "you used your eyes in a very accurate",
      "start": 1045.339,
      "duration": 4.501
    },
    {
      "text": "way to read the argument that says that",
      "start": 1047.439,
      "duration": 4.501
    },
    {
      "text": "your senses are fallible it's like well",
      "start": 1049.84,
      "duration": 3.209
    },
    {
      "text": "then we just proved that they're not",
      "start": 1051.94,
      "duration": 2.579
    },
    {
      "text": "fallible at least not in this instance",
      "start": 1053.049,
      "duration": 2.641
    },
    {
      "text": "doesn't mean that they're omniscient it",
      "start": 1054.519,
      "duration": 2.311
    },
    {
      "text": "just means that they're not particularly",
      "start": 1055.69,
      "duration": 3.15
    },
    {
      "text": "fallible and if they're fooled we check",
      "start": 1056.83,
      "duration": 3.929
    },
    {
      "text": "them in other ways right stuff them in",
      "start": 1058.84,
      "duration": 4.079
    },
    {
      "text": "the desert and I see you Mirage or a",
      "start": 1060.759,
      "duration": 4.41
    },
    {
      "text": "lake or whatever then I say well I think",
      "start": 1062.919,
      "duration": 4.291
    },
    {
      "text": "that's a lake and you say well we're in",
      "start": 1065.169,
      "duration": 4.35
    },
    {
      "text": "a desert the light waves are gonna",
      "start": 1067.21,
      "duration": 4.589
    },
    {
      "text": "bounce between differently heated layers",
      "start": 1069.519,
      "duration": 3.54
    },
    {
      "text": "of air and you can end up with this",
      "start": 1071.799,
      "duration": 2.76
    },
    {
      "text": "thing that looks like a lake but it's",
      "start": 1073.059,
      "duration": 3.45
    },
    {
      "text": "actually just a mirage I don't like oh",
      "start": 1074.559,
      "duration": 4.56
    },
    {
      "text": "cool let's go see and then we walk over",
      "start": 1076.509,
      "duration": 4.98
    },
    {
      "text": "there and if the lake vanishes from",
      "start": 1079.119,
      "duration": 3.451
    },
    {
      "text": "where I thought it was I'm like yeah I",
      "start": 1081.489,
      "duration": 2.43
    },
    {
      "text": "guess it was an optical illusion why",
      "start": 1082.57,
      "duration": 3.089
    },
    {
      "text": "because I'm standing here there's no",
      "start": 1083.919,
      "duration": 4.01
    },
    {
      "text": " lake now if on the other hand",
      "start": 1085.659,
      "duration": 5.311
    },
    {
      "text": "what I do is we walk over there and I",
      "start": 1087.929,
      "duration": 5.291
    },
    {
      "text": "jump into the lake and I blow my nose in",
      "start": 1090.97,
      "duration": 4.529
    },
    {
      "text": "it and you know because I'm not",
      "start": 1093.22,
      "duration": 6
    },
    {
      "text": "circumstanced I wash my the inside of my",
      "start": 1095.499,
      "duration": 5.28
    },
    {
      "text": "foreskin and that's eliminating the need",
      "start": 1099.22,
      "duration": 3.24
    },
    {
      "text": "for that kind of brutality if I do all",
      "start": 1100.779,
      "duration": 2.941
    },
    {
      "text": "of that stuff and you say no I don't",
      "start": 1102.46,
      "duration": 2.399
    },
    {
      "text": "think it's a like I think it's a mirage",
      "start": 1103.72,
      "duration": 2.519
    },
    {
      "text": "it's like it's pretty good",
      "start": 1104.859,
      "duration": 3.27
    },
    {
      "text": "Mirage man this is like sound or",
      "start": 1106.239,
      "duration": 3.63
    },
    {
      "text": "bollocks I sighs IMAX I mean that's just",
      "start": 1108.129,
      "duration": 4.89
    },
    {
      "text": "incredible so we check our senses with",
      "start": 1109.869,
      "duration": 4.5
    },
    {
      "text": "their other senses and so on so you",
      "start": 1113.019,
      "duration": 5.22
    },
    {
      "text": "can't you can't argue against the census",
      "start": 1114.369,
      "duration": 5.55
    },
    {
      "text": "without using the senses and assuming",
      "start": 1118.239,
      "duration": 4.111
    },
    {
      "text": "their validity you cannot argue against",
      "start": 1119.919,
      "duration": 4.921
    },
    {
      "text": "reason without using all the rational",
      "start": 1122.35,
      "duration": 4.74
    },
    {
      "text": "and empirical faculties of language",
      "start": 1124.84,
      "duration": 4.469
    },
    {
      "text": "organisations sound production the",
      "start": 1127.09,
      "duration": 3.839
    },
    {
      "text": "physical properties of communicating I",
      "start": 1129.309,
      "duration": 3.18
    },
    {
      "text": "mean if you tap it out on someone's skin",
      "start": 1130.929,
      "duration": 3.75
    },
    {
      "text": "you're using their touch if you create",
      "start": 1132.489,
      "duration": 4.77
    },
    {
      "text": "some Braille made of smells then you're",
      "start": 1134.679,
      "duration": 4.051
    },
    {
      "text": "using their scent but we have to",
      "start": 1137.259,
      "duration": 3.721
    },
    {
      "text": "communicate our arguments using the",
      "start": 1138.73,
      "duration": 5.73
    },
    {
      "text": "senses in some fashion or another and so",
      "start": 1140.98,
      "duration": 4.98
    },
    {
      "text": "you can't deny the census without",
      "start": 1144.46,
      "duration": 2.88
    },
    {
      "text": "assuming the census and you cannot",
      "start": 1145.96,
      "duration": 3.27
    },
    {
      "text": "attempt to argue against rationality",
      "start": 1147.34,
      "duration": 4.38
    },
    {
      "text": "without using objectivity rational",
      "start": 1149.23,
      "duration": 4.11
    },
    {
      "text": "organization of language and so on and",
      "start": 1151.72,
      "duration": 5.97
    },
    {
      "text": "so you know that which we must assume to",
      "start": 1153.34,
      "duration": 6.569
    },
    {
      "text": "be valid in order to make an argument we",
      "start": 1157.69,
      "duration": 4.29
    },
    {
      "text": "cannot rationally argue against it's",
      "start": 1159.909,
      "duration": 4.23
    },
    {
      "text": "like me making the sentence saying the",
      "start": 1161.98,
      "duration": 4.259
    },
    {
      "text": "sentence language is meaningless did you",
      "start": 1164.139,
      "duration": 5.341
    },
    {
      "text": "understand that if yes then language is",
      "start": 1166.239,
      "duration": 5.91
    },
    {
      "text": "not meaningless if no then why would I",
      "start": 1169.48,
      "duration": 4.74
    },
    {
      "text": "say it because language is meaningless I",
      "start": 1172.149,
      "duration": 4.771
    },
    {
      "text": "have to assume the meaning of life",
      "start": 1174.22,
      "duration": 4.08
    },
    {
      "text": "which in order to communicate that it's",
      "start": 1176.92,
      "duration": 2.67
    },
    {
      "text": "meaningless or to give another example",
      "start": 1178.3,
      "duration": 4.32
    },
    {
      "text": "I've used before if I send a letter to",
      "start": 1179.59,
      "duration": 4.32
    },
    {
      "text": "you saying that letters never get",
      "start": 1182.62,
      "duration": 2.61
    },
    {
      "text": "delivered and I need you to know that",
      "start": 1183.91,
      "duration": 3.39
    },
    {
      "text": "that would make no sense because if I",
      "start": 1185.23,
      "duration": 4.05
    },
    {
      "text": "genuinely believe that letters never get",
      "start": 1187.3,
      "duration": 5.16
    },
    {
      "text": "delivered why would I bother but the",
      "start": 1189.28,
      "duration": 6.87
    },
    {
      "text": "important thing of course is is we have",
      "start": 1192.46,
      "duration": 5.28
    },
    {
      "text": "this temptation I mean I fall into it",
      "start": 1196.15,
      "duration": 3.6
    },
    {
      "text": "myself we have this temptation which is",
      "start": 1197.74,
      "duration": 5.85
    },
    {
      "text": "to say that people have incorrect",
      "start": 1199.75,
      "duration": 7.26
    },
    {
      "text": "beliefs and if I correct those people's",
      "start": 1203.59,
      "duration": 5.61
    },
    {
      "text": "beliefs they will now have correct",
      "start": 1207.01,
      "duration": 7.02
    },
    {
      "text": "beliefs this is not true and you can go",
      "start": 1209.2,
      "duration": 7.71
    },
    {
      "text": "to FDR URL com /bi B to see my",
      "start": 1214.03,
      "duration": 4.59
    },
    {
      "text": "presentation on this which is lengthy",
      "start": 1216.91,
      "duration": 3.6
    },
    {
      "text": "but if you're at all interested in",
      "start": 1218.62,
      "duration": 3.06
    },
    {
      "text": "changing people's minds are making the",
      "start": 1220.51,
      "duration": 1.98
    },
    {
      "text": "world a better place",
      "start": 1221.68,
      "duration": 3.09
    },
    {
      "text": "at least spend a little bit of time that",
      "start": 1222.49,
      "duration": 5.34
    },
    {
      "text": "it takes to understand how people are",
      "start": 1224.77,
      "duration": 4.65
    },
    {
      "text": "merely pretending to think in almost",
      "start": 1227.83,
      "duration": 3.96
    },
    {
      "text": "everything that they do and this is very",
      "start": 1229.42,
      "duration": 4.5
    },
    {
      "text": "well understood in brain science that",
      "start": 1231.79,
      "duration": 3.81
    },
    {
      "text": "people have an emotional impulse usually",
      "start": 1233.92,
      "duration": 3.33
    },
    {
      "text": "arising from early childhood trauma and",
      "start": 1235.6,
      "duration": 3.48
    },
    {
      "text": "then that flashes through their brain",
      "start": 1237.25,
      "duration": 4.89
    },
    {
      "text": "and gives them the impetus for a",
      "start": 1239.08,
      "duration": 5.04
    },
    {
      "text": "particular emotional response and then",
      "start": 1242.14,
      "duration": 4.32
    },
    {
      "text": "only later a few seconds later do they",
      "start": 1244.12,
      "duration": 4.41
    },
    {
      "text": "actually come up with some rational",
      "start": 1246.46,
      "duration": 3.96
    },
    {
      "text": "reason to explain away their emotion and",
      "start": 1248.53,
      "duration": 5.52
    },
    {
      "text": "pretend right so I mean you'll see this",
      "start": 1250.42,
      "duration": 5.22
    },
    {
      "text": "you'll see this all the time once you",
      "start": 1254.05,
      "duration": 3.75
    },
    {
      "text": "see it and so this is why I talk to",
      "start": 1255.64,
      "duration": 3.45
    },
    {
      "text": "people about their childhoods it's not",
      "start": 1257.8,
      "duration": 2.55
    },
    {
      "text": "because I'm fascinated by everyone's",
      "start": 1259.09,
      "duration": 4.71
    },
    {
      "text": "child's it's okay I am but the reason",
      "start": 1260.35,
      "duration": 4.47
    },
    {
      "text": "that I want to ask people about their",
      "start": 1263.8,
      "duration": 3.87
    },
    {
      "text": "childhoods in this show it's because I",
      "start": 1264.82,
      "duration": 4.11
    },
    {
      "text": "actually want to help change their minds",
      "start": 1267.67,
      "duration": 3.71
    },
    {
      "text": "and if you want to change something you",
      "start": 1268.93,
      "duration": 4.59
    },
    {
      "text": "first have to understand what it is",
      "start": 1271.38,
      "duration": 3.37
    },
    {
      "text": "right if you want to change a light bulb",
      "start": 1273.52,
      "duration": 2.49
    },
    {
      "text": "you first have to know what a light bulb",
      "start": 1274.75,
      "duration": 3.15
    },
    {
      "text": "is where a new one is how to unscrew it",
      "start": 1276.01,
      "duration": 3.09
    },
    {
      "text": "how to screw it in and all that kind of",
      "start": 1277.9,
      "duration": 2.43
    },
    {
      "text": "stuff and if you want to change people's",
      "start": 1279.1,
      "duration": 3.33
    },
    {
      "text": "minds you kind of have to put the time",
      "start": 1280.33,
      "duration": 3.75
    },
    {
      "text": "in to find out how the mind works again",
      "start": 1282.43,
      "duration": 4.14
    },
    {
      "text": "it's stuff that I can't believe I need",
      "start": 1284.08,
      "duration": 4.35
    },
    {
      "text": "to say you know like if you want to be a",
      "start": 1286.57,
      "duration": 3.09
    },
    {
      "text": "doctor you should learn something about",
      "start": 1288.43,
      "duration": 2.76
    },
    {
      "text": "the human body and if you want to be a",
      "start": 1289.66,
      "duration": 2.82
    },
    {
      "text": "change agent in the world you should",
      "start": 1291.19,
      "duration": 2.52
    },
    {
      "text": "learn something about how the human mind",
      "start": 1292.48,
      "duration": 4.44
    },
    {
      "text": "works these people do not believe in God",
      "start": 1293.71,
      "duration": 4.92
    },
    {
      "text": "because someone came along with a great",
      "start": 1296.92,
      "duration": 4.56
    },
    {
      "text": "argument there are no great arguments",
      "start": 1298.63,
      "duration": 4.32
    },
    {
      "text": "for God or any of the gods and they",
      "start": 1301.48,
      "duration": 4.02
    },
    {
      "text": "already don't believe in 9999 of the",
      "start": 1302.95,
      "duration": 5.64
    },
    {
      "text": "gods in the human Pantheon nobody",
      "start": 1305.5,
      "duration": 4.56
    },
    {
      "text": "believes in God because they heard a",
      "start": 1308.59,
      "duration": 1.98
    },
    {
      "text": "really good",
      "start": 1310.06,
      "duration": 2.13
    },
    {
      "text": "I admit they believe in God because",
      "start": 1310.57,
      "duration": 3.329
    },
    {
      "text": "they're traumatized they believe in God",
      "start": 1312.19,
      "duration": 3.15
    },
    {
      "text": "because they were told to believe in God",
      "start": 1313.899,
      "duration": 2.961
    },
    {
      "text": "and they were punished if they didn't I",
      "start": 1315.34,
      "duration": 5.699
    },
    {
      "text": "mean nobody in Stalinist Russia in the",
      "start": 1316.86,
      "duration": 7.21
    },
    {
      "text": "1950s was a communist by choice they",
      "start": 1321.039,
      "duration": 5.25
    },
    {
      "text": "were all just forced to do it and and if",
      "start": 1324.07,
      "duration": 3.359
    },
    {
      "text": "they didn't do it they went to a",
      "start": 1326.289,
      "duration": 2.161
    },
    {
      "text": "concentration camp",
      "start": 1327.429,
      "duration": 5.46
    },
    {
      "text": "so it's trauma and fear and dependence",
      "start": 1328.45,
      "duration": 8.43
    },
    {
      "text": "and abuse that results in false beliefs",
      "start": 1332.889,
      "duration": 5.551
    },
    {
      "text": "and if you can't address that or at",
      "start": 1336.88,
      "duration": 2.61
    },
    {
      "text": "least help people to understand that",
      "start": 1338.44,
      "duration": 2.729
    },
    {
      "text": "that's the source of it you're totally",
      "start": 1339.49,
      "duration": 10.409
    },
    {
      "text": "wagging the dog you've mentioned the old",
      "start": 1341.169,
      "duration": 12.061
    },
    {
      "text": "adage that power corrupts this is Lord",
      "start": 1349.899,
      "duration": 5.461
    },
    {
      "text": "acts and power tends to corrupt he said",
      "start": 1353.23,
      "duration": 3.24
    },
    {
      "text": "absolute power tends to corrupt",
      "start": 1355.36,
      "duration": 3.72
    },
    {
      "text": "absolutely but perhaps the problem is",
      "start": 1356.47,
      "duration": 5.159
    },
    {
      "text": "not that power corrupts but that those",
      "start": 1359.08,
      "duration": 4.079
    },
    {
      "text": "who gain and desire power are",
      "start": 1361.629,
      "duration": 4.081
    },
    {
      "text": "psychopathic do you believe that",
      "start": 1363.159,
      "duration": 4.171
    },
    {
      "text": "extremely empathetic individuals would",
      "start": 1365.71,
      "duration": 3.15
    },
    {
      "text": "be corrupted if placed in a position of",
      "start": 1367.33,
      "duration": 3.839
    },
    {
      "text": "power I think that's a bit of a false",
      "start": 1368.86,
      "duration": 4.199
    },
    {
      "text": "question I would never want to be in a",
      "start": 1371.169,
      "duration": 5.01
    },
    {
      "text": "position of power I would never want to",
      "start": 1373.059,
      "duration": 5.1
    },
    {
      "text": "be in a position of power because I can",
      "start": 1376.179,
      "duration": 3.421
    },
    {
      "text": "empathize with those I was ordering",
      "start": 1378.159,
      "duration": 4.5
    },
    {
      "text": "around and I know that I don't like to",
      "start": 1379.6,
      "duration": 4.62
    },
    {
      "text": "be ordered around so why on earth would",
      "start": 1382.659,
      "duration": 3
    },
    {
      "text": "I want to order someone else around and",
      "start": 1384.22,
      "duration": 4.14
    },
    {
      "text": "of course you know we talked about this",
      "start": 1385.659,
      "duration": 4.26
    },
    {
      "text": "position of power like it's some",
      "start": 1388.36,
      "duration": 3.569
    },
    {
      "text": "abstract thing like if I were king of",
      "start": 1389.919,
      "duration": 3.421
    },
    {
      "text": "the world or if I became the president",
      "start": 1391.929,
      "duration": 3
    },
    {
      "text": "or I became the prime minister or the",
      "start": 1393.34,
      "duration": 5.91
    },
    {
      "text": "Pope or something but it's not it's not",
      "start": 1394.929,
      "duration": 6.21
    },
    {
      "text": "an abstract thing that may happen to",
      "start": 1399.25,
      "duration": 3.6
    },
    {
      "text": "someone in our gene pool at some point",
      "start": 1401.139,
      "duration": 3.061
    },
    {
      "text": "over the next thousand years we're all",
      "start": 1402.85,
      "duration": 4.34
    },
    {
      "text": "placed in incredible positions of power",
      "start": 1404.2,
      "duration": 4.89
    },
    {
      "text": "particularly of course when we become",
      "start": 1407.19,
      "duration": 3.76
    },
    {
      "text": "parents this is from replace that",
      "start": 1409.09,
      "duration": 4.62
    },
    {
      "text": "enormous positions of power were also",
      "start": 1410.95,
      "duration": 4.05
    },
    {
      "text": "placed in positions of power when",
      "start": 1413.71,
      "duration": 2.819
    },
    {
      "text": "someone around us is vulnerable and",
      "start": 1415,
      "duration": 3.48
    },
    {
      "text": "scared and so on were placed in",
      "start": 1416.529,
      "duration": 3
    },
    {
      "text": "positions of power there",
      "start": 1418.48,
      "duration": 3.779
    },
    {
      "text": "if you empathize with other people then",
      "start": 1419.529,
      "duration": 6.921
    },
    {
      "text": "you will not want to rule them right a",
      "start": 1422.259,
      "duration": 8.55
    },
    {
      "text": "farmer who falls in love with a cow he's",
      "start": 1426.45,
      "duration": 5.89
    },
    {
      "text": "going to invite him into his house I'm",
      "start": 1430.809,
      "duration": 2.791
    },
    {
      "text": "not going to keep him in a stall in the",
      "start": 1432.34,
      "duration": 7.02
    },
    {
      "text": "coals right and somebody who has genuine",
      "start": 1433.6,
      "duration": 10.06
    },
    {
      "text": "empathy would understand the limitations",
      "start": 1439.36,
      "duration": 9.1
    },
    {
      "text": "of power right so I'm sometimes not sure",
      "start": 1443.66,
      "duration": 10.59
    },
    {
      "text": "what to do with my time right because we",
      "start": 1448.46,
      "duration": 6.69
    },
    {
      "text": "have options we have choices",
      "start": 1454.25,
      "duration": 2.43
    },
    {
      "text": "particularly in the first world right so",
      "start": 1455.15,
      "duration": 3.12
    },
    {
      "text": "shutter to shutter exercise should I go",
      "start": 1456.68,
      "duration": 3.06
    },
    {
      "text": "for a walk should I do a show should I",
      "start": 1458.27,
      "duration": 3
    },
    {
      "text": "play with my daughter or should I chat",
      "start": 1459.74,
      "duration": 3.33
    },
    {
      "text": "with my wife should I go see a movie to",
      "start": 1461.27,
      "duration": 3.42
    },
    {
      "text": "review because there's a kind of bullet",
      "start": 1463.07,
      "duration": 4.41
    },
    {
      "text": "side tag for philosophy people I don't",
      "start": 1464.69,
      "duration": 4.97
    },
    {
      "text": "know what to do with my time and I don't",
      "start": 1467.48,
      "duration": 4.73
    },
    {
      "text": "know that there's a right answer right",
      "start": 1469.66,
      "duration": 6.7
    },
    {
      "text": "and I sure know that nobody else can",
      "start": 1472.21,
      "duration": 5.77
    },
    {
      "text": "order me want to do with my time and",
      "start": 1476.36,
      "duration": 3.48
    },
    {
      "text": "have that be a right answer like I know",
      "start": 1477.98,
      "duration": 4.32
    },
    {
      "text": "that for a fact I mean there are a few",
      "start": 1479.84,
      "duration": 4.17
    },
    {
      "text": "bands and from gonna go strangle a",
      "start": 1482.3,
      "duration": 3.69
    },
    {
      "text": "homeless guy then yes please please stop",
      "start": 1484.01,
      "duration": 6.81
    },
    {
      "text": "me if I'm on my way but it is not the",
      "start": 1485.99,
      "duration": 7.95
    },
    {
      "text": "case that I would want to order anyone",
      "start": 1490.82,
      "duration": 5.01
    },
    {
      "text": "around cuz I don't know what you should",
      "start": 1493.94,
      "duration": 3.84
    },
    {
      "text": "do with your time I genuinely don't know",
      "start": 1495.83,
      "duration": 3.63
    },
    {
      "text": "a couple of things I know you shouldn't",
      "start": 1497.78,
      "duration": 3.27
    },
    {
      "text": "do there's some things that I would",
      "start": 1499.46,
      "duration": 3.12
    },
    {
      "text": "suggest would be helpful to you",
      "start": 1501.05,
      "duration": 3.75
    },
    {
      "text": "I said well you should study philosophy",
      "start": 1502.58,
      "duration": 4.13
    },
    {
      "text": "but I can't answer that question for you",
      "start": 1504.8,
      "duration": 4.23
    },
    {
      "text": "you know what if you're going to be dead",
      "start": 1506.71,
      "duration": 2.71
    },
    {
      "text": "in a week",
      "start": 1509.03,
      "duration": 2.16
    },
    {
      "text": "but if you got some horrible terminal",
      "start": 1509.42,
      "duration": 3.33
    },
    {
      "text": "ailment what if you're gonna be dead in",
      "start": 1511.19,
      "duration": 3.81
    },
    {
      "text": "a week should you study philosophy I'm",
      "start": 1512.75,
      "duration": 3.42
    },
    {
      "text": "not sure that you should I think you",
      "start": 1515,
      "duration": 2.43
    },
    {
      "text": "should go and experience all the things",
      "start": 1516.17,
      "duration": 2.67
    },
    {
      "text": "that you wanted to experience in life",
      "start": 1517.43,
      "duration": 4.5
    },
    {
      "text": "and die as peacefully as you can I think",
      "start": 1518.84,
      "duration": 5.85
    },
    {
      "text": "people should exercise again if they're",
      "start": 1521.93,
      "duration": 4.77
    },
    {
      "text": "a week away from dying I don't think",
      "start": 1524.69,
      "duration": 3.84
    },
    {
      "text": "this you know I there's a reason why",
      "start": 1526.7,
      "duration": 3.21
    },
    {
      "text": "everyone eats crap for their last meal",
      "start": 1528.53,
      "duration": 2.49
    },
    {
      "text": "right because you don't have to worry",
      "start": 1529.91,
      "duration": 3.06
    },
    {
      "text": "about your cholesterol when you're about",
      "start": 1531.02,
      "duration": 4.47
    },
    {
      "text": "to die so I don't know what people",
      "start": 1532.97,
      "duration": 6.95
    },
    {
      "text": "should do with their lives and I",
      "start": 1535.49,
      "duration": 8.52
    },
    {
      "text": "recognize that and this is why I would",
      "start": 1539.92,
      "duration": 5.65
    },
    {
      "text": "just have no interest in having a",
      "start": 1544.01,
      "duration": 3.66
    },
    {
      "text": "position of power over people because",
      "start": 1545.57,
      "duration": 3.42
    },
    {
      "text": "I'd know that I'd be annoying to them",
      "start": 1547.67,
      "duration": 2.73
    },
    {
      "text": "I'd know I'd be disruptive of them I",
      "start": 1548.99,
      "duration": 3.21
    },
    {
      "text": "know that I would be keeping them from",
      "start": 1550.4,
      "duration": 3.75
    },
    {
      "text": "the exploration of their potential",
      "start": 1552.2,
      "duration": 4.71
    },
    {
      "text": "potential is all about the unknown which",
      "start": 1554.15,
      "duration": 5.13
    },
    {
      "text": "is why it's called potential and not",
      "start": 1556.91,
      "duration": 4.17
    },
    {
      "text": "actual right potential is all about the",
      "start": 1559.28,
      "duration": 4.14
    },
    {
      "text": "unknown you order people to do stuff all",
      "start": 1561.08,
      "duration": 4.83
    },
    {
      "text": "you're doing is interfering with their",
      "start": 1563.42,
      "duration": 4.32
    },
    {
      "text": "possibilities interfering with their",
      "start": 1565.91,
      "duration": 2.49
    },
    {
      "text": "creativity",
      "start": 1567.74,
      "duration": 2.58
    },
    {
      "text": "I could put a gun to Steve Jobs have",
      "start": 1568.4,
      "duration": 4.56
    },
    {
      "text": "been head in 1980 and say you have to",
      "start": 1570.32,
      "duration": 4.53
    },
    {
      "text": "produce a calculator and a rotary dial",
      "start": 1572.96,
      "duration": 3.9
    },
    {
      "text": "phone and keep doing that sure again we",
      "start": 1574.85,
      "duration": 2.76
    },
    {
      "text": "just don't have all the",
      "start": 1576.86,
      "duration": 2.28
    },
    {
      "text": "cool stuff like iPads and iPhones and",
      "start": 1577.61,
      "duration": 3.09
    },
    {
      "text": "stuff like that because that stuff is",
      "start": 1579.14,
      "duration": 3.93
    },
    {
      "text": "all unknown the Mon she's not ordering",
      "start": 1580.7,
      "duration": 3.9
    },
    {
      "text": "people around you just you killed their",
      "start": 1583.07,
      "duration": 3.989
    },
    {
      "text": "possibilities which is why violent",
      "start": 1584.6,
      "duration": 4.28
    },
    {
      "text": "societies coercive centrally planned",
      "start": 1587.059,
      "duration": 6.571
    },
    {
      "text": "societies have become poor because the",
      "start": 1588.88,
      "duration": 7.15
    },
    {
      "text": "arrogance of people in power to think",
      "start": 1593.63,
      "duration": 3.72
    },
    {
      "text": "that they can order people around and",
      "start": 1596.03,
      "duration": 3.66
    },
    {
      "text": "have those lives those people's lives be",
      "start": 1597.35,
      "duration": 3.449
    },
    {
      "text": "better than if they were free to make",
      "start": 1599.69,
      "duration": 3.359
    },
    {
      "text": "decisions for themselves as lunatic so I",
      "start": 1600.799,
      "duration": 3.75
    },
    {
      "text": "would know for a fact that it would be",
      "start": 1603.049,
      "duration": 3.241
    },
    {
      "text": "making people's lives worse by ordering",
      "start": 1604.549,
      "duration": 5.161
    },
    {
      "text": "them around and I don't take pleasure",
      "start": 1606.29,
      "duration": 5.07
    },
    {
      "text": "because I'm not a sadist I don't take",
      "start": 1609.71,
      "duration": 3.839
    },
    {
      "text": "pleasure in making people's lives worse",
      "start": 1611.36,
      "duration": 4.08
    },
    {
      "text": "and if somebody forced me into a",
      "start": 1613.549,
      "duration": 4.081
    },
    {
      "text": "position of power over others I would",
      "start": 1615.44,
      "duration": 4.89
    },
    {
      "text": "feel horrible and bored and futile and",
      "start": 1617.63,
      "duration": 4.169
    },
    {
      "text": "like a complete waste of my precious",
      "start": 1620.33,
      "duration": 6.14
    },
    {
      "text": "existence so extremely empathetic",
      "start": 1621.799,
      "duration": 6.961
    },
    {
      "text": "individuals wouldn't want to be placed",
      "start": 1626.47,
      "duration": 4.15
    },
    {
      "text": "in a position of power if they're forced",
      "start": 1628.76,
      "duration": 3.24
    },
    {
      "text": "to be in a position of power of course",
      "start": 1630.62,
      "duration": 3.33
    },
    {
      "text": "they'll try and minimize the damage that",
      "start": 1632,
      "duration": 4.5
    },
    {
      "text": "they do it is possible that they may be",
      "start": 1633.95,
      "duration": 5.609
    },
    {
      "text": "corrupted but again this is not a maybe",
      "start": 1636.5,
      "duration": 5.549
    },
    {
      "text": "I mean we know that people don't hit",
      "start": 1639.559,
      "duration": 4.471
    },
    {
      "text": "other people for the most part but we",
      "start": 1642.049,
      "duration": 3.181
    },
    {
      "text": "also know that eighty to ninety percent",
      "start": 1644.03,
      "duration": 3.33
    },
    {
      "text": "of parents in America at least hit their",
      "start": 1645.23,
      "duration": 4.62
    },
    {
      "text": "children so that is the position of",
      "start": 1647.36,
      "duration": 4.89
    },
    {
      "text": "power I think that is most essential to",
      "start": 1649.85,
      "duration": 3.9
    },
    {
      "text": "address when talking about the",
      "start": 1652.25,
      "duration": 3.03
    },
    {
      "text": "non-aggression principle and corruption",
      "start": 1653.75,
      "duration": 4.59
    },
    {
      "text": "most people are tended to Devils by the",
      "start": 1655.28,
      "duration": 7.019
    },
    {
      "text": "very act of procreation thank you so",
      "start": 1658.34,
      "duration": 5.52
    },
    {
      "text": "much for listening as always FDR you",
      "start": 1662.299,
      "duration": 4.5
    },
    {
      "text": "were al calm forward-slash donate if you",
      "start": 1663.86,
      "duration": 4.38
    },
    {
      "text": "would like to help out the show and",
      "start": 1666.799,
      "duration": 4.821
    },
    {
      "text": "thanks as always for your support",
      "start": 1668.24,
      "duration": 3.38
    }
  ],
  "Errors": null,
  "TranscriptStderr": null
}