[
    {
        "start": "0.329",
        "dur": "3.941",
        "text": "Hi everybody. Stefan Molyneux from Freedomain\nRadio. Hope you are doing very well. So, once"
    },
    {
        "start": "4.27",
        "dur": "7",
        "text": "more, I dive where angels fear to tread into\nthe realm of men and women and getting along"
    },
    {
        "start": "11.74",
        "dur": "3.809",
        "text": "better. And, I hope you will find this of\nsome use."
    },
    {
        "start": "15.549",
        "dur": "7",
        "text": "So, I grew up in the 70s and 80s, that is\nthe nineteen-seventies and nineteen-eighties,"
    },
    {
        "start": "22.81",
        "dur": "5.95",
        "text": "for my younger fans, and boy there was a lot\nof male-bashing. There still is, but man it"
    },
    {
        "start": "28.76",
        "dur": "7",
        "text": "really came into its own in the 60s and 70s.\nMen are stupid. Men are immature. Sports and"
    },
    {
        "start": "36.47",
        "dur": "4.39",
        "text": "sex, that's all men care about. Men are all\nthe same. There was even a joke: What does"
    },
    {
        "start": "40.86",
        "dur": "7",
        "text": "the female geologist say? Min-er-al the same.\nYeah... Not a great joke, but a joke. And"
    },
    {
        "start": "49.44",
        "dur": "4.93",
        "text": "for a variety of reasons, one of which was\nthis male-bashing, divorce rates went up like"
    },
    {
        "start": "54.37",
        "dur": "7",
        "text": "300% in the 1970s. It was like a neutron bomb\nhad gone off in neighborhoods affecting only"
    },
    {
        "start": "63.08",
        "dur": "1.71",
        "text": "those with testicles."
    },
    {
        "start": "64.79",
        "dur": "5.49",
        "text": "And so, one of the things that's happened\nI think that is really tragic, is this trend"
    },
    {
        "start": "70.28",
        "dur": "3.44",
        "text": "has continued and in many ways escalated.\nLike, if you look at all the stupid sitcom"
    },
    {
        "start": "73.72",
        "dur": "3.13",
        "text": "male characters that women are always wise\nand the one suffering. The men are always"
    },
    {
        "start": "76.85",
        "dur": "5.54",
        "text": "impulsive and stupid and shallow and emotionally\nout of touch and so on."
    },
    {
        "start": "82.39",
        "dur": "5.74",
        "text": "This kind of propaganda is really, really\nheartbreaking. You know, if you scratch most"
    },
    {
        "start": "88.13",
        "dur": "7",
        "text": "contempt, you will find almost an utterible\nloss underneath. The volcano of anger often,"
    },
    {
        "start": "96.26",
        "dur": "7",
        "text": "so often is fueled by the hundred thousand\nshards of a broken heart. And, when I hear"
    },
    {
        "start": "103.51",
        "dur": "7",
        "text": "women putting down men, what I hear is that\nthere were not close to their fathers."
    },
    {
        "start": "111.31",
        "dur": "5.73",
        "text": "I'll just give you an example. I'm a stay\nat home dad, and I have been for about 5 years."
    },
    {
        "start": "117.04",
        "dur": "6.45",
        "text": "I'm very close to my daughter. And, when she\ngets older, if she hears women trashing men"
    },
    {
        "start": "123.49",
        "dur": "5.879",
        "text": "or she looks at this endless parade of Homer\nSimpson-style idiots in the media, when she"
    },
    {
        "start": "129.369",
        "dur": "4.381",
        "text": "hears women trashing men or putting them down\nor complaining about them, I think she's going"
    },
    {
        "start": "133.75",
        "dur": "6.14",
        "text": "to say, \"Hey! That's my dad you're talking\nabout here. So, stop that!\""
    },
    {
        "start": "139.89",
        "dur": "6.33",
        "text": "Right, like if my mom had adopted a black\nkid who was my brother and was a great kid"
    },
    {
        "start": "146.22",
        "dur": "4.849",
        "text": "and we loved each other and respected each\nother and we were close as brothers ought"
    },
    {
        "start": "151.069",
        "dur": "5.64",
        "text": "to be, then if I heard people putting down\nblacks I'd say, \"Hey! That's my brother you"
    },
    {
        "start": "156.709",
        "dur": "1.381",
        "text": "are talking about.\""
    },
    {
        "start": "158.09",
        "dur": "4.29",
        "text": "So if you're close to someone, it's the best\nway to break these kinds of stereotypes. And,"
    },
    {
        "start": "162.38",
        "dur": "5.61",
        "text": "these stereotypes can only persist in the\nabsence of closeness, in the absence of a"
    },
    {
        "start": "167.99",
        "dur": "7",
        "text": "deep knowledge of another person, in the absence\nof real connection and real empathy."
    },
    {
        "start": "175.63",
        "dur": "7",
        "text": "And so, when I hear male-bashing in society,\nwhat I hear is a lot of women saying, \"I wasn't"
    },
    {
        "start": "185.78",
        "dur": "5.8",
        "text": "close to my father.\" When I hear women saying,\n\"I don't respect men.\" or \"I think men are"
    },
    {
        "start": "191.58",
        "dur": "7",
        "text": "that.\" What I hear them saying is, \"I don't\nhave a father I can respect. My father is"
    },
    {
        "start": "198.709",
        "dur": "1.341",
        "text": "this, that, or the other.\""
    },
    {
        "start": "200.05",
        "dur": "5.59",
        "text": "Now, we all know that the extrapolation from\npersonal history or personal example to a"
    },
    {
        "start": "205.64",
        "dur": "4.47",
        "text": "universal is bigotry. And, if I get robbed\nby a Chinese guy, and then I say all Chinese"
    },
    {
        "start": "210.11",
        "dur": "7",
        "text": "guys are thieves. That's an unwarranted extrapolation.\nAnd, you know, kind of bigoted, racist. Right?"
    },
    {
        "start": "218.069",
        "dur": "6.871",
        "text": "This kind of male-bashing can only conceivably\ncontinue in the absence of intimate male role"
    },
    {
        "start": "224.94",
        "dur": "4.159",
        "text": "models for girls growing up ...and boys to\nsome degree. We want to focus on the ladies"
    },
    {
        "start": "229.099",
        "dur": "7",
        "text": "for a moment. And, when you are close to someone,\nyou can't generalize about that group anymore"
    },
    {
        "start": "238.87",
        "dur": "6.29",
        "text": "because you know an exception, and therefore\nthe general rule becomes offensive to you."
    },
    {
        "start": "245.16",
        "dur": "7",
        "text": "Now, one of the things that I am challenged\non is my argument that \"men propose and women"
    },
    {
        "start": "254.709",
        "dur": "4.48",
        "text": "dispose\". ...that men ask women out and women\nsay, \"yes\" or \"no\", and then men pursue women"
    },
    {
        "start": "259.189",
        "dur": "4.961",
        "text": "and men woo women and men buy flowers and\ndinners and concert tickets for women. And,"
    },
    {
        "start": "264.15",
        "dur": "3.439",
        "text": "then they buy them an engagement ring and\nthen men usually will pay for the wedding,"
    },
    {
        "start": "267.589",
        "dur": "4.961",
        "text": "the father-of-the-bride and so on. And, this\nmeans that women are in the privileged position"
    },
    {
        "start": "272.55",
        "dur": "2.919",
        "text": "of choosing men. That \"men pursue women and\nwomen choose men\"."
    },
    {
        "start": "275.469",
        "dur": "3.94",
        "text": "This is common throughout the animal kingdom.\nIt is common among mammals. This is common"
    },
    {
        "start": "279.409",
        "dur": "5.26",
        "text": "among birds. There's a reason why peacocks\nhave those Kardashian butts floating after"
    },
    {
        "start": "284.669",
        "dur": "6.911",
        "text": "them. And, there are birds that dress up the\nnest to attract the women and so on. So, you"
    },
    {
        "start": "291.58",
        "dur": "3.66",
        "text": "think of the male ducks as pretty and the\nfemale ducks are not. That's (be)cause the"
    },
    {
        "start": "295.24",
        "dur": "4.829",
        "text": "males are in pursuit. And, this is biologically\nhow it should be. Right? I mean, the men should"
    },
    {
        "start": "300.069",
        "dur": "5.081",
        "text": "be competing to get the affections of the\nwomen or the females, so that the best genes"
    },
    {
        "start": "305.15",
        "dur": "3.919",
        "text": "can replicate and so on."
    },
    {
        "start": "309.069",
        "dur": "4.47",
        "text": "People sort of seem to have trouble understanding\nthis. I have never been asked out by a woman"
    },
    {
        "start": "313.539",
        "dur": "4.15",
        "text": "in my life. The girlfriends I've had, I've\nalways asked them out first. Now, before you"
    },
    {
        "start": "317.689",
        "dur": "5.66",
        "text": "think I look like the homeless Phil Collins\ntroll that I do now, all the way back then..."
    },
    {
        "start": "323.349",
        "dur": "4.96",
        "text": "Here's a picture of me when I was a young\nman. (Shows picture) See, not bad right. I'd"
    },
    {
        "start": "328.309",
        "dur": "7",
        "text": "hit that. In fact, I'm pretty sure I did.\nSo, I've talked to a lot of men and they don't"
    },
    {
        "start": "336.469",
        "dur": "4.53",
        "text": "get asked out by women. For the most part,\nits men asking women out, And, you know, buying"
    },
    {
        "start": "340.999",
        "dur": "4.63",
        "text": "dinners, and wooing women and then women say\n\"yes\" or \"no\". No problem with that. It just"
    },
    {
        "start": "345.629",
        "dur": "2.15",
        "text": "seems to be the way things are."
    },
    {
        "start": "347.779",
        "dur": "4.45",
        "text": "Now, if this is trouble for you to process,\nthere is an easy way to understand it. So,"
    },
    {
        "start": "352.229",
        "dur": "2.52",
        "text": "imagine that I'm looking for job. I don't\nhave to have a job, but I'm looking for a"
    },
    {
        "start": "354.749",
        "dur": "4.59",
        "text": "job. Maybe, I'm independently wealthy or something\nlike that. Or, one of those massively earning"
    },
    {
        "start": "359.339",
        "dur": "6.76",
        "text": "podcasters on Youtube. (Laughs) It's where\nthe cash is baby! Then, I say to you, I'm"
    },
    {
        "start": "366.099",
        "dur": "3.13",
        "text": "going to go look for a job. I'm going to look\nfor a job, but you know what, I keep getting"
    },
    {
        "start": "369.229",
        "dur": "5.16",
        "text": "these offers pouring in. You know, they'll\npay me a hundred dollars just to come for"
    },
    {
        "start": "374.389",
        "dur": "5.2",
        "text": "a job interview. And, they'll keep paying\nmore money every time I go for a job interview."
    },
    {
        "start": "379.589",
        "dur": "6.91",
        "text": "And then, I get a signing bonus of like ten\nor twenty thousand dollars. We can understand"
    },
    {
        "start": "386.499",
        "dur": "4.611",
        "text": "that I am in the position of choosing because\nthe employers have to bring themselves plus"
    },
    {
        "start": "391.11",
        "dur": "5.669",
        "text": "money to woo me. They have to pay me to show\nup just to be interviewed. And then, to sign"
    },
    {
        "start": "396.779",
        "dur": "2.831",
        "text": "on I'm going to get tens of thousands of dollars\nin a signing bonus."
    },
    {
        "start": "399.61",
        "dur": "5.029",
        "text": "Well, this is what it's like for women dating.\nRight? Men ask them out and men will usually"
    },
    {
        "start": "404.639",
        "dur": "4.291",
        "text": "pay for them to go on a date. I know there's\nexceptions. Please don't waste your time and"
    },
    {
        "start": "408.93",
        "dur": "3.689",
        "text": "my time by saying, \"Well, I'm a woman. I pay\nfor my own...\" That's fine, but we're talking"
    },
    {
        "start": "412.619",
        "dur": "5.28",
        "text": "about general trends here. Right? I mean,\ndon't be the idiots who when I say, \"Orientals"
    },
    {
        "start": "417.899",
        "dur": "4.151",
        "text": "are generally short\", you say, \"well, I know\na tall Oriental guy\". Come on, let's work"
    },
    {
        "start": "422.05",
        "dur": "4.69",
        "text": "a little harder than that. Shall we? ...and,\nthis is what happens. Women get a signing"
    },
    {
        "start": "426.74",
        "dur": "5.709",
        "text": "bonus. I mean, they get an interview bonus\njust for showing up for a date, and they get"
    },
    {
        "start": "432.449",
        "dur": "5.06",
        "text": "a signing bonus for accepting a marriage proposal,\nwhich is a wedding ring, which is usually"
    },
    {
        "start": "437.509",
        "dur": "7",
        "text": "two months' salary, the sort of DeBeers recommended\nlevel. And then, other people pay for their"
    },
    {
        "start": "444.529",
        "dur": "4.78",
        "text": "weddings. And so, this is a ten, twenty, thirty\nthousand dollar signing bonus just for getting"
    },
    {
        "start": "449.309",
        "dur": "4.11",
        "text": "married. That means they are in the privileged\nposition of choosing because the money have"
    },
    {
        "start": "453.419",
        "dur": "4.851",
        "text": "to bring themselves and money and resources\nto the table. There's nothing wrong with that."
    },
    {
        "start": "458.27",
        "dur": "6.819",
        "text": "Women control eighty percent of family spending.\nI mean, it's women who choose."
    },
    {
        "start": "465.089",
        "dur": "6.181",
        "text": "And so, when I hear male-bashing, what I hear\nin particular is two things. One, \"I wasn't"
    },
    {
        "start": "471.27",
        "dur": "5.039",
        "text": "close to my own dad\" because otherwise male-bashing\nwould be offensive to you as it will be to"
    },
    {
        "start": "476.309",
        "dur": "5.87",
        "text": "my daughter. So, \"I wasn't close to my own\ndad\", number one. Number two, I'm upset that"
    },
    {
        "start": "482.179",
        "dur": "5.32",
        "text": "my mother didn't choose a better man to be\nmy father. Those are the two things I hear,"
    },
    {
        "start": "487.499",
        "dur": "5.6",
        "text": "when I hear this general scorn upon men. Look,\nnormalizing your own trauma by universalizing"
    },
    {
        "start": "493.099",
        "dur": "7",
        "text": "it unjustly is a completely natural human\nphenomenon. And, if your dad was a bad dad"
    },
    {
        "start": "500.789",
        "dur": "4.571",
        "text": "or an absent dad or a deadbeat dad or whatever,\nthen saying, \"well, men are just like that,\""
    },
    {
        "start": "505.36",
        "dur": "3.989",
        "text": "that makes you feel less upset at your own\ndad (be)cause he's just a man, and that's"
    },
    {
        "start": "509.349",
        "dur": "3.611",
        "text": "what men do. But, if you recognize that there\nare lots of good men out there, just as there"
    },
    {
        "start": "512.96",
        "dur": "3.98",
        "text": "are lots of good women too, if you recognize\nthat there's lots of good men and lots of"
    },
    {
        "start": "516.94",
        "dur": "3.28",
        "text": "good women out there, then if what your dad\ndid, if he was not a good dad, was bad and"
    },
    {
        "start": "520.22",
        "dur": "6.61",
        "text": "was painful. And, your mom is foundational\nto that choice. Your mom chose who your father"
    },
    {
        "start": "526.83",
        "dur": "6.56",
        "text": "was going to be. And, you know, unless she\nwas a complete troll, she had choices. Right?"
    },
    {
        "start": "533.39",
        "dur": "6.8",
        "text": "She had choices of who she was going to marry\nor who she was going to have kids with or"
    },
    {
        "start": "540.19",
        "dur": "6.28",
        "text": "whatever. Right? So, when we are upset at\nboth parents, but we let one parent off-the-hook..."
    },
    {
        "start": "546.47",
        "dur": "3.64",
        "text": "Like, if we're upset at our father, but then\nwe're not upset at our mother for choosing"
    },
    {
        "start": "550.11",
        "dur": "7",
        "text": "that person to be our father, then the person\nwho gets... the parent who gets blamed gets"
    },
    {
        "start": "557.61",
        "dur": "4.54",
        "text": "double the blame if one parent is let off-the-hook,\nwhich is why the responsibility of women in"
    },
    {
        "start": "562.15",
        "dur": "4.57",
        "text": "choosing fathers is erased. It always goes\ndown the memory hole. It doesn't even show"
    },
    {
        "start": "566.72",
        "dur": "4.86",
        "text": "up. And then, that means double the upset\nand outrage is going to be directed at the"
    },
    {
        "start": "571.58",
        "dur": "2.82",
        "text": "men because none of it is directed at the\nwomen."
    },
    {
        "start": "574.4",
        "dur": "5.31",
        "text": "Let me give you an example of this sort of\ndouble standard... So, I did a video recently"
    },
    {
        "start": "579.71",
        "dur": "5.19",
        "text": "on the dangers of dating a single mom. And,\num... I had lots of emails and comments pour"
    },
    {
        "start": "584.9",
        "dur": "7",
        "text": "into me saying, \"Aah! Aaah! What about the\ndangers of dating single dads? Huh?\" ...this"
    },
    {
        "start": "592.5",
        "dur": "4.96",
        "text": "came from women and some men. Well, I mean,\nthe obvious answer is there's very few of"
    },
    {
        "start": "597.46",
        "dur": "3.45",
        "text": "us, right? I mean, in Canada with a population\nof like thirty-five million, there are thirty"
    },
    {
        "start": "600.91",
        "dur": "6.3",
        "text": "thousand stay-at-home dads. Right? So... I\nkind of go with the demographics. (Laughs)"
    },
    {
        "start": "607.21",
        "dur": "5.78",
        "text": "You know, I talk to the majority, right? Sixty\npercent of kids these days are born out of"
    },
    {
        "start": "612.99",
        "dur": "7",
        "text": "wedlock. Sorry, forty percent—sixty percent\nin some communities, forty percent as a whole,"
    },
    {
        "start": "620.39",
        "dur": "4.02",
        "text": "fifty percent women under thirty. That's a\nhuge number. In 1960, it was like eighteen"
    },
    {
        "start": "624.41",
        "dur": "5.84",
        "text": "percent. And so, a huge number of kids are\nbeing born out of wedlock. And yes people"
    },
    {
        "start": "630.25",
        "dur": "4.25",
        "text": "say, \"Well, it takes two to make a child\".\nThat's true, but it's the woman who has to"
    },
    {
        "start": "634.5",
        "dur": "5.15",
        "text": "say \"yes\" or \"no\". Men will generally have\nsex if it is available. Women have to be a"
    },
    {
        "start": "639.65",
        "dur": "6.32",
        "text": "bit more selective because their investment\nin children—fertility is much higher than"
    },
    {
        "start": "645.97",
        "dur": "3.36",
        "text": "a man's. Right? So..."
    },
    {
        "start": "649.33",
        "dur": "5.02",
        "text": "So, I did this video. All these people are\nsaying, \"Well, what about single dads?!\" Well,"
    },
    {
        "start": "654.35",
        "dur": "6.49",
        "text": "look. I will start making videos about the\ndangers of dating single dads when one fundamental"
    },
    {
        "start": "660.84",
        "dur": "6.26",
        "text": "thing occurs. You've seen articles about domestic\nabuse, and what is it? It's always male-on-female,"
    },
    {
        "start": "667.1",
        "dur": "2.88",
        "text": "male-on-female... The male domestically abuses.\nThe females are the victims. There are no"
    },
    {
        "start": "669.98",
        "dur": "7",
        "text": "men's shelters for abused men in relationships.\nYet, it's common knowledge, it's been verified"
    },
    {
        "start": "678.45",
        "dur": "4.54",
        "text": "many times in a wide variety of studies that\nfifty percent of domestic abuse incidents."
    },
    {
        "start": "682.99",
        "dur": "7",
        "text": "That would be fully one-half of domestic abuse\nincidents are initiated by women. Well, that's"
    },
    {
        "start": "691.32",
        "dur": "5.13",
        "text": "quite important. Wouldn't you say? Fifty percent\nof domestic abuse incidents are initiated"
    },
    {
        "start": "696.45",
        "dur": "7",
        "text": "by women, so I will do the dangers of dating\na single dad when I see one of these articles"
    },
    {
        "start": "704.18",
        "dur": "3.7",
        "text": "and women are underneath it pouring on and\nsaying, \"Well, what about the women who initiate"
    },
    {
        "start": "707.88",
        "dur": "3.68",
        "text": "fifty percent of these abuses? Why are you\nalways talking about the men?\" See, this is"
    },
    {
        "start": "711.56",
        "dur": "7",
        "text": "the double standard, right. When there's a\nlarge female problem, and you talk about it,"
    },
    {
        "start": "719.58",
        "dur": "3.97",
        "text": "then everyone says, \"Well, what about the\ntiny male problem?!\", but when there's an"
    },
    {
        "start": "723.55",
        "dur": "7",
        "text": "equal problem, the female problem vanishes.\nRight? So, I'm supposed to talk about single"
    },
    {
        "start": "731.95",
        "dur": "4.65",
        "text": "dads even though they're like tiny, in terms\nof numbers of the population, but we can't"
    },
    {
        "start": "736.6",
        "dur": "3.05",
        "text": "talk about the fact that fifty percent of\nthe domestic abuse incidents are initiated"
    },
    {
        "start": "739.65",
        "dur": "4.13",
        "text": "by women. That has to be blanked out because\nequality then is not important, focusing on"
    },
    {
        "start": "743.78",
        "dur": "7",
        "text": "the other side is not important. So, that's\njust something to understand when viewing"
    },
    {
        "start": "751.43",
        "dur": "5.05",
        "text": "this double standard. Because, when I grew\nup, and still now, you see this relentless"
    },
    {
        "start": "756.48",
        "dur": "6.63",
        "text": "portrayal women as sympathetic and empathetic\nand curious and sensitive and feeling and"
    },
    {
        "start": "763.11",
        "dur": "5.96",
        "text": "great listeners and all kinds of warm and\ngooey, soft caramel hearts on the inside."
    },
    {
        "start": "769.07",
        "dur": "4.56",
        "text": "And, women will always say, \"You need to support\nme, you need to listen to me, you need to"
    },
    {
        "start": "773.63",
        "dur": "5.85",
        "text": "empathize with me. I really want you to understand\nhow I feel without judgment—without judgment."
    },
    {
        "start": "779.48",
        "dur": "4.25",
        "text": "Don't judge me! Don't blame me! Just listen\nto my issues.\""
    },
    {
        "start": "783.73",
        "dur": "4.59",
        "text": "Ok, well you know, men have some issues. There's\na whole men's rights movement that most women"
    },
    {
        "start": "788.32",
        "dur": "6.17",
        "text": "have never even heard of. And yet, almost\nuniversally when men complain, about I think"
    },
    {
        "start": "794.49",
        "dur": "5.28",
        "text": "some pretty just things to complain about,\nwomen don't want to hear it. \"Man up ... can't"
    },
    {
        "start": "799.77",
        "dur": "5.85",
        "text": "get laid... Get out of your mom's basement!\nYou're wrong, you're lying, you're misleading,"
    },
    {
        "start": "805.62",
        "dur": "4.96",
        "text": "you're distorting statistics...\" There's no\nlistening going on from the most empathetic"
    },
    {
        "start": "810.58",
        "dur": "5.99",
        "text": "gender. Right? So, my request and my encouragement\nto women is you know, listen to men who have"
    },
    {
        "start": "816.57",
        "dur": "3.959",
        "text": "complaints. I mean, you've asked men to listen\nto you for lo these many centuries and to"
    },
    {
        "start": "820.529",
        "dur": "5.051",
        "text": "be supportive and to listen without judgment\nwithout blame, but just openly and acceptingly"
    },
    {
        "start": "825.58",
        "dur": "3.92",
        "text": "taking in what the other person's issues are.\nDon't be defensive. Don't be avoidant. Don't"
    },
    {
        "start": "829.5",
        "dur": "5.47",
        "text": "minimize. ..all that kind of stuff. Well,\nI would really find it impressive if women"
    },
    {
        "start": "834.97",
        "dur": "6.49",
        "text": "were to do that with regards to men's complaints.\nYou know, the three most powerful words in"
    },
    {
        "start": "841.46",
        "dur": "5.319",
        "text": "(laughs) relationships are not \"I love you\",\nbut \"tell me more\". Somebody has a complaint?"
    },
    {
        "start": "846.779",
        "dur": "3.741",
        "text": "Oh, tell me more. Tell me more. I would like\nto hear more about this. I really want to"
    },
    {
        "start": "850.52",
        "dur": "6.46",
        "text": "understand your perspective. Tell me more.\nI don't see a lot of women doing that. I mean,"
    },
    {
        "start": "856.98",
        "dur": "7",
        "text": "I've good reason in my life to be upset with\nwomen, and outside of my friends, almost nobody"
    },
    {
        "start": "864.33",
        "dur": "4.83",
        "text": "says, \"Tell me more. Tell me more about your\nexperience. Tell me more about what you find"
    },
    {
        "start": "869.16",
        "dur": "6.86",
        "text": "unjust towards men in the current social environment\"\nand so on... And, I think that's telling."
    },
    {
        "start": "876.02",
        "dur": "4.03",
        "text": "You know, people who claim to want a virtue\nshould be the first ones to practice it. And"
    },
    {
        "start": "880.05",
        "dur": "5.43",
        "text": "so, I really do invite women to listen to\nmen about their issues; about what they find"
    },
    {
        "start": "885.48",
        "dur": "4.31",
        "text": "problematic with male-disposability, with\nmarriage, with divorce, with law courts, with"
    },
    {
        "start": "889.79",
        "dur": "7",
        "text": "alimony all this kind of stuff. If you want\nus to listen, it can be helpful to show us"
    },
    {
        "start": "898.13",
        "dur": "5.16",
        "text": "how it's done. And, I invite women... you\nknow, (be)cause men can't solve this problem."
    },
    {
        "start": "903.29",
        "dur": "4.26",
        "text": "Men by definition have very little credibility\nwith women because we are, you know, sports"
    },
    {
        "start": "907.55",
        "dur": "4.5",
        "text": "and sex obsessed, and shallow, and unemotional,\nand distracted, and all that kind of stuff..."
    },
    {
        "start": "912.05",
        "dur": "4.99",
        "text": "So, it is really women who are gonna have\nto talk to women about these issues. And,"
    },
    {
        "start": "917.04",
        "dur": "4.7",
        "text": "that's sort of my invitation. There is something\nvery wrong. Men don't want to get married"
    },
    {
        "start": "921.74",
        "dur": "4.98",
        "text": "these days. Fertility rates are dropping all\nthroughout the western world. Men are going"
    },
    {
        "start": "926.72",
        "dur": "6.23",
        "text": "on strike...ala \"Atlas Shrugged\". And, it's\nan important issue. And, I think until women"
    },
    {
        "start": "932.95",
        "dur": "6.17",
        "text": "listen to men's problems and complaints, this\nisn't going to be solved. But first and foremost,"
    },
    {
        "start": "939.12",
        "dur": "5.59",
        "text": "I think women need to... If you grew up with\nan absent or uninvolved or abusive father,"
    },
    {
        "start": "944.71",
        "dur": "7",
        "text": "that was him. That's not all men, at all.\nAnd, he was there because of your mom's choice."
    },
    {
        "start": "952.41",
        "dur": "5.31",
        "text": "Male virtue is in many ways the shadow cast\nby feminine standards. Men will generally"
    },
    {
        "start": "957.72",
        "dur": "4.77",
        "text": "be as good as they need to be to get a woman.\nAnd, if woman's standards go down, I would"
    },
    {
        "start": "962.49",
        "dur": "6.23",
        "text": "say largely because the government has replaced\nmen funneling resources towards women through"
    },
    {
        "start": "968.72",
        "dur": "7",
        "text": "taxes and debt, and thus diminish the value\nof men to women. But, if you grew up with"
    },
    {
        "start": "977",
        "dur": "4.44",
        "text": "an absent, uninvolved, or abusive father,\nthat's a heartbreaking situation and I'm incredibly"
    },
    {
        "start": "981.44",
        "dur": "5.56",
        "text": "sorry for that. You know, one of the most\nfundamental ways psychologically that we develop"
    },
    {
        "start": "987",
        "dur": "6.089",
        "text": "empathy is through the father. Empathy is\ndeveloped through the father. And, there's"
    },
    {
        "start": "993.089",
        "dur": "2.891",
        "text": "a reason why sociopathy has doubled in the\npast fifteen years, and I would argue that"
    },
    {
        "start": "995.98",
        "dur": "3.79",
        "text": "it's because we got a whole generation of\nwomen raised to think a woman needs a man"
    },
    {
        "start": "999.77",
        "dur": "3.06",
        "text": "like a fish needs a bicycle. Okay, well then,\nstop going to the state (be)cause the state"
    },
    {
        "start": "1002.83",
        "dur": "3.16",
        "text": "is largely a male, patriarchal institution.\nSo, I would invite women to stop going to"
    },
    {
        "start": "1005.99",
        "dur": "7",
        "text": "the state to make up for bad choices when\nit comes to dating and procreation. But, um..."
    },
    {
        "start": "1014.71",
        "dur": "5.85",
        "text": "when women are told that they don't need men\nor girls don't need fathers, then the girls"
    },
    {
        "start": "1020.56",
        "dur": "4.249",
        "text": "grow up with much less empathy. Which means...\nthey can't empathize with their own losses"
    },
    {
        "start": "1024.809",
        "dur": "4.53",
        "text": "for not having a father, they can't empathize\nwith men's issues, we can't connect again"
    },
    {
        "start": "1029.339",
        "dur": "3.61",
        "text": "as genders. We're supposed to fit together,\nnot just physically, but emotionally and spiritually"
    },
    {
        "start": "1032.949",
        "dur": "4.38",
        "text": "like jigsaw puzzle pieces. We're all supposed\nto fit together well. That's not working very"
    },
    {
        "start": "1037.329",
        "dur": "3.87",
        "text": "well at the moment. But, I think if women\nare able to process their own loss, and to"
    },
    {
        "start": "1041.199",
        "dur": "5.31",
        "text": "view the choices made by their mother regarding\ntheir father as problematic, and worthy of"
    },
    {
        "start": "1046.509",
        "dur": "4.29",
        "text": "some responsibility and perhaps even some\nblame, then I think we can start to process"
    },
    {
        "start": "1050.799",
        "dur": "5.11",
        "text": "the real stuff that is getting in the way\nof the genders coming together. Most importantly,"
    },
    {
        "start": "1055.909",
        "dur": "4.951",
        "text": "when that process is done, please please please\nask the men in your life the issues that they"
    },
    {
        "start": "1060.86",
        "dur": "4.539",
        "text": "have with society, the issues that they have\nwith women, and don't blow up, and don't do"
    },
    {
        "start": "1065.399",
        "dur": "4.581",
        "text": "all this not listening stuff. Don't immediately\nargue and go rush to find alternative statistics."
    },
    {
        "start": "1069.98",
        "dur": "6.889",
        "text": "The emotions are real that men are experiencing.\nThe problems are real that men are experiencing."
    },
    {
        "start": "1076.869",
        "dur": "4.221",
        "text": "And since women have talked for so long about\nthe need to uncritically listen to somebody"
    },
    {
        "start": "1081.09",
        "dur": "4.439",
        "text": "else's issues, please please do that with\nthe men in your life. I promise you it will"
    },
    {
        "start": "1085.529",
        "dur": "7",
        "text": "do the world of good. Thank you so much."
    }
]