{
  "Title": "Chris Cuomo TRIGGERED!",
  "Id": "ZCK9gvATaJw",
  "Transcript": [
    {
      "text": "so Chris Cuomo had a complete",
      "start": 0.03,
      "duration": 4.44
    },
    {
      "text": "apocalyptic hysterical menopause style",
      "start": 2.25,
      "duration": 4.77
    },
    {
      "text": "meltdown because you see someone",
      "start": 4.47,
      "duration": 5.64
    },
    {
      "text": "referred to him as frayed out now Fredo",
      "start": 7.02,
      "duration": 4.77
    },
    {
      "text": "I'm sure you know he's the high forehead",
      "start": 10.11,
      "duration": 3.81
    },
    {
      "text": "weakling son of the Colleoni family in",
      "start": 11.79,
      "duration": 5.489
    },
    {
      "text": "The Godfather movies and I guess for an",
      "start": 13.92,
      "duration": 6
    },
    {
      "text": "Italian being referred to as a fictional",
      "start": 17.279,
      "duration": 4.26
    },
    {
      "text": "character in a crime family movie who",
      "start": 19.92,
      "duration": 3.51
    },
    {
      "text": "doesn't actually murder someone he's a",
      "start": 21.539,
      "duration": 4.201
    },
    {
      "text": "massive insult but Chris Croma had a",
      "start": 23.43,
      "duration": 4.29
    },
    {
      "text": "complete meltdown he was screaming at",
      "start": 25.74,
      "duration": 4.049
    },
    {
      "text": "the guy he was saying the guy said what",
      "start": 27.72,
      "duration": 3.18
    },
    {
      "text": "are you gonna do about it and Chris",
      "start": 29.789,
      "duration": 3.241
    },
    {
      "text": "Cuomo was like I'm gonna f up you're",
      "start": 30.9,
      "duration": 3.81
    },
    {
      "text": "shite I'm gonna throw you down the",
      "start": 33.03,
      "duration": 4.43
    },
    {
      "text": "effing stairs just like a complete",
      "start": 34.71,
      "duration": 6.48
    },
    {
      "text": "hysterical meltdown over a pretty mild",
      "start": 37.46,
      "duration": 6.73
    },
    {
      "text": "jab you know it's a it's a fictional",
      "start": 41.19,
      "duration": 4.41
    },
    {
      "text": "character like a fictional character",
      "start": 44.19,
      "duration": 2.849
    },
    {
      "text": "Chris you know like when you look in the",
      "start": 45.6,
      "duration": 2.369
    },
    {
      "text": "mirror and you see a halfway decent",
      "start": 47.039,
      "duration": 2.971
    },
    {
      "text": "human being that would be an example of",
      "start": 47.969,
      "duration": 4.41
    },
    {
      "text": "a fictional character for you now the",
      "start": 50.01,
      "duration": 3.45
    },
    {
      "text": "interesting thing of course is that",
      "start": 52.379,
      "duration": 2.641
    },
    {
      "text": "Chris Cuomo has built his career on",
      "start": 53.46,
      "duration": 4.14
    },
    {
      "text": "calling innocent people racists and",
      "start": 55.02,
      "duration": 4.26
    },
    {
      "text": "Nazis and white supremacists",
      "start": 57.6,
      "duration": 3.45
    },
    {
      "text": "broadcasting that to millions of people",
      "start": 59.28,
      "duration": 3.99
    },
    {
      "text": "our guest at CNN dozens of people over",
      "start": 61.05,
      "duration": 3.96
    },
    {
      "text": "the course of your average business day",
      "start": 63.27,
      "duration": 4.2
    },
    {
      "text": "so yeah I mean the guy is in the",
      "start": 65.01,
      "duration": 4.26
    },
    {
      "text": "business of calling innocent people",
      "start": 67.47,
      "duration": 4.17
    },
    {
      "text": "horrible names but when a pretty mild",
      "start": 69.27,
      "duration": 6.69
    },
    {
      "text": "epithet or jab is thrown at him in in",
      "start": 71.64,
      "duration": 6.119
    },
    {
      "text": "private suddenly it is the end of the",
      "start": 75.96,
      "duration": 3.42
    },
    {
      "text": "world and everybody loses their mind so",
      "start": 77.759,
      "duration": 2.761
    },
    {
      "text": "like a better man would look in the",
      "start": 79.38,
      "duration": 2.61
    },
    {
      "text": "mirror and say gosh you know I called",
      "start": 80.52,
      "duration": 2.79
    },
    {
      "text": "people pretty horrible names over the",
      "start": 81.99,
      "duration": 3.449
    },
    {
      "text": "years to millions of people broadcast",
      "start": 83.31,
      "duration": 4.86
    },
    {
      "text": "kept Fraternity put on the web destroyed",
      "start": 85.439,
      "duration": 4.741
    },
    {
      "text": "people's reputations out of hysterical",
      "start": 88.17,
      "duration": 4.83
    },
    {
      "text": "political partisan bias I should",
      "start": 90.18,
      "duration": 4.29
    },
    {
      "text": "probably be a better person because now",
      "start": 93,
      "duration": 3.659
    },
    {
      "text": "when I was on the receiving end of a",
      "start": 94.47,
      "duration": 4.14
    },
    {
      "text": "pretty mild jab I realized just how much",
      "start": 96.659,
      "duration": 4.201
    },
    {
      "text": "it hurt so I should probably stop doing",
      "start": 98.61,
      "duration": 5.64
    },
    {
      "text": "that that is what a slightly better man",
      "start": 100.86,
      "duration": 7.2
    },
    {
      "text": "would do with this situation Chris Cuomo",
      "start": 104.25,
      "duration": 5.399
    },
    {
      "text": "is not that man so instead he took to",
      "start": 108.06,
      "duration": 2.94
    },
    {
      "text": "Twitter and basically said well I should",
      "start": 109.649,
      "duration": 2.79
    },
    {
      "text": "be better than those nasty people who",
      "start": 111,
      "duration": 3.09
    },
    {
      "text": "provoked me it's like yeah that's not",
      "start": 112.439,
      "duration": 3.061
    },
    {
      "text": "really an apology here's the other thing",
      "start": 114.09,
      "duration": 3.629
    },
    {
      "text": "too so people are saying that Fredo is",
      "start": 115.5,
      "duration": 4.77
    },
    {
      "text": "the n-word for Italian people so when",
      "start": 117.719,
      "duration": 4.411
    },
    {
      "text": "you know African migrants want to pour",
      "start": 120.27,
      "duration": 4.5
    },
    {
      "text": "into Italy well it's just a geographical",
      "start": 122.13,
      "duration": 4.26
    },
    {
      "text": "region it's just a country there aren't",
      "start": 124.77,
      "duration": 3.299
    },
    {
      "text": "actually any ethnicities there but",
      "start": 126.39,
      "duration": 3.569
    },
    {
      "text": "suddenly now it's convenient for the",
      "start": 128.069,
      "duration": 5.931
    },
    {
      "text": "left the Italians are a race",
      "start": 129.959,
      "duration": 7.371
    },
    {
      "text": "terrifying stuff",
      "start": 134,
      "duration": 3.33
    }
  ],
  "Errors": null,
  "TranscriptStderr": null
}