[
    {
        "start": "1.159",
        "dur": "4.031",
        "text": "good morning everybody hope you're doing"
    },
    {
        "start": "3.6",
        "dur": "3.75",
        "text": "well that staff sorry about jiggly video"
    },
    {
        "start": "5.19",
        "dur": "5.279",
        "text": "yesterday the two-sided tape was a"
    },
    {
        "start": "7.35",
        "dur": "5.61",
        "text": "little bit loose on the old desk Oh dash"
    },
    {
        "start": "10.469",
        "dur": "4.651",
        "text": "cam the dashboard cam so sorry about"
    },
    {
        "start": "12.96",
        "dur": "5.73",
        "text": "that i think it's i think it's fixed but"
    },
    {
        "start": "15.12",
        "dur": "4.919",
        "text": "we shall see so i wanted to talk about"
    },
    {
        "start": "18.69",
        "dur": "4.829",
        "text": "this this is going to be a bit of a"
    },
    {
        "start": "20.039",
        "dur": "5.461",
        "text": "delicate subject so i will try to treat"
    },
    {
        "start": "23.519",
        "dur": "5.25",
        "text": "it with the utmost caution and respect"
    },
    {
        "start": "25.5",
        "dur": "5.91",
        "text": "and naturally the cynical among you"
    },
    {
        "start": "28.769",
        "dur": "6.991",
        "text": "which I would not gainsay the validity"
    },
    {
        "start": "31.41",
        "dur": "7.23",
        "text": "of may feel that this is entirely too"
    },
    {
        "start": "35.76",
        "dur": "5.729",
        "text": "self-interested on my part but really"
    },
    {
        "start": "38.64",
        "dur": "4.02",
        "text": "I'm it's not I mean it is but it's not"
    },
    {
        "start": "41.489",
        "dur": "5.34",
        "text": "the reason that I wanted to talk about"
    },
    {
        "start": "42.66",
        "dur": "7.86",
        "text": "it and also I'm not trying to manipulate"
    },
    {
        "start": "46.829",
        "dur": "5.491",
        "text": "a bully or create any guilt I think that"
    },
    {
        "start": "50.52",
        "dur": "3.44",
        "text": "there's a very interesting phenomenon"
    },
    {
        "start": "52.32",
        "dur": "5.39",
        "text": "that occurred when I was on vacation"
    },
    {
        "start": "53.96",
        "dur": "6.64",
        "text": "that I think is well worth looking at"
    },
    {
        "start": "57.71",
        "dur": "6.4",
        "text": "because this relationship that we have"
    },
    {
        "start": "60.6",
        "dur": "5.58",
        "text": "and believe me even if you've never"
    },
    {
        "start": "64.11",
        "dur": "4.41",
        "text": "emailed or called in to the sunday shows"
    },
    {
        "start": "66.18",
        "dur": "4.369",
        "text": "or had any contact with me or anyone"
    },
    {
        "start": "68.52",
        "dur": "5.34",
        "text": "else about freedomain radio whatsoever I"
    },
    {
        "start": "70.549",
        "dur": "6.851",
        "text": "guarantee you that what you and I have"
    },
    {
        "start": "73.86",
        "dur": "7.38",
        "text": "is a very close relationship I mean we"
    },
    {
        "start": "77.4",
        "dur": "5.789",
        "text": "can't be rooting around the seller's"
    },
    {
        "start": "81.24",
        "dur": "6.21",
        "text": "bowels and very depths of thought"
    },
    {
        "start": "83.189",
        "dur": "5.97",
        "text": "together without developing a very close"
    },
    {
        "start": "87.45",
        "dur": "5.19",
        "text": "relationship in fact I would say that"
    },
    {
        "start": "89.159",
        "dur": "4.92",
        "text": "you and I probably have the closest"
    },
    {
        "start": "92.64",
        "dur": "3.9",
        "text": "relationship of just about anybody else"
    },
    {
        "start": "94.079",
        "dur": "4.381",
        "text": "in your life and that we are actually"
    },
    {
        "start": "96.54",
        "dur": "6.509",
        "text": "talking about things that matter things"
    },
    {
        "start": "98.46",
        "dur": "8.01",
        "text": "that are important and sometimes things"
    },
    {
        "start": "103.049",
        "dur": "4.71",
        "text": "that are emotionally sticky or exciting"
    },
    {
        "start": "106.47",
        "dur": "2.88",
        "text": "and so I wanted to talk about a"
    },
    {
        "start": "107.759",
        "dur": "6.601",
        "text": "phenomenon that I noticed when I was on"
    },
    {
        "start": "109.35",
        "dur": "7.26",
        "text": "vacation because I wanted to open up"
    },
    {
        "start": "114.36",
        "dur": "3.81",
        "text": "opportunities for you to think about"
    },
    {
        "start": "116.61",
        "dur": "3.45",
        "text": "things or your relationships in a"
    },
    {
        "start": "118.17",
        "dur": "5.4",
        "text": "different kind of way so let me start"
    },
    {
        "start": "120.06",
        "dur": "5.669",
        "text": "off by pointing out that the donations"
    },
    {
        "start": "123.57",
        "dur": "5.609",
        "text": "dropped off quite considerably when I"
    },
    {
        "start": "125.729",
        "dur": "5.221",
        "text": "was on vacation now I was quite"
    },
    {
        "start": "129.179",
        "dur": "4.301",
        "text": "conscious of saying that I'm going on"
    },
    {
        "start": "130.95",
        "dur": "4.84",
        "text": "vacation that I'm going to a nice resort"
    },
    {
        "start": "133.48",
        "dur": "6.66",
        "text": "and that I'll be gone for two weeks and"
    },
    {
        "start": "135.79",
        "dur": "5.82",
        "text": "so on and I was aware of doing that and"
    },
    {
        "start": "140.14",
        "dur": "7.519",
        "text": "I was also aware that that might be"
    },
    {
        "start": "141.61",
        "dur": "11.939",
        "text": "considered volatile and also that people"
    },
    {
        "start": "147.659",
        "dur": "7.151",
        "text": "listeners may think well I don't want to"
    },
    {
        "start": "153.549",
        "dur": "3",
        "text": "donate for the guy to have another"
    },
    {
        "start": "154.81",
        "dur": "3.539",
        "text": "margarita down by the beach that's not"
    },
    {
        "start": "156.549",
        "dur": "3.33",
        "text": "what I'm donating for I'm donating for"
    },
    {
        "start": "158.349",
        "dur": "5.071",
        "text": "his podcast I'm and he's not doing"
    },
    {
        "start": "159.879",
        "dur": "5.28",
        "text": "podcasts I'm not going to donate I mean"
    },
    {
        "start": "163.42",
        "dur": "3.48",
        "text": "this is possible I mean it's just that"
    },
    {
        "start": "165.159",
        "dur": "3.211",
        "text": "the donations had reached sort of the"
    },
    {
        "start": "166.9",
        "dur": "5.25",
        "text": "lowest level ever since the beginning"
    },
    {
        "start": "168.37",
        "dur": "5.699",
        "text": "when I went on vacation and I'm going to"
    },
    {
        "start": "172.15",
        "dur": "3.63",
        "text": "put some thoughts out there about this"
    },
    {
        "start": "174.069",
        "dur": "3.48",
        "text": "and you know don't worry about donating"
    },
    {
        "start": "175.78",
        "dur": "3.84",
        "text": "it doesn't matter whether you pay or not"
    },
    {
        "start": "177.549",
        "dur": "8.571",
        "text": "doesn't matter what I think is important"
    },
    {
        "start": "179.62",
        "dur": "10.35",
        "text": "in this area is a way of getting"
    },
    {
        "start": "186.12",
        "dur": "5.649",
        "text": "feedback and a way of changing possibly"
    },
    {
        "start": "189.97",
        "dur": "4.92",
        "text": "you know if it's of worth it's if it's"
    },
    {
        "start": "191.769",
        "dur": "4.86",
        "text": "worth something to you of changing how"
    },
    {
        "start": "194.89",
        "dur": "3.599",
        "text": "you are in relationships and I would"
    },
    {
        "start": "196.629",
        "dur": "3.301",
        "text": "suggest that it would be an improvement"
    },
    {
        "start": "198.489",
        "dur": "3.571",
        "text": "that would really help your"
    },
    {
        "start": "199.93",
        "dur": "3.929",
        "text": "relationships or if you've taken the"
    },
    {
        "start": "202.06",
        "dur": "3.989",
        "text": "freedomain radio a lonely cruise to"
    },
    {
        "start": "203.859",
        "dur": "3.24",
        "text": "philosophical excellence then the"
    },
    {
        "start": "206.049",
        "dur": "3.75",
        "text": "relationships that you have in the"
    },
    {
        "start": "207.099",
        "dur": "5.551",
        "text": "future can be more more beneficial so"
    },
    {
        "start": "209.799",
        "dur": "5.94",
        "text": "one of the things that occurs in therapy"
    },
    {
        "start": "212.65",
        "dur": "7.35",
        "text": "not that this is therapy per se is that"
    },
    {
        "start": "215.739",
        "dur": "6.511",
        "text": "you get to try out new behaviors with"
    },
    {
        "start": "220",
        "dur": "3.48",
        "text": "your therapist and also your therapist"
    },
    {
        "start": "222.25",
        "dur": "3.84",
        "text": "is going to give you feedback on how"
    },
    {
        "start": "223.48",
        "dur": "4.56",
        "text": "your behavior appears to other people"
    },
    {
        "start": "226.09",
        "dur": "5.31",
        "text": "and I think fairly frank feedback so"
    },
    {
        "start": "228.04",
        "dur": "5.4",
        "text": "this is honestly i swear on unlock that"
    },
    {
        "start": "231.4",
        "dur": "4.44",
        "text": "this is not a criticism this is not a"
    },
    {
        "start": "233.44",
        "dur": "6.03",
        "text": "money grab donate or don't but i wanted"
    },
    {
        "start": "235.84",
        "dur": "6.259",
        "text": "to point out ways in which i think this"
    },
    {
        "start": "239.47",
        "dur": "4.32",
        "text": "shows something very interesting about"
    },
    {
        "start": "242.099",
        "dur": "6.22",
        "text": "relationships and it's something that i"
    },
    {
        "start": "243.79",
        "dur": "7.68",
        "text": "had to learn years ago that was hard for"
    },
    {
        "start": "248.319",
        "dur": "5.82",
        "text": "me to learn but has resulted in"
    },
    {
        "start": "251.47",
        "dur": "4.379",
        "text": "enormously positive things in my"
    },
    {
        "start": "254.139",
        "dur": "3.63",
        "text": "relationship and honestly positive ways"
    },
    {
        "start": "255.849",
        "dur": "3.841",
        "text": "of interacting with others in my"
    },
    {
        "start": "257.769",
        "dur": "3.931",
        "text": "relationships well most particularly my"
    },
    {
        "start": "259.69",
        "dur": "4.8",
        "text": "wife so I'm going to sort of put this"
    },
    {
        "start": "261.7",
        "dur": "3.899",
        "text": "out there and yes you could think it's a"
    },
    {
        "start": "264.49",
        "dur": "2.53",
        "text": "buddy grab yes you can think it's me"
    },
    {
        "start": "265.599",
        "dur": "2.831",
        "text": "complaining and nagging"
    },
    {
        "start": "267.02",
        "dur": "3.81",
        "text": "absolutely understand that listen to the"
    },
    {
        "start": "268.43",
        "dur": "6.949",
        "text": "end and then see if if this sort of"
    },
    {
        "start": "270.83",
        "dur": "4.549",
        "text": "makes sense to you or helps in any way"
    },
    {
        "start": "275.949",
        "dur": "7.991",
        "text": "so first and foremost when I mean I'm"
    },
    {
        "start": "282.05",
        "dur": "4.92",
        "text": "sensitive to donations because obviously"
    },
    {
        "start": "283.94",
        "dur": "7.02",
        "text": "money is good but also because it tells"
    },
    {
        "start": "286.97",
        "dur": "10.349",
        "text": "me what is most valuable in what it is"
    },
    {
        "start": "290.96",
        "dur": "9",
        "text": "that I'm doing and when I go on vacation"
    },
    {
        "start": "297.319",
        "dur": "8.16",
        "text": "and the donations drop off I'm aware"
    },
    {
        "start": "299.96",
        "dur": "8.519",
        "text": "that people financially don't like me"
    },
    {
        "start": "305.479",
        "dur": "4.711",
        "text": "going on vacation or they feel was"
    },
    {
        "start": "308.479",
        "dur": "6.321",
        "text": "steph's on vacation he's not producing"
    },
    {
        "start": "310.19",
        "dur": "7.68",
        "text": "podcasts so I'm not going to donate and"
    },
    {
        "start": "314.8",
        "dur": "4.63",
        "text": "that's very interesting that's very"
    },
    {
        "start": "317.87",
        "dur": "3.15",
        "text": "interesting and I think can be very"
    },
    {
        "start": "319.43",
        "dur": "3.209",
        "text": "helpful in your relationships to sort of"
    },
    {
        "start": "321.02",
        "dur": "5.97",
        "text": "look at this for a number of different"
    },
    {
        "start": "322.639",
        "dur": "7.201",
        "text": "ways first and foremost this is what I"
    },
    {
        "start": "326.99",
        "dur": "4.59",
        "text": "would invite you to to try on just just"
    },
    {
        "start": "329.84",
        "dur": "3.21",
        "text": "as an idea and again don't reach for"
    },
    {
        "start": "331.58",
        "dur": "3.69",
        "text": "your visa or your checkbook because it's"
    },
    {
        "start": "333.05",
        "dur": "4.35",
        "text": "not about that fundamentally it's about"
    },
    {
        "start": "335.27",
        "dur": "8.13",
        "text": "being self expressed of being free in a"
    },
    {
        "start": "337.4",
        "dur": "7.98",
        "text": "relationship if you were going to donate"
    },
    {
        "start": "343.4",
        "dur": "5.04",
        "text": "when I was on vacation but then you here"
    },
    {
        "start": "345.38",
        "dur": "4.289",
        "text": "oh he's on vacation so I'm not going to"
    },
    {
        "start": "348.44",
        "dur": "3.42",
        "text": "donate which is the only logical"
    },
    {
        "start": "349.669",
        "dur": "5.09",
        "text": "explanation that I can come up with as"
    },
    {
        "start": "351.86",
        "dur": "7.049",
        "text": "to why donations dropped off so much"
    },
    {
        "start": "354.759",
        "dur": "9.19",
        "text": "then clearly since I prefer donations to"
    },
    {
        "start": "358.909",
        "dur": "8.551",
        "text": "non donations you are saying Steph you"
    },
    {
        "start": "363.949",
        "dur": "9.15",
        "text": "are doing something that I dislike but"
    },
    {
        "start": "367.46",
        "dur": "8.04",
        "text": "you're not saying it explicitly the only"
    },
    {
        "start": "373.099",
        "dur": "4.771",
        "text": "comment that I got about being on"
    },
    {
        "start": "375.5",
        "dur": "5.819",
        "text": "vacation and asking for money was one"
    },
    {
        "start": "377.87",
        "dur": "5.789",
        "text": "person wrote on the board slightly"
    },
    {
        "start": "381.319",
        "dur": "5.551",
        "text": "snacky but then I i'm going to talk"
    },
    {
        "start": "383.659",
        "dur": "5.421",
        "text": "wrote on the board oh yeah steph sitting"
    },
    {
        "start": "386.87",
        "dur": "6.269",
        "text": "in a resort in the dominican republic"
    },
    {
        "start": "389.08",
        "dur": "7.269",
        "text": "asking us for donations and obviously"
    },
    {
        "start": "393.139",
        "dur": "4.62",
        "text": "there was a certain amount of I not"
    },
    {
        "start": "396.349",
        "dur": "3.721",
        "text": "quite bitterness but a certain amount of"
    },
    {
        "start": "397.759",
        "dur": "3.25",
        "text": "raw I rolling like who does this guy"
    },
    {
        "start": "400.07",
        "dur": "2.319",
        "text": "think he is said"
    },
    {
        "start": "401.009",
        "dur": "2.671",
        "text": "in a hammock and asking me to fork out"
    },
    {
        "start": "402.389",
        "dur": "6.12",
        "text": "for my hard-earned cash when he's not"
    },
    {
        "start": "403.68",
        "dur": "6.359",
        "text": "even producing donations but this is the"
    },
    {
        "start": "408.509",
        "dur": "3.63",
        "text": "kind of feedback that i think is quite"
    },
    {
        "start": "410.039",
        "dur": "4.5",
        "text": "essential for you to get because i"
    },
    {
        "start": "412.139",
        "dur": "5.48",
        "text": "really want you knowing that philosophy"
    },
    {
        "start": "414.539",
        "dur": "5.88",
        "text": "can lead you to a very lonely place or"
    },
    {
        "start": "417.619",
        "dur": "6.19",
        "text": "rather can reveal that the place you've"
    },
    {
        "start": "420.419",
        "dur": "5.73",
        "text": "always been is very lonely i want to"
    },
    {
        "start": "423.809",
        "dur": "4.32",
        "text": "give you the tools to be able to develop"
    },
    {
        "start": "426.149",
        "dur": "4.431",
        "text": "the truly intimate relationships that"
    },
    {
        "start": "428.129",
        "dur": "4.62",
        "text": "philosophy is capable of providing"
    },
    {
        "start": "430.58",
        "dur": "4.929",
        "text": "philosophy fundamentally is about love"
    },
    {
        "start": "432.749",
        "dur": "5.04",
        "text": "the truth is a means love is a means in"
    },
    {
        "start": "435.509",
        "dur": "4.74",
        "text": "at the end it's about happiness so this"
    },
    {
        "start": "437.789",
        "dur": "4.981",
        "text": "is really my attempt to give you"
    },
    {
        "start": "440.249",
        "dur": "6.211",
        "text": "feedback that might help get you to a"
    },
    {
        "start": "442.77",
        "dur": "9.72",
        "text": "place where your relationships are a"
    },
    {
        "start": "446.46",
        "dur": "8.97",
        "text": "truly joyful so if I'm doing something"
    },
    {
        "start": "452.49",
        "dur": "4.859",
        "text": "that you dislike and that's the only"
    },
    {
        "start": "455.43",
        "dur": "4.979",
        "text": "reason why donations would have dipped"
    },
    {
        "start": "457.349",
        "dur": "5.72",
        "text": "while I was away in that I was away and"
    },
    {
        "start": "460.409",
        "dur": "4.98",
        "text": "wasn't producing podcasts so people"
    },
    {
        "start": "463.069",
        "dur": "4.06",
        "text": "would have who would have donated if I"
    },
    {
        "start": "465.389",
        "dur": "3.481",
        "text": "was producing podcast did not donate"
    },
    {
        "start": "467.129",
        "dur": "7.29",
        "text": "because I wasn't producing podcast or at"
    },
    {
        "start": "468.87",
        "dur": "7.74",
        "text": "least not as many so clearly you would"
    },
    {
        "start": "474.419",
        "dur": "5.4",
        "text": "be preferring or you would prefer that I"
    },
    {
        "start": "476.61",
        "dur": "4.709",
        "text": "would be producing podcast and I wasn't"
    },
    {
        "start": "479.819",
        "dur": "6.301",
        "text": "producing podcast so I was doing"
    },
    {
        "start": "481.319",
        "dur": "8.43",
        "text": "something that you disliked now it also"
    },
    {
        "start": "486.12",
        "dur": "6.899",
        "text": "may be the case that if I had taken two"
    },
    {
        "start": "489.749",
        "dur": "4.95",
        "text": "weeks off and spent it at home I don't"
    },
    {
        "start": "493.019",
        "dur": "6.51",
        "text": "know preparing for freedomain radio as"
    },
    {
        "start": "494.699",
        "dur": "6.45",
        "text": "if I wasn't doing that on vacation then"
    },
    {
        "start": "499.529",
        "dur": "4.44",
        "text": "you might have donated even if I wasn't"
    },
    {
        "start": "501.149",
        "dur": "6.99",
        "text": "producing podcasts in which case it"
    },
    {
        "start": "503.969",
        "dur": "7.5",
        "text": "would be that Steph the lazy greedy bum"
    },
    {
        "start": "508.139",
        "dur": "6.33",
        "text": "is rolling around on a resort and is"
    },
    {
        "start": "511.469",
        "dur": "5.43",
        "text": "asking me to i donate money to him so"
    },
    {
        "start": "514.469",
        "dur": "4.711",
        "text": "maybe it wasn't just that i displeased"
    },
    {
        "start": "516.899",
        "dur": "5.461",
        "text": "you by not producing podcasts it may"
    },
    {
        "start": "519.18",
        "dur": "6.51",
        "text": "also be that i displeased you with my"
    },
    {
        "start": "522.36",
        "dur": "5.01",
        "text": "unbridled arrogance and greed of asking"
    },
    {
        "start": "525.69",
        "dur": "3.48",
        "text": "for donations while i was on vacation"
    },
    {
        "start": "527.37",
        "dur": "3.269",
        "text": "right so and there could be other"
    },
    {
        "start": "529.17",
        "dur": "4.05",
        "text": "reasons which we don't have to get into"
    },
    {
        "start": "530.639",
        "dur": "3.871",
        "text": "the reasons maybe as individual as the"
    },
    {
        "start": "533.22",
        "dur": "5.52",
        "text": "non donators mode"
    },
    {
        "start": "534.51",
        "dur": "5.82",
        "text": "but for some reason and I think those"
    },
    {
        "start": "538.74",
        "dur": "3.27",
        "text": "two may cover the majority of it for"
    },
    {
        "start": "540.33",
        "dur": "2.88",
        "text": "some reason people felt well I'm steps"
    },
    {
        "start": "542.01",
        "dur": "3.45",
        "text": "on vacation so I'm not going to donate"
    },
    {
        "start": "543.21",
        "dur": "3.66",
        "text": "and again forget about the donations"
    },
    {
        "start": "545.46",
        "dur": "3.51",
        "text": "doesn't matter about the donations what"
    },
    {
        "start": "546.87",
        "dur": "9.42",
        "text": "I'm concerned about is your self"
    },
    {
        "start": "548.97",
        "dur": "10.05",
        "text": "expression in a relationship so this is"
    },
    {
        "start": "556.29",
        "dur": "4.29",
        "text": "what i would suggest as a possibility in"
    },
    {
        "start": "559.02",
        "dur": "9.48",
        "text": "your relationships and to me this would"
    },
    {
        "start": "560.58",
        "dur": "10.83",
        "text": "be a kind of freedom which is that if"
    },
    {
        "start": "568.5",
        "dur": "9.03",
        "text": "i'm doing something that you dislike or"
    },
    {
        "start": "571.41",
        "dur": "8.93",
        "text": "if i am doing something that offends you"
    },
    {
        "start": "577.53",
        "dur": "8.34",
        "text": "ie asking for money but I'm on vacation"
    },
    {
        "start": "580.34",
        "dur": "8.71",
        "text": "then tell me well that's actually that's"
    },
    {
        "start": "585.87",
        "dur": "6.45",
        "text": "it that's the whole podcaster but it's"
    },
    {
        "start": "589.05",
        "dur": "12.14",
        "text": "really important it's really important"
    },
    {
        "start": "592.32",
        "dur": "12.36",
        "text": "to understand this I would suggest that"
    },
    {
        "start": "601.19",
        "dur": "7.51",
        "text": "not donating because I'm doing something"
    },
    {
        "start": "604.68",
        "dur": "7.23",
        "text": "that displeases you and not telling me"
    },
    {
        "start": "608.7",
        "dur": "5.37",
        "text": "that is a symptom a possible symptom i'm"
    },
    {
        "start": "611.91",
        "dur": "3.48",
        "text": "just i'm reaching but maybe maybe i'm"
    },
    {
        "start": "614.07",
        "dur": "2.85",
        "text": "reaching it into the rabbit hole and"
    },
    {
        "start": "615.39",
        "dur": "6.47",
        "text": "i'll actually grab a nice chocolate"
    },
    {
        "start": "616.92",
        "dur": "12.86",
        "text": "bunny in yum yum yum it could be a"
    },
    {
        "start": "621.86",
        "dur": "11.4",
        "text": "symptom of how you are in relationships"
    },
    {
        "start": "629.78",
        "dur": "3.48",
        "text": "it could be"
    },
    {
        "start": "639.529",
        "dur": "8.581",
        "text": "and so from that standpoint wouldn't it"
    },
    {
        "start": "643.91",
        "dur": "6.45",
        "text": "be fascinating or interesting to look at"
    },
    {
        "start": "648.11",
        "dur": "4.76",
        "text": "it from this perspective staff is I"
    },
    {
        "start": "650.36",
        "dur": "4.38",
        "text": "would have donated Steph is on vacation"
    },
    {
        "start": "652.87",
        "dur": "3.759",
        "text": "therefore and it could just be like"
    },
    {
        "start": "654.74",
        "dur": "4.5",
        "text": "donating donating for you is like a"
    },
    {
        "start": "656.629",
        "dur": "9.12",
        "text": "grudging well he keeps whining about it"
    },
    {
        "start": "659.24",
        "dur": "8.279",
        "text": "so let's throw a few bucks at the BCF so"
    },
    {
        "start": "665.749",
        "dur": "2.76",
        "text": "maybe it's like oh he's on vacation you"
    },
    {
        "start": "667.519",
        "dur": "2.521",
        "text": "know like when your boss goes on"
    },
    {
        "start": "668.509",
        "dur": "2.43",
        "text": "vacation or something you like oh great"
    },
    {
        "start": "670.04",
        "dur": "3.989",
        "text": "I don't have to stay till eight o'clock"
    },
    {
        "start": "670.939",
        "dur": "7.38",
        "text": "every night in which case the nature of"
    },
    {
        "start": "674.029",
        "dur": "5.85",
        "text": "obligation may not be perfectly clear to"
    },
    {
        "start": "678.319",
        "dur": "2.94",
        "text": "you in which case we could talk about"
    },
    {
        "start": "679.879",
        "dur": "5.46",
        "text": "that another time and you can let me"
    },
    {
        "start": "681.259",
        "dur": "6.781",
        "text": "know what what the case is but I'm"
    },
    {
        "start": "685.339",
        "dur": "5.461",
        "text": "perfectly willing to accept the"
    },
    {
        "start": "688.04",
        "dur": "6.32",
        "text": "possibility that me ask you for money"
    },
    {
        "start": "690.8",
        "dur": "7.289",
        "text": "while i'm on vacation is the height of"
    },
    {
        "start": "694.36",
        "dur": "5.919",
        "text": "hubris arrogance and greed and blindness"
    },
    {
        "start": "698.089",
        "dur": "3.571",
        "text": "and manipulation and whatever it could"
    },
    {
        "start": "700.279",
        "dur": "5.881",
        "text": "be that i was like they complete the"
    },
    {
        "start": "701.66",
        "dur": "5.849",
        "text": "biggest jerk in the world for asking for"
    },
    {
        "start": "706.16",
        "dur": "7.099",
        "text": "money when i'm on vacation on are going"
    },
    {
        "start": "707.509",
        "dur": "10.26",
        "text": "on vacation but backpack matt macaque"
    },
    {
        "start": "713.259",
        "dur": "10.231",
        "text": "but i think that we have a close enough"
    },
    {
        "start": "717.769",
        "dur": "10.74",
        "text": "relationship that if i'm doing something"
    },
    {
        "start": "723.49",
        "dur": "8.649",
        "text": "that is totally jerky that you've got my"
    },
    {
        "start": "728.509",
        "dur": "6.06",
        "text": "back that you've got my back that you're"
    },
    {
        "start": "732.139",
        "dur": "4.13",
        "text": "covering me and i'm not saying you have"
    },
    {
        "start": "734.569",
        "dur": "7.02",
        "text": "to have a 12-hour phone call with me"
    },
    {
        "start": "736.269",
        "dur": "8.38",
        "text": "just fire me off an email and say steph"
    },
    {
        "start": "741.589",
        "dur": "6.24",
        "text": "o'rama you greedy capitalist fat cat pig"
    },
    {
        "start": "744.649",
        "dur": "5.13",
        "text": "if you think that me who's working as a"
    },
    {
        "start": "747.829",
        "dur": "3.3",
        "text": "wage slave at mcdonalds for 60 hours a"
    },
    {
        "start": "749.779",
        "dur": "2.73",
        "text": "week is going to shove you a couple of"
    },
    {
        "start": "751.129",
        "dur": "3.841",
        "text": "bucks while you're lounging around in a"
    },
    {
        "start": "752.509",
        "dur": "4.44",
        "text": "resort in the dominican republic think"
    },
    {
        "start": "754.97",
        "dur": "3.659",
        "text": "again and even asking for money while"
    },
    {
        "start": "756.949",
        "dur": "3.06",
        "text": "they were in vacation is completely"
    },
    {
        "start": "758.629",
        "dur": "2.7",
        "text": "ridiculous and just shows how out of"
    },
    {
        "start": "760.009",
        "dur": "2.58",
        "text": "touch you are with things and how greedy"
    },
    {
        "start": "761.329",
        "dur": "5.13",
        "text": "you are and i can't believe it in ba ba"
    },
    {
        "start": "762.589",
        "dur": "6.29",
        "text": "ba ba ba i would totally welcome those"
    },
    {
        "start": "766.459",
        "dur": "2.42",
        "text": "emails"
    },
    {
        "start": "770.14",
        "dur": "7.6",
        "text": "as you've noticed when people send me"
    },
    {
        "start": "776.029",
        "dur": "3.12",
        "text": "emails and to the degree with which i"
    },
    {
        "start": "777.74",
        "dur": "2.82",
        "text": "can and i'll be able to do more of this"
    },
    {
        "start": "779.149",
        "dur": "3.331",
        "text": "when i'm working on this full time it's"
    },
    {
        "start": "780.56",
        "dur": "3.15",
        "text": "just I can't read in the car but least"
    },
    {
        "start": "782.48",
        "dur": "2.64",
        "text": "not without getting lots of emails from"
    },
    {
        "start": "783.71",
        "dur": "4.23",
        "text": "people thinking i'm about to die a"
    },
    {
        "start": "785.12",
        "dur": "8.25",
        "text": "flaming death other than just suntanning"
    },
    {
        "start": "787.94",
        "dur": "7.05",
        "text": "i try to watch other people's bags right"
    },
    {
        "start": "793.37",
        "dur": "3.33",
        "text": "so if people are doing things that i"
    },
    {
        "start": "794.99",
        "dur": "3.24",
        "text": "think your self destructive or difficult"
    },
    {
        "start": "796.7",
        "dur": "4.17",
        "text": "or dangerous or if they're asking for"
    },
    {
        "start": "798.23",
        "dur": "4.38",
        "text": "something or even if they're doing"
    },
    {
        "start": "800.87",
        "dur": "5.01",
        "text": "something on the boards or any anytime"
    },
    {
        "start": "802.61",
        "dur": "4.65",
        "text": "that I have awareness of somebody who's"
    },
    {
        "start": "805.88",
        "dur": "4.55",
        "text": "doing something that I think is not"
    },
    {
        "start": "807.26",
        "dur": "5.61",
        "text": "positive or as show something negative"
    },
    {
        "start": "810.43",
        "dur": "4.33",
        "text": "then I try to watch their back i'll try"
    },
    {
        "start": "812.87",
        "dur": "4.5",
        "text": "and talk about it with them rightly or"
    },
    {
        "start": "814.76",
        "dur": "5.82",
        "text": "wrongly i'll certainly think i'll try"
    },
    {
        "start": "817.37",
        "dur": "4.68",
        "text": "and cover them and do my best to have"
    },
    {
        "start": "820.58",
        "dur": "3.9",
        "text": "them understand about at least what i"
    },
    {
        "start": "822.05",
        "dur": "3.57",
        "text": "think is is something in the behavior"
    },
    {
        "start": "824.48",
        "dur": "2.04",
        "text": "that's going to cause the man happiness"
    },
    {
        "start": "825.62",
        "dur": "2.31",
        "text": "so that could be changed for the better"
    },
    {
        "start": "826.52",
        "dur": "10.77",
        "text": "or whatever and that's sort of what i'm"
    },
    {
        "start": "827.93",
        "dur": "11.37",
        "text": "doing now i would say that if you're in"
    },
    {
        "start": "837.29",
        "dur": "3.72",
        "text": "any relationship that you're in if"
    },
    {
        "start": "839.3",
        "dur": "8.55",
        "text": "somebody does something that displeases"
    },
    {
        "start": "841.01",
        "dur": "8.73",
        "text": "you and all you do is withdraw then your"
    },
    {
        "start": "847.85",
        "dur": "5.76",
        "text": "relationships are not going to be very"
    },
    {
        "start": "849.74",
        "dur": "6.57",
        "text": "satisfying do you see why it's not about"
    },
    {
        "start": "853.61",
        "dur": "4.32",
        "text": "the money i would actually be more"
    },
    {
        "start": "856.31",
        "dur": "5.25",
        "text": "pleased i would have been more pleased"
    },
    {
        "start": "857.93",
        "dur": "7.349",
        "text": "if I'd have gotten 50 emails telling me"
    },
    {
        "start": "861.56",
        "dur": "6.779",
        "text": "what a jerk I was maybe not quite in"
    },
    {
        "start": "865.279",
        "dur": "4.261",
        "text": "those times telling me that it was the"
    },
    {
        "start": "868.339",
        "dur": "2.401",
        "text": "wrong thing to do to ask for money on"
    },
    {
        "start": "869.54",
        "dur": "2.489",
        "text": "vacation I would be more pleased than"
    },
    {
        "start": "870.74",
        "dur": "2.61",
        "text": "that from any of the money I would have"
    },
    {
        "start": "872.029",
        "dur": "6.091",
        "text": "gotten on vacation because it would have"
    },
    {
        "start": "873.35",
        "dur": "6.179",
        "text": "meant the people watching my back that"
    },
    {
        "start": "878.12",
        "dur": "2.94",
        "text": "if I was doing so I don't think I was"
    },
    {
        "start": "879.529",
        "dur": "4.111",
        "text": "but if I was doing something jerky or"
    },
    {
        "start": "881.06",
        "dur": "4.44",
        "text": "greedy or blind or presumptive or"
    },
    {
        "start": "883.64",
        "dur": "4.34",
        "text": "whatever that people would be watching"
    },
    {
        "start": "885.5",
        "dur": "2.48",
        "text": "my back"
    },
    {
        "start": "888.44",
        "dur": "8.03",
        "text": "but with some exceptions which were very"
    },
    {
        "start": "890.93",
        "dur": "8.46",
        "text": "good were great it was almost all"
    },
    {
        "start": "896.47",
        "dur": "5.44",
        "text": "subscription donations only 18 bucks a"
    },
    {
        "start": "899.39",
        "dur": "3.75",
        "text": "month fifty cents a day less than half"
    },
    {
        "start": "901.91",
        "dur": "3.27",
        "text": "of the price of a copy how about a third"
    },
    {
        "start": "903.14",
        "dur": "4.29",
        "text": "of the price of a coffee a day for an"
    },
    {
        "start": "905.18",
        "dur": "7.68",
        "text": "hour and a half of philosophy that's not"
    },
    {
        "start": "907.43",
        "dur": "7.97",
        "text": "bad imagine if you could watch a movie"
    },
    {
        "start": "912.86",
        "dur": "5.04",
        "text": "you wanted that was an hour and a half"
    },
    {
        "start": "915.4",
        "dur": "7.5",
        "text": "that was only 50 cents wouldn't that be"
    },
    {
        "start": "917.9",
        "dur": "5",
        "text": "great this is better than a movie"
    },
    {
        "start": "923.83",
        "dur": "6.03",
        "text": "philosophy in motion on the road again"
    },
    {
        "start": "932.52",
        "dur": "4.68",
        "text": "because that would meant that would mean"
    },
    {
        "start": "934.74",
        "dur": "3.93",
        "text": "that people were aware that I was doing"
    },
    {
        "start": "937.2",
        "dur": "3.69",
        "text": "something that displeased them i think i"
    },
    {
        "start": "938.67",
        "dur": "6.81",
        "text": "got to donations in two weeks and that's"
    },
    {
        "start": "940.89",
        "dur": "6.51",
        "text": "very very low and those were from people"
    },
    {
        "start": "945.48",
        "dur": "3.99",
        "text": "who i believe if i remember correctly"
    },
    {
        "start": "947.4",
        "dur": "3.75",
        "text": "those were from people who were earlier"
    },
    {
        "start": "949.47",
        "dur": "3.09",
        "text": "on in the park no sorry one was from a"
    },
    {
        "start": "951.15",
        "dur": "2.73",
        "text": "long time listener mom was from an"
    },
    {
        "start": "952.56",
        "dur": "7.92",
        "text": "earlier somebody who's listened earlier"
    },
    {
        "start": "953.88",
        "dur": "10.85",
        "text": "so so it was it was a significant drop"
    },
    {
        "start": "960.48",
        "dur": "6.39",
        "text": "and I'm not talking to people who have"
    },
    {
        "start": "964.73",
        "dur": "4.78",
        "text": "denoted in a donated in the past"
    },
    {
        "start": "966.87",
        "dur": "5.49",
        "text": "abercorn up or anything like that but I"
    },
    {
        "start": "969.51",
        "dur": "5.82",
        "text": "am talking to everyone who thought that"
    },
    {
        "start": "972.36",
        "dur": "4.44",
        "text": "I was doing something that displeased"
    },
    {
        "start": "975.33",
        "dur": "2.93",
        "text": "them either by taking a vacation are"
    },
    {
        "start": "976.8",
        "dur": "6.06",
        "text": "asking for money on that vacation and"
    },
    {
        "start": "978.26",
        "dur": "6.25",
        "text": "who didn't tell me that do you see what"
    },
    {
        "start": "982.86",
        "dur": "4.85",
        "text": "I miss is hard to explain do you see"
    },
    {
        "start": "984.51",
        "dur": "3.2",
        "text": "what it is that I'm asking for"
    },
    {
        "start": "992.4",
        "dur": "5.46",
        "text": "if someone does something that"
    },
    {
        "start": "995.37",
        "dur": "5.91",
        "text": "displeases you and you're in a"
    },
    {
        "start": "997.86",
        "dur": "5.6",
        "text": "relationship with them and all you do is"
    },
    {
        "start": "1001.28",
        "dur": "6.9",
        "text": "withdraw and you don't voice that"
    },
    {
        "start": "1003.46",
        "dur": "6.07",
        "text": "criticism or that correction that's not"
    },
    {
        "start": "1008.18",
        "dur": "3.27",
        "text": "a loving act and I'm not saying you've"
    },
    {
        "start": "1009.53",
        "dur": "6.33",
        "text": "got to love the YouTube video would you"
    },
    {
        "start": "1011.45",
        "dur": "9.32",
        "text": "know hump the web file of the mp3 but"
    },
    {
        "start": "1015.86",
        "dur": "4.91",
        "text": "it's an important thing to to understand"
    },
    {
        "start": "1021.67",
        "dur": "6.43",
        "text": "if someone does something that"
    },
    {
        "start": "1025.49",
        "dur": "12.12",
        "text": "displeases you or offends you or upsets"
    },
    {
        "start": "1028.1",
        "dur": "14.37",
        "text": "you tell them tell them because then you"
    },
    {
        "start": "1037.61",
        "dur": "6.72",
        "text": "have freedom in a relationship and this"
    },
    {
        "start": "1042.47",
        "dur": "4.05",
        "text": "is advanced stuff I mean I aware that"
    },
    {
        "start": "1044.33",
        "dur": "6.57",
        "text": "this is advanced stuff but this is"
    },
    {
        "start": "1046.52",
        "dur": "5.88",
        "text": "essential it's about being self"
    },
    {
        "start": "1050.9",
        "dur": "4.31",
        "text": "expressed in a relationship and we do"
    },
    {
        "start": "1052.4",
        "dur": "2.81",
        "text": "have a relationship"
    },
    {
        "start": "1058.26",
        "dur": "3.24",
        "text": "and i think the sensitivity and"
    },
    {
        "start": "1060.09",
        "dur": "2.85",
        "text": "sometimes tenderness and sometimes"
    },
    {
        "start": "1061.5",
        "dur": "3",
        "text": "firmness with which i approach these"
    },
    {
        "start": "1062.94",
        "dur": "3.87",
        "text": "kinds of communications in the respect"
    },
    {
        "start": "1064.5",
        "dur": "7.74",
        "text": "that I have for my listeners should give"
    },
    {
        "start": "1066.81",
        "dur": "9.5",
        "text": "you that freedom to tell me that I'm"
    },
    {
        "start": "1072.24",
        "dur": "7.53",
        "text": "being a jerk in some manner or another"
    },
    {
        "start": "1076.31",
        "dur": "12.97",
        "text": "now the reason for the most part the"
    },
    {
        "start": "1079.77",
        "dur": "10.68",
        "text": "reason that we tend not to express our"
    },
    {
        "start": "1089.28",
        "dur": "3.51",
        "text": "discontent with someone in a"
    },
    {
        "start": "1090.45",
        "dur": "6.03",
        "text": "relationship is because we don't know"
    },
    {
        "start": "1092.79",
        "dur": "6.14",
        "text": "how to do it without sounding or being"
    },
    {
        "start": "1096.48",
        "dur": "2.45",
        "text": "angry"
    },
    {
        "start": "1102.72",
        "dur": "6.24",
        "text": "and that it has one of two effects and"
    },
    {
        "start": "1106.679",
        "dur": "6.031",
        "text": "either the other person gets angry back"
    },
    {
        "start": "1108.96",
        "dur": "11.79",
        "text": "a three I guess the other person gets"
    },
    {
        "start": "1112.71",
        "dur": "13.98",
        "text": "angry back or the other person with"
    },
    {
        "start": "1120.75",
        "dur": "7.799",
        "text": "drawers as people did with me or people"
    },
    {
        "start": "1126.69",
        "dur": "3.27",
        "text": "get contemptuous right if their older"
    },
    {
        "start": "1128.549",
        "dur": "3.781",
        "text": "siblings and have a lot of power and we"
    },
    {
        "start": "1129.96",
        "dur": "4.11",
        "text": "can angry at them they're like oh well I"
    },
    {
        "start": "1132.33",
        "dur": "6.2",
        "text": "guess I guess you've got your knickers"
    },
    {
        "start": "1134.07",
        "dur": "6.719",
        "text": "in a twist haven't you what's the matter"
    },
    {
        "start": "1138.53",
        "dur": "3.639",
        "text": "for us my brother used to do when I have"
    },
    {
        "start": "1140.789",
        "dur": "4.02",
        "text": "a ganker at him he'd say well I guess"
    },
    {
        "start": "1142.169",
        "dur": "4.321",
        "text": "I've touched a nerve have a night it's"
    },
    {
        "start": "1144.809",
        "dur": "4.381",
        "text": "very interesting that this makes you so"
    },
    {
        "start": "1146.49",
        "dur": "9.78",
        "text": "upset why do you think that is right she"
    },
    {
        "start": "1149.19",
        "dur": "8.849",
        "text": "passed psychologizing so when someone"
    },
    {
        "start": "1156.27",
        "dur": "6.69",
        "text": "does something the bother says based on"
    },
    {
        "start": "1158.039",
        "dur": "8.39",
        "text": "their own histories withdrawal seems to"
    },
    {
        "start": "1162.96",
        "dur": "5.64",
        "text": "be the best option seems to be the most"
    },
    {
        "start": "1166.429",
        "dur": "3.461",
        "text": "reasonable option seems to be the option"
    },
    {
        "start": "1168.6",
        "dur": "4.61",
        "text": "that is going to incur the least"
    },
    {
        "start": "1169.89",
        "dur": "3.32",
        "text": "problems the least number of problems"
    },
    {
        "start": "1177.56",
        "dur": "5.22",
        "text": "and I would invite you into the"
    },
    {
        "start": "1181.46",
        "dur": "6.77",
        "text": "possibility to suggest the possibility"
    },
    {
        "start": "1182.78",
        "dur": "8.13",
        "text": "that that is not a good strategy anymore"
    },
    {
        "start": "1188.23",
        "dur": "4.96",
        "text": "that is really not a good strategy as an"
    },
    {
        "start": "1190.91",
        "dur": "3.63",
        "text": "adult to withdraw when there's a problem"
    },
    {
        "start": "1193.19",
        "dur": "5.27",
        "text": "in a relationship or someone's doing"
    },
    {
        "start": "1194.54",
        "dur": "6.66",
        "text": "something that bothers you because on"
    },
    {
        "start": "1198.46",
        "dur": "10.12",
        "text": "the other side it sort of feels it feels"
    },
    {
        "start": "1201.2",
        "dur": "10.23",
        "text": "manipulative so I go on vacation and"
    },
    {
        "start": "1208.58",
        "dur": "4.59",
        "text": "donations fall off a cliff I know that"
    },
    {
        "start": "1211.43",
        "dur": "3.9",
        "text": "people are upset with me I know I mean I"
    },
    {
        "start": "1213.17",
        "dur": "5.49",
        "text": "know I'm not an idiot at least not at"
    },
    {
        "start": "1215.33",
        "dur": "7.44",
        "text": "this I know that people are upset with"
    },
    {
        "start": "1218.66",
        "dur": "7.14",
        "text": "me or think I'm a jerk for asking for"
    },
    {
        "start": "1222.77",
        "dur": "4.2",
        "text": "money while lying on a hammock let me"
    },
    {
        "start": "1225.8",
        "dur": "2.81",
        "text": "just mention two things about that I"
    },
    {
        "start": "1226.97",
        "dur": "3.69",
        "text": "don't want to sound defensive but I"
    },
    {
        "start": "1228.61",
        "dur": "3.4",
        "text": "worked a lot on freedomain radio on"
    },
    {
        "start": "1230.66",
        "dur": "2.88",
        "text": "vacation Christina and I had hours of"
    },
    {
        "start": "1232.01",
        "dur": "3",
        "text": "conversations about it I've got some"
    },
    {
        "start": "1233.54",
        "dur": "4.13",
        "text": "excellent things I've got what it is I"
    },
    {
        "start": "1235.01",
        "dur": "8.19",
        "text": "want to do next I've got the way forward"
    },
    {
        "start": "1237.67",
        "dur": "6.88",
        "text": "I've got a way of funding and I also"
    },
    {
        "start": "1243.2",
        "dur": "3.57",
        "text": "have the next book that I want to write"
    },
    {
        "start": "1244.55",
        "dur": "3.69",
        "text": "which we talked about a lot as well also"
    },
    {
        "start": "1246.77",
        "dur": "3.18",
        "text": "i'm working in extra two months and"
    },
    {
        "start": "1248.24",
        "dur": "2.7",
        "text": "that's what's the paying one of two"
    },
    {
        "start": "1249.95",
        "dur": "3.93",
        "text": "weeks of that is what paid for the"
    },
    {
        "start": "1250.94",
        "dur": "5.07",
        "text": "vacation that's my price sort of my it"
    },
    {
        "start": "1253.88",
        "dur": "3.6",
        "text": "doesn't come from donations the money is"
    },
    {
        "start": "1256.01",
        "dur": "6.21",
        "text": "coming from the extra two months of work"
    },
    {
        "start": "1257.48",
        "dur": "7.41",
        "text": "that I'm doing and it's my sort of it's"
    },
    {
        "start": "1262.22",
        "dur": "4.86",
        "text": "my present to myself so it's not like I"
    },
    {
        "start": "1264.89",
        "dur": "5.06",
        "text": "hoovered up the donation account and"
    },
    {
        "start": "1267.08",
        "dur": "5.7",
        "text": "just went giddy and mad on vacation and"
    },
    {
        "start": "1269.95",
        "dur": "4.39",
        "text": "and so and it's other reasons I mean"
    },
    {
        "start": "1272.78",
        "dur": "4.92",
        "text": "working a job and a half for a year and"
    },
    {
        "start": "1274.34",
        "dur": "4.68",
        "text": "a half with very little time off is is"
    },
    {
        "start": "1277.7",
        "dur": "4.46",
        "text": "quite a challenge and it's quite"
    },
    {
        "start": "1279.02",
        "dur": "6.24",
        "text": "draining there's a lot of work this and"
    },
    {
        "start": "1282.16",
        "dur": "4.9",
        "text": "so I don't view vacation is not being"
    },
    {
        "start": "1285.26",
        "dur": "3.72",
        "text": "productive I view vacation is essential"
    },
    {
        "start": "1287.06",
        "dur": "3.24",
        "text": "to productivity right if you constantly"
    },
    {
        "start": "1288.98",
        "dur": "3.39",
        "text": "wrap a motor and never turn it off"
    },
    {
        "start": "1290.3",
        "dur": "6.09",
        "text": "motors going to burn out right part of"
    },
    {
        "start": "1292.37",
        "dur": "5.64",
        "text": "the productivity of a motor is turning"
    },
    {
        "start": "1296.39",
        "dur": "5.7",
        "text": "it off part of the productivity of a car"
    },
    {
        "start": "1298.01",
        "dur": "8.19",
        "text": "is getting the oil changed right so I"
    },
    {
        "start": "1302.09",
        "dur": "5.7",
        "text": "went to on vacation and I got lubed it's"
    },
    {
        "start": "1306.2",
        "dur": "2.82",
        "text": "part of productivity and and I don't"
    },
    {
        "start": "1307.79",
        "dur": "3.21",
        "text": "have this whole Protestant things like"
    },
    {
        "start": "1309.02",
        "dur": "4.86",
        "text": "it's bad not to work"
    },
    {
        "start": "1311",
        "dur": "5.76",
        "text": "it's it's it's um it's required not to"
    },
    {
        "start": "1313.88",
        "dur": "6.99",
        "text": "work it's required not to work that is"
    },
    {
        "start": "1316.76",
        "dur": "5.61",
        "text": "productivity I mean you rest before a"
    },
    {
        "start": "1320.87",
        "dur": "2.64",
        "text": "marathon right otherwise you can't run"
    },
    {
        "start": "1322.37",
        "dur": "3.42",
        "text": "they don't run a marathon and then turn"
    },
    {
        "start": "1323.51",
        "dur": "4.41",
        "text": "around at random marathon you run a"
    },
    {
        "start": "1325.79",
        "dur": "3.42",
        "text": "marathon you rest recuperate stretch"
    },
    {
        "start": "1327.92",
        "dur": "4.23",
        "text": "train and then you ran another matter of"
    },
    {
        "start": "1329.21",
        "dur": "4.35",
        "text": "fact so vacation is essential to"
    },
    {
        "start": "1332.15",
        "dur": "5.76",
        "text": "productivity it's essential to what it"
    },
    {
        "start": "1333.56",
        "dur": "9.45",
        "text": "is that I do so I just sort of wanted to"
    },
    {
        "start": "1337.91",
        "dur": "7.11",
        "text": "point that stuff out but I would invite"
    },
    {
        "start": "1343.01",
        "dur": "3.93",
        "text": "you into the possibility that there are"
    },
    {
        "start": "1345.02",
        "dur": "3.21",
        "text": "other ways of expressing discontent or"
    },
    {
        "start": "1346.94",
        "dur": "2.64",
        "text": "disagreement with someone because if you"
    },
    {
        "start": "1348.23",
        "dur": "4.17",
        "text": "don't you never figure out if you're"
    },
    {
        "start": "1349.58",
        "dur": "5.67",
        "text": "right around with the disapproving of"
    },
    {
        "start": "1352.4",
        "dur": "4.08",
        "text": "someone or disapproving of something"
    },
    {
        "start": "1355.25",
        "dur": "6.42",
        "text": "that someone does someone did you care"
    },
    {
        "start": "1356.48",
        "dur": "7.32",
        "text": "about you don't get to have a discussion"
    },
    {
        "start": "1361.67",
        "dur": "8.13",
        "text": "about what it means to disapprove of"
    },
    {
        "start": "1363.8",
        "dur": "7.38",
        "text": "something that someone does you don't"
    },
    {
        "start": "1369.8",
        "dur": "3.63",
        "text": "get to dig into the roots and figure out"
    },
    {
        "start": "1371.18",
        "dur": "5.49",
        "text": "where it's coming from and what it means"
    },
    {
        "start": "1373.43",
        "dur": "4.44",
        "text": "and what its ways in which it could be"
    },
    {
        "start": "1376.67",
        "dur": "3.99",
        "text": "handled differently ways in which"
    },
    {
        "start": "1377.87",
        "dur": "4.47",
        "text": "because if I am doing something that's a"
    },
    {
        "start": "1380.66",
        "dur": "4.26",
        "text": "greedy or jerky or wrong or something"
    },
    {
        "start": "1382.34",
        "dur": "4.86",
        "text": "I'd like to know I'd like to know to me"
    },
    {
        "start": "1384.92",
        "dur": "6.57",
        "text": "it would be a caring thing for you to"
    },
    {
        "start": "1387.2",
        "dur": "8.04",
        "text": "tell me are you obligated to tell me no"
    },
    {
        "start": "1391.49",
        "dur": "6.99",
        "text": "because it's not about your obligation"
    },
    {
        "start": "1395.24",
        "dur": "5.34",
        "text": "to me it's not about your obligation to"
    },
    {
        "start": "1398.48",
        "dur": "7.08",
        "text": "me I mean this is true of donations as"
    },
    {
        "start": "1400.58",
        "dur": "5.97",
        "text": "it is of communicating with someone that"
    },
    {
        "start": "1405.56",
        "dur": "3.26",
        "text": "you disapprove of something they're"
    },
    {
        "start": "1406.55",
        "dur": "2.27",
        "text": "doing"
    },
    {
        "start": "1413.36",
        "dur": "6.24",
        "text": "it's not about your obligation to me"
    },
    {
        "start": "1415.28",
        "dur": "6.21",
        "text": "it's about being happy and there's no"
    },
    {
        "start": "1419.6",
        "dur": "3.8",
        "text": "obligation to be happy it's just more"
    },
    {
        "start": "1421.49",
        "dur": "5.22",
        "text": "fun frankly it's just better all around"
    },
    {
        "start": "1423.4",
        "dur": "5.47",
        "text": "to be happy who wouldn't want that if"
    },
    {
        "start": "1426.71",
        "dur": "4.44",
        "text": "they could you don't donate because"
    },
    {
        "start": "1428.87",
        "dur": "5.58",
        "text": "you're obligated to me you donate"
    },
    {
        "start": "1431.15",
        "dur": "6",
        "text": "because you want to be happy and as I"
    },
    {
        "start": "1434.45",
        "dur": "5.25",
        "text": "mentioned before donations will"
    },
    {
        "start": "1437.15",
        "dur": "3.54",
        "text": "automatically increase the power of"
    },
    {
        "start": "1439.7",
        "dur": "2.49",
        "text": "philosophy in your life because you're"
    },
    {
        "start": "1440.69",
        "dur": "5.67",
        "text": "saying let's say you subscribe you're"
    },
    {
        "start": "1442.19",
        "dur": "6.18",
        "text": "saying the values our philosophy topical"
    },
    {
        "start": "1446.36",
        "dur": "4.89",
        "text": "values rational ethics and so on is"
    },
    {
        "start": "1448.37",
        "dur": "5.13",
        "text": "worth at least a third of the price of a"
    },
    {
        "start": "1451.25",
        "dur": "4.35",
        "text": "cup of coffee every day for me so it's"
    },
    {
        "start": "1453.5",
        "dur": "5.28",
        "text": "worth something to you choosing between"
    },
    {
        "start": "1455.6",
        "dur": "4.62",
        "text": "say virtue and caffeine you're probably"
    },
    {
        "start": "1458.78",
        "dur": "2.519",
        "text": "still in the balance but at least it's"
    },
    {
        "start": "1460.22",
        "dur": "2.61",
        "text": "worth something to you if it if you"
    },
    {
        "start": "1461.299",
        "dur": "2.971",
        "text": "don't donate then you're unconscious"
    },
    {
        "start": "1462.83",
        "dur": "3.12",
        "text": "just says okay well this is just a game"
    },
    {
        "start": "1464.27",
        "dur": "2.94",
        "text": "we're not taking this very seriously not"
    },
    {
        "start": "1465.95",
        "dur": "4.02",
        "text": "even a third of a price of a cup of"
    },
    {
        "start": "1467.21",
        "dur": "4.349",
        "text": "coffee a day so we're just going to"
    },
    {
        "start": "1469.97",
        "dur": "3.15",
        "text": "enjoy these like their entertainment and"
    },
    {
        "start": "1471.559",
        "dur": "7.681",
        "text": "they're not going to have any particular"
    },
    {
        "start": "1473.12",
        "dur": "8.39",
        "text": "effect in our life we'll just do my"
    },
    {
        "start": "1479.24",
        "dur": "2.27",
        "text": "emerge"
    },
    {
        "start": "1484.22",
        "dur": "5.699",
        "text": "so if it's true that people to donate"
    },
    {
        "start": "1488.299",
        "dur": "2.971",
        "text": "not today because they were disapproving"
    },
    {
        "start": "1489.919",
        "dur": "2.461",
        "text": "of something that I was doing or because"
    },
    {
        "start": "1491.27",
        "dur": "2.789",
        "text": "they felt they were off the hook because"
    },
    {
        "start": "1492.38",
        "dur": "5.12",
        "text": "they thought I would speak a jerk or"
    },
    {
        "start": "1494.059",
        "dur": "6.691",
        "text": "something then I'm going to offer up to"
    },
    {
        "start": "1497.5",
        "dur": "6.19",
        "text": "you of my friends I'm going to offer a"
    },
    {
        "start": "1500.75",
        "dur": "4.559",
        "text": "possible way and I sort of was"
    },
    {
        "start": "1503.69",
        "dur": "3.18",
        "text": "tongue-in-cheek saying of assets being a"
    },
    {
        "start": "1505.309",
        "dur": "2.911",
        "text": "jerk I mean that's not what you say when"
    },
    {
        "start": "1506.87",
        "dur": "2.549",
        "text": "somebody mean you can say it it's just"
    },
    {
        "start": "1508.22",
        "dur": "2.22",
        "text": "not going to work right it's not going"
    },
    {
        "start": "1509.419",
        "dur": "3.271",
        "text": "to get you what you want not going to"
    },
    {
        "start": "1510.44",
        "dur": "4.56",
        "text": "make you happy this is a way of"
    },
    {
        "start": "1512.69",
        "dur": "4.65",
        "text": "suggesting now this is the way I can"
    },
    {
        "start": "1515",
        "dur": "5.28",
        "text": "suggest of how to approach this this"
    },
    {
        "start": "1517.34",
        "dur": "9.75",
        "text": "issue if I'm doing something that bet"
    },
    {
        "start": "1520.28",
        "dur": "10.889",
        "text": "you disapprove of what you can do is you"
    },
    {
        "start": "1527.09",
        "dur": "6.18",
        "text": "can tell me the truth the true if you"
    },
    {
        "start": "1531.169",
        "dur": "4.981",
        "text": "feel like I'm being a jerk then the"
    },
    {
        "start": "1533.27",
        "dur": "4.68",
        "text": "truth is not that I'm being a jerk it"
    },
    {
        "start": "1536.15",
        "dur": "5.67",
        "text": "might be the truth but it's not proven"
    },
    {
        "start": "1537.95",
        "dur": "5.4",
        "text": "by you feeling that I'm a jerk any more"
    },
    {
        "start": "1541.82",
        "dur": "5.45",
        "text": "than the existence of God is proven by"
    },
    {
        "start": "1543.35",
        "dur": "3.92",
        "text": "somebody feeling that there is a God"
    },
    {
        "start": "1552.75",
        "dur": "7.77",
        "text": "if you feel that I'm being a jerk then"
    },
    {
        "start": "1557.06",
        "dur": "7.72",
        "text": "the honest way to communicate that is to"
    },
    {
        "start": "1560.52",
        "dur": "5.49",
        "text": "say you know staff it's odd I've enjoyed"
    },
    {
        "start": "1564.78",
        "dur": "3",
        "text": "your podcast think you've got some"
    },
    {
        "start": "1566.01",
        "dur": "3.12",
        "text": "integrity some good stuff to say you go"
    },
    {
        "start": "1567.78",
        "dur": "4.23",
        "text": "on vacation and suddenly I feel"
    },
    {
        "start": "1569.13",
        "dur": "4.65",
        "text": "resentful I feel that you're being"
    },
    {
        "start": "1572.01",
        "dur": "4.41",
        "text": "greedy i feel that you're done a lot"
    },
    {
        "start": "1573.78",
        "dur": "4.08",
        "text": "right whatever that is such an"
    },
    {
        "start": "1576.42",
        "dur": "3.87",
        "text": "incredible thing to hear to be on the"
    },
    {
        "start": "1577.86",
        "dur": "5.7",
        "text": "receiving end of that is never a problem"
    },
    {
        "start": "1580.29",
        "dur": "5.01",
        "text": "for any decent human being because it's"
    },
    {
        "start": "1583.56",
        "dur": "2.91",
        "text": "curiosity you're curious about your own"
    },
    {
        "start": "1585.3",
        "dur": "5.09",
        "text": "feelings you're willing to take feedback"
    },
    {
        "start": "1586.47",
        "dur": "5.91",
        "text": "I say this all the time with Christina I"
    },
    {
        "start": "1590.39",
        "dur": "3.88",
        "text": "could be wrong this is sort of what I"
    },
    {
        "start": "1592.38",
        "dur": "3.84",
        "text": "feel there was something of right here I"
    },
    {
        "start": "1594.27",
        "dur": "3.81",
        "text": "don't know if I you know I don't know if"
    },
    {
        "start": "1596.22",
        "dur": "3.09",
        "text": "it's good or bad but I sort of felt that"
    },
    {
        "start": "1598.08",
        "dur": "7.71",
        "text": "something when kind of odd here and we"
    },
    {
        "start": "1599.31",
        "dur": "8.58",
        "text": "we talked about it if I feel christina"
    },
    {
        "start": "1605.79",
        "dur": "3.96",
        "text": "is being insensitive in some regard or"
    },
    {
        "start": "1607.89",
        "dur": "4.8",
        "text": "another which occasionally she can do is"
    },
    {
        "start": "1609.75",
        "dur": "4.23",
        "text": "it all of us can then I don't say you're"
    },
    {
        "start": "1612.69",
        "dur": "3.15",
        "text": "just insensitive right because that's"
    },
    {
        "start": "1613.98",
        "dur": "3.3",
        "text": "just volatile and inflammatory and and"
    },
    {
        "start": "1615.84",
        "dur": "3.42",
        "text": "not true because she's not right in"
    },
    {
        "start": "1617.28",
        "dur": "8.07",
        "text": "general it's very much a foo shadow that"
    },
    {
        "start": "1619.26",
        "dur": "7.44",
        "text": "causes that I say I feel I feel sort of"
    },
    {
        "start": "1625.35",
        "dur": "2.76",
        "text": "like you're not listening it away or I"
    },
    {
        "start": "1626.7",
        "dur": "6.18",
        "text": "feel like you're dismissing or avoiding"
    },
    {
        "start": "1628.11",
        "dur": "6.45",
        "text": "the topic don't worry that horn is not"
    },
    {
        "start": "1632.88",
        "dur": "4.49",
        "text": "at me to somebody it went splashing"
    },
    {
        "start": "1634.56",
        "dur": "2.81",
        "text": "around the right hand side here"
    },
    {
        "start": "1640.5",
        "dur": "5.62",
        "text": "so if you were to write to me and this"
    },
    {
        "start": "1644.559",
        "dur": "6.681",
        "text": "is how you get out of the problem of"
    },
    {
        "start": "1646.12",
        "dur": "5.12",
        "text": "either a just passively withdrawing and"
    },
    {
        "start": "1651.45",
        "dur": "5.14",
        "text": "expressing disapproval in a manipulative"
    },
    {
        "start": "1653.74",
        "dur": "3.84",
        "text": "and foggy kind of way like I got to try"
    },
    {
        "start": "1656.59",
        "dur": "2.37",
        "text": "and figure out what does it mean that"
    },
    {
        "start": "1657.58",
        "dur": "3.18",
        "text": "there are no donations no one's talking"
    },
    {
        "start": "1658.96",
        "dur": "3.69",
        "text": "to me is it there whatever what's their"
    },
    {
        "start": "1660.76",
        "dur": "3.72",
        "text": "understanding of our relationship that"
    },
    {
        "start": "1662.65",
        "dur": "3.6",
        "text": "the podcast subtly not have value do I"
    },
    {
        "start": "1664.48",
        "dur": "3.18",
        "text": "not have to pay for a Tom Cruise movie"
    },
    {
        "start": "1666.25",
        "dur": "2.82",
        "text": "because Tom Cruise is currently on"
    },
    {
        "start": "1667.66",
        "dur": "4.019",
        "text": "vacation and he made the movie a month"
    },
    {
        "start": "1669.07",
        "dur": "8.64",
        "text": "ago I'll be right what does that what"
    },
    {
        "start": "1671.679",
        "dur": "7.921",
        "text": "does it mean I don't know I've got to"
    },
    {
        "start": "1677.71",
        "dur": "6.57",
        "text": "sort of try and figure it out right it's"
    },
    {
        "start": "1679.6",
        "dur": "6.24",
        "text": "a lot of burden on me if fifty or one"
    },
    {
        "start": "1684.28",
        "dur": "4.26",
        "text": "hundred or a thousand people right to be"
    },
    {
        "start": "1685.84",
        "dur": "5.43",
        "text": "and say oh my god I can't believe you i"
    },
    {
        "start": "1688.54",
        "dur": "4.11",
        "text": "feel so upset at you I feel upset that"
    },
    {
        "start": "1691.27",
        "dur": "3.45",
        "text": "you're not podcasting I feel upset that"
    },
    {
        "start": "1692.65",
        "dur": "3.84",
        "text": "you asked for money what do you think"
    },
    {
        "start": "1694.72",
        "dur": "3.98",
        "text": "right what do you think of these"
    },
    {
        "start": "1696.49",
        "dur": "4.17",
        "text": "feelings this is what I think of them"
    },
    {
        "start": "1698.7",
        "dur": "3.31",
        "text": "because that's honesty right that's"
    },
    {
        "start": "1700.66",
        "dur": "3.87",
        "text": "honestly that's integrity the clarity"
    },
    {
        "start": "1702.01",
        "dur": "3.93",
        "text": "and communication and that's freedom our"
    },
    {
        "start": "1704.53",
        "dur": "5.31",
        "text": "freedom is that the truth is freedom or"
    },
    {
        "start": "1705.94",
        "dur": "7.44",
        "text": "the truth sets you free and if I'm doing"
    },
    {
        "start": "1709.84",
        "dur": "4.98",
        "text": "something that bothers you then the"
    },
    {
        "start": "1713.38",
        "dur": "3.36",
        "text": "truth is that I'm doing something that"
    },
    {
        "start": "1714.82",
        "dur": "3.81",
        "text": "bothers you not that I'm bothersome"
    },
    {
        "start": "1716.74",
        "dur": "5.01",
        "text": "right that's that's the leap that people"
    },
    {
        "start": "1718.63",
        "dur": "5.13",
        "text": "make in the religious sense I feel this"
    },
    {
        "start": "1721.75",
        "dur": "5.04",
        "text": "therefore it's true right but if you if"
    },
    {
        "start": "1723.76",
        "dur": "4.56",
        "text": "you disconnect those two things then an"
    },
    {
        "start": "1726.79",
        "dur": "4.769",
        "text": "enormous amount of freedom and positive"
    },
    {
        "start": "1728.32",
        "dur": "5.729",
        "text": "communication can result if you say I"
    },
    {
        "start": "1731.559",
        "dur": "7.921",
        "text": "feel it I don't know if it's true but"
    },
    {
        "start": "1734.049",
        "dur": "7.051",
        "text": "this is what I feel then I think some"
    },
    {
        "start": "1739.48",
        "dur": "5.76",
        "text": "absolutely wonderful and amazing things"
    },
    {
        "start": "1741.1",
        "dur": "5.91",
        "text": "occur out of that because that's the"
    },
    {
        "start": "1745.24",
        "dur": "5.34",
        "text": "truth people feel there is a God there"
    },
    {
        "start": "1747.01",
        "dur": "5.73",
        "text": "is no God people feel that gravity works"
    },
    {
        "start": "1750.58",
        "dur": "7.5",
        "text": "gravity does work Ryan the feelings are"
    },
    {
        "start": "1752.74",
        "dur": "9.809",
        "text": "not always incorrect and the way out of"
    },
    {
        "start": "1758.08",
        "dur": "7.74",
        "text": "this trap of if I feel upset at someone"
    },
    {
        "start": "1762.549",
        "dur": "5.731",
        "text": "then I have to treat them as a bad"
    },
    {
        "start": "1765.82",
        "dur": "4.109",
        "text": "person right that's that's a religious"
    },
    {
        "start": "1768.28",
        "dur": "4.22",
        "text": "approach to relationships and creates an"
    },
    {
        "start": "1769.929",
        "dur": "4.461",
        "text": "enormous amount of stress and turmoil"
    },
    {
        "start": "1772.5",
        "dur": "3.75",
        "text": "and unhappiness and frustration and"
    },
    {
        "start": "1774.39",
        "dur": "4.26",
        "text": "anger and bitterness and recrimination"
    },
    {
        "start": "1776.25",
        "dur": "4.11",
        "text": "and tension and fear are it's just a"
    },
    {
        "start": "1778.65",
        "dur": "7.05",
        "text": "complete mess making that religious leap"
    },
    {
        "start": "1780.36",
        "dur": "7.02",
        "text": "from feeling to truth real freedom comes"
    },
    {
        "start": "1785.7",
        "dur": "5.25",
        "text": "from speaking the truth and acting on"
    },
    {
        "start": "1787.38",
        "dur": "5.97",
        "text": "the truth and what that means in this"
    },
    {
        "start": "1790.95",
        "dur": "5.07",
        "text": "context and again donations who cares"
    },
    {
        "start": "1793.35",
        "dur": "4.47",
        "text": "right even your relationship with me is"
    },
    {
        "start": "1796.02",
        "dur": "3.06",
        "text": "important but not nearly as important as"
    },
    {
        "start": "1797.82",
        "dur": "6.96",
        "text": "obviously a relationship with those"
    },
    {
        "start": "1799.08",
        "dur": "9.21",
        "text": "around you who are close to you but I'm"
    },
    {
        "start": "1804.78",
        "dur": "4.89",
        "text": "stopped at a traffic light there but"
    },
    {
        "start": "1808.29",
        "dur": "3.81",
        "text": "having this freedom to speak the truth"
    },
    {
        "start": "1809.67",
        "dur": "4.83",
        "text": "in your relationships and to say what"
    },
    {
        "start": "1812.1",
        "dur": "3.99",
        "text": "you're doing makes me upset I feel upset"
    },
    {
        "start": "1814.5",
        "dur": "3.27",
        "text": "about what you're doing or not doing or"
    },
    {
        "start": "1816.09",
        "dur": "3.06",
        "text": "whatever not podcasting or whatever"
    },
    {
        "start": "1817.77",
        "dur": "5.73",
        "text": "other reason there was for people to not"
    },
    {
        "start": "1819.15",
        "dur": "6.99",
        "text": "donate I would prefer those emails even"
    },
    {
        "start": "1823.5",
        "dur": "4.2",
        "text": "to money because that would mean that"
    },
    {
        "start": "1826.14",
        "dur": "3.21",
        "text": "what we're talking about here is really"
    },
    {
        "start": "1827.7",
        "dur": "5.1",
        "text": "gaining traction with people that"
    },
    {
        "start": "1829.35",
        "dur": "6.21",
        "text": "self-expression and the communication of"
    },
    {
        "start": "1832.8",
        "dur": "6.9",
        "text": "truth in a relationship is really taking"
    },
    {
        "start": "1835.56",
        "dur": "5.43",
        "text": "root and that is more important to me"
    },
    {
        "start": "1839.7",
        "dur": "5.01",
        "text": "than money don't get me wrong I like the"
    },
    {
        "start": "1840.99",
        "dur": "4.86",
        "text": "money I gotta eat but that kind of"
    },
    {
        "start": "1844.71",
        "dur": "3.9",
        "text": "freedom and self-expression that"
    },
    {
        "start": "1845.85",
        "dur": "9.18",
        "text": "philosophy in action to me is much more"
    },
    {
        "start": "1848.61",
        "dur": "9.15",
        "text": "powerful than mere money so this is not"
    },
    {
        "start": "1855.03",
        "dur": "6.08",
        "text": "a nag this is not go write a check I"
    },
    {
        "start": "1857.76",
        "dur": "6.3",
        "text": "mean this is just think about this that"
    },
    {
        "start": "1861.11",
        "dur": "5.71",
        "text": "withdrawal is a passive aggressive"
    },
    {
        "start": "1864.06",
        "dur": "4.8",
        "text": "punishing tactic that we all have"
    },
    {
        "start": "1866.82",
        "dur": "3.03",
        "text": "inherited or we all inhabit because of"
    },
    {
        "start": "1868.86",
        "dur": "3.09",
        "text": "her own histories where we weren't"
    },
    {
        "start": "1869.85",
        "dur": "3.69",
        "text": "allowed ever to say boo about our"
    },
    {
        "start": "1871.95",
        "dur": "4.77",
        "text": "parents and our parents of course almost"
    },
    {
        "start": "1873.54",
        "dur": "4.74",
        "text": "all went from feeling to truth which is"
    },
    {
        "start": "1876.72",
        "dur": "3.68",
        "text": "basically just bigotry I feel it"
    },
    {
        "start": "1878.28",
        "dur": "7.98",
        "text": "therefore it's true it's just bigotry"
    },
    {
        "start": "1880.4",
        "dur": "7.84",
        "text": "that's what I parents all did to us but"
    },
    {
        "start": "1886.26",
        "dur": "4.89",
        "text": "I think it's time to outgrow this I mean"
    },
    {
        "start": "1888.24",
        "dur": "4.56",
        "text": "as a species as individuals as food"
    },
    {
        "start": "1891.15",
        "dur": "3.96",
        "text": "survivors I mean this is just something"
    },
    {
        "start": "1892.8",
        "dur": "4.38",
        "text": "we must outgrow we must learn to our"
    },
    {
        "start": "1895.11",
        "dur": "5.34",
        "text": "grow the bigotries of our histories and"
    },
    {
        "start": "1897.18",
        "dur": "5.19",
        "text": "to speak the simple truth and that"
    },
    {
        "start": "1900.45",
        "dur": "5.49",
        "text": "creates enormous possibilities and"
    },
    {
        "start": "1902.37",
        "dur": "4.98",
        "text": "relationships try it out"
    },
    {
        "start": "1905.94",
        "dur": "2.939",
        "text": "in your relationships and see what"
    },
    {
        "start": "1907.35",
        "dur": "2.939",
        "text": "happens and keep you posted thank you so"
    },
    {
        "start": "1908.879",
        "dur": "3.621",
        "text": "much for listening I hope this wasn't to"
    },
    {
        "start": "1910.289",
        "dur": "2.211",
        "text": "naggy"
    }
]