[
    {
        "start": "0.05",
        "dur": "5.47",
        "text": "so something's not right"
    },
    {
        "start": "3.149",
        "dur": "4.471",
        "text": "my friends something's not adding up"
    },
    {
        "start": "5.52",
        "dur": "4.98",
        "text": "with this whole Trudeau security"
    },
    {
        "start": "7.62",
        "dur": "4.83",
        "text": "bulletproof vest situation I don't know"
    },
    {
        "start": "10.5",
        "dur": "4.11",
        "text": "what happened of course and we may never"
    },
    {
        "start": "12.45",
        "dur": "3.42",
        "text": "know for sure but for those who don't"
    },
    {
        "start": "14.61",
        "dur": "4.89",
        "text": "know this is an article from the"
    },
    {
        "start": "15.87",
        "dur": "5.73",
        "text": "National Post John Iverson wrote Trudeau"
    },
    {
        "start": "19.5",
        "dur": "5.189",
        "text": "security scare is a dark turn for an"
    },
    {
        "start": "21.6",
        "dur": "5.91",
        "text": "election filled with online threats see"
    },
    {
        "start": "24.689",
        "dur": "5.551",
        "text": "now you see political violence threats"
    },
    {
        "start": "27.51",
        "dur": "7.77",
        "text": "of political violence are a huge problem"
    },
    {
        "start": "30.24",
        "dur": "6.78",
        "text": "for the Canadian media I'll get into why"
    },
    {
        "start": "35.28",
        "dur": "3.75",
        "text": "I'm particularly skeptical of that claim"
    },
    {
        "start": "37.02",
        "dur": "3.449",
        "text": "in a few minutes but let's go to the"
    },
    {
        "start": "39.03",
        "dur": "3.09",
        "text": "article the article says the tone of"
    },
    {
        "start": "40.469",
        "dur": "3.451",
        "text": "this campaign and the venom expressed"
    },
    {
        "start": "42.12",
        "dur": "4.169",
        "text": "towards Trudeau in particular on social"
    },
    {
        "start": "43.92",
        "dur": "5.06",
        "text": "media has heightened fears that Canada"
    },
    {
        "start": "46.289",
        "dur": "5.581",
        "text": "could go to a very dark place"
    },
    {
        "start": "48.98",
        "dur": "4.39",
        "text": "now I'm no newspaper editor but wouldn't"
    },
    {
        "start": "51.87",
        "dur": "4.5",
        "text": "be my first choice to talk about Canada"
    },
    {
        "start": "53.37",
        "dur": "5.15",
        "text": "going to a very dark place right after"
    },
    {
        "start": "56.37",
        "dur": "6.689",
        "text": "Justin Trudeau's endless blackface"
    },
    {
        "start": "58.52",
        "dur": "6.13",
        "text": "scandals but anyway so suddenly the"
    },
    {
        "start": "63.059",
        "dur": "3.091",
        "text": "article says suddenly the warning that"
    },
    {
        "start": "64.65",
        "dur": "4.89",
        "text": "somebody's going to get shot"
    },
    {
        "start": "66.15",
        "dur": "4.829",
        "text": "doesn't sound so preposterous Michael"
    },
    {
        "start": "69.54",
        "dur": "4.079",
        "text": "Wernick the former clerk of the Privy"
    },
    {
        "start": "70.979",
        "dur": "4.771",
        "text": "Council cautioned last spring but the"
    },
    {
        "start": "73.619",
        "dur": "3.841",
        "text": "state a public political dialogue in"
    },
    {
        "start": "75.75",
        "dur": "3.99",
        "text": "this country could result in"
    },
    {
        "start": "77.46",
        "dur": "6.69",
        "text": "assassination the admonition was"
    },
    {
        "start": "79.74",
        "dur": "5.76",
        "text": "dismissed as hyperbole but the events at"
    },
    {
        "start": "84.15",
        "dur": "3.96",
        "text": "a Mississauga Conference Hall on"
    },
    {
        "start": "85.5",
        "dur": "4.619",
        "text": "Saturday night just yesterday where"
    },
    {
        "start": "88.11",
        "dur": "3.6",
        "text": "Justin Trudeau emerged 90 minutes late"
    },
    {
        "start": "90.119",
        "dur": "4.951",
        "text": "for a mass rally wearing a protective"
    },
    {
        "start": "91.71",
        "dur": "5.159",
        "text": "vest to borne him out the election that"
    },
    {
        "start": "95.07",
        "dur": "6.299",
        "text": "has been about nothing was in danger of"
    },
    {
        "start": "96.869",
        "dur": "6.121",
        "text": "becoming about everything okay it's"
    },
    {
        "start": "101.369",
        "dur": "3.271",
        "text": "terrible writing playing what is this"
    },
    {
        "start": "102.99",
        "dur": "3.44",
        "text": "guy's problem what does that mean"
    },
    {
        "start": "104.64",
        "dur": "4.35",
        "text": "useless deputy anyway"
    },
    {
        "start": "106.43",
        "dur": "4.719",
        "text": "the article continues Trudeau was due to"
    },
    {
        "start": "108.99",
        "dur": "3.93",
        "text": "take the stage at 5:00 p.m. to speak to"
    },
    {
        "start": "111.149",
        "dur": "4.29",
        "text": "the biggest liberal rally yet in front"
    },
    {
        "start": "112.92",
        "dur": "6.629",
        "text": "of 30 candidates and around 2000"
    },
    {
        "start": "115.439",
        "dur": "7.201",
        "text": "supporters okay so just to set the stage"
    },
    {
        "start": "119.549",
        "dur": "6.741",
        "text": "for what's going to be coming in this"
    },
    {
        "start": "122.64",
        "dur": "8.19",
        "text": "article and in this little podcast"
    },
    {
        "start": "126.29",
        "dur": "7.05",
        "text": "you've got two thousand people packed"
    },
    {
        "start": "130.83",
        "dur": "5.34",
        "text": "into a hall"
    },
    {
        "start": "133.34",
        "dur": "5.08",
        "text": "which is just keep that yeah I guess"
    },
    {
        "start": "136.17",
        "dur": "4.32",
        "text": "people pressed in cheek-by-jowl crowded"
    },
    {
        "start": "138.42",
        "dur": "3.96",
        "text": "into a hole with not a lot of exits I"
    },
    {
        "start": "140.49",
        "dur": "3.84",
        "text": "assume anybody the article goes on after"
    },
    {
        "start": "142.38",
        "dur": "3.06",
        "text": "an hour the liberal leader had still not"
    },
    {
        "start": "144.33",
        "dur": "1.77",
        "text": "shown up in the crowd was getting"
    },
    {
        "start": "145.44",
        "dur": "2.91",
        "text": "restless"
    },
    {
        "start": "146.1",
        "dur": "3.57",
        "text": "navdeep Baynes who his MP for"
    },
    {
        "start": "148.35",
        "dur": "2.82",
        "text": "Mississauga Moulton and host for the"
    },
    {
        "start": "149.67",
        "dur": "2.91",
        "text": "evening started in on another anecdote"
    },
    {
        "start": "151.17",
        "dur": "3.06",
        "text": "about how great it is to be Canadian"
    },
    {
        "start": "152.58",
        "dur": "7.37",
        "text": "before being shouted down by his own"
    },
    {
        "start": "154.23",
        "dur": "7.95",
        "text": "supporters another local MP OMA algebra"
    },
    {
        "start": "159.95",
        "dur": "3.759",
        "text": "admitted he was filling time and thought"
    },
    {
        "start": "162.18",
        "dur": "2.97",
        "text": "it up a listless chant of four more"
    },
    {
        "start": "163.709",
        "dur": "3.801",
        "text": "years that petered out quickly it was"
    },
    {
        "start": "165.15",
        "dur": "5.04",
        "text": "clear that something was badly wrong"
    },
    {
        "start": "167.51",
        "dur": "4.33",
        "text": "Trudeau finally emerged 90 minutes late"
    },
    {
        "start": "170.19",
        "dur": "3.81",
        "text": "and launched into his stump speech but"
    },
    {
        "start": "171.84",
        "dur": "3.899",
        "text": "his embargoed remarks had him thanking"
    },
    {
        "start": "174",
        "dur": "4.58",
        "text": "his wife Sophie for introducing him yet"
    },
    {
        "start": "175.739",
        "dur": "2.841",
        "text": "she was nowhere to be seen"
    },
    {
        "start": "178.94",
        "dur": "4",
        "text": "so that's kind of odd right so I guess"
    },
    {
        "start": "181.38",
        "dur": "3.03",
        "text": "he had a prepared speech a written"
    },
    {
        "start": "182.94",
        "dur": "3.42",
        "text": "speech on a teleprompter where he"
    },
    {
        "start": "184.41",
        "dur": "4.26",
        "text": "thanked his wife who wasn't there and"
    },
    {
        "start": "186.36",
        "dur": "4.86",
        "text": "hadn't introduced him we talked about a"
    },
    {
        "start": "188.67",
        "dur": "5.849",
        "text": "Brylcreem vomit on mic god this guy can"
    },
    {
        "start": "191.22",
        "dur": "4.53",
        "text": "speak off note to save his life I mean I"
    },
    {
        "start": "194.519",
        "dur": "3.81",
        "text": "don't have notes for what it is that I"
    },
    {
        "start": "195.75",
        "dur": "4.14",
        "text": "talk about 95% of the time I've given an"
    },
    {
        "start": "198.329",
        "dur": "5.641",
        "text": "entire era long hair and a half long"
    },
    {
        "start": "199.89",
        "dur": "5.61",
        "text": "speeches without any notes you can just"
    },
    {
        "start": "203.97",
        "dur": "5.01",
        "text": "look at my speeches in Australia for"
    },
    {
        "start": "205.5",
        "dur": "5.06",
        "text": "examples of that but this guy thanks his"
    },
    {
        "start": "208.98",
        "dur": "6.33",
        "text": "non-existent wife for introducing him"
    },
    {
        "start": "210.56",
        "dur": "7.209",
        "text": "because Trudeau off-the-cuff is Trudeau"
    },
    {
        "start": "215.31",
        "dur": "4.019",
        "text": "out of his mind but anyway the article"
    },
    {
        "start": "217.769",
        "dur": "3.601",
        "text": "continues what was visible was a handful"
    },
    {
        "start": "219.329",
        "dur": "4.141",
        "text": "of large men wearing green shirts"
    },
    {
        "start": "221.37",
        "dur": "3.54",
        "text": "sporting backpacks arranged in a"
    },
    {
        "start": "223.47",
        "dur": "3.03",
        "text": "protective phalanx around the liberal"
    },
    {
        "start": "224.91",
        "dur": "3.389",
        "text": "leader officials said they are members"
    },
    {
        "start": "226.5",
        "dur": "3.84",
        "text": "of an RCMP tactical unit who have been"
    },
    {
        "start": "228.299",
        "dur": "3.511",
        "text": "with Trudeau at certain events on this"
    },
    {
        "start": "230.34",
        "dur": "4.649",
        "text": "campaign but they have never in my"
    },
    {
        "start": "231.81",
        "dur": "4.23",
        "text": "experience been this visible but asked"
    },
    {
        "start": "234.989",
        "dur": "2.521",
        "text": "later what they were carrying in their"
    },
    {
        "start": "236.04",
        "dur": "3.18",
        "text": "backpacks once said a pastrami sandwich"
    },
    {
        "start": "237.51",
        "dur": "6.87",
        "text": "in a squash racket the reality was"
    },
    {
        "start": "239.22",
        "dur": "7.62",
        "text": "probably more incendiary so Trudeau in"
    },
    {
        "start": "244.38",
        "dur": "6.169",
        "text": "the aforementioned very crowded hall"
    },
    {
        "start": "246.84",
        "dur": "8.1",
        "text": "without a lot of exits was surrounded"
    },
    {
        "start": "250.549",
        "dur": "10.571",
        "text": "the article implies by men who were"
    },
    {
        "start": "254.94",
        "dur": "7.95",
        "text": "extremely well armed this is all too"
    },
    {
        "start": "261.12",
        "dur": "3.84",
        "text": "bizarre for work I'll get into why but"
    },
    {
        "start": "262.89",
        "dur": "4.35",
        "text": "I'm sure you getting it right"
    },
    {
        "start": "264.96",
        "dur": "4.14",
        "text": "nobody from the Liberal Party would"
    },
    {
        "start": "267.24",
        "dur": "3.48",
        "text": "comment says the article on the security"
    },
    {
        "start": "269.1",
        "dur": "3.629",
        "text": "issue but officials recognise the"
    },
    {
        "start": "270.72",
        "dur": "4.47",
        "text": "incident was so public it required an"
    },
    {
        "start": "272.729",
        "dur": "4.591",
        "text": "explanation there was it emerged a"
    },
    {
        "start": "275.19",
        "dur": "3.539",
        "text": "specific threat in the room against"
    },
    {
        "start": "277.32",
        "dur": "5.55",
        "text": "Trudeau personally as opposed to a"
    },
    {
        "start": "278.729",
        "dur": "7.31",
        "text": "general threat to the public a specific"
    },
    {
        "start": "282.87",
        "dur": "5.94",
        "text": "threat in the room what does that mean"
    },
    {
        "start": "286.039",
        "dur": "7.391",
        "text": "in the room does that mean somebody said"
    },
    {
        "start": "288.81",
        "dur": "6.21",
        "text": "I'm going to come to this and do"
    },
    {
        "start": "293.43",
        "dur": "2.57",
        "text": "something right and it come to this"
    },
    {
        "start": "295.02",
        "dur": "3.329",
        "text": "meeting and do something"
    },
    {
        "start": "296",
        "dur": "7.84",
        "text": "did they have suspicions that there was"
    },
    {
        "start": "298.349",
        "dur": "11.761",
        "text": "an armed man in the room what was the"
    },
    {
        "start": "303.84",
        "dur": "9.169",
        "text": "plan maybe there was a bomb threat what"
    },
    {
        "start": "310.11",
        "dur": "5.01",
        "text": "was the plan see here's the thing"
    },
    {
        "start": "313.009",
        "dur": "4.63",
        "text": "Trudeau's wife and children were sent"
    },
    {
        "start": "315.12",
        "dur": "7.639",
        "text": "home because the threat was credible"
    },
    {
        "start": "317.639",
        "dur": "8.581",
        "text": "enough or dangerous enough so why why"
    },
    {
        "start": "322.759",
        "dur": "6.811",
        "text": "would they not inform the liberal"
    },
    {
        "start": "326.22",
        "dur": "7.02",
        "text": "supporters the 2,000 liberal supporters"
    },
    {
        "start": "329.57",
        "dur": "5.65",
        "text": "tightly packed in the room that there"
    },
    {
        "start": "333.24",
        "dur": "3.84",
        "text": "was a massive security threat that had"
    },
    {
        "start": "335.22",
        "dur": "4.009",
        "text": "Trudeau be 90 minutes late and arrived"
    },
    {
        "start": "337.08",
        "dur": "4.619",
        "text": "surrounded by a small army of guys"
    },
    {
        "start": "339.229",
        "dur": "5.711",
        "text": "packing heavy heat like why wouldn't"
    },
    {
        "start": "341.699",
        "dur": "6.65",
        "text": "they tell people that if there's a"
    },
    {
        "start": "344.94",
        "dur": "6.03",
        "text": "credible threat to the Prime Minister"
    },
    {
        "start": "348.349",
        "dur": "6.281",
        "text": "why don't you just you've got 90 minutes"
    },
    {
        "start": "350.97",
        "dur": "6.81",
        "text": "right why don't you just take everyone"
    },
    {
        "start": "354.63",
        "dur": "10.14",
        "text": "out of the hole and then search them as"
    },
    {
        "start": "357.78",
        "dur": "8.58",
        "text": "they come back in what's the plan if"
    },
    {
        "start": "364.77",
        "dur": "5.88",
        "text": "there's a bomb can you imagine a bomb"
    },
    {
        "start": "366.36",
        "dur": "6.899",
        "text": "going off in that kind of crowded room I"
    },
    {
        "start": "370.65",
        "dur": "3.78",
        "text": "mean there would be a stampede there"
    },
    {
        "start": "373.259",
        "dur": "2.611",
        "text": "would be a panic people would be"
    },
    {
        "start": "374.43",
        "dur": "4.44",
        "text": "climbing all over each other people"
    },
    {
        "start": "375.87",
        "dur": "5.579",
        "text": "would be blown up I mean that this would"
    },
    {
        "start": "378.87",
        "dur": "9.359",
        "text": "be carnage for God's sakes"
    },
    {
        "start": "381.449",
        "dur": "8.46",
        "text": "carnage what what is going on wouldn't"
    },
    {
        "start": "388.229",
        "dur": "6.391",
        "text": "you like if you're at a political rally"
    },
    {
        "start": "389.909",
        "dur": "7.771",
        "text": "and there's been a very credible and"
    },
    {
        "start": "394.62",
        "dur": "4.65",
        "text": "credible enough to hold out the RCMP"
    },
    {
        "start": "397.68",
        "dur": "3.63",
        "text": "credible security threat of"
    },
    {
        "start": "399.27",
        "dur": "4.35",
        "text": "assassination or or or a bombing or"
    },
    {
        "start": "401.31",
        "dur": "3.9",
        "text": "something don't the people who were"
    },
    {
        "start": "403.62",
        "dur": "4.919",
        "text": "there have a right to know to choose if"
    },
    {
        "start": "405.21",
        "dur": "5.429",
        "text": "they want to stay or leave I don't"
    },
    {
        "start": "408.539",
        "dur": "3.781",
        "text": "underst like they sent his wife and"
    },
    {
        "start": "410.639",
        "dur": "5.961",
        "text": "child home and they so much more"
    },
    {
        "start": "412.32",
        "dur": "7.26",
        "text": "important than the audience because"
    },
    {
        "start": "416.6",
        "dur": "4.659",
        "text": "Justin Trudeau had his phalanx of guards"
    },
    {
        "start": "419.58",
        "dur": "3.99",
        "text": "right its RCMP tactical you know"
    },
    {
        "start": "421.259",
        "dur": "5.041",
        "text": "whatever so he had his phalanx of guards"
    },
    {
        "start": "423.57",
        "dur": "6",
        "text": "protecting him his wife and children"
    },
    {
        "start": "426.3",
        "dur": "6.66",
        "text": "have been sent home so who was"
    },
    {
        "start": "429.57",
        "dur": "6.42",
        "text": "protecting the members of the audience"
    },
    {
        "start": "432.96",
        "dur": "4.98",
        "text": "who weren't even informed of the dire"
    },
    {
        "start": "435.99",
        "dur": "6.049",
        "text": "danger that they were in I guess they"
    },
    {
        "start": "437.94",
        "dur": "7.71",
        "text": "can infer it from this team up front but"
    },
    {
        "start": "442.039",
        "dur": "5.771",
        "text": "aren't you supposed to tell people if"
    },
    {
        "start": "445.65",
        "dur": "4.23",
        "text": "there's a I mean they evacuate evacuate"
    },
    {
        "start": "447.81",
        "dur": "7.38",
        "text": "schools and movie theaters and and malls"
    },
    {
        "start": "449.88",
        "dur": "10.37",
        "text": "and you name it right I am I am very"
    },
    {
        "start": "455.19",
        "dur": "7.53",
        "text": "confused let's say there's a shooter"
    },
    {
        "start": "460.25",
        "dur": "4.33",
        "text": "it's the RCMP s'posed list they're"
    },
    {
        "start": "462.72",
        "dur": "4.41",
        "text": "supposed to be a shootout in a tightly"
    },
    {
        "start": "464.58",
        "dur": "7.369",
        "text": "packed room with 2,000 people the hell"
    },
    {
        "start": "467.13",
        "dur": "4.819",
        "text": "is going on is that the plan"
    },
    {
        "start": "473",
        "dur": "4.72",
        "text": "crazy anyway the article goes on it says"
    },
    {
        "start": "475.409",
        "dur": "3.871",
        "text": "the RCMP s recommendation was to put on"
    },
    {
        "start": "477.72",
        "dur": "3.72",
        "text": "a show of strength to deter the threat"
    },
    {
        "start": "479.28",
        "dur": "5.699",
        "text": "and to send Trudeau's wife and children"
    },
    {
        "start": "481.44",
        "dur": "7.11",
        "text": "back to the hotel yeah but you see some"
    },
    {
        "start": "484.979",
        "dur": "5.011",
        "text": "of the guards or the RCMP appeared to"
    },
    {
        "start": "488.55",
        "dur": "2.7",
        "text": "have these kind of blankets that you"
    },
    {
        "start": "489.99",
        "dur": "6.57",
        "text": "throw around someone if there's a bomb"
    },
    {
        "start": "491.25",
        "dur": "6.9",
        "text": "threat so if it's a bomb I don't see how"
    },
    {
        "start": "496.56",
        "dur": "3.18",
        "text": "happened the RCMP around it's going to"
    },
    {
        "start": "498.15",
        "dur": "3.6",
        "text": "deter that if it's gonna go off anyway"
    },
    {
        "start": "499.74",
        "dur": "5.34",
        "text": "I'm not an expert in this these are just"
    },
    {
        "start": "501.75",
        "dur": "4.71",
        "text": "questions floating around in my head the"
    },
    {
        "start": "505.08",
        "dur": "1.89",
        "text": "decision was also taken that the show"
    },
    {
        "start": "506.46",
        "dur": "2.22",
        "text": "must go on"
    },
    {
        "start": "506.97",
        "dur": "3.84",
        "text": "which must have been terrifying for the"
    },
    {
        "start": "508.68",
        "dur": "3.599",
        "text": "Liberal leader knowing there was the"
    },
    {
        "start": "510.81",
        "dur": "5.339",
        "text": "very real prospect that someone in the"
    },
    {
        "start": "512.279",
        "dur": "8.281",
        "text": "room was trying to kill him so if they"
    },
    {
        "start": "516.149",
        "dur": "8.13",
        "text": "believe that that person is actually in"
    },
    {
        "start": "520.56",
        "dur": "8.1",
        "text": "the room so if there's this"
    },
    {
        "start": "524.279",
        "dur": "6.811",
        "text": "assassination threat and they genuinely"
    },
    {
        "start": "528.66",
        "dur": "7.23",
        "text": "believe that the person is in the room"
    },
    {
        "start": "531.09",
        "dur": "6.93",
        "text": "I mean don't go ahead with the damn"
    },
    {
        "start": "535.89",
        "dur": "4.19",
        "text": "speech catch the person who's made the"
    },
    {
        "start": "538.02",
        "dur": "4.71",
        "text": "threats for heaven's sakes"
    },
    {
        "start": "540.08",
        "dur": "4.54",
        "text": "anyway the article goes on to say"
    },
    {
        "start": "542.73",
        "dur": "3.93",
        "text": "Trudeau made a reasonable fist of it in"
    },
    {
        "start": "544.62",
        "dur": "3.69",
        "text": "the circumstance giving a speech heavy"
    },
    {
        "start": "546.66",
        "dur": "3.119",
        "text": "on the cuts of public services that he"
    },
    {
        "start": "548.31",
        "dur": "4.59",
        "text": "said would be made under an Andrew"
    },
    {
        "start": "549.779",
        "dur": "5.31",
        "text": "Shearer Conservative government he"
    },
    {
        "start": "552.9",
        "dur": "4.8",
        "text": "looked at Doug Ford's cuts and said hold"
    },
    {
        "start": "555.089",
        "dur": "9.391",
        "text": "my beer was one of his better lines oh"
    },
    {
        "start": "557.7",
        "dur": "9.72",
        "text": "god oh god I mean that's the chilling"
    },
    {
        "start": "564.48",
        "dur": "4.92",
        "text": "originality of if you criticize women"
    },
    {
        "start": "567.42",
        "dur": "5.55",
        "text": "you're an insult who can't get laid and"
    },
    {
        "start": "569.4",
        "dur": "7.53",
        "text": "sir this is a Wendy's and hold my beer"
    },
    {
        "start": "572.97",
        "dur": "5.94",
        "text": "this is like it is ancient in the means"
    },
    {
        "start": "576.93",
        "dur": "4.61",
        "text": "of production right I mean this is one"
    },
    {
        "start": "578.91",
        "dur": "6.33",
        "text": "of his better lines I mean how much of a"
    },
    {
        "start": "581.54",
        "dur": "5.98",
        "text": "toady to the money dripping dark prince"
    },
    {
        "start": "585.24",
        "dur": "5.7",
        "text": "of political power do you have to be to"
    },
    {
        "start": "587.52",
        "dur": "4.95",
        "text": "call that one of his better lines unless"
    },
    {
        "start": "590.94",
        "dur": "2.55",
        "text": "you're saying that all of his lines were"
    },
    {
        "start": "592.47",
        "dur": "3.36",
        "text": "terrible and that was the least terrible"
    },
    {
        "start": "593.49",
        "dur": "3.3",
        "text": "anyway it's very very strange so he said"
    },
    {
        "start": "595.83",
        "dur": "2.22",
        "text": "but there was not much liberty in the"
    },
    {
        "start": "596.79",
        "dur": "2.28",
        "text": "room and most people appeared relieved"
    },
    {
        "start": "598.05",
        "dur": "3.36",
        "text": "from the event concluded without"
    },
    {
        "start": "599.07",
        "dur": "4.74",
        "text": "incident or they were just relieved that"
    },
    {
        "start": "601.41",
        "dur": "4.05",
        "text": "the event concluded to announce right he"
    },
    {
        "start": "603.81",
        "dur": "3.24",
        "text": "said nobody would comment on the nature"
    },
    {
        "start": "605.46",
        "dur": "3.09",
        "text": "of the threat but security has remained"
    },
    {
        "start": "607.05",
        "dur": "3.21",
        "text": "tight since with sniffer dogs checking"
    },
    {
        "start": "608.55",
        "dur": "4.38",
        "text": "the buses Trudeau and the media used to"
    },
    {
        "start": "610.26",
        "dur": "4.5",
        "text": "travel around the only comment about the"
    },
    {
        "start": "612.93",
        "dur": "3.45",
        "text": "incident Trudeau would make at Sunday at"
    },
    {
        "start": "614.76",
        "dur": "3.21",
        "text": "a Sunday morning event who is that his"
    },
    {
        "start": "616.38",
        "dur": "3.39",
        "text": "concern was for his family and other"
    },
    {
        "start": "617.97",
        "dur": "4.74",
        "text": "people in the room it won't change how I"
    },
    {
        "start": "619.77",
        "dur": "5.22",
        "text": "campaign he said his case concern when"
    },
    {
        "start": "622.71",
        "dur": "4.53",
        "text": "his his family and the other people in"
    },
    {
        "start": "624.99",
        "dur": "4.53",
        "text": "the room but you see he sent his family"
    },
    {
        "start": "627.24",
        "dur": "6.2",
        "text": "home and he himself was protected with a"
    },
    {
        "start": "629.52",
        "dur": "6.9",
        "text": "bulletproof vest and a phalanx of guards"
    },
    {
        "start": "633.44",
        "dur": "5.23",
        "text": "so I fear I fail to see how he's equally"
    },
    {
        "start": "636.42",
        "dur": "3.72",
        "text": "protective of himself and his wife by"
    },
    {
        "start": "638.67",
        "dur": "3.93",
        "text": "having all the other people in the room"
    },
    {
        "start": "640.14",
        "dur": "5.99",
        "text": "exposed to some political terrorist who"
    },
    {
        "start": "642.6",
        "dur": "3.53",
        "text": "was gonna do heaven knows what right"
    },
    {
        "start": "647.029",
        "dur": "10.211",
        "text": "it's it's really really crazy and you"
    },
    {
        "start": "650.91",
        "dur": "10.85",
        "text": "can look at the whole discussion or or"
    },
    {
        "start": "657.24",
        "dur": "6.72",
        "text": "article I also have link to it below but"
    },
    {
        "start": "661.76",
        "dur": "4.81",
        "text": "it's very it's"
    },
    {
        "start": "663.96",
        "dur": "4.44",
        "text": "strange to me this kind of thing now I"
    },
    {
        "start": "666.57",
        "dur": "4.38",
        "text": "mean Frodo wants to sign up with this"
    },
    {
        "start": "668.4",
        "dur": "4.26",
        "text": "Christchurch thing where the government"
    },
    {
        "start": "670.95",
        "dur": "2.85",
        "text": "takes control of social media and bans"
    },
    {
        "start": "672.66",
        "dur": "2.7",
        "text": "whatever it doesn't like that it"
    },
    {
        "start": "673.8",
        "dur": "5.97",
        "text": "considers to be hateful or whatever"
    },
    {
        "start": "675.36",
        "dur": "5.79",
        "text": "right which is very terrible crushing"
    },
    {
        "start": "679.77",
        "dur": "7.64",
        "text": "crippling censorship and is only going"
    },
    {
        "start": "681.15",
        "dur": "6.26",
        "text": "to escalate things but you know so I"
    },
    {
        "start": "688.1",
        "dur": "5.05",
        "text": "don't again I'm not an expert in this"
    },
    {
        "start": "691.89",
        "dur": "8.97",
        "text": "area so I'm just kind of puzzling"
    },
    {
        "start": "693.15",
        "dur": "10.35",
        "text": "through this in my head which is why"
    },
    {
        "start": "700.86",
        "dur": "3.45",
        "text": "maybe there are pictures of the entrance"
    },
    {
        "start": "703.5",
        "dur": "3.42",
        "text": "to this event"
    },
    {
        "start": "704.31",
        "dur": "3.78",
        "text": "there's not even a mall cop out front"
    },
    {
        "start": "706.92",
        "dur": "3.09",
        "text": "that there's no police there's no"
    },
    {
        "start": "708.09",
        "dur": "5.91",
        "text": "security that I could see that there's"
    },
    {
        "start": "710.01",
        "dur": "6.81",
        "text": "nothing so if you have credible threat"
    },
    {
        "start": "714",
        "dur": "5.61",
        "text": "of someone coming to assassinate you you"
    },
    {
        "start": "716.82",
        "dur": "4.17",
        "text": "stop you question you search you you"
    },
    {
        "start": "719.61",
        "dur": "2.64",
        "text": "name it right if you think someone's"
    },
    {
        "start": "720.99",
        "dur": "2.91",
        "text": "coming into the room like why would you"
    },
    {
        "start": "722.25",
        "dur": "4.86",
        "text": "not even have a cop out front this makes"
    },
    {
        "start": "723.9",
        "dur": "4.5",
        "text": "absolutely no sense to me I mean there's"
    },
    {
        "start": "727.11",
        "dur": "7.89",
        "text": "some who's saying oh it's political"
    },
    {
        "start": "728.4",
        "dur": "8.19",
        "text": "theater and and so on and yeah I mean if"
    },
    {
        "start": "735",
        "dur": "3.33",
        "text": "I had to put my money well you know I"
    },
    {
        "start": "736.59",
        "dur": "6.99",
        "text": "guess I'll leave that as in in"
    },
    {
        "start": "738.33",
        "dur": "7.98",
        "text": "speculation land but it is a very"
    },
    {
        "start": "743.58",
        "dur": "4.68",
        "text": "strange situation that so many people"
    },
    {
        "start": "746.31",
        "dur": "3.39",
        "text": "would be put in so much danger while"
    },
    {
        "start": "748.26",
        "dur": "5.49",
        "text": "Trudeau would protect his wife and"
    },
    {
        "start": "749.7",
        "dur": "8.64",
        "text": "children and himself that's very strange"
    },
    {
        "start": "753.75",
        "dur": "7.41",
        "text": "to me I mean can you imagine the"
    },
    {
        "start": "758.34",
        "dur": "4.68",
        "text": "lawsuits that would erupt if Trudeau was"
    },
    {
        "start": "761.16",
        "dur": "3.15",
        "text": "in possession of knowledge that there"
    },
    {
        "start": "763.02",
        "dur": "2.97",
        "text": "was a shooter or a bomb and did not"
    },
    {
        "start": "764.31",
        "dur": "5.76",
        "text": "inform the audience but only protected"
    },
    {
        "start": "765.99",
        "dur": "5.88",
        "text": "himself I mean that's staggering levels"
    },
    {
        "start": "770.07",
        "dur": "4.65",
        "text": "of entitlement if if if people got hurt"
    },
    {
        "start": "771.87",
        "dur": "6",
        "text": "right and they nobody had been told and"
    },
    {
        "start": "774.72",
        "dur": "5.94",
        "text": "there was knowledge right I mean can you"
    },
    {
        "start": "777.87",
        "dur": "4.92",
        "text": "imagine I mean can you imagine if a"
    },
    {
        "start": "780.66",
        "dur": "4.38",
        "text": "movie theater got a credible threat of"
    },
    {
        "start": "782.79",
        "dur": "2.94",
        "text": "violence and then just let people watch"
    },
    {
        "start": "785.04",
        "dur": "3.48",
        "text": "the movie anyway"
    },
    {
        "start": "785.73",
        "dur": "7.37",
        "text": "but that assurance were all protected I"
    },
    {
        "start": "788.52",
        "dur": "4.58",
        "text": "mean this would be complete madness"
    },
    {
        "start": "794.189",
        "dur": "5.38",
        "text": "so this bothered me just because none of"
    },
    {
        "start": "798.069",
        "dur": "3.661",
        "text": "it really makes any sense to me and"
    },
    {
        "start": "799.569",
        "dur": "3.721",
        "text": "again I'm really open to hearing how it"
    },
    {
        "start": "801.73",
        "dur": "4.38",
        "text": "does make sense I just can't puzzle it"
    },
    {
        "start": "803.29",
        "dur": "5.789",
        "text": "out but here's the thing that really"
    },
    {
        "start": "806.11",
        "dur": "4.709",
        "text": "bothered me I mean I've been opposed to"
    },
    {
        "start": "809.079",
        "dur": "3.24",
        "text": "political violence forever and I've"
    },
    {
        "start": "810.819",
        "dur": "4.471",
        "text": "consistently talked about the need for a"
    },
    {
        "start": "812.319",
        "dur": "5.12",
        "text": "peaceful and rational solutions but"
    },
    {
        "start": "815.29",
        "dur": "4.08",
        "text": "here's the thing so now the media is"
    },
    {
        "start": "817.439",
        "dur": "2.921",
        "text": "swallowing this hook line and sinker"
    },
    {
        "start": "819.37",
        "dur": "4.949",
        "text": "they're not asking any tough questions"
    },
    {
        "start": "820.36",
        "dur": "6.36",
        "text": "and that's natural because the media in"
    },
    {
        "start": "824.319",
        "dur": "3.63",
        "text": "Canada is getting a six hundred million"
    },
    {
        "start": "826.72",
        "dur": "3.349",
        "text": "dollar bailout from the government"
    },
    {
        "start": "827.949",
        "dur": "6.211",
        "text": "because it can't compete with online"
    },
    {
        "start": "830.069",
        "dur": "7.091",
        "text": "media I mean in America CNN in the sort"
    },
    {
        "start": "834.16",
        "dur": "4.83",
        "text": "of coveted twenty five to fifty four age"
    },
    {
        "start": "837.16",
        "dur": "3.27",
        "text": "group demographic just gets a couple of"
    },
    {
        "start": "838.99",
        "dur": "3.389",
        "text": "hundred thousand viewers I mean that's"
    },
    {
        "start": "840.43",
        "dur": "4.29",
        "text": "like I get that in my living room for"
    },
    {
        "start": "842.379",
        "dur": "5.181",
        "text": "having sex so I can't compete with the"
    },
    {
        "start": "844.72",
        "dur": "5.76",
        "text": "quality of the unbought unpaid-for media"
    },
    {
        "start": "847.56",
        "dur": "6.25",
        "text": "so in Canada they're running to the"
    },
    {
        "start": "850.48",
        "dur": "4.74",
        "text": "government and getting buckets of cash"
    },
    {
        "start": "853.81",
        "dur": "3.54",
        "text": "dipping their nose in the trough of"
    },
    {
        "start": "855.22",
        "dur": "4.14",
        "text": "force taxpayer money I mean this was"
    },
    {
        "start": "857.35",
        "dur": "3.75",
        "text": "originally the case with the CBC the CBC"
    },
    {
        "start": "859.36",
        "dur": "3.99",
        "text": "gets what one and a half billion dollars"
    },
    {
        "start": "861.1",
        "dur": "3.479",
        "text": "from the Canadian governments of course"
    },
    {
        "start": "863.35",
        "dur": "2.58",
        "text": "they're not gonna rock the boat they're"
    },
    {
        "start": "864.579",
        "dur": "3.48",
        "text": "never gonna be Pro free market they're"
    },
    {
        "start": "865.93",
        "dur": "3.93",
        "text": "never gonna question the leaders you've"
    },
    {
        "start": "868.059",
        "dur": "4.921",
        "text": "got state-sponsored comedy that couldn't"
    },
    {
        "start": "869.86",
        "dur": "4.68",
        "text": "bring a smile to a dead man and now you"
    },
    {
        "start": "872.98",
        "dur": "3.24",
        "text": "have this bought and paid for media"
    },
    {
        "start": "874.54",
        "dur": "3.18",
        "text": "that's swallowing this whole thing hook"
    },
    {
        "start": "876.22",
        "dur": "3.75",
        "text": "line and sinker without asking a single"
    },
    {
        "start": "877.72",
        "dur": "4.589",
        "text": "critical question I mean could they"
    },
    {
        "start": "879.97",
        "dur": "4.469",
        "text": "question the RCMP Commissioner Brenda"
    },
    {
        "start": "882.309",
        "dur": "4.801",
        "text": "Lackey well no I mean she's been"
    },
    {
        "start": "884.439",
        "dur": "6.661",
        "text": "handpicked by Trudeau she stopped any"
    },
    {
        "start": "887.11",
        "dur": "7.409",
        "text": "inquiry into S&C levelin and there are"
    },
    {
        "start": "891.1",
        "dur": "9.81",
        "text": "pictures of her giving Trudeau a big old"
    },
    {
        "start": "894.519",
        "dur": "7.851",
        "text": "nice hack and people say well the RCMP"
    },
    {
        "start": "900.91",
        "dur": "3.779",
        "text": "I'm gonna get roped into something fake"
    },
    {
        "start": "902.37",
        "dur": "3.73",
        "text": "but here's the thing where do online"
    },
    {
        "start": "904.689",
        "dur": "3.181",
        "text": "threats come from you know people will"
    },
    {
        "start": "906.1",
        "dur": "4.02",
        "text": "say to me oh one of your followers said"
    },
    {
        "start": "907.87",
        "dur": "4.62",
        "text": "this that or the other right like you"
    },
    {
        "start": "910.12",
        "dur": "3.75",
        "text": "don't know that you could have created"
    },
    {
        "start": "912.49",
        "dur": "3.51",
        "text": "that account you could have gone through"
    },
    {
        "start": "913.87",
        "dur": "3.81",
        "text": "a VPN you could have come in through"
    },
    {
        "start": "916",
        "dur": "3.059",
        "text": "whatever right and and you could have"
    },
    {
        "start": "917.68",
        "dur": "2.94",
        "text": "written something and then said our"
    },
    {
        "start": "919.059",
        "dur": "4.62",
        "text": "staff one of your followers I mean"
    },
    {
        "start": "920.62",
        "dur": "4.709",
        "text": "nobody knows certainly not this quickly"
    },
    {
        "start": "923.679",
        "dur": "3.991",
        "text": "it's at least unlikely and of course if"
    },
    {
        "start": "925.329",
        "dur": "3.481",
        "text": "they knew who it was"
    },
    {
        "start": "927.67",
        "dur": "7.35",
        "text": "for sure than they would have arrested"
    },
    {
        "start": "928.81",
        "dur": "7.2",
        "text": "him in the room or in his house he'll be"
    },
    {
        "start": "935.02",
        "dur": "2.01",
        "text": "there are these threats are coming in"
    },
    {
        "start": "936.01",
        "dur": "4.62",
        "text": "nobody knows where they're coming from"
    },
    {
        "start": "937.03",
        "dur": "5.46",
        "text": "I mean think of the number of hate crime"
    },
    {
        "start": "940.63",
        "dur": "4.92",
        "text": "hoaxes that turned in turned out to have"
    },
    {
        "start": "942.49",
        "dur": "8",
        "text": "been hate crimes hate crimes phoned in"
    },
    {
        "start": "945.55",
        "dur": "8.19",
        "text": "by the people claiming to be the victims"
    },
    {
        "start": "950.49",
        "dur": "6.01",
        "text": "think of jussie Smollett right Jesse"
    },
    {
        "start": "953.74",
        "dur": "5.22",
        "text": "small that can't find enough racism in"
    },
    {
        "start": "956.5",
        "dur": "4.62",
        "text": "America to get himself attacked so he"
    },
    {
        "start": "958.96",
        "dur": "8.85",
        "text": "has to outsource the job to two Nigerian"
    },
    {
        "start": "961.12",
        "dur": "8.64",
        "text": "bodybuilders apparently so who knows who"
    },
    {
        "start": "967.81",
        "dur": "9.09",
        "text": "knows where this threat is coming from"
    },
    {
        "start": "969.76",
        "dur": "8.64",
        "text": "who knows what it is but if they have"
    },
    {
        "start": "976.9",
        "dur": "2.94",
        "text": "enough information to take incredibly"
    },
    {
        "start": "978.4",
        "dur": "3",
        "text": "then I would assume they have enough"
    },
    {
        "start": "979.84",
        "dur": "4.38",
        "text": "information to track it down and I mean"
    },
    {
        "start": "981.4",
        "dur": "4.68",
        "text": "if it's coming from the Seychelles or"
    },
    {
        "start": "984.22",
        "dur": "3.39",
        "text": "Nigeria then it's probably not too"
    },
    {
        "start": "986.08",
        "dur": "6.21",
        "text": "credible if I subtract it down to some"
    },
    {
        "start": "987.61",
        "dur": "6.12",
        "text": "degree so can't ask any of these"
    },
    {
        "start": "992.29",
        "dur": "5.31",
        "text": "questions you see because you're getting"
    },
    {
        "start": "993.73",
        "dur": "5.22",
        "text": "fed 20,000 well you're getting fed six"
    },
    {
        "start": "997.6",
        "dur": "2.97",
        "text": "hundred million dollars over five years"
    },
    {
        "start": "998.95",
        "dur": "3.75",
        "text": "by the government's you can't ask any"
    },
    {
        "start": "1000.57",
        "dur": "7.47",
        "text": "any real question but here's the thing"
    },
    {
        "start": "1002.7",
        "dur": "8.61",
        "text": "right this reality I think four or five"
    },
    {
        "start": "1008.04",
        "dur": "6.06",
        "text": "years ago I gave a speech in Detroit"
    },
    {
        "start": "1011.31",
        "dur": "6.48",
        "text": "that a men's rights conference and I"
    },
    {
        "start": "1014.1",
        "dur": "8.19",
        "text": "spoke with a woman who used to be a"
    },
    {
        "start": "1017.79",
        "dur": "6.36",
        "text": "Canadian Senator and there were pretty"
    },
    {
        "start": "1022.29",
        "dur": "4.38",
        "text": "credible bomb threats phoned in to that"
    },
    {
        "start": "1024.15",
        "dur": "4.2",
        "text": "because people hate men's rights because"
    },
    {
        "start": "1026.67",
        "dur": "3.81",
        "text": "men are exploited in the modern world"
    },
    {
        "start": "1028.35",
        "dur": "3.6",
        "text": "and so people who are being exploited"
    },
    {
        "start": "1030.48",
        "dur": "2.73",
        "text": "can't organize they can't get together"
    },
    {
        "start": "1031.95",
        "dur": "2.7",
        "text": "and try and protect themselves they"
    },
    {
        "start": "1033.21",
        "dur": "4.23",
        "text": "can't share information and strategies"
    },
    {
        "start": "1034.65",
        "dur": "3.99",
        "text": "and the mainstream media had no problem"
    },
    {
        "start": "1037.44",
        "dur": "2.82",
        "text": "but that in fact there were a couple of"
    },
    {
        "start": "1038.64",
        "dur": "4.14",
        "text": "reporters there who were there just to"
    },
    {
        "start": "1040.26",
        "dur": "7.95",
        "text": "dig up dirt and write hit pieces on the"
    },
    {
        "start": "1042.78",
        "dur": "6.54",
        "text": "event so the Canadian media had no"
    },
    {
        "start": "1048.21",
        "dur": "3.72",
        "text": "problem with that even though there was"
    },
    {
        "start": "1049.32",
        "dur": "5.19",
        "text": "also a man accent or their Canadian ex"
    },
    {
        "start": "1051.93",
        "dur": "4.71",
        "text": "editor not American Canadian no problem"
    },
    {
        "start": "1054.51",
        "dur": "6.27",
        "text": "with that when Lauren southern and I"
    },
    {
        "start": "1056.64",
        "dur": "5.01",
        "text": "were de platformed in New Zealand when"
    },
    {
        "start": "1060.78",
        "dur": "3.78",
        "text": "we were deep"
    },
    {
        "start": "1061.65",
        "dur": "4.8",
        "text": "formed we were not allowed to speak her"
    },
    {
        "start": "1064.56",
        "dur": "4.94",
        "text": "speeches were chased around from place"
    },
    {
        "start": "1066.45",
        "dur": "5.37",
        "text": "to place and then cancelled in Vancouver"
    },
    {
        "start": "1069.5",
        "dur": "5.11",
        "text": "Canadian Oh problem with that they they"
    },
    {
        "start": "1071.82",
        "dur": "4.92",
        "text": "celebrated it they loved it I'll try"
    },
    {
        "start": "1074.61",
        "dur": "4.98",
        "text": "white supremacist Nazi shut down right"
    },
    {
        "start": "1076.74",
        "dur": "4.74",
        "text": "so if it's people that the media don't"
    },
    {
        "start": "1079.59",
        "dur": "3.27",
        "text": "like and of course they unjustly label"
    },
    {
        "start": "1081.48",
        "dur": "2.52",
        "text": "me with all of these terrible phrases"
    },
    {
        "start": "1082.86",
        "dur": "3.66",
        "text": "right if it's someone the media doesn't"
    },
    {
        "start": "1084",
        "dur": "4.68",
        "text": "like they celebrate and cheer on these"
    },
    {
        "start": "1086.52",
        "dur": "4.29",
        "text": "kinds of political threats yeah but you"
    },
    {
        "start": "1088.68",
        "dur": "4.32",
        "text": "see suddenly when it's someone that is"
    },
    {
        "start": "1090.81",
        "dur": "4.26",
        "text": "the media likes and is dangling six"
    },
    {
        "start": "1093",
        "dur": "3.57",
        "text": "hundred million dollars now even the"
    },
    {
        "start": "1095.07",
        "dur": "3.89",
        "text": "most vague threats that haven't been"
    },
    {
        "start": "1096.57",
        "dur": "4.83",
        "text": "verified and nobody knows anything about"
    },
    {
        "start": "1098.96",
        "dur": "7.3",
        "text": "one hundred percent true and represent a"
    },
    {
        "start": "1101.4",
        "dur": "5.22",
        "text": "dark new chapter in Canada terrible"
    },
    {
        "start": "1106.26",
        "dur": "2.58",
        "text": "hacks"
    },
    {
        "start": "1106.62",
        "dur": "4.23",
        "text": "I can't imagine you imagine working for"
    },
    {
        "start": "1108.84",
        "dur": "3.15",
        "text": "a newspaper and then saying oh we're"
    },
    {
        "start": "1110.85",
        "dur": "4.35",
        "text": "getting a hundred millions of dollars"
    },
    {
        "start": "1111.99",
        "dur": "5.16",
        "text": "from the government so good luck be"
    },
    {
        "start": "1115.2",
        "dur": "4.59",
        "text": "critical forget I mean anybody with any"
    },
    {
        "start": "1117.15",
        "dur": "7.17",
        "text": "honor would have quit long ago so here's"
    },
    {
        "start": "1119.79",
        "dur": "5.82",
        "text": "the reality look now that I'm 53 I've"
    },
    {
        "start": "1124.32",
        "dur": "3.36",
        "text": "just come to a conclusion that the"
    },
    {
        "start": "1125.61",
        "dur": "4.86",
        "text": "conclusion is this there are many groups"
    },
    {
        "start": "1127.68",
        "dur": "3.93",
        "text": "in the world religious organizations"
    },
    {
        "start": "1130.47",
        "dur": "3.24",
        "text": "religious belief systems political"
    },
    {
        "start": "1131.61",
        "dur": "4.86",
        "text": "organizations that openly say they're"
    },
    {
        "start": "1133.71",
        "dur": "7.56",
        "text": "gonna lie to you the openly say they"
    },
    {
        "start": "1136.47",
        "dur": "7.35",
        "text": "have no moral universal requirement to"
    },
    {
        "start": "1141.27",
        "dur": "3.57",
        "text": "tell the truth environmentalists have"
    },
    {
        "start": "1143.82",
        "dur": "2.58",
        "text": "promised they're going to lie to you"
    },
    {
        "start": "1144.84",
        "dur": "3.81",
        "text": "because sensationalism gets there cause"
    },
    {
        "start": "1146.4",
        "dur": "4.26",
        "text": "leftist liberals Marxist socialist of"
    },
    {
        "start": "1148.65",
        "dur": "3.48",
        "text": "all said that they're gonna lie there"
    },
    {
        "start": "1150.66",
        "dur": "2.79",
        "text": "are religions out around the world that"
    },
    {
        "start": "1152.13",
        "dur": "6.29",
        "text": "are perfectly content with lying to"
    },
    {
        "start": "1153.45",
        "dur": "8.22",
        "text": "outsiders Christians they can't do that"
    },
    {
        "start": "1158.42",
        "dur": "7.9",
        "text": "thou shalt not bear false witnesses"
    },
    {
        "start": "1161.67",
        "dur": "6.75",
        "text": "Universal and that's why in the modern"
    },
    {
        "start": "1166.32",
        "dur": "4.98",
        "text": "world I trust myself"
    },
    {
        "start": "1168.42",
        "dur": "4.77",
        "text": "I trust my friends and my family I trust"
    },
    {
        "start": "1171.3",
        "dur": "5.66",
        "text": "my listeners I trust those in hot"
    },
    {
        "start": "1173.19",
        "dur": "8.52",
        "text": "pursuit of philosophy rational empirical"
    },
    {
        "start": "1176.96",
        "dur": "6.96",
        "text": "universal ethical philosophy everybody"
    },
    {
        "start": "1181.71",
        "dur": "2.21",
        "text": "else"
    },
    {
        "start": "1185.3",
        "dur": "3.63",
        "text": "all they do is lie"
    }
]