[
    {
        "start": "0",
        "dur": "3",
        "text": "hi everybody it's depend molyneux from"
    },
    {
        "start": "1.86",
        "dur": "4.8",
        "text": "freedomain radio hope you're doing very"
    },
    {
        "start": "3",
        "dur": "5.61",
        "text": "well letter my name is me I'm a student"
    },
    {
        "start": "6.66",
        "dur": "4.43",
        "text": "from the UK and I'm working my way into"
    },
    {
        "start": "8.61",
        "dur": "5.909",
        "text": "libertarian anarchic way of thinking ooh"
    },
    {
        "start": "11.09",
        "dur": "5.049",
        "text": "not quite it's not a way of thinking the"
    },
    {
        "start": "14.519",
        "dur": "4.231",
        "text": "scientific method isn't a way of doing"
    },
    {
        "start": "16.139",
        "dur": "5.671",
        "text": "science it is science this is thinking"
    },
    {
        "start": "18.75",
        "dur": "5.25",
        "text": "it's not a way of thinking I mean people"
    },
    {
        "start": "21.81",
        "dur": "3.389",
        "text": "say well this is steph's philosophy know"
    },
    {
        "start": "24",
        "dur": "2.699",
        "text": "if it's my philosophy it's not"
    },
    {
        "start": "25.199",
        "dur": "2.791",
        "text": "philosophy it's called an opinion it's"
    },
    {
        "start": "26.699",
        "dur": "4.891",
        "text": "either good philosophy or it's bad"
    },
    {
        "start": "27.99",
        "dur": "5.01",
        "text": "philosophy he says I'm reader of Chicago"
    },
    {
        "start": "31.59",
        "dur": "2.879",
        "text": "Austrian economics someone was totally"
    },
    {
        "start": "33",
        "dur": "2.79",
        "text": "convinced by her arguments and the"
    },
    {
        "start": "34.469",
        "dur": "2.821",
        "text": "evidence supporting them I have one or"
    },
    {
        "start": "35.79",
        "dur": "3.33",
        "text": "two things I'd like to respond to so I"
    },
    {
        "start": "37.29",
        "dur": "5.01",
        "text": "can put my conscience to rest a very"
    },
    {
        "start": "39.12",
        "dur": "4.74",
        "text": "good idea here in the UK our national"
    },
    {
        "start": "42.3",
        "dur": "3.21",
        "text": "health service that's the government-run"
    },
    {
        "start": "43.86",
        "dur": "4.14",
        "text": "health care system is so fiercely"
    },
    {
        "start": "45.51",
        "dur": "4.529",
        "text": "defended by the main parties that there"
    },
    {
        "start": "48",
        "dur": "3.809",
        "text": "is a huge protest when our lib con"
    },
    {
        "start": "50.039",
        "dur": "3.84",
        "text": "government is privatizing small sections"
    },
    {
        "start": "51.809",
        "dur": "3.75",
        "text": "of it so my question is how should I"
    },
    {
        "start": "53.879",
        "dur": "6.27",
        "text": "argue for a private health care system"
    },
    {
        "start": "55.559",
        "dur": "6.361",
        "text": "here in the UK well it's not a private"
    },
    {
        "start": "60.149",
        "dur": "3.511",
        "text": "health care system it's a non-violent"
    },
    {
        "start": "61.92",
        "dur": "3.69",
        "text": "healthcare system and it's all in the"
    },
    {
        "start": "63.66",
        "dur": "5.16",
        "text": "term so ninety percent of philosophy is"
    },
    {
        "start": "65.61",
        "dur": "4.59",
        "text": "defining the terms and so people are not"
    },
    {
        "start": "68.82",
        "dur": "3.03",
        "text": "arguing for public versus private"
    },
    {
        "start": "70.2",
        "dur": "4.919",
        "text": "they're asking they're arguing for"
    },
    {
        "start": "71.85",
        "dur": "4.89",
        "text": "voluntary versus coercive clearly you"
    },
    {
        "start": "75.119",
        "dur": "3.631",
        "text": "would not have a particularly difficult"
    },
    {
        "start": "76.74",
        "dur": "4.14",
        "text": "time arguing people about the merits of"
    },
    {
        "start": "78.75",
        "dur": "5.759",
        "text": "lovemaking vs. rape about the benefits"
    },
    {
        "start": "80.88",
        "dur": "4.919",
        "text": "of charity versus theft and explaining"
    },
    {
        "start": "84.509",
        "dur": "3.331",
        "text": "the moral difference between an"
    },
    {
        "start": "85.799",
        "dur": "5.07",
        "text": "emergency tracheotomy and just stabbing"
    },
    {
        "start": "87.84",
        "dur": "5.01",
        "text": "someone in the throat and those are"
    },
    {
        "start": "90.869",
        "dur": "4.14",
        "text": "these are because people understand that"
    },
    {
        "start": "92.85",
        "dur": "4.019",
        "text": "there is violence in one situation and"
    },
    {
        "start": "95.009",
        "dur": "4.801",
        "text": "there is non-violence in another"
    },
    {
        "start": "96.869",
        "dur": "4.921",
        "text": "situation we would not have much of a"
    },
    {
        "start": "99.81",
        "dur": "3.36",
        "text": "difficulty arguing against the idea that"
    },
    {
        "start": "101.79",
        "dur": "3.57",
        "text": "the government should assign us marriage"
    },
    {
        "start": "103.17",
        "dur": "3.989",
        "text": "partners and forbid divorce for the rest"
    },
    {
        "start": "105.36",
        "dur": "4.59",
        "text": "of our lives because that would be clear"
    },
    {
        "start": "107.159",
        "dur": "4.801",
        "text": "see it clearly institutionalized rape so"
    },
    {
        "start": "109.95",
        "dur": "4.23",
        "text": "it doesn't matter what service is"
    },
    {
        "start": "111.96",
        "dur": "3.9",
        "text": "provided it only matters whether a gun"
    },
    {
        "start": "114.18",
        "dur": "4.71",
        "text": "is involved in the provision of it and"
    },
    {
        "start": "115.86",
        "dur": "4.859",
        "text": "if people skate over or vault / or"
    },
    {
        "start": "118.89",
        "dur": "3.659",
        "text": "ignore as everybody does they ignore"
    },
    {
        "start": "120.719",
        "dur": "3.481",
        "text": "begun in the room the fact that the"
    },
    {
        "start": "122.549",
        "dur": "2.911",
        "text": "state uses coercion to achieve its ends"
    },
    {
        "start": "124.2",
        "dur": "3.3",
        "text": "then they can hear you can argue for"
    },
    {
        "start": "125.46",
        "dur": "4.38",
        "text": "anything how should I spend this found"
    },
    {
        "start": "127.5",
        "dur": "3.75",
        "text": "money it's fun conversation if I find a"
    },
    {
        "start": "129.84",
        "dur": "2.55",
        "text": "million dollars that can't be traced and"
    },
    {
        "start": "131.25",
        "dur": "2.47",
        "text": "tracked and I'm never going to get in"
    },
    {
        "start": "132.39",
        "dur": "3.94",
        "text": "trouble for using house"
    },
    {
        "start": "133.72",
        "dur": "5.19",
        "text": "bend it you know that's that's quite"
    },
    {
        "start": "136.33",
        "dur": "3.93",
        "text": "different so that's one thing I would"
    },
    {
        "start": "138.91",
        "dur": "2.67",
        "text": "say the other thing I'd say is that it's"
    },
    {
        "start": "140.26",
        "dur": "3.75",
        "text": "important to recognize that human nature"
    },
    {
        "start": "141.58",
        "dur": "7.98",
        "text": "change is fundamentally in the presence"
    },
    {
        "start": "144.01",
        "dur": "8.01",
        "text": "of the state if a Brinks truck overturns"
    },
    {
        "start": "149.56",
        "dur": "4.41",
        "text": "in a poor neighborhood and thousands of"
    },
    {
        "start": "152.02",
        "dur": "3.63",
        "text": "hundred-dollar bills go fluttering"
    },
    {
        "start": "153.97",
        "dur": "3.18",
        "text": "through the neighborhood and people grab"
    },
    {
        "start": "155.65",
        "dur": "4.32",
        "text": "them and you know stick them in their"
    },
    {
        "start": "157.15",
        "dur": "4.05",
        "text": "socks and up their noses and stuff to to"
    },
    {
        "start": "159.97",
        "dur": "3.54",
        "text": "hang tight to them and don't return them"
    },
    {
        "start": "161.2",
        "dur": "4.56",
        "text": "all would we say that human beings are"
    },
    {
        "start": "163.51",
        "dur": "4.08",
        "text": "innately thieves and don't respect"
    },
    {
        "start": "165.76",
        "dur": "3.42",
        "text": "property rights no there's just lots of"
    },
    {
        "start": "167.59",
        "dur": "3.03",
        "text": "untraceable at least pretty untraceable"
    },
    {
        "start": "169.18",
        "dur": "3.029",
        "text": "dollar bills hundred dollar bills"
    },
    {
        "start": "170.62",
        "dur": "2.76",
        "text": "floating through the air so some of them"
    },
    {
        "start": "172.209",
        "dur": "4.051",
        "text": "will be returned but a lot of them are"
    },
    {
        "start": "173.38",
        "dur": "4.74",
        "text": "going to be grabbed finding a wallet"
    },
    {
        "start": "176.26",
        "dur": "3.78",
        "text": "down the street it does not make you a"
    },
    {
        "start": "178.12",
        "dur": "6.57",
        "text": "thief stealing it from somebody's pocket"
    },
    {
        "start": "180.04",
        "dur": "7.08",
        "text": "does and so in the presence of the state"
    },
    {
        "start": "184.69",
        "dur": "5.04",
        "text": "people's perception of what is moral and"
    },
    {
        "start": "187.12",
        "dur": "5.61",
        "text": "virtuous changes it corrupts humanity"
    },
    {
        "start": "189.73",
        "dur": "6.12",
        "text": "and so that's another sort of thing that"
    },
    {
        "start": "192.73",
        "dur": "5.009",
        "text": "I would mention another thing you could"
    },
    {
        "start": "195.85",
        "dur": "3.3",
        "text": "say if you want is okay well what's"
    },
    {
        "start": "197.739",
        "dur": "3.091",
        "text": "going to happen when the system runs out"
    },
    {
        "start": "199.15",
        "dur": "4.32",
        "text": "of money what is going to happen if you"
    },
    {
        "start": "200.83",
        "dur": "4.89",
        "text": "want to talk consequentialism the"
    },
    {
        "start": "203.47",
        "dur": "5.25",
        "text": "government the government money provides"
    },
    {
        "start": "205.72",
        "dur": "6.75",
        "text": "a huge and wonderful high for people for"
    },
    {
        "start": "208.72",
        "dur": "5.34",
        "text": "a generation or two but you know it's"
    },
    {
        "start": "212.47",
        "dur": "3.33",
        "text": "like some guy who quits his job and goes"
    },
    {
        "start": "214.06",
        "dur": "3.03",
        "text": "on credit card debts and says working is"
    },
    {
        "start": "215.8",
        "dur": "2.52",
        "text": "for suckers just like okay but what"
    },
    {
        "start": "217.09",
        "dur": "2.88",
        "text": "happens when you run out of money and"
    },
    {
        "start": "218.32",
        "dur": "3.12",
        "text": "you can't pay off your debts what"
    },
    {
        "start": "219.97",
        "dur": "4.41",
        "text": "happens when you declare bankruptcy lose"
    },
    {
        "start": "221.44",
        "dur": "6.51",
        "text": "your house your car what happens then I"
    },
    {
        "start": "224.38",
        "dur": "5.31",
        "text": "mean it all looks fine if you're going"
    },
    {
        "start": "227.95",
        "dur": "2.88",
        "text": "to go into debt what happens when you"
    },
    {
        "start": "229.69",
        "dur": "6.06",
        "text": "can't pay off the debt what's going to"
    },
    {
        "start": "230.83",
        "dur": "6.96",
        "text": "happen to the poor when there's no"
    },
    {
        "start": "235.75",
        "dur": "3.84",
        "text": "welfare checks available when there's no"
    },
    {
        "start": "237.79",
        "dur": "4.11",
        "text": "pension checks available what is going"
    },
    {
        "start": "239.59",
        "dur": "3.72",
        "text": "to happen to the poor when there's no"
    },
    {
        "start": "241.9",
        "dur": "4.2",
        "text": "money to pay the doctors to treat them"
    },
    {
        "start": "243.31",
        "dur": "5.1",
        "text": "for quote free yeah going into debt is"
    },
    {
        "start": "246.1",
        "dur": "4.62",
        "text": "is a great way to avoid reality for a"
    },
    {
        "start": "248.41",
        "dur": "4.19",
        "text": "short period of time and the rich of the"
    },
    {
        "start": "250.72",
        "dur": "5.489",
        "text": "country the longer it can sustain it but"
    },
    {
        "start": "252.6",
        "dur": "7.419",
        "text": "fundamentally it is it is a problem so"
    },
    {
        "start": "256.209",
        "dur": "7.08",
        "text": "yeah if you're going to vault over the"
    },
    {
        "start": "260.019",
        "dur": "6.301",
        "text": "moral issue of using force to provide"
    },
    {
        "start": "263.289",
        "dur": "3.831",
        "text": "services then I don't know why you would"
    },
    {
        "start": "266.32",
        "dur": "5.39",
        "text": "have a moral"
    },
    {
        "start": "267.12",
        "dur": "6.299",
        "text": "but after that you know it's um no was"
    },
    {
        "start": "271.71",
        "dur": "4.62",
        "text": "it recently there was some controversy"
    },
    {
        "start": "273.419",
        "dur": "5.31",
        "text": "about submarines supposedly urinating on"
    },
    {
        "start": "276.33",
        "dur": "5.43",
        "text": "the corpses of people that they had"
    },
    {
        "start": "278.729",
        "dur": "7.381",
        "text": "killed in Afghanistan Iraq probably"
    },
    {
        "start": "281.76",
        "dur": "6",
        "text": "Afghanistan I mean it's a strange place"
    },
    {
        "start": "286.11",
        "dur": "5.309",
        "text": "to draw a moral line we can go overseas"
    },
    {
        "start": "287.76",
        "dur": "7.23",
        "text": "and we can kill people but we can't piss"
    },
    {
        "start": "291.419",
        "dur": "4.981",
        "text": "on them you know hey no to any Marines"
    },
    {
        "start": "294.99",
        "dur": "3.63",
        "text": "out there I would rather you piss on me"
    },
    {
        "start": "296.4",
        "dur": "3.69",
        "text": "then blow my head off okay that's after"
    },
    {
        "start": "298.62",
        "dur": "2.82",
        "text": "you've murdered people the desecration"
    },
    {
        "start": "300.09",
        "dur": "4.53",
        "text": "of corpses seems like a pretty arbitrary"
    },
    {
        "start": "301.44",
        "dur": "5.46",
        "text": "line to draw in the sand with regards to"
    },
    {
        "start": "304.62",
        "dur": "4.71",
        "text": "ethics so after you've initiated the use"
    },
    {
        "start": "306.9",
        "dur": "5.94",
        "text": "of force and fraud and counterfeiting to"
    },
    {
        "start": "309.33",
        "dur": "5.869",
        "text": "steal from people both current and"
    },
    {
        "start": "312.84",
        "dur": "5.46",
        "text": "future people write a national debt is a"
    },
    {
        "start": "315.199",
        "dur": "5.771",
        "text": "tax enslavement of the unborn so once"
    },
    {
        "start": "318.3",
        "dur": "5.399",
        "text": "you've okayed that what would be the"
    },
    {
        "start": "320.97",
        "dur": "5.1",
        "text": "point of bringing moral arguments in it"
    },
    {
        "start": "323.699",
        "dur": "4.741",
        "text": "would be completely ridiculous you'd be"
    },
    {
        "start": "326.07",
        "dur": "5.49",
        "text": "like writing a book on on how to treat"
    },
    {
        "start": "328.44",
        "dur": "5.07",
        "text": "your kidnap rape victims nicely well"
    },
    {
        "start": "331.56",
        "dur": "3.21",
        "text": "once you going going okay that it's okay"
    },
    {
        "start": "333.51",
        "dur": "2.58",
        "text": "to kidnap and rape them or why on earth"
    },
    {
        "start": "334.77",
        "dur": "3.63",
        "text": "would you want etiquette after that so"
    },
    {
        "start": "336.09",
        "dur": "4.77",
        "text": "doesn't really matter what happens to"
    },
    {
        "start": "338.4",
        "dur": "5.1",
        "text": "the money after it's stolen you simply"
    },
    {
        "start": "340.86",
        "dur": "4.02",
        "text": "have accepted if you're for this sort of"
    },
    {
        "start": "343.5",
        "dur": "3.389",
        "text": "stuff you've accepted the use of force"
    },
    {
        "start": "344.88",
        "dur": "3.45",
        "text": "as a way of solving problems so then"
    },
    {
        "start": "346.889",
        "dur": "3.871",
        "text": "saying well what's going to happen the"
    },
    {
        "start": "348.33",
        "dur": "6.03",
        "text": "poor if we stop using violence to"
    },
    {
        "start": "350.76",
        "dur": "6.029",
        "text": "provide them with services but if you're"
    },
    {
        "start": "354.36",
        "dur": "4.8",
        "text": "really concerned about ethics and virtue"
    },
    {
        "start": "356.789",
        "dur": "5.16",
        "text": "and goodness and right behavior then"
    },
    {
        "start": "359.16",
        "dur": "5.43",
        "text": "lets you know back up back up a square"
    },
    {
        "start": "361.949",
        "dur": "4.261",
        "text": "or two to the point where taxpayers both"
    },
    {
        "start": "364.59",
        "dur": "3",
        "text": "current and future have guns pointed at"
    },
    {
        "start": "366.21",
        "dur": "3.84",
        "text": "them for the provision of these services"
    },
    {
        "start": "367.59",
        "dur": "4.829",
        "text": "and if someone says while I'm okay with"
    },
    {
        "start": "370.05",
        "dur": "4.11",
        "text": "it I'm okay with using violence you know"
    },
    {
        "start": "372.419",
        "dur": "3.241",
        "text": "you drape it up and you know tarred it"
    },
    {
        "start": "374.16",
        "dur": "3.03",
        "text": "up in some sort of social contracts and"
    },
    {
        "start": "375.66",
        "dur": "2.85",
        "text": "so on well that's fine but then they"
    },
    {
        "start": "377.19",
        "dur": "2.82",
        "text": "have the logical problem of saying what"
    },
    {
        "start": "378.51",
        "dur": "2.52",
        "text": "i can only some people use myelin so i"
    },
    {
        "start": "380.01",
        "dur": "2.7",
        "text": "can only the people who call themselves"
    },
    {
        "start": "381.03",
        "dur": "4.139",
        "text": "the state use violence to provide these"
    },
    {
        "start": "382.71",
        "dur": "4.53",
        "text": "services and other people can't that's"
    },
    {
        "start": "385.169",
        "dur": "3.601",
        "text": "like saying you know all these penguins"
    },
    {
        "start": "387.24",
        "dur": "3.69",
        "text": "with penguins except for those five and"
    },
    {
        "start": "388.77",
        "dur": "3.78",
        "text": "they're the opposite of penguins are"
    },
    {
        "start": "390.93",
        "dur": "3.359",
        "text": "they penguins yes but I'm gonna define"
    },
    {
        "start": "392.55",
        "dur": "3.06",
        "text": "them as the opposite of penguins try you"
    },
    {
        "start": "394.289",
        "dur": "2.821",
        "text": "know saying that to your biology teacher"
    },
    {
        "start": "395.61",
        "dur": "3.33",
        "text": "and see how far you get it you can't"
    },
    {
        "start": "397.11",
        "dur": "3.45",
        "text": "have a classification and a"
    },
    {
        "start": "398.94",
        "dur": "3.479",
        "text": "universalization"
    },
    {
        "start": "400.56",
        "dur": "4.47",
        "text": "vacation as humanity universalization is"
    },
    {
        "start": "402.419",
        "dur": "4.051",
        "text": "is virtuous behavior you can't have a"
    },
    {
        "start": "405.03",
        "dur": "3.33",
        "text": "classification and a universalization"
    },
    {
        "start": "406.47",
        "dur": "3.72",
        "text": "and then just create arbitrary opposites"
    },
    {
        "start": "408.36",
        "dur": "3.059",
        "text": "I mean you can you're just wrong so you"
    },
    {
        "start": "410.19",
        "dur": "2.82",
        "text": "can't say human beings should not"
    },
    {
        "start": "411.419",
        "dur": "3.451",
        "text": "initiate the use of force except for"
    },
    {
        "start": "413.01",
        "dur": "4.08",
        "text": "those guys over there with the funny"
    },
    {
        "start": "414.87",
        "dur": "3.99",
        "text": "blue or green suits on or you know at"
    },
    {
        "start": "417.09",
        "dur": "3.21",
        "text": "this particular address they can not"
    },
    {
        "start": "418.86",
        "dur": "2.55",
        "text": "only could can do it but they must they"
    },
    {
        "start": "420.3",
        "dur": "2.61",
        "text": "should it would be moral for them to do"
    },
    {
        "start": "421.41",
        "dur": "4.02",
        "text": "it then you're creating a category"
    },
    {
        "start": "422.91",
        "dur": "5.4",
        "text": "called humanity non-violence but this"
    },
    {
        "start": "425.43",
        "dur": "4.44",
        "text": "category of humanity violence I mean"
    },
    {
        "start": "428.31",
        "dur": "3.63",
        "text": "that's just fundamentally incorrect"
    },
    {
        "start": "429.87",
        "dur": "4.59",
        "text": "tomorrow it's corrupt and fundamentally"
    },
    {
        "start": "431.94",
        "dur": "4.47",
        "text": "it is it's just philosophically"
    },
    {
        "start": "434.46",
        "dur": "3.9",
        "text": "incorrect and this is why things go from"
    },
    {
        "start": "436.41",
        "dur": "5.16",
        "text": "bad to worse now if you're making"
    },
    {
        "start": "438.36",
        "dur": "4.26",
        "text": "fundamental errors in physics and"
    },
    {
        "start": "441.57",
        "dur": "2.25",
        "text": "engineering when you're trying to build"
    },
    {
        "start": "442.62",
        "dur": "2.58",
        "text": "a bridge the bridge bridge is going to"
    },
    {
        "start": "443.82",
        "dur": "2.73",
        "text": "fall down and if you're making"
    },
    {
        "start": "445.2",
        "dur": "3.86",
        "text": "fundamental errors in your"
    },
    {
        "start": "446.55",
        "dur": "4.71",
        "text": "categorization of humans and virtue"
    },
    {
        "start": "449.06",
        "dur": "4.03",
        "text": "you're going to have all of the"
    },
    {
        "start": "451.26",
        "dur": "3.15",
        "text": "disastrous that we see are going on"
    },
    {
        "start": "453.09",
        "dur": "2.79",
        "text": "around the world you know mass has been"
    },
    {
        "start": "454.41",
        "dur": "4.009",
        "text": "a massive national debts unfunded"
    },
    {
        "start": "455.88",
        "dur": "6.45",
        "text": "liabilities bad education for children"
    },
    {
        "start": "458.419",
        "dur": "7.06",
        "text": "the eurozone coming crashing down fiscal"
    },
    {
        "start": "462.33",
        "dur": "4.89",
        "text": "crises you know cuz what is the"
    },
    {
        "start": "465.479",
        "dur": "4.431",
        "text": "fundamental problem with say central"
    },
    {
        "start": "467.22",
        "dur": "6.09",
        "text": "banking yeah it's quite simple it's"
    },
    {
        "start": "469.91",
        "dur": "6.45",
        "text": "counterfeiting is immoral for all human"
    },
    {
        "start": "473.31",
        "dur": "6.359",
        "text": "beings except for that little group of"
    },
    {
        "start": "476.36",
        "dur": "5.74",
        "text": "wrinkly Cryptkeeper be suited spectacles"
    },
    {
        "start": "479.669",
        "dur": "3.601",
        "text": "baldies over there those guys must do it"
    },
    {
        "start": "482.1",
        "dur": "3.05",
        "text": "everyone else can't do it well that's"
    },
    {
        "start": "483.27",
        "dur": "3.78",
        "text": "the fundamental philosophical error"
    },
    {
        "start": "485.15",
        "dur": "3.28",
        "text": "everyone zhipeng at all of these"
    },
    {
        "start": "487.05",
        "dur": "4.5",
        "text": "penguins are penguins except for those"
    },
    {
        "start": "488.43",
        "dur": "4.92",
        "text": "five who the opposite of penguins I mean"
    },
    {
        "start": "491.55",
        "dur": "4.02",
        "text": "that just makes no sense and things that"
    },
    {
        "start": "493.35",
        "dur": "5.939",
        "text": "make no sense turn to error and"
    },
    {
        "start": "495.57",
        "dur": "6.06",
        "text": "catastrophe and in ethics evil overtime"
    },
    {
        "start": "499.289",
        "dur": "4.94",
        "text": "so that would be other thing now he"
    },
    {
        "start": "501.63",
        "dur": "5.13",
        "text": "other thing he talks about is um how"
    },
    {
        "start": "504.229",
        "dur": "4.451",
        "text": "should I argue for a private health care"
    },
    {
        "start": "506.76",
        "dur": "3.33",
        "text": "system sorry he says I believe in the"
    },
    {
        "start": "508.68",
        "dur": "2.76",
        "text": "right to bear arms as it gives people"
    },
    {
        "start": "510.09",
        "dur": "3.449",
        "text": "the ability to fight off oppressive"
    },
    {
        "start": "511.44",
        "dur": "4.08",
        "text": "governments and intruders etc however"
    },
    {
        "start": "513.539",
        "dur": "4.201",
        "text": "when people say more guns equals more"
    },
    {
        "start": "515.52",
        "dur": "3.689",
        "text": "deaths it gets me thinking call that"
    },
    {
        "start": "517.74",
        "dur": "2.549",
        "text": "weak mindedness or whatever and I"
    },
    {
        "start": "519.209",
        "dur": "2.58",
        "text": "question whether people in a free"
    },
    {
        "start": "520.289",
        "dur": "2.851",
        "text": "society can be trusted with weapons"
    },
    {
        "start": "521.789",
        "dur": "3.781",
        "text": "could you give me some comments on that"
    },
    {
        "start": "523.14",
        "dur": "4.5",
        "text": "or give me a video link it's tons of"
    },
    {
        "start": "525.57",
        "dur": "3.66",
        "text": "stuff about it but again you just want"
    },
    {
        "start": "527.64",
        "dur": "3.99",
        "text": "to work with first principles if you"
    },
    {
        "start": "529.23",
        "dur": "4.5",
        "text": "really want to make sure that you're not"
    },
    {
        "start": "531.63",
        "dur": "2.78",
        "text": "arguing from effect arguing from effect"
    },
    {
        "start": "533.73",
        "dur": "3.049",
        "text": "or consequence"
    },
    {
        "start": "534.41",
        "dur": "5.369",
        "text": "is mob utilitarianism or pragmatism is"
    },
    {
        "start": "536.779",
        "dur": "4.441",
        "text": "always a disaster is always is saying"
    },
    {
        "start": "539.779",
        "dur": "5.04",
        "text": "that an idea the value of truth of an"
    },
    {
        "start": "541.22",
        "dur": "5.4",
        "text": "idea can be judged by its effects is not"
    },
    {
        "start": "544.819",
        "dur": "3.651",
        "text": "it's not valid there's not what"
    },
    {
        "start": "546.62",
        "dur": "6.659",
        "text": "philosophy lots of his first principles"
    },
    {
        "start": "548.47",
        "dur": "6.13",
        "text": "right it's like saying that Einstein Ian"
    },
    {
        "start": "553.279",
        "dur": "4.591",
        "text": "physics is wrong because it led to"
    },
    {
        "start": "554.6",
        "dur": "4.349",
        "text": "atomic weapons no I standing physics is"
    },
    {
        "start": "557.87",
        "dur": "6.839",
        "text": "right or wrong regardless of the"
    },
    {
        "start": "558.949",
        "dur": "7.94",
        "text": "consequences of that and so you don't"
    },
    {
        "start": "564.709",
        "dur": "5.13",
        "text": "have the right to bear arms because of"
    },
    {
        "start": "566.889",
        "dur": "4.211",
        "text": "you know x y&z consequence the fighting"
    },
    {
        "start": "569.839",
        "dur": "3.12",
        "text": "off oppressive governments which doesn't"
    },
    {
        "start": "571.1",
        "dur": "3.45",
        "text": "really work anyway but no you don't have"
    },
    {
        "start": "572.959",
        "dur": "3.24",
        "text": "the right to bear arms because of that"
    },
    {
        "start": "574.55",
        "dur": "3.18",
        "text": "you have the right to bear arms because"
    },
    {
        "start": "576.199",
        "dur": "4.56",
        "text": "it's philosophically contradictory to"
    },
    {
        "start": "577.73",
        "dur": "5.94",
        "text": "oppose it right because okay let's say"
    },
    {
        "start": "580.759",
        "dur": "5.551",
        "text": "that people do not have the right to"
    },
    {
        "start": "583.67",
        "dur": "4.649",
        "text": "bear arms okay so who's going to stop"
    },
    {
        "start": "586.31",
        "dur": "3.959",
        "text": "them from bearing arms well people with"
    },
    {
        "start": "588.319",
        "dur": "3.27",
        "text": "arms okay so some people must have the"
    },
    {
        "start": "590.269",
        "dur": "3.51",
        "text": "right to bear arms in order to stop"
    },
    {
        "start": "591.589",
        "dur": "3.6",
        "text": "other people from not having who don't"
    },
    {
        "start": "593.779",
        "dur": "3.24",
        "text": "have the right to bear arms well you've"
    },
    {
        "start": "595.189",
        "dur": "3",
        "text": "got then all of these penguins except"
    },
    {
        "start": "597.019",
        "dur": "2.701",
        "text": "for these five who the opposite of"
    },
    {
        "start": "598.189",
        "dur": "3.09",
        "text": "penguins nobody has the right to bear"
    },
    {
        "start": "599.72",
        "dur": "3.15",
        "text": "arms except for these guys in a blue"
    },
    {
        "start": "601.279",
        "dur": "3.571",
        "text": "costume who have must have bare arms to"
    },
    {
        "start": "602.87",
        "dur": "3.089",
        "text": "stop every mile some bearing arms people"
    },
    {
        "start": "604.85",
        "dur": "2.94",
        "text": "either have the right or don't have the"
    },
    {
        "start": "605.959",
        "dur": "2.851",
        "text": "right to bear arms and not having the"
    },
    {
        "start": "607.79",
        "dur": "2.789",
        "text": "right to bear arms creates"
    },
    {
        "start": "608.81",
        "dur": "3.81",
        "text": "insurmountable logical contradictions"
    },
    {
        "start": "610.579",
        "dur": "4.021",
        "text": "and therefore it's false you know"
    },
    {
        "start": "612.62",
        "dur": "4.319",
        "text": "logical contradictions equals false it"
    },
    {
        "start": "614.6",
        "dur": "5.299",
        "text": "logical contradictions equals false Oh"
    },
    {
        "start": "616.939",
        "dur": "5.57",
        "text": "order that's all you need to think about"
    },
    {
        "start": "619.899",
        "dur": "4.721",
        "text": "and so anybody who says that okay so"
    },
    {
        "start": "622.509",
        "dur": "4.421",
        "text": "people in a free society can they be"
    },
    {
        "start": "624.62",
        "dur": "4.8",
        "text": "trusted with weapons if you say yes then"
    },
    {
        "start": "626.93",
        "dur": "3.75",
        "text": "you have a free society and if you say"
    },
    {
        "start": "629.42",
        "dur": "2.43",
        "text": "no they can't be trusted with weapons"
    },
    {
        "start": "630.68",
        "dur": "3.87",
        "text": "then obviously you can't have a"
    },
    {
        "start": "631.85",
        "dur": "3.87",
        "text": "government because you have to trust"
    },
    {
        "start": "634.55",
        "dur": "3.12",
        "text": "people with weapons who call themselves"
    },
    {
        "start": "635.72",
        "dur": "4.289",
        "text": "the government and if people can can't"
    },
    {
        "start": "637.67",
        "dur": "3.57",
        "text": "be trusted with weapons then you can't"
    },
    {
        "start": "640.009",
        "dur": "2.961",
        "text": "have a government I mean this is your"
    },
    {
        "start": "641.24",
        "dur": "5.01",
        "text": "fundamental thing and people will always"
    },
    {
        "start": "642.97",
        "dur": "4.839",
        "text": "try and create this double think this"
    },
    {
        "start": "646.25",
        "dur": "2.79",
        "text": "artificial divide in your mind it's very"
    },
    {
        "start": "647.809",
        "dur": "4.83",
        "text": "dangerous very dangerous most"
    },
    {
        "start": "649.04",
        "dur": "5.76",
        "text": "interesting there is and they will say"
    },
    {
        "start": "652.639",
        "dur": "6.961",
        "text": "we need a government to protect us from"
    },
    {
        "start": "654.8",
        "dur": "5.94",
        "text": "evil people but if there are evil people"
    },
    {
        "start": "659.6",
        "dur": "4.02",
        "text": "in the world and have no doubt that"
    },
    {
        "start": "660.74",
        "dur": "4.68",
        "text": "there are where's the first place"
    },
    {
        "start": "663.62",
        "dur": "3.99",
        "text": "they're going to go is to the government"
    },
    {
        "start": "665.42",
        "dur": "2.64",
        "text": "I mean if you create an agency but"
    },
    {
        "start": "667.61",
        "dur": "2.64",
        "text": "different up"
    },
    {
        "start": "668.06",
        "dur": "5.49",
        "text": "Lea force it's going to attract evil"
    },
    {
        "start": "670.25",
        "dur": "5.1",
        "text": "people like flies to shed and you do not"
    },
    {
        "start": "673.55",
        "dur": "4.53",
        "text": "solve the problem of evil by giving it a"
    },
    {
        "start": "675.35",
        "dur": "6.42",
        "text": "monopoly I mean you may you may solve"
    },
    {
        "start": "678.08",
        "dur": "6.3",
        "text": "the problem of certain conflicts but I"
    },
    {
        "start": "681.77",
        "dur": "6.03",
        "text": "mean that's the it's the Randall Patrick"
    },
    {
        "start": "684.38",
        "dur": "4.74",
        "text": "McMurphy argument right that you can"
    },
    {
        "start": "687.8",
        "dur": "2.97",
        "text": "solve the problem of rebellion with a"
    },
    {
        "start": "689.12",
        "dur": "3.63",
        "text": "frontal lobotomy you can solve the"
    },
    {
        "start": "690.77",
        "dur": "4.17",
        "text": "problem of a migraine with a guillotine"
    },
    {
        "start": "692.75",
        "dur": "4.65",
        "text": "you can't solve the problem of evil by"
    },
    {
        "start": "694.94",
        "dur": "4.74",
        "text": "creating an agency with a monopoly on"
    },
    {
        "start": "697.4",
        "dur": "3.51",
        "text": "evil which attracts all the evil people"
    },
    {
        "start": "699.68",
        "dur": "2.79",
        "text": "it's like we have a problem with"
    },
    {
        "start": "700.91",
        "dur": "3",
        "text": "organized crime so let's create one big"
    },
    {
        "start": "702.47",
        "dur": "3.21",
        "text": "organized crime monopoly it give it"
    },
    {
        "start": "703.91",
        "dur": "4.14",
        "text": "domination with nuclear weapons over the"
    },
    {
        "start": "705.68",
        "dur": "4.29",
        "text": "whole area you've not some solved the"
    },
    {
        "start": "708.05",
        "dur": "3.11",
        "text": "problem you just fed the cancer to the"
    },
    {
        "start": "709.97",
        "dur": "3.72",
        "text": "point where life becomes unsustainable"
    },
    {
        "start": "711.16",
        "dur": "3.97",
        "text": "guess you know I guess guy who's died"
    },
    {
        "start": "713.69",
        "dur": "5.63",
        "text": "doesn't have any problem with cancer but"
    },
    {
        "start": "715.13",
        "dur": "6.39",
        "text": "it's not like you've had a cure so"
    },
    {
        "start": "719.32",
        "dur": "3.82",
        "text": "that's really really important people"
    },
    {
        "start": "721.52",
        "dur": "3.3",
        "text": "will always say but because of these bad"
    },
    {
        "start": "723.14",
        "dur": "6.15",
        "text": "people because of these bad consequences"
    },
    {
        "start": "724.82",
        "dur": "6.42",
        "text": "we must have a government but that's"
    },
    {
        "start": "729.29",
        "dur": "3.32",
        "text": "creating a category of people which is"
    },
    {
        "start": "731.24",
        "dur": "4.26",
        "text": "supposed to have the exact opposite"
    },
    {
        "start": "732.61",
        "dur": "4.6",
        "text": "categories or category characterizations"
    },
    {
        "start": "735.5",
        "dur": "3.93",
        "text": "of those that you've just described so"
    },
    {
        "start": "737.21",
        "dur": "4.71",
        "text": "as a bad way of putting it so if I say"
    },
    {
        "start": "739.43",
        "dur": "3.81",
        "text": "well there's lots of evil people in the"
    },
    {
        "start": "741.92",
        "dur": "2.46",
        "text": "world who will take your stuff so we"
    },
    {
        "start": "743.24",
        "dur": "2.94",
        "text": "need a government to protect us from"
    },
    {
        "start": "744.38",
        "dur": "3.69",
        "text": "them well how does the government pay"
    },
    {
        "start": "746.18",
        "dur": "3.99",
        "text": "for this protection by taking your stuff"
    },
    {
        "start": "748.07",
        "dur": "7.14",
        "text": "you haven't solved the problem you"
    },
    {
        "start": "750.17",
        "dur": "7.44",
        "text": "understand the use of government as an"
    },
    {
        "start": "755.21",
        "dur": "5.79",
        "text": "imaginary solution for social problems"
    },
    {
        "start": "757.61",
        "dur": "6.87",
        "text": "is worse really but it's on the same"
    },
    {
        "start": "761",
        "dur": "4.77",
        "text": "intellectual level as the use of God to"
    },
    {
        "start": "764.48",
        "dur": "3.6",
        "text": "solve problems in physics and biology"
    },
    {
        "start": "765.77",
        "dur": "4.62",
        "text": "and what God did it in it there's no"
    },
    {
        "start": "768.08",
        "dur": "5.1",
        "text": "answer it actually prevents answers"
    },
    {
        "start": "770.39",
        "dur": "4.29",
        "text": "because it's the pretend answer when you"
    },
    {
        "start": "773.18",
        "dur": "2.55",
        "text": "have a pretend answer when you think you"
    },
    {
        "start": "774.68",
        "dur": "3.06",
        "text": "have an answer you stop looking for"
    },
    {
        "start": "775.73",
        "dur": "3.99",
        "text": "answers and government is a way of"
    },
    {
        "start": "777.74",
        "dur": "3.03",
        "text": "pretending you have an answer when in"
    },
    {
        "start": "779.72",
        "dur": "2.82",
        "text": "fact you're just making the problems"
    },
    {
        "start": "780.77",
        "dur": "4.23",
        "text": "worse it's you know it's the old days"
    },
    {
        "start": "782.54",
        "dur": "3.66",
        "text": "it's morphine for a toothache hey my"
    },
    {
        "start": "785",
        "dur": "3.09",
        "text": "tooth feels better about the rot"
    },
    {
        "start": "786.2",
        "dur": "3.75",
        "text": "continues deeper so I hope that helps"
    },
    {
        "start": "788.09",
        "dur": "3.21",
        "text": "thank you so much donations at"
    },
    {
        "start": "789.95",
        "dur": "3.97",
        "text": "freedomain radio com forward slash"
    },
    {
        "start": "791.3",
        "dur": "4.68",
        "text": "tonight I thought you say"
    },
    {
        "start": "793.92",
        "dur": "2.06",
        "text": "you"
    }
]