{
  "Title": "The Fall of China. There Will Be No Economic Recovery.",
  "Id": "zPdHAleapI0",
  "Transcript": [
    {
      "text": "Hi everybody, this is Stefan Molyneux from\nFreedomain Radio. So as Greece burns, China",
      "start": 0.22,
      "duration": 4.639
    },
    {
      "text": "sinks into a sea of staggering, virtually\nunimaginable economic losses that may well",
      "start": 4.859,
      "duration": 5.571
    },
    {
      "text": "fracture the world economy as we know it.",
      "start": 10.43,
      "duration": 2.8
    },
    {
      "text": "After more than doubling in value over the\nlast year, despite a slowing economy and weak",
      "start": 13.23,
      "duration": 3.639
    },
    {
      "text": "corporate earnings reports, the stock market\nin China is currently in free-fall, with no",
      "start": 16.869,
      "duration": 5.771
    },
    {
      "text": "end in sight. Since June 12, 2015, Shanghai's\nstock exchange composite index has fallen",
      "start": 22.64,
      "duration": 5.109
    },
    {
      "text": "31.2%, wiping out over $3.2 trillion worth\nof the market's total value. There seems to",
      "start": 27.749,
      "duration": 9.391
    },
    {
      "text": "be no immediate end to the market plunge.",
      "start": 37.14,
      "duration": 2.79
    },
    {
      "text": "So to put this in perspective, in just 27\ndays, China has seen a loss of value roughly",
      "start": 39.93,
      "duration": 5.13
    },
    {
      "text": "equivalent to the entire economic output of\nthe United Kingdom for 2014. Since November",
      "start": 45.06,
      "duration": 7.98
    },
    {
      "text": "1, 2014, the People's Bank of China -- conspicuously\nnamed because the people are absolutely not",
      "start": 53.04,
      "duration": 5.93
    },
    {
      "text": "in charge of it; if you want to put people\nin charge of a bank, make them depositors",
      "start": 58.97,
      "duration": 4.34
    },
    {
      "text": "that can be subject to risk and loss, you\ndon't put it in the hands of a central bank",
      "start": 63.31,
      "duration": 4.02
    },
    {
      "text": "-- the People's Bank of China (PBOC) has reduced\nChinese interest rates four different times,",
      "start": 67.33,
      "duration": 5.77
    },
    {
      "text": "which lowers the cost to borrow money and\nencourages further consumption.",
      "start": 73.1,
      "duration": 4.16
    },
    {
      "text": "Very briefly: interest rates are the price\nyou pay because we're mortal, because we like",
      "start": 77.26,
      "duration": 4.92
    },
    {
      "text": "things now rather than later. To consume now\nrather than later, you pay a premium for that,",
      "start": 82.18,
      "duration": 5.61
    },
    {
      "text": "and that premium is called an interest rate.\nIt should be set by the free market, because",
      "start": 87.79,
      "duration": 5.96
    },
    {
      "text": "it signals very, very important information\nthat the entire economy needs. So when people",
      "start": 93.75,
      "duration": 5.99
    },
    {
      "text": "are saving a lot of money -- and the Chinese\nhave staggering sums of savings, the U.S.",
      "start": 99.74,
      "duration": 5.96
    },
    {
      "text": "has $630 billion saved up, consumers; Chinese\nhave over $22 trillion of savings -- when",
      "start": 105.7,
      "duration": 7.02
    },
    {
      "text": "people save a lot of money, they're deferring\nconsumption. When you save a lot of money,",
      "start": 112.72,
      "duration": 4.64
    },
    {
      "text": "the availability of money is greater; whenever\nthe availability of something is greater,",
      "start": 117.36,
      "duration": 4.36
    },
    {
      "text": "the price of it goes down (all other things\nbeing equal). So when people save a lot of",
      "start": 121.72,
      "duration": 4.13
    },
    {
      "text": "money, interest rates should go down.",
      "start": 125.85,
      "duration": 2.199
    },
    {
      "text": "This signals to entrepreneurs that now is\nthe time to invest in capital upgrades, to",
      "start": 128.049,
      "duration": 4.931
    },
    {
      "text": "hire more people, to open new restaurants\nor factories or offices, to expand, because",
      "start": 132.98,
      "duration": 5.339
    },
    {
      "text": "consumption is coming: when people save, at\nsome point they end up spending. So when interest",
      "start": 138.319,
      "duration": 4.64
    },
    {
      "text": "rates are low, that signals to entrepreneurs\nto invest in capital equipment and upgrade",
      "start": 142.959,
      "duration": 3.921
    },
    {
      "text": "things now, rather than try and sell directly\nto the consumers, in anticipation of the coming",
      "start": 146.88,
      "duration": 4.609
    },
    {
      "text": "consumer demand. When this demand fails to\nmaterialize -- in other words, if the government",
      "start": 151.489,
      "duration": 4.961
    },
    {
      "text": "has been pushing down interest rates artificially\n-- then businesses go bust and there's a huge",
      "start": 156.45,
      "duration": 4.67
    },
    {
      "text": "malinvestment in capital equipment. For instance,\nChina, over the last 10 years, has used more",
      "start": 161.12,
      "duration": 7.729
    },
    {
      "text": "concrete than America has over the last 100,\nbuilding these ghost cities in the middle",
      "start": 168.849,
      "duration": 4.841
    },
    {
      "text": "of nowhere. This has created a lot of artificial\neconomic activity, been incredibly destructive",
      "start": 173.69,
      "duration": 5.769
    },
    {
      "text": "to the environment (as we know from air, water\nand land pollution in China) and it is all",
      "start": 179.459,
      "duration": 5.321
    },
    {
      "text": "a mirage. It's a house of cards, as the analogy\ngoes.",
      "start": 184.78,
      "duration": 4.08
    },
    {
      "text": "Of course, the eyes of the world are on Greece\nand the European Union, but China's economy",
      "start": 188.86,
      "duration": 6.31
    },
    {
      "text": "is imploding. This is going to have massive\neffects on North American housing markets.",
      "start": 195.17,
      "duration": 6.06
    },
    {
      "text": "The Chinese have this cap: legally, you're\nonly allowed to take $50,000 (or its equivalent)",
      "start": 201.23,
      "duration": 4.99
    },
    {
      "text": "out of the country every year, but they get\na bunch of friends to wire $50K apiece to",
      "start": 206.22,
      "duration": 6.099
    },
    {
      "text": "a bank in Hong Kong, and then they can use\nthat money to buy very expensive homes in",
      "start": 212.319,
      "duration": 3.7
    },
    {
      "text": "the U.S. and in Canada. The Chinese buyers\nare the biggest foreign purchasers of United",
      "start": 216.019,
      "duration": 6.011
    },
    {
      "text": "States real estate, both by sales and dollar\nvolume; it's almost $30 billion of real estate",
      "start": 222.03,
      "duration": 7.55
    },
    {
      "text": "snapped up by the Chinese over the last year.\nThat's a quarter of all the international",
      "start": 229.58,
      "duration": 3.96
    },
    {
      "text": "spending on real estate in America.",
      "start": 233.54,
      "duration": 3.51
    },
    {
      "text": "Chinese home buyers paid cash for almost 70%\nof their purchases recently; they generally",
      "start": 237.05,
      "duration": 6.63
    },
    {
      "text": "are buying more expensive properties. Canadians\nare spending about $200K, but the Chinese",
      "start": 243.68,
      "duration": 6.419
    },
    {
      "text": "are spending $831,000. Of course, when you\nbring a bunch of cash to a bank, it's great,",
      "start": 250.099,
      "duration": 5.191
    },
    {
      "text": "because it doesn't get trickled in over 20\nyears or 15 years or 25 years; it is quite",
      "start": 255.29,
      "duration": 5.419
    },
    {
      "text": "a boost for the bank. It allows the bank to\nlend a lot more because it's got cash, rather",
      "start": 260.709,
      "duration": 4.001
    },
    {
      "text": "than a trickle-in situation. So you've got\nthis massive stimulation of housing, particularly",
      "start": 264.71,
      "duration": 6.35
    },
    {
      "text": "in Canada, in Vancouver, and in America on\nthe west coast (to be close to Asia, and because",
      "start": 271.06,
      "duration": 5.81
    },
    {
      "text": "of the tech bubble). It's crazy stuff, it's\ncrazy stuff. When this money dries up, as",
      "start": 276.87,
      "duration": 8.51
    },
    {
      "text": "it is likely to do, then there's going to\nbe a crash in the housing market, particularly",
      "start": 285.38,
      "duration": 4.34
    },
    {
      "text": "on the west coasts.",
      "start": 289.72,
      "duration": 1.74
    },
    {
      "text": "There are financial institutions -- the same\nfinancial institutions that made a fortune",
      "start": 291.46,
      "duration": 6.16
    },
    {
      "text": "shorting the U.S. housing market in 2008 are\nnow doing the same thing in Canada, likely",
      "start": 297.62,
      "duration": 5.46
    },
    {
      "text": "because they anticipate a reduction in the\ndemand from Chinese people for Canadian and",
      "start": 303.08,
      "duration": 6.67
    },
    {
      "text": "American housing, which will cause another\ncrash.",
      "start": 309.75,
      "duration": 4.59
    },
    {
      "text": "Let's have a look at this: compared since\nJune 12, 2015. Total Greek debt: $350 billion,",
      "start": 314.34,
      "duration": 8.57
    },
    {
      "text": "and that of course is causing massive paroxysms\nin the European Union; $350 billion of Greek",
      "start": 322.91,
      "duration": 6.979
    },
    {
      "text": "debt. China's losses: $3.2 trillion-plus,\ndwarfing it enormously. This is where we need",
      "start": 329.889,
      "duration": 5.931
    },
    {
      "text": "to focus our attention.",
      "start": 335.82,
      "duration": 4.409
    },
    {
      "text": "What is the Chinese government doing? Well,\nif you are an evil person in charge of a hospital,",
      "start": 340.229,
      "duration": 6.651
    },
    {
      "text": "and you're running out of money, and you shift\nall of your resources into the terminally",
      "start": 346.88,
      "duration": 4.66
    },
    {
      "text": "ill ward to keep people alive on tubes, and\nyou take all of your money out of the maternity",
      "start": 351.54,
      "duration": 6.23
    },
    {
      "text": "ward and all of the children die, that is\nwhat's happening in China. The Chinese government",
      "start": 357.77,
      "duration": 6.66
    },
    {
      "text": "and what are nominally called private companies\ntake actions to combat the popping of this",
      "start": 364.43,
      "duration": 4.93
    },
    {
      "text": "massive Chinese stock market bubble.",
      "start": 369.36,
      "duration": 2.45
    },
    {
      "text": "More than 1300 companies have announced trading\nhalts on the Shanghai and Shenzhen exchanges;",
      "start": 371.81,
      "duration": 6.49
    },
    {
      "text": "45% of the market, or about $2.6 trillion\nworth of stock has been completely frozen.",
      "start": 378.3,
      "duration": 6.869
    },
    {
      "text": "The prices can't fall, as the shares can no\nlonger be bought or sold. Price signals are",
      "start": 385.169,
      "duration": 4.831
    },
    {
      "text": "absolutely, completely and totally essential\nin a free market, and the degree to which",
      "start": 390,
      "duration": 4.419
    },
    {
      "text": "government agencies interfere with the price\nsignal is the degree to which they take a",
      "start": 394.419,
      "duration": 4.06
    },
    {
      "text": "wrecking ball to the delicate ice structures\nof economic decisions. It's unbelievably brutal",
      "start": 398.479,
      "duration": 5.621
    },
    {
      "text": "what happens.",
      "start": 404.1,
      "duration": 1.37
    },
    {
      "text": "When a stock market is correcting, it means\nthere's been a malinvestment, or a series",
      "start": 405.47,
      "duration": 4.599
    },
    {
      "text": "of malinvestments. You haven’t invested\nin what the consumers actually want. So you",
      "start": 410.069,
      "duration": 4.561
    },
    {
      "text": "need to change — you know, if you have a\nrestaurant and nobody wants to eat what’s",
      "start": 414.63,
      "duration": 3.56
    },
    {
      "text": "on your menu, you change the menu. But if\npeople are forced to eat there, you just keep",
      "start": 418.19,
      "duration": 3.66
    },
    {
      "text": "serving up the same Soviet slop over and over\nagain. So it’s really, really important",
      "start": 421.85,
      "duration": 4.7
    },
    {
      "text": "there are price signals in these kinds of\nsituations. When governments shut down price",
      "start": 426.55,
      "duration": 4.01
    },
    {
      "text": "signals, which is basically what they’re\ndoing here, freezing the stock trades — what’s",
      "start": 430.56,
      "duration": 4.56
    },
    {
      "text": "happening is, you’re landing a giant airplane\nin a particularly bad windstorm and your best",
      "start": 435.12,
      "duration": 6.99
    },
    {
      "text": "advice, your best solution is, “hey, first,\nturn off the instruments; second, blindfold",
      "start": 442.11,
      "duration": 5.48
    },
    {
      "text": "me, because that’s gonna be great! Get rid\nof all the signals that i need to land the",
      "start": 447.59,
      "duration": 4.18
    },
    {
      "text": "plane well.” That’s what’s happening\nwith these price controls.",
      "start": 451.77,
      "duration": 2.85
    },
    {
      "text": "Various brokerages and funds have announced\nplans to buy massive amounts of stocks, essentially",
      "start": 454.62,
      "duration": 5.56
    },
    {
      "text": "funded by China’s state-backed margin finance\ncompany, which was given “a direct line",
      "start": 460.18,
      "duration": 5.31
    },
    {
      "text": "of liquidity from the central bank.” So\nthe central bank, just as happened in China",
      "start": 465.49,
      "duration": 3.97
    },
    {
      "text": "in the 1990s, producing I think what is the\nlast two decades and a lot of young people",
      "start": 469.46,
      "duration": 6.4
    },
    {
      "text": "who don’t want to have sex. It’s called\nthe “lost decade”: it’s the zombie economy",
      "start": 475.86,
      "duration": 4.41
    },
    {
      "text": "where you’re propping up failed institutions\nat the expense of anything new being created.",
      "start": 480.27,
      "duration": 4.78
    },
    {
      "text": "So the central bank is giving money to the\nmargin finance company, which is making people,",
      "start": 485.05,
      "duration": 7.76
    },
    {
      "text": "or giving people the opportunity to buy stocks\nextra cheap in an attempt to prop up the price.",
      "start": 492.81,
      "duration": 5.16
    },
    {
      "text": "China’s central bank created more money\nout of thin air, gave it to people to buy",
      "start": 497.97,
      "duration": 4.02
    },
    {
      "text": "stocks to prop up their economy on paper,\nwhich devalues everything in the economy.",
      "start": 501.99,
      "duration": 4.89
    },
    {
      "text": "The same mistakes are being made over and\nover. The parallels between what’s happening",
      "start": 506.88,
      "duration": 7.079
    },
    {
      "text": "in China now and what happened in America\nin the lead-up and the follow-up to the 1929",
      "start": 513.959,
      "duration": 5.01
    },
    {
      "text": "crash — which produced 13 years of staggering\n25% unemployment, depression culminating in",
      "start": 518.969,
      "duration": 7.99
    },
    {
      "text": "a giant, 40-million-soul-eating World War\n— the parallels are eerie.",
      "start": 526.959,
      "duration": 6.511
    },
    {
      "text": "You’ve probably never heard that there was\nan even worse market crash in 1920-1921, in",
      "start": 533.47,
      "duration": 5.599
    },
    {
      "text": "America after the first World War. It was\nworse than the 1929 crash; why have you never",
      "start": 539.069,
      "duration": 4.42
    },
    {
      "text": "heard of it? Because the president at the\ntime simply lowered tax rates enormously,",
      "start": 543.489,
      "duration": 7.26
    },
    {
      "text": "like threefold, and did not interfere in the\nmarket, and the crash was largely resolved",
      "start": 550.749,
      "duration": 4.27
    },
    {
      "text": "in 12 to 16 months. You’ve never heard of\nit because it did not lead to this massive",
      "start": 555.019,
      "duration": 5.17
    },
    {
      "text": "depression, which led to a world war, because\nthe government stayed out of it. Well the",
      "start": 560.189,
      "duration": 3.24
    },
    {
      "text": "government is not staying out of this, which\nmeans it’s going to get worse until we learn",
      "start": 563.429,
      "duration": 3.21
    },
    {
      "text": "the lesson that there is no substitute for\nliberty.",
      "start": 566.639,
      "duration": 3.82
    },
    {
      "text": "Twenty-eight companies have halted their IPOs,\ntheir initial public offerings, in separate",
      "start": 570.459,
      "duration": 5.54
    },
    {
      "text": "but similarly worded statements attacking\nauthorities that previously used to control",
      "start": 575.999,
      "duration": 4.58
    },
    {
      "text": "markets. Because if you offer an IPO and it\ncomes in really undervalued, that’s scary",
      "start": 580.579,
      "duration": 6.471
    },
    {
      "text": "to investors, so you you just keep people\nout of the market, to keep that price mechanism",
      "start": 587.05,
      "duration": 4.519
    },
    {
      "text": "that would be revealed through IPOs away from\ninvestors.",
      "start": 591.569,
      "duration": 5.68
    },
    {
      "text": "The China Securities Regulatory Commission\n(CSRC) took the drastic step of banning shareholders",
      "start": 597.249,
      "duration": 6.21
    },
    {
      "text": "with stakes of more than 5% from selling shares\nfor the next six months, and said that any",
      "start": 603.459,
      "duration": 5.06
    },
    {
      "text": "shareholders who violated this rule would\nbe dealt with severely. Of course, how on",
      "start": 608.519,
      "duration": 5.23
    },
    {
      "text": "earth would you prove all of this in a court\nof law — oh, right, it’s China. That doesn’t",
      "start": 613.749,
      "duration": 4.52
    },
    {
      "text": "really matter. So basically they’ve reached\nin with the bloody tentacle arms of the state,",
      "start": 618.269,
      "duration": 4.87
    },
    {
      "text": "wrapped itself around people’s private property\nand forbade them from trading; something my",
      "start": 623.139,
      "duration": 4.79
    },
    {
      "text": "six-year-old daughter would never allow in\na Monopoly game, but somehow is allowed in",
      "start": 627.929,
      "duration": 3.57
    },
    {
      "text": "the second-largest economy in the entire planet.",
      "start": 631.499,
      "duration": 3.4
    },
    {
      "text": "China’s stock regulators also noted that\nthey would look into possible market manipulation",
      "start": 634.899,
      "duration": 5.021
    },
    {
      "text": "by evil forces — I think that’s your central\nbank, people! — they’re gonna look into",
      "start": 639.92,
      "duration": 5.359
    },
    {
      "text": "possible market manipulation by evil forces\naiming to damage the economy, even naming",
      "start": 645.279,
      "duration": 4.75
    },
    {
      "text": "Morgan Stanley as one of the many potential\ninvestment predators. See, you’ve got this",
      "start": 650.029,
      "duration": 4.98
    },
    {
      "text": "giant predator called the state, which is\na shark, and then you have these little fish",
      "start": 655.009,
      "duration": 4.971
    },
    {
      "text": "that hang around the shark’s jaws and pick\nup the scraps. These are the investment companies.",
      "start": 659.98,
      "duration": 4.319
    },
    {
      "text": "The idea that the investment companies are\nin charge, but the government has all the",
      "start": 664.299,
      "duration": 3.89
    },
    {
      "text": "guns, is kind of ridiculous.",
      "start": 668.189,
      "duration": 3.2
    },
    {
      "text": "Morgan Stanley downgraded the Chinese market\nin May, for the first time in over seven years,",
      "start": 671.389,
      "duration": 5.151
    },
    {
      "text": "noting “It is probably fair to say that\nwe are known in the market for being bullish",
      "start": 676.54,
      "duration": 4.039
    },
    {
      "text": "China — some might say perma bulls — so\nfor us this is a big call.\" See, the problem",
      "start": 680.579,
      "duration": 8.401
    },
    {
      "text": "is not the illness, but the diagnosis. You\nwouldn't be ill if the doctor didn't say you",
      "start": 688.98,
      "duration": 4.63
    },
    {
      "text": "were ill, because magic! China's regulators\ncalled the forecast a malicious remark, carelessly,",
      "start": 693.61,
      "duration": 7.75
    },
    {
      "text": "or actions which were harboring ulterior motives.\nThe problem is not that the central bank is",
      "start": 701.36,
      "duration": 5.149
    },
    {
      "text": "entirely in control of the money supply and\nthe interest rates, and that there's massive",
      "start": 706.509,
      "duration": 4.25
    },
    {
      "text": "amounts of corruption in China; that's not\nthe problem. The problem is that somebody",
      "start": 710.759,
      "duration": 4.23
    },
    {
      "text": "says that may have an effect on the economy.",
      "start": 714.989,
      "duration": 4.69
    },
    {
      "text": "Noted China policy research analyst Oliver\nBarron (great name) said: \"after the market",
      "start": 719.679,
      "duration": 5.9
    },
    {
      "text": "continued to fall despite myriad support measures,\nthe government reached peak panic mode and",
      "start": 725.579,
      "duration": 4.19
    },
    {
      "text": "must have worried that investors would not\nonly lose confidence in the markets, but in",
      "start": 729.769,
      "duration": 3.74
    },
    {
      "text": "the government itself.” You see, this is\nthe kind of economic cataclysm that can lead",
      "start": 733.509,
      "duration": 6.63
    },
    {
      "text": "to — to put it as nicely as possible — significant\nsocial unrest and discontent. They’re not",
      "start": 740.139,
      "duration": 7.05
    },
    {
      "text": "just fighting for their political careers,\nthese people may in fact at the top be fighting",
      "start": 747.189,
      "duration": 5.38
    },
    {
      "text": "for their very existence. When approached\nby a reporter, an unnamed Chinese citizen",
      "start": 752.569,
      "duration": 6.031
    },
    {
      "text": "noted: “we can’t talk to foreign reporters\nabout this topic — it’s way too sensitive…they’re",
      "start": 758.6,
      "duration": 5.409
    },
    {
      "text": "going to arrest me for doing that.” So,\nit’s a good thing they got rid of their",
      "start": 764.009,
      "duration": 5.35
    },
    {
      "text": "totalitarian regime in the 1990s, right?",
      "start": 769.359,
      "duration": 2.741
    },
    {
      "text": "So let’s look at the interest rate: one\nyear lending, as you can see, 1996, 11%; pretty",
      "start": 772.1,
      "duration": 6.289
    },
    {
      "text": "pricey to borrow money, and that’s because\nwhen the government isn’t creating Monopoly",
      "start": 778.389,
      "duration": 4.54
    },
    {
      "text": "money out of its ass, then you actually have\nto bid with other people to get resources,",
      "start": 782.929,
      "duration": 4.37
    },
    {
      "text": "and those who can bid the most get those resources.\nThose who are willing to pay 11% rather than",
      "start": 787.299,
      "duration": 4.06
    },
    {
      "text": "10% or 9% get those resources. In a free market,\nthe resources generally flow to those who",
      "start": 791.359,
      "duration": 5.621
    },
    {
      "text": "can make maximum use out of those resources\nto increase the wealth, security and stability",
      "start": 796.98,
      "duration": 4.719
    },
    {
      "text": "of society. Kind of important. But when the\ngovernment starts creating money out of nothing,",
      "start": 801.699,
      "duration": 6
    },
    {
      "text": "then of course people bid up, the price of\nmoney goes down.",
      "start": 807.699,
      "duration": 7.51
    },
    {
      "text": "So they’re crushing down these interest\nrates, and you can see this happening quite",
      "start": 815.209,
      "duration": 6.46
    },
    {
      "text": "regularly. In China the interest rates are\nset by the People’s Bank of China Monetary",
      "start": 821.669,
      "duration": 3.931
    },
    {
      "text": "Policy Committee. Thoroughly unenvisioned\nby Karl Marx. This artificial decree as to",
      "start": 825.6,
      "duration": 4.56
    },
    {
      "text": "the price of borrowing and lending money creates\nartificial signals to the market, creates",
      "start": 830.16,
      "duration": 3.949
    },
    {
      "text": "bubbles, distorts indicators for business\nas we talked about before.",
      "start": 834.109,
      "duration": 4.44
    },
    {
      "text": "Shanghai’s stock exchange composite index:\nlet’s look at how the interest rate cuts",
      "start": 838.549,
      "duration": 5.15
    },
    {
      "text": "have affected this. Now one thing that’s\nalso happened is the Chinese market over the",
      "start": 843.699,
      "duration": 4.01
    },
    {
      "text": "last year for housing has largely collapsed\nas well. This is why we have these ghost cities",
      "start": 847.709,
      "duration": 6.07
    },
    {
      "text": "out there, because there was too much overbuilding.\nIn order to stimulate GDP -- in the same way",
      "start": 853.779,
      "duration": 5.34
    },
    {
      "text": "that a stockbroker wants to stimulate happiness\nwith cocaine -- the government creates all",
      "start": 859.119,
      "duration": 4.791
    },
    {
      "text": "of these mega-projects; it loves being able\nto hand out all of this money to its political",
      "start": 863.91,
      "duration": 3.669
    },
    {
      "text": "cronies.",
      "start": 867.579,
      "duration": 1.271
    },
    {
      "text": "And so the housing market collapsed and since\nhuge amount of Chinese wealth is stored up",
      "start": 868.85,
      "duration": 5.859
    },
    {
      "text": "in real estate, they had to flee not only\nthe low interest rates, which means you're",
      "start": 874.709,
      "duration": 4.62
    },
    {
      "text": "not getting any money out of your bank account,\nbut also if you're losing money on your house",
      "start": 879.329,
      "duration": 3.86
    },
    {
      "text": "you've got to go and get your money somewhere,\nyou're hiding from the central banks constant",
      "start": 883.189,
      "duration": 3.62
    },
    {
      "text": "manipulations and distortions in the market.\nSo you go to the stock market, particularly",
      "start": 886.809,
      "duration": 4.32
    },
    {
      "text": "if the government's giving you virtually free\nmoney to invest with.",
      "start": 891.129,
      "duration": 3.07
    },
    {
      "text": "November 1, 2014: look, they cut the interest\nrate. and look, the stock market went crazy.",
      "start": 894.199,
      "duration": 7.01
    },
    {
      "text": "March 1, 2015: they cut the interest rate\nagain, oh look, the stock market went crazy.",
      "start": 901.209,
      "duration": 5.511
    },
    {
      "text": "Oh, it began to dip a little, so they cut\nthe interest rates again, and the stock market",
      "start": 906.72,
      "duration": 5.079
    },
    {
      "text": "went crazy. So this is not so much a crash\nas it is a correction; it should be going",
      "start": 911.799,
      "duration": 6.2
    },
    {
      "text": "back to where it was before, at least, growing\nmore gradually. You want growth like puberty,",
      "start": 917.999,
      "duration": 6.08
    },
    {
      "text": "not growth like cancer. This sort of looks\nlike a topographic map or a side-view map",
      "start": 924.079,
      "duration": 5.021
    },
    {
      "text": "of Mount Everest; this is where all the people\ndied climbing it. Frozen bodies of Chinese",
      "start": 929.1,
      "duration": 6.359
    },
    {
      "text": "investors that you can trip over on your way\nto an illusory peak.",
      "start": 935.459,
      "duration": 4.56
    },
    {
      "text": "M2 money supply: ah, I know it sounds dull,\nit’s actually quite important. So, M1 is",
      "start": 940.019,
      "duration": 6.16
    },
    {
      "text": "just basically cash, but M2 is a measure of\nmoney supply that includes cash but also checking",
      "start": 946.179,
      "duration": 4.24
    },
    {
      "text": "deposits, saving deposits, money market mutual\nfunds, and other timed deposits, like you",
      "start": 950.419,
      "duration": 4.81
    },
    {
      "text": "say to the bank, “I’ll give you money,\nI won’t withdraw it for 30 days,” and",
      "start": 955.229,
      "duration": 4.26
    },
    {
      "text": "the bank has a little more flexibility on\nwhat they can do with it, so they’ll give",
      "start": 959.489,
      "duration": 2.64
    },
    {
      "text": "you a bit more interest on that. So stuff\nwhich is not as liquid as pure cash — but",
      "start": 962.129,
      "duration": 5.2
    },
    {
      "text": "nothing’s as liquid as bitcoin — not as\nliquid as pure cash, but not as restricted",
      "start": 967.329,
      "duration": 4.51
    },
    {
      "text": "as other. Less liquid, not as suitable for\nexchange mediums, can be quickly converted",
      "start": 971.839,
      "duration": 4.98
    },
    {
      "text": "into cash or checking deposits.",
      "start": 976.819,
      "duration": 2.95
    },
    {
      "text": "Changes in interest rates have a direct effect\non M2. So if you create a bunch of money,",
      "start": 979.769,
      "duration": 4.76
    },
    {
      "text": "then you of course expand M2. It’s one of\nthe desired effects of central banks, they",
      "start": 984.529,
      "duration": 6.67
    },
    {
      "text": "decide to adjust interest rates, they like\nto adjust this M2. These are the levers used",
      "start": 991.199,
      "duration": 4.24
    },
    {
      "text": "by central bankers to change overall money\nsupply. So what is the money supply in China?",
      "start": 995.439,
      "duration": 8.17
    },
    {
      "text": "Since 1996, as you can see, it was hovering\naround $5 trillion or $6 trillion, and now",
      "start": 1003.609,
      "duration": 7.44
    },
    {
      "text": "it’s pushing $130 trillion. So that’s\nquite a lot. And of course, some of that is",
      "start": 1011.049,
      "duration": 7.28
    },
    {
      "text": "legitimate growth through the expansion of\ntheir economy, but a lot of that of course",
      "start": 1018.329,
      "duration": 4.91
    },
    {
      "text": "is the kind of blow off a hooker’s ass that\npasses for financial growth these days. As",
      "start": 1023.239,
      "duration": 7.241
    },
    {
      "text": "the interest rate keeps crashing down, as\nyou can see, the money supply goes through",
      "start": 1030.48,
      "duration": 4.189
    },
    {
      "text": "the roof. And this creates all the distortions\nthat are currently causing such paroxysms",
      "start": 1034.669,
      "duration": 3.64
    },
    {
      "text": "in the Chinese market.",
      "start": 1038.309,
      "duration": 3.74
    },
    {
      "text": "Government spending, in billions: in 1994,\nthey had a relatively small government, and",
      "start": 1042.049,
      "duration": 6.791
    },
    {
      "text": "now the government spending is going through\nthe roof. This is part of the corruptions,",
      "start": 1048.84,
      "duration": 4.48
    },
    {
      "text": "this is part of the misallocation of resources,\nthe environmental depredation and destruction",
      "start": 1053.32,
      "duration": 5.109
    },
    {
      "text": "that is occurring, and believe it or not,\npeople might still call this capitalism or",
      "start": 1058.429,
      "duration": 7.791
    },
    {
      "text": "a free market; it's not.",
      "start": 1066.22,
      "duration": 6.209
    },
    {
      "text": "The Chinese economy and the American economy\nhave wild, disproportionate -- and of course",
      "start": 1072.429,
      "duration": 3.88
    },
    {
      "text": "there's big changes in population. China has\nnearly $4 trillion in foreign reserves; the",
      "start": 1076.309,
      "duration": 6.62
    },
    {
      "text": "U.S. only has $121 billion. As I mentioned,\nChinese citizens have $21 trillion saved;",
      "start": 1082.929,
      "duration": 7.48
    },
    {
      "text": "Americans only have $614 billion. So it's\na huge mismatch, and this is why what happens",
      "start": 1090.409,
      "duration": 6.89
    },
    {
      "text": "in China has ripple effects on the world economy.\nAnd heaven forbid that China needs to start",
      "start": 1097.299,
      "duration": 5.081
    },
    {
      "text": "selling its U.S. treasury bonds in order to\ncover any holes that it has in its income",
      "start": 1102.38,
      "duration": 4.96
    },
    {
      "text": "-- that will cause a huge dislocation.",
      "start": 1107.34,
      "duration": 4.1
    },
    {
      "text": "So in June, the personnel data of current,\nformer and prospective U.S. federal government",
      "start": 1111.44,
      "duration": 4.579
    },
    {
      "text": "employees, including those applying for security\nclearances, was compromised. This is a huge",
      "start": 1116.019,
      "duration": 5.301
    },
    {
      "text": "story which is related, potentially, to what's\ngoing on in China. As many as 18 million Americans",
      "start": 1121.32,
      "duration": 6.989
    },
    {
      "text": "in total could have been impacted in the hack,\nincluding many working in intelligence-related",
      "start": 1128.309,
      "duration": 4.131
    },
    {
      "text": "operations. China has been named as the top\nsuspect in the attack. Matthew Olsen, a former",
      "start": 1132.44,
      "duration": 6.13
    },
    {
      "text": "National Security Agency general counsel,\nsaid the breach is \"truly significant.\" \"The",
      "start": 1138.57,
      "duration": 4.579
    },
    {
      "text": "data can be used in many different ways to\ntarget people, 'whether it’s blackmail,",
      "start": 1143.149,
      "duration": 3.64
    },
    {
      "text": "to recruit, to punish individuals in China\nwho are connected to people in the United",
      "start": 1146.789,
      "duration": 3.75
    },
    {
      "text": "States.'\" What this means is the multi-trillion-dollar\ninvestment, since the Cold War, that the U.S.",
      "start": 1150.539,
      "duration": 4.551
    },
    {
      "text": "has built up in its intelligence operations\nhas, in my opinion, been rendered largely",
      "start": 1155.09,
      "duration": 4.559
    },
    {
      "text": "useless, because so much sensitive information,\npeople's drinking habits, their problems,",
      "start": 1159.649,
      "duration": 5.49
    },
    {
      "text": "their criminal records, their sexual fetishes,\nyou name it -- everything that has been gathered",
      "start": 1165.139,
      "duration": 5.12
    },
    {
      "text": "about people in the U.S. government, particularly\nthose with security clearances, can be used",
      "start": 1170.259,
      "duration": 4.42
    },
    {
      "text": "to bribe, to blackmail, to know their weak\nspots, which means that your intelligence",
      "start": 1174.679,
      "duration": 5.531
    },
    {
      "text": "operations are now largely useless and can\nbe counterproductive. This is a huge sea change",
      "start": 1180.21,
      "duration": 8.15
    },
    {
      "text": "in the flow of information around the world.",
      "start": 1188.36,
      "duration": 2.37
    },
    {
      "text": "Now, on Wednesday, the New York Stock Exchange,\nUnited Airlines and The Wall Street Journal",
      "start": 1190.73,
      "duration": 4.279
    },
    {
      "text": "were all impacted by massive technical glitches\nwithin several hours. China has talked about",
      "start": 1195.009,
      "duration": 6.14
    },
    {
      "text": "the fact that evil Americans may be manipulating\ntheir stock market and I'm sure vengeance",
      "start": 1201.149,
      "duration": 5.971
    },
    {
      "text": "is part of the equation. New York Stock Exchange\nhalted all trading at 11:32am, only reopened",
      "start": 1207.12,
      "duration": 5.7
    },
    {
      "text": "at 3:10pm, the longest trading halt since\nHurricane Sandy hit the east coast in 2012.",
      "start": 1212.82,
      "duration": 5.54
    },
    {
      "text": "Is that a coincidence? Could it be retaliation?\nIt certainly could be. Could it escalate from",
      "start": 1218.36,
      "duration": 3.83
    },
    {
      "text": "here? Time will tell.",
      "start": 1222.19,
      "duration": 3.439
    },
    {
      "text": "The parallels with the Wall Street Crash of\n1929 in the U.S. are unbelievable, truly remarkable.",
      "start": 1225.629,
      "duration": 6.63
    },
    {
      "text": "So after more than a decade of frantic growth,\nextraordinary wealth creation and excess,",
      "start": 1232.259,
      "duration": 4.311
    },
    {
      "text": "both economies — the U.S. in 1929 and China\ntoday — are at roughly similar stages in",
      "start": 1236.57,
      "duration": 4.62
    },
    {
      "text": "their economic life cycle. Both booms are\neasily explained by the monetary policy of",
      "start": 1241.19,
      "duration": 4.63
    },
    {
      "text": "their respective central banks, and the subsequent\nincrease in the availability of cheap money",
      "start": 1245.82,
      "duration": 4.959
    },
    {
      "text": "through credit. This is very important. Even\nBernanke has admitted that the 1929 boom and",
      "start": 1250.779,
      "duration": 5.88
    },
    {
      "text": "crash was the result of Federal Reserve monetary\npolicy; it’s a war crime against the economic",
      "start": 1256.659,
      "duration": 6.941
    },
    {
      "text": "life of the planet.",
      "start": 1263.6,
      "duration": 1.669
    },
    {
      "text": "So, let’s give tons of people tons of money\nto borrow, and encourage high-stakes margin",
      "start": 1265.269,
      "duration": 6
    },
    {
      "text": "investment, because when you have a progressive\nincome tax, the more wealth you can stuff",
      "start": 1271.269,
      "duration": 4.24
    },
    {
      "text": "into people’s wallets, the more wealth you\ncan steal from people’s wallets, and use",
      "start": 1275.509,
      "duration": 3.66
    },
    {
      "text": "it to buy votes in the here and now, and bribe\nall the usual suspects in your unquenchable",
      "start": 1279.169,
      "duration": 5.161
    },
    {
      "text": "thirst for the Boromir-style ring of power.\nSo you create all these bubbles in the market;",
      "start": 1284.33,
      "duration": 6.79
    },
    {
      "text": "the Chinese stock market bubble, which was\nalready large, had more than doubled in the",
      "start": 1291.12,
      "duration": 3.299
    },
    {
      "text": "past year despite, as we mentioned, slower\ngrowth and lower profits. The Wall Street",
      "start": 1294.419,
      "duration": 5.521
    },
    {
      "text": "crash of 1929 led to the Great Depression\nin the United States, which wrecked the economy",
      "start": 1299.94,
      "duration": 5.02
    },
    {
      "text": "as a whole. It led to the crash in Germany\nthat produced the Great Depression which produced",
      "start": 1304.96,
      "duration": 8.309
    },
    {
      "text": "Adolph Hitler. So, yeah, lots of problems\nwhen you destroy the middle class and the",
      "start": 1313.269,
      "duration": 4.86
    },
    {
      "text": "most productive people in society retreat\nGalt-style in bitterness and futility.",
      "start": 1318.129,
      "duration": 5.13
    },
    {
      "text": "So what is this going to mean for China and\nthe world’s overall economic system? Well,",
      "start": 1323.259,
      "duration": 6.191
    },
    {
      "text": "as classical liberals, as Austrian economists,\nas idiot pundits like myself have been saying",
      "start": 1329.45,
      "duration": 5.9
    },
    {
      "text": "literally for decades: you cannot sustain\nmoney, you cannot sustain an economy on fiat",
      "start": 1335.35,
      "duration": 6.6
    },
    {
      "text": "currency. You simply can’t. All you can\ndo is create massively escalating bubbles",
      "start": 1341.95,
      "duration": 3.79
    },
    {
      "text": "that are going to cause more and more problems.\nThe world economy, of course — still reeling",
      "start": 1345.74,
      "duration": 5.09
    },
    {
      "text": "and trying to survive the housing crash and\nsubsequent financial crash in the U.S. that",
      "start": 1350.83,
      "duration": 4.28
    },
    {
      "text": "spread worldwide in 2008 — is not in the\nsame position. It does not have any reserves",
      "start": 1355.11,
      "duration": 5.58
    },
    {
      "text": "left to attempt to stimulate economic growth,\nhowever artificial that may be. The world",
      "start": 1360.69,
      "duration": 5.469
    },
    {
      "text": "is in an exhausted state, it is down on its\nknees. One more kick might bring us freedom",
      "start": 1366.159,
      "duration": 5.921
    },
    {
      "text": "from these predatory banksters, these central\nbanks, these unbelievable, hideous leeches",
      "start": 1372.08,
      "duration": 6.679
    },
    {
      "text": "and their propaganda merchants known as the\nmainstream media. We might finally get the",
      "start": 1378.759,
      "duration": 4.241
    },
    {
      "text": "tentacles of illusory finance free from human\npotential. I, for one, can’t wait.",
      "start": 1383,
      "duration": 6.059
    }
  ],
  "Errors": null,
  "TranscriptStderr": null
}