{
  "Title": "How Women Can Save Western Civilization",
  "Id": "zXD4LKNnRIg",
  "Transcript": [
    {
      "text": "so how do we save Western civilization",
      "start": 0.06,
      "duration": 5.1
    },
    {
      "text": "you may think it's a massive Titanic",
      "start": 2.28,
      "duration": 5.519
    },
    {
      "text": "task it's really not it's really all we",
      "start": 5.16,
      "duration": 4.83
    },
    {
      "text": "need is this quarter this with this",
      "start": 7.799,
      "duration": 4.26
    },
    {
      "text": "quarter with this quarter in my hand we",
      "start": 9.99,
      "duration": 4.559
    },
    {
      "text": "can save Western civilization and it",
      "start": 12.059,
      "duration": 3.481
    },
    {
      "text": "doesn't really have to be a quarter",
      "start": 14.549,
      "duration": 2.31
    },
    {
      "text": "could be any coin but the quarter will",
      "start": 15.54,
      "duration": 4.11
    },
    {
      "text": "do and the quarter is designed for the",
      "start": 16.859,
      "duration": 5.221
    },
    {
      "text": "ladies you know ladies that that guy",
      "start": 19.65,
      "duration": 5.19
    },
    {
      "text": "comes along not particularly employed",
      "start": 22.08,
      "duration": 4.41
    },
    {
      "text": "you know you ask him do you have a job",
      "start": 24.84,
      "duration": 5.13
    },
    {
      "text": "he's like hey man I'm a seeker and not",
      "start": 26.49,
      "duration": 6.36
    },
    {
      "text": "particularly stable but he's sexy he's",
      "start": 29.97,
      "duration": 4.44
    },
    {
      "text": "kind of swarthy maybe you got a nap or",
      "start": 32.85,
      "duration": 4.95
    },
    {
      "text": "two and you know he'd be great in the",
      "start": 34.41,
      "duration": 5.579
    },
    {
      "text": "sack and he'd be a high-status piece of",
      "start": 37.8,
      "duration": 3.99
    },
    {
      "text": "arm candy for you to impress other",
      "start": 39.989,
      "duration": 3.181
    },
    {
      "text": "people with you know this Dudley stud",
      "start": 41.79,
      "duration": 2.55
    },
    {
      "text": "muffin or whatever the hell his name's",
      "start": 43.17,
      "duration": 3.09
    },
    {
      "text": "Lance is a very common name for these",
      "start": 44.34,
      "duration": 4.11
    },
    {
      "text": "kinds of guys so you know he's gonna be",
      "start": 46.26,
      "duration": 4.86
    },
    {
      "text": "great in the sack and you also know that",
      "start": 48.45,
      "duration": 4.62
    },
    {
      "text": "he won't stick around he's not gonna be",
      "start": 51.12,
      "duration": 3.27
    },
    {
      "text": "reliable he's not gonna be a good",
      "start": 53.07,
      "duration": 3.059
    },
    {
      "text": "provider and if you get knocked up well",
      "start": 54.39,
      "duration": 2.669
    },
    {
      "text": "you're gonna have to start trailing",
      "start": 56.129,
      "duration": 2.07
    },
    {
      "text": "after the rest of us who are more",
      "start": 57.059,
      "duration": 3.961
    },
    {
      "text": "responsible so that we can pay for your",
      "start": 58.199,
      "duration": 7.071
    },
    {
      "text": "child or children or brood or village so",
      "start": 61.02,
      "duration": 6.75
    },
    {
      "text": "how do you save Western civilization",
      "start": 65.27,
      "duration": 5.05
    },
    {
      "text": "it only takes a quarter only costs a",
      "start": 67.77,
      "duration": 4.11
    },
    {
      "text": "quarter and and here's what you do",
      "start": 70.32,
      "duration": 4.14
    },
    {
      "text": "see ladies get a quarter when Dudley",
      "start": 71.88,
      "duration": 4.77
    },
    {
      "text": "mixed up muffin comes along wants to",
      "start": 74.46,
      "duration": 4.229
    },
    {
      "text": "bang you six ways senseless up against",
      "start": 76.65,
      "duration": 4.38
    },
    {
      "text": "the wall here's what you do you take the",
      "start": 78.689,
      "duration": 4.141
    },
    {
      "text": "quarter you put it between your knees",
      "start": 81.03,
      "duration": 5.15
    },
    {
      "text": "and you keep it there",
      "start": 82.83,
      "duration": 3.35
    }
  ],
  "Errors": null,
  "TranscriptStderr": null
}